[
  {
    "dt": "2022.07.01 00:00",
    "o": 1.10483,
    "h": 1.1064,
    "l": 1.10431,
    "c": 1.10516,
    "v": 239
  },
  {
    "dt": "2022.07.01 01:00",
    "o": 1.10505,
    "h": 1.10627,
    "l": 1.10505,
    "c": 1.10601,
    "v": 1669
  },
  {
    "dt": "2022.07.01 02:00",
    "o": 1.10599,
    "h": 1.10628,
    "l": 1.10506,
    "c": 1.10537,
    "v": 1785
  },
  {
    "dt": "2022.07.01 03:00",
    "o": 1.10551,
    "h": 1.1057,
    "l": 1.10463,
    "c": 1.10566,
    "v": 3395
  },
  {
    "dt": "2022.07.01 04:00",
    "o": 1.10563,
    "h": 1.10583,
    "l": 1.10442,
    "c": 1.10454,
    "v": 3717
  },
  {
    "dt": "2022.07.01 05:00",
    "o": 1.10454,
    "h": 1.1059,
    "l": 1.10445,
    "c": 1.10571,
    "v": 3283
  },
  {
    "dt": "2022.07.01 06:00",
    "o": 1.10573,
    "h": 1.10581,
    "l": 1.10388,
    "c": 1.10464,
    "v": 3813
  },
  {
    "dt": "2022.07.01 07:00",
    "o": 1.10463,
    "h": 1.10528,
    "l": 1.10374,
    "c": 1.1046,
    "v": 3529
  },
  {
    "dt": "2022.07.01 08:00",
    "o": 1.10459,
    "h": 1.10469,
    "l": 1.10294,
    "c": 1.10364,
    "v": 3394
  },
  {
    "dt": "2022.07.01 09:00",
    "o": 1.10361,
    "h": 1.10374,
    "l": 1.10232,
    "c": 1.10239,
    "v": 3865
  },
  {
    "dt": "2022.07.01 10:00",
    "o": 1.10237,
    "h": 1.10258,
    "l": 1.10131,
    "c": 1.10146,
    "v": 4256
  },
  {
    "dt": "2022.07.01 11:00",
    "o": 1.10145,
    "h": 1.10211,
    "l": 1.10091,
    "c": 1.10196,
    "v": 3651
  },
  {
    "dt": "2022.07.01 12:00",
    "o": 1.10196,
    "h": 1.10281,
    "l": 1.10171,
    "c": 1.10256,
    "v": 3488
  },
  {
    "dt": "2022.07.01 13:00",
    "o": 1.10259,
    "h": 1.10277,
    "l": 1.10154,
    "c": 1.10191,
    "v": 3290
  },
  {
    "dt": "2022.07.01 14:00",
    "o": 1.10193,
    "h": 1.10226,
    "l": 1.09994,
    "c": 1.10059,
    "v": 4015
  },
  {
    "dt": "2022.07.01 15:00",
    "o": 1.10061,
    "h": 1.10092,
    "l": 1.09924,
    "c": 1.09989,
    "v": 4282
  },
  {
    "dt": "2022.07.01 16:00",
    "o": 1.0999,
    "h": 1.10034,
    "l": 1.09911,
    "c": 1.09962,
    "v": 4569
  },
  {
    "dt": "2022.07.01 17:00",
    "o": 1.09946,
    "h": 1.1003,
    "l": 1.09667,
    "c": 1.09682,
    "v": 4969
  },
  {
    "dt": "2022.07.01 18:00",
    "o": 1.09683,
    "h": 1.09794,
    "l": 1.09663,
    "c": 1.09724,
    "v": 4504
  },
  {
    "dt": "2022.07.01 19:00",
    "o": 1.09725,
    "h": 1.09759,
    "l": 1.09657,
    "c": 1.09659,
    "v": 3769
  },
  {
    "dt": "2022.07.01 20:00",
    "o": 1.09658,
    "h": 1.09718,
    "l": 1.09647,
    "c": 1.09714,
    "v": 3055
  },
  {
    "dt": "2022.07.01 21:00",
    "o": 1.09714,
    "h": 1.09774,
    "l": 1.09692,
    "c": 1.09716,
    "v": 2857
  },
  {
    "dt": "2022.07.01 22:00",
    "o": 1.09711,
    "h": 1.098,
    "l": 1.09689,
    "c": 1.09796,
    "v": 2562
  },
  {
    "dt": "2022.07.01 23:00",
    "o": 1.09799,
    "h": 1.09837,
    "l": 1.09709,
    "c": 1.09749,
    "v": 1123
  },
  {
    "dt": "2022.07.04 00:00",
    "o": 1.09959,
    "h": 1.09959,
    "l": 1.09782,
    "c": 1.09783,
    "v": 80
  },
  {
    "dt": "2022.07.04 01:00",
    "o": 1.09852,
    "h": 1.0986,
    "l": 1.09689,
    "c": 1.09776,
    "v": 1396
  },
  {
    "dt": "2022.07.04 02:00",
    "o": 1.09786,
    "h": 1.09828,
    "l": 1.09731,
    "c": 1.09753,
    "v": 2225
  },
  {
    "dt": "2022.07.04 03:00",
    "o": 1.0975,
    "h": 1.09843,
    "l": 1.09719,
    "c": 1.09719,
    "v": 3292
  },
  {
    "dt": "2022.07.04 04:00",
    "o": 1.09721,
    "h": 1.09746,
    "l": 1.09607,
    "c": 1.09704,
    "v": 3813
  },
  {
    "dt": "2022.07.04 05:00",
    "o": 1.09705,
    "h": 1.0974,
    "l": 1.09612,
    "c": 1.09624,
    "v": 4119
  },
  {
    "dt": "2022.07.04 06:00",
    "o": 1.09624,
    "h": 1.09719,
    "l": 1.09619,
    "c": 1.0971,
    "v": 2737
  },
  {
    "dt": "2022.07.04 07:00",
    "o": 1.0971,
    "h": 1.09782,
    "l": 1.09696,
    "c": 1.09778,
    "v": 2077
  },
  {
    "dt": "2022.07.04 08:00",
    "o": 1.09779,
    "h": 1.09852,
    "l": 1.09763,
    "c": 1.09782,
    "v": 2962
  },
  {
    "dt": "2022.07.04 09:00",
    "o": 1.09792,
    "h": 1.09808,
    "l": 1.09698,
    "c": 1.09729,
    "v": 3311
  },
  {
    "dt": "2022.07.04 10:00",
    "o": 1.09722,
    "h": 1.10023,
    "l": 1.09686,
    "c": 1.10008,
    "v": 3717
  },
  {
    "dt": "2022.07.04 11:00",
    "o": 1.1001,
    "h": 1.1002,
    "l": 1.09912,
    "c": 1.09987,
    "v": 3108
  },
  {
    "dt": "2022.07.04 12:00",
    "o": 1.09986,
    "h": 1.10116,
    "l": 1.09977,
    "c": 1.10108,
    "v": 3331
  },
  {
    "dt": "2022.07.04 13:00",
    "o": 1.10108,
    "h": 1.10223,
    "l": 1.10094,
    "c": 1.10161,
    "v": 2880
  },
  {
    "dt": "2022.07.04 14:00",
    "o": 1.10162,
    "h": 1.102,
    "l": 1.1011,
    "c": 1.10155,
    "v": 2948
  },
  {
    "dt": "2022.07.04 15:00",
    "o": 1.10157,
    "h": 1.10208,
    "l": 1.10106,
    "c": 1.10178,
    "v": 2979
  },
  {
    "dt": "2022.07.04 16:00",
    "o": 1.1018,
    "h": 1.1025,
    "l": 1.10161,
    "c": 1.10246,
    "v": 2803
  },
  {
    "dt": "2022.07.04 17:00",
    "o": 1.10249,
    "h": 1.10363,
    "l": 1.10239,
    "c": 1.10343,
    "v": 3270
  },
  {
    "dt": "2022.07.04 18:00",
    "o": 1.10344,
    "h": 1.10386,
    "l": 1.10228,
    "c": 1.10373,
    "v": 3150
  },
  {
    "dt": "2022.07.04 19:00",
    "o": 1.10374,
    "h": 1.10508,
    "l": 1.10371,
    "c": 1.1046,
    "v": 2585
  },
  {
    "dt": "2022.07.04 20:00",
    "o": 1.1046,
    "h": 1.10528,
    "l": 1.10442,
    "c": 1.10507,
    "v": 1836
  },
  {
    "dt": "2022.07.04 21:00",
    "o": 1.10509,
    "h": 1.10584,
    "l": 1.10493,
    "c": 1.10562,
    "v": 1231
  },
  {
    "dt": "2022.07.04 22:00",
    "o": 1.10533,
    "h": 1.10608,
    "l": 1.10533,
    "c": 1.10546,
    "v": 1163
  },
  {
    "dt": "2022.07.04 23:00",
    "o": 1.10546,
    "h": 1.10576,
    "l": 1.10467,
    "c": 1.1055,
    "v": 1026
  },
  {
    "dt": "2022.07.05 00:00",
    "o": 1.10575,
    "h": 1.10575,
    "l": 1.10162,
    "c": 1.10499,
    "v": 253
  },
  {
    "dt": "2022.07.05 01:00",
    "o": 1.10478,
    "h": 1.10646,
    "l": 1.10478,
    "c": 1.1057,
    "v": 1323
  },
  {
    "dt": "2022.07.05 02:00",
    "o": 1.10567,
    "h": 1.10643,
    "l": 1.10561,
    "c": 1.10566,
    "v": 2205
  },
  {
    "dt": "2022.07.05 03:00",
    "o": 1.10566,
    "h": 1.1066,
    "l": 1.10529,
    "c": 1.10644,
    "v": 3182
  },
  {
    "dt": "2022.07.05 04:00",
    "o": 1.10644,
    "h": 1.10745,
    "l": 1.10614,
    "c": 1.10684,
    "v": 3738
  },
  {
    "dt": "2022.07.05 05:00",
    "o": 1.10684,
    "h": 1.10684,
    "l": 1.10575,
    "c": 1.10648,
    "v": 3241
  },
  {
    "dt": "2022.07.05 06:00",
    "o": 1.10651,
    "h": 1.10765,
    "l": 1.10642,
    "c": 1.10706,
    "v": 2997
  },
  {
    "dt": "2022.07.05 07:00",
    "o": 1.10703,
    "h": 1.10769,
    "l": 1.10414,
    "c": 1.10427,
    "v": 3135
  },
  {
    "dt": "2022.07.05 08:00",
    "o": 1.10417,
    "h": 1.10472,
    "l": 1.10368,
    "c": 1.10435,
    "v": 3169
  },
  {
    "dt": "2022.07.05 09:00",
    "o": 1.10437,
    "h": 1.10481,
    "l": 1.10343,
    "c": 1.1044,
    "v": 3249
  },
  {
    "dt": "2022.07.05 10:00",
    "o": 1.1044,
    "h": 1.10454,
    "l": 1.10122,
    "c": 1.10232,
    "v": 4492
  },
  {
    "dt": "2022.07.05 11:00",
    "o": 1.10232,
    "h": 1.10347,
    "l": 1.10208,
    "c": 1.10279,
    "v": 4725
  },
  {
    "dt": "2022.07.05 12:00",
    "o": 1.1028,
    "h": 1.10377,
    "l": 1.1016,
    "c": 1.10366,
    "v": 4287
  },
  {
    "dt": "2022.07.05 13:00",
    "o": 1.10369,
    "h": 1.10432,
    "l": 1.10343,
    "c": 1.1041,
    "v": 3148
  },
  {
    "dt": "2022.07.05 14:00",
    "o": 1.10413,
    "h": 1.10468,
    "l": 1.10369,
    "c": 1.10427,
    "v": 3447
  },
  {
    "dt": "2022.07.05 15:00",
    "o": 1.10427,
    "h": 1.10479,
    "l": 1.10372,
    "c": 1.10393,
    "v": 4335
  },
  {
    "dt": "2022.07.05 16:00",
    "o": 1.10392,
    "h": 1.105,
    "l": 1.10291,
    "c": 1.10421,
    "v": 4917
  },
  {
    "dt": "2022.07.05 17:00",
    "o": 1.10431,
    "h": 1.10509,
    "l": 1.10322,
    "c": 1.10388,
    "v": 5346
  },
  {
    "dt": "2022.07.05 18:00",
    "o": 1.10388,
    "h": 1.10395,
    "l": 1.10191,
    "c": 1.10257,
    "v": 4798
  },
  {
    "dt": "2022.07.05 19:00",
    "o": 1.10256,
    "h": 1.10286,
    "l": 1.10187,
    "c": 1.10195,
    "v": 4020
  },
  {
    "dt": "2022.07.05 20:00",
    "o": 1.10193,
    "h": 1.10254,
    "l": 1.10185,
    "c": 1.10239,
    "v": 3449
  },
  {
    "dt": "2022.07.05 21:00",
    "o": 1.10238,
    "h": 1.10258,
    "l": 1.10107,
    "c": 1.10126,
    "v": 3523
  },
  {
    "dt": "2022.07.05 22:00",
    "o": 1.1013,
    "h": 1.10193,
    "l": 1.10097,
    "c": 1.10139,
    "v": 3317
  },
  {
    "dt": "2022.07.05 23:00",
    "o": 1.1014,
    "h": 1.10232,
    "l": 1.10111,
    "c": 1.10142,
    "v": 1545
  },
  {
    "dt": "2022.07.06 00:00",
    "o": 1.10145,
    "h": 1.10228,
    "l": 1.1007,
    "c": 1.10127,
    "v": 390
  },
  {
    "dt": "2022.07.06 01:00",
    "o": 1.10106,
    "h": 1.10212,
    "l": 1.10106,
    "c": 1.10176,
    "v": 1056
  },
  {
    "dt": "2022.07.06 02:00",
    "o": 1.10176,
    "h": 1.10186,
    "l": 1.10121,
    "c": 1.10171,
    "v": 1968
  },
  {
    "dt": "2022.07.06 03:00",
    "o": 1.10169,
    "h": 1.10225,
    "l": 1.1012,
    "c": 1.10219,
    "v": 3743
  },
  {
    "dt": "2022.07.06 04:00",
    "o": 1.10218,
    "h": 1.10332,
    "l": 1.1021,
    "c": 1.1025,
    "v": 4153
  },
  {
    "dt": "2022.07.06 05:00",
    "o": 1.10251,
    "h": 1.10361,
    "l": 1.10246,
    "c": 1.10319,
    "v": 3754
  },
  {
    "dt": "2022.07.06 06:00",
    "o": 1.10321,
    "h": 1.10366,
    "l": 1.10298,
    "c": 1.1034,
    "v": 2965
  },
  {
    "dt": "2022.07.06 07:00",
    "o": 1.1034,
    "h": 1.10342,
    "l": 1.10264,
    "c": 1.10268,
    "v": 2887
  },
  {
    "dt": "2022.07.06 08:00",
    "o": 1.10268,
    "h": 1.10276,
    "l": 1.10188,
    "c": 1.10213,
    "v": 3390
  },
  {
    "dt": "2022.07.06 09:00",
    "o": 1.10213,
    "h": 1.10302,
    "l": 1.10137,
    "c": 1.1022,
    "v": 4134
  },
  {
    "dt": "2022.07.06 10:00",
    "o": 1.10219,
    "h": 1.10354,
    "l": 1.10138,
    "c": 1.1019,
    "v": 4728
  },
  {
    "dt": "2022.07.06 11:00",
    "o": 1.10191,
    "h": 1.10224,
    "l": 1.10048,
    "c": 1.10065,
    "v": 4189
  },
  {
    "dt": "2022.07.06 12:00",
    "o": 1.10064,
    "h": 1.10173,
    "l": 1.10054,
    "c": 1.10171,
    "v": 3845
  },
  {
    "dt": "2022.07.06 13:00",
    "o": 1.10172,
    "h": 1.10244,
    "l": 1.10151,
    "c": 1.10226,
    "v": 3608
  },
  {
    "dt": "2022.07.06 14:00",
    "o": 1.1022,
    "h": 1.10284,
    "l": 1.10151,
    "c": 1.10274,
    "v": 3740
  },
  {
    "dt": "2022.07.06 15:00",
    "o": 1.10272,
    "h": 1.10316,
    "l": 1.10236,
    "c": 1.10252,
    "v": 4603
  },
  {
    "dt": "2022.07.06 16:00",
    "o": 1.10253,
    "h": 1.10286,
    "l": 1.10142,
    "c": 1.10224,
    "v": 5093
  },
  {
    "dt": "2022.07.06 17:00",
    "o": 1.1021,
    "h": 1.10422,
    "l": 1.10178,
    "c": 1.10288,
    "v": 5969
  },
  {
    "dt": "2022.07.06 18:00",
    "o": 1.10288,
    "h": 1.10374,
    "l": 1.1027,
    "c": 1.10306,
    "v": 4787
  },
  {
    "dt": "2022.07.06 19:00",
    "o": 1.10307,
    "h": 1.10337,
    "l": 1.10242,
    "c": 1.10332,
    "v": 3824
  },
  {
    "dt": "2022.07.06 20:00",
    "o": 1.10336,
    "h": 1.10381,
    "l": 1.1032,
    "c": 1.1032,
    "v": 3207
  },
  {
    "dt": "2022.07.06 21:00",
    "o": 1.10318,
    "h": 1.10401,
    "l": 1.10252,
    "c": 1.10362,
    "v": 5230
  },
  {
    "dt": "2022.07.06 22:00",
    "o": 1.10361,
    "h": 1.10379,
    "l": 1.10285,
    "c": 1.10324,
    "v": 3528
  },
  {
    "dt": "2022.07.06 23:00",
    "o": 1.10325,
    "h": 1.10345,
    "l": 1.102,
    "c": 1.102,
    "v": 1761
  },
  {
    "dt": "2022.07.07 00:00",
    "o": 1.10221,
    "h": 1.10281,
    "l": 1.101,
    "c": 1.10226,
    "v": 524
  },
  {
    "dt": "2022.07.07 01:00",
    "o": 1.10241,
    "h": 1.10279,
    "l": 1.10213,
    "c": 1.1027,
    "v": 896
  },
  {
    "dt": "2022.07.07 02:00",
    "o": 1.10264,
    "h": 1.10291,
    "l": 1.10244,
    "c": 1.10274,
    "v": 1323
  },
  {
    "dt": "2022.07.07 03:00",
    "o": 1.10274,
    "h": 1.10274,
    "l": 1.10144,
    "c": 1.10244,
    "v": 3092
  },
  {
    "dt": "2022.07.07 04:00",
    "o": 1.10248,
    "h": 1.10265,
    "l": 1.10166,
    "c": 1.1023,
    "v": 3803
  },
  {
    "dt": "2022.07.07 05:00",
    "o": 1.10231,
    "h": 1.10303,
    "l": 1.10213,
    "c": 1.10296,
    "v": 3493
  },
  {
    "dt": "2022.07.07 06:00",
    "o": 1.10297,
    "h": 1.10315,
    "l": 1.10248,
    "c": 1.10266,
    "v": 2798
  },
  {
    "dt": "2022.07.07 07:00",
    "o": 1.10268,
    "h": 1.10281,
    "l": 1.10218,
    "c": 1.10254,
    "v": 2047
  },
  {
    "dt": "2022.07.07 08:00",
    "o": 1.10254,
    "h": 1.1031,
    "l": 1.10227,
    "c": 1.10259,
    "v": 2610
  },
  {
    "dt": "2022.07.07 09:00",
    "o": 1.10251,
    "h": 1.10369,
    "l": 1.10242,
    "c": 1.10259,
    "v": 3553
  },
  {
    "dt": "2022.07.07 10:00",
    "o": 1.10258,
    "h": 1.10392,
    "l": 1.10236,
    "c": 1.1039,
    "v": 4227
  },
  {
    "dt": "2022.07.07 11:00",
    "o": 1.10392,
    "h": 1.10418,
    "l": 1.10291,
    "c": 1.1041,
    "v": 4174
  },
  {
    "dt": "2022.07.07 12:00",
    "o": 1.10412,
    "h": 1.10592,
    "l": 1.10375,
    "c": 1.10585,
    "v": 4027
  },
  {
    "dt": "2022.07.07 13:00",
    "o": 1.10588,
    "h": 1.10667,
    "l": 1.10561,
    "c": 1.10631,
    "v": 2942
  },
  {
    "dt": "2022.07.07 14:00",
    "o": 1.10632,
    "h": 1.10641,
    "l": 1.10569,
    "c": 1.10615,
    "v": 3150
  },
  {
    "dt": "2022.07.07 15:00",
    "o": 1.10613,
    "h": 1.10636,
    "l": 1.105,
    "c": 1.10541,
    "v": 3652
  },
  {
    "dt": "2022.07.07 16:00",
    "o": 1.10543,
    "h": 1.10616,
    "l": 1.10494,
    "c": 1.10571,
    "v": 4443
  },
  {
    "dt": "2022.07.07 17:00",
    "o": 1.10572,
    "h": 1.1067,
    "l": 1.10482,
    "c": 1.10637,
    "v": 4239
  },
  {
    "dt": "2022.07.07 18:00",
    "o": 1.10636,
    "h": 1.10665,
    "l": 1.10603,
    "c": 1.10627,
    "v": 3618
  },
  {
    "dt": "2022.07.07 19:00",
    "o": 1.1063,
    "h": 1.10739,
    "l": 1.10626,
    "c": 1.10732,
    "v": 3047
  },
  {
    "dt": "2022.07.07 20:00",
    "o": 1.10733,
    "h": 1.10734,
    "l": 1.10669,
    "c": 1.1072,
    "v": 2736
  },
  {
    "dt": "2022.07.07 21:00",
    "o": 1.10715,
    "h": 1.10776,
    "l": 1.1069,
    "c": 1.10698,
    "v": 2714
  },
  {
    "dt": "2022.07.07 22:00",
    "o": 1.10665,
    "h": 1.10789,
    "l": 1.10665,
    "c": 1.10733,
    "v": 2532
  },
  {
    "dt": "2022.07.07 23:00",
    "o": 1.10732,
    "h": 1.10773,
    "l": 1.10659,
    "c": 1.1066,
    "v": 1472
  },
  {
    "dt": "2022.07.08 00:00",
    "o": 1.10743,
    "h": 1.10748,
    "l": 1.10611,
    "c": 1.10709,
    "v": 322
  },
  {
    "dt": "2022.07.08 01:00",
    "o": 1.10686,
    "h": 1.10799,
    "l": 1.1065,
    "c": 1.10799,
    "v": 933
  },
  {
    "dt": "2022.07.08 02:00",
    "o": 1.10796,
    "h": 1.10831,
    "l": 1.10766,
    "c": 1.10816,
    "v": 1981
  },
  {
    "dt": "2022.07.08 03:00",
    "o": 1.1082,
    "h": 1.1087,
    "l": 1.10768,
    "c": 1.10776,
    "v": 3056
  },
  {
    "dt": "2022.07.08 04:00",
    "o": 1.10774,
    "h": 1.10778,
    "l": 1.10658,
    "c": 1.107,
    "v": 3068
  },
  {
    "dt": "2022.07.08 05:00",
    "o": 1.107,
    "h": 1.10741,
    "l": 1.10612,
    "c": 1.10637,
    "v": 3491
  },
  {
    "dt": "2022.07.08 06:00",
    "o": 1.1064,
    "h": 1.10708,
    "l": 1.10592,
    "c": 1.10643,
    "v": 3705
  },
  {
    "dt": "2022.07.08 07:00",
    "o": 1.10644,
    "h": 1.10689,
    "l": 1.10537,
    "c": 1.10551,
    "v": 2678
  },
  {
    "dt": "2022.07.08 08:00",
    "o": 1.10551,
    "h": 1.10607,
    "l": 1.10529,
    "c": 1.10579,
    "v": 3766
  },
  {
    "dt": "2022.07.08 09:00",
    "o": 1.10573,
    "h": 1.10706,
    "l": 1.10569,
    "c": 1.10702,
    "v": 3353
  },
  {
    "dt": "2022.07.08 10:00",
    "o": 1.10702,
    "h": 1.10772,
    "l": 1.10662,
    "c": 1.10735,
    "v": 4100
  },
  {
    "dt": "2022.07.08 11:00",
    "o": 1.10736,
    "h": 1.10769,
    "l": 1.10681,
    "c": 1.10735,
    "v": 3590
  },
  {
    "dt": "2022.07.08 12:00",
    "o": 1.10734,
    "h": 1.10739,
    "l": 1.10593,
    "c": 1.10694,
    "v": 3160
  },
  {
    "dt": "2022.07.08 13:00",
    "o": 1.10694,
    "h": 1.10765,
    "l": 1.10657,
    "c": 1.10724,
    "v": 3281
  },
  {
    "dt": "2022.07.08 14:00",
    "o": 1.10721,
    "h": 1.10742,
    "l": 1.10675,
    "c": 1.10711,
    "v": 2871
  },
  {
    "dt": "2022.07.08 15:00",
    "o": 1.10713,
    "h": 1.10832,
    "l": 1.10619,
    "c": 1.10822,
    "v": 4390
  },
  {
    "dt": "2022.07.08 16:00",
    "o": 1.10818,
    "h": 1.10929,
    "l": 1.10755,
    "c": 1.10764,
    "v": 5225
  },
  {
    "dt": "2022.07.08 17:00",
    "o": 1.10757,
    "h": 1.10811,
    "l": 1.10685,
    "c": 1.10796,
    "v": 4817
  },
  {
    "dt": "2022.07.08 18:00",
    "o": 1.10793,
    "h": 1.10806,
    "l": 1.10662,
    "c": 1.10677,
    "v": 4105
  },
  {
    "dt": "2022.07.08 19:00",
    "o": 1.10676,
    "h": 1.10722,
    "l": 1.1062,
    "c": 1.10681,
    "v": 3603
  },
  {
    "dt": "2022.07.08 20:00",
    "o": 1.10681,
    "h": 1.10712,
    "l": 1.10648,
    "c": 1.10693,
    "v": 2969
  },
  {
    "dt": "2022.07.08 21:00",
    "o": 1.10691,
    "h": 1.10767,
    "l": 1.1067,
    "c": 1.10757,
    "v": 2219
  },
  {
    "dt": "2022.07.08 22:00",
    "o": 1.10757,
    "h": 1.10785,
    "l": 1.10719,
    "c": 1.10747,
    "v": 2220
  },
  {
    "dt": "2022.07.08 23:00",
    "o": 1.10745,
    "h": 1.10775,
    "l": 1.10584,
    "c": 1.10682,
    "v": 1532
  },
  {
    "dt": "2022.07.11 00:00",
    "o": 1.10728,
    "h": 1.10771,
    "l": 1.10672,
    "c": 1.10689,
    "v": 164
  },
  {
    "dt": "2022.07.11 01:00",
    "o": 1.10685,
    "h": 1.10734,
    "l": 1.1063,
    "c": 1.10698,
    "v": 1811
  },
  {
    "dt": "2022.07.11 02:00",
    "o": 1.10697,
    "h": 1.10697,
    "l": 1.10606,
    "c": 1.10656,
    "v": 2314
  },
  {
    "dt": "2022.07.11 03:00",
    "o": 1.10657,
    "h": 1.10686,
    "l": 1.10628,
    "c": 1.10679,
    "v": 3226
  },
  {
    "dt": "2022.07.11 04:00",
    "o": 1.10681,
    "h": 1.10687,
    "l": 1.10556,
    "c": 1.10583,
    "v": 4382
  },
  {
    "dt": "2022.07.11 05:00",
    "o": 1.10583,
    "h": 1.10641,
    "l": 1.10563,
    "c": 1.10567,
    "v": 3981
  },
  {
    "dt": "2022.07.11 06:00",
    "o": 1.10567,
    "h": 1.10568,
    "l": 1.10499,
    "c": 1.10561,
    "v": 3541
  },
  {
    "dt": "2022.07.11 07:00",
    "o": 1.10561,
    "h": 1.10584,
    "l": 1.10514,
    "c": 1.10524,
    "v": 2266
  },
  {
    "dt": "2022.07.11 08:00",
    "o": 1.10525,
    "h": 1.10534,
    "l": 1.10426,
    "c": 1.10451,
    "v": 3128
  },
  {
    "dt": "2022.07.11 09:00",
    "o": 1.10451,
    "h": 1.10487,
    "l": 1.10363,
    "c": 1.1048,
    "v": 3621
  },
  {
    "dt": "2022.07.11 10:00",
    "o": 1.10481,
    "h": 1.10555,
    "l": 1.10366,
    "c": 1.10382,
    "v": 3847
  },
  {
    "dt": "2022.07.11 11:00",
    "o": 1.10383,
    "h": 1.10402,
    "l": 1.10308,
    "c": 1.10393,
    "v": 3691
  },
  {
    "dt": "2022.07.11 12:00",
    "o": 1.10387,
    "h": 1.10494,
    "l": 1.1038,
    "c": 1.1042,
    "v": 2973
  },
  {
    "dt": "2022.07.11 13:00",
    "o": 1.10421,
    "h": 1.10447,
    "l": 1.10297,
    "c": 1.10313,
    "v": 2888
  },
  {
    "dt": "2022.07.11 14:00",
    "o": 1.10316,
    "h": 1.10456,
    "l": 1.10312,
    "c": 1.10418,
    "v": 3187
  },
  {
    "dt": "2022.07.11 15:00",
    "o": 1.10418,
    "h": 1.1044,
    "l": 1.10248,
    "c": 1.10277,
    "v": 4081
  },
  {
    "dt": "2022.07.11 16:00",
    "o": 1.10278,
    "h": 1.10295,
    "l": 1.10078,
    "c": 1.10134,
    "v": 5078
  },
  {
    "dt": "2022.07.11 17:00",
    "o": 1.10133,
    "h": 1.10157,
    "l": 1.09932,
    "c": 1.0997,
    "v": 4849
  },
  {
    "dt": "2022.07.11 18:00",
    "o": 1.09967,
    "h": 1.10088,
    "l": 1.09967,
    "c": 1.09993,
    "v": 4523
  },
  {
    "dt": "2022.07.11 19:00",
    "o": 1.09994,
    "h": 1.10116,
    "l": 1.09989,
    "c": 1.10108,
    "v": 3248
  },
  {
    "dt": "2022.07.11 20:00",
    "o": 1.10107,
    "h": 1.1017,
    "l": 1.10087,
    "c": 1.10141,
    "v": 3212
  },
  {
    "dt": "2022.07.11 21:00",
    "o": 1.10141,
    "h": 1.1015,
    "l": 1.10097,
    "c": 1.10126,
    "v": 2894
  },
  {
    "dt": "2022.07.11 22:00",
    "o": 1.10125,
    "h": 1.10177,
    "l": 1.10098,
    "c": 1.10155,
    "v": 3141
  },
  {
    "dt": "2022.07.11 23:00",
    "o": 1.10155,
    "h": 1.102,
    "l": 1.10109,
    "c": 1.10168,
    "v": 1972
  },
  {
    "dt": "2022.07.12 00:00",
    "o": 1.10199,
    "h": 1.10262,
    "l": 1.10142,
    "c": 1.10163,
    "v": 351
  },
  {
    "dt": "2022.07.12 01:00",
    "o": 1.1016,
    "h": 1.10209,
    "l": 1.10143,
    "c": 1.10159,
    "v": 910
  },
  {
    "dt": "2022.07.12 02:00",
    "o": 1.10162,
    "h": 1.1017,
    "l": 1.10131,
    "c": 1.10136,
    "v": 1848
  },
  {
    "dt": "2022.07.12 03:00",
    "o": 1.10138,
    "h": 1.10138,
    "l": 1.10024,
    "c": 1.10052,
    "v": 3186
  },
  {
    "dt": "2022.07.12 04:00",
    "o": 1.10048,
    "h": 1.10184,
    "l": 1.09974,
    "c": 1.10086,
    "v": 4336
  },
  {
    "dt": "2022.07.12 05:00",
    "o": 1.10088,
    "h": 1.10135,
    "l": 1.10015,
    "c": 1.10016,
    "v": 4139
  },
  {
    "dt": "2022.07.12 06:00",
    "o": 1.10018,
    "h": 1.10061,
    "l": 1.09974,
    "c": 1.10059,
    "v": 3285
  },
  {
    "dt": "2022.07.12 07:00",
    "o": 1.10058,
    "h": 1.10121,
    "l": 1.10017,
    "c": 1.10116,
    "v": 2795
  },
  {
    "dt": "2022.07.12 08:00",
    "o": 1.10113,
    "h": 1.10134,
    "l": 1.10078,
    "c": 1.10088,
    "v": 3444
  },
  {
    "dt": "2022.07.12 09:00",
    "o": 1.10087,
    "h": 1.10121,
    "l": 1.10026,
    "c": 1.10029,
    "v": 4209
  },
  {
    "dt": "2022.07.12 10:00",
    "o": 1.10028,
    "h": 1.10028,
    "l": 1.09923,
    "c": 1.1002,
    "v": 4413
  },
  {
    "dt": "2022.07.12 11:00",
    "o": 1.10023,
    "h": 1.10087,
    "l": 1.09979,
    "c": 1.1006,
    "v": 3603
  },
  {
    "dt": "2022.07.12 12:00",
    "o": 1.10057,
    "h": 1.10077,
    "l": 1.10004,
    "c": 1.1003,
    "v": 3745
  },
  {
    "dt": "2022.07.12 13:00",
    "o": 1.10031,
    "h": 1.1009,
    "l": 1.09964,
    "c": 1.09967,
    "v": 3489
  },
  {
    "dt": "2022.07.12 14:00",
    "o": 1.09971,
    "h": 1.1011,
    "l": 1.09955,
    "c": 1.10053,
    "v": 4071
  },
  {
    "dt": "2022.07.12 15:00",
    "o": 1.10052,
    "h": 1.10068,
    "l": 1.09986,
    "c": 1.10012,
    "v": 3686
  },
  {
    "dt": "2022.07.12 16:00",
    "o": 1.10009,
    "h": 1.10171,
    "l": 1.09992,
    "c": 1.10109,
    "v": 4757
  },
  {
    "dt": "2022.07.12 17:00",
    "o": 1.10108,
    "h": 1.10273,
    "l": 1.10042,
    "c": 1.10262,
    "v": 4736
  },
  {
    "dt": "2022.07.12 18:00",
    "o": 1.10265,
    "h": 1.10326,
    "l": 1.10233,
    "c": 1.10256,
    "v": 3740
  },
  {
    "dt": "2022.07.12 19:00",
    "o": 1.10255,
    "h": 1.1028,
    "l": 1.10237,
    "c": 1.1027,
    "v": 2749
  },
  {
    "dt": "2022.07.12 20:00",
    "o": 1.10271,
    "h": 1.1032,
    "l": 1.10256,
    "c": 1.10313,
    "v": 2782
  },
  {
    "dt": "2022.07.12 21:00",
    "o": 1.10314,
    "h": 1.10332,
    "l": 1.10283,
    "c": 1.10283,
    "v": 2749
  },
  {
    "dt": "2022.07.12 22:00",
    "o": 1.1028,
    "h": 1.10301,
    "l": 1.10221,
    "c": 1.10286,
    "v": 2954
  },
  {
    "dt": "2022.07.12 23:00",
    "o": 1.10287,
    "h": 1.10304,
    "l": 1.10165,
    "c": 1.10165,
    "v": 1786
  },
  {
    "dt": "2022.07.13 00:00",
    "o": 1.10148,
    "h": 1.10296,
    "l": 1.09977,
    "c": 1.10243,
    "v": 488
  },
  {
    "dt": "2022.07.13 01:00",
    "o": 1.10234,
    "h": 1.10285,
    "l": 1.10189,
    "c": 1.10263,
    "v": 1181
  },
  {
    "dt": "2022.07.13 02:00",
    "o": 1.10266,
    "h": 1.10285,
    "l": 1.10176,
    "c": 1.10188,
    "v": 1706
  },
  {
    "dt": "2022.07.13 03:00",
    "o": 1.10182,
    "h": 1.10266,
    "l": 1.10164,
    "c": 1.10226,
    "v": 3327
  },
  {
    "dt": "2022.07.13 04:00",
    "o": 1.10227,
    "h": 1.10319,
    "l": 1.10108,
    "c": 1.10111,
    "v": 3525
  },
  {
    "dt": "2022.07.13 05:00",
    "o": 1.10112,
    "h": 1.10612,
    "l": 1.10077,
    "c": 1.10475,
    "v": 3348
  },
  {
    "dt": "2022.07.13 06:00",
    "o": 1.10477,
    "h": 1.10511,
    "l": 1.10392,
    "c": 1.10449,
    "v": 2754
  },
  {
    "dt": "2022.07.13 07:00",
    "o": 1.10446,
    "h": 1.1049,
    "l": 1.10441,
    "c": 1.10453,
    "v": 1808
  },
  {
    "dt": "2022.07.13 08:00",
    "o": 1.10455,
    "h": 1.1046,
    "l": 1.10407,
    "c": 1.10425,
    "v": 2909
  },
  {
    "dt": "2022.07.13 09:00",
    "o": 1.10422,
    "h": 1.10443,
    "l": 1.10285,
    "c": 1.10371,
    "v": 3785
  },
  {
    "dt": "2022.07.13 10:00",
    "o": 1.10368,
    "h": 1.10435,
    "l": 1.10337,
    "c": 1.10383,
    "v": 4321
  },
  {
    "dt": "2022.07.13 11:00",
    "o": 1.10382,
    "h": 1.10496,
    "l": 1.10342,
    "c": 1.1049,
    "v": 3346
  },
  {
    "dt": "2022.07.13 12:00",
    "o": 1.10487,
    "h": 1.10524,
    "l": 1.10472,
    "c": 1.10483,
    "v": 3020
  },
  {
    "dt": "2022.07.13 13:00",
    "o": 1.10485,
    "h": 1.10517,
    "l": 1.1045,
    "c": 1.1045,
    "v": 3111
  },
  {
    "dt": "2022.07.13 14:00",
    "o": 1.10449,
    "h": 1.1047,
    "l": 1.10364,
    "c": 1.10383,
    "v": 3099
  },
  {
    "dt": "2022.07.13 15:00",
    "o": 1.10384,
    "h": 1.10637,
    "l": 1.10308,
    "c": 1.10569,
    "v": 4737
  },
  {
    "dt": "2022.07.13 16:00",
    "o": 1.10566,
    "h": 1.10637,
    "l": 1.1044,
    "c": 1.10442,
    "v": 5287
  },
  {
    "dt": "2022.07.13 17:00",
    "o": 1.10457,
    "h": 1.10485,
    "l": 1.10248,
    "c": 1.10271,
    "v": 5298
  },
  {
    "dt": "2022.07.13 18:00",
    "o": 1.1027,
    "h": 1.10282,
    "l": 1.1015,
    "c": 1.1022,
    "v": 4423
  },
  {
    "dt": "2022.07.13 19:00",
    "o": 1.1022,
    "h": 1.10282,
    "l": 1.10203,
    "c": 1.10282,
    "v": 3752
  },
  {
    "dt": "2022.07.13 20:00",
    "o": 1.10279,
    "h": 1.10326,
    "l": 1.10262,
    "c": 1.10312,
    "v": 3543
  },
  {
    "dt": "2022.07.13 21:00",
    "o": 1.10314,
    "h": 1.10326,
    "l": 1.10201,
    "c": 1.10247,
    "v": 4197
  },
  {
    "dt": "2022.07.13 22:00",
    "o": 1.10215,
    "h": 1.10288,
    "l": 1.10194,
    "c": 1.10217,
    "v": 3281
  },
  {
    "dt": "2022.07.13 23:00",
    "o": 1.10214,
    "h": 1.10235,
    "l": 1.10148,
    "c": 1.10175,
    "v": 1769
  },
  {
    "dt": "2022.07.14 00:00",
    "o": 1.10097,
    "h": 1.10259,
    "l": 1.09922,
    "c": 1.10184,
    "v": 431
  },
  {
    "dt": "2022.07.14 01:00",
    "o": 1.10183,
    "h": 1.10257,
    "l": 1.10171,
    "c": 1.10196,
    "v": 1280
  },
  {
    "dt": "2022.07.14 02:00",
    "o": 1.10195,
    "h": 1.10243,
    "l": 1.1018,
    "c": 1.10203,
    "v": 2186
  },
  {
    "dt": "2022.07.14 03:00",
    "o": 1.10205,
    "h": 1.1033,
    "l": 1.10188,
    "c": 1.10293,
    "v": 3562
  },
  {
    "dt": "2022.07.14 04:00",
    "o": 1.10293,
    "h": 1.10555,
    "l": 1.10218,
    "c": 1.10509,
    "v": 4034
  },
  {
    "dt": "2022.07.14 05:00",
    "o": 1.10508,
    "h": 1.10676,
    "l": 1.10507,
    "c": 1.10659,
    "v": 3267
  },
  {
    "dt": "2022.07.14 06:00",
    "o": 1.1066,
    "h": 1.10674,
    "l": 1.10577,
    "c": 1.10582,
    "v": 3102
  },
  {
    "dt": "2022.07.14 07:00",
    "o": 1.10582,
    "h": 1.10598,
    "l": 1.10457,
    "c": 1.10476,
    "v": 2500
  },
  {
    "dt": "2022.07.14 08:00",
    "o": 1.10477,
    "h": 1.10512,
    "l": 1.10355,
    "c": 1.10426,
    "v": 3404
  },
  {
    "dt": "2022.07.14 09:00",
    "o": 1.10424,
    "h": 1.10533,
    "l": 1.10411,
    "c": 1.10491,
    "v": 4158
  },
  {
    "dt": "2022.07.14 10:00",
    "o": 1.10493,
    "h": 1.10671,
    "l": 1.10458,
    "c": 1.10602,
    "v": 4495
  },
  {
    "dt": "2022.07.14 11:00",
    "o": 1.10604,
    "h": 1.10638,
    "l": 1.10527,
    "c": 1.10569,
    "v": 3933
  },
  {
    "dt": "2022.07.14 12:00",
    "o": 1.10568,
    "h": 1.10578,
    "l": 1.10484,
    "c": 1.10509,
    "v": 3826
  },
  {
    "dt": "2022.07.14 13:00",
    "o": 1.10508,
    "h": 1.10523,
    "l": 1.10299,
    "c": 1.10304,
    "v": 3374
  },
  {
    "dt": "2022.07.14 14:00",
    "o": 1.10303,
    "h": 1.1042,
    "l": 1.10297,
    "c": 1.10352,
    "v": 3740
  },
  {
    "dt": "2022.07.14 15:00",
    "o": 1.10352,
    "h": 1.10363,
    "l": 1.10242,
    "c": 1.10248,
    "v": 4261
  },
  {
    "dt": "2022.07.14 16:00",
    "o": 1.10249,
    "h": 1.10277,
    "l": 1.10178,
    "c": 1.10237,
    "v": 4766
  },
  {
    "dt": "2022.07.14 17:00",
    "o": 1.10236,
    "h": 1.10262,
    "l": 1.10041,
    "c": 1.10075,
    "v": 4937
  },
  {
    "dt": "2022.07.14 18:00",
    "o": 1.10084,
    "h": 1.10164,
    "l": 1.10055,
    "c": 1.101,
    "v": 5004
  },
  {
    "dt": "2022.07.14 19:00",
    "o": 1.10103,
    "h": 1.10129,
    "l": 1.10021,
    "c": 1.10115,
    "v": 4334
  },
  {
    "dt": "2022.07.14 20:00",
    "o": 1.10116,
    "h": 1.10158,
    "l": 1.10064,
    "c": 1.10139,
    "v": 3744
  },
  {
    "dt": "2022.07.14 21:00",
    "o": 1.10138,
    "h": 1.1021,
    "l": 1.10119,
    "c": 1.10192,
    "v": 3479
  },
  {
    "dt": "2022.07.14 22:00",
    "o": 1.1018,
    "h": 1.10216,
    "l": 1.10111,
    "c": 1.10172,
    "v": 3280
  },
  {
    "dt": "2022.07.14 23:00",
    "o": 1.10177,
    "h": 1.10213,
    "l": 1.10033,
    "c": 1.10049,
    "v": 1191
  },
  {
    "dt": "2022.07.15 00:00",
    "o": 1.10059,
    "h": 1.10263,
    "l": 1.10005,
    "c": 1.10103,
    "v": 425
  },
  {
    "dt": "2022.07.15 01:00",
    "o": 1.10124,
    "h": 1.10176,
    "l": 1.10074,
    "c": 1.10158,
    "v": 1146
  },
  {
    "dt": "2022.07.15 02:00",
    "o": 1.10161,
    "h": 1.10185,
    "l": 1.10127,
    "c": 1.10179,
    "v": 1945
  },
  {
    "dt": "2022.07.15 03:00",
    "o": 1.10179,
    "h": 1.10207,
    "l": 1.0999,
    "c": 1.10096,
    "v": 3294
  },
  {
    "dt": "2022.07.15 04:00",
    "o": 1.10094,
    "h": 1.10098,
    "l": 1.10031,
    "c": 1.10074,
    "v": 3490
  },
  {
    "dt": "2022.07.15 05:00",
    "o": 1.10073,
    "h": 1.10115,
    "l": 1.10031,
    "c": 1.10049,
    "v": 3097
  },
  {
    "dt": "2022.07.15 06:00",
    "o": 1.10051,
    "h": 1.10052,
    "l": 1.09913,
    "c": 1.09957,
    "v": 3088
  },
  {
    "dt": "2022.07.15 07:00",
    "o": 1.09955,
    "h": 1.09983,
    "l": 1.09861,
    "c": 1.09889,
    "v": 2189
  },
  {
    "dt": "2022.07.15 08:00",
    "o": 1.09891,
    "h": 1.09913,
    "l": 1.09831,
    "c": 1.09871,
    "v": 2905
  },
  {
    "dt": "2022.07.15 09:00",
    "o": 1.09873,
    "h": 1.0988,
    "l": 1.09744,
    "c": 1.09763,
    "v": 3695
  },
  {
    "dt": "2022.07.15 10:00",
    "o": 1.09764,
    "h": 1.09904,
    "l": 1.09732,
    "c": 1.0983,
    "v": 4023
  },
  {
    "dt": "2022.07.15 11:00",
    "o": 1.09831,
    "h": 1.09883,
    "l": 1.09769,
    "c": 1.09865,
    "v": 3231
  },
  {
    "dt": "2022.07.15 12:00",
    "o": 1.09867,
    "h": 1.09971,
    "l": 1.09864,
    "c": 1.09959,
    "v": 3414
  },
  {
    "dt": "2022.07.15 13:00",
    "o": 1.09958,
    "h": 1.10048,
    "l": 1.09939,
    "c": 1.10016,
    "v": 2937
  },
  {
    "dt": "2022.07.15 14:00",
    "o": 1.10017,
    "h": 1.10039,
    "l": 1.09971,
    "c": 1.09981,
    "v": 3011
  },
  {
    "dt": "2022.07.15 15:00",
    "o": 1.09979,
    "h": 1.1004,
    "l": 1.09942,
    "c": 1.10014,
    "v": 4051
  },
  {
    "dt": "2022.07.15 16:00",
    "o": 1.10011,
    "h": 1.10101,
    "l": 1.09976,
    "c": 1.09976,
    "v": 4519
  },
  {
    "dt": "2022.07.15 17:00",
    "o": 1.09946,
    "h": 1.10233,
    "l": 1.09946,
    "c": 1.10226,
    "v": 5030
  },
  {
    "dt": "2022.07.15 18:00",
    "o": 1.10227,
    "h": 1.10324,
    "l": 1.10201,
    "c": 1.10281,
    "v": 3990
  },
  {
    "dt": "2022.07.15 19:00",
    "o": 1.1028,
    "h": 1.10289,
    "l": 1.10197,
    "c": 1.10219,
    "v": 2920
  },
  {
    "dt": "2022.07.15 20:00",
    "o": 1.1022,
    "h": 1.1026,
    "l": 1.1019,
    "c": 1.10203,
    "v": 2483
  },
  {
    "dt": "2022.07.15 21:00",
    "o": 1.102,
    "h": 1.10308,
    "l": 1.10187,
    "c": 1.10282,
    "v": 2261
  },
  {
    "dt": "2022.07.15 22:00",
    "o": 1.10284,
    "h": 1.10368,
    "l": 1.10268,
    "c": 1.10347,
    "v": 2606
  },
  {
    "dt": "2022.07.15 23:00",
    "o": 1.10347,
    "h": 1.10382,
    "l": 1.10191,
    "c": 1.10193,
    "v": 1177
  },
  {
    "dt": "2022.07.18 00:00",
    "o": 1.10231,
    "h": 1.10294,
    "l": 1.10156,
    "c": 1.10284,
    "v": 98
  },
  {
    "dt": "2022.07.18 01:00",
    "o": 1.10276,
    "h": 1.10463,
    "l": 1.10225,
    "c": 1.10386,
    "v": 1457
  },
  {
    "dt": "2022.07.18 02:00",
    "o": 1.10387,
    "h": 1.1039,
    "l": 1.10042,
    "c": 1.10067,
    "v": 2226
  },
  {
    "dt": "2022.07.18 03:00",
    "o": 1.10061,
    "h": 1.10138,
    "l": 1.09982,
    "c": 1.09985,
    "v": 3551
  },
  {
    "dt": "2022.07.18 04:00",
    "o": 1.09986,
    "h": 1.10021,
    "l": 1.09911,
    "c": 1.09922,
    "v": 3521
  },
  {
    "dt": "2022.07.18 05:00",
    "o": 1.09924,
    "h": 1.10053,
    "l": 1.09924,
    "c": 1.10053,
    "v": 3175
  },
  {
    "dt": "2022.07.18 06:00",
    "o": 1.10053,
    "h": 1.10242,
    "l": 1.10011,
    "c": 1.10242,
    "v": 3005
  },
  {
    "dt": "2022.07.18 07:00",
    "o": 1.10243,
    "h": 1.10382,
    "l": 1.10217,
    "c": 1.10375,
    "v": 2431
  },
  {
    "dt": "2022.07.18 08:00",
    "o": 1.10375,
    "h": 1.10498,
    "l": 1.10354,
    "c": 1.10486,
    "v": 2742
  },
  {
    "dt": "2022.07.18 09:00",
    "o": 1.10482,
    "h": 1.10501,
    "l": 1.10401,
    "c": 1.10491,
    "v": 3788
  },
  {
    "dt": "2022.07.18 10:00",
    "o": 1.10491,
    "h": 1.10629,
    "l": 1.10488,
    "c": 1.10527,
    "v": 4315
  },
  {
    "dt": "2022.07.18 11:00",
    "o": 1.10527,
    "h": 1.10651,
    "l": 1.10525,
    "c": 1.10615,
    "v": 3565
  },
  {
    "dt": "2022.07.18 12:00",
    "o": 1.10616,
    "h": 1.10672,
    "l": 1.10608,
    "c": 1.10638,
    "v": 3019
  },
  {
    "dt": "2022.07.18 13:00",
    "o": 1.10638,
    "h": 1.10668,
    "l": 1.1058,
    "c": 1.10654,
    "v": 3045
  },
  {
    "dt": "2022.07.18 14:00",
    "o": 1.10652,
    "h": 1.10741,
    "l": 1.10645,
    "c": 1.10699,
    "v": 2878
  },
  {
    "dt": "2022.07.18 15:00",
    "o": 1.10698,
    "h": 1.10734,
    "l": 1.10573,
    "c": 1.10615,
    "v": 3691
  },
  {
    "dt": "2022.07.18 16:00",
    "o": 1.10618,
    "h": 1.10711,
    "l": 1.10562,
    "c": 1.10683,
    "v": 4159
  },
  {
    "dt": "2022.07.18 17:00",
    "o": 1.10676,
    "h": 1.10814,
    "l": 1.10672,
    "c": 1.10759,
    "v": 4392
  },
  {
    "dt": "2022.07.18 18:00",
    "o": 1.1076,
    "h": 1.10783,
    "l": 1.10734,
    "c": 1.10769,
    "v": 3404
  },
  {
    "dt": "2022.07.18 19:00",
    "o": 1.10767,
    "h": 1.10807,
    "l": 1.10737,
    "c": 1.10745,
    "v": 2745
  },
  {
    "dt": "2022.07.18 20:00",
    "o": 1.10742,
    "h": 1.10772,
    "l": 1.10688,
    "c": 1.10706,
    "v": 2778
  },
  {
    "dt": "2022.07.18 21:00",
    "o": 1.10704,
    "h": 1.10713,
    "l": 1.10625,
    "c": 1.10643,
    "v": 3278
  },
  {
    "dt": "2022.07.18 22:00",
    "o": 1.10625,
    "h": 1.10679,
    "l": 1.10613,
    "c": 1.10669,
    "v": 3261
  },
  {
    "dt": "2022.07.18 23:00",
    "o": 1.10669,
    "h": 1.10709,
    "l": 1.1059,
    "c": 1.10636,
    "v": 1546
  },
  {
    "dt": "2022.07.19 00:00",
    "o": 1.10639,
    "h": 1.10694,
    "l": 1.10611,
    "c": 1.10664,
    "v": 304
  },
  {
    "dt": "2022.07.19 01:00",
    "o": 1.10667,
    "h": 1.10696,
    "l": 1.10596,
    "c": 1.10674,
    "v": 1260
  },
  {
    "dt": "2022.07.19 02:00",
    "o": 1.10675,
    "h": 1.10705,
    "l": 1.10646,
    "c": 1.10654,
    "v": 1639
  },
  {
    "dt": "2022.07.19 03:00",
    "o": 1.10654,
    "h": 1.10762,
    "l": 1.10641,
    "c": 1.10717,
    "v": 2600
  },
  {
    "dt": "2022.07.19 04:00",
    "o": 1.1072,
    "h": 1.10828,
    "l": 1.10717,
    "c": 1.10803,
    "v": 3594
  },
  {
    "dt": "2022.07.19 05:00",
    "o": 1.10801,
    "h": 1.1089,
    "l": 1.10793,
    "c": 1.10821,
    "v": 2850
  },
  {
    "dt": "2022.07.19 06:00",
    "o": 1.10819,
    "h": 1.10889,
    "l": 1.10755,
    "c": 1.10852,
    "v": 2928
  },
  {
    "dt": "2022.07.19 07:00",
    "o": 1.10849,
    "h": 1.10866,
    "l": 1.10754,
    "c": 1.10808,
    "v": 2588
  },
  {
    "dt": "2022.07.19 08:00",
    "o": 1.10807,
    "h": 1.10958,
    "l": 1.10799,
    "c": 1.10952,
    "v": 3156
  },
  {
    "dt": "2022.07.19 09:00",
    "o": 1.10948,
    "h": 1.10976,
    "l": 1.10756,
    "c": 1.10786,
    "v": 3924
  },
  {
    "dt": "2022.07.19 10:00",
    "o": 1.10783,
    "h": 1.10802,
    "l": 1.10635,
    "c": 1.1064,
    "v": 4246
  },
  {
    "dt": "2022.07.19 11:00",
    "o": 1.10637,
    "h": 1.10774,
    "l": 1.1062,
    "c": 1.10661,
    "v": 3819
  },
  {
    "dt": "2022.07.19 12:00",
    "o": 1.10655,
    "h": 1.10728,
    "l": 1.10591,
    "c": 1.106,
    "v": 3451
  },
  {
    "dt": "2022.07.19 13:00",
    "o": 1.106,
    "h": 1.10722,
    "l": 1.10572,
    "c": 1.10704,
    "v": 3353
  },
  {
    "dt": "2022.07.19 14:00",
    "o": 1.10702,
    "h": 1.10723,
    "l": 1.1058,
    "c": 1.10605,
    "v": 3090
  },
  {
    "dt": "2022.07.19 15:00",
    "o": 1.10608,
    "h": 1.10685,
    "l": 1.10597,
    "c": 1.10668,
    "v": 3497
  },
  {
    "dt": "2022.07.19 16:00",
    "o": 1.1067,
    "h": 1.10708,
    "l": 1.10606,
    "c": 1.10699,
    "v": 3808
  },
  {
    "dt": "2022.07.19 17:00",
    "o": 1.10698,
    "h": 1.10808,
    "l": 1.1068,
    "c": 1.10713,
    "v": 4305
  },
  {
    "dt": "2022.07.19 18:00",
    "o": 1.10715,
    "h": 1.10829,
    "l": 1.10683,
    "c": 1.10818,
    "v": 3304
  },
  {
    "dt": "2022.07.19 19:00",
    "o": 1.10821,
    "h": 1.10898,
    "l": 1.10792,
    "c": 1.10833,
    "v": 2810
  },
  {
    "dt": "2022.07.19 20:00",
    "o": 1.10833,
    "h": 1.10856,
    "l": 1.1081,
    "c": 1.10837,
    "v": 2134
  },
  {
    "dt": "2022.07.19 21:00",
    "o": 1.10839,
    "h": 1.10845,
    "l": 1.10792,
    "c": 1.10803,
    "v": 2591
  },
  {
    "dt": "2022.07.19 22:00",
    "o": 1.10767,
    "h": 1.1083,
    "l": 1.10748,
    "c": 1.10796,
    "v": 2614
  },
  {
    "dt": "2022.07.19 23:00",
    "o": 1.10797,
    "h": 1.1086,
    "l": 1.10676,
    "c": 1.10689,
    "v": 1613
  },
  {
    "dt": "2022.07.20 00:00",
    "o": 1.10582,
    "h": 1.1082,
    "l": 1.10582,
    "c": 1.10805,
    "v": 277
  },
  {
    "dt": "2022.07.20 01:00",
    "o": 1.10797,
    "h": 1.1085,
    "l": 1.10758,
    "c": 1.10763,
    "v": 969
  },
  {
    "dt": "2022.07.20 02:00",
    "o": 1.10766,
    "h": 1.10772,
    "l": 1.10613,
    "c": 1.10613,
    "v": 2146
  },
  {
    "dt": "2022.07.20 03:00",
    "o": 1.10614,
    "h": 1.10689,
    "l": 1.10564,
    "c": 1.10607,
    "v": 2926
  },
  {
    "dt": "2022.07.20 04:00",
    "o": 1.10607,
    "h": 1.10628,
    "l": 1.10467,
    "c": 1.10521,
    "v": 2648
  },
  {
    "dt": "2022.07.20 05:00",
    "o": 1.10522,
    "h": 1.10586,
    "l": 1.10413,
    "c": 1.10467,
    "v": 2750
  },
  {
    "dt": "2022.07.20 06:00",
    "o": 1.10466,
    "h": 1.10499,
    "l": 1.10387,
    "c": 1.10398,
    "v": 2608
  },
  {
    "dt": "2022.07.20 07:00",
    "o": 1.10397,
    "h": 1.10458,
    "l": 1.10352,
    "c": 1.10356,
    "v": 2767
  },
  {
    "dt": "2022.07.20 08:00",
    "o": 1.10356,
    "h": 1.10503,
    "l": 1.10347,
    "c": 1.10499,
    "v": 3181
  },
  {
    "dt": "2022.07.20 09:00",
    "o": 1.10501,
    "h": 1.10534,
    "l": 1.10438,
    "c": 1.10527,
    "v": 3700
  },
  {
    "dt": "2022.07.20 10:00",
    "o": 1.10525,
    "h": 1.106,
    "l": 1.10466,
    "c": 1.10523,
    "v": 4174
  },
  {
    "dt": "2022.07.20 11:00",
    "o": 1.10523,
    "h": 1.10631,
    "l": 1.10512,
    "c": 1.10617,
    "v": 3163
  },
  {
    "dt": "2022.07.20 12:00",
    "o": 1.1062,
    "h": 1.10628,
    "l": 1.10535,
    "c": 1.10564,
    "v": 2659
  },
  {
    "dt": "2022.07.20 13:00",
    "o": 1.10567,
    "h": 1.10612,
    "l": 1.10493,
    "c": 1.10584,
    "v": 3389
  },
  {
    "dt": "2022.07.20 14:00",
    "o": 1.1059,
    "h": 1.10616,
    "l": 1.104,
    "c": 1.104,
    "v": 3041
  },
  {
    "dt": "2022.07.20 15:00",
    "o": 1.10397,
    "h": 1.10538,
    "l": 1.1039,
    "c": 1.10431,
    "v": 3898
  },
  {
    "dt": "2022.07.20 16:00",
    "o": 1.1043,
    "h": 1.10533,
    "l": 1.10378,
    "c": 1.10414,
    "v": 4353
  },
  {
    "dt": "2022.07.20 17:00",
    "o": 1.10412,
    "h": 1.10588,
    "l": 1.10365,
    "c": 1.10495,
    "v": 4349
  },
  {
    "dt": "2022.07.20 18:00",
    "o": 1.10497,
    "h": 1.10571,
    "l": 1.10459,
    "c": 1.10545,
    "v": 3774
  },
  {
    "dt": "2022.07.20 19:00",
    "o": 1.10546,
    "h": 1.1061,
    "l": 1.10514,
    "c": 1.10539,
    "v": 3277
  },
  {
    "dt": "2022.07.20 20:00",
    "o": 1.10538,
    "h": 1.10561,
    "l": 1.10481,
    "c": 1.10509,
    "v": 3989
  },
  {
    "dt": "2022.07.20 21:00",
    "o": 1.10508,
    "h": 1.10571,
    "l": 1.10503,
    "c": 1.10568,
    "v": 3376
  },
  {
    "dt": "2022.07.20 22:00",
    "o": 1.10567,
    "h": 1.106,
    "l": 1.1047,
    "c": 1.1054,
    "v": 2401
  },
  {
    "dt": "2022.07.20 23:00",
    "o": 1.10543,
    "h": 1.10559,
    "l": 1.1046,
    "c": 1.10524,
    "v": 1318
  },
  {
    "dt": "2022.07.21 00:00",
    "o": 1.10335,
    "h": 1.10696,
    "l": 1.10309,
    "c": 1.1052,
    "v": 267
  },
  {
    "dt": "2022.07.21 01:00",
    "o": 1.10519,
    "h": 1.10568,
    "l": 1.10477,
    "c": 1.10551,
    "v": 1346
  },
  {
    "dt": "2022.07.21 02:00",
    "o": 1.1055,
    "h": 1.10653,
    "l": 1.10493,
    "c": 1.10621,
    "v": 1691
  },
  {
    "dt": "2022.07.21 03:00",
    "o": 1.10624,
    "h": 1.10701,
    "l": 1.10611,
    "c": 1.10669,
    "v": 2316
  },
  {
    "dt": "2022.07.21 04:00",
    "o": 1.1067,
    "h": 1.10731,
    "l": 1.10615,
    "c": 1.10724,
    "v": 3262
  },
  {
    "dt": "2022.07.21 05:00",
    "o": 1.10723,
    "h": 1.10733,
    "l": 1.10643,
    "c": 1.10716,
    "v": 3045
  },
  {
    "dt": "2022.07.21 06:00",
    "o": 1.10717,
    "h": 1.10761,
    "l": 1.10668,
    "c": 1.10699,
    "v": 2638
  },
  {
    "dt": "2022.07.21 07:00",
    "o": 1.10703,
    "h": 1.10785,
    "l": 1.10661,
    "c": 1.10768,
    "v": 2561
  },
  {
    "dt": "2022.07.21 08:00",
    "o": 1.10769,
    "h": 1.10818,
    "l": 1.10736,
    "c": 1.10785,
    "v": 2558
  },
  {
    "dt": "2022.07.21 09:00",
    "o": 1.10778,
    "h": 1.10859,
    "l": 1.10736,
    "c": 1.10753,
    "v": 3537
  },
  {
    "dt": "2022.07.21 10:00",
    "o": 1.10756,
    "h": 1.10885,
    "l": 1.10734,
    "c": 1.108,
    "v": 4013
  },
  {
    "dt": "2022.07.21 11:00",
    "o": 1.10802,
    "h": 1.10861,
    "l": 1.10781,
    "c": 1.10823,
    "v": 3436
  },
  {
    "dt": "2022.07.21 12:00",
    "o": 1.10823,
    "h": 1.1091,
    "l": 1.10799,
    "c": 1.1089,
    "v": 3312
  },
  {
    "dt": "2022.07.21 13:00",
    "o": 1.10892,
    "h": 1.10935,
    "l": 1.10852,
    "c": 1.10862,
    "v": 2741
  },
  {
    "dt": "2022.07.21 14:00",
    "o": 1.10866,
    "h": 1.11023,
    "l": 1.10853,
    "c": 1.10998,
    "v": 3280
  },
  {
    "dt": "2022.07.21 15:00",
    "o": 1.10994,
    "h": 1.11028,
    "l": 1.10847,
    "c": 1.10888,
    "v": 4608
  },
  {
    "dt": "2022.07.21 16:00",
    "o": 1.10886,
    "h": 1.11034,
    "l": 1.10844,
    "c": 1.10991,
    "v": 5276
  },
  {
    "dt": "2022.07.21 17:00",
    "o": 1.10992,
    "h": 1.11004,
    "l": 1.10702,
    "c": 1.10826,
    "v": 4839
  },
  {
    "dt": "2022.07.21 18:00",
    "o": 1.10827,
    "h": 1.10938,
    "l": 1.10798,
    "c": 1.10937,
    "v": 4339
  },
  {
    "dt": "2022.07.21 19:00",
    "o": 1.10936,
    "h": 1.10986,
    "l": 1.1092,
    "c": 1.1097,
    "v": 3433
  },
  {
    "dt": "2022.07.21 20:00",
    "o": 1.10968,
    "h": 1.10981,
    "l": 1.10935,
    "c": 1.1098,
    "v": 3076
  },
  {
    "dt": "2022.07.21 21:00",
    "o": 1.1098,
    "h": 1.10985,
    "l": 1.10887,
    "c": 1.10917,
    "v": 3019
  },
  {
    "dt": "2022.07.21 22:00",
    "o": 1.1084,
    "h": 1.10979,
    "l": 1.1084,
    "c": 1.10928,
    "v": 3036
  },
  {
    "dt": "2022.07.21 23:00",
    "o": 1.1093,
    "h": 1.10961,
    "l": 1.10806,
    "c": 1.10806,
    "v": 2053
  },
  {
    "dt": "2022.07.22 00:00",
    "o": 1.10814,
    "h": 1.10945,
    "l": 1.10811,
    "c": 1.10866,
    "v": 454
  },
  {
    "dt": "2022.07.22 01:00",
    "o": 1.10866,
    "h": 1.10938,
    "l": 1.1085,
    "c": 1.10874,
    "v": 1457
  },
  {
    "dt": "2022.07.22 02:00",
    "o": 1.10872,
    "h": 1.10932,
    "l": 1.1085,
    "c": 1.10857,
    "v": 1802
  },
  {
    "dt": "2022.07.22 03:00",
    "o": 1.10851,
    "h": 1.10867,
    "l": 1.10812,
    "c": 1.10858,
    "v": 3182
  },
  {
    "dt": "2022.07.22 04:00",
    "o": 1.10858,
    "h": 1.10981,
    "l": 1.10857,
    "c": 1.10973,
    "v": 3358
  },
  {
    "dt": "2022.07.22 05:00",
    "o": 1.10972,
    "h": 1.1106,
    "l": 1.10959,
    "c": 1.11029,
    "v": 3323
  },
  {
    "dt": "2022.07.22 06:00",
    "o": 1.11025,
    "h": 1.11052,
    "l": 1.10987,
    "c": 1.11022,
    "v": 2529
  },
  {
    "dt": "2022.07.22 07:00",
    "o": 1.11019,
    "h": 1.1102,
    "l": 1.10984,
    "c": 1.10998,
    "v": 2196
  },
  {
    "dt": "2022.07.22 08:00",
    "o": 1.10998,
    "h": 1.11046,
    "l": 1.10943,
    "c": 1.11013,
    "v": 2818
  },
  {
    "dt": "2022.07.22 09:00",
    "o": 1.11007,
    "h": 1.11087,
    "l": 1.10983,
    "c": 1.11011,
    "v": 3634
  },
  {
    "dt": "2022.07.22 10:00",
    "o": 1.11007,
    "h": 1.11028,
    "l": 1.10836,
    "c": 1.10881,
    "v": 3833
  },
  {
    "dt": "2022.07.22 11:00",
    "o": 1.10881,
    "h": 1.1094,
    "l": 1.10877,
    "c": 1.1093,
    "v": 3389
  },
  {
    "dt": "2022.07.22 12:00",
    "o": 1.1093,
    "h": 1.10931,
    "l": 1.10852,
    "c": 1.10916,
    "v": 3368
  },
  {
    "dt": "2022.07.22 13:00",
    "o": 1.10915,
    "h": 1.10987,
    "l": 1.10909,
    "c": 1.10921,
    "v": 2648
  },
  {
    "dt": "2022.07.22 14:00",
    "o": 1.10923,
    "h": 1.10963,
    "l": 1.10759,
    "c": 1.10776,
    "v": 3471
  },
  {
    "dt": "2022.07.22 15:00",
    "o": 1.10776,
    "h": 1.10841,
    "l": 1.10759,
    "c": 1.1082,
    "v": 3790
  },
  {
    "dt": "2022.07.22 16:00",
    "o": 1.10817,
    "h": 1.10879,
    "l": 1.10587,
    "c": 1.10635,
    "v": 4425
  },
  {
    "dt": "2022.07.22 17:00",
    "o": 1.10636,
    "h": 1.1086,
    "l": 1.10597,
    "c": 1.10814,
    "v": 4845
  },
  {
    "dt": "2022.07.22 18:00",
    "o": 1.1081,
    "h": 1.10828,
    "l": 1.10699,
    "c": 1.10725,
    "v": 4382
  },
  {
    "dt": "2022.07.22 19:00",
    "o": 1.10723,
    "h": 1.10761,
    "l": 1.10687,
    "c": 1.10739,
    "v": 3853
  },
  {
    "dt": "2022.07.22 20:00",
    "o": 1.10739,
    "h": 1.10765,
    "l": 1.10636,
    "c": 1.10676,
    "v": 3192
  },
  {
    "dt": "2022.07.22 21:00",
    "o": 1.10674,
    "h": 1.10811,
    "l": 1.10673,
    "c": 1.10774,
    "v": 3661
  },
  {
    "dt": "2022.07.22 22:00",
    "o": 1.10774,
    "h": 1.10792,
    "l": 1.10696,
    "c": 1.10764,
    "v": 3310
  },
  {
    "dt": "2022.07.22 23:00",
    "o": 1.10764,
    "h": 1.1079,
    "l": 1.10645,
    "c": 1.10724,
    "v": 1838
  },
  {
    "dt": "2022.07.25 00:00",
    "o": 1.10588,
    "h": 1.10737,
    "l": 1.10547,
    "c": 1.10656,
    "v": 133
  },
  {
    "dt": "2022.07.25 01:00",
    "o": 1.10598,
    "h": 1.10848,
    "l": 1.10509,
    "c": 1.10823,
    "v": 1403
  },
  {
    "dt": "2022.07.25 02:00",
    "o": 1.10825,
    "h": 1.10834,
    "l": 1.10746,
    "c": 1.10746,
    "v": 1917
  },
  {
    "dt": "2022.07.25 03:00",
    "o": 1.1075,
    "h": 1.10826,
    "l": 1.10673,
    "c": 1.10701,
    "v": 3642
  },
  {
    "dt": "2022.07.25 04:00",
    "o": 1.10703,
    "h": 1.10802,
    "l": 1.10696,
    "c": 1.10774,
    "v": 4254
  },
  {
    "dt": "2022.07.25 05:00",
    "o": 1.10775,
    "h": 1.1084,
    "l": 1.10729,
    "c": 1.10831,
    "v": 3874
  },
  {
    "dt": "2022.07.25 06:00",
    "o": 1.1083,
    "h": 1.10853,
    "l": 1.10764,
    "c": 1.10783,
    "v": 3536
  },
  {
    "dt": "2022.07.25 07:00",
    "o": 1.10785,
    "h": 1.10806,
    "l": 1.10718,
    "c": 1.10803,
    "v": 2565
  },
  {
    "dt": "2022.07.25 08:00",
    "o": 1.10797,
    "h": 1.1085,
    "l": 1.10788,
    "c": 1.10836,
    "v": 3173
  },
  {
    "dt": "2022.07.25 09:00",
    "o": 1.10832,
    "h": 1.10875,
    "l": 1.10805,
    "c": 1.10835,
    "v": 3828
  },
  {
    "dt": "2022.07.25 10:00",
    "o": 1.10836,
    "h": 1.10914,
    "l": 1.10834,
    "c": 1.10885,
    "v": 4117
  },
  {
    "dt": "2022.07.25 11:00",
    "o": 1.10882,
    "h": 1.10924,
    "l": 1.1086,
    "c": 1.10921,
    "v": 3844
  },
  {
    "dt": "2022.07.25 12:00",
    "o": 1.1092,
    "h": 1.10991,
    "l": 1.10858,
    "c": 1.10864,
    "v": 3307
  },
  {
    "dt": "2022.07.25 13:00",
    "o": 1.10865,
    "h": 1.10902,
    "l": 1.10833,
    "c": 1.10893,
    "v": 3737
  },
  {
    "dt": "2022.07.25 14:00",
    "o": 1.10893,
    "h": 1.10899,
    "l": 1.10807,
    "c": 1.1088,
    "v": 3591
  },
  {
    "dt": "2022.07.25 15:00",
    "o": 1.10881,
    "h": 1.11001,
    "l": 1.10869,
    "c": 1.11001,
    "v": 4024
  },
  {
    "dt": "2022.07.25 16:00",
    "o": 1.10998,
    "h": 1.11054,
    "l": 1.10944,
    "c": 1.11001,
    "v": 4021
  },
  {
    "dt": "2022.07.25 17:00",
    "o": 1.11005,
    "h": 1.11084,
    "l": 1.10983,
    "c": 1.11063,
    "v": 4801
  },
  {
    "dt": "2022.07.25 18:00",
    "o": 1.11059,
    "h": 1.11108,
    "l": 1.11035,
    "c": 1.11077,
    "v": 4015
  },
  {
    "dt": "2022.07.25 19:00",
    "o": 1.11077,
    "h": 1.11087,
    "l": 1.11034,
    "c": 1.11044,
    "v": 3024
  },
  {
    "dt": "2022.07.25 20:00",
    "o": 1.11045,
    "h": 1.11056,
    "l": 1.10989,
    "c": 1.10993,
    "v": 2573
  },
  {
    "dt": "2022.07.25 21:00",
    "o": 1.10994,
    "h": 1.1102,
    "l": 1.10959,
    "c": 1.10993,
    "v": 2811
  },
  {
    "dt": "2022.07.25 22:00",
    "o": 1.10992,
    "h": 1.11048,
    "l": 1.10985,
    "c": 1.1104,
    "v": 2460
  },
  {
    "dt": "2022.07.25 23:00",
    "o": 1.11041,
    "h": 1.11097,
    "l": 1.10926,
    "c": 1.10926,
    "v": 1559
  },
  {
    "dt": "2022.07.26 00:00",
    "o": 1.10892,
    "h": 1.11071,
    "l": 1.1085,
    "c": 1.11043,
    "v": 327
  },
  {
    "dt": "2022.07.26 01:00",
    "o": 1.11039,
    "h": 1.11081,
    "l": 1.11023,
    "c": 1.1103,
    "v": 597
  },
  {
    "dt": "2022.07.26 02:00",
    "o": 1.11027,
    "h": 1.11068,
    "l": 1.1101,
    "c": 1.1105,
    "v": 1307
  },
  {
    "dt": "2022.07.26 03:00",
    "o": 1.11057,
    "h": 1.11116,
    "l": 1.11045,
    "c": 1.11087,
    "v": 2719
  },
  {
    "dt": "2022.07.26 04:00",
    "o": 1.11087,
    "h": 1.11214,
    "l": 1.11081,
    "c": 1.11204,
    "v": 2893
  },
  {
    "dt": "2022.07.26 05:00",
    "o": 1.11211,
    "h": 1.11285,
    "l": 1.11186,
    "c": 1.11252,
    "v": 2396
  },
  {
    "dt": "2022.07.26 06:00",
    "o": 1.11252,
    "h": 1.11258,
    "l": 1.11049,
    "c": 1.11067,
    "v": 2325
  },
  {
    "dt": "2022.07.26 07:00",
    "o": 1.11066,
    "h": 1.11122,
    "l": 1.11061,
    "c": 1.11105,
    "v": 2427
  },
  {
    "dt": "2022.07.26 08:00",
    "o": 1.11107,
    "h": 1.11165,
    "l": 1.11103,
    "c": 1.11137,
    "v": 2309
  },
  {
    "dt": "2022.07.26 09:00",
    "o": 1.11142,
    "h": 1.11179,
    "l": 1.11105,
    "c": 1.11169,
    "v": 2716
  },
  {
    "dt": "2022.07.26 10:00",
    "o": 1.11172,
    "h": 1.11315,
    "l": 1.11172,
    "c": 1.11254,
    "v": 3097
  },
  {
    "dt": "2022.07.26 11:00",
    "o": 1.11255,
    "h": 1.11286,
    "l": 1.11173,
    "c": 1.11277,
    "v": 2727
  },
  {
    "dt": "2022.07.26 12:00",
    "o": 1.11281,
    "h": 1.11368,
    "l": 1.11238,
    "c": 1.11355,
    "v": 2845
  },
  {
    "dt": "2022.07.26 13:00",
    "o": 1.11355,
    "h": 1.11383,
    "l": 1.11179,
    "c": 1.11259,
    "v": 3168
  },
  {
    "dt": "2022.07.26 14:00",
    "o": 1.11259,
    "h": 1.11308,
    "l": 1.11109,
    "c": 1.11118,
    "v": 2779
  },
  {
    "dt": "2022.07.26 15:00",
    "o": 1.11117,
    "h": 1.11262,
    "l": 1.11117,
    "c": 1.11241,
    "v": 3170
  },
  {
    "dt": "2022.07.26 16:00",
    "o": 1.11246,
    "h": 1.11312,
    "l": 1.11207,
    "c": 1.1131,
    "v": 3810
  },
  {
    "dt": "2022.07.26 17:00",
    "o": 1.11301,
    "h": 1.11418,
    "l": 1.11217,
    "c": 1.1139,
    "v": 4417
  },
  {
    "dt": "2022.07.26 18:00",
    "o": 1.11387,
    "h": 1.11395,
    "l": 1.11254,
    "c": 1.11268,
    "v": 3552
  },
  {
    "dt": "2022.07.26 19:00",
    "o": 1.1127,
    "h": 1.11324,
    "l": 1.11265,
    "c": 1.11302,
    "v": 2717
  },
  {
    "dt": "2022.07.26 20:00",
    "o": 1.11301,
    "h": 1.11342,
    "l": 1.11281,
    "c": 1.11313,
    "v": 2707
  },
  {
    "dt": "2022.07.26 21:00",
    "o": 1.11312,
    "h": 1.11314,
    "l": 1.11268,
    "c": 1.11294,
    "v": 2504
  },
  {
    "dt": "2022.07.26 22:00",
    "o": 1.11298,
    "h": 1.1132,
    "l": 1.11205,
    "c": 1.11298,
    "v": 2465
  },
  {
    "dt": "2022.07.26 23:00",
    "o": 1.11306,
    "h": 1.11349,
    "l": 1.11261,
    "c": 1.11276,
    "v": 1870
  },
  {
    "dt": "2022.07.27 00:00",
    "o": 1.11269,
    "h": 1.11307,
    "l": 1.10911,
    "c": 1.11271,
    "v": 246
  },
  {
    "dt": "2022.07.27 01:00",
    "o": 1.11265,
    "h": 1.11357,
    "l": 1.11252,
    "c": 1.11327,
    "v": 1026
  },
  {
    "dt": "2022.07.27 02:00",
    "o": 1.11328,
    "h": 1.11351,
    "l": 1.11291,
    "c": 1.11293,
    "v": 1435
  },
  {
    "dt": "2022.07.27 03:00",
    "o": 1.11289,
    "h": 1.11384,
    "l": 1.11289,
    "c": 1.11291,
    "v": 2135
  },
  {
    "dt": "2022.07.27 04:00",
    "o": 1.1129,
    "h": 1.11369,
    "l": 1.10923,
    "c": 1.11018,
    "v": 3185
  },
  {
    "dt": "2022.07.27 05:00",
    "o": 1.11019,
    "h": 1.11111,
    "l": 1.10985,
    "c": 1.11097,
    "v": 2598
  },
  {
    "dt": "2022.07.27 06:00",
    "o": 1.11101,
    "h": 1.11185,
    "l": 1.11074,
    "c": 1.11098,
    "v": 1962
  },
  {
    "dt": "2022.07.27 07:00",
    "o": 1.11098,
    "h": 1.11202,
    "l": 1.11072,
    "c": 1.11181,
    "v": 1388
  },
  {
    "dt": "2022.07.27 08:00",
    "o": 1.11181,
    "h": 1.11251,
    "l": 1.11138,
    "c": 1.1123,
    "v": 2129
  },
  {
    "dt": "2022.07.27 09:00",
    "o": 1.11233,
    "h": 1.11259,
    "l": 1.11184,
    "c": 1.1122,
    "v": 3106
  },
  {
    "dt": "2022.07.27 10:00",
    "o": 1.1122,
    "h": 1.11356,
    "l": 1.11214,
    "c": 1.11354,
    "v": 3206
  },
  {
    "dt": "2022.07.27 11:00",
    "o": 1.11353,
    "h": 1.11378,
    "l": 1.11275,
    "c": 1.1137,
    "v": 2811
  },
  {
    "dt": "2022.07.27 12:00",
    "o": 1.11372,
    "h": 1.11391,
    "l": 1.11336,
    "c": 1.11365,
    "v": 2647
  },
  {
    "dt": "2022.07.27 13:00",
    "o": 1.11365,
    "h": 1.11391,
    "l": 1.11339,
    "c": 1.11384,
    "v": 2598
  },
  {
    "dt": "2022.07.27 14:00",
    "o": 1.11385,
    "h": 1.11556,
    "l": 1.11376,
    "c": 1.11547,
    "v": 2950
  },
  {
    "dt": "2022.07.27 15:00",
    "o": 1.11547,
    "h": 1.11617,
    "l": 1.11508,
    "c": 1.11552,
    "v": 2762
  },
  {
    "dt": "2022.07.27 16:00",
    "o": 1.11554,
    "h": 1.11644,
    "l": 1.11488,
    "c": 1.11594,
    "v": 3506
  },
  {
    "dt": "2022.07.27 17:00",
    "o": 1.11598,
    "h": 1.11651,
    "l": 1.11529,
    "c": 1.11601,
    "v": 4102
  },
  {
    "dt": "2022.07.27 18:00",
    "o": 1.116,
    "h": 1.11644,
    "l": 1.11564,
    "c": 1.11629,
    "v": 3158
  },
  {
    "dt": "2022.07.27 19:00",
    "o": 1.11631,
    "h": 1.1168,
    "l": 1.11581,
    "c": 1.11671,
    "v": 2348
  },
  {
    "dt": "2022.07.27 20:00",
    "o": 1.11673,
    "h": 1.11674,
    "l": 1.11596,
    "c": 1.1163,
    "v": 2553
  },
  {
    "dt": "2022.07.27 21:00",
    "o": 1.11628,
    "h": 1.11771,
    "l": 1.11584,
    "c": 1.11678,
    "v": 5553
  },
  {
    "dt": "2022.07.27 22:00",
    "o": 1.11394,
    "h": 1.11734,
    "l": 1.11394,
    "c": 1.11646,
    "v": 4644
  },
  {
    "dt": "2022.07.27 23:00",
    "o": 1.11647,
    "h": 1.11657,
    "l": 1.11573,
    "c": 1.1159,
    "v": 2303
  },
  {
    "dt": "2022.07.28 00:00",
    "o": 1.1166,
    "h": 1.11678,
    "l": 1.11488,
    "c": 1.11583,
    "v": 361
  },
  {
    "dt": "2022.07.28 01:00",
    "o": 1.11581,
    "h": 1.11671,
    "l": 1.11581,
    "c": 1.11632,
    "v": 952
  },
  {
    "dt": "2022.07.28 02:00",
    "o": 1.11631,
    "h": 1.1175,
    "l": 1.11631,
    "c": 1.11713,
    "v": 1592
  },
  {
    "dt": "2022.07.28 03:00",
    "o": 1.11713,
    "h": 1.11778,
    "l": 1.11588,
    "c": 1.11605,
    "v": 2535
  },
  {
    "dt": "2022.07.28 04:00",
    "o": 1.11606,
    "h": 1.11674,
    "l": 1.11449,
    "c": 1.1158,
    "v": 3295
  },
  {
    "dt": "2022.07.28 05:00",
    "o": 1.11584,
    "h": 1.11604,
    "l": 1.1152,
    "c": 1.11573,
    "v": 2365
  },
  {
    "dt": "2022.07.28 06:00",
    "o": 1.11572,
    "h": 1.11572,
    "l": 1.11455,
    "c": 1.11493,
    "v": 2119
  },
  {
    "dt": "2022.07.28 07:00",
    "o": 1.11492,
    "h": 1.11511,
    "l": 1.11435,
    "c": 1.11458,
    "v": 2025
  },
  {
    "dt": "2022.07.28 08:00",
    "o": 1.11455,
    "h": 1.11492,
    "l": 1.1144,
    "c": 1.11455,
    "v": 2162
  },
  {
    "dt": "2022.07.28 09:00",
    "o": 1.11457,
    "h": 1.11522,
    "l": 1.1145,
    "c": 1.11452,
    "v": 3457
  },
  {
    "dt": "2022.07.28 10:00",
    "o": 1.11457,
    "h": 1.11493,
    "l": 1.11312,
    "c": 1.11323,
    "v": 4253
  },
  {
    "dt": "2022.07.28 11:00",
    "o": 1.11323,
    "h": 1.11347,
    "l": 1.11218,
    "c": 1.11317,
    "v": 3609
  },
  {
    "dt": "2022.07.28 12:00",
    "o": 1.11312,
    "h": 1.11342,
    "l": 1.11232,
    "c": 1.11314,
    "v": 3449
  },
  {
    "dt": "2022.07.28 13:00",
    "o": 1.11313,
    "h": 1.1137,
    "l": 1.11279,
    "c": 1.11314,
    "v": 3479
  },
  {
    "dt": "2022.07.28 14:00",
    "o": 1.11317,
    "h": 1.11336,
    "l": 1.11131,
    "c": 1.11141,
    "v": 3125
  },
  {
    "dt": "2022.07.28 15:00",
    "o": 1.11146,
    "h": 1.11303,
    "l": 1.11112,
    "c": 1.11144,
    "v": 4440
  },
  {
    "dt": "2022.07.28 16:00",
    "o": 1.11144,
    "h": 1.11268,
    "l": 1.11122,
    "c": 1.11211,
    "v": 4719
  },
  {
    "dt": "2022.07.28 17:00",
    "o": 1.11203,
    "h": 1.11239,
    "l": 1.11031,
    "c": 1.11033,
    "v": 4764
  },
  {
    "dt": "2022.07.28 18:00",
    "o": 1.11034,
    "h": 1.11127,
    "l": 1.1103,
    "c": 1.11055,
    "v": 3429
  },
  {
    "dt": "2022.07.28 19:00",
    "o": 1.11056,
    "h": 1.11121,
    "l": 1.11031,
    "c": 1.11031,
    "v": 2631
  },
  {
    "dt": "2022.07.28 20:00",
    "o": 1.11032,
    "h": 1.11063,
    "l": 1.11005,
    "c": 1.11033,
    "v": 2284
  },
  {
    "dt": "2022.07.28 21:00",
    "o": 1.11032,
    "h": 1.11037,
    "l": 1.10947,
    "c": 1.11037,
    "v": 2085
  },
  {
    "dt": "2022.07.28 22:00",
    "o": 1.10974,
    "h": 1.11038,
    "l": 1.10957,
    "c": 1.11029,
    "v": 2335
  },
  {
    "dt": "2022.07.28 23:00",
    "o": 1.11024,
    "h": 1.11095,
    "l": 1.11008,
    "c": 1.11016,
    "v": 2078
  },
  {
    "dt": "2022.07.29 00:00",
    "o": 1.11474,
    "h": 1.11474,
    "l": 1.10888,
    "c": 1.11013,
    "v": 295
  },
  {
    "dt": "2022.07.29 01:00",
    "o": 1.11012,
    "h": 1.1118,
    "l": 1.11006,
    "c": 1.11112,
    "v": 1231
  },
  {
    "dt": "2022.07.29 02:00",
    "o": 1.11112,
    "h": 1.11185,
    "l": 1.11094,
    "c": 1.11169,
    "v": 1328
  },
  {
    "dt": "2022.07.29 03:00",
    "o": 1.11167,
    "h": 1.11238,
    "l": 1.11087,
    "c": 1.11199,
    "v": 2557
  },
  {
    "dt": "2022.07.29 04:00",
    "o": 1.112,
    "h": 1.11212,
    "l": 1.11147,
    "c": 1.11157,
    "v": 2640
  },
  {
    "dt": "2022.07.29 05:00",
    "o": 1.11161,
    "h": 1.11189,
    "l": 1.11092,
    "c": 1.11095,
    "v": 2466
  },
  {
    "dt": "2022.07.29 06:00",
    "o": 1.11095,
    "h": 1.11095,
    "l": 1.10901,
    "c": 1.11017,
    "v": 2760
  },
  {
    "dt": "2022.07.29 07:00",
    "o": 1.11019,
    "h": 1.11086,
    "l": 1.10983,
    "c": 1.11024,
    "v": 2181
  },
  {
    "dt": "2022.07.29 08:00",
    "o": 1.11021,
    "h": 1.11045,
    "l": 1.10928,
    "c": 1.10952,
    "v": 2711
  },
  {
    "dt": "2022.07.29 09:00",
    "o": 1.10951,
    "h": 1.11064,
    "l": 1.10945,
    "c": 1.10966,
    "v": 3490
  },
  {
    "dt": "2022.07.29 10:00",
    "o": 1.10968,
    "h": 1.11206,
    "l": 1.10967,
    "c": 1.11177,
    "v": 4221
  },
  {
    "dt": "2022.07.29 11:00",
    "o": 1.11178,
    "h": 1.11188,
    "l": 1.11009,
    "c": 1.11009,
    "v": 3457
  },
  {
    "dt": "2022.07.29 12:00",
    "o": 1.11009,
    "h": 1.11066,
    "l": 1.10951,
    "c": 1.11002,
    "v": 3168
  },
  {
    "dt": "2022.07.29 13:00",
    "o": 1.11003,
    "h": 1.11115,
    "l": 1.10988,
    "c": 1.11109,
    "v": 3021
  },
  {
    "dt": "2022.07.29 14:00",
    "o": 1.11111,
    "h": 1.11191,
    "l": 1.11029,
    "c": 1.11113,
    "v": 3143
  },
  {
    "dt": "2022.07.29 15:00",
    "o": 1.11113,
    "h": 1.11219,
    "l": 1.11068,
    "c": 1.11154,
    "v": 4307
  },
  {
    "dt": "2022.07.29 16:00",
    "o": 1.11152,
    "h": 1.11233,
    "l": 1.11074,
    "c": 1.11157,
    "v": 4849
  },
  {
    "dt": "2022.07.29 17:00",
    "o": 1.11157,
    "h": 1.11277,
    "l": 1.11109,
    "c": 1.1122,
    "v": 5225
  },
  {
    "dt": "2022.07.29 18:00",
    "o": 1.11218,
    "h": 1.11338,
    "l": 1.1119,
    "c": 1.11243,
    "v": 4280
  },
  {
    "dt": "2022.07.29 19:00",
    "o": 1.11245,
    "h": 1.11294,
    "l": 1.11211,
    "c": 1.11255,
    "v": 2725
  },
  {
    "dt": "2022.07.29 20:00",
    "o": 1.11256,
    "h": 1.1127,
    "l": 1.11223,
    "c": 1.11229,
    "v": 1976
  },
  {
    "dt": "2022.07.29 21:00",
    "o": 1.11231,
    "h": 1.11231,
    "l": 1.11112,
    "c": 1.11113,
    "v": 2332
  },
  {
    "dt": "2022.07.29 22:00",
    "o": 1.11113,
    "h": 1.1116,
    "l": 1.1107,
    "c": 1.11076,
    "v": 2196
  },
  {
    "dt": "2022.07.29 23:00",
    "o": 1.11077,
    "h": 1.11155,
    "l": 1.11,
    "c": 1.11054,
    "v": 1360
  }
]