[
  {
    "dt": "2022.10.03 00:00",
    "o": 1.14242,
    "h": 1.14345,
    "l": 1.14172,
    "c": 1.14217,
    "v": 139
  },
  {
    "dt": "2022.10.03 01:00",
    "o": 1.14203,
    "h": 1.14406,
    "l": 1.14203,
    "c": 1.14262,
    "v": 3122
  },
  {
    "dt": "2022.10.03 02:00",
    "o": 1.14257,
    "h": 1.14316,
    "l": 1.14197,
    "c": 1.14209,
    "v": 3339
  },
  {
    "dt": "2022.10.03 03:00",
    "o": 1.1421,
    "h": 1.14306,
    "l": 1.14136,
    "c": 1.14179,
    "v": 4197
  },
  {
    "dt": "2022.10.03 04:00",
    "o": 1.14182,
    "h": 1.14303,
    "l": 1.14079,
    "c": 1.14126,
    "v": 4097
  },
  {
    "dt": "2022.10.03 05:00",
    "o": 1.14125,
    "h": 1.14219,
    "l": 1.14117,
    "c": 1.14165,
    "v": 3325
  },
  {
    "dt": "2022.10.03 06:00",
    "o": 1.14165,
    "h": 1.1423,
    "l": 1.14114,
    "c": 1.14194,
    "v": 3581
  },
  {
    "dt": "2022.10.03 07:00",
    "o": 1.14193,
    "h": 1.14262,
    "l": 1.14145,
    "c": 1.14145,
    "v": 3832
  },
  {
    "dt": "2022.10.03 08:00",
    "o": 1.14145,
    "h": 1.14221,
    "l": 1.1399,
    "c": 1.14018,
    "v": 4316
  },
  {
    "dt": "2022.10.03 09:00",
    "o": 1.1402,
    "h": 1.14086,
    "l": 1.13909,
    "c": 1.14042,
    "v": 4944
  },
  {
    "dt": "2022.10.03 10:00",
    "o": 1.14046,
    "h": 1.14139,
    "l": 1.13977,
    "c": 1.14016,
    "v": 5358
  },
  {
    "dt": "2022.10.03 11:00",
    "o": 1.14013,
    "h": 1.14041,
    "l": 1.13951,
    "c": 1.14001,
    "v": 4636
  },
  {
    "dt": "2022.10.03 12:00",
    "o": 1.14002,
    "h": 1.14066,
    "l": 1.13855,
    "c": 1.14019,
    "v": 4210
  },
  {
    "dt": "2022.10.03 13:00",
    "o": 1.14018,
    "h": 1.14029,
    "l": 1.13923,
    "c": 1.13977,
    "v": 3893
  },
  {
    "dt": "2022.10.03 14:00",
    "o": 1.13979,
    "h": 1.14081,
    "l": 1.13945,
    "c": 1.14016,
    "v": 4262
  },
  {
    "dt": "2022.10.03 15:00",
    "o": 1.14019,
    "h": 1.1411,
    "l": 1.13892,
    "c": 1.13893,
    "v": 5004
  },
  {
    "dt": "2022.10.03 16:00",
    "o": 1.13893,
    "h": 1.13995,
    "l": 1.13868,
    "c": 1.13868,
    "v": 4991
  },
  {
    "dt": "2022.10.03 17:00",
    "o": 1.13868,
    "h": 1.13908,
    "l": 1.13617,
    "c": 1.1371,
    "v": 5965
  },
  {
    "dt": "2022.10.03 18:00",
    "o": 1.13708,
    "h": 1.13877,
    "l": 1.13607,
    "c": 1.13839,
    "v": 5257
  },
  {
    "dt": "2022.10.03 19:00",
    "o": 1.13842,
    "h": 1.13923,
    "l": 1.13837,
    "c": 1.13917,
    "v": 4505
  },
  {
    "dt": "2022.10.03 20:00",
    "o": 1.13912,
    "h": 1.13937,
    "l": 1.13839,
    "c": 1.13861,
    "v": 3876
  },
  {
    "dt": "2022.10.03 21:00",
    "o": 1.13862,
    "h": 1.13963,
    "l": 1.13803,
    "c": 1.13934,
    "v": 3377
  },
  {
    "dt": "2022.10.03 22:00",
    "o": 1.13936,
    "h": 1.13996,
    "l": 1.1383,
    "c": 1.13919,
    "v": 4192
  },
  {
    "dt": "2022.10.03 23:00",
    "o": 1.1392,
    "h": 1.1395,
    "l": 1.13835,
    "c": 1.13897,
    "v": 2639
  },
  {
    "dt": "2022.10.04 00:00",
    "o": 1.13784,
    "h": 1.13891,
    "l": 1.13757,
    "c": 1.13809,
    "v": 262
  },
  {
    "dt": "2022.10.04 01:00",
    "o": 1.13809,
    "h": 1.13938,
    "l": 1.1372,
    "c": 1.13757,
    "v": 1945
  },
  {
    "dt": "2022.10.04 02:00",
    "o": 1.13754,
    "h": 1.13836,
    "l": 1.13657,
    "c": 1.13664,
    "v": 2495
  },
  {
    "dt": "2022.10.04 03:00",
    "o": 1.13664,
    "h": 1.13804,
    "l": 1.13645,
    "c": 1.13725,
    "v": 3954
  },
  {
    "dt": "2022.10.04 04:00",
    "o": 1.13724,
    "h": 1.13865,
    "l": 1.13722,
    "c": 1.13851,
    "v": 3641
  },
  {
    "dt": "2022.10.04 05:00",
    "o": 1.13853,
    "h": 1.1408,
    "l": 1.13846,
    "c": 1.14053,
    "v": 3175
  },
  {
    "dt": "2022.10.04 06:00",
    "o": 1.14052,
    "h": 1.14178,
    "l": 1.13397,
    "c": 1.13465,
    "v": 4103
  },
  {
    "dt": "2022.10.04 07:00",
    "o": 1.13469,
    "h": 1.1367,
    "l": 1.13218,
    "c": 1.13626,
    "v": 4035
  },
  {
    "dt": "2022.10.04 08:00",
    "o": 1.13622,
    "h": 1.13685,
    "l": 1.13396,
    "c": 1.13639,
    "v": 4193
  },
  {
    "dt": "2022.10.04 09:00",
    "o": 1.13638,
    "h": 1.13865,
    "l": 1.13592,
    "c": 1.13757,
    "v": 5162
  },
  {
    "dt": "2022.10.04 10:00",
    "o": 1.13757,
    "h": 1.13787,
    "l": 1.13544,
    "c": 1.13627,
    "v": 5230
  },
  {
    "dt": "2022.10.04 11:00",
    "o": 1.13631,
    "h": 1.13638,
    "l": 1.13328,
    "c": 1.13383,
    "v": 4616
  },
  {
    "dt": "2022.10.04 12:00",
    "o": 1.13385,
    "h": 1.13532,
    "l": 1.1337,
    "c": 1.13478,
    "v": 4749
  },
  {
    "dt": "2022.10.04 13:00",
    "o": 1.13481,
    "h": 1.13583,
    "l": 1.13341,
    "c": 1.1347,
    "v": 4324
  },
  {
    "dt": "2022.10.04 14:00",
    "o": 1.13469,
    "h": 1.13492,
    "l": 1.13283,
    "c": 1.1332,
    "v": 4551
  },
  {
    "dt": "2022.10.04 15:00",
    "o": 1.13323,
    "h": 1.13597,
    "l": 1.13309,
    "c": 1.135,
    "v": 4718
  },
  {
    "dt": "2022.10.04 16:00",
    "o": 1.13502,
    "h": 1.13604,
    "l": 1.13435,
    "c": 1.13452,
    "v": 5046
  },
  {
    "dt": "2022.10.04 17:00",
    "o": 1.13447,
    "h": 1.1351,
    "l": 1.13162,
    "c": 1.13181,
    "v": 5515
  },
  {
    "dt": "2022.10.04 18:00",
    "o": 1.13186,
    "h": 1.13294,
    "l": 1.13086,
    "c": 1.13095,
    "v": 4588
  },
  {
    "dt": "2022.10.04 19:00",
    "o": 1.13094,
    "h": 1.13297,
    "l": 1.13058,
    "c": 1.1309,
    "v": 4567
  },
  {
    "dt": "2022.10.04 20:00",
    "o": 1.13092,
    "h": 1.13228,
    "l": 1.13092,
    "c": 1.1318,
    "v": 4150
  },
  {
    "dt": "2022.10.04 21:00",
    "o": 1.13177,
    "h": 1.1327,
    "l": 1.13156,
    "c": 1.13255,
    "v": 3822
  },
  {
    "dt": "2022.10.04 22:00",
    "o": 1.13251,
    "h": 1.13421,
    "l": 1.13248,
    "c": 1.13389,
    "v": 4455
  },
  {
    "dt": "2022.10.04 23:00",
    "o": 1.13396,
    "h": 1.13478,
    "l": 1.13343,
    "c": 1.13474,
    "v": 2310
  },
  {
    "dt": "2022.10.05 00:00",
    "o": 1.13621,
    "h": 1.13722,
    "l": 1.13404,
    "c": 1.13452,
    "v": 310
  },
  {
    "dt": "2022.10.05 01:00",
    "o": 1.1344,
    "h": 1.13566,
    "l": 1.13379,
    "c": 1.13536,
    "v": 1897
  },
  {
    "dt": "2022.10.05 02:00",
    "o": 1.13536,
    "h": 1.13558,
    "l": 1.1343,
    "c": 1.13517,
    "v": 2532
  },
  {
    "dt": "2022.10.05 03:00",
    "o": 1.1351,
    "h": 1.13592,
    "l": 1.13202,
    "c": 1.1321,
    "v": 4076
  },
  {
    "dt": "2022.10.05 04:00",
    "o": 1.13175,
    "h": 1.13263,
    "l": 1.12396,
    "c": 1.12615,
    "v": 5172
  },
  {
    "dt": "2022.10.05 05:00",
    "o": 1.12614,
    "h": 1.13192,
    "l": 1.1259,
    "c": 1.13089,
    "v": 4632
  },
  {
    "dt": "2022.10.05 06:00",
    "o": 1.13087,
    "h": 1.13104,
    "l": 1.12872,
    "c": 1.13057,
    "v": 3732
  },
  {
    "dt": "2022.10.05 07:00",
    "o": 1.13059,
    "h": 1.13105,
    "l": 1.12989,
    "c": 1.13091,
    "v": 3186
  },
  {
    "dt": "2022.10.05 08:00",
    "o": 1.13091,
    "h": 1.13103,
    "l": 1.12882,
    "c": 1.12947,
    "v": 3645
  },
  {
    "dt": "2022.10.05 09:00",
    "o": 1.12948,
    "h": 1.12998,
    "l": 1.12851,
    "c": 1.12974,
    "v": 4435
  },
  {
    "dt": "2022.10.05 10:00",
    "o": 1.12973,
    "h": 1.13265,
    "l": 1.12962,
    "c": 1.13168,
    "v": 4988
  },
  {
    "dt": "2022.10.05 11:00",
    "o": 1.13163,
    "h": 1.13193,
    "l": 1.13003,
    "c": 1.13009,
    "v": 4439
  },
  {
    "dt": "2022.10.05 12:00",
    "o": 1.13008,
    "h": 1.13191,
    "l": 1.12982,
    "c": 1.13182,
    "v": 3946
  },
  {
    "dt": "2022.10.05 13:00",
    "o": 1.13184,
    "h": 1.13234,
    "l": 1.12983,
    "c": 1.13108,
    "v": 3597
  },
  {
    "dt": "2022.10.05 14:00",
    "o": 1.13112,
    "h": 1.13223,
    "l": 1.13112,
    "c": 1.13223,
    "v": 4062
  },
  {
    "dt": "2022.10.05 15:00",
    "o": 1.13225,
    "h": 1.13268,
    "l": 1.13075,
    "c": 1.13227,
    "v": 4301
  },
  {
    "dt": "2022.10.05 16:00",
    "o": 1.13227,
    "h": 1.13331,
    "l": 1.13102,
    "c": 1.13305,
    "v": 3976
  },
  {
    "dt": "2022.10.05 17:00",
    "o": 1.13304,
    "h": 1.13384,
    "l": 1.13158,
    "c": 1.13266,
    "v": 4374
  },
  {
    "dt": "2022.10.05 18:00",
    "o": 1.13262,
    "h": 1.13376,
    "l": 1.13254,
    "c": 1.13341,
    "v": 3724
  },
  {
    "dt": "2022.10.05 19:00",
    "o": 1.13341,
    "h": 1.13376,
    "l": 1.13278,
    "c": 1.13295,
    "v": 3305
  },
  {
    "dt": "2022.10.05 20:00",
    "o": 1.13295,
    "h": 1.13325,
    "l": 1.13128,
    "c": 1.1322,
    "v": 3112
  },
  {
    "dt": "2022.10.05 21:00",
    "o": 1.13203,
    "h": 1.13261,
    "l": 1.13145,
    "c": 1.13236,
    "v": 2992
  },
  {
    "dt": "2022.10.05 22:00",
    "o": 1.13241,
    "h": 1.13281,
    "l": 1.13161,
    "c": 1.13231,
    "v": 3108
  },
  {
    "dt": "2022.10.05 23:00",
    "o": 1.13232,
    "h": 1.13251,
    "l": 1.13098,
    "c": 1.13107,
    "v": 1610
  },
  {
    "dt": "2022.10.06 00:00",
    "o": 1.13002,
    "h": 1.13132,
    "l": 1.1289,
    "c": 1.12962,
    "v": 684
  },
  {
    "dt": "2022.10.06 01:00",
    "o": 1.12932,
    "h": 1.13059,
    "l": 1.12921,
    "c": 1.13003,
    "v": 1676
  },
  {
    "dt": "2022.10.06 02:00",
    "o": 1.13003,
    "h": 1.13023,
    "l": 1.12606,
    "c": 1.12728,
    "v": 2549
  },
  {
    "dt": "2022.10.06 03:00",
    "o": 1.12722,
    "h": 1.12888,
    "l": 1.1269,
    "c": 1.1274,
    "v": 3141
  },
  {
    "dt": "2022.10.06 04:00",
    "o": 1.12739,
    "h": 1.12808,
    "l": 1.12658,
    "c": 1.12692,
    "v": 3877
  },
  {
    "dt": "2022.10.06 05:00",
    "o": 1.12691,
    "h": 1.12773,
    "l": 1.12667,
    "c": 1.12692,
    "v": 3306
  },
  {
    "dt": "2022.10.06 06:00",
    "o": 1.12691,
    "h": 1.12709,
    "l": 1.1244,
    "c": 1.1257,
    "v": 3021
  },
  {
    "dt": "2022.10.06 07:00",
    "o": 1.1257,
    "h": 1.12709,
    "l": 1.12509,
    "c": 1.12639,
    "v": 2677
  },
  {
    "dt": "2022.10.06 08:00",
    "o": 1.12639,
    "h": 1.12721,
    "l": 1.12631,
    "c": 1.12679,
    "v": 2549
  },
  {
    "dt": "2022.10.06 09:00",
    "o": 1.12677,
    "h": 1.12734,
    "l": 1.12565,
    "c": 1.12722,
    "v": 3502
  },
  {
    "dt": "2022.10.06 10:00",
    "o": 1.12722,
    "h": 1.13014,
    "l": 1.12654,
    "c": 1.1301,
    "v": 3894
  },
  {
    "dt": "2022.10.06 11:00",
    "o": 1.13012,
    "h": 1.1317,
    "l": 1.12881,
    "c": 1.13153,
    "v": 3888
  },
  {
    "dt": "2022.10.06 12:00",
    "o": 1.13152,
    "h": 1.13261,
    "l": 1.13064,
    "c": 1.1326,
    "v": 3475
  },
  {
    "dt": "2022.10.06 13:00",
    "o": 1.13262,
    "h": 1.13311,
    "l": 1.13127,
    "c": 1.13182,
    "v": 3212
  },
  {
    "dt": "2022.10.06 14:00",
    "o": 1.13184,
    "h": 1.13222,
    "l": 1.13127,
    "c": 1.13164,
    "v": 3314
  },
  {
    "dt": "2022.10.06 15:00",
    "o": 1.13159,
    "h": 1.13309,
    "l": 1.13114,
    "c": 1.13249,
    "v": 3762
  },
  {
    "dt": "2022.10.06 16:00",
    "o": 1.13251,
    "h": 1.13379,
    "l": 1.13234,
    "c": 1.13359,
    "v": 3970
  },
  {
    "dt": "2022.10.06 17:00",
    "o": 1.13355,
    "h": 1.13478,
    "l": 1.13301,
    "c": 1.13359,
    "v": 4235
  },
  {
    "dt": "2022.10.06 18:00",
    "o": 1.13359,
    "h": 1.13359,
    "l": 1.13203,
    "c": 1.13278,
    "v": 4212
  },
  {
    "dt": "2022.10.06 19:00",
    "o": 1.13278,
    "h": 1.13373,
    "l": 1.13231,
    "c": 1.13357,
    "v": 4153
  },
  {
    "dt": "2022.10.06 20:00",
    "o": 1.13358,
    "h": 1.13396,
    "l": 1.13335,
    "c": 1.13344,
    "v": 3444
  },
  {
    "dt": "2022.10.06 21:00",
    "o": 1.13335,
    "h": 1.13399,
    "l": 1.13298,
    "c": 1.13389,
    "v": 3618
  },
  {
    "dt": "2022.10.06 22:00",
    "o": 1.13393,
    "h": 1.13439,
    "l": 1.13315,
    "c": 1.13342,
    "v": 3607
  },
  {
    "dt": "2022.10.06 23:00",
    "o": 1.13346,
    "h": 1.13369,
    "l": 1.13261,
    "c": 1.13268,
    "v": 2271
  },
  {
    "dt": "2022.10.07 00:00",
    "o": 1.13116,
    "h": 1.13305,
    "l": 1.13076,
    "c": 1.13192,
    "v": 872
  },
  {
    "dt": "2022.10.07 01:00",
    "o": 1.13186,
    "h": 1.13292,
    "l": 1.13175,
    "c": 1.13207,
    "v": 1760
  },
  {
    "dt": "2022.10.07 02:00",
    "o": 1.13199,
    "h": 1.13312,
    "l": 1.13151,
    "c": 1.13292,
    "v": 1819
  },
  {
    "dt": "2022.10.07 03:00",
    "o": 1.13298,
    "h": 1.13399,
    "l": 1.13149,
    "c": 1.13277,
    "v": 3347
  },
  {
    "dt": "2022.10.07 04:00",
    "o": 1.13278,
    "h": 1.13412,
    "l": 1.13244,
    "c": 1.13285,
    "v": 3284
  },
  {
    "dt": "2022.10.07 05:00",
    "o": 1.13287,
    "h": 1.1343,
    "l": 1.13247,
    "c": 1.13322,
    "v": 3065
  },
  {
    "dt": "2022.10.07 06:00",
    "o": 1.13322,
    "h": 1.13446,
    "l": 1.13267,
    "c": 1.13304,
    "v": 2777
  },
  {
    "dt": "2022.10.07 07:00",
    "o": 1.13305,
    "h": 1.1341,
    "l": 1.13267,
    "c": 1.13328,
    "v": 2766
  },
  {
    "dt": "2022.10.07 08:00",
    "o": 1.13327,
    "h": 1.13396,
    "l": 1.13288,
    "c": 1.13395,
    "v": 3060
  },
  {
    "dt": "2022.10.07 09:00",
    "o": 1.13399,
    "h": 1.13502,
    "l": 1.13351,
    "c": 1.13369,
    "v": 3873
  },
  {
    "dt": "2022.10.07 10:00",
    "o": 1.13369,
    "h": 1.13494,
    "l": 1.13352,
    "c": 1.13468,
    "v": 3832
  },
  {
    "dt": "2022.10.07 11:00",
    "o": 1.1347,
    "h": 1.135,
    "l": 1.1341,
    "c": 1.13474,
    "v": 3586
  },
  {
    "dt": "2022.10.07 12:00",
    "o": 1.13474,
    "h": 1.13561,
    "l": 1.13437,
    "c": 1.13503,
    "v": 3448
  },
  {
    "dt": "2022.10.07 13:00",
    "o": 1.13505,
    "h": 1.13576,
    "l": 1.13419,
    "c": 1.13429,
    "v": 3129
  },
  {
    "dt": "2022.10.07 14:00",
    "o": 1.13432,
    "h": 1.13494,
    "l": 1.13393,
    "c": 1.13409,
    "v": 2931
  },
  {
    "dt": "2022.10.07 15:00",
    "o": 1.13402,
    "h": 1.13647,
    "l": 1.13389,
    "c": 1.13471,
    "v": 4237
  },
  {
    "dt": "2022.10.07 16:00",
    "o": 1.13471,
    "h": 1.13575,
    "l": 1.13312,
    "c": 1.13508,
    "v": 4545
  },
  {
    "dt": "2022.10.07 17:00",
    "o": 1.13511,
    "h": 1.13597,
    "l": 1.13406,
    "c": 1.13553,
    "v": 4433
  },
  {
    "dt": "2022.10.07 18:00",
    "o": 1.13552,
    "h": 1.13647,
    "l": 1.13477,
    "c": 1.1358,
    "v": 3943
  },
  {
    "dt": "2022.10.07 19:00",
    "o": 1.13583,
    "h": 1.13686,
    "l": 1.13498,
    "c": 1.13602,
    "v": 3667
  },
  {
    "dt": "2022.10.07 20:00",
    "o": 1.13603,
    "h": 1.1362,
    "l": 1.13501,
    "c": 1.13564,
    "v": 3104
  },
  {
    "dt": "2022.10.07 21:00",
    "o": 1.13566,
    "h": 1.13566,
    "l": 1.13447,
    "c": 1.13458,
    "v": 2794
  },
  {
    "dt": "2022.10.07 22:00",
    "o": 1.13457,
    "h": 1.13515,
    "l": 1.13427,
    "c": 1.13467,
    "v": 3121
  },
  {
    "dt": "2022.10.07 23:00",
    "o": 1.1347,
    "h": 1.13573,
    "l": 1.134,
    "c": 1.13532,
    "v": 1994
  },
  {
    "dt": "2022.10.10 00:00",
    "o": 1.13637,
    "h": 1.13637,
    "l": 1.13393,
    "c": 1.13476,
    "v": 491
  },
  {
    "dt": "2022.10.10 01:00",
    "o": 1.1347,
    "h": 1.13529,
    "l": 1.13407,
    "c": 1.1341,
    "v": 2641
  },
  {
    "dt": "2022.10.10 02:00",
    "o": 1.13413,
    "h": 1.13519,
    "l": 1.13399,
    "c": 1.13422,
    "v": 2368
  },
  {
    "dt": "2022.10.10 03:00",
    "o": 1.1342,
    "h": 1.13435,
    "l": 1.13285,
    "c": 1.13338,
    "v": 3011
  },
  {
    "dt": "2022.10.10 04:00",
    "o": 1.13336,
    "h": 1.13409,
    "l": 1.13293,
    "c": 1.13304,
    "v": 3307
  },
  {
    "dt": "2022.10.10 05:00",
    "o": 1.13305,
    "h": 1.13315,
    "l": 1.13104,
    "c": 1.13104,
    "v": 2796
  },
  {
    "dt": "2022.10.10 06:00",
    "o": 1.13105,
    "h": 1.1315,
    "l": 1.1308,
    "c": 1.13125,
    "v": 2343
  },
  {
    "dt": "2022.10.10 07:00",
    "o": 1.13118,
    "h": 1.13136,
    "l": 1.12955,
    "c": 1.13105,
    "v": 2276
  },
  {
    "dt": "2022.10.10 08:00",
    "o": 1.13105,
    "h": 1.13136,
    "l": 1.13003,
    "c": 1.13102,
    "v": 2513
  },
  {
    "dt": "2022.10.10 09:00",
    "o": 1.13105,
    "h": 1.13213,
    "l": 1.12983,
    "c": 1.12987,
    "v": 3230
  },
  {
    "dt": "2022.10.10 10:00",
    "o": 1.12989,
    "h": 1.13,
    "l": 1.12844,
    "c": 1.12969,
    "v": 3613
  },
  {
    "dt": "2022.10.10 11:00",
    "o": 1.12969,
    "h": 1.1297,
    "l": 1.12732,
    "c": 1.12761,
    "v": 3420
  },
  {
    "dt": "2022.10.10 12:00",
    "o": 1.12759,
    "h": 1.1281,
    "l": 1.12671,
    "c": 1.12795,
    "v": 3413
  },
  {
    "dt": "2022.10.10 13:00",
    "o": 1.12793,
    "h": 1.12958,
    "l": 1.12792,
    "c": 1.12946,
    "v": 2993
  },
  {
    "dt": "2022.10.10 14:00",
    "o": 1.12949,
    "h": 1.13079,
    "l": 1.129,
    "c": 1.13017,
    "v": 2968
  },
  {
    "dt": "2022.10.10 15:00",
    "o": 1.13019,
    "h": 1.1308,
    "l": 1.12983,
    "c": 1.12993,
    "v": 3463
  },
  {
    "dt": "2022.10.10 16:00",
    "o": 1.12995,
    "h": 1.13057,
    "l": 1.12929,
    "c": 1.13007,
    "v": 3863
  },
  {
    "dt": "2022.10.10 17:00",
    "o": 1.13004,
    "h": 1.13097,
    "l": 1.12924,
    "c": 1.13014,
    "v": 4295
  },
  {
    "dt": "2022.10.10 18:00",
    "o": 1.13014,
    "h": 1.13186,
    "l": 1.12976,
    "c": 1.13178,
    "v": 3833
  },
  {
    "dt": "2022.10.10 19:00",
    "o": 1.13176,
    "h": 1.13217,
    "l": 1.13165,
    "c": 1.13168,
    "v": 3461
  },
  {
    "dt": "2022.10.10 20:00",
    "o": 1.13166,
    "h": 1.13234,
    "l": 1.13138,
    "c": 1.13205,
    "v": 3742
  },
  {
    "dt": "2022.10.10 21:00",
    "o": 1.132,
    "h": 1.13245,
    "l": 1.13138,
    "c": 1.13149,
    "v": 3438
  },
  {
    "dt": "2022.10.10 22:00",
    "o": 1.13156,
    "h": 1.132,
    "l": 1.13122,
    "c": 1.13146,
    "v": 3085
  },
  {
    "dt": "2022.10.10 23:00",
    "o": 1.13148,
    "h": 1.13159,
    "l": 1.131,
    "c": 1.13131,
    "v": 1333
  },
  {
    "dt": "2022.10.11 00:00",
    "o": 1.13069,
    "h": 1.13147,
    "l": 1.12947,
    "c": 1.13084,
    "v": 884
  },
  {
    "dt": "2022.10.11 01:00",
    "o": 1.1309,
    "h": 1.13145,
    "l": 1.1303,
    "c": 1.13036,
    "v": 1644
  },
  {
    "dt": "2022.10.11 02:00",
    "o": 1.13034,
    "h": 1.13041,
    "l": 1.12932,
    "c": 1.12956,
    "v": 2111
  },
  {
    "dt": "2022.10.11 03:00",
    "o": 1.12951,
    "h": 1.13024,
    "l": 1.12892,
    "c": 1.12919,
    "v": 3316
  },
  {
    "dt": "2022.10.11 04:00",
    "o": 1.12926,
    "h": 1.13073,
    "l": 1.128,
    "c": 1.12949,
    "v": 3596
  },
  {
    "dt": "2022.10.11 05:00",
    "o": 1.12948,
    "h": 1.13075,
    "l": 1.12895,
    "c": 1.12911,
    "v": 3632
  },
  {
    "dt": "2022.10.11 06:00",
    "o": 1.12908,
    "h": 1.12956,
    "l": 1.12795,
    "c": 1.12841,
    "v": 3237
  },
  {
    "dt": "2022.10.11 07:00",
    "o": 1.1284,
    "h": 1.1287,
    "l": 1.12703,
    "c": 1.12722,
    "v": 2710
  },
  {
    "dt": "2022.10.11 08:00",
    "o": 1.12724,
    "h": 1.12759,
    "l": 1.12702,
    "c": 1.12746,
    "v": 3068
  },
  {
    "dt": "2022.10.11 09:00",
    "o": 1.12746,
    "h": 1.12768,
    "l": 1.12668,
    "c": 1.12702,
    "v": 3491
  },
  {
    "dt": "2022.10.11 10:00",
    "o": 1.12702,
    "h": 1.12702,
    "l": 1.12519,
    "c": 1.126,
    "v": 4271
  },
  {
    "dt": "2022.10.11 11:00",
    "o": 1.12597,
    "h": 1.12795,
    "l": 1.1253,
    "c": 1.12537,
    "v": 3812
  },
  {
    "dt": "2022.10.11 12:00",
    "o": 1.12536,
    "h": 1.12576,
    "l": 1.12491,
    "c": 1.12496,
    "v": 3584
  },
  {
    "dt": "2022.10.11 13:00",
    "o": 1.12497,
    "h": 1.125,
    "l": 1.12043,
    "c": 1.12116,
    "v": 3574
  },
  {
    "dt": "2022.10.11 14:00",
    "o": 1.12119,
    "h": 1.12193,
    "l": 1.11951,
    "c": 1.12151,
    "v": 3707
  },
  {
    "dt": "2022.10.11 15:00",
    "o": 1.12145,
    "h": 1.12286,
    "l": 1.12092,
    "c": 1.12267,
    "v": 3963
  },
  {
    "dt": "2022.10.11 16:00",
    "o": 1.12264,
    "h": 1.12274,
    "l": 1.12125,
    "c": 1.12239,
    "v": 4145
  },
  {
    "dt": "2022.10.11 17:00",
    "o": 1.12238,
    "h": 1.12363,
    "l": 1.12223,
    "c": 1.12353,
    "v": 4373
  },
  {
    "dt": "2022.10.11 18:00",
    "o": 1.12356,
    "h": 1.12376,
    "l": 1.12139,
    "c": 1.12168,
    "v": 4078
  },
  {
    "dt": "2022.10.11 19:00",
    "o": 1.12166,
    "h": 1.1222,
    "l": 1.12115,
    "c": 1.12153,
    "v": 3898
  },
  {
    "dt": "2022.10.11 20:00",
    "o": 1.12153,
    "h": 1.12268,
    "l": 1.12112,
    "c": 1.12158,
    "v": 3629
  },
  {
    "dt": "2022.10.11 21:00",
    "o": 1.12128,
    "h": 1.12231,
    "l": 1.12083,
    "c": 1.12083,
    "v": 3797
  },
  {
    "dt": "2022.10.11 22:00",
    "o": 1.12088,
    "h": 1.12304,
    "l": 1.12084,
    "c": 1.12243,
    "v": 4335
  },
  {
    "dt": "2022.10.11 23:00",
    "o": 1.12246,
    "h": 1.12406,
    "l": 1.12214,
    "c": 1.12334,
    "v": 2350
  },
  {
    "dt": "2022.10.12 00:00",
    "o": 1.12094,
    "h": 1.12376,
    "l": 1.11938,
    "c": 1.12259,
    "v": 922
  },
  {
    "dt": "2022.10.12 01:00",
    "o": 1.12251,
    "h": 1.12322,
    "l": 1.12231,
    "c": 1.12235,
    "v": 1441
  },
  {
    "dt": "2022.10.12 02:00",
    "o": 1.12236,
    "h": 1.12242,
    "l": 1.12143,
    "c": 1.122,
    "v": 2076
  },
  {
    "dt": "2022.10.12 03:00",
    "o": 1.12197,
    "h": 1.12305,
    "l": 1.12175,
    "c": 1.12204,
    "v": 3478
  },
  {
    "dt": "2022.10.12 04:00",
    "o": 1.12203,
    "h": 1.12212,
    "l": 1.12068,
    "c": 1.12175,
    "v": 3639
  },
  {
    "dt": "2022.10.12 05:00",
    "o": 1.12176,
    "h": 1.12222,
    "l": 1.12074,
    "c": 1.12193,
    "v": 3290
  },
  {
    "dt": "2022.10.12 06:00",
    "o": 1.12192,
    "h": 1.12207,
    "l": 1.12102,
    "c": 1.12119,
    "v": 2792
  },
  {
    "dt": "2022.10.12 07:00",
    "o": 1.12122,
    "h": 1.12189,
    "l": 1.12051,
    "c": 1.12091,
    "v": 3240
  },
  {
    "dt": "2022.10.12 08:00",
    "o": 1.12092,
    "h": 1.12105,
    "l": 1.12004,
    "c": 1.12064,
    "v": 3214
  },
  {
    "dt": "2022.10.12 09:00",
    "o": 1.1206,
    "h": 1.12065,
    "l": 1.11874,
    "c": 1.12037,
    "v": 3776
  },
  {
    "dt": "2022.10.12 10:00",
    "o": 1.12039,
    "h": 1.12044,
    "l": 1.11824,
    "c": 1.11831,
    "v": 4170
  },
  {
    "dt": "2022.10.12 11:00",
    "o": 1.11832,
    "h": 1.11933,
    "l": 1.11813,
    "c": 1.11898,
    "v": 3708
  },
  {
    "dt": "2022.10.12 12:00",
    "o": 1.11899,
    "h": 1.12022,
    "l": 1.11898,
    "c": 1.11987,
    "v": 3210
  },
  {
    "dt": "2022.10.12 13:00",
    "o": 1.11982,
    "h": 1.12013,
    "l": 1.11948,
    "c": 1.11953,
    "v": 2904
  },
  {
    "dt": "2022.10.12 14:00",
    "o": 1.11953,
    "h": 1.11953,
    "l": 1.11885,
    "c": 1.11928,
    "v": 3262
  },
  {
    "dt": "2022.10.12 15:00",
    "o": 1.11929,
    "h": 1.11941,
    "l": 1.11843,
    "c": 1.1189,
    "v": 3880
  },
  {
    "dt": "2022.10.12 16:00",
    "o": 1.11888,
    "h": 1.1194,
    "l": 1.11861,
    "c": 1.11881,
    "v": 4094
  },
  {
    "dt": "2022.10.12 17:00",
    "o": 1.11881,
    "h": 1.11881,
    "l": 1.11736,
    "c": 1.11804,
    "v": 4116
  },
  {
    "dt": "2022.10.12 18:00",
    "o": 1.11806,
    "h": 1.11954,
    "l": 1.11794,
    "c": 1.11888,
    "v": 3647
  },
  {
    "dt": "2022.10.12 19:00",
    "o": 1.11885,
    "h": 1.11946,
    "l": 1.11867,
    "c": 1.11902,
    "v": 3585
  },
  {
    "dt": "2022.10.12 20:00",
    "o": 1.11905,
    "h": 1.11935,
    "l": 1.11831,
    "c": 1.11935,
    "v": 3026
  },
  {
    "dt": "2022.10.12 21:00",
    "o": 1.10901,
    "h": 1.1197,
    "l": 1.10901,
    "c": 1.11956,
    "v": 4192
  },
  {
    "dt": "2022.10.12 22:00",
    "o": 1.11955,
    "h": 1.11966,
    "l": 1.11892,
    "c": 1.11904,
    "v": 3669
  },
  {
    "dt": "2022.10.12 23:00",
    "o": 1.11904,
    "h": 1.11932,
    "l": 1.11844,
    "c": 1.11885,
    "v": 1777
  },
  {
    "dt": "2022.10.13 00:00",
    "o": 1.11927,
    "h": 1.11966,
    "l": 1.11739,
    "c": 1.11739,
    "v": 493
  },
  {
    "dt": "2022.10.13 01:00",
    "o": 1.11767,
    "h": 1.11878,
    "l": 1.11767,
    "c": 1.1185,
    "v": 1771
  },
  {
    "dt": "2022.10.13 02:00",
    "o": 1.11847,
    "h": 1.11898,
    "l": 1.1181,
    "c": 1.11851,
    "v": 1294
  },
  {
    "dt": "2022.10.13 03:00",
    "o": 1.11857,
    "h": 1.11978,
    "l": 1.11833,
    "c": 1.11863,
    "v": 2622
  },
  {
    "dt": "2022.10.13 04:00",
    "o": 1.11867,
    "h": 1.12042,
    "l": 1.11844,
    "c": 1.11917,
    "v": 2736
  },
  {
    "dt": "2022.10.13 05:00",
    "o": 1.11919,
    "h": 1.11931,
    "l": 1.11797,
    "c": 1.11826,
    "v": 2706
  },
  {
    "dt": "2022.10.13 06:00",
    "o": 1.1182,
    "h": 1.11865,
    "l": 1.11777,
    "c": 1.11828,
    "v": 2134
  },
  {
    "dt": "2022.10.13 07:00",
    "o": 1.11829,
    "h": 1.11844,
    "l": 1.11765,
    "c": 1.11784,
    "v": 1735
  },
  {
    "dt": "2022.10.13 08:00",
    "o": 1.11775,
    "h": 1.11868,
    "l": 1.11753,
    "c": 1.11865,
    "v": 2460
  },
  {
    "dt": "2022.10.13 09:00",
    "o": 1.11861,
    "h": 1.11987,
    "l": 1.11809,
    "c": 1.11978,
    "v": 3077
  },
  {
    "dt": "2022.10.13 10:00",
    "o": 1.1198,
    "h": 1.11983,
    "l": 1.11853,
    "c": 1.119,
    "v": 3538
  },
  {
    "dt": "2022.10.13 11:00",
    "o": 1.11898,
    "h": 1.11901,
    "l": 1.11821,
    "c": 1.11837,
    "v": 2967
  },
  {
    "dt": "2022.10.13 12:00",
    "o": 1.11844,
    "h": 1.11857,
    "l": 1.11678,
    "c": 1.11756,
    "v": 3282
  },
  {
    "dt": "2022.10.13 13:00",
    "o": 1.11759,
    "h": 1.11789,
    "l": 1.11692,
    "c": 1.11765,
    "v": 2676
  },
  {
    "dt": "2022.10.13 14:00",
    "o": 1.11766,
    "h": 1.1179,
    "l": 1.11627,
    "c": 1.11716,
    "v": 3551
  },
  {
    "dt": "2022.10.13 15:00",
    "o": 1.11712,
    "h": 1.11995,
    "l": 1.11526,
    "c": 1.11939,
    "v": 4385
  },
  {
    "dt": "2022.10.13 16:00",
    "o": 1.11939,
    "h": 1.11997,
    "l": 1.11743,
    "c": 1.11814,
    "v": 4545
  },
  {
    "dt": "2022.10.13 17:00",
    "o": 1.1182,
    "h": 1.11824,
    "l": 1.11572,
    "c": 1.11633,
    "v": 4659
  },
  {
    "dt": "2022.10.13 18:00",
    "o": 1.11634,
    "h": 1.11809,
    "l": 1.11587,
    "c": 1.11772,
    "v": 4800
  },
  {
    "dt": "2022.10.13 19:00",
    "o": 1.11783,
    "h": 1.11783,
    "l": 1.11638,
    "c": 1.11641,
    "v": 4399
  },
  {
    "dt": "2022.10.13 20:00",
    "o": 1.11637,
    "h": 1.11739,
    "l": 1.11637,
    "c": 1.11674,
    "v": 4280
  },
  {
    "dt": "2022.10.13 21:00",
    "o": 1.11677,
    "h": 1.11709,
    "l": 1.11577,
    "c": 1.11669,
    "v": 3837
  },
  {
    "dt": "2022.10.13 22:00",
    "o": 1.1168,
    "h": 1.11714,
    "l": 1.11615,
    "c": 1.11641,
    "v": 3614
  },
  {
    "dt": "2022.10.13 23:00",
    "o": 1.11644,
    "h": 1.11677,
    "l": 1.11566,
    "c": 1.11641,
    "v": 1523
  },
  {
    "dt": "2022.10.14 00:00",
    "o": 1.11798,
    "h": 1.11798,
    "l": 1.11562,
    "c": 1.11617,
    "v": 526
  },
  {
    "dt": "2022.10.14 01:00",
    "o": 1.1164,
    "h": 1.11668,
    "l": 1.1156,
    "c": 1.11647,
    "v": 1393
  },
  {
    "dt": "2022.10.14 02:00",
    "o": 1.11647,
    "h": 1.11687,
    "l": 1.11623,
    "c": 1.11681,
    "v": 1382
  },
  {
    "dt": "2022.10.14 03:00",
    "o": 1.11685,
    "h": 1.11719,
    "l": 1.11505,
    "c": 1.11526,
    "v": 3535
  },
  {
    "dt": "2022.10.14 04:00",
    "o": 1.11526,
    "h": 1.11661,
    "l": 1.11505,
    "c": 1.11647,
    "v": 3939
  },
  {
    "dt": "2022.10.14 05:00",
    "o": 1.11648,
    "h": 1.117,
    "l": 1.1158,
    "c": 1.1161,
    "v": 3089
  },
  {
    "dt": "2022.10.14 06:00",
    "o": 1.11609,
    "h": 1.11731,
    "l": 1.11593,
    "c": 1.11709,
    "v": 2900
  },
  {
    "dt": "2022.10.14 07:00",
    "o": 1.11709,
    "h": 1.11821,
    "l": 1.11701,
    "c": 1.11725,
    "v": 2371
  },
  {
    "dt": "2022.10.14 08:00",
    "o": 1.11728,
    "h": 1.11765,
    "l": 1.11606,
    "c": 1.11672,
    "v": 2905
  },
  {
    "dt": "2022.10.14 09:00",
    "o": 1.11675,
    "h": 1.11753,
    "l": 1.1161,
    "c": 1.11683,
    "v": 3939
  },
  {
    "dt": "2022.10.14 10:00",
    "o": 1.11692,
    "h": 1.11773,
    "l": 1.11644,
    "c": 1.11729,
    "v": 4240
  },
  {
    "dt": "2022.10.14 11:00",
    "o": 1.11731,
    "h": 1.11814,
    "l": 1.11726,
    "c": 1.11769,
    "v": 3865
  },
  {
    "dt": "2022.10.14 12:00",
    "o": 1.1177,
    "h": 1.11831,
    "l": 1.11714,
    "c": 1.11718,
    "v": 3636
  },
  {
    "dt": "2022.10.14 13:00",
    "o": 1.11722,
    "h": 1.11765,
    "l": 1.11669,
    "c": 1.11694,
    "v": 3942
  },
  {
    "dt": "2022.10.14 14:00",
    "o": 1.11692,
    "h": 1.11722,
    "l": 1.11599,
    "c": 1.1164,
    "v": 3746
  },
  {
    "dt": "2022.10.14 15:00",
    "o": 1.1164,
    "h": 1.11729,
    "l": 1.11558,
    "c": 1.11682,
    "v": 4176
  },
  {
    "dt": "2022.10.14 16:00",
    "o": 1.1168,
    "h": 1.11843,
    "l": 1.11663,
    "c": 1.11789,
    "v": 4526
  },
  {
    "dt": "2022.10.14 17:00",
    "o": 1.11789,
    "h": 1.11875,
    "l": 1.11658,
    "c": 1.11743,
    "v": 4781
  },
  {
    "dt": "2022.10.14 18:00",
    "o": 1.11746,
    "h": 1.11785,
    "l": 1.11665,
    "c": 1.11682,
    "v": 4362
  },
  {
    "dt": "2022.10.14 19:00",
    "o": 1.11681,
    "h": 1.11692,
    "l": 1.11597,
    "c": 1.11677,
    "v": 4283
  },
  {
    "dt": "2022.10.14 20:00",
    "o": 1.11678,
    "h": 1.11695,
    "l": 1.11631,
    "c": 1.11658,
    "v": 3820
  },
  {
    "dt": "2022.10.14 21:00",
    "o": 1.11658,
    "h": 1.11673,
    "l": 1.11583,
    "c": 1.11601,
    "v": 3687
  },
  {
    "dt": "2022.10.14 22:00",
    "o": 1.11593,
    "h": 1.1162,
    "l": 1.11532,
    "c": 1.11556,
    "v": 3826
  },
  {
    "dt": "2022.10.14 23:00",
    "o": 1.11558,
    "h": 1.11688,
    "l": 1.11467,
    "c": 1.11509,
    "v": 2389
  },
  {
    "dt": "2022.10.17 00:00",
    "o": 1.11411,
    "h": 1.11513,
    "l": 1.11336,
    "c": 1.11427,
    "v": 281
  },
  {
    "dt": "2022.10.17 01:00",
    "o": 1.11457,
    "h": 1.11663,
    "l": 1.11431,
    "c": 1.11648,
    "v": 2333
  },
  {
    "dt": "2022.10.17 02:00",
    "o": 1.11647,
    "h": 1.11675,
    "l": 1.11551,
    "c": 1.11573,
    "v": 2573
  },
  {
    "dt": "2022.10.17 03:00",
    "o": 1.11569,
    "h": 1.1188,
    "l": 1.11556,
    "c": 1.11776,
    "v": 3215
  },
  {
    "dt": "2022.10.17 04:00",
    "o": 1.11772,
    "h": 1.11783,
    "l": 1.11562,
    "c": 1.11613,
    "v": 3275
  },
  {
    "dt": "2022.10.17 05:00",
    "o": 1.11614,
    "h": 1.1163,
    "l": 1.11501,
    "c": 1.11623,
    "v": 2748
  },
  {
    "dt": "2022.10.17 06:00",
    "o": 1.11622,
    "h": 1.11636,
    "l": 1.11534,
    "c": 1.11624,
    "v": 2504
  },
  {
    "dt": "2022.10.17 07:00",
    "o": 1.11621,
    "h": 1.11644,
    "l": 1.11549,
    "c": 1.11623,
    "v": 2817
  },
  {
    "dt": "2022.10.17 08:00",
    "o": 1.11621,
    "h": 1.11668,
    "l": 1.11592,
    "c": 1.1161,
    "v": 3134
  },
  {
    "dt": "2022.10.17 09:00",
    "o": 1.11609,
    "h": 1.11646,
    "l": 1.11554,
    "c": 1.11621,
    "v": 3451
  },
  {
    "dt": "2022.10.17 10:00",
    "o": 1.11613,
    "h": 1.11701,
    "l": 1.11526,
    "c": 1.11569,
    "v": 4258
  },
  {
    "dt": "2022.10.17 11:00",
    "o": 1.11566,
    "h": 1.11592,
    "l": 1.11553,
    "c": 1.1158,
    "v": 3526
  },
  {
    "dt": "2022.10.17 12:00",
    "o": 1.1158,
    "h": 1.1158,
    "l": 1.1154,
    "c": 1.1155,
    "v": 3082
  },
  {
    "dt": "2022.10.17 13:00",
    "o": 1.11551,
    "h": 1.11623,
    "l": 1.11524,
    "c": 1.11572,
    "v": 3408
  },
  {
    "dt": "2022.10.17 14:00",
    "o": 1.11571,
    "h": 1.11571,
    "l": 1.11455,
    "c": 1.115,
    "v": 3280
  },
  {
    "dt": "2022.10.17 15:00",
    "o": 1.11504,
    "h": 1.11602,
    "l": 1.11475,
    "c": 1.11484,
    "v": 3627
  },
  {
    "dt": "2022.10.17 16:00",
    "o": 1.11482,
    "h": 1.11558,
    "l": 1.11436,
    "c": 1.11467,
    "v": 3928
  },
  {
    "dt": "2022.10.17 17:00",
    "o": 1.11464,
    "h": 1.11656,
    "l": 1.11399,
    "c": 1.11631,
    "v": 4113
  },
  {
    "dt": "2022.10.17 18:00",
    "o": 1.11634,
    "h": 1.11737,
    "l": 1.11593,
    "c": 1.11722,
    "v": 3686
  },
  {
    "dt": "2022.10.17 19:00",
    "o": 1.11719,
    "h": 1.11759,
    "l": 1.11692,
    "c": 1.11739,
    "v": 3434
  },
  {
    "dt": "2022.10.17 20:00",
    "o": 1.11738,
    "h": 1.1179,
    "l": 1.11626,
    "c": 1.11626,
    "v": 3218
  },
  {
    "dt": "2022.10.17 21:00",
    "o": 1.11644,
    "h": 1.11732,
    "l": 1.11644,
    "c": 1.11715,
    "v": 2564
  },
  {
    "dt": "2022.10.17 22:00",
    "o": 1.11715,
    "h": 1.11726,
    "l": 1.11657,
    "c": 1.11675,
    "v": 2852
  },
  {
    "dt": "2022.10.17 23:00",
    "o": 1.11678,
    "h": 1.11692,
    "l": 1.11631,
    "c": 1.11634,
    "v": 1482
  },
  {
    "dt": "2022.10.18 00:00",
    "o": 1.11943,
    "h": 1.11987,
    "l": 1.11103,
    "c": 1.11387,
    "v": 858
  },
  {
    "dt": "2022.10.18 01:00",
    "o": 1.11382,
    "h": 1.11539,
    "l": 1.11312,
    "c": 1.11417,
    "v": 2556
  },
  {
    "dt": "2022.10.18 02:00",
    "o": 1.11416,
    "h": 1.11417,
    "l": 1.11236,
    "c": 1.11304,
    "v": 2366
  },
  {
    "dt": "2022.10.18 03:00",
    "o": 1.11311,
    "h": 1.11343,
    "l": 1.11105,
    "c": 1.11187,
    "v": 3257
  },
  {
    "dt": "2022.10.18 04:00",
    "o": 1.11187,
    "h": 1.11322,
    "l": 1.11152,
    "c": 1.11316,
    "v": 3210
  },
  {
    "dt": "2022.10.18 05:00",
    "o": 1.11317,
    "h": 1.11317,
    "l": 1.11056,
    "c": 1.11064,
    "v": 2750
  },
  {
    "dt": "2022.10.18 06:00",
    "o": 1.11063,
    "h": 1.1117,
    "l": 1.11062,
    "c": 1.11109,
    "v": 3004
  },
  {
    "dt": "2022.10.18 07:00",
    "o": 1.11109,
    "h": 1.11114,
    "l": 1.10885,
    "c": 1.10902,
    "v": 3061
  },
  {
    "dt": "2022.10.18 08:00",
    "o": 1.10904,
    "h": 1.10985,
    "l": 1.10834,
    "c": 1.10848,
    "v": 3117
  },
  {
    "dt": "2022.10.18 09:00",
    "o": 1.10848,
    "h": 1.10898,
    "l": 1.10729,
    "c": 1.10827,
    "v": 3569
  },
  {
    "dt": "2022.10.18 10:00",
    "o": 1.10826,
    "h": 1.10936,
    "l": 1.10699,
    "c": 1.1078,
    "v": 3986
  },
  {
    "dt": "2022.10.18 11:00",
    "o": 1.10779,
    "h": 1.10846,
    "l": 1.10701,
    "c": 1.10836,
    "v": 3484
  },
  {
    "dt": "2022.10.18 12:00",
    "o": 1.10837,
    "h": 1.11112,
    "l": 1.10787,
    "c": 1.11071,
    "v": 3854
  },
  {
    "dt": "2022.10.18 13:00",
    "o": 1.11071,
    "h": 1.11143,
    "l": 1.11019,
    "c": 1.11036,
    "v": 3284
  },
  {
    "dt": "2022.10.18 14:00",
    "o": 1.11038,
    "h": 1.11168,
    "l": 1.10883,
    "c": 1.10912,
    "v": 3462
  },
  {
    "dt": "2022.10.18 15:00",
    "o": 1.10911,
    "h": 1.10916,
    "l": 1.10724,
    "c": 1.10855,
    "v": 3617
  },
  {
    "dt": "2022.10.18 16:00",
    "o": 1.10855,
    "h": 1.10956,
    "l": 1.10836,
    "c": 1.10921,
    "v": 3928
  },
  {
    "dt": "2022.10.18 17:00",
    "o": 1.10923,
    "h": 1.11014,
    "l": 1.10855,
    "c": 1.10968,
    "v": 4112
  },
  {
    "dt": "2022.10.18 18:00",
    "o": 1.10965,
    "h": 1.10974,
    "l": 1.10861,
    "c": 1.10888,
    "v": 4028
  },
  {
    "dt": "2022.10.18 19:00",
    "o": 1.10888,
    "h": 1.10925,
    "l": 1.1082,
    "c": 1.10851,
    "v": 3769
  },
  {
    "dt": "2022.10.18 20:00",
    "o": 1.10853,
    "h": 1.10946,
    "l": 1.10814,
    "c": 1.10847,
    "v": 3757
  },
  {
    "dt": "2022.10.18 21:00",
    "o": 1.10831,
    "h": 1.10911,
    "l": 1.10797,
    "c": 1.10885,
    "v": 3814
  },
  {
    "dt": "2022.10.18 22:00",
    "o": 1.10882,
    "h": 1.11,
    "l": 1.1088,
    "c": 1.10993,
    "v": 3895
  },
  {
    "dt": "2022.10.18 23:00",
    "o": 1.10993,
    "h": 1.10996,
    "l": 1.10929,
    "c": 1.10949,
    "v": 1873
  },
  {
    "dt": "2022.10.19 00:00",
    "o": 1.10833,
    "h": 1.10962,
    "l": 1.10765,
    "c": 1.10946,
    "v": 566
  },
  {
    "dt": "2022.10.19 01:00",
    "o": 1.10938,
    "h": 1.10949,
    "l": 1.10865,
    "c": 1.10902,
    "v": 1672
  },
  {
    "dt": "2022.10.19 02:00",
    "o": 1.10916,
    "h": 1.10945,
    "l": 1.10838,
    "c": 1.10899,
    "v": 2577
  },
  {
    "dt": "2022.10.19 03:00",
    "o": 1.10899,
    "h": 1.10919,
    "l": 1.10769,
    "c": 1.1082,
    "v": 3170
  },
  {
    "dt": "2022.10.19 04:00",
    "o": 1.10817,
    "h": 1.10928,
    "l": 1.10814,
    "c": 1.10866,
    "v": 2872
  },
  {
    "dt": "2022.10.19 05:00",
    "o": 1.10865,
    "h": 1.10887,
    "l": 1.10767,
    "c": 1.10836,
    "v": 2478
  },
  {
    "dt": "2022.10.19 06:00",
    "o": 1.10837,
    "h": 1.10925,
    "l": 1.10814,
    "c": 1.10919,
    "v": 2613
  },
  {
    "dt": "2022.10.19 07:00",
    "o": 1.10915,
    "h": 1.10939,
    "l": 1.10787,
    "c": 1.10834,
    "v": 2334
  },
  {
    "dt": "2022.10.19 08:00",
    "o": 1.10834,
    "h": 1.10876,
    "l": 1.10804,
    "c": 1.1087,
    "v": 2768
  },
  {
    "dt": "2022.10.19 09:00",
    "o": 1.10872,
    "h": 1.1089,
    "l": 1.10787,
    "c": 1.10878,
    "v": 3377
  },
  {
    "dt": "2022.10.19 10:00",
    "o": 1.10882,
    "h": 1.10954,
    "l": 1.10831,
    "c": 1.10851,
    "v": 3907
  },
  {
    "dt": "2022.10.19 11:00",
    "o": 1.10851,
    "h": 1.10905,
    "l": 1.10765,
    "c": 1.10773,
    "v": 3779
  },
  {
    "dt": "2022.10.19 12:00",
    "o": 1.1077,
    "h": 1.10806,
    "l": 1.1058,
    "c": 1.10753,
    "v": 3408
  },
  {
    "dt": "2022.10.19 13:00",
    "o": 1.10753,
    "h": 1.10817,
    "l": 1.10705,
    "c": 1.10731,
    "v": 3415
  },
  {
    "dt": "2022.10.19 14:00",
    "o": 1.10733,
    "h": 1.10876,
    "l": 1.10693,
    "c": 1.10875,
    "v": 3604
  },
  {
    "dt": "2022.10.19 15:00",
    "o": 1.10875,
    "h": 1.10924,
    "l": 1.1085,
    "c": 1.10863,
    "v": 3839
  },
  {
    "dt": "2022.10.19 16:00",
    "o": 1.10863,
    "h": 1.10931,
    "l": 1.10752,
    "c": 1.10809,
    "v": 4162
  },
  {
    "dt": "2022.10.19 17:00",
    "o": 1.10809,
    "h": 1.10872,
    "l": 1.10564,
    "c": 1.10637,
    "v": 4073
  },
  {
    "dt": "2022.10.19 18:00",
    "o": 1.10636,
    "h": 1.10721,
    "l": 1.10559,
    "c": 1.10613,
    "v": 3567
  },
  {
    "dt": "2022.10.19 19:00",
    "o": 1.10617,
    "h": 1.10698,
    "l": 1.10597,
    "c": 1.10661,
    "v": 3602
  },
  {
    "dt": "2022.10.19 20:00",
    "o": 1.10665,
    "h": 1.10675,
    "l": 1.10573,
    "c": 1.10617,
    "v": 3876
  },
  {
    "dt": "2022.10.19 21:00",
    "o": 1.10609,
    "h": 1.10665,
    "l": 1.10572,
    "c": 1.10634,
    "v": 3495
  },
  {
    "dt": "2022.10.19 22:00",
    "o": 1.10634,
    "h": 1.10634,
    "l": 1.10533,
    "c": 1.1058,
    "v": 3284
  },
  {
    "dt": "2022.10.19 23:00",
    "o": 1.10582,
    "h": 1.10596,
    "l": 1.10508,
    "c": 1.10509,
    "v": 2450
  },
  {
    "dt": "2022.10.20 00:00",
    "o": 1.09879,
    "h": 1.10659,
    "l": 1.09879,
    "c": 1.10556,
    "v": 523
  },
  {
    "dt": "2022.10.20 01:00",
    "o": 1.10558,
    "h": 1.10607,
    "l": 1.10515,
    "c": 1.10565,
    "v": 1034
  },
  {
    "dt": "2022.10.20 02:00",
    "o": 1.10568,
    "h": 1.10629,
    "l": 1.10555,
    "c": 1.10619,
    "v": 2020
  },
  {
    "dt": "2022.10.20 03:00",
    "o": 1.10616,
    "h": 1.10638,
    "l": 1.10533,
    "c": 1.10634,
    "v": 3379
  },
  {
    "dt": "2022.10.20 04:00",
    "o": 1.10633,
    "h": 1.10678,
    "l": 1.10553,
    "c": 1.10641,
    "v": 3260
  },
  {
    "dt": "2022.10.20 05:00",
    "o": 1.10647,
    "h": 1.10768,
    "l": 1.10634,
    "c": 1.10745,
    "v": 3144
  },
  {
    "dt": "2022.10.20 06:00",
    "o": 1.10743,
    "h": 1.10826,
    "l": 1.10694,
    "c": 1.10781,
    "v": 2952
  },
  {
    "dt": "2022.10.20 07:00",
    "o": 1.10782,
    "h": 1.1086,
    "l": 1.10743,
    "c": 1.10768,
    "v": 3049
  },
  {
    "dt": "2022.10.20 08:00",
    "o": 1.10769,
    "h": 1.10799,
    "l": 1.10603,
    "c": 1.10715,
    "v": 3590
  },
  {
    "dt": "2022.10.20 09:00",
    "o": 1.10721,
    "h": 1.10753,
    "l": 1.10617,
    "c": 1.10649,
    "v": 3561
  },
  {
    "dt": "2022.10.20 10:00",
    "o": 1.10646,
    "h": 1.108,
    "l": 1.10624,
    "c": 1.10768,
    "v": 3953
  },
  {
    "dt": "2022.10.20 11:00",
    "o": 1.10769,
    "h": 1.10853,
    "l": 1.10739,
    "c": 1.10846,
    "v": 3342
  },
  {
    "dt": "2022.10.20 12:00",
    "o": 1.10844,
    "h": 1.10865,
    "l": 1.10741,
    "c": 1.10745,
    "v": 2939
  },
  {
    "dt": "2022.10.20 13:00",
    "o": 1.10746,
    "h": 1.10749,
    "l": 1.1051,
    "c": 1.10528,
    "v": 3221
  },
  {
    "dt": "2022.10.20 14:00",
    "o": 1.10527,
    "h": 1.10663,
    "l": 1.10516,
    "c": 1.10651,
    "v": 3785
  },
  {
    "dt": "2022.10.20 15:00",
    "o": 1.10647,
    "h": 1.10706,
    "l": 1.10514,
    "c": 1.1067,
    "v": 4255
  },
  {
    "dt": "2022.10.20 16:00",
    "o": 1.10671,
    "h": 1.10697,
    "l": 1.1059,
    "c": 1.10627,
    "v": 4196
  },
  {
    "dt": "2022.10.20 17:00",
    "o": 1.10629,
    "h": 1.10739,
    "l": 1.10596,
    "c": 1.10738,
    "v": 4032
  },
  {
    "dt": "2022.10.20 18:00",
    "o": 1.10739,
    "h": 1.10769,
    "l": 1.10658,
    "c": 1.10733,
    "v": 3373
  },
  {
    "dt": "2022.10.20 19:00",
    "o": 1.10735,
    "h": 1.10746,
    "l": 1.10668,
    "c": 1.10705,
    "v": 3507
  },
  {
    "dt": "2022.10.20 20:00",
    "o": 1.10702,
    "h": 1.10715,
    "l": 1.10627,
    "c": 1.1066,
    "v": 3736
  },
  {
    "dt": "2022.10.20 21:00",
    "o": 1.10648,
    "h": 1.10678,
    "l": 1.10602,
    "c": 1.10654,
    "v": 3456
  },
  {
    "dt": "2022.10.20 22:00",
    "o": 1.10657,
    "h": 1.10682,
    "l": 1.10577,
    "c": 1.10627,
    "v": 3205
  },
  {
    "dt": "2022.10.20 23:00",
    "o": 1.10628,
    "h": 1.10646,
    "l": 1.10577,
    "c": 1.10604,
    "v": 1930
  },
  {
    "dt": "2022.10.21 00:00",
    "o": 1.10398,
    "h": 1.10606,
    "l": 1.10398,
    "c": 1.10546,
    "v": 514
  },
  {
    "dt": "2022.10.21 01:00",
    "o": 1.10543,
    "h": 1.10711,
    "l": 1.10536,
    "c": 1.10685,
    "v": 1841
  },
  {
    "dt": "2022.10.21 02:00",
    "o": 1.10688,
    "h": 1.10707,
    "l": 1.10637,
    "c": 1.10669,
    "v": 2071
  },
  {
    "dt": "2022.10.21 03:00",
    "o": 1.10667,
    "h": 1.10755,
    "l": 1.10661,
    "c": 1.10689,
    "v": 3075
  },
  {
    "dt": "2022.10.21 04:00",
    "o": 1.10691,
    "h": 1.10733,
    "l": 1.10655,
    "c": 1.10672,
    "v": 3520
  },
  {
    "dt": "2022.10.21 05:00",
    "o": 1.10665,
    "h": 1.1076,
    "l": 1.10661,
    "c": 1.10746,
    "v": 3109
  },
  {
    "dt": "2022.10.21 06:00",
    "o": 1.10743,
    "h": 1.10783,
    "l": 1.10716,
    "c": 1.1078,
    "v": 2789
  },
  {
    "dt": "2022.10.21 07:00",
    "o": 1.1078,
    "h": 1.10783,
    "l": 1.10671,
    "c": 1.10745,
    "v": 2777
  },
  {
    "dt": "2022.10.21 08:00",
    "o": 1.10745,
    "h": 1.10754,
    "l": 1.10664,
    "c": 1.10743,
    "v": 2993
  },
  {
    "dt": "2022.10.21 09:00",
    "o": 1.10746,
    "h": 1.10771,
    "l": 1.10684,
    "c": 1.10714,
    "v": 3468
  },
  {
    "dt": "2022.10.21 10:00",
    "o": 1.10712,
    "h": 1.10765,
    "l": 1.10665,
    "c": 1.10735,
    "v": 3727
  },
  {
    "dt": "2022.10.21 11:00",
    "o": 1.10735,
    "h": 1.10816,
    "l": 1.10704,
    "c": 1.10742,
    "v": 3513
  },
  {
    "dt": "2022.10.21 12:00",
    "o": 1.10743,
    "h": 1.10838,
    "l": 1.10707,
    "c": 1.10745,
    "v": 3520
  },
  {
    "dt": "2022.10.21 13:00",
    "o": 1.10742,
    "h": 1.10777,
    "l": 1.10647,
    "c": 1.10651,
    "v": 3066
  },
  {
    "dt": "2022.10.21 14:00",
    "o": 1.10651,
    "h": 1.10719,
    "l": 1.10621,
    "c": 1.10705,
    "v": 3353
  },
  {
    "dt": "2022.10.21 15:00",
    "o": 1.10707,
    "h": 1.1099,
    "l": 1.10695,
    "c": 1.10766,
    "v": 4113
  },
  {
    "dt": "2022.10.21 16:00",
    "o": 1.10762,
    "h": 1.10859,
    "l": 1.10632,
    "c": 1.10793,
    "v": 6006
  },
  {
    "dt": "2022.10.21 17:00",
    "o": 1.10795,
    "h": 1.10799,
    "l": 1.10529,
    "c": 1.10697,
    "v": 5858
  },
  {
    "dt": "2022.10.21 18:00",
    "o": 1.10692,
    "h": 1.10783,
    "l": 1.10626,
    "c": 1.10652,
    "v": 5992
  },
  {
    "dt": "2022.10.21 19:00",
    "o": 1.1065,
    "h": 1.10785,
    "l": 1.10582,
    "c": 1.10772,
    "v": 5315
  },
  {
    "dt": "2022.10.21 20:00",
    "o": 1.1077,
    "h": 1.10775,
    "l": 1.10695,
    "c": 1.10753,
    "v": 3800
  },
  {
    "dt": "2022.10.21 21:00",
    "o": 1.1075,
    "h": 1.10825,
    "l": 1.10724,
    "c": 1.10821,
    "v": 3481
  },
  {
    "dt": "2022.10.21 22:00",
    "o": 1.10821,
    "h": 1.10822,
    "l": 1.10721,
    "c": 1.10794,
    "v": 3315
  },
  {
    "dt": "2022.10.21 23:00",
    "o": 1.10795,
    "h": 1.10877,
    "l": 1.10676,
    "c": 1.10756,
    "v": 1633
  },
  {
    "dt": "2022.10.24 00:00",
    "o": 1.10869,
    "h": 1.10899,
    "l": 1.10497,
    "c": 1.1056,
    "v": 415
  },
  {
    "dt": "2022.10.24 01:00",
    "o": 1.10562,
    "h": 1.10711,
    "l": 1.10553,
    "c": 1.10658,
    "v": 4547
  },
  {
    "dt": "2022.10.24 02:00",
    "o": 1.1066,
    "h": 1.10708,
    "l": 1.10395,
    "c": 1.10519,
    "v": 5343
  },
  {
    "dt": "2022.10.24 03:00",
    "o": 1.10555,
    "h": 1.1062,
    "l": 1.10475,
    "c": 1.10477,
    "v": 5021
  },
  {
    "dt": "2022.10.24 04:00",
    "o": 1.10485,
    "h": 1.10607,
    "l": 1.10481,
    "c": 1.10589,
    "v": 4379
  },
  {
    "dt": "2022.10.24 05:00",
    "o": 1.1058,
    "h": 1.10613,
    "l": 1.10393,
    "c": 1.1042,
    "v": 4182
  },
  {
    "dt": "2022.10.24 06:00",
    "o": 1.10419,
    "h": 1.10501,
    "l": 1.10383,
    "c": 1.1046,
    "v": 3330
  },
  {
    "dt": "2022.10.24 07:00",
    "o": 1.1046,
    "h": 1.10497,
    "l": 1.10393,
    "c": 1.10445,
    "v": 2982
  },
  {
    "dt": "2022.10.24 08:00",
    "o": 1.10439,
    "h": 1.10485,
    "l": 1.1038,
    "c": 1.1038,
    "v": 3901
  },
  {
    "dt": "2022.10.24 09:00",
    "o": 1.10378,
    "h": 1.10431,
    "l": 1.10277,
    "c": 1.10318,
    "v": 4515
  },
  {
    "dt": "2022.10.24 10:00",
    "o": 1.10314,
    "h": 1.10345,
    "l": 1.10208,
    "c": 1.10309,
    "v": 5024
  },
  {
    "dt": "2022.10.24 11:00",
    "o": 1.10306,
    "h": 1.10518,
    "l": 1.10295,
    "c": 1.10424,
    "v": 4707
  },
  {
    "dt": "2022.10.24 12:00",
    "o": 1.10423,
    "h": 1.10683,
    "l": 1.10397,
    "c": 1.10592,
    "v": 4300
  },
  {
    "dt": "2022.10.24 13:00",
    "o": 1.10594,
    "h": 1.10748,
    "l": 1.10582,
    "c": 1.10694,
    "v": 3876
  },
  {
    "dt": "2022.10.24 14:00",
    "o": 1.10698,
    "h": 1.10983,
    "l": 1.10659,
    "c": 1.10959,
    "v": 4258
  },
  {
    "dt": "2022.10.24 15:00",
    "o": 1.10955,
    "h": 1.10996,
    "l": 1.10883,
    "c": 1.10974,
    "v": 4705
  },
  {
    "dt": "2022.10.24 16:00",
    "o": 1.10978,
    "h": 1.10979,
    "l": 1.10792,
    "c": 1.109,
    "v": 4997
  },
  {
    "dt": "2022.10.24 17:00",
    "o": 1.10897,
    "h": 1.10973,
    "l": 1.10739,
    "c": 1.10851,
    "v": 5676
  },
  {
    "dt": "2022.10.24 18:00",
    "o": 1.1085,
    "h": 1.10871,
    "l": 1.10761,
    "c": 1.10866,
    "v": 5044
  },
  {
    "dt": "2022.10.24 19:00",
    "o": 1.10867,
    "h": 1.10892,
    "l": 1.10819,
    "c": 1.10854,
    "v": 3541
  },
  {
    "dt": "2022.10.24 20:00",
    "o": 1.10854,
    "h": 1.10878,
    "l": 1.10824,
    "c": 1.10824,
    "v": 2279
  },
  {
    "dt": "2022.10.24 21:00",
    "o": 1.10811,
    "h": 1.10902,
    "l": 1.10809,
    "c": 1.10895,
    "v": 2842
  },
  {
    "dt": "2022.10.24 22:00",
    "o": 1.10894,
    "h": 1.10895,
    "l": 1.10815,
    "c": 1.10874,
    "v": 2864
  },
  {
    "dt": "2022.10.24 23:00",
    "o": 1.10874,
    "h": 1.10874,
    "l": 1.10823,
    "c": 1.10846,
    "v": 1919
  },
  {
    "dt": "2022.10.25 00:00",
    "o": 1.10788,
    "h": 1.10924,
    "l": 1.10647,
    "c": 1.10813,
    "v": 433
  },
  {
    "dt": "2022.10.25 01:00",
    "o": 1.10822,
    "h": 1.10943,
    "l": 1.10815,
    "c": 1.1085,
    "v": 2471
  },
  {
    "dt": "2022.10.25 02:00",
    "o": 1.10854,
    "h": 1.10949,
    "l": 1.10839,
    "c": 1.1092,
    "v": 2498
  },
  {
    "dt": "2022.10.25 03:00",
    "o": 1.10919,
    "h": 1.10968,
    "l": 1.10816,
    "c": 1.10922,
    "v": 4072
  },
  {
    "dt": "2022.10.25 04:00",
    "o": 1.10921,
    "h": 1.10953,
    "l": 1.10799,
    "c": 1.10909,
    "v": 4760
  },
  {
    "dt": "2022.10.25 05:00",
    "o": 1.1091,
    "h": 1.10931,
    "l": 1.10701,
    "c": 1.10707,
    "v": 3803
  },
  {
    "dt": "2022.10.25 06:00",
    "o": 1.10698,
    "h": 1.1083,
    "l": 1.10649,
    "c": 1.10768,
    "v": 3354
  },
  {
    "dt": "2022.10.25 07:00",
    "o": 1.10766,
    "h": 1.10766,
    "l": 1.1065,
    "c": 1.10701,
    "v": 2262
  },
  {
    "dt": "2022.10.25 08:00",
    "o": 1.10701,
    "h": 1.10801,
    "l": 1.1064,
    "c": 1.10789,
    "v": 2957
  },
  {
    "dt": "2022.10.25 09:00",
    "o": 1.10782,
    "h": 1.1085,
    "l": 1.10742,
    "c": 1.10789,
    "v": 3652
  },
  {
    "dt": "2022.10.25 10:00",
    "o": 1.10789,
    "h": 1.10903,
    "l": 1.10777,
    "c": 1.10862,
    "v": 3704
  },
  {
    "dt": "2022.10.25 11:00",
    "o": 1.10864,
    "h": 1.1102,
    "l": 1.10858,
    "c": 1.11003,
    "v": 3563
  },
  {
    "dt": "2022.10.25 12:00",
    "o": 1.10999,
    "h": 1.11201,
    "l": 1.10998,
    "c": 1.11117,
    "v": 3835
  },
  {
    "dt": "2022.10.25 13:00",
    "o": 1.11117,
    "h": 1.11145,
    "l": 1.11034,
    "c": 1.11062,
    "v": 2896
  },
  {
    "dt": "2022.10.25 14:00",
    "o": 1.11062,
    "h": 1.11123,
    "l": 1.11033,
    "c": 1.11035,
    "v": 3230
  },
  {
    "dt": "2022.10.25 15:00",
    "o": 1.11035,
    "h": 1.11047,
    "l": 1.1094,
    "c": 1.10994,
    "v": 3541
  },
  {
    "dt": "2022.10.25 16:00",
    "o": 1.10995,
    "h": 1.11022,
    "l": 1.10886,
    "c": 1.10975,
    "v": 5175
  },
  {
    "dt": "2022.10.25 17:00",
    "o": 1.10977,
    "h": 1.11085,
    "l": 1.1089,
    "c": 1.11066,
    "v": 4680
  },
  {
    "dt": "2022.10.25 18:00",
    "o": 1.11069,
    "h": 1.11077,
    "l": 1.10915,
    "c": 1.10976,
    "v": 4389
  },
  {
    "dt": "2022.10.25 19:00",
    "o": 1.1098,
    "h": 1.11019,
    "l": 1.10954,
    "c": 1.10991,
    "v": 3743
  },
  {
    "dt": "2022.10.25 20:00",
    "o": 1.10988,
    "h": 1.11027,
    "l": 1.10969,
    "c": 1.11027,
    "v": 3552
  },
  {
    "dt": "2022.10.25 21:00",
    "o": 1.10979,
    "h": 1.11075,
    "l": 1.10976,
    "c": 1.11047,
    "v": 3100
  },
  {
    "dt": "2022.10.25 22:00",
    "o": 1.11049,
    "h": 1.11094,
    "l": 1.11032,
    "c": 1.11087,
    "v": 3078
  },
  {
    "dt": "2022.10.25 23:00",
    "o": 1.11086,
    "h": 1.11117,
    "l": 1.11048,
    "c": 1.11061,
    "v": 2027
  },
  {
    "dt": "2022.10.26 00:00",
    "o": 1.10783,
    "h": 1.1118,
    "l": 1.10783,
    "c": 1.11078,
    "v": 522
  },
  {
    "dt": "2022.10.26 01:00",
    "o": 1.11047,
    "h": 1.11166,
    "l": 1.11047,
    "c": 1.11128,
    "v": 2510
  },
  {
    "dt": "2022.10.26 02:00",
    "o": 1.1113,
    "h": 1.11202,
    "l": 1.11102,
    "c": 1.11151,
    "v": 2261
  },
  {
    "dt": "2022.10.26 03:00",
    "o": 1.11148,
    "h": 1.11396,
    "l": 1.11125,
    "c": 1.11297,
    "v": 3976
  },
  {
    "dt": "2022.10.26 04:00",
    "o": 1.11293,
    "h": 1.11353,
    "l": 1.11147,
    "c": 1.11158,
    "v": 4315
  },
  {
    "dt": "2022.10.26 05:00",
    "o": 1.11155,
    "h": 1.1127,
    "l": 1.11105,
    "c": 1.11199,
    "v": 3464
  },
  {
    "dt": "2022.10.26 06:00",
    "o": 1.11198,
    "h": 1.11428,
    "l": 1.11192,
    "c": 1.1139,
    "v": 3420
  },
  {
    "dt": "2022.10.26 07:00",
    "o": 1.11391,
    "h": 1.11476,
    "l": 1.1135,
    "c": 1.11382,
    "v": 2304
  },
  {
    "dt": "2022.10.26 08:00",
    "o": 1.11383,
    "h": 1.11509,
    "l": 1.11348,
    "c": 1.11369,
    "v": 3252
  },
  {
    "dt": "2022.10.26 09:00",
    "o": 1.11358,
    "h": 1.11407,
    "l": 1.11224,
    "c": 1.11364,
    "v": 4091
  },
  {
    "dt": "2022.10.26 10:00",
    "o": 1.11363,
    "h": 1.11508,
    "l": 1.11328,
    "c": 1.11463,
    "v": 4895
  },
  {
    "dt": "2022.10.26 11:00",
    "o": 1.11467,
    "h": 1.11743,
    "l": 1.11442,
    "c": 1.1167,
    "v": 4640
  },
  {
    "dt": "2022.10.26 12:00",
    "o": 1.11667,
    "h": 1.11682,
    "l": 1.11557,
    "c": 1.11612,
    "v": 4097
  },
  {
    "dt": "2022.10.26 13:00",
    "o": 1.1161,
    "h": 1.1171,
    "l": 1.11595,
    "c": 1.11696,
    "v": 3682
  },
  {
    "dt": "2022.10.26 14:00",
    "o": 1.11695,
    "h": 1.11731,
    "l": 1.1151,
    "c": 1.1153,
    "v": 3833
  },
  {
    "dt": "2022.10.26 15:00",
    "o": 1.11531,
    "h": 1.11566,
    "l": 1.11467,
    "c": 1.11504,
    "v": 4377
  },
  {
    "dt": "2022.10.26 16:00",
    "o": 1.11501,
    "h": 1.11515,
    "l": 1.1141,
    "c": 1.1147,
    "v": 4795
  },
  {
    "dt": "2022.10.26 17:00",
    "o": 1.11457,
    "h": 1.11541,
    "l": 1.11331,
    "c": 1.11386,
    "v": 5592
  },
  {
    "dt": "2022.10.26 18:00",
    "o": 1.11378,
    "h": 1.11514,
    "l": 1.11367,
    "c": 1.11396,
    "v": 4546
  },
  {
    "dt": "2022.10.26 19:00",
    "o": 1.11393,
    "h": 1.11424,
    "l": 1.11288,
    "c": 1.11305,
    "v": 3983
  },
  {
    "dt": "2022.10.26 20:00",
    "o": 1.11305,
    "h": 1.11353,
    "l": 1.11246,
    "c": 1.11298,
    "v": 3721
  },
  {
    "dt": "2022.10.26 21:00",
    "o": 1.11404,
    "h": 1.11404,
    "l": 1.11305,
    "c": 1.11384,
    "v": 3575
  },
  {
    "dt": "2022.10.26 22:00",
    "o": 1.11374,
    "h": 1.11376,
    "l": 1.11282,
    "c": 1.11301,
    "v": 3301
  },
  {
    "dt": "2022.10.26 23:00",
    "o": 1.11302,
    "h": 1.11318,
    "l": 1.11261,
    "c": 1.11293,
    "v": 2567
  },
  {
    "dt": "2022.10.27 00:00",
    "o": 1.11511,
    "h": 1.11547,
    "l": 1.10949,
    "c": 1.1132,
    "v": 401
  },
  {
    "dt": "2022.10.27 01:00",
    "o": 1.11306,
    "h": 1.11438,
    "l": 1.11268,
    "c": 1.1143,
    "v": 2879
  },
  {
    "dt": "2022.10.27 02:00",
    "o": 1.11431,
    "h": 1.11449,
    "l": 1.1114,
    "c": 1.11181,
    "v": 1943
  },
  {
    "dt": "2022.10.27 03:00",
    "o": 1.11179,
    "h": 1.11258,
    "l": 1.10981,
    "c": 1.11131,
    "v": 3540
  },
  {
    "dt": "2022.10.27 04:00",
    "o": 1.11131,
    "h": 1.11163,
    "l": 1.11042,
    "c": 1.11049,
    "v": 4048
  },
  {
    "dt": "2022.10.27 05:00",
    "o": 1.11047,
    "h": 1.11257,
    "l": 1.11047,
    "c": 1.1122,
    "v": 3588
  },
  {
    "dt": "2022.10.27 06:00",
    "o": 1.11223,
    "h": 1.11292,
    "l": 1.11178,
    "c": 1.11189,
    "v": 2737
  },
  {
    "dt": "2022.10.27 07:00",
    "o": 1.11191,
    "h": 1.11206,
    "l": 1.11002,
    "c": 1.11065,
    "v": 2522
  },
  {
    "dt": "2022.10.27 08:00",
    "o": 1.11069,
    "h": 1.11138,
    "l": 1.10989,
    "c": 1.11059,
    "v": 3268
  },
  {
    "dt": "2022.10.27 09:00",
    "o": 1.1106,
    "h": 1.11104,
    "l": 1.10919,
    "c": 1.11003,
    "v": 3993
  },
  {
    "dt": "2022.10.27 10:00",
    "o": 1.11013,
    "h": 1.11093,
    "l": 1.1078,
    "c": 1.10788,
    "v": 4169
  },
  {
    "dt": "2022.10.27 11:00",
    "o": 1.10789,
    "h": 1.10984,
    "l": 1.10778,
    "c": 1.10976,
    "v": 3917
  },
  {
    "dt": "2022.10.27 12:00",
    "o": 1.10971,
    "h": 1.11115,
    "l": 1.10872,
    "c": 1.11071,
    "v": 3281
  },
  {
    "dt": "2022.10.27 13:00",
    "o": 1.11074,
    "h": 1.11179,
    "l": 1.1107,
    "c": 1.11163,
    "v": 3265
  },
  {
    "dt": "2022.10.27 14:00",
    "o": 1.11164,
    "h": 1.11211,
    "l": 1.1103,
    "c": 1.1105,
    "v": 3499
  },
  {
    "dt": "2022.10.27 15:00",
    "o": 1.11051,
    "h": 1.11094,
    "l": 1.10885,
    "c": 1.10994,
    "v": 5309
  },
  {
    "dt": "2022.10.27 16:00",
    "o": 1.1099,
    "h": 1.11073,
    "l": 1.10877,
    "c": 1.10917,
    "v": 5667
  },
  {
    "dt": "2022.10.27 17:00",
    "o": 1.10914,
    "h": 1.11008,
    "l": 1.10827,
    "c": 1.10858,
    "v": 5342
  },
  {
    "dt": "2022.10.27 18:00",
    "o": 1.10852,
    "h": 1.10875,
    "l": 1.10705,
    "c": 1.10785,
    "v": 5024
  },
  {
    "dt": "2022.10.27 19:00",
    "o": 1.10788,
    "h": 1.10876,
    "l": 1.10742,
    "c": 1.10782,
    "v": 4201
  },
  {
    "dt": "2022.10.27 20:00",
    "o": 1.10784,
    "h": 1.10833,
    "l": 1.10593,
    "c": 1.10608,
    "v": 3459
  },
  {
    "dt": "2022.10.27 21:00",
    "o": 1.10604,
    "h": 1.10732,
    "l": 1.10573,
    "c": 1.10724,
    "v": 2816
  },
  {
    "dt": "2022.10.27 22:00",
    "o": 1.10727,
    "h": 1.10773,
    "l": 1.10646,
    "c": 1.10667,
    "v": 3116
  },
  {
    "dt": "2022.10.27 23:00",
    "o": 1.10671,
    "h": 1.10776,
    "l": 1.10594,
    "c": 1.10708,
    "v": 3650
  },
  {
    "dt": "2022.10.28 00:00",
    "o": 1.10617,
    "h": 1.10684,
    "l": 1.10603,
    "c": 1.10667,
    "v": 264
  },
  {
    "dt": "2022.10.28 01:00",
    "o": 1.10667,
    "h": 1.10778,
    "l": 1.10655,
    "c": 1.10762,
    "v": 2217
  },
  {
    "dt": "2022.10.28 02:00",
    "o": 1.10761,
    "h": 1.1078,
    "l": 1.10652,
    "c": 1.10676,
    "v": 2215
  },
  {
    "dt": "2022.10.28 03:00",
    "o": 1.10677,
    "h": 1.10795,
    "l": 1.10669,
    "c": 1.10745,
    "v": 3075
  },
  {
    "dt": "2022.10.28 04:00",
    "o": 1.10755,
    "h": 1.10782,
    "l": 1.10491,
    "c": 1.10522,
    "v": 3905
  },
  {
    "dt": "2022.10.28 05:00",
    "o": 1.10519,
    "h": 1.10555,
    "l": 1.10114,
    "c": 1.10206,
    "v": 3675
  },
  {
    "dt": "2022.10.28 06:00",
    "o": 1.102,
    "h": 1.10324,
    "l": 1.10171,
    "c": 1.10323,
    "v": 3120
  },
  {
    "dt": "2022.10.28 07:00",
    "o": 1.10321,
    "h": 1.10413,
    "l": 1.10287,
    "c": 1.10313,
    "v": 2871
  },
  {
    "dt": "2022.10.28 08:00",
    "o": 1.10315,
    "h": 1.10341,
    "l": 1.10196,
    "c": 1.10244,
    "v": 3657
  },
  {
    "dt": "2022.10.28 09:00",
    "o": 1.1025,
    "h": 1.10389,
    "l": 1.10222,
    "c": 1.10261,
    "v": 4152
  },
  {
    "dt": "2022.10.28 10:00",
    "o": 1.10251,
    "h": 1.10476,
    "l": 1.10248,
    "c": 1.10466,
    "v": 4350
  },
  {
    "dt": "2022.10.28 11:00",
    "o": 1.10467,
    "h": 1.10628,
    "l": 1.10461,
    "c": 1.10526,
    "v": 3921
  },
  {
    "dt": "2022.10.28 12:00",
    "o": 1.10528,
    "h": 1.10662,
    "l": 1.10523,
    "c": 1.1063,
    "v": 3701
  },
  {
    "dt": "2022.10.28 13:00",
    "o": 1.10628,
    "h": 1.10679,
    "l": 1.10595,
    "c": 1.10667,
    "v": 3249
  },
  {
    "dt": "2022.10.28 14:00",
    "o": 1.10665,
    "h": 1.10727,
    "l": 1.1057,
    "c": 1.10599,
    "v": 3444
  },
  {
    "dt": "2022.10.28 15:00",
    "o": 1.106,
    "h": 1.10616,
    "l": 1.10429,
    "c": 1.10462,
    "v": 5017
  },
  {
    "dt": "2022.10.28 16:00",
    "o": 1.10465,
    "h": 1.10478,
    "l": 1.10334,
    "c": 1.10363,
    "v": 5099
  },
  {
    "dt": "2022.10.28 17:00",
    "o": 1.10357,
    "h": 1.10385,
    "l": 1.10217,
    "c": 1.10254,
    "v": 5410
  },
  {
    "dt": "2022.10.28 18:00",
    "o": 1.10255,
    "h": 1.1042,
    "l": 1.10248,
    "c": 1.10398,
    "v": 4332
  },
  {
    "dt": "2022.10.28 19:00",
    "o": 1.10397,
    "h": 1.10455,
    "l": 1.10383,
    "c": 1.1042,
    "v": 3354
  },
  {
    "dt": "2022.10.28 20:00",
    "o": 1.10421,
    "h": 1.10432,
    "l": 1.10373,
    "c": 1.1041,
    "v": 2687
  },
  {
    "dt": "2022.10.28 21:00",
    "o": 1.1041,
    "h": 1.1041,
    "l": 1.10359,
    "c": 1.10389,
    "v": 2854
  },
  {
    "dt": "2022.10.28 22:00",
    "o": 1.10388,
    "h": 1.10472,
    "l": 1.10332,
    "c": 1.10339,
    "v": 2137
  },
  {
    "dt": "2022.10.28 23:00",
    "o": 1.10336,
    "h": 1.10416,
    "l": 1.10176,
    "c": 1.10288,
    "v": 1835
  },
  {
    "dt": "2022.10.31 00:00",
    "o": 1.10382,
    "h": 1.10409,
    "l": 1.10192,
    "c": 1.10252,
    "v": 189
  },
  {
    "dt": "2022.10.31 01:00",
    "o": 1.10286,
    "h": 1.10367,
    "l": 1.10225,
    "c": 1.10231,
    "v": 3362
  },
  {
    "dt": "2022.10.31 02:00",
    "o": 1.10232,
    "h": 1.10375,
    "l": 1.10229,
    "c": 1.10325,
    "v": 2726
  },
  {
    "dt": "2022.10.31 03:00",
    "o": 1.10326,
    "h": 1.10427,
    "l": 1.10275,
    "c": 1.10404,
    "v": 3451
  },
  {
    "dt": "2022.10.31 04:00",
    "o": 1.10403,
    "h": 1.10547,
    "l": 1.10362,
    "c": 1.10396,
    "v": 3655
  },
  {
    "dt": "2022.10.31 05:00",
    "o": 1.10394,
    "h": 1.1042,
    "l": 1.10284,
    "c": 1.10291,
    "v": 3126
  },
  {
    "dt": "2022.10.31 06:00",
    "o": 1.10292,
    "h": 1.10323,
    "l": 1.10216,
    "c": 1.10317,
    "v": 2788
  },
  {
    "dt": "2022.10.31 07:00",
    "o": 1.10318,
    "h": 1.10352,
    "l": 1.10242,
    "c": 1.10244,
    "v": 1912
  },
  {
    "dt": "2022.10.31 08:00",
    "o": 1.10244,
    "h": 1.10301,
    "l": 1.10142,
    "c": 1.10146,
    "v": 2877
  },
  {
    "dt": "2022.10.31 09:00",
    "o": 1.10146,
    "h": 1.10222,
    "l": 1.10095,
    "c": 1.10111,
    "v": 2748
  },
  {
    "dt": "2022.10.31 10:00",
    "o": 1.10124,
    "h": 1.10182,
    "l": 1.10056,
    "c": 1.10152,
    "v": 2955
  },
  {
    "dt": "2022.10.31 11:00",
    "o": 1.10155,
    "h": 1.10273,
    "l": 1.10116,
    "c": 1.10241,
    "v": 3363
  },
  {
    "dt": "2022.10.31 12:00",
    "o": 1.10243,
    "h": 1.10274,
    "l": 1.10023,
    "c": 1.10103,
    "v": 2827
  },
  {
    "dt": "2022.10.31 13:00",
    "o": 1.101,
    "h": 1.10283,
    "l": 1.10013,
    "c": 1.10193,
    "v": 3142
  },
  {
    "dt": "2022.10.31 14:00",
    "o": 1.1019,
    "h": 1.10373,
    "l": 1.10181,
    "c": 1.10209,
    "v": 3256
  },
  {
    "dt": "2022.10.31 15:00",
    "o": 1.10211,
    "h": 1.10217,
    "l": 1.10045,
    "c": 1.10088,
    "v": 3946
  },
  {
    "dt": "2022.10.31 16:00",
    "o": 1.1009,
    "h": 1.10156,
    "l": 1.10047,
    "c": 1.10068,
    "v": 4350
  },
  {
    "dt": "2022.10.31 17:00",
    "o": 1.10071,
    "h": 1.10292,
    "l": 1.1007,
    "c": 1.10267,
    "v": 4405
  },
  {
    "dt": "2022.10.31 18:00",
    "o": 1.10269,
    "h": 1.10393,
    "l": 1.10043,
    "c": 1.10043,
    "v": 4630
  },
  {
    "dt": "2022.10.31 19:00",
    "o": 1.1004,
    "h": 1.10126,
    "l": 1.09899,
    "c": 1.09941,
    "v": 4279
  },
  {
    "dt": "2022.10.31 20:00",
    "o": 1.0994,
    "h": 1.10004,
    "l": 1.09902,
    "c": 1.09952,
    "v": 3273
  },
  {
    "dt": "2022.10.31 21:00",
    "o": 1.09923,
    "h": 1.10047,
    "l": 1.09923,
    "c": 1.10019,
    "v": 2907
  },
  {
    "dt": "2022.10.31 22:00",
    "o": 1.10023,
    "h": 1.10052,
    "l": 1.09933,
    "c": 1.09992,
    "v": 3331
  },
  {
    "dt": "2022.10.31 23:00",
    "o": 1.09993,
    "h": 1.10071,
    "l": 1.09934,
    "c": 1.10043,
    "v": 2244
  }
]