[
  {
    "dt": "2020.03.02 00:00",
    "o": 0.64653,
    "h": 0.64855,
    "l": 0.64653,
    "c": 0.64835,
    "v": 645
  },
  {
    "dt": "2020.03.02 01:00",
    "o": 0.64837,
    "h": 0.65242,
    "l": 0.64821,
    "c": 0.65124,
    "v": 1935
  },
  {
    "dt": "2020.03.02 02:00",
    "o": 0.65119,
    "h": 0.65148,
    "l": 0.64884,
    "c": 0.65029,
    "v": 1692
  },
  {
    "dt": "2020.03.02 03:00",
    "o": 0.65028,
    "h": 0.65278,
    "l": 0.65028,
    "c": 0.65159,
    "v": 1910
  },
  {
    "dt": "2020.03.02 04:00",
    "o": 0.65158,
    "h": 0.65453,
    "l": 0.65148,
    "c": 0.65359,
    "v": 2121
  },
  {
    "dt": "2020.03.02 05:00",
    "o": 0.65358,
    "h": 0.65379,
    "l": 0.65215,
    "c": 0.65257,
    "v": 1539
  },
  {
    "dt": "2020.03.02 06:00",
    "o": 0.65257,
    "h": 0.6526,
    "l": 0.65189,
    "c": 0.65204,
    "v": 1245
  },
  {
    "dt": "2020.03.02 07:00",
    "o": 0.65205,
    "h": 0.6521,
    "l": 0.65122,
    "c": 0.65206,
    "v": 1239
  },
  {
    "dt": "2020.03.02 08:00",
    "o": 0.65204,
    "h": 0.65305,
    "l": 0.65196,
    "c": 0.65236,
    "v": 1554
  },
  {
    "dt": "2020.03.02 09:00",
    "o": 0.65236,
    "h": 0.65454,
    "l": 0.6523,
    "c": 0.65409,
    "v": 2485
  },
  {
    "dt": "2020.03.02 10:00",
    "o": 0.65402,
    "h": 0.65672,
    "l": 0.65364,
    "c": 0.65559,
    "v": 3135
  },
  {
    "dt": "2020.03.02 11:00",
    "o": 0.65561,
    "h": 0.65578,
    "l": 0.65424,
    "c": 0.65479,
    "v": 2815
  },
  {
    "dt": "2020.03.02 12:00",
    "o": 0.65479,
    "h": 0.65589,
    "l": 0.65407,
    "c": 0.65415,
    "v": 2359
  },
  {
    "dt": "2020.03.02 13:00",
    "o": 0.65415,
    "h": 0.65442,
    "l": 0.65249,
    "c": 0.65282,
    "v": 2580
  },
  {
    "dt": "2020.03.02 14:00",
    "o": 0.65283,
    "h": 0.65472,
    "l": 0.65282,
    "c": 0.65437,
    "v": 2900
  },
  {
    "dt": "2020.03.02 15:00",
    "o": 0.65434,
    "h": 0.65512,
    "l": 0.65341,
    "c": 0.65433,
    "v": 2865
  },
  {
    "dt": "2020.03.02 16:00",
    "o": 0.65428,
    "h": 0.65504,
    "l": 0.65347,
    "c": 0.65409,
    "v": 3225
  },
  {
    "dt": "2020.03.02 17:00",
    "o": 0.65417,
    "h": 0.65484,
    "l": 0.6513,
    "c": 0.65168,
    "v": 3249
  },
  {
    "dt": "2020.03.02 18:00",
    "o": 0.65169,
    "h": 0.65337,
    "l": 0.65115,
    "c": 0.65226,
    "v": 3180
  },
  {
    "dt": "2020.03.02 19:00",
    "o": 0.6523,
    "h": 0.6533,
    "l": 0.65203,
    "c": 0.65325,
    "v": 2309
  },
  {
    "dt": "2020.03.02 20:00",
    "o": 0.65329,
    "h": 0.65371,
    "l": 0.65298,
    "c": 0.65324,
    "v": 1663
  },
  {
    "dt": "2020.03.02 21:00",
    "o": 0.65322,
    "h": 0.65345,
    "l": 0.65288,
    "c": 0.65307,
    "v": 1539
  },
  {
    "dt": "2020.03.02 22:00",
    "o": 0.65306,
    "h": 0.65346,
    "l": 0.652,
    "c": 0.65253,
    "v": 2017
  },
  {
    "dt": "2020.03.02 23:00",
    "o": 0.65254,
    "h": 0.65458,
    "l": 0.65229,
    "c": 0.65392,
    "v": 1413
  },
  {
    "dt": "2020.03.03 00:00",
    "o": 0.65355,
    "h": 0.65382,
    "l": 0.65291,
    "c": 0.65324,
    "v": 392
  },
  {
    "dt": "2020.03.03 01:00",
    "o": 0.65343,
    "h": 0.65482,
    "l": 0.65343,
    "c": 0.65482,
    "v": 1544
  },
  {
    "dt": "2020.03.03 02:00",
    "o": 0.65475,
    "h": 0.65476,
    "l": 0.65303,
    "c": 0.6534,
    "v": 1738
  },
  {
    "dt": "2020.03.03 03:00",
    "o": 0.6534,
    "h": 0.65406,
    "l": 0.65089,
    "c": 0.65125,
    "v": 2033
  },
  {
    "dt": "2020.03.03 04:00",
    "o": 0.65125,
    "h": 0.65209,
    "l": 0.65119,
    "c": 0.65164,
    "v": 1839
  },
  {
    "dt": "2020.03.03 05:00",
    "o": 0.65163,
    "h": 0.65654,
    "l": 0.65128,
    "c": 0.65494,
    "v": 2155
  },
  {
    "dt": "2020.03.03 06:00",
    "o": 0.65493,
    "h": 0.65632,
    "l": 0.65429,
    "c": 0.65485,
    "v": 1948
  },
  {
    "dt": "2020.03.03 07:00",
    "o": 0.65489,
    "h": 0.65547,
    "l": 0.65392,
    "c": 0.65407,
    "v": 1419
  },
  {
    "dt": "2020.03.03 08:00",
    "o": 0.65408,
    "h": 0.65467,
    "l": 0.65392,
    "c": 0.65438,
    "v": 1364
  },
  {
    "dt": "2020.03.03 09:00",
    "o": 0.65441,
    "h": 0.65546,
    "l": 0.6543,
    "c": 0.65497,
    "v": 1937
  },
  {
    "dt": "2020.03.03 10:00",
    "o": 0.65496,
    "h": 0.65631,
    "l": 0.65468,
    "c": 0.65493,
    "v": 2278
  },
  {
    "dt": "2020.03.03 11:00",
    "o": 0.6549,
    "h": 0.65625,
    "l": 0.65464,
    "c": 0.65603,
    "v": 1545
  },
  {
    "dt": "2020.03.03 12:00",
    "o": 0.65604,
    "h": 0.65662,
    "l": 0.65575,
    "c": 0.65637,
    "v": 1477
  },
  {
    "dt": "2020.03.03 13:00",
    "o": 0.65638,
    "h": 0.65668,
    "l": 0.65549,
    "c": 0.65664,
    "v": 1578
  },
  {
    "dt": "2020.03.03 14:00",
    "o": 0.65662,
    "h": 0.65732,
    "l": 0.65596,
    "c": 0.65686,
    "v": 2041
  },
  {
    "dt": "2020.03.03 15:00",
    "o": 0.65685,
    "h": 0.65737,
    "l": 0.65607,
    "c": 0.65716,
    "v": 2251
  },
  {
    "dt": "2020.03.03 16:00",
    "o": 0.6571,
    "h": 0.65837,
    "l": 0.65704,
    "c": 0.65835,
    "v": 2255
  },
  {
    "dt": "2020.03.03 17:00",
    "o": 0.65853,
    "h": 0.6644,
    "l": 0.65853,
    "c": 0.66216,
    "v": 4861
  },
  {
    "dt": "2020.03.03 18:00",
    "o": 0.66225,
    "h": 0.66247,
    "l": 0.65896,
    "c": 0.66153,
    "v": 3690
  },
  {
    "dt": "2020.03.03 19:00",
    "o": 0.66153,
    "h": 0.66153,
    "l": 0.66035,
    "c": 0.66084,
    "v": 2288
  },
  {
    "dt": "2020.03.03 20:00",
    "o": 0.66083,
    "h": 0.66115,
    "l": 0.6596,
    "c": 0.65971,
    "v": 2068
  },
  {
    "dt": "2020.03.03 21:00",
    "o": 0.65969,
    "h": 0.66005,
    "l": 0.65896,
    "c": 0.65959,
    "v": 2964
  },
  {
    "dt": "2020.03.03 22:00",
    "o": 0.6596,
    "h": 0.66018,
    "l": 0.65928,
    "c": 0.65968,
    "v": 2687
  },
  {
    "dt": "2020.03.03 23:00",
    "o": 0.65971,
    "h": 0.65977,
    "l": 0.65804,
    "c": 0.65815,
    "v": 1047
  },
  {
    "dt": "2020.03.04 00:00",
    "o": 0.65819,
    "h": 0.6587,
    "l": 0.6579,
    "c": 0.65823,
    "v": 393
  },
  {
    "dt": "2020.03.04 01:00",
    "o": 0.65846,
    "h": 0.65879,
    "l": 0.65764,
    "c": 0.6582,
    "v": 1673
  },
  {
    "dt": "2020.03.04 02:00",
    "o": 0.65821,
    "h": 0.66088,
    "l": 0.65821,
    "c": 0.6604,
    "v": 2199
  },
  {
    "dt": "2020.03.04 03:00",
    "o": 0.66036,
    "h": 0.66142,
    "l": 0.65903,
    "c": 0.65923,
    "v": 2085
  },
  {
    "dt": "2020.03.04 04:00",
    "o": 0.6593,
    "h": 0.6614,
    "l": 0.65923,
    "c": 0.66088,
    "v": 1727
  },
  {
    "dt": "2020.03.04 05:00",
    "o": 0.66089,
    "h": 0.6609,
    "l": 0.66017,
    "c": 0.66042,
    "v": 1248
  },
  {
    "dt": "2020.03.04 06:00",
    "o": 0.66044,
    "h": 0.6605,
    "l": 0.65929,
    "c": 0.65931,
    "v": 1090
  },
  {
    "dt": "2020.03.04 07:00",
    "o": 0.65932,
    "h": 0.66004,
    "l": 0.65919,
    "c": 0.65964,
    "v": 1011
  },
  {
    "dt": "2020.03.04 08:00",
    "o": 0.65963,
    "h": 0.66014,
    "l": 0.659,
    "c": 0.6597,
    "v": 1341
  },
  {
    "dt": "2020.03.04 09:00",
    "o": 0.65979,
    "h": 0.66076,
    "l": 0.65968,
    "c": 0.66032,
    "v": 1824
  },
  {
    "dt": "2020.03.04 10:00",
    "o": 0.66032,
    "h": 0.66089,
    "l": 0.65968,
    "c": 0.66064,
    "v": 2098
  },
  {
    "dt": "2020.03.04 11:00",
    "o": 0.66064,
    "h": 0.6614,
    "l": 0.66043,
    "c": 0.66113,
    "v": 1703
  },
  {
    "dt": "2020.03.04 12:00",
    "o": 0.66114,
    "h": 0.66235,
    "l": 0.66104,
    "c": 0.66121,
    "v": 1754
  },
  {
    "dt": "2020.03.04 13:00",
    "o": 0.66119,
    "h": 0.66269,
    "l": 0.66109,
    "c": 0.66217,
    "v": 1413
  },
  {
    "dt": "2020.03.04 14:00",
    "o": 0.66215,
    "h": 0.66258,
    "l": 0.66182,
    "c": 0.66211,
    "v": 1428
  },
  {
    "dt": "2020.03.04 15:00",
    "o": 0.66211,
    "h": 0.66253,
    "l": 0.66141,
    "c": 0.66147,
    "v": 1650
  },
  {
    "dt": "2020.03.04 16:00",
    "o": 0.66146,
    "h": 0.66224,
    "l": 0.66076,
    "c": 0.66131,
    "v": 2333
  },
  {
    "dt": "2020.03.04 17:00",
    "o": 0.66095,
    "h": 0.66224,
    "l": 0.6606,
    "c": 0.66204,
    "v": 2668
  },
  {
    "dt": "2020.03.04 18:00",
    "o": 0.66206,
    "h": 0.66225,
    "l": 0.66023,
    "c": 0.66072,
    "v": 2056
  },
  {
    "dt": "2020.03.04 19:00",
    "o": 0.66073,
    "h": 0.66123,
    "l": 0.66066,
    "c": 0.66086,
    "v": 1380
  },
  {
    "dt": "2020.03.04 20:00",
    "o": 0.66086,
    "h": 0.66159,
    "l": 0.66086,
    "c": 0.66147,
    "v": 1169
  },
  {
    "dt": "2020.03.04 21:00",
    "o": 0.66147,
    "h": 0.66166,
    "l": 0.66116,
    "c": 0.66127,
    "v": 1100
  },
  {
    "dt": "2020.03.04 22:00",
    "o": 0.66127,
    "h": 0.66239,
    "l": 0.66127,
    "c": 0.66219,
    "v": 1373
  },
  {
    "dt": "2020.03.04 23:00",
    "o": 0.66217,
    "h": 0.66264,
    "l": 0.66193,
    "c": 0.66252,
    "v": 800
  },
  {
    "dt": "2020.03.05 00:00",
    "o": 0.66205,
    "h": 0.6625,
    "l": 0.66187,
    "c": 0.66196,
    "v": 473
  },
  {
    "dt": "2020.03.05 01:00",
    "o": 0.66197,
    "h": 0.66286,
    "l": 0.6616,
    "c": 0.66275,
    "v": 1271
  },
  {
    "dt": "2020.03.05 02:00",
    "o": 0.66276,
    "h": 0.66276,
    "l": 0.66146,
    "c": 0.66203,
    "v": 1545
  },
  {
    "dt": "2020.03.05 03:00",
    "o": 0.66203,
    "h": 0.66207,
    "l": 0.66063,
    "c": 0.66146,
    "v": 1387
  },
  {
    "dt": "2020.03.05 04:00",
    "o": 0.66147,
    "h": 0.66222,
    "l": 0.66107,
    "c": 0.66222,
    "v": 1035
  },
  {
    "dt": "2020.03.05 05:00",
    "o": 0.66221,
    "h": 0.66251,
    "l": 0.66189,
    "c": 0.66189,
    "v": 778
  },
  {
    "dt": "2020.03.05 06:00",
    "o": 0.6619,
    "h": 0.66244,
    "l": 0.6617,
    "c": 0.66186,
    "v": 595
  },
  {
    "dt": "2020.03.05 07:00",
    "o": 0.66191,
    "h": 0.66263,
    "l": 0.6619,
    "c": 0.66247,
    "v": 754
  },
  {
    "dt": "2020.03.05 08:00",
    "o": 0.66251,
    "h": 0.66325,
    "l": 0.66251,
    "c": 0.66257,
    "v": 876
  },
  {
    "dt": "2020.03.05 09:00",
    "o": 0.66256,
    "h": 0.66334,
    "l": 0.66241,
    "c": 0.66275,
    "v": 1227
  },
  {
    "dt": "2020.03.05 10:00",
    "o": 0.66272,
    "h": 0.66279,
    "l": 0.66224,
    "c": 0.66225,
    "v": 1362
  },
  {
    "dt": "2020.03.05 11:00",
    "o": 0.66225,
    "h": 0.66338,
    "l": 0.66213,
    "c": 0.66338,
    "v": 1509
  },
  {
    "dt": "2020.03.05 12:00",
    "o": 0.66337,
    "h": 0.66358,
    "l": 0.66212,
    "c": 0.66249,
    "v": 1588
  },
  {
    "dt": "2020.03.05 13:00",
    "o": 0.66249,
    "h": 0.66257,
    "l": 0.66172,
    "c": 0.6618,
    "v": 1460
  },
  {
    "dt": "2020.03.05 14:00",
    "o": 0.66179,
    "h": 0.66216,
    "l": 0.66126,
    "c": 0.66133,
    "v": 1532
  },
  {
    "dt": "2020.03.05 15:00",
    "o": 0.66133,
    "h": 0.66182,
    "l": 0.65973,
    "c": 0.65987,
    "v": 1778
  },
  {
    "dt": "2020.03.05 16:00",
    "o": 0.65985,
    "h": 0.66004,
    "l": 0.65831,
    "c": 0.66001,
    "v": 2056
  },
  {
    "dt": "2020.03.05 17:00",
    "o": 0.66,
    "h": 0.66065,
    "l": 0.65905,
    "c": 0.66039,
    "v": 2374
  },
  {
    "dt": "2020.03.05 18:00",
    "o": 0.6604,
    "h": 0.66069,
    "l": 0.65936,
    "c": 0.65989,
    "v": 1735
  },
  {
    "dt": "2020.03.05 19:00",
    "o": 0.65989,
    "h": 0.66007,
    "l": 0.65872,
    "c": 0.65926,
    "v": 1645
  },
  {
    "dt": "2020.03.05 20:00",
    "o": 0.65927,
    "h": 0.65976,
    "l": 0.6592,
    "c": 0.6594,
    "v": 1317
  },
  {
    "dt": "2020.03.05 21:00",
    "o": 0.6594,
    "h": 0.6595,
    "l": 0.65877,
    "c": 0.6592,
    "v": 1136
  },
  {
    "dt": "2020.03.05 22:00",
    "o": 0.65921,
    "h": 0.66028,
    "l": 0.65888,
    "c": 0.66017,
    "v": 1615
  },
  {
    "dt": "2020.03.05 23:00",
    "o": 0.66014,
    "h": 0.66184,
    "l": 0.65981,
    "c": 0.66101,
    "v": 1253
  },
  {
    "dt": "2020.03.06 00:00",
    "o": 0.66114,
    "h": 0.66143,
    "l": 0.66073,
    "c": 0.66118,
    "v": 350
  },
  {
    "dt": "2020.03.06 01:00",
    "o": 0.66117,
    "h": 0.66175,
    "l": 0.66112,
    "c": 0.66152,
    "v": 1115
  },
  {
    "dt": "2020.03.06 02:00",
    "o": 0.66156,
    "h": 0.6623,
    "l": 0.66049,
    "c": 0.66099,
    "v": 1578
  },
  {
    "dt": "2020.03.06 03:00",
    "o": 0.66099,
    "h": 0.66099,
    "l": 0.65997,
    "c": 0.66051,
    "v": 1782
  },
  {
    "dt": "2020.03.06 04:00",
    "o": 0.66052,
    "h": 0.66052,
    "l": 0.65845,
    "c": 0.65873,
    "v": 1785
  },
  {
    "dt": "2020.03.06 05:00",
    "o": 0.65873,
    "h": 0.65982,
    "l": 0.65844,
    "c": 0.65951,
    "v": 1143
  },
  {
    "dt": "2020.03.06 06:00",
    "o": 0.65951,
    "h": 0.66025,
    "l": 0.65951,
    "c": 0.65994,
    "v": 813
  },
  {
    "dt": "2020.03.06 07:00",
    "o": 0.65994,
    "h": 0.66014,
    "l": 0.65931,
    "c": 0.65958,
    "v": 722
  },
  {
    "dt": "2020.03.06 08:00",
    "o": 0.65958,
    "h": 0.66176,
    "l": 0.65946,
    "c": 0.66124,
    "v": 1247
  },
  {
    "dt": "2020.03.06 09:00",
    "o": 0.66125,
    "h": 0.66239,
    "l": 0.66108,
    "c": 0.66222,
    "v": 1514
  },
  {
    "dt": "2020.03.06 10:00",
    "o": 0.66222,
    "h": 0.6644,
    "l": 0.66188,
    "c": 0.66383,
    "v": 2360
  },
  {
    "dt": "2020.03.06 11:00",
    "o": 0.6638,
    "h": 0.66485,
    "l": 0.66327,
    "c": 0.66361,
    "v": 1990
  },
  {
    "dt": "2020.03.06 12:00",
    "o": 0.66362,
    "h": 0.66478,
    "l": 0.663,
    "c": 0.66411,
    "v": 2671
  },
  {
    "dt": "2020.03.06 13:00",
    "o": 0.66411,
    "h": 0.66566,
    "l": 0.66393,
    "c": 0.66457,
    "v": 2355
  },
  {
    "dt": "2020.03.06 14:00",
    "o": 0.6646,
    "h": 0.66471,
    "l": 0.66281,
    "c": 0.66285,
    "v": 1751
  },
  {
    "dt": "2020.03.06 15:00",
    "o": 0.66286,
    "h": 0.66334,
    "l": 0.66224,
    "c": 0.66304,
    "v": 2674
  },
  {
    "dt": "2020.03.06 16:00",
    "o": 0.66298,
    "h": 0.6642,
    "l": 0.66261,
    "c": 0.66377,
    "v": 2906
  },
  {
    "dt": "2020.03.06 17:00",
    "o": 0.66369,
    "h": 0.66455,
    "l": 0.6626,
    "c": 0.66273,
    "v": 3528
  },
  {
    "dt": "2020.03.06 18:00",
    "o": 0.66273,
    "h": 0.66385,
    "l": 0.66273,
    "c": 0.66337,
    "v": 2218
  },
  {
    "dt": "2020.03.06 19:00",
    "o": 0.66336,
    "h": 0.6636,
    "l": 0.66241,
    "c": 0.66312,
    "v": 1530
  },
  {
    "dt": "2020.03.06 20:00",
    "o": 0.6631,
    "h": 0.66331,
    "l": 0.66271,
    "c": 0.6628,
    "v": 1454
  },
  {
    "dt": "2020.03.06 21:00",
    "o": 0.6628,
    "h": 0.66389,
    "l": 0.66268,
    "c": 0.66387,
    "v": 1475
  },
  {
    "dt": "2020.03.06 22:00",
    "o": 0.66387,
    "h": 0.6643,
    "l": 0.66345,
    "c": 0.66371,
    "v": 1948
  },
  {
    "dt": "2020.03.06 23:00",
    "o": 0.6637,
    "h": 0.6645,
    "l": 0.66321,
    "c": 0.66321,
    "v": 647
  },
  {
    "dt": "2020.03.09 00:00",
    "o": 0.66018,
    "h": 0.66036,
    "l": 0.65924,
    "c": 0.65949,
    "v": 276
  },
  {
    "dt": "2020.03.09 01:00",
    "o": 0.65951,
    "h": 0.66224,
    "l": 0.65951,
    "c": 0.66072,
    "v": 2104
  },
  {
    "dt": "2020.03.09 02:00",
    "o": 0.66078,
    "h": 0.66184,
    "l": 0.66011,
    "c": 0.66116,
    "v": 2646
  },
  {
    "dt": "2020.03.09 03:00",
    "o": 0.66113,
    "h": 0.66245,
    "l": 0.66105,
    "c": 0.66109,
    "v": 1989
  },
  {
    "dt": "2020.03.09 04:00",
    "o": 0.66119,
    "h": 0.66126,
    "l": 0.63042,
    "c": 0.64699,
    "v": 2903
  },
  {
    "dt": "2020.03.09 05:00",
    "o": 0.64675,
    "h": 0.65761,
    "l": 0.64507,
    "c": 0.65465,
    "v": 3954
  },
  {
    "dt": "2020.03.09 06:00",
    "o": 0.65465,
    "h": 0.65614,
    "l": 0.6497,
    "c": 0.65199,
    "v": 2395
  },
  {
    "dt": "2020.03.09 07:00",
    "o": 0.65202,
    "h": 0.6543,
    "l": 0.65073,
    "c": 0.65338,
    "v": 1986
  },
  {
    "dt": "2020.03.09 08:00",
    "o": 0.65335,
    "h": 0.65578,
    "l": 0.65215,
    "c": 0.65235,
    "v": 1981
  },
  {
    "dt": "2020.03.09 09:00",
    "o": 0.65315,
    "h": 0.6551,
    "l": 0.65309,
    "c": 0.65411,
    "v": 1629
  },
  {
    "dt": "2020.03.09 10:00",
    "o": 0.65411,
    "h": 0.65622,
    "l": 0.65328,
    "c": 0.65484,
    "v": 2992
  },
  {
    "dt": "2020.03.09 11:00",
    "o": 0.65486,
    "h": 0.65969,
    "l": 0.65418,
    "c": 0.65912,
    "v": 2061
  },
  {
    "dt": "2020.03.09 12:00",
    "o": 0.65914,
    "h": 0.66092,
    "l": 0.65806,
    "c": 0.65877,
    "v": 2233
  },
  {
    "dt": "2020.03.09 13:00",
    "o": 0.65866,
    "h": 0.66119,
    "l": 0.65827,
    "c": 0.66058,
    "v": 1712
  },
  {
    "dt": "2020.03.09 14:00",
    "o": 0.66059,
    "h": 0.66087,
    "l": 0.65868,
    "c": 0.66003,
    "v": 2042
  },
  {
    "dt": "2020.03.09 15:00",
    "o": 0.66006,
    "h": 0.66163,
    "l": 0.6595,
    "c": 0.66141,
    "v": 1739
  },
  {
    "dt": "2020.03.09 16:00",
    "o": 0.66143,
    "h": 0.66314,
    "l": 0.65879,
    "c": 0.66048,
    "v": 2991
  },
  {
    "dt": "2020.03.09 17:00",
    "o": 0.66052,
    "h": 0.66839,
    "l": 0.66045,
    "c": 0.66613,
    "v": 4319
  },
  {
    "dt": "2020.03.09 18:00",
    "o": 0.66624,
    "h": 0.66838,
    "l": 0.66534,
    "c": 0.66598,
    "v": 3347
  },
  {
    "dt": "2020.03.09 19:00",
    "o": 0.6653,
    "h": 0.6657,
    "l": 0.66068,
    "c": 0.66184,
    "v": 3006
  },
  {
    "dt": "2020.03.09 20:00",
    "o": 0.66182,
    "h": 0.66227,
    "l": 0.65986,
    "c": 0.66029,
    "v": 2051
  },
  {
    "dt": "2020.03.09 21:00",
    "o": 0.66038,
    "h": 0.66073,
    "l": 0.65785,
    "c": 0.65948,
    "v": 2826
  },
  {
    "dt": "2020.03.09 22:00",
    "o": 0.65955,
    "h": 0.66034,
    "l": 0.65913,
    "c": 0.65924,
    "v": 2607
  },
  {
    "dt": "2020.03.09 23:00",
    "o": 0.65916,
    "h": 0.65956,
    "l": 0.65822,
    "c": 0.65831,
    "v": 1660
  },
  {
    "dt": "2020.03.10 00:00",
    "o": 0.65806,
    "h": 0.65873,
    "l": 0.6579,
    "c": 0.65857,
    "v": 291
  },
  {
    "dt": "2020.03.10 01:00",
    "o": 0.65855,
    "h": 0.66118,
    "l": 0.65853,
    "c": 0.66062,
    "v": 1783
  },
  {
    "dt": "2020.03.10 02:00",
    "o": 0.66062,
    "h": 0.66075,
    "l": 0.65891,
    "c": 0.65964,
    "v": 2182
  },
  {
    "dt": "2020.03.10 03:00",
    "o": 0.65979,
    "h": 0.66031,
    "l": 0.65743,
    "c": 0.65814,
    "v": 2660
  },
  {
    "dt": "2020.03.10 04:00",
    "o": 0.65813,
    "h": 0.65979,
    "l": 0.65615,
    "c": 0.65652,
    "v": 2594
  },
  {
    "dt": "2020.03.10 05:00",
    "o": 0.65653,
    "h": 0.65675,
    "l": 0.65493,
    "c": 0.65642,
    "v": 1830
  },
  {
    "dt": "2020.03.10 06:00",
    "o": 0.65642,
    "h": 0.65808,
    "l": 0.65596,
    "c": 0.65771,
    "v": 1647
  },
  {
    "dt": "2020.03.10 07:00",
    "o": 0.6577,
    "h": 0.65884,
    "l": 0.65633,
    "c": 0.65655,
    "v": 1688
  },
  {
    "dt": "2020.03.10 08:00",
    "o": 0.65655,
    "h": 0.65659,
    "l": 0.65451,
    "c": 0.65483,
    "v": 1791
  },
  {
    "dt": "2020.03.10 09:00",
    "o": 0.65484,
    "h": 0.65539,
    "l": 0.65437,
    "c": 0.65488,
    "v": 1857
  },
  {
    "dt": "2020.03.10 10:00",
    "o": 0.65489,
    "h": 0.65593,
    "l": 0.65442,
    "c": 0.65564,
    "v": 2726
  },
  {
    "dt": "2020.03.10 11:00",
    "o": 0.65565,
    "h": 0.65781,
    "l": 0.65556,
    "c": 0.65707,
    "v": 2767
  },
  {
    "dt": "2020.03.10 12:00",
    "o": 0.65707,
    "h": 0.65798,
    "l": 0.65633,
    "c": 0.65736,
    "v": 2301
  },
  {
    "dt": "2020.03.10 13:00",
    "o": 0.65735,
    "h": 0.65737,
    "l": 0.65497,
    "c": 0.65533,
    "v": 2186
  },
  {
    "dt": "2020.03.10 14:00",
    "o": 0.65539,
    "h": 0.65664,
    "l": 0.65499,
    "c": 0.65559,
    "v": 2027
  },
  {
    "dt": "2020.03.10 15:00",
    "o": 0.65559,
    "h": 0.65661,
    "l": 0.65473,
    "c": 0.65487,
    "v": 2672
  },
  {
    "dt": "2020.03.10 16:00",
    "o": 0.65488,
    "h": 0.65632,
    "l": 0.65384,
    "c": 0.65411,
    "v": 3077
  },
  {
    "dt": "2020.03.10 17:00",
    "o": 0.6541,
    "h": 0.65445,
    "l": 0.65181,
    "c": 0.65237,
    "v": 2583
  },
  {
    "dt": "2020.03.10 18:00",
    "o": 0.65245,
    "h": 0.65345,
    "l": 0.64684,
    "c": 0.64684,
    "v": 2842
  },
  {
    "dt": "2020.03.10 19:00",
    "o": 0.64681,
    "h": 0.64905,
    "l": 0.64618,
    "c": 0.64657,
    "v": 3005
  },
  {
    "dt": "2020.03.10 20:00",
    "o": 0.64657,
    "h": 0.64848,
    "l": 0.64632,
    "c": 0.6481,
    "v": 2484
  },
  {
    "dt": "2020.03.10 21:00",
    "o": 0.64809,
    "h": 0.64888,
    "l": 0.64751,
    "c": 0.64877,
    "v": 2462
  },
  {
    "dt": "2020.03.10 22:00",
    "o": 0.64871,
    "h": 0.64953,
    "l": 0.64814,
    "c": 0.64836,
    "v": 2521
  },
  {
    "dt": "2020.03.10 23:00",
    "o": 0.64835,
    "h": 0.65129,
    "l": 0.64805,
    "c": 0.65081,
    "v": 1357
  },
  {
    "dt": "2020.03.11 00:00",
    "o": 0.65027,
    "h": 0.65049,
    "l": 0.64746,
    "c": 0.64891,
    "v": 331
  },
  {
    "dt": "2020.03.11 01:00",
    "o": 0.64905,
    "h": 0.65127,
    "l": 0.64905,
    "c": 0.65062,
    "v": 1431
  },
  {
    "dt": "2020.03.11 02:00",
    "o": 0.65062,
    "h": 0.65069,
    "l": 0.64857,
    "c": 0.64934,
    "v": 1636
  },
  {
    "dt": "2020.03.11 03:00",
    "o": 0.64934,
    "h": 0.64989,
    "l": 0.64874,
    "c": 0.64893,
    "v": 1709
  },
  {
    "dt": "2020.03.11 04:00",
    "o": 0.64892,
    "h": 0.65098,
    "l": 0.64891,
    "c": 0.65049,
    "v": 1919
  },
  {
    "dt": "2020.03.11 05:00",
    "o": 0.65048,
    "h": 0.65133,
    "l": 0.65028,
    "c": 0.65051,
    "v": 1235
  },
  {
    "dt": "2020.03.11 06:00",
    "o": 0.65049,
    "h": 0.65173,
    "l": 0.64988,
    "c": 0.65134,
    "v": 1658
  },
  {
    "dt": "2020.03.11 07:00",
    "o": 0.65134,
    "h": 0.65138,
    "l": 0.65031,
    "c": 0.65093,
    "v": 1284
  },
  {
    "dt": "2020.03.11 08:00",
    "o": 0.65092,
    "h": 0.65092,
    "l": 0.64957,
    "c": 0.64976,
    "v": 1958
  },
  {
    "dt": "2020.03.11 09:00",
    "o": 0.64977,
    "h": 0.6511,
    "l": 0.64969,
    "c": 0.65048,
    "v": 1724
  },
  {
    "dt": "2020.03.11 10:00",
    "o": 0.6505,
    "h": 0.65238,
    "l": 0.6493,
    "c": 0.65186,
    "v": 2740
  },
  {
    "dt": "2020.03.11 11:00",
    "o": 0.65186,
    "h": 0.65348,
    "l": 0.65144,
    "c": 0.65229,
    "v": 2867
  },
  {
    "dt": "2020.03.11 12:00",
    "o": 0.65224,
    "h": 0.65325,
    "l": 0.65198,
    "c": 0.65229,
    "v": 2158
  },
  {
    "dt": "2020.03.11 13:00",
    "o": 0.6523,
    "h": 0.65272,
    "l": 0.65162,
    "c": 0.65261,
    "v": 2010
  },
  {
    "dt": "2020.03.11 14:00",
    "o": 0.65262,
    "h": 0.65323,
    "l": 0.65193,
    "c": 0.65252,
    "v": 1954
  },
  {
    "dt": "2020.03.11 15:00",
    "o": 0.6525,
    "h": 0.65388,
    "l": 0.65152,
    "c": 0.65185,
    "v": 2578
  },
  {
    "dt": "2020.03.11 16:00",
    "o": 0.65185,
    "h": 0.65332,
    "l": 0.65102,
    "c": 0.6533,
    "v": 2814
  },
  {
    "dt": "2020.03.11 17:00",
    "o": 0.65329,
    "h": 0.65358,
    "l": 0.65188,
    "c": 0.65283,
    "v": 2809
  },
  {
    "dt": "2020.03.11 18:00",
    "o": 0.65288,
    "h": 0.65325,
    "l": 0.64972,
    "c": 0.65115,
    "v": 3258
  },
  {
    "dt": "2020.03.11 19:00",
    "o": 0.65111,
    "h": 0.65187,
    "l": 0.6502,
    "c": 0.65096,
    "v": 2811
  },
  {
    "dt": "2020.03.11 20:00",
    "o": 0.65097,
    "h": 0.65207,
    "l": 0.65083,
    "c": 0.65107,
    "v": 1962
  },
  {
    "dt": "2020.03.11 21:00",
    "o": 0.65112,
    "h": 0.65158,
    "l": 0.64919,
    "c": 0.64974,
    "v": 2153
  },
  {
    "dt": "2020.03.11 22:00",
    "o": 0.64975,
    "h": 0.65001,
    "l": 0.64844,
    "c": 0.64869,
    "v": 2912
  },
  {
    "dt": "2020.03.11 23:00",
    "o": 0.64865,
    "h": 0.64929,
    "l": 0.64813,
    "c": 0.64818,
    "v": 1237
  },
  {
    "dt": "2020.03.12 00:00",
    "o": 0.64825,
    "h": 0.64897,
    "l": 0.64822,
    "c": 0.64855,
    "v": 342
  },
  {
    "dt": "2020.03.12 01:00",
    "o": 0.64874,
    "h": 0.64913,
    "l": 0.6472,
    "c": 0.648,
    "v": 1118
  },
  {
    "dt": "2020.03.12 02:00",
    "o": 0.648,
    "h": 0.64859,
    "l": 0.64697,
    "c": 0.6476,
    "v": 2225
  },
  {
    "dt": "2020.03.12 03:00",
    "o": 0.64779,
    "h": 0.64807,
    "l": 0.64649,
    "c": 0.64698,
    "v": 2224
  },
  {
    "dt": "2020.03.12 04:00",
    "o": 0.64698,
    "h": 0.64729,
    "l": 0.64505,
    "c": 0.64585,
    "v": 3510
  },
  {
    "dt": "2020.03.12 05:00",
    "o": 0.64589,
    "h": 0.6471,
    "l": 0.64542,
    "c": 0.64606,
    "v": 3141
  },
  {
    "dt": "2020.03.12 06:00",
    "o": 0.64605,
    "h": 0.64681,
    "l": 0.64577,
    "c": 0.64587,
    "v": 2058
  },
  {
    "dt": "2020.03.12 07:00",
    "o": 0.64584,
    "h": 0.6468,
    "l": 0.64547,
    "c": 0.64561,
    "v": 2401
  },
  {
    "dt": "2020.03.12 08:00",
    "o": 0.64562,
    "h": 0.64611,
    "l": 0.64542,
    "c": 0.64602,
    "v": 1851
  },
  {
    "dt": "2020.03.12 09:00",
    "o": 0.64594,
    "h": 0.64624,
    "l": 0.64344,
    "c": 0.64399,
    "v": 1834
  },
  {
    "dt": "2020.03.12 10:00",
    "o": 0.64399,
    "h": 0.64542,
    "l": 0.64399,
    "c": 0.6452,
    "v": 3049
  },
  {
    "dt": "2020.03.12 11:00",
    "o": 0.64514,
    "h": 0.64586,
    "l": 0.64339,
    "c": 0.64348,
    "v": 2360
  },
  {
    "dt": "2020.03.12 12:00",
    "o": 0.64347,
    "h": 0.64351,
    "l": 0.64138,
    "c": 0.64146,
    "v": 1995
  },
  {
    "dt": "2020.03.12 13:00",
    "o": 0.64141,
    "h": 0.64233,
    "l": 0.63961,
    "c": 0.64053,
    "v": 2195
  },
  {
    "dt": "2020.03.12 14:00",
    "o": 0.64054,
    "h": 0.64065,
    "l": 0.63698,
    "c": 0.63837,
    "v": 2642
  },
  {
    "dt": "2020.03.12 15:00",
    "o": 0.63837,
    "h": 0.6385,
    "l": 0.63465,
    "c": 0.63471,
    "v": 3837
  },
  {
    "dt": "2020.03.12 16:00",
    "o": 0.63465,
    "h": 0.63634,
    "l": 0.63323,
    "c": 0.63533,
    "v": 3768
  },
  {
    "dt": "2020.03.12 17:00",
    "o": 0.63546,
    "h": 0.63564,
    "l": 0.63194,
    "c": 0.63301,
    "v": 3665
  },
  {
    "dt": "2020.03.12 18:00",
    "o": 0.63303,
    "h": 0.6331,
    "l": 0.62654,
    "c": 0.62774,
    "v": 3883
  },
  {
    "dt": "2020.03.12 19:00",
    "o": 0.6276,
    "h": 0.63597,
    "l": 0.62755,
    "c": 0.63593,
    "v": 3594
  },
  {
    "dt": "2020.03.12 20:00",
    "o": 0.63515,
    "h": 0.63842,
    "l": 0.63395,
    "c": 0.63555,
    "v": 4081
  },
  {
    "dt": "2020.03.12 21:00",
    "o": 0.63552,
    "h": 0.63619,
    "l": 0.63157,
    "c": 0.63225,
    "v": 3038
  },
  {
    "dt": "2020.03.12 22:00",
    "o": 0.63227,
    "h": 0.63271,
    "l": 0.62986,
    "c": 0.62986,
    "v": 2619
  },
  {
    "dt": "2020.03.12 23:00",
    "o": 0.62988,
    "h": 0.63096,
    "l": 0.62115,
    "c": 0.62323,
    "v": 2238
  },
  {
    "dt": "2020.03.13 00:00",
    "o": 0.62343,
    "h": 0.63105,
    "l": 0.62303,
    "c": 0.63003,
    "v": 906
  },
  {
    "dt": "2020.03.13 01:00",
    "o": 0.63003,
    "h": 0.6306,
    "l": 0.62626,
    "c": 0.62846,
    "v": 1755
  },
  {
    "dt": "2020.03.13 02:00",
    "o": 0.62849,
    "h": 0.6292,
    "l": 0.62679,
    "c": 0.62734,
    "v": 1773
  },
  {
    "dt": "2020.03.13 03:00",
    "o": 0.62735,
    "h": 0.62889,
    "l": 0.62644,
    "c": 0.62878,
    "v": 2240
  },
  {
    "dt": "2020.03.13 04:00",
    "o": 0.62879,
    "h": 0.63245,
    "l": 0.62869,
    "c": 0.63045,
    "v": 2360
  },
  {
    "dt": "2020.03.13 05:00",
    "o": 0.6304,
    "h": 0.63146,
    "l": 0.62945,
    "c": 0.62959,
    "v": 2066
  },
  {
    "dt": "2020.03.13 06:00",
    "o": 0.6296,
    "h": 0.63019,
    "l": 0.62725,
    "c": 0.62896,
    "v": 1882
  },
  {
    "dt": "2020.03.13 07:00",
    "o": 0.62899,
    "h": 0.63218,
    "l": 0.62797,
    "c": 0.63038,
    "v": 2315
  },
  {
    "dt": "2020.03.13 08:00",
    "o": 0.63035,
    "h": 0.63222,
    "l": 0.62916,
    "c": 0.6295,
    "v": 2023
  },
  {
    "dt": "2020.03.13 09:00",
    "o": 0.62951,
    "h": 0.6304,
    "l": 0.62824,
    "c": 0.62882,
    "v": 1682
  },
  {
    "dt": "2020.03.13 10:00",
    "o": 0.62889,
    "h": 0.63036,
    "l": 0.62725,
    "c": 0.6284,
    "v": 3128
  },
  {
    "dt": "2020.03.13 11:00",
    "o": 0.62835,
    "h": 0.62998,
    "l": 0.62757,
    "c": 0.62899,
    "v": 2627
  },
  {
    "dt": "2020.03.13 12:00",
    "o": 0.62891,
    "h": 0.63128,
    "l": 0.62844,
    "c": 0.6301,
    "v": 2589
  },
  {
    "dt": "2020.03.13 13:00",
    "o": 0.63015,
    "h": 0.63097,
    "l": 0.62956,
    "c": 0.62985,
    "v": 2445
  },
  {
    "dt": "2020.03.13 14:00",
    "o": 0.62984,
    "h": 0.63086,
    "l": 0.62958,
    "c": 0.6302,
    "v": 2468
  },
  {
    "dt": "2020.03.13 15:00",
    "o": 0.63022,
    "h": 0.63115,
    "l": 0.62824,
    "c": 0.62841,
    "v": 3139
  },
  {
    "dt": "2020.03.13 16:00",
    "o": 0.62837,
    "h": 0.63009,
    "l": 0.62773,
    "c": 0.62862,
    "v": 3254
  },
  {
    "dt": "2020.03.13 17:00",
    "o": 0.62863,
    "h": 0.62906,
    "l": 0.62685,
    "c": 0.62795,
    "v": 3907
  },
  {
    "dt": "2020.03.13 18:00",
    "o": 0.62798,
    "h": 0.62839,
    "l": 0.61501,
    "c": 0.61589,
    "v": 4229
  },
  {
    "dt": "2020.03.13 19:00",
    "o": 0.61587,
    "h": 0.61736,
    "l": 0.61353,
    "c": 0.61512,
    "v": 3592
  },
  {
    "dt": "2020.03.13 20:00",
    "o": 0.61521,
    "h": 0.61705,
    "l": 0.61224,
    "c": 0.61702,
    "v": 2842
  },
  {
    "dt": "2020.03.13 21:00",
    "o": 0.61699,
    "h": 0.61827,
    "l": 0.61399,
    "c": 0.61399,
    "v": 1927
  },
  {
    "dt": "2020.03.13 22:00",
    "o": 0.61403,
    "h": 0.62408,
    "l": 0.61354,
    "c": 0.62262,
    "v": 2528
  },
  {
    "dt": "2020.03.13 23:00",
    "o": 0.62249,
    "h": 0.62273,
    "l": 0.61681,
    "c": 0.61816,
    "v": 1867
  },
  {
    "dt": "2020.03.16 00:00",
    "o": 0.61913,
    "h": 0.6303,
    "l": 0.6179,
    "c": 0.62434,
    "v": 827
  },
  {
    "dt": "2020.03.16 01:00",
    "o": 0.62447,
    "h": 0.62804,
    "l": 0.61056,
    "c": 0.61652,
    "v": 2845
  },
  {
    "dt": "2020.03.16 02:00",
    "o": 0.61652,
    "h": 0.62173,
    "l": 0.61622,
    "c": 0.61776,
    "v": 2427
  },
  {
    "dt": "2020.03.16 03:00",
    "o": 0.61753,
    "h": 0.61876,
    "l": 0.61486,
    "c": 0.61604,
    "v": 2341
  },
  {
    "dt": "2020.03.16 04:00",
    "o": 0.61314,
    "h": 0.61647,
    "l": 0.60947,
    "c": 0.61273,
    "v": 2964
  },
  {
    "dt": "2020.03.16 05:00",
    "o": 0.61257,
    "h": 0.61487,
    "l": 0.61182,
    "c": 0.61387,
    "v": 2410
  },
  {
    "dt": "2020.03.16 06:00",
    "o": 0.61386,
    "h": 0.6179,
    "l": 0.61344,
    "c": 0.61657,
    "v": 1733
  },
  {
    "dt": "2020.03.16 07:00",
    "o": 0.61657,
    "h": 0.61821,
    "l": 0.61649,
    "c": 0.61742,
    "v": 1685
  },
  {
    "dt": "2020.03.16 08:00",
    "o": 0.61742,
    "h": 0.61812,
    "l": 0.6154,
    "c": 0.61655,
    "v": 1925
  },
  {
    "dt": "2020.03.16 09:00",
    "o": 0.61655,
    "h": 0.61669,
    "l": 0.61234,
    "c": 0.61238,
    "v": 1998
  },
  {
    "dt": "2020.03.16 10:00",
    "o": 0.6124,
    "h": 0.6152,
    "l": 0.61235,
    "c": 0.61485,
    "v": 3380
  },
  {
    "dt": "2020.03.16 11:00",
    "o": 0.61486,
    "h": 0.61838,
    "l": 0.61439,
    "c": 0.61754,
    "v": 3280
  },
  {
    "dt": "2020.03.16 12:00",
    "o": 0.61753,
    "h": 0.61821,
    "l": 0.61558,
    "c": 0.61675,
    "v": 2212
  },
  {
    "dt": "2020.03.16 13:00",
    "o": 0.61672,
    "h": 0.61803,
    "l": 0.61661,
    "c": 0.61722,
    "v": 2668
  },
  {
    "dt": "2020.03.16 14:00",
    "o": 0.61721,
    "h": 0.61743,
    "l": 0.61598,
    "c": 0.61727,
    "v": 1875
  },
  {
    "dt": "2020.03.16 15:00",
    "o": 0.61724,
    "h": 0.6176,
    "l": 0.61031,
    "c": 0.61132,
    "v": 3185
  },
  {
    "dt": "2020.03.16 16:00",
    "o": 0.6113,
    "h": 0.61342,
    "l": 0.60786,
    "c": 0.61231,
    "v": 3378
  },
  {
    "dt": "2020.03.16 17:00",
    "o": 0.61185,
    "h": 0.61395,
    "l": 0.61039,
    "c": 0.61209,
    "v": 3788
  },
  {
    "dt": "2020.03.16 18:00",
    "o": 0.61215,
    "h": 0.61654,
    "l": 0.61164,
    "c": 0.61313,
    "v": 3598
  },
  {
    "dt": "2020.03.16 19:00",
    "o": 0.61309,
    "h": 0.61495,
    "l": 0.61287,
    "c": 0.61415,
    "v": 3149
  },
  {
    "dt": "2020.03.16 20:00",
    "o": 0.61416,
    "h": 0.61456,
    "l": 0.61246,
    "c": 0.61303,
    "v": 3275
  },
  {
    "dt": "2020.03.16 21:00",
    "o": 0.613,
    "h": 0.61404,
    "l": 0.61196,
    "c": 0.61218,
    "v": 2962
  },
  {
    "dt": "2020.03.16 22:00",
    "o": 0.61217,
    "h": 0.61326,
    "l": 0.61115,
    "c": 0.61257,
    "v": 3149
  },
  {
    "dt": "2020.03.16 23:00",
    "o": 0.61255,
    "h": 0.61256,
    "l": 0.60943,
    "c": 0.61128,
    "v": 1458
  },
  {
    "dt": "2020.03.17 00:00",
    "o": 0.61133,
    "h": 0.61232,
    "l": 0.60881,
    "c": 0.61032,
    "v": 261
  },
  {
    "dt": "2020.03.17 01:00",
    "o": 0.61033,
    "h": 0.6125,
    "l": 0.6103,
    "c": 0.61216,
    "v": 1738
  },
  {
    "dt": "2020.03.17 02:00",
    "o": 0.61218,
    "h": 0.61252,
    "l": 0.60976,
    "c": 0.61009,
    "v": 2094
  },
  {
    "dt": "2020.03.17 03:00",
    "o": 0.61021,
    "h": 0.61157,
    "l": 0.60938,
    "c": 0.61129,
    "v": 1635
  },
  {
    "dt": "2020.03.17 04:00",
    "o": 0.61128,
    "h": 0.61479,
    "l": 0.61128,
    "c": 0.61219,
    "v": 2695
  },
  {
    "dt": "2020.03.17 05:00",
    "o": 0.6122,
    "h": 0.61333,
    "l": 0.60979,
    "c": 0.61183,
    "v": 2453
  },
  {
    "dt": "2020.03.17 06:00",
    "o": 0.61184,
    "h": 0.61296,
    "l": 0.6106,
    "c": 0.61233,
    "v": 1804
  },
  {
    "dt": "2020.03.17 07:00",
    "o": 0.61232,
    "h": 0.61374,
    "l": 0.61135,
    "c": 0.61194,
    "v": 1573
  },
  {
    "dt": "2020.03.17 08:00",
    "o": 0.61191,
    "h": 0.61222,
    "l": 0.60932,
    "c": 0.60941,
    "v": 1276
  },
  {
    "dt": "2020.03.17 09:00",
    "o": 0.60941,
    "h": 0.6096,
    "l": 0.60645,
    "c": 0.60786,
    "v": 2625
  },
  {
    "dt": "2020.03.17 10:00",
    "o": 0.60788,
    "h": 0.60959,
    "l": 0.60704,
    "c": 0.60829,
    "v": 2952
  },
  {
    "dt": "2020.03.17 11:00",
    "o": 0.6083,
    "h": 0.6091,
    "l": 0.60628,
    "c": 0.60651,
    "v": 2502
  },
  {
    "dt": "2020.03.17 12:00",
    "o": 0.60651,
    "h": 0.6069,
    "l": 0.60366,
    "c": 0.60393,
    "v": 2782
  },
  {
    "dt": "2020.03.17 13:00",
    "o": 0.60395,
    "h": 0.60474,
    "l": 0.5992,
    "c": 0.59997,
    "v": 2917
  },
  {
    "dt": "2020.03.17 14:00",
    "o": 0.59995,
    "h": 0.6019,
    "l": 0.59966,
    "c": 0.60023,
    "v": 3164
  },
  {
    "dt": "2020.03.17 15:00",
    "o": 0.60016,
    "h": 0.60094,
    "l": 0.59812,
    "c": 0.60033,
    "v": 3168
  },
  {
    "dt": "2020.03.17 16:00",
    "o": 0.60031,
    "h": 0.60373,
    "l": 0.59962,
    "c": 0.59991,
    "v": 2499
  },
  {
    "dt": "2020.03.17 17:00",
    "o": 0.59993,
    "h": 0.6023,
    "l": 0.59816,
    "c": 0.59881,
    "v": 3124
  },
  {
    "dt": "2020.03.17 18:00",
    "o": 0.59882,
    "h": 0.60147,
    "l": 0.59581,
    "c": 0.59838,
    "v": 3244
  },
  {
    "dt": "2020.03.17 19:00",
    "o": 0.59837,
    "h": 0.59951,
    "l": 0.59582,
    "c": 0.59649,
    "v": 3027
  },
  {
    "dt": "2020.03.17 20:00",
    "o": 0.59647,
    "h": 0.59959,
    "l": 0.59621,
    "c": 0.59955,
    "v": 2849
  },
  {
    "dt": "2020.03.17 21:00",
    "o": 0.59945,
    "h": 0.60075,
    "l": 0.5985,
    "c": 0.59919,
    "v": 2593
  },
  {
    "dt": "2020.03.17 22:00",
    "o": 0.59928,
    "h": 0.59928,
    "l": 0.59642,
    "c": 0.5992,
    "v": 2912
  },
  {
    "dt": "2020.03.17 23:00",
    "o": 0.59927,
    "h": 0.60009,
    "l": 0.5985,
    "c": 0.59965,
    "v": 1228
  },
  {
    "dt": "2020.03.18 00:00",
    "o": 0.59962,
    "h": 0.60232,
    "l": 0.59932,
    "c": 0.6011,
    "v": 477
  },
  {
    "dt": "2020.03.18 01:00",
    "o": 0.6011,
    "h": 0.60192,
    "l": 0.59821,
    "c": 0.59856,
    "v": 1892
  },
  {
    "dt": "2020.03.18 02:00",
    "o": 0.59856,
    "h": 0.59968,
    "l": 0.59808,
    "c": 0.59889,
    "v": 2496
  },
  {
    "dt": "2020.03.18 03:00",
    "o": 0.5989,
    "h": 0.60038,
    "l": 0.59851,
    "c": 0.59932,
    "v": 1760
  },
  {
    "dt": "2020.03.18 04:00",
    "o": 0.59933,
    "h": 0.60104,
    "l": 0.5982,
    "c": 0.60057,
    "v": 1993
  },
  {
    "dt": "2020.03.18 05:00",
    "o": 0.60058,
    "h": 0.60169,
    "l": 0.60021,
    "c": 0.60121,
    "v": 1850
  },
  {
    "dt": "2020.03.18 06:00",
    "o": 0.6012,
    "h": 0.60216,
    "l": 0.60073,
    "c": 0.60179,
    "v": 1369
  },
  {
    "dt": "2020.03.18 07:00",
    "o": 0.60177,
    "h": 0.60214,
    "l": 0.60123,
    "c": 0.60157,
    "v": 1456
  },
  {
    "dt": "2020.03.18 08:00",
    "o": 0.60157,
    "h": 0.6026,
    "l": 0.60111,
    "c": 0.60112,
    "v": 1694
  },
  {
    "dt": "2020.03.18 09:00",
    "o": 0.60112,
    "h": 0.60118,
    "l": 0.59835,
    "c": 0.59901,
    "v": 1726
  },
  {
    "dt": "2020.03.18 10:00",
    "o": 0.59905,
    "h": 0.6003,
    "l": 0.59644,
    "c": 0.59687,
    "v": 2755
  },
  {
    "dt": "2020.03.18 11:00",
    "o": 0.59686,
    "h": 0.59728,
    "l": 0.59198,
    "c": 0.59289,
    "v": 3223
  },
  {
    "dt": "2020.03.18 12:00",
    "o": 0.59291,
    "h": 0.59557,
    "l": 0.59271,
    "c": 0.59532,
    "v": 2497
  },
  {
    "dt": "2020.03.18 13:00",
    "o": 0.59533,
    "h": 0.59636,
    "l": 0.59223,
    "c": 0.59287,
    "v": 2891
  },
  {
    "dt": "2020.03.18 14:00",
    "o": 0.59288,
    "h": 0.59358,
    "l": 0.59102,
    "c": 0.59136,
    "v": 2744
  },
  {
    "dt": "2020.03.18 15:00",
    "o": 0.59132,
    "h": 0.59136,
    "l": 0.58923,
    "c": 0.58949,
    "v": 2793
  },
  {
    "dt": "2020.03.18 16:00",
    "o": 0.58953,
    "h": 0.58962,
    "l": 0.58665,
    "c": 0.58792,
    "v": 3488
  },
  {
    "dt": "2020.03.18 17:00",
    "o": 0.58791,
    "h": 0.59017,
    "l": 0.5858,
    "c": 0.58582,
    "v": 4135
  },
  {
    "dt": "2020.03.18 18:00",
    "o": 0.58583,
    "h": 0.58666,
    "l": 0.58123,
    "c": 0.58198,
    "v": 4390
  },
  {
    "dt": "2020.03.18 19:00",
    "o": 0.58197,
    "h": 0.58358,
    "l": 0.57792,
    "c": 0.57837,
    "v": 3948
  },
  {
    "dt": "2020.03.18 20:00",
    "o": 0.57834,
    "h": 0.57901,
    "l": 0.57019,
    "c": 0.57855,
    "v": 4202
  },
  {
    "dt": "2020.03.18 21:00",
    "o": 0.57854,
    "h": 0.57918,
    "l": 0.57429,
    "c": 0.57804,
    "v": 3378
  },
  {
    "dt": "2020.03.18 22:00",
    "o": 0.57805,
    "h": 0.58035,
    "l": 0.57655,
    "c": 0.57977,
    "v": 3689
  },
  {
    "dt": "2020.03.18 23:00",
    "o": 0.57977,
    "h": 0.58067,
    "l": 0.57629,
    "c": 0.57689,
    "v": 1581
  },
  {
    "dt": "2020.03.19 00:00",
    "o": 0.57678,
    "h": 0.57827,
    "l": 0.57575,
    "c": 0.57827,
    "v": 270
  },
  {
    "dt": "2020.03.19 01:00",
    "o": 0.5782,
    "h": 0.57984,
    "l": 0.5768,
    "c": 0.57908,
    "v": 1533
  },
  {
    "dt": "2020.03.19 02:00",
    "o": 0.57918,
    "h": 0.58153,
    "l": 0.57586,
    "c": 0.57892,
    "v": 2842
  },
  {
    "dt": "2020.03.19 03:00",
    "o": 0.57891,
    "h": 0.58005,
    "l": 0.57154,
    "c": 0.57166,
    "v": 2284
  },
  {
    "dt": "2020.03.19 04:00",
    "o": 0.57165,
    "h": 0.57244,
    "l": 0.55218,
    "c": 0.55674,
    "v": 2945
  },
  {
    "dt": "2020.03.19 05:00",
    "o": 0.55658,
    "h": 0.56098,
    "l": 0.55212,
    "c": 0.55516,
    "v": 3341
  },
  {
    "dt": "2020.03.19 06:00",
    "o": 0.55515,
    "h": 0.5633,
    "l": 0.55135,
    "c": 0.55574,
    "v": 3092
  },
  {
    "dt": "2020.03.19 07:00",
    "o": 0.55574,
    "h": 0.55949,
    "l": 0.55573,
    "c": 0.55687,
    "v": 1824
  },
  {
    "dt": "2020.03.19 08:00",
    "o": 0.55687,
    "h": 0.56144,
    "l": 0.55599,
    "c": 0.561,
    "v": 1874
  },
  {
    "dt": "2020.03.19 09:00",
    "o": 0.56099,
    "h": 0.5794,
    "l": 0.56066,
    "c": 0.57728,
    "v": 3143
  },
  {
    "dt": "2020.03.19 10:00",
    "o": 0.57727,
    "h": 0.57733,
    "l": 0.56387,
    "c": 0.56688,
    "v": 3965
  },
  {
    "dt": "2020.03.19 11:00",
    "o": 0.56686,
    "h": 0.57486,
    "l": 0.56611,
    "c": 0.57087,
    "v": 3515
  },
  {
    "dt": "2020.03.19 12:00",
    "o": 0.57095,
    "h": 0.57408,
    "l": 0.56902,
    "c": 0.57283,
    "v": 3705
  },
  {
    "dt": "2020.03.19 13:00",
    "o": 0.57282,
    "h": 0.57292,
    "l": 0.57076,
    "c": 0.57195,
    "v": 2320
  },
  {
    "dt": "2020.03.19 14:00",
    "o": 0.57195,
    "h": 0.57602,
    "l": 0.57052,
    "c": 0.5746,
    "v": 2778
  },
  {
    "dt": "2020.03.19 15:00",
    "o": 0.57451,
    "h": 0.57642,
    "l": 0.57064,
    "c": 0.57479,
    "v": 3965
  },
  {
    "dt": "2020.03.19 16:00",
    "o": 0.575,
    "h": 0.58461,
    "l": 0.57494,
    "c": 0.58159,
    "v": 4585
  },
  {
    "dt": "2020.03.19 17:00",
    "o": 0.58158,
    "h": 0.58753,
    "l": 0.58131,
    "c": 0.58625,
    "v": 4515
  },
  {
    "dt": "2020.03.19 18:00",
    "o": 0.58624,
    "h": 0.59623,
    "l": 0.58444,
    "c": 0.58508,
    "v": 4952
  },
  {
    "dt": "2020.03.19 19:00",
    "o": 0.58509,
    "h": 0.5885,
    "l": 0.58467,
    "c": 0.58527,
    "v": 3921
  },
  {
    "dt": "2020.03.19 20:00",
    "o": 0.5853,
    "h": 0.58543,
    "l": 0.57964,
    "c": 0.58054,
    "v": 2958
  },
  {
    "dt": "2020.03.19 21:00",
    "o": 0.58055,
    "h": 0.58099,
    "l": 0.5755,
    "c": 0.57726,
    "v": 3464
  },
  {
    "dt": "2020.03.19 22:00",
    "o": 0.57712,
    "h": 0.57745,
    "l": 0.57378,
    "c": 0.57511,
    "v": 3251
  },
  {
    "dt": "2020.03.19 23:00",
    "o": 0.57505,
    "h": 0.57648,
    "l": 0.5736,
    "c": 0.57404,
    "v": 1460
  },
  {
    "dt": "2020.03.20 00:00",
    "o": 0.57408,
    "h": 0.57419,
    "l": 0.57191,
    "c": 0.57311,
    "v": 293
  },
  {
    "dt": "2020.03.20 01:00",
    "o": 0.57346,
    "h": 0.57435,
    "l": 0.56628,
    "c": 0.56668,
    "v": 1981
  },
  {
    "dt": "2020.03.20 02:00",
    "o": 0.56695,
    "h": 0.57604,
    "l": 0.56693,
    "c": 0.57421,
    "v": 2168
  },
  {
    "dt": "2020.03.20 03:00",
    "o": 0.57422,
    "h": 0.58023,
    "l": 0.57081,
    "c": 0.57879,
    "v": 2644
  },
  {
    "dt": "2020.03.20 04:00",
    "o": 0.5788,
    "h": 0.58705,
    "l": 0.57823,
    "c": 0.58316,
    "v": 2415
  },
  {
    "dt": "2020.03.20 05:00",
    "o": 0.58314,
    "h": 0.59097,
    "l": 0.5821,
    "c": 0.58617,
    "v": 2502
  },
  {
    "dt": "2020.03.20 06:00",
    "o": 0.58618,
    "h": 0.58674,
    "l": 0.58111,
    "c": 0.58666,
    "v": 2583
  },
  {
    "dt": "2020.03.20 07:00",
    "o": 0.58679,
    "h": 0.58758,
    "l": 0.58353,
    "c": 0.58514,
    "v": 2389
  },
  {
    "dt": "2020.03.20 08:00",
    "o": 0.5851,
    "h": 0.58696,
    "l": 0.5846,
    "c": 0.58505,
    "v": 1705
  },
  {
    "dt": "2020.03.20 09:00",
    "o": 0.58504,
    "h": 0.5948,
    "l": 0.58468,
    "c": 0.59207,
    "v": 2506
  },
  {
    "dt": "2020.03.20 10:00",
    "o": 0.59237,
    "h": 0.59843,
    "l": 0.59123,
    "c": 0.59578,
    "v": 3382
  },
  {
    "dt": "2020.03.20 11:00",
    "o": 0.59576,
    "h": 0.59649,
    "l": 0.59242,
    "c": 0.59446,
    "v": 3953
  },
  {
    "dt": "2020.03.20 12:00",
    "o": 0.59452,
    "h": 0.59453,
    "l": 0.59047,
    "c": 0.59092,
    "v": 3159
  },
  {
    "dt": "2020.03.20 13:00",
    "o": 0.59091,
    "h": 0.59439,
    "l": 0.59021,
    "c": 0.59274,
    "v": 3085
  },
  {
    "dt": "2020.03.20 14:00",
    "o": 0.59267,
    "h": 0.59267,
    "l": 0.58844,
    "c": 0.58893,
    "v": 3006
  },
  {
    "dt": "2020.03.20 15:00",
    "o": 0.58899,
    "h": 0.5919,
    "l": 0.58564,
    "c": 0.58612,
    "v": 3620
  },
  {
    "dt": "2020.03.20 16:00",
    "o": 0.58613,
    "h": 0.5892,
    "l": 0.58242,
    "c": 0.58269,
    "v": 3529
  },
  {
    "dt": "2020.03.20 17:00",
    "o": 0.58269,
    "h": 0.58929,
    "l": 0.58261,
    "c": 0.58795,
    "v": 4640
  },
  {
    "dt": "2020.03.20 18:00",
    "o": 0.58792,
    "h": 0.58956,
    "l": 0.57989,
    "c": 0.58367,
    "v": 4694
  },
  {
    "dt": "2020.03.20 19:00",
    "o": 0.58375,
    "h": 0.58512,
    "l": 0.57801,
    "c": 0.58113,
    "v": 3586
  },
  {
    "dt": "2020.03.20 20:00",
    "o": 0.58112,
    "h": 0.58376,
    "l": 0.58061,
    "c": 0.58346,
    "v": 3258
  },
  {
    "dt": "2020.03.20 21:00",
    "o": 0.58345,
    "h": 0.58346,
    "l": 0.58018,
    "c": 0.58039,
    "v": 3071
  },
  {
    "dt": "2020.03.20 22:00",
    "o": 0.58052,
    "h": 0.58077,
    "l": 0.57771,
    "c": 0.57992,
    "v": 3414
  },
  {
    "dt": "2020.03.20 23:00",
    "o": 0.57993,
    "h": 0.58135,
    "l": 0.57464,
    "c": 0.58,
    "v": 1775
  },
  {
    "dt": "2020.03.23 00:00",
    "o": 0.58019,
    "h": 0.58227,
    "l": 0.57858,
    "c": 0.58054,
    "v": 287
  },
  {
    "dt": "2020.03.23 01:00",
    "o": 0.58048,
    "h": 0.58048,
    "l": 0.5704,
    "c": 0.57139,
    "v": 2782
  },
  {
    "dt": "2020.03.23 02:00",
    "o": 0.57143,
    "h": 0.57767,
    "l": 0.57062,
    "c": 0.57522,
    "v": 3368
  },
  {
    "dt": "2020.03.23 03:00",
    "o": 0.57524,
    "h": 0.57791,
    "l": 0.57172,
    "c": 0.57205,
    "v": 3424
  },
  {
    "dt": "2020.03.23 04:00",
    "o": 0.57203,
    "h": 0.57521,
    "l": 0.56989,
    "c": 0.57483,
    "v": 3451
  },
  {
    "dt": "2020.03.23 05:00",
    "o": 0.57484,
    "h": 0.57672,
    "l": 0.573,
    "c": 0.57552,
    "v": 3300
  },
  {
    "dt": "2020.03.23 06:00",
    "o": 0.57553,
    "h": 0.57673,
    "l": 0.57402,
    "c": 0.57547,
    "v": 2838
  },
  {
    "dt": "2020.03.23 07:00",
    "o": 0.57548,
    "h": 0.57739,
    "l": 0.57513,
    "c": 0.57607,
    "v": 2303
  },
  {
    "dt": "2020.03.23 08:00",
    "o": 0.57608,
    "h": 0.57777,
    "l": 0.57452,
    "c": 0.57687,
    "v": 2456
  },
  {
    "dt": "2020.03.23 09:00",
    "o": 0.5769,
    "h": 0.58077,
    "l": 0.57484,
    "c": 0.57768,
    "v": 2944
  },
  {
    "dt": "2020.03.23 10:00",
    "o": 0.57777,
    "h": 0.57865,
    "l": 0.57541,
    "c": 0.57841,
    "v": 3684
  },
  {
    "dt": "2020.03.23 11:00",
    "o": 0.57843,
    "h": 0.57941,
    "l": 0.57553,
    "c": 0.57594,
    "v": 4393
  },
  {
    "dt": "2020.03.23 12:00",
    "o": 0.57592,
    "h": 0.57691,
    "l": 0.57377,
    "c": 0.57497,
    "v": 3788
  },
  {
    "dt": "2020.03.23 13:00",
    "o": 0.57497,
    "h": 0.57535,
    "l": 0.57262,
    "c": 0.57308,
    "v": 3731
  },
  {
    "dt": "2020.03.23 14:00",
    "o": 0.57307,
    "h": 0.57406,
    "l": 0.57216,
    "c": 0.57227,
    "v": 3337
  },
  {
    "dt": "2020.03.23 15:00",
    "o": 0.57221,
    "h": 0.58448,
    "l": 0.57218,
    "c": 0.58201,
    "v": 4722
  },
  {
    "dt": "2020.03.23 16:00",
    "o": 0.58196,
    "h": 0.58372,
    "l": 0.57723,
    "c": 0.58272,
    "v": 4539
  },
  {
    "dt": "2020.03.23 17:00",
    "o": 0.58271,
    "h": 0.58363,
    "l": 0.58039,
    "c": 0.58159,
    "v": 4320
  },
  {
    "dt": "2020.03.23 18:00",
    "o": 0.58139,
    "h": 0.58261,
    "l": 0.57375,
    "c": 0.57508,
    "v": 4060
  },
  {
    "dt": "2020.03.23 19:00",
    "o": 0.57508,
    "h": 0.57942,
    "l": 0.57508,
    "c": 0.57934,
    "v": 3868
  },
  {
    "dt": "2020.03.23 20:00",
    "o": 0.57937,
    "h": 0.58105,
    "l": 0.57774,
    "c": 0.57989,
    "v": 3997
  },
  {
    "dt": "2020.03.23 21:00",
    "o": 0.57989,
    "h": 0.58035,
    "l": 0.57815,
    "c": 0.57903,
    "v": 3084
  },
  {
    "dt": "2020.03.23 22:00",
    "o": 0.57906,
    "h": 0.57929,
    "l": 0.57766,
    "c": 0.57908,
    "v": 2841
  },
  {
    "dt": "2020.03.23 23:00",
    "o": 0.57906,
    "h": 0.58244,
    "l": 0.57879,
    "c": 0.58217,
    "v": 2108
  },
  {
    "dt": "2020.03.24 00:00",
    "o": 0.58275,
    "h": 0.58316,
    "l": 0.58184,
    "c": 0.5819,
    "v": 292
  },
  {
    "dt": "2020.03.24 01:00",
    "o": 0.58204,
    "h": 0.58416,
    "l": 0.58121,
    "c": 0.58416,
    "v": 1958
  },
  {
    "dt": "2020.03.24 02:00",
    "o": 0.5837,
    "h": 0.58839,
    "l": 0.58265,
    "c": 0.58741,
    "v": 3064
  },
  {
    "dt": "2020.03.24 03:00",
    "o": 0.58748,
    "h": 0.59023,
    "l": 0.58662,
    "c": 0.58989,
    "v": 3030
  },
  {
    "dt": "2020.03.24 04:00",
    "o": 0.5899,
    "h": 0.59324,
    "l": 0.58988,
    "c": 0.59161,
    "v": 2681
  },
  {
    "dt": "2020.03.24 05:00",
    "o": 0.5916,
    "h": 0.59442,
    "l": 0.59128,
    "c": 0.59414,
    "v": 2900
  },
  {
    "dt": "2020.03.24 06:00",
    "o": 0.59417,
    "h": 0.59436,
    "l": 0.59193,
    "c": 0.5922,
    "v": 2699
  },
  {
    "dt": "2020.03.24 07:00",
    "o": 0.59221,
    "h": 0.59335,
    "l": 0.59031,
    "c": 0.59111,
    "v": 2204
  },
  {
    "dt": "2020.03.24 08:00",
    "o": 0.59111,
    "h": 0.59204,
    "l": 0.58864,
    "c": 0.59041,
    "v": 2452
  },
  {
    "dt": "2020.03.24 09:00",
    "o": 0.59046,
    "h": 0.59744,
    "l": 0.58983,
    "c": 0.59556,
    "v": 3120
  },
  {
    "dt": "2020.03.24 10:00",
    "o": 0.59566,
    "h": 0.59681,
    "l": 0.5938,
    "c": 0.59464,
    "v": 3065
  },
  {
    "dt": "2020.03.24 11:00",
    "o": 0.59463,
    "h": 0.59632,
    "l": 0.59341,
    "c": 0.59381,
    "v": 2124
  },
  {
    "dt": "2020.03.24 12:00",
    "o": 0.59377,
    "h": 0.59653,
    "l": 0.59252,
    "c": 0.59529,
    "v": 1945
  },
  {
    "dt": "2020.03.24 13:00",
    "o": 0.59522,
    "h": 0.59627,
    "l": 0.59366,
    "c": 0.59381,
    "v": 2141
  },
  {
    "dt": "2020.03.24 14:00",
    "o": 0.59379,
    "h": 0.59414,
    "l": 0.58928,
    "c": 0.58957,
    "v": 2556
  },
  {
    "dt": "2020.03.24 15:00",
    "o": 0.58951,
    "h": 0.59139,
    "l": 0.58641,
    "c": 0.58999,
    "v": 3904
  },
  {
    "dt": "2020.03.24 16:00",
    "o": 0.59,
    "h": 0.59314,
    "l": 0.58856,
    "c": 0.59197,
    "v": 3428
  },
  {
    "dt": "2020.03.24 17:00",
    "o": 0.59192,
    "h": 0.59383,
    "l": 0.5911,
    "c": 0.59383,
    "v": 3681
  },
  {
    "dt": "2020.03.24 18:00",
    "o": 0.5939,
    "h": 0.59631,
    "l": 0.59229,
    "c": 0.59248,
    "v": 3663
  },
  {
    "dt": "2020.03.24 19:00",
    "o": 0.59254,
    "h": 0.59364,
    "l": 0.592,
    "c": 0.59278,
    "v": 3020
  },
  {
    "dt": "2020.03.24 20:00",
    "o": 0.59277,
    "h": 0.59303,
    "l": 0.58881,
    "c": 0.58956,
    "v": 2754
  },
  {
    "dt": "2020.03.24 21:00",
    "o": 0.58958,
    "h": 0.59142,
    "l": 0.58922,
    "c": 0.59142,
    "v": 2656
  },
  {
    "dt": "2020.03.24 22:00",
    "o": 0.59143,
    "h": 0.59301,
    "l": 0.59033,
    "c": 0.59301,
    "v": 2564
  },
  {
    "dt": "2020.03.24 23:00",
    "o": 0.59303,
    "h": 0.59574,
    "l": 0.59272,
    "c": 0.59541,
    "v": 1860
  },
  {
    "dt": "2020.03.25 00:00",
    "o": 0.59551,
    "h": 0.598,
    "l": 0.5953,
    "c": 0.5968,
    "v": 754
  },
  {
    "dt": "2020.03.25 01:00",
    "o": 0.59685,
    "h": 0.59883,
    "l": 0.59512,
    "c": 0.59762,
    "v": 2003
  },
  {
    "dt": "2020.03.25 02:00",
    "o": 0.59763,
    "h": 0.59847,
    "l": 0.59655,
    "c": 0.59679,
    "v": 1827
  },
  {
    "dt": "2020.03.25 03:00",
    "o": 0.5968,
    "h": 0.5968,
    "l": 0.59365,
    "c": 0.59584,
    "v": 2730
  },
  {
    "dt": "2020.03.25 04:00",
    "o": 0.59584,
    "h": 0.59742,
    "l": 0.59516,
    "c": 0.59721,
    "v": 2164
  },
  {
    "dt": "2020.03.25 05:00",
    "o": 0.59721,
    "h": 0.59847,
    "l": 0.59602,
    "c": 0.59821,
    "v": 2183
  },
  {
    "dt": "2020.03.25 06:00",
    "o": 0.59823,
    "h": 0.59843,
    "l": 0.59689,
    "c": 0.59793,
    "v": 2085
  },
  {
    "dt": "2020.03.25 07:00",
    "o": 0.59793,
    "h": 0.60079,
    "l": 0.59725,
    "c": 0.60048,
    "v": 2236
  },
  {
    "dt": "2020.03.25 08:00",
    "o": 0.60049,
    "h": 0.60435,
    "l": 0.59935,
    "c": 0.60357,
    "v": 2541
  },
  {
    "dt": "2020.03.25 09:00",
    "o": 0.60365,
    "h": 0.60471,
    "l": 0.60247,
    "c": 0.60399,
    "v": 1915
  },
  {
    "dt": "2020.03.25 10:00",
    "o": 0.60401,
    "h": 0.60442,
    "l": 0.60215,
    "c": 0.6039,
    "v": 2723
  },
  {
    "dt": "2020.03.25 11:00",
    "o": 0.60397,
    "h": 0.60727,
    "l": 0.60223,
    "c": 0.60617,
    "v": 2997
  },
  {
    "dt": "2020.03.25 12:00",
    "o": 0.60615,
    "h": 0.60682,
    "l": 0.60493,
    "c": 0.60512,
    "v": 2433
  },
  {
    "dt": "2020.03.25 13:00",
    "o": 0.60512,
    "h": 0.60512,
    "l": 0.5991,
    "c": 0.59913,
    "v": 2491
  },
  {
    "dt": "2020.03.25 14:00",
    "o": 0.5993,
    "h": 0.60169,
    "l": 0.59908,
    "c": 0.60062,
    "v": 2467
  },
  {
    "dt": "2020.03.25 15:00",
    "o": 0.6006,
    "h": 0.60254,
    "l": 0.59965,
    "c": 0.60103,
    "v": 3010
  },
  {
    "dt": "2020.03.25 16:00",
    "o": 0.60102,
    "h": 0.60247,
    "l": 0.59782,
    "c": 0.59811,
    "v": 4085
  },
  {
    "dt": "2020.03.25 17:00",
    "o": 0.59806,
    "h": 0.59822,
    "l": 0.59528,
    "c": 0.5958,
    "v": 4167
  },
  {
    "dt": "2020.03.25 18:00",
    "o": 0.59581,
    "h": 0.59613,
    "l": 0.59296,
    "c": 0.59534,
    "v": 4243
  },
  {
    "dt": "2020.03.25 19:00",
    "o": 0.59536,
    "h": 0.59772,
    "l": 0.59526,
    "c": 0.59618,
    "v": 3346
  },
  {
    "dt": "2020.03.25 20:00",
    "o": 0.59621,
    "h": 0.59759,
    "l": 0.59596,
    "c": 0.59661,
    "v": 3445
  },
  {
    "dt": "2020.03.25 21:00",
    "o": 0.59662,
    "h": 0.59687,
    "l": 0.59528,
    "c": 0.59602,
    "v": 3068
  },
  {
    "dt": "2020.03.25 22:00",
    "o": 0.59603,
    "h": 0.59629,
    "l": 0.59507,
    "c": 0.59623,
    "v": 2920
  },
  {
    "dt": "2020.03.25 23:00",
    "o": 0.59626,
    "h": 0.59626,
    "l": 0.59537,
    "c": 0.59574,
    "v": 1411
  },
  {
    "dt": "2020.03.26 00:00",
    "o": 0.59577,
    "h": 0.5958,
    "l": 0.59521,
    "c": 0.59572,
    "v": 360
  },
  {
    "dt": "2020.03.26 01:00",
    "o": 0.59572,
    "h": 0.59581,
    "l": 0.58932,
    "c": 0.58972,
    "v": 2323
  },
  {
    "dt": "2020.03.26 02:00",
    "o": 0.58985,
    "h": 0.59192,
    "l": 0.58924,
    "c": 0.59022,
    "v": 2624
  },
  {
    "dt": "2020.03.26 03:00",
    "o": 0.59027,
    "h": 0.59105,
    "l": 0.58908,
    "c": 0.58957,
    "v": 3017
  },
  {
    "dt": "2020.03.26 04:00",
    "o": 0.58958,
    "h": 0.58958,
    "l": 0.58708,
    "c": 0.58765,
    "v": 2352
  },
  {
    "dt": "2020.03.26 05:00",
    "o": 0.58764,
    "h": 0.59007,
    "l": 0.58694,
    "c": 0.58992,
    "v": 1800
  },
  {
    "dt": "2020.03.26 06:00",
    "o": 0.58991,
    "h": 0.59187,
    "l": 0.58933,
    "c": 0.59164,
    "v": 1689
  },
  {
    "dt": "2020.03.26 07:00",
    "o": 0.59164,
    "h": 0.59342,
    "l": 0.59142,
    "c": 0.59312,
    "v": 1571
  },
  {
    "dt": "2020.03.26 08:00",
    "o": 0.59307,
    "h": 0.59327,
    "l": 0.5905,
    "c": 0.59149,
    "v": 1387
  },
  {
    "dt": "2020.03.26 09:00",
    "o": 0.59157,
    "h": 0.59293,
    "l": 0.591,
    "c": 0.59183,
    "v": 1564
  },
  {
    "dt": "2020.03.26 10:00",
    "o": 0.59187,
    "h": 0.59477,
    "l": 0.59183,
    "c": 0.59451,
    "v": 3036
  },
  {
    "dt": "2020.03.26 11:00",
    "o": 0.5945,
    "h": 0.59587,
    "l": 0.59409,
    "c": 0.59525,
    "v": 3832
  },
  {
    "dt": "2020.03.26 12:00",
    "o": 0.59526,
    "h": 0.59777,
    "l": 0.59518,
    "c": 0.59681,
    "v": 2808
  },
  {
    "dt": "2020.03.26 13:00",
    "o": 0.59681,
    "h": 0.59793,
    "l": 0.5963,
    "c": 0.59727,
    "v": 2606
  },
  {
    "dt": "2020.03.26 14:00",
    "o": 0.59724,
    "h": 0.60233,
    "l": 0.59721,
    "c": 0.59955,
    "v": 2771
  },
  {
    "dt": "2020.03.26 15:00",
    "o": 0.59952,
    "h": 0.60279,
    "l": 0.59795,
    "c": 0.60257,
    "v": 3816
  },
  {
    "dt": "2020.03.26 16:00",
    "o": 0.60257,
    "h": 0.60555,
    "l": 0.60159,
    "c": 0.60373,
    "v": 4562
  },
  {
    "dt": "2020.03.26 17:00",
    "o": 0.60372,
    "h": 0.60494,
    "l": 0.60096,
    "c": 0.60294,
    "v": 4623
  },
  {
    "dt": "2020.03.26 18:00",
    "o": 0.60294,
    "h": 0.60663,
    "l": 0.60236,
    "c": 0.60501,
    "v": 4012
  },
  {
    "dt": "2020.03.26 19:00",
    "o": 0.60492,
    "h": 0.60704,
    "l": 0.6041,
    "c": 0.60681,
    "v": 3480
  },
  {
    "dt": "2020.03.26 20:00",
    "o": 0.6068,
    "h": 0.60683,
    "l": 0.60398,
    "c": 0.60467,
    "v": 3195
  },
  {
    "dt": "2020.03.26 21:00",
    "o": 0.60468,
    "h": 0.60838,
    "l": 0.60421,
    "c": 0.6079,
    "v": 3113
  },
  {
    "dt": "2020.03.26 22:00",
    "o": 0.60794,
    "h": 0.60866,
    "l": 0.60557,
    "c": 0.60658,
    "v": 3267
  },
  {
    "dt": "2020.03.26 23:00",
    "o": 0.60662,
    "h": 0.60716,
    "l": 0.6051,
    "c": 0.60579,
    "v": 1288
  },
  {
    "dt": "2020.03.27 00:00",
    "o": 0.60615,
    "h": 0.60615,
    "l": 0.60339,
    "c": 0.60362,
    "v": 515
  },
  {
    "dt": "2020.03.27 01:00",
    "o": 0.604,
    "h": 0.60521,
    "l": 0.60341,
    "c": 0.60351,
    "v": 1425
  },
  {
    "dt": "2020.03.27 02:00",
    "o": 0.60362,
    "h": 0.60826,
    "l": 0.6036,
    "c": 0.60774,
    "v": 2075
  },
  {
    "dt": "2020.03.27 03:00",
    "o": 0.60777,
    "h": 0.60777,
    "l": 0.60516,
    "c": 0.60556,
    "v": 2385
  },
  {
    "dt": "2020.03.27 04:00",
    "o": 0.60546,
    "h": 0.61081,
    "l": 0.60429,
    "c": 0.60857,
    "v": 3030
  },
  {
    "dt": "2020.03.27 05:00",
    "o": 0.60855,
    "h": 0.61048,
    "l": 0.60783,
    "c": 0.61048,
    "v": 2699
  },
  {
    "dt": "2020.03.27 06:00",
    "o": 0.61048,
    "h": 0.61251,
    "l": 0.61047,
    "c": 0.61121,
    "v": 3010
  },
  {
    "dt": "2020.03.27 07:00",
    "o": 0.6112,
    "h": 0.61131,
    "l": 0.60911,
    "c": 0.61023,
    "v": 2290
  },
  {
    "dt": "2020.03.27 08:00",
    "o": 0.61025,
    "h": 0.61243,
    "l": 0.60943,
    "c": 0.61218,
    "v": 2232
  },
  {
    "dt": "2020.03.27 09:00",
    "o": 0.61218,
    "h": 0.61239,
    "l": 0.60706,
    "c": 0.60883,
    "v": 2761
  },
  {
    "dt": "2020.03.27 10:00",
    "o": 0.60883,
    "h": 0.60926,
    "l": 0.60472,
    "c": 0.60676,
    "v": 3506
  },
  {
    "dt": "2020.03.27 11:00",
    "o": 0.60677,
    "h": 0.60929,
    "l": 0.60577,
    "c": 0.60634,
    "v": 3708
  },
  {
    "dt": "2020.03.27 12:00",
    "o": 0.60628,
    "h": 0.60782,
    "l": 0.60514,
    "c": 0.60619,
    "v": 3424
  },
  {
    "dt": "2020.03.27 13:00",
    "o": 0.60629,
    "h": 0.60948,
    "l": 0.60593,
    "c": 0.60854,
    "v": 3072
  },
  {
    "dt": "2020.03.27 14:00",
    "o": 0.60853,
    "h": 0.60934,
    "l": 0.60574,
    "c": 0.60577,
    "v": 3255
  },
  {
    "dt": "2020.03.27 15:00",
    "o": 0.60578,
    "h": 0.60712,
    "l": 0.60231,
    "c": 0.60235,
    "v": 3059
  },
  {
    "dt": "2020.03.27 16:00",
    "o": 0.60235,
    "h": 0.60628,
    "l": 0.60219,
    "c": 0.60605,
    "v": 4186
  },
  {
    "dt": "2020.03.27 17:00",
    "o": 0.60598,
    "h": 0.6077,
    "l": 0.60527,
    "c": 0.60659,
    "v": 4022
  },
  {
    "dt": "2020.03.27 18:00",
    "o": 0.6066,
    "h": 0.61339,
    "l": 0.60572,
    "c": 0.6124,
    "v": 4219
  },
  {
    "dt": "2020.03.27 19:00",
    "o": 0.61238,
    "h": 0.61561,
    "l": 0.61108,
    "c": 0.61448,
    "v": 3724
  },
  {
    "dt": "2020.03.27 20:00",
    "o": 0.61449,
    "h": 0.61834,
    "l": 0.6137,
    "c": 0.61772,
    "v": 3107
  },
  {
    "dt": "2020.03.27 21:00",
    "o": 0.61783,
    "h": 0.6193,
    "l": 0.61599,
    "c": 0.61899,
    "v": 3186
  },
  {
    "dt": "2020.03.27 22:00",
    "o": 0.619,
    "h": 0.61994,
    "l": 0.61646,
    "c": 0.61706,
    "v": 3345
  },
  {
    "dt": "2020.03.27 23:00",
    "o": 0.61708,
    "h": 0.61805,
    "l": 0.61519,
    "c": 0.61533,
    "v": 1355
  },
  {
    "dt": "2020.03.30 00:00",
    "o": 0.6151,
    "h": 0.61547,
    "l": 0.61449,
    "c": 0.61502,
    "v": 124
  },
  {
    "dt": "2020.03.30 01:00",
    "o": 0.61522,
    "h": 0.61524,
    "l": 0.61118,
    "c": 0.61293,
    "v": 2620
  },
  {
    "dt": "2020.03.30 02:00",
    "o": 0.61309,
    "h": 0.61826,
    "l": 0.61256,
    "c": 0.61737,
    "v": 2586
  },
  {
    "dt": "2020.03.30 03:00",
    "o": 0.61747,
    "h": 0.61834,
    "l": 0.61283,
    "c": 0.61469,
    "v": 3456
  },
  {
    "dt": "2020.03.30 04:00",
    "o": 0.6147,
    "h": 0.61624,
    "l": 0.61296,
    "c": 0.61498,
    "v": 2941
  },
  {
    "dt": "2020.03.30 05:00",
    "o": 0.61492,
    "h": 0.61513,
    "l": 0.61277,
    "c": 0.61436,
    "v": 2370
  },
  {
    "dt": "2020.03.30 06:00",
    "o": 0.61428,
    "h": 0.61467,
    "l": 0.61252,
    "c": 0.61362,
    "v": 2021
  },
  {
    "dt": "2020.03.30 07:00",
    "o": 0.61367,
    "h": 0.61523,
    "l": 0.61296,
    "c": 0.6148,
    "v": 2155
  },
  {
    "dt": "2020.03.30 08:00",
    "o": 0.61483,
    "h": 0.6165,
    "l": 0.6139,
    "c": 0.61646,
    "v": 2509
  },
  {
    "dt": "2020.03.30 09:00",
    "o": 0.61684,
    "h": 0.61691,
    "l": 0.61245,
    "c": 0.61292,
    "v": 3246
  },
  {
    "dt": "2020.03.30 10:00",
    "o": 0.61291,
    "h": 0.61405,
    "l": 0.61119,
    "c": 0.61342,
    "v": 3920
  },
  {
    "dt": "2020.03.30 11:00",
    "o": 0.61348,
    "h": 0.61589,
    "l": 0.61307,
    "c": 0.61519,
    "v": 3226
  },
  {
    "dt": "2020.03.30 12:00",
    "o": 0.61516,
    "h": 0.61609,
    "l": 0.61415,
    "c": 0.61437,
    "v": 2958
  },
  {
    "dt": "2020.03.30 13:00",
    "o": 0.61444,
    "h": 0.61487,
    "l": 0.61343,
    "c": 0.61354,
    "v": 2354
  },
  {
    "dt": "2020.03.30 14:00",
    "o": 0.61355,
    "h": 0.61425,
    "l": 0.61208,
    "c": 0.6125,
    "v": 2447
  },
  {
    "dt": "2020.03.30 15:00",
    "o": 0.61259,
    "h": 0.61333,
    "l": 0.6111,
    "c": 0.6122,
    "v": 3388
  },
  {
    "dt": "2020.03.30 16:00",
    "o": 0.61226,
    "h": 0.61723,
    "l": 0.6119,
    "c": 0.6147,
    "v": 4116
  },
  {
    "dt": "2020.03.30 17:00",
    "o": 0.61472,
    "h": 0.61708,
    "l": 0.61407,
    "c": 0.61548,
    "v": 4403
  },
  {
    "dt": "2020.03.30 18:00",
    "o": 0.6154,
    "h": 0.61658,
    "l": 0.61369,
    "c": 0.61431,
    "v": 3544
  },
  {
    "dt": "2020.03.30 19:00",
    "o": 0.61434,
    "h": 0.61725,
    "l": 0.61391,
    "c": 0.61636,
    "v": 3058
  },
  {
    "dt": "2020.03.30 20:00",
    "o": 0.61636,
    "h": 0.61646,
    "l": 0.61443,
    "c": 0.61472,
    "v": 2396
  },
  {
    "dt": "2020.03.30 21:00",
    "o": 0.61472,
    "h": 0.61635,
    "l": 0.61458,
    "c": 0.61529,
    "v": 2658
  },
  {
    "dt": "2020.03.30 22:00",
    "o": 0.61538,
    "h": 0.61749,
    "l": 0.61538,
    "c": 0.6169,
    "v": 2634
  },
  {
    "dt": "2020.03.30 23:00",
    "o": 0.61678,
    "h": 0.61766,
    "l": 0.61628,
    "c": 0.61689,
    "v": 1120
  },
  {
    "dt": "2020.03.31 00:00",
    "o": 0.61638,
    "h": 0.61686,
    "l": 0.61629,
    "c": 0.6165,
    "v": 403
  },
  {
    "dt": "2020.03.31 01:00",
    "o": 0.61654,
    "h": 0.61748,
    "l": 0.61585,
    "c": 0.61691,
    "v": 1353
  },
  {
    "dt": "2020.03.31 02:00",
    "o": 0.61694,
    "h": 0.6171,
    "l": 0.61491,
    "c": 0.61638,
    "v": 1960
  },
  {
    "dt": "2020.03.31 03:00",
    "o": 0.61647,
    "h": 0.61929,
    "l": 0.60782,
    "c": 0.61481,
    "v": 2805
  },
  {
    "dt": "2020.03.31 04:00",
    "o": 0.61514,
    "h": 0.61815,
    "l": 0.61439,
    "c": 0.617,
    "v": 3227
  },
  {
    "dt": "2020.03.31 05:00",
    "o": 0.61701,
    "h": 0.6192,
    "l": 0.61558,
    "c": 0.61876,
    "v": 2568
  },
  {
    "dt": "2020.03.31 06:00",
    "o": 0.6188,
    "h": 0.6199,
    "l": 0.61706,
    "c": 0.61736,
    "v": 2236
  },
  {
    "dt": "2020.03.31 07:00",
    "o": 0.61728,
    "h": 0.61859,
    "l": 0.6168,
    "c": 0.61748,
    "v": 2105
  },
  {
    "dt": "2020.03.31 08:00",
    "o": 0.61749,
    "h": 0.62123,
    "l": 0.61697,
    "c": 0.62071,
    "v": 2656
  },
  {
    "dt": "2020.03.31 09:00",
    "o": 0.62072,
    "h": 0.62077,
    "l": 0.61748,
    "c": 0.61806,
    "v": 3504
  },
  {
    "dt": "2020.03.31 10:00",
    "o": 0.61806,
    "h": 0.61812,
    "l": 0.61492,
    "c": 0.61635,
    "v": 3783
  },
  {
    "dt": "2020.03.31 11:00",
    "o": 0.61638,
    "h": 0.61726,
    "l": 0.61441,
    "c": 0.6145,
    "v": 3047
  },
  {
    "dt": "2020.03.31 12:00",
    "o": 0.61451,
    "h": 0.61512,
    "l": 0.61172,
    "c": 0.61214,
    "v": 2959
  },
  {
    "dt": "2020.03.31 13:00",
    "o": 0.61215,
    "h": 0.61254,
    "l": 0.60874,
    "c": 0.60913,
    "v": 3154
  },
  {
    "dt": "2020.03.31 14:00",
    "o": 0.60916,
    "h": 0.61097,
    "l": 0.6081,
    "c": 0.61036,
    "v": 3418
  },
  {
    "dt": "2020.03.31 15:00",
    "o": 0.61038,
    "h": 0.61317,
    "l": 0.60845,
    "c": 0.6103,
    "v": 3733
  },
  {
    "dt": "2020.03.31 16:00",
    "o": 0.61024,
    "h": 0.61108,
    "l": 0.60889,
    "c": 0.61017,
    "v": 3503
  },
  {
    "dt": "2020.03.31 17:00",
    "o": 0.61021,
    "h": 0.613,
    "l": 0.60891,
    "c": 0.61202,
    "v": 4720
  },
  {
    "dt": "2020.03.31 18:00",
    "o": 0.61207,
    "h": 0.61506,
    "l": 0.61122,
    "c": 0.61376,
    "v": 4682
  },
  {
    "dt": "2020.03.31 19:00",
    "o": 0.61376,
    "h": 0.61399,
    "l": 0.60884,
    "c": 0.61005,
    "v": 3939
  },
  {
    "dt": "2020.03.31 20:00",
    "o": 0.60999,
    "h": 0.61195,
    "l": 0.60819,
    "c": 0.61141,
    "v": 3910
  },
  {
    "dt": "2020.03.31 21:00",
    "o": 0.61138,
    "h": 0.61454,
    "l": 0.61118,
    "c": 0.6142,
    "v": 3661
  },
  {
    "dt": "2020.03.31 22:00",
    "o": 0.61424,
    "h": 0.61539,
    "l": 0.61204,
    "c": 0.61512,
    "v": 3623
  },
  {
    "dt": "2020.03.31 23:00",
    "o": 0.61514,
    "h": 0.61568,
    "l": 0.61346,
    "c": 0.61364,
    "v": 1577
  }
]