[
  {
    "dt": "2023.08.01 00:00",
    "o": 0.87065,
    "h": 0.87182,
    "l": 0.8702,
    "c": 0.87119,
    "v": 124
  },
  {
    "dt": "2023.08.01 01:00",
    "o": 0.87129,
    "h": 0.87178,
    "l": 0.87129,
    "c": 0.8714,
    "v": 542
  },
  {
    "dt": "2023.08.01 02:00",
    "o": 0.87138,
    "h": 0.87168,
    "l": 0.87134,
    "c": 0.87166,
    "v": 415
  },
  {
    "dt": "2023.08.01 03:00",
    "o": 0.87164,
    "h": 0.87238,
    "l": 0.87114,
    "c": 0.87237,
    "v": 1273
  },
  {
    "dt": "2023.08.01 04:00",
    "o": 0.87239,
    "h": 0.87275,
    "l": 0.87218,
    "c": 0.87258,
    "v": 1344
  },
  {
    "dt": "2023.08.01 05:00",
    "o": 0.87258,
    "h": 0.8731,
    "l": 0.8725,
    "c": 0.87252,
    "v": 792
  },
  {
    "dt": "2023.08.01 06:00",
    "o": 0.87248,
    "h": 0.87252,
    "l": 0.87186,
    "c": 0.87194,
    "v": 1141
  },
  {
    "dt": "2023.08.01 07:00",
    "o": 0.87195,
    "h": 0.87269,
    "l": 0.87195,
    "c": 0.8723,
    "v": 924
  },
  {
    "dt": "2023.08.01 08:00",
    "o": 0.87232,
    "h": 0.87255,
    "l": 0.87144,
    "c": 0.87148,
    "v": 1079
  },
  {
    "dt": "2023.08.01 09:00",
    "o": 0.87159,
    "h": 0.87265,
    "l": 0.87116,
    "c": 0.87195,
    "v": 1366
  },
  {
    "dt": "2023.08.01 10:00",
    "o": 0.87197,
    "h": 0.87416,
    "l": 0.87197,
    "c": 0.87367,
    "v": 2920
  },
  {
    "dt": "2023.08.01 11:00",
    "o": 0.87368,
    "h": 0.87535,
    "l": 0.87367,
    "c": 0.87481,
    "v": 2635
  },
  {
    "dt": "2023.08.01 12:00",
    "o": 0.87482,
    "h": 0.87565,
    "l": 0.87473,
    "c": 0.87523,
    "v": 2232
  },
  {
    "dt": "2023.08.01 13:00",
    "o": 0.87524,
    "h": 0.87617,
    "l": 0.87513,
    "c": 0.87527,
    "v": 1946
  },
  {
    "dt": "2023.08.01 14:00",
    "o": 0.87526,
    "h": 0.87551,
    "l": 0.87492,
    "c": 0.87536,
    "v": 2006
  },
  {
    "dt": "2023.08.01 15:00",
    "o": 0.87534,
    "h": 0.8777,
    "l": 0.87532,
    "c": 0.87729,
    "v": 2661
  },
  {
    "dt": "2023.08.01 16:00",
    "o": 0.87723,
    "h": 0.87747,
    "l": 0.87558,
    "c": 0.87559,
    "v": 2683
  },
  {
    "dt": "2023.08.01 17:00",
    "o": 0.87553,
    "h": 0.87725,
    "l": 0.87413,
    "c": 0.87501,
    "v": 3557
  },
  {
    "dt": "2023.08.01 18:00",
    "o": 0.87502,
    "h": 0.87699,
    "l": 0.87469,
    "c": 0.87626,
    "v": 2436
  },
  {
    "dt": "2023.08.01 19:00",
    "o": 0.87624,
    "h": 0.87628,
    "l": 0.87548,
    "c": 0.87576,
    "v": 1268
  },
  {
    "dt": "2023.08.01 20:00",
    "o": 0.87576,
    "h": 0.87666,
    "l": 0.87537,
    "c": 0.87653,
    "v": 1412
  },
  {
    "dt": "2023.08.01 21:00",
    "o": 0.87653,
    "h": 0.87653,
    "l": 0.87557,
    "c": 0.87571,
    "v": 1340
  },
  {
    "dt": "2023.08.01 22:00",
    "o": 0.87571,
    "h": 0.87572,
    "l": 0.87478,
    "c": 0.87515,
    "v": 1002
  },
  {
    "dt": "2023.08.01 23:00",
    "o": 0.87521,
    "h": 0.87535,
    "l": 0.87484,
    "c": 0.87495,
    "v": 673
  },
  {
    "dt": "2023.08.02 00:00",
    "o": 0.87488,
    "h": 0.87506,
    "l": 0.8711,
    "c": 0.87125,
    "v": 982
  },
  {
    "dt": "2023.08.02 01:00",
    "o": 0.87158,
    "h": 0.87394,
    "l": 0.87158,
    "c": 0.87254,
    "v": 1583
  },
  {
    "dt": "2023.08.02 02:00",
    "o": 0.87257,
    "h": 0.87336,
    "l": 0.87196,
    "c": 0.87256,
    "v": 1038
  },
  {
    "dt": "2023.08.02 03:00",
    "o": 0.87257,
    "h": 0.87389,
    "l": 0.87257,
    "c": 0.87287,
    "v": 1647
  },
  {
    "dt": "2023.08.02 04:00",
    "o": 0.87287,
    "h": 0.87395,
    "l": 0.87251,
    "c": 0.87388,
    "v": 1251
  },
  {
    "dt": "2023.08.02 05:00",
    "o": 0.87389,
    "h": 0.87454,
    "l": 0.87313,
    "c": 0.87435,
    "v": 1230
  },
  {
    "dt": "2023.08.02 06:00",
    "o": 0.8743,
    "h": 0.87506,
    "l": 0.8743,
    "c": 0.87481,
    "v": 1247
  },
  {
    "dt": "2023.08.02 07:00",
    "o": 0.87481,
    "h": 0.87558,
    "l": 0.87472,
    "c": 0.87516,
    "v": 1329
  },
  {
    "dt": "2023.08.02 08:00",
    "o": 0.87516,
    "h": 0.87519,
    "l": 0.87379,
    "c": 0.87434,
    "v": 1463
  },
  {
    "dt": "2023.08.02 09:00",
    "o": 0.87431,
    "h": 0.87554,
    "l": 0.87396,
    "c": 0.87468,
    "v": 1964
  },
  {
    "dt": "2023.08.02 10:00",
    "o": 0.8747,
    "h": 0.8771,
    "l": 0.8747,
    "c": 0.87678,
    "v": 2953
  },
  {
    "dt": "2023.08.02 11:00",
    "o": 0.87677,
    "h": 0.87846,
    "l": 0.87643,
    "c": 0.87698,
    "v": 3029
  },
  {
    "dt": "2023.08.02 12:00",
    "o": 0.87698,
    "h": 0.8776,
    "l": 0.8762,
    "c": 0.87691,
    "v": 2226
  },
  {
    "dt": "2023.08.02 13:00",
    "o": 0.87691,
    "h": 0.87822,
    "l": 0.87684,
    "c": 0.87757,
    "v": 2326
  },
  {
    "dt": "2023.08.02 14:00",
    "o": 0.87758,
    "h": 0.87866,
    "l": 0.87745,
    "c": 0.87831,
    "v": 2170
  },
  {
    "dt": "2023.08.02 15:00",
    "o": 0.87832,
    "h": 0.88023,
    "l": 0.87752,
    "c": 0.87937,
    "v": 3160
  },
  {
    "dt": "2023.08.02 16:00",
    "o": 0.87935,
    "h": 0.88001,
    "l": 0.87888,
    "c": 0.87988,
    "v": 2703
  },
  {
    "dt": "2023.08.02 17:00",
    "o": 0.87992,
    "h": 0.88046,
    "l": 0.87721,
    "c": 0.87747,
    "v": 3306
  },
  {
    "dt": "2023.08.02 18:00",
    "o": 0.87753,
    "h": 0.879,
    "l": 0.87711,
    "c": 0.87795,
    "v": 2554
  },
  {
    "dt": "2023.08.02 19:00",
    "o": 0.87794,
    "h": 0.87826,
    "l": 0.87619,
    "c": 0.87621,
    "v": 1731
  },
  {
    "dt": "2023.08.02 20:00",
    "o": 0.87621,
    "h": 0.87661,
    "l": 0.87567,
    "c": 0.87658,
    "v": 1977
  },
  {
    "dt": "2023.08.02 21:00",
    "o": 0.87658,
    "h": 0.87763,
    "l": 0.87622,
    "c": 0.87722,
    "v": 1135
  },
  {
    "dt": "2023.08.02 22:00",
    "o": 0.87721,
    "h": 0.87787,
    "l": 0.87711,
    "c": 0.87776,
    "v": 600
  },
  {
    "dt": "2023.08.02 23:00",
    "o": 0.87777,
    "h": 0.87796,
    "l": 0.87733,
    "c": 0.87739,
    "v": 417
  },
  {
    "dt": "2023.08.03 00:00",
    "o": 0.87737,
    "h": 0.87747,
    "l": 0.87681,
    "c": 0.87705,
    "v": 333
  },
  {
    "dt": "2023.08.03 01:00",
    "o": 0.87705,
    "h": 0.87735,
    "l": 0.87705,
    "c": 0.87712,
    "v": 741
  },
  {
    "dt": "2023.08.03 02:00",
    "o": 0.87713,
    "h": 0.87734,
    "l": 0.87692,
    "c": 0.87731,
    "v": 589
  },
  {
    "dt": "2023.08.03 03:00",
    "o": 0.87736,
    "h": 0.87762,
    "l": 0.87727,
    "c": 0.87737,
    "v": 1120
  },
  {
    "dt": "2023.08.03 04:00",
    "o": 0.8774,
    "h": 0.87756,
    "l": 0.87659,
    "c": 0.87711,
    "v": 1228
  },
  {
    "dt": "2023.08.03 05:00",
    "o": 0.87712,
    "h": 0.87754,
    "l": 0.87695,
    "c": 0.87753,
    "v": 1105
  },
  {
    "dt": "2023.08.03 06:00",
    "o": 0.87754,
    "h": 0.87804,
    "l": 0.87754,
    "c": 0.87764,
    "v": 1057
  },
  {
    "dt": "2023.08.03 07:00",
    "o": 0.87765,
    "h": 0.87866,
    "l": 0.87751,
    "c": 0.87862,
    "v": 1362
  },
  {
    "dt": "2023.08.03 08:00",
    "o": 0.87863,
    "h": 0.8794,
    "l": 0.87735,
    "c": 0.87742,
    "v": 2024
  },
  {
    "dt": "2023.08.03 09:00",
    "o": 0.87748,
    "h": 0.87945,
    "l": 0.87748,
    "c": 0.87943,
    "v": 2528
  },
  {
    "dt": "2023.08.03 10:00",
    "o": 0.87943,
    "h": 0.87977,
    "l": 0.87785,
    "c": 0.87834,
    "v": 2941
  },
  {
    "dt": "2023.08.03 11:00",
    "o": 0.87835,
    "h": 0.87839,
    "l": 0.87707,
    "c": 0.87712,
    "v": 2459
  },
  {
    "dt": "2023.08.03 12:00",
    "o": 0.8771,
    "h": 0.87737,
    "l": 0.87589,
    "c": 0.87649,
    "v": 2123
  },
  {
    "dt": "2023.08.03 13:00",
    "o": 0.87652,
    "h": 0.87716,
    "l": 0.87535,
    "c": 0.87549,
    "v": 1782
  },
  {
    "dt": "2023.08.03 14:00",
    "o": 0.87551,
    "h": 0.87636,
    "l": 0.87407,
    "c": 0.87608,
    "v": 3003
  },
  {
    "dt": "2023.08.03 15:00",
    "o": 0.87617,
    "h": 0.87641,
    "l": 0.87361,
    "c": 0.87503,
    "v": 3618
  },
  {
    "dt": "2023.08.03 16:00",
    "o": 0.87504,
    "h": 0.87729,
    "l": 0.87487,
    "c": 0.87711,
    "v": 2884
  },
  {
    "dt": "2023.08.03 17:00",
    "o": 0.87707,
    "h": 0.87707,
    "l": 0.87414,
    "c": 0.8756,
    "v": 3821
  },
  {
    "dt": "2023.08.03 18:00",
    "o": 0.8756,
    "h": 0.87585,
    "l": 0.87331,
    "c": 0.87416,
    "v": 2792
  },
  {
    "dt": "2023.08.03 19:00",
    "o": 0.87418,
    "h": 0.8746,
    "l": 0.87321,
    "c": 0.87374,
    "v": 1554
  },
  {
    "dt": "2023.08.03 20:00",
    "o": 0.87376,
    "h": 0.87492,
    "l": 0.87351,
    "c": 0.87425,
    "v": 1295
  },
  {
    "dt": "2023.08.03 21:00",
    "o": 0.87429,
    "h": 0.87501,
    "l": 0.87405,
    "c": 0.87487,
    "v": 1298
  },
  {
    "dt": "2023.08.03 22:00",
    "o": 0.87485,
    "h": 0.87546,
    "l": 0.87479,
    "c": 0.87489,
    "v": 1059
  },
  {
    "dt": "2023.08.03 23:00",
    "o": 0.87489,
    "h": 0.87494,
    "l": 0.87401,
    "c": 0.87402,
    "v": 864
  },
  {
    "dt": "2023.08.04 00:00",
    "o": 0.87436,
    "h": 0.87487,
    "l": 0.87364,
    "c": 0.87401,
    "v": 602
  },
  {
    "dt": "2023.08.04 01:00",
    "o": 0.87413,
    "h": 0.87439,
    "l": 0.87387,
    "c": 0.874,
    "v": 729
  },
  {
    "dt": "2023.08.04 02:00",
    "o": 0.874,
    "h": 0.8743,
    "l": 0.874,
    "c": 0.87425,
    "v": 472
  },
  {
    "dt": "2023.08.04 03:00",
    "o": 0.87428,
    "h": 0.87458,
    "l": 0.87389,
    "c": 0.8739,
    "v": 1236
  },
  {
    "dt": "2023.08.04 04:00",
    "o": 0.87389,
    "h": 0.87395,
    "l": 0.87296,
    "c": 0.87367,
    "v": 1245
  },
  {
    "dt": "2023.08.04 05:00",
    "o": 0.87365,
    "h": 0.87407,
    "l": 0.87335,
    "c": 0.87384,
    "v": 1375
  },
  {
    "dt": "2023.08.04 06:00",
    "o": 0.87384,
    "h": 0.87435,
    "l": 0.87348,
    "c": 0.87425,
    "v": 983
  },
  {
    "dt": "2023.08.04 07:00",
    "o": 0.87424,
    "h": 0.87451,
    "l": 0.87416,
    "c": 0.87441,
    "v": 896
  },
  {
    "dt": "2023.08.04 08:00",
    "o": 0.87445,
    "h": 0.87466,
    "l": 0.87366,
    "c": 0.87425,
    "v": 1202
  },
  {
    "dt": "2023.08.04 09:00",
    "o": 0.87426,
    "h": 0.87511,
    "l": 0.87396,
    "c": 0.87484,
    "v": 1664
  },
  {
    "dt": "2023.08.04 10:00",
    "o": 0.87481,
    "h": 0.87701,
    "l": 0.87474,
    "c": 0.87673,
    "v": 2230
  },
  {
    "dt": "2023.08.04 11:00",
    "o": 0.87677,
    "h": 0.87786,
    "l": 0.87614,
    "c": 0.87751,
    "v": 1931
  },
  {
    "dt": "2023.08.04 12:00",
    "o": 0.8775,
    "h": 0.87817,
    "l": 0.87735,
    "c": 0.87762,
    "v": 1562
  },
  {
    "dt": "2023.08.04 13:00",
    "o": 0.87766,
    "h": 0.8778,
    "l": 0.87713,
    "c": 0.87736,
    "v": 1415
  },
  {
    "dt": "2023.08.04 14:00",
    "o": 0.87727,
    "h": 0.87764,
    "l": 0.87717,
    "c": 0.87745,
    "v": 1507
  },
  {
    "dt": "2023.08.04 15:00",
    "o": 0.87746,
    "h": 0.87763,
    "l": 0.87231,
    "c": 0.87281,
    "v": 3692
  },
  {
    "dt": "2023.08.04 16:00",
    "o": 0.8728,
    "h": 0.87304,
    "l": 0.86984,
    "c": 0.87097,
    "v": 3849
  },
  {
    "dt": "2023.08.04 17:00",
    "o": 0.87104,
    "h": 0.87203,
    "l": 0.87015,
    "c": 0.87186,
    "v": 3024
  },
  {
    "dt": "2023.08.04 18:00",
    "o": 0.87186,
    "h": 0.87249,
    "l": 0.87068,
    "c": 0.87121,
    "v": 2114
  },
  {
    "dt": "2023.08.04 19:00",
    "o": 0.87121,
    "h": 0.87183,
    "l": 0.87064,
    "c": 0.87094,
    "v": 1351
  },
  {
    "dt": "2023.08.04 20:00",
    "o": 0.87094,
    "h": 0.8714,
    "l": 0.87063,
    "c": 0.8713,
    "v": 648
  },
  {
    "dt": "2023.08.04 21:00",
    "o": 0.87133,
    "h": 0.87281,
    "l": 0.87133,
    "c": 0.87264,
    "v": 1190
  },
  {
    "dt": "2023.08.04 22:00",
    "o": 0.87267,
    "h": 0.87336,
    "l": 0.87256,
    "c": 0.87306,
    "v": 995
  },
  {
    "dt": "2023.08.04 23:00",
    "o": 0.87305,
    "h": 0.87317,
    "l": 0.8724,
    "c": 0.87265,
    "v": 804
  },
  {
    "dt": "2023.08.07 00:00",
    "o": 0.8712,
    "h": 0.87221,
    "l": 0.87111,
    "c": 0.87209,
    "v": 221
  },
  {
    "dt": "2023.08.07 01:00",
    "o": 0.87197,
    "h": 0.87387,
    "l": 0.87197,
    "c": 0.87367,
    "v": 1509
  },
  {
    "dt": "2023.08.07 02:00",
    "o": 0.87368,
    "h": 0.8743,
    "l": 0.87368,
    "c": 0.87412,
    "v": 1192
  },
  {
    "dt": "2023.08.07 03:00",
    "o": 0.87414,
    "h": 0.87449,
    "l": 0.87337,
    "c": 0.87374,
    "v": 1474
  },
  {
    "dt": "2023.08.07 04:00",
    "o": 0.87375,
    "h": 0.87502,
    "l": 0.87367,
    "c": 0.87477,
    "v": 1460
  },
  {
    "dt": "2023.08.07 05:00",
    "o": 0.87477,
    "h": 0.87523,
    "l": 0.87455,
    "c": 0.87472,
    "v": 909
  },
  {
    "dt": "2023.08.07 06:00",
    "o": 0.8747,
    "h": 0.87485,
    "l": 0.87426,
    "c": 0.87484,
    "v": 474
  },
  {
    "dt": "2023.08.07 07:00",
    "o": 0.87484,
    "h": 0.87504,
    "l": 0.87429,
    "c": 0.87437,
    "v": 939
  },
  {
    "dt": "2023.08.07 08:00",
    "o": 0.87436,
    "h": 0.87541,
    "l": 0.87426,
    "c": 0.87526,
    "v": 1258
  },
  {
    "dt": "2023.08.07 09:00",
    "o": 0.87536,
    "h": 0.87677,
    "l": 0.87512,
    "c": 0.87585,
    "v": 1855
  },
  {
    "dt": "2023.08.07 10:00",
    "o": 0.87582,
    "h": 0.87589,
    "l": 0.87374,
    "c": 0.8738,
    "v": 2065
  },
  {
    "dt": "2023.08.07 11:00",
    "o": 0.87378,
    "h": 0.87619,
    "l": 0.87369,
    "c": 0.87566,
    "v": 1971
  },
  {
    "dt": "2023.08.07 12:00",
    "o": 0.87566,
    "h": 0.87683,
    "l": 0.8755,
    "c": 0.8768,
    "v": 1708
  },
  {
    "dt": "2023.08.07 13:00",
    "o": 0.87682,
    "h": 0.87727,
    "l": 0.87657,
    "c": 0.87697,
    "v": 1562
  },
  {
    "dt": "2023.08.07 14:00",
    "o": 0.87698,
    "h": 0.87711,
    "l": 0.8758,
    "c": 0.87596,
    "v": 1594
  },
  {
    "dt": "2023.08.07 15:00",
    "o": 0.87596,
    "h": 0.87645,
    "l": 0.87471,
    "c": 0.87478,
    "v": 1630
  },
  {
    "dt": "2023.08.07 16:00",
    "o": 0.87477,
    "h": 0.87507,
    "l": 0.87327,
    "c": 0.87499,
    "v": 2371
  },
  {
    "dt": "2023.08.07 17:00",
    "o": 0.87505,
    "h": 0.87567,
    "l": 0.87396,
    "c": 0.8744,
    "v": 2125
  },
  {
    "dt": "2023.08.07 18:00",
    "o": 0.87446,
    "h": 0.87485,
    "l": 0.8738,
    "c": 0.87419,
    "v": 1918
  },
  {
    "dt": "2023.08.07 19:00",
    "o": 0.8742,
    "h": 0.87447,
    "l": 0.87367,
    "c": 0.87385,
    "v": 1522
  },
  {
    "dt": "2023.08.07 20:00",
    "o": 0.87385,
    "h": 0.87421,
    "l": 0.87335,
    "c": 0.87353,
    "v": 899
  },
  {
    "dt": "2023.08.07 21:00",
    "o": 0.8735,
    "h": 0.8735,
    "l": 0.87282,
    "c": 0.87282,
    "v": 1159
  },
  {
    "dt": "2023.08.07 22:00",
    "o": 0.87282,
    "h": 0.87319,
    "l": 0.87269,
    "c": 0.87287,
    "v": 614
  },
  {
    "dt": "2023.08.07 23:00",
    "o": 0.87289,
    "h": 0.8733,
    "l": 0.87264,
    "c": 0.87269,
    "v": 624
  },
  {
    "dt": "2023.08.08 00:00",
    "o": 0.87279,
    "h": 0.87294,
    "l": 0.8723,
    "c": 0.87252,
    "v": 640
  },
  {
    "dt": "2023.08.08 01:00",
    "o": 0.87269,
    "h": 0.8728,
    "l": 0.87249,
    "c": 0.87261,
    "v": 467
  },
  {
    "dt": "2023.08.08 02:00",
    "o": 0.87262,
    "h": 0.87289,
    "l": 0.87242,
    "c": 0.87289,
    "v": 271
  },
  {
    "dt": "2023.08.08 03:00",
    "o": 0.87286,
    "h": 0.87384,
    "l": 0.87268,
    "c": 0.87346,
    "v": 662
  },
  {
    "dt": "2023.08.08 04:00",
    "o": 0.8735,
    "h": 0.87461,
    "l": 0.87346,
    "c": 0.87445,
    "v": 1694
  },
  {
    "dt": "2023.08.08 05:00",
    "o": 0.87447,
    "h": 0.87463,
    "l": 0.87338,
    "c": 0.8735,
    "v": 1043
  },
  {
    "dt": "2023.08.08 06:00",
    "o": 0.8735,
    "h": 0.87422,
    "l": 0.87337,
    "c": 0.87415,
    "v": 1039
  },
  {
    "dt": "2023.08.08 07:00",
    "o": 0.87418,
    "h": 0.87428,
    "l": 0.87356,
    "c": 0.87356,
    "v": 701
  },
  {
    "dt": "2023.08.08 08:00",
    "o": 0.87351,
    "h": 0.87382,
    "l": 0.87278,
    "c": 0.87279,
    "v": 1402
  },
  {
    "dt": "2023.08.08 09:00",
    "o": 0.87276,
    "h": 0.87336,
    "l": 0.87192,
    "c": 0.87334,
    "v": 2233
  },
  {
    "dt": "2023.08.08 10:00",
    "o": 0.87336,
    "h": 0.87547,
    "l": 0.8731,
    "c": 0.87476,
    "v": 2589
  },
  {
    "dt": "2023.08.08 11:00",
    "o": 0.8747,
    "h": 0.87494,
    "l": 0.87329,
    "c": 0.87368,
    "v": 2098
  },
  {
    "dt": "2023.08.08 12:00",
    "o": 0.87365,
    "h": 0.87541,
    "l": 0.87354,
    "c": 0.87517,
    "v": 2147
  },
  {
    "dt": "2023.08.08 13:00",
    "o": 0.87515,
    "h": 0.87677,
    "l": 0.87501,
    "c": 0.87649,
    "v": 2160
  },
  {
    "dt": "2023.08.08 14:00",
    "o": 0.87648,
    "h": 0.87775,
    "l": 0.87611,
    "c": 0.87727,
    "v": 2332
  },
  {
    "dt": "2023.08.08 15:00",
    "o": 0.87726,
    "h": 0.87758,
    "l": 0.87616,
    "c": 0.87749,
    "v": 2620
  },
  {
    "dt": "2023.08.08 16:00",
    "o": 0.87748,
    "h": 0.87783,
    "l": 0.87633,
    "c": 0.87663,
    "v": 2879
  },
  {
    "dt": "2023.08.08 17:00",
    "o": 0.87668,
    "h": 0.8782,
    "l": 0.87534,
    "c": 0.87563,
    "v": 2587
  },
  {
    "dt": "2023.08.08 18:00",
    "o": 0.87561,
    "h": 0.87635,
    "l": 0.87552,
    "c": 0.8757,
    "v": 1732
  },
  {
    "dt": "2023.08.08 19:00",
    "o": 0.8757,
    "h": 0.87578,
    "l": 0.87494,
    "c": 0.8757,
    "v": 981
  },
  {
    "dt": "2023.08.08 20:00",
    "o": 0.8757,
    "h": 0.87586,
    "l": 0.87513,
    "c": 0.87568,
    "v": 1108
  },
  {
    "dt": "2023.08.08 21:00",
    "o": 0.87568,
    "h": 0.87621,
    "l": 0.87539,
    "c": 0.87549,
    "v": 1341
  },
  {
    "dt": "2023.08.08 22:00",
    "o": 0.87552,
    "h": 0.87559,
    "l": 0.87507,
    "c": 0.87546,
    "v": 508
  },
  {
    "dt": "2023.08.08 23:00",
    "o": 0.87543,
    "h": 0.87583,
    "l": 0.87534,
    "c": 0.87551,
    "v": 356
  },
  {
    "dt": "2023.08.09 00:00",
    "o": 0.87575,
    "h": 0.87591,
    "l": 0.87477,
    "c": 0.87507,
    "v": 605
  },
  {
    "dt": "2023.08.09 01:00",
    "o": 0.8753,
    "h": 0.87609,
    "l": 0.8753,
    "c": 0.87607,
    "v": 964
  },
  {
    "dt": "2023.08.09 02:00",
    "o": 0.87607,
    "h": 0.87609,
    "l": 0.87547,
    "c": 0.87553,
    "v": 401
  },
  {
    "dt": "2023.08.09 03:00",
    "o": 0.87555,
    "h": 0.87557,
    "l": 0.87471,
    "c": 0.87523,
    "v": 965
  },
  {
    "dt": "2023.08.09 04:00",
    "o": 0.87524,
    "h": 0.87534,
    "l": 0.87444,
    "c": 0.87512,
    "v": 1385
  },
  {
    "dt": "2023.08.09 05:00",
    "o": 0.87511,
    "h": 0.87527,
    "l": 0.87444,
    "c": 0.8746,
    "v": 1041
  },
  {
    "dt": "2023.08.09 06:00",
    "o": 0.87459,
    "h": 0.87483,
    "l": 0.87419,
    "c": 0.87462,
    "v": 1074
  },
  {
    "dt": "2023.08.09 07:00",
    "o": 0.87465,
    "h": 0.87488,
    "l": 0.87435,
    "c": 0.87454,
    "v": 709
  },
  {
    "dt": "2023.08.09 08:00",
    "o": 0.8745,
    "h": 0.8745,
    "l": 0.87359,
    "c": 0.87382,
    "v": 1301
  },
  {
    "dt": "2023.08.09 09:00",
    "o": 0.87377,
    "h": 0.87404,
    "l": 0.87315,
    "c": 0.8739,
    "v": 1939
  },
  {
    "dt": "2023.08.09 10:00",
    "o": 0.87388,
    "h": 0.87427,
    "l": 0.87326,
    "c": 0.87344,
    "v": 2069
  },
  {
    "dt": "2023.08.09 11:00",
    "o": 0.87344,
    "h": 0.87508,
    "l": 0.87307,
    "c": 0.8747,
    "v": 2055
  },
  {
    "dt": "2023.08.09 12:00",
    "o": 0.8747,
    "h": 0.87592,
    "l": 0.87455,
    "c": 0.8758,
    "v": 1701
  },
  {
    "dt": "2023.08.09 13:00",
    "o": 0.87582,
    "h": 0.8768,
    "l": 0.87556,
    "c": 0.87674,
    "v": 1320
  },
  {
    "dt": "2023.08.09 14:00",
    "o": 0.87679,
    "h": 0.87732,
    "l": 0.87649,
    "c": 0.87728,
    "v": 1763
  },
  {
    "dt": "2023.08.09 15:00",
    "o": 0.87728,
    "h": 0.87819,
    "l": 0.87641,
    "c": 0.87643,
    "v": 2187
  },
  {
    "dt": "2023.08.09 16:00",
    "o": 0.87643,
    "h": 0.87648,
    "l": 0.8756,
    "c": 0.87624,
    "v": 2345
  },
  {
    "dt": "2023.08.09 17:00",
    "o": 0.87626,
    "h": 0.87685,
    "l": 0.87494,
    "c": 0.87678,
    "v": 2566
  },
  {
    "dt": "2023.08.09 18:00",
    "o": 0.87679,
    "h": 0.8773,
    "l": 0.8764,
    "c": 0.87697,
    "v": 2061
  },
  {
    "dt": "2023.08.09 19:00",
    "o": 0.87698,
    "h": 0.87712,
    "l": 0.87607,
    "c": 0.87675,
    "v": 1443
  },
  {
    "dt": "2023.08.09 20:00",
    "o": 0.87674,
    "h": 0.8769,
    "l": 0.87569,
    "c": 0.87676,
    "v": 1498
  },
  {
    "dt": "2023.08.09 21:00",
    "o": 0.87678,
    "h": 0.87744,
    "l": 0.87677,
    "c": 0.87723,
    "v": 1078
  },
  {
    "dt": "2023.08.09 22:00",
    "o": 0.87724,
    "h": 0.87741,
    "l": 0.87688,
    "c": 0.87727,
    "v": 1087
  },
  {
    "dt": "2023.08.09 23:00",
    "o": 0.87727,
    "h": 0.87733,
    "l": 0.87689,
    "c": 0.87712,
    "v": 420
  },
  {
    "dt": "2023.08.10 00:00",
    "o": 0.87593,
    "h": 0.87706,
    "l": 0.87593,
    "c": 0.87674,
    "v": 394
  },
  {
    "dt": "2023.08.10 01:00",
    "o": 0.87696,
    "h": 0.87701,
    "l": 0.87666,
    "c": 0.87687,
    "v": 599
  },
  {
    "dt": "2023.08.10 02:00",
    "o": 0.87688,
    "h": 0.87704,
    "l": 0.87687,
    "c": 0.87692,
    "v": 401
  },
  {
    "dt": "2023.08.10 03:00",
    "o": 0.87691,
    "h": 0.87738,
    "l": 0.87681,
    "c": 0.87703,
    "v": 788
  },
  {
    "dt": "2023.08.10 04:00",
    "o": 0.87704,
    "h": 0.87759,
    "l": 0.87666,
    "c": 0.87704,
    "v": 1010
  },
  {
    "dt": "2023.08.10 05:00",
    "o": 0.87706,
    "h": 0.87716,
    "l": 0.87641,
    "c": 0.87672,
    "v": 690
  },
  {
    "dt": "2023.08.10 06:00",
    "o": 0.87673,
    "h": 0.87692,
    "l": 0.87668,
    "c": 0.87681,
    "v": 403
  },
  {
    "dt": "2023.08.10 07:00",
    "o": 0.87682,
    "h": 0.8769,
    "l": 0.8762,
    "c": 0.8769,
    "v": 710
  },
  {
    "dt": "2023.08.10 08:00",
    "o": 0.8769,
    "h": 0.87705,
    "l": 0.87645,
    "c": 0.87654,
    "v": 1165
  },
  {
    "dt": "2023.08.10 09:00",
    "o": 0.87657,
    "h": 0.87661,
    "l": 0.87576,
    "c": 0.87622,
    "v": 1673
  },
  {
    "dt": "2023.08.10 10:00",
    "o": 0.87626,
    "h": 0.87633,
    "l": 0.87377,
    "c": 0.87391,
    "v": 2380
  },
  {
    "dt": "2023.08.10 11:00",
    "o": 0.8739,
    "h": 0.87396,
    "l": 0.87219,
    "c": 0.8732,
    "v": 2177
  },
  {
    "dt": "2023.08.10 12:00",
    "o": 0.87321,
    "h": 0.87382,
    "l": 0.87314,
    "c": 0.87353,
    "v": 1606
  },
  {
    "dt": "2023.08.10 13:00",
    "o": 0.87352,
    "h": 0.87363,
    "l": 0.87288,
    "c": 0.87302,
    "v": 1707
  },
  {
    "dt": "2023.08.10 14:00",
    "o": 0.87302,
    "h": 0.8733,
    "l": 0.87282,
    "c": 0.87293,
    "v": 1531
  },
  {
    "dt": "2023.08.10 15:00",
    "o": 0.87293,
    "h": 0.87378,
    "l": 0.86892,
    "c": 0.87184,
    "v": 3548
  },
  {
    "dt": "2023.08.10 16:00",
    "o": 0.87177,
    "h": 0.87515,
    "l": 0.87153,
    "c": 0.87251,
    "v": 3965
  },
  {
    "dt": "2023.08.10 17:00",
    "o": 0.87254,
    "h": 0.87435,
    "l": 0.87172,
    "c": 0.87349,
    "v": 3451
  },
  {
    "dt": "2023.08.10 18:00",
    "o": 0.8735,
    "h": 0.87424,
    "l": 0.87311,
    "c": 0.87357,
    "v": 2535
  },
  {
    "dt": "2023.08.10 19:00",
    "o": 0.87358,
    "h": 0.87399,
    "l": 0.87319,
    "c": 0.87379,
    "v": 1990
  },
  {
    "dt": "2023.08.10 20:00",
    "o": 0.8738,
    "h": 0.87717,
    "l": 0.87372,
    "c": 0.87657,
    "v": 2449
  },
  {
    "dt": "2023.08.10 21:00",
    "o": 0.87661,
    "h": 0.87671,
    "l": 0.87544,
    "c": 0.87566,
    "v": 2191
  },
  {
    "dt": "2023.08.10 22:00",
    "o": 0.8757,
    "h": 0.87676,
    "l": 0.87561,
    "c": 0.87674,
    "v": 1600
  },
  {
    "dt": "2023.08.10 23:00",
    "o": 0.87673,
    "h": 0.8768,
    "l": 0.87661,
    "c": 0.87672,
    "v": 491
  },
  {
    "dt": "2023.08.11 00:00",
    "o": 0.87533,
    "h": 0.87649,
    "l": 0.87533,
    "c": 0.8763,
    "v": 971
  },
  {
    "dt": "2023.08.11 01:00",
    "o": 0.87641,
    "h": 0.87668,
    "l": 0.87641,
    "c": 0.87666,
    "v": 256
  },
  {
    "dt": "2023.08.11 02:00",
    "o": 0.87664,
    "h": 0.87681,
    "l": 0.87655,
    "c": 0.8768,
    "v": 302
  },
  {
    "dt": "2023.08.11 03:00",
    "o": 0.87681,
    "h": 0.87705,
    "l": 0.87626,
    "c": 0.87636,
    "v": 1036
  },
  {
    "dt": "2023.08.11 04:00",
    "o": 0.87634,
    "h": 0.87646,
    "l": 0.87566,
    "c": 0.87594,
    "v": 1536
  },
  {
    "dt": "2023.08.11 05:00",
    "o": 0.87596,
    "h": 0.87636,
    "l": 0.87587,
    "c": 0.87605,
    "v": 1191
  },
  {
    "dt": "2023.08.11 06:00",
    "o": 0.87607,
    "h": 0.87615,
    "l": 0.87573,
    "c": 0.87595,
    "v": 903
  },
  {
    "dt": "2023.08.11 07:00",
    "o": 0.87595,
    "h": 0.87641,
    "l": 0.87581,
    "c": 0.87631,
    "v": 1102
  },
  {
    "dt": "2023.08.11 08:00",
    "o": 0.87631,
    "h": 0.87651,
    "l": 0.87589,
    "c": 0.87627,
    "v": 1576
  },
  {
    "dt": "2023.08.11 09:00",
    "o": 0.8763,
    "h": 0.87736,
    "l": 0.8758,
    "c": 0.87714,
    "v": 1967
  },
  {
    "dt": "2023.08.11 10:00",
    "o": 0.87716,
    "h": 0.87728,
    "l": 0.87603,
    "c": 0.87666,
    "v": 2326
  },
  {
    "dt": "2023.08.11 11:00",
    "o": 0.87666,
    "h": 0.87757,
    "l": 0.87643,
    "c": 0.87648,
    "v": 1988
  },
  {
    "dt": "2023.08.11 12:00",
    "o": 0.87647,
    "h": 0.87736,
    "l": 0.87607,
    "c": 0.87688,
    "v": 1917
  },
  {
    "dt": "2023.08.11 13:00",
    "o": 0.87689,
    "h": 0.87709,
    "l": 0.87537,
    "c": 0.87571,
    "v": 1664
  },
  {
    "dt": "2023.08.11 14:00",
    "o": 0.87573,
    "h": 0.87575,
    "l": 0.8743,
    "c": 0.87459,
    "v": 1905
  },
  {
    "dt": "2023.08.11 15:00",
    "o": 0.87458,
    "h": 0.87706,
    "l": 0.8733,
    "c": 0.87657,
    "v": 3009
  },
  {
    "dt": "2023.08.11 16:00",
    "o": 0.87659,
    "h": 0.87797,
    "l": 0.87566,
    "c": 0.87681,
    "v": 3222
  },
  {
    "dt": "2023.08.11 17:00",
    "o": 0.87567,
    "h": 0.87734,
    "l": 0.87489,
    "c": 0.8755,
    "v": 3258
  },
  {
    "dt": "2023.08.11 18:00",
    "o": 0.87553,
    "h": 0.87695,
    "l": 0.8752,
    "c": 0.87645,
    "v": 1963
  },
  {
    "dt": "2023.08.11 19:00",
    "o": 0.87645,
    "h": 0.8773,
    "l": 0.87606,
    "c": 0.87724,
    "v": 1685
  },
  {
    "dt": "2023.08.11 20:00",
    "o": 0.87722,
    "h": 0.87737,
    "l": 0.87625,
    "c": 0.87702,
    "v": 1194
  },
  {
    "dt": "2023.08.11 21:00",
    "o": 0.87702,
    "h": 0.8772,
    "l": 0.87582,
    "c": 0.87603,
    "v": 1267
  },
  {
    "dt": "2023.08.11 22:00",
    "o": 0.87602,
    "h": 0.87686,
    "l": 0.87602,
    "c": 0.87642,
    "v": 1044
  },
  {
    "dt": "2023.08.11 23:00",
    "o": 0.87633,
    "h": 0.87678,
    "l": 0.87602,
    "c": 0.87619,
    "v": 687
  },
  {
    "dt": "2023.08.14 00:00",
    "o": 0.87603,
    "h": 0.87648,
    "l": 0.87493,
    "c": 0.8761,
    "v": 261
  },
  {
    "dt": "2023.08.14 01:00",
    "o": 0.8762,
    "h": 0.87699,
    "l": 0.87586,
    "c": 0.87678,
    "v": 657
  },
  {
    "dt": "2023.08.14 02:00",
    "o": 0.87679,
    "h": 0.87694,
    "l": 0.87638,
    "c": 0.87664,
    "v": 404
  },
  {
    "dt": "2023.08.14 03:00",
    "o": 0.87668,
    "h": 0.87763,
    "l": 0.87641,
    "c": 0.87741,
    "v": 1033
  },
  {
    "dt": "2023.08.14 04:00",
    "o": 0.87742,
    "h": 0.8777,
    "l": 0.87695,
    "c": 0.87746,
    "v": 1633
  },
  {
    "dt": "2023.08.14 05:00",
    "o": 0.87745,
    "h": 0.87784,
    "l": 0.87733,
    "c": 0.87781,
    "v": 1560
  },
  {
    "dt": "2023.08.14 06:00",
    "o": 0.87781,
    "h": 0.87781,
    "l": 0.87732,
    "c": 0.87736,
    "v": 1120
  },
  {
    "dt": "2023.08.14 07:00",
    "o": 0.87739,
    "h": 0.87739,
    "l": 0.87699,
    "c": 0.87728,
    "v": 1003
  },
  {
    "dt": "2023.08.14 08:00",
    "o": 0.87724,
    "h": 0.87745,
    "l": 0.87662,
    "c": 0.87685,
    "v": 977
  },
  {
    "dt": "2023.08.14 09:00",
    "o": 0.8768,
    "h": 0.87762,
    "l": 0.87651,
    "c": 0.87672,
    "v": 1885
  },
  {
    "dt": "2023.08.14 10:00",
    "o": 0.8767,
    "h": 0.87697,
    "l": 0.87543,
    "c": 0.87589,
    "v": 2384
  },
  {
    "dt": "2023.08.14 11:00",
    "o": 0.87591,
    "h": 0.87686,
    "l": 0.8755,
    "c": 0.87681,
    "v": 2389
  },
  {
    "dt": "2023.08.14 12:00",
    "o": 0.87683,
    "h": 0.87735,
    "l": 0.8761,
    "c": 0.87675,
    "v": 2043
  },
  {
    "dt": "2023.08.14 13:00",
    "o": 0.87674,
    "h": 0.87719,
    "l": 0.87618,
    "c": 0.87678,
    "v": 2148
  },
  {
    "dt": "2023.08.14 14:00",
    "o": 0.87679,
    "h": 0.87799,
    "l": 0.87663,
    "c": 0.87799,
    "v": 1759
  },
  {
    "dt": "2023.08.14 15:00",
    "o": 0.87801,
    "h": 0.88098,
    "l": 0.87793,
    "c": 0.88058,
    "v": 2607
  },
  {
    "dt": "2023.08.14 16:00",
    "o": 0.88059,
    "h": 0.88265,
    "l": 0.88021,
    "c": 0.88177,
    "v": 2802
  },
  {
    "dt": "2023.08.14 17:00",
    "o": 0.88177,
    "h": 0.88177,
    "l": 0.87775,
    "c": 0.87921,
    "v": 3049
  },
  {
    "dt": "2023.08.14 18:00",
    "o": 0.87922,
    "h": 0.87929,
    "l": 0.87706,
    "c": 0.87749,
    "v": 2259
  },
  {
    "dt": "2023.08.14 19:00",
    "o": 0.87749,
    "h": 0.87749,
    "l": 0.87616,
    "c": 0.8769,
    "v": 1843
  },
  {
    "dt": "2023.08.14 20:00",
    "o": 0.87688,
    "h": 0.87791,
    "l": 0.87652,
    "c": 0.87791,
    "v": 1430
  },
  {
    "dt": "2023.08.14 21:00",
    "o": 0.87791,
    "h": 0.879,
    "l": 0.87754,
    "c": 0.87889,
    "v": 1009
  },
  {
    "dt": "2023.08.14 22:00",
    "o": 0.87889,
    "h": 0.87898,
    "l": 0.87784,
    "c": 0.87835,
    "v": 890
  },
  {
    "dt": "2023.08.14 23:00",
    "o": 0.8783,
    "h": 0.87848,
    "l": 0.8779,
    "c": 0.87806,
    "v": 891
  },
  {
    "dt": "2023.08.15 00:00",
    "o": 0.8784,
    "h": 0.87848,
    "l": 0.87732,
    "c": 0.8781,
    "v": 772
  },
  {
    "dt": "2023.08.15 01:00",
    "o": 0.87809,
    "h": 0.87821,
    "l": 0.87791,
    "c": 0.87791,
    "v": 413
  },
  {
    "dt": "2023.08.15 02:00",
    "o": 0.87793,
    "h": 0.87831,
    "l": 0.87793,
    "c": 0.87798,
    "v": 305
  },
  {
    "dt": "2023.08.15 03:00",
    "o": 0.87797,
    "h": 0.87858,
    "l": 0.87787,
    "c": 0.87793,
    "v": 835
  },
  {
    "dt": "2023.08.15 04:00",
    "o": 0.87791,
    "h": 0.87836,
    "l": 0.87719,
    "c": 0.87774,
    "v": 1511
  },
  {
    "dt": "2023.08.15 05:00",
    "o": 0.87776,
    "h": 0.87798,
    "l": 0.87691,
    "c": 0.87734,
    "v": 1265
  },
  {
    "dt": "2023.08.15 06:00",
    "o": 0.87735,
    "h": 0.87735,
    "l": 0.87661,
    "c": 0.8768,
    "v": 770
  },
  {
    "dt": "2023.08.15 07:00",
    "o": 0.87682,
    "h": 0.87758,
    "l": 0.87682,
    "c": 0.87755,
    "v": 714
  },
  {
    "dt": "2023.08.15 08:00",
    "o": 0.87758,
    "h": 0.87824,
    "l": 0.87729,
    "c": 0.87754,
    "v": 1025
  },
  {
    "dt": "2023.08.15 09:00",
    "o": 0.87758,
    "h": 0.8782,
    "l": 0.87684,
    "c": 0.87719,
    "v": 2023
  },
  {
    "dt": "2023.08.15 10:00",
    "o": 0.87715,
    "h": 0.87786,
    "l": 0.87633,
    "c": 0.87726,
    "v": 2435
  },
  {
    "dt": "2023.08.15 11:00",
    "o": 0.87721,
    "h": 0.87743,
    "l": 0.87522,
    "c": 0.87581,
    "v": 2172
  },
  {
    "dt": "2023.08.15 12:00",
    "o": 0.87575,
    "h": 0.8763,
    "l": 0.87431,
    "c": 0.87486,
    "v": 2414
  },
  {
    "dt": "2023.08.15 13:00",
    "o": 0.87489,
    "h": 0.87626,
    "l": 0.8747,
    "c": 0.87588,
    "v": 2121
  },
  {
    "dt": "2023.08.15 14:00",
    "o": 0.87586,
    "h": 0.87722,
    "l": 0.87586,
    "c": 0.87713,
    "v": 1960
  },
  {
    "dt": "2023.08.15 15:00",
    "o": 0.87714,
    "h": 0.87955,
    "l": 0.87619,
    "c": 0.87691,
    "v": 3389
  },
  {
    "dt": "2023.08.15 16:00",
    "o": 0.87692,
    "h": 0.87777,
    "l": 0.87546,
    "c": 0.87651,
    "v": 3693
  },
  {
    "dt": "2023.08.15 17:00",
    "o": 0.87645,
    "h": 0.8777,
    "l": 0.87539,
    "c": 0.87576,
    "v": 3269
  },
  {
    "dt": "2023.08.15 18:00",
    "o": 0.87574,
    "h": 0.87745,
    "l": 0.87568,
    "c": 0.8769,
    "v": 2118
  },
  {
    "dt": "2023.08.15 19:00",
    "o": 0.87689,
    "h": 0.87828,
    "l": 0.87681,
    "c": 0.87823,
    "v": 1622
  },
  {
    "dt": "2023.08.15 20:00",
    "o": 0.87826,
    "h": 0.8783,
    "l": 0.87713,
    "c": 0.87735,
    "v": 1560
  },
  {
    "dt": "2023.08.15 21:00",
    "o": 0.87738,
    "h": 0.87866,
    "l": 0.87736,
    "c": 0.87866,
    "v": 1072
  },
  {
    "dt": "2023.08.15 22:00",
    "o": 0.87866,
    "h": 0.8788,
    "l": 0.87841,
    "c": 0.87852,
    "v": 826
  },
  {
    "dt": "2023.08.15 23:00",
    "o": 0.8785,
    "h": 0.87856,
    "l": 0.87825,
    "c": 0.87837,
    "v": 520
  },
  {
    "dt": "2023.08.16 00:00",
    "o": 0.87754,
    "h": 0.87843,
    "l": 0.87754,
    "c": 0.87794,
    "v": 1244
  },
  {
    "dt": "2023.08.16 01:00",
    "o": 0.87797,
    "h": 0.87872,
    "l": 0.87797,
    "c": 0.87871,
    "v": 451
  },
  {
    "dt": "2023.08.16 02:00",
    "o": 0.87871,
    "h": 0.87881,
    "l": 0.8785,
    "c": 0.87859,
    "v": 344
  },
  {
    "dt": "2023.08.16 03:00",
    "o": 0.87859,
    "h": 0.87901,
    "l": 0.87846,
    "c": 0.87884,
    "v": 817
  },
  {
    "dt": "2023.08.16 04:00",
    "o": 0.87882,
    "h": 0.87906,
    "l": 0.87804,
    "c": 0.87845,
    "v": 1245
  },
  {
    "dt": "2023.08.16 05:00",
    "o": 0.87846,
    "h": 0.87852,
    "l": 0.8778,
    "c": 0.87852,
    "v": 972
  },
  {
    "dt": "2023.08.16 06:00",
    "o": 0.8785,
    "h": 0.8786,
    "l": 0.87799,
    "c": 0.87841,
    "v": 762
  },
  {
    "dt": "2023.08.16 07:00",
    "o": 0.8784,
    "h": 0.8785,
    "l": 0.87802,
    "c": 0.87807,
    "v": 641
  },
  {
    "dt": "2023.08.16 08:00",
    "o": 0.87806,
    "h": 0.87824,
    "l": 0.87769,
    "c": 0.87792,
    "v": 1096
  },
  {
    "dt": "2023.08.16 09:00",
    "o": 0.87794,
    "h": 0.87895,
    "l": 0.87733,
    "c": 0.87783,
    "v": 2222
  },
  {
    "dt": "2023.08.16 10:00",
    "o": 0.87783,
    "h": 0.87892,
    "l": 0.87751,
    "c": 0.87831,
    "v": 2207
  },
  {
    "dt": "2023.08.16 11:00",
    "o": 0.87835,
    "h": 0.87869,
    "l": 0.87766,
    "c": 0.87787,
    "v": 2062
  },
  {
    "dt": "2023.08.16 12:00",
    "o": 0.87788,
    "h": 0.87864,
    "l": 0.87779,
    "c": 0.87839,
    "v": 2206
  },
  {
    "dt": "2023.08.16 13:00",
    "o": 0.87839,
    "h": 0.87925,
    "l": 0.87811,
    "c": 0.87909,
    "v": 1732
  },
  {
    "dt": "2023.08.16 14:00",
    "o": 0.87915,
    "h": 0.88032,
    "l": 0.87906,
    "c": 0.88005,
    "v": 1734
  },
  {
    "dt": "2023.08.16 15:00",
    "o": 0.88006,
    "h": 0.8812,
    "l": 0.87957,
    "c": 0.88114,
    "v": 2247
  },
  {
    "dt": "2023.08.16 16:00",
    "o": 0.88116,
    "h": 0.88132,
    "l": 0.87803,
    "c": 0.88003,
    "v": 3448
  },
  {
    "dt": "2023.08.16 17:00",
    "o": 0.88006,
    "h": 0.8802,
    "l": 0.87849,
    "c": 0.87893,
    "v": 2971
  },
  {
    "dt": "2023.08.16 18:00",
    "o": 0.87891,
    "h": 0.87907,
    "l": 0.87826,
    "c": 0.87857,
    "v": 2148
  },
  {
    "dt": "2023.08.16 19:00",
    "o": 0.8786,
    "h": 0.87928,
    "l": 0.87854,
    "c": 0.87927,
    "v": 1436
  },
  {
    "dt": "2023.08.16 20:00",
    "o": 0.87926,
    "h": 0.87945,
    "l": 0.87841,
    "c": 0.87868,
    "v": 1392
  },
  {
    "dt": "2023.08.16 21:00",
    "o": 0.87865,
    "h": 0.88005,
    "l": 0.87791,
    "c": 0.87956,
    "v": 2607
  },
  {
    "dt": "2023.08.16 22:00",
    "o": 0.87956,
    "h": 0.88058,
    "l": 0.87954,
    "c": 0.88022,
    "v": 1518
  },
  {
    "dt": "2023.08.16 23:00",
    "o": 0.88019,
    "h": 0.88024,
    "l": 0.87978,
    "c": 0.8799,
    "v": 530
  },
  {
    "dt": "2023.08.17 00:00",
    "o": 0.87967,
    "h": 0.87998,
    "l": 0.87935,
    "c": 0.87946,
    "v": 1379
  },
  {
    "dt": "2023.08.17 01:00",
    "o": 0.87965,
    "h": 0.87985,
    "l": 0.87945,
    "c": 0.87984,
    "v": 807
  },
  {
    "dt": "2023.08.17 02:00",
    "o": 0.87985,
    "h": 0.88015,
    "l": 0.87975,
    "c": 0.88006,
    "v": 707
  },
  {
    "dt": "2023.08.17 03:00",
    "o": 0.88009,
    "h": 0.88066,
    "l": 0.88005,
    "c": 0.88043,
    "v": 1298
  },
  {
    "dt": "2023.08.17 04:00",
    "o": 0.88041,
    "h": 0.88085,
    "l": 0.8802,
    "c": 0.88044,
    "v": 1853
  },
  {
    "dt": "2023.08.17 05:00",
    "o": 0.88043,
    "h": 0.88051,
    "l": 0.87991,
    "c": 0.88034,
    "v": 1186
  },
  {
    "dt": "2023.08.17 06:00",
    "o": 0.88035,
    "h": 0.88053,
    "l": 0.88003,
    "c": 0.88052,
    "v": 969
  },
  {
    "dt": "2023.08.17 07:00",
    "o": 0.88052,
    "h": 0.88058,
    "l": 0.88014,
    "c": 0.88021,
    "v": 875
  },
  {
    "dt": "2023.08.17 08:00",
    "o": 0.88021,
    "h": 0.88085,
    "l": 0.87961,
    "c": 0.87961,
    "v": 1166
  },
  {
    "dt": "2023.08.17 09:00",
    "o": 0.87965,
    "h": 0.88041,
    "l": 0.87948,
    "c": 0.87953,
    "v": 2001
  },
  {
    "dt": "2023.08.17 10:00",
    "o": 0.87955,
    "h": 0.8801,
    "l": 0.87929,
    "c": 0.87961,
    "v": 2420
  },
  {
    "dt": "2023.08.17 11:00",
    "o": 0.87962,
    "h": 0.87983,
    "l": 0.8791,
    "c": 0.87923,
    "v": 1852
  },
  {
    "dt": "2023.08.17 12:00",
    "o": 0.87925,
    "h": 0.87974,
    "l": 0.87883,
    "c": 0.87912,
    "v": 2359
  },
  {
    "dt": "2023.08.17 13:00",
    "o": 0.87914,
    "h": 0.87915,
    "l": 0.8783,
    "c": 0.87869,
    "v": 2189
  },
  {
    "dt": "2023.08.17 14:00",
    "o": 0.87868,
    "h": 0.87871,
    "l": 0.87704,
    "c": 0.87713,
    "v": 2253
  },
  {
    "dt": "2023.08.17 15:00",
    "o": 0.87713,
    "h": 0.8779,
    "l": 0.87595,
    "c": 0.8769,
    "v": 3253
  },
  {
    "dt": "2023.08.17 16:00",
    "o": 0.87691,
    "h": 0.87773,
    "l": 0.87601,
    "c": 0.87752,
    "v": 3325
  },
  {
    "dt": "2023.08.17 17:00",
    "o": 0.8776,
    "h": 0.87859,
    "l": 0.8775,
    "c": 0.87824,
    "v": 2928
  },
  {
    "dt": "2023.08.17 18:00",
    "o": 0.87822,
    "h": 0.87954,
    "l": 0.87788,
    "c": 0.87914,
    "v": 2248
  },
  {
    "dt": "2023.08.17 19:00",
    "o": 0.87909,
    "h": 0.87973,
    "l": 0.87829,
    "c": 0.87904,
    "v": 1955
  },
  {
    "dt": "2023.08.17 20:00",
    "o": 0.87903,
    "h": 0.88027,
    "l": 0.87897,
    "c": 0.8797,
    "v": 1806
  },
  {
    "dt": "2023.08.17 21:00",
    "o": 0.87968,
    "h": 0.87999,
    "l": 0.87949,
    "c": 0.87993,
    "v": 1420
  },
  {
    "dt": "2023.08.17 22:00",
    "o": 0.87992,
    "h": 0.87992,
    "l": 0.8781,
    "c": 0.87815,
    "v": 1904
  },
  {
    "dt": "2023.08.17 23:00",
    "o": 0.87813,
    "h": 0.87849,
    "l": 0.87808,
    "c": 0.87833,
    "v": 562
  },
  {
    "dt": "2023.08.18 00:00",
    "o": 0.87817,
    "h": 0.87838,
    "l": 0.87632,
    "c": 0.87795,
    "v": 679
  },
  {
    "dt": "2023.08.18 01:00",
    "o": 0.87801,
    "h": 0.87817,
    "l": 0.87782,
    "c": 0.87811,
    "v": 928
  },
  {
    "dt": "2023.08.18 02:00",
    "o": 0.87808,
    "h": 0.87826,
    "l": 0.87794,
    "c": 0.87825,
    "v": 447
  },
  {
    "dt": "2023.08.18 03:00",
    "o": 0.87822,
    "h": 0.87882,
    "l": 0.8776,
    "c": 0.87781,
    "v": 893
  },
  {
    "dt": "2023.08.18 04:00",
    "o": 0.8778,
    "h": 0.87816,
    "l": 0.87733,
    "c": 0.87777,
    "v": 1062
  },
  {
    "dt": "2023.08.18 05:00",
    "o": 0.8778,
    "h": 0.87786,
    "l": 0.87729,
    "c": 0.87761,
    "v": 917
  },
  {
    "dt": "2023.08.18 06:00",
    "o": 0.87764,
    "h": 0.87826,
    "l": 0.87764,
    "c": 0.8779,
    "v": 738
  },
  {
    "dt": "2023.08.18 07:00",
    "o": 0.87785,
    "h": 0.87858,
    "l": 0.8776,
    "c": 0.87858,
    "v": 731
  },
  {
    "dt": "2023.08.18 08:00",
    "o": 0.87857,
    "h": 0.87937,
    "l": 0.87847,
    "c": 0.87859,
    "v": 1095
  },
  {
    "dt": "2023.08.18 09:00",
    "o": 0.87851,
    "h": 0.87963,
    "l": 0.8779,
    "c": 0.8793,
    "v": 1940
  },
  {
    "dt": "2023.08.18 10:00",
    "o": 0.87933,
    "h": 0.88037,
    "l": 0.87923,
    "c": 0.8797,
    "v": 2362
  },
  {
    "dt": "2023.08.18 11:00",
    "o": 0.87971,
    "h": 0.88054,
    "l": 0.87914,
    "c": 0.88031,
    "v": 2080
  },
  {
    "dt": "2023.08.18 12:00",
    "o": 0.88031,
    "h": 0.88066,
    "l": 0.87989,
    "c": 0.88017,
    "v": 2169
  },
  {
    "dt": "2023.08.18 13:00",
    "o": 0.88014,
    "h": 0.88077,
    "l": 0.87932,
    "c": 0.88072,
    "v": 1524
  },
  {
    "dt": "2023.08.18 14:00",
    "o": 0.88072,
    "h": 0.8811,
    "l": 0.87987,
    "c": 0.88064,
    "v": 1701
  },
  {
    "dt": "2023.08.18 15:00",
    "o": 0.88064,
    "h": 0.88242,
    "l": 0.88055,
    "c": 0.88134,
    "v": 2422
  },
  {
    "dt": "2023.08.18 16:00",
    "o": 0.88135,
    "h": 0.88174,
    "l": 0.87917,
    "c": 0.8799,
    "v": 3108
  },
  {
    "dt": "2023.08.18 17:00",
    "o": 0.87992,
    "h": 0.88129,
    "l": 0.87967,
    "c": 0.88128,
    "v": 2351
  },
  {
    "dt": "2023.08.18 18:00",
    "o": 0.8813,
    "h": 0.8818,
    "l": 0.88082,
    "c": 0.88163,
    "v": 1984
  },
  {
    "dt": "2023.08.18 19:00",
    "o": 0.88167,
    "h": 0.88188,
    "l": 0.88142,
    "c": 0.88165,
    "v": 1323
  },
  {
    "dt": "2023.08.18 20:00",
    "o": 0.88166,
    "h": 0.8818,
    "l": 0.88091,
    "c": 0.88126,
    "v": 1220
  },
  {
    "dt": "2023.08.18 21:00",
    "o": 0.88126,
    "h": 0.88199,
    "l": 0.88112,
    "c": 0.88193,
    "v": 828
  },
  {
    "dt": "2023.08.18 22:00",
    "o": 0.88194,
    "h": 0.88231,
    "l": 0.88165,
    "c": 0.88215,
    "v": 1207
  },
  {
    "dt": "2023.08.18 23:00",
    "o": 0.88214,
    "h": 0.88268,
    "l": 0.88185,
    "c": 0.88218,
    "v": 749
  },
  {
    "dt": "2023.08.21 00:00",
    "o": 0.8813,
    "h": 0.88166,
    "l": 0.88118,
    "c": 0.88153,
    "v": 266
  },
  {
    "dt": "2023.08.21 01:00",
    "o": 0.88157,
    "h": 0.88217,
    "l": 0.88151,
    "c": 0.88196,
    "v": 682
  },
  {
    "dt": "2023.08.21 02:00",
    "o": 0.88212,
    "h": 0.88249,
    "l": 0.88211,
    "c": 0.8823,
    "v": 322
  },
  {
    "dt": "2023.08.21 03:00",
    "o": 0.88228,
    "h": 0.88231,
    "l": 0.88123,
    "c": 0.88149,
    "v": 867
  },
  {
    "dt": "2023.08.21 04:00",
    "o": 0.88149,
    "h": 0.88253,
    "l": 0.88149,
    "c": 0.88245,
    "v": 1392
  },
  {
    "dt": "2023.08.21 05:00",
    "o": 0.8825,
    "h": 0.88273,
    "l": 0.8816,
    "c": 0.88171,
    "v": 869
  },
  {
    "dt": "2023.08.21 06:00",
    "o": 0.88173,
    "h": 0.88208,
    "l": 0.88171,
    "c": 0.88205,
    "v": 615
  },
  {
    "dt": "2023.08.21 07:00",
    "o": 0.88206,
    "h": 0.88227,
    "l": 0.88179,
    "c": 0.88203,
    "v": 714
  },
  {
    "dt": "2023.08.21 08:00",
    "o": 0.88201,
    "h": 0.88238,
    "l": 0.88168,
    "c": 0.88205,
    "v": 744
  },
  {
    "dt": "2023.08.21 09:00",
    "o": 0.88215,
    "h": 0.88238,
    "l": 0.88091,
    "c": 0.88091,
    "v": 1462
  },
  {
    "dt": "2023.08.21 10:00",
    "o": 0.88094,
    "h": 0.88125,
    "l": 0.8791,
    "c": 0.8791,
    "v": 2368
  },
  {
    "dt": "2023.08.21 11:00",
    "o": 0.87912,
    "h": 0.88041,
    "l": 0.87907,
    "c": 0.8802,
    "v": 2153
  },
  {
    "dt": "2023.08.21 12:00",
    "o": 0.88021,
    "h": 0.88028,
    "l": 0.87898,
    "c": 0.87935,
    "v": 2085
  },
  {
    "dt": "2023.08.21 13:00",
    "o": 0.87941,
    "h": 0.88033,
    "l": 0.87914,
    "c": 0.87995,
    "v": 1902
  },
  {
    "dt": "2023.08.21 14:00",
    "o": 0.87996,
    "h": 0.88046,
    "l": 0.87882,
    "c": 0.8791,
    "v": 1908
  },
  {
    "dt": "2023.08.21 15:00",
    "o": 0.87907,
    "h": 0.87992,
    "l": 0.87868,
    "c": 0.87918,
    "v": 2486
  },
  {
    "dt": "2023.08.21 16:00",
    "o": 0.87916,
    "h": 0.88104,
    "l": 0.87905,
    "c": 0.88042,
    "v": 3035
  },
  {
    "dt": "2023.08.21 17:00",
    "o": 0.88039,
    "h": 0.88135,
    "l": 0.88011,
    "c": 0.88052,
    "v": 2699
  },
  {
    "dt": "2023.08.21 18:00",
    "o": 0.88052,
    "h": 0.88068,
    "l": 0.87978,
    "c": 0.8799,
    "v": 1754
  },
  {
    "dt": "2023.08.21 19:00",
    "o": 0.8799,
    "h": 0.87993,
    "l": 0.87842,
    "c": 0.87852,
    "v": 1471
  },
  {
    "dt": "2023.08.21 20:00",
    "o": 0.87853,
    "h": 0.87888,
    "l": 0.87818,
    "c": 0.87869,
    "v": 1137
  },
  {
    "dt": "2023.08.21 21:00",
    "o": 0.87868,
    "h": 0.87879,
    "l": 0.87818,
    "c": 0.87836,
    "v": 1420
  },
  {
    "dt": "2023.08.21 22:00",
    "o": 0.87837,
    "h": 0.87842,
    "l": 0.87793,
    "c": 0.87822,
    "v": 826
  },
  {
    "dt": "2023.08.21 23:00",
    "o": 0.87822,
    "h": 0.87866,
    "l": 0.87818,
    "c": 0.8784,
    "v": 306
  },
  {
    "dt": "2023.08.22 00:00",
    "o": 0.87846,
    "h": 0.87856,
    "l": 0.87801,
    "c": 0.87815,
    "v": 938
  },
  {
    "dt": "2023.08.22 01:00",
    "o": 0.87842,
    "h": 0.87852,
    "l": 0.8783,
    "c": 0.87848,
    "v": 335
  },
  {
    "dt": "2023.08.22 02:00",
    "o": 0.87846,
    "h": 0.87849,
    "l": 0.87808,
    "c": 0.87847,
    "v": 268
  },
  {
    "dt": "2023.08.22 03:00",
    "o": 0.87848,
    "h": 0.87899,
    "l": 0.87818,
    "c": 0.87818,
    "v": 790
  },
  {
    "dt": "2023.08.22 04:00",
    "o": 0.8782,
    "h": 0.87825,
    "l": 0.87739,
    "c": 0.87772,
    "v": 1047
  },
  {
    "dt": "2023.08.22 05:00",
    "o": 0.87771,
    "h": 0.87772,
    "l": 0.87714,
    "c": 0.87771,
    "v": 914
  },
  {
    "dt": "2023.08.22 06:00",
    "o": 0.87771,
    "h": 0.87787,
    "l": 0.87711,
    "c": 0.87735,
    "v": 1136
  },
  {
    "dt": "2023.08.22 07:00",
    "o": 0.87736,
    "h": 0.87803,
    "l": 0.87729,
    "c": 0.87788,
    "v": 429
  },
  {
    "dt": "2023.08.22 08:00",
    "o": 0.8779,
    "h": 0.87819,
    "l": 0.87769,
    "c": 0.87808,
    "v": 936
  },
  {
    "dt": "2023.08.22 09:00",
    "o": 0.87798,
    "h": 0.87802,
    "l": 0.87691,
    "c": 0.8773,
    "v": 1763
  },
  {
    "dt": "2023.08.22 10:00",
    "o": 0.87732,
    "h": 0.87774,
    "l": 0.8769,
    "c": 0.87754,
    "v": 2139
  },
  {
    "dt": "2023.08.22 11:00",
    "o": 0.87753,
    "h": 0.87781,
    "l": 0.87663,
    "c": 0.87751,
    "v": 1848
  },
  {
    "dt": "2023.08.22 12:00",
    "o": 0.8775,
    "h": 0.87822,
    "l": 0.87648,
    "c": 0.87659,
    "v": 1852
  },
  {
    "dt": "2023.08.22 13:00",
    "o": 0.87659,
    "h": 0.8779,
    "l": 0.87642,
    "c": 0.87766,
    "v": 1917
  },
  {
    "dt": "2023.08.22 14:00",
    "o": 0.87767,
    "h": 0.87836,
    "l": 0.87755,
    "c": 0.87796,
    "v": 1918
  },
  {
    "dt": "2023.08.22 15:00",
    "o": 0.87795,
    "h": 0.87974,
    "l": 0.87779,
    "c": 0.87935,
    "v": 2773
  },
  {
    "dt": "2023.08.22 16:00",
    "o": 0.87935,
    "h": 0.88065,
    "l": 0.8789,
    "c": 0.88037,
    "v": 3115
  },
  {
    "dt": "2023.08.22 17:00",
    "o": 0.88035,
    "h": 0.88084,
    "l": 0.87944,
    "c": 0.88,
    "v": 3034
  },
  {
    "dt": "2023.08.22 18:00",
    "o": 0.87998,
    "h": 0.88048,
    "l": 0.87935,
    "c": 0.87996,
    "v": 2108
  },
  {
    "dt": "2023.08.22 19:00",
    "o": 0.87997,
    "h": 0.87998,
    "l": 0.87945,
    "c": 0.87963,
    "v": 1437
  },
  {
    "dt": "2023.08.22 20:00",
    "o": 0.87962,
    "h": 0.88001,
    "l": 0.87943,
    "c": 0.87995,
    "v": 1151
  },
  {
    "dt": "2023.08.22 21:00",
    "o": 0.87998,
    "h": 0.88014,
    "l": 0.87974,
    "c": 0.87995,
    "v": 838
  },
  {
    "dt": "2023.08.22 22:00",
    "o": 0.87993,
    "h": 0.88061,
    "l": 0.87988,
    "c": 0.88046,
    "v": 637
  },
  {
    "dt": "2023.08.22 23:00",
    "o": 0.88047,
    "h": 0.88048,
    "l": 0.88008,
    "c": 0.88033,
    "v": 385
  },
  {
    "dt": "2023.08.23 00:00",
    "o": 0.87934,
    "h": 0.8804,
    "l": 0.8792,
    "c": 0.87978,
    "v": 305
  },
  {
    "dt": "2023.08.23 01:00",
    "o": 0.88005,
    "h": 0.88041,
    "l": 0.87984,
    "c": 0.88,
    "v": 686
  },
  {
    "dt": "2023.08.23 02:00",
    "o": 0.88,
    "h": 0.88016,
    "l": 0.87998,
    "c": 0.88009,
    "v": 357
  },
  {
    "dt": "2023.08.23 03:00",
    "o": 0.88009,
    "h": 0.88048,
    "l": 0.87981,
    "c": 0.88039,
    "v": 965
  },
  {
    "dt": "2023.08.23 04:00",
    "o": 0.8804,
    "h": 0.88066,
    "l": 0.87968,
    "c": 0.87981,
    "v": 1207
  },
  {
    "dt": "2023.08.23 05:00",
    "o": 0.8798,
    "h": 0.88034,
    "l": 0.87951,
    "c": 0.88015,
    "v": 714
  },
  {
    "dt": "2023.08.23 06:00",
    "o": 0.88015,
    "h": 0.88037,
    "l": 0.87958,
    "c": 0.87971,
    "v": 546
  },
  {
    "dt": "2023.08.23 07:00",
    "o": 0.87973,
    "h": 0.88001,
    "l": 0.8795,
    "c": 0.87953,
    "v": 632
  },
  {
    "dt": "2023.08.23 08:00",
    "o": 0.87953,
    "h": 0.87974,
    "l": 0.87929,
    "c": 0.87944,
    "v": 1289
  },
  {
    "dt": "2023.08.23 09:00",
    "o": 0.87953,
    "h": 0.88034,
    "l": 0.87916,
    "c": 0.87931,
    "v": 1548
  },
  {
    "dt": "2023.08.23 10:00",
    "o": 0.87937,
    "h": 0.8814,
    "l": 0.8778,
    "c": 0.8803,
    "v": 2925
  },
  {
    "dt": "2023.08.23 11:00",
    "o": 0.88031,
    "h": 0.88096,
    "l": 0.87898,
    "c": 0.88031,
    "v": 2918
  },
  {
    "dt": "2023.08.23 12:00",
    "o": 0.88025,
    "h": 0.88112,
    "l": 0.87997,
    "c": 0.88089,
    "v": 2189
  },
  {
    "dt": "2023.08.23 13:00",
    "o": 0.88091,
    "h": 0.88138,
    "l": 0.88062,
    "c": 0.88128,
    "v": 1838
  },
  {
    "dt": "2023.08.23 14:00",
    "o": 0.88132,
    "h": 0.88163,
    "l": 0.8797,
    "c": 0.88103,
    "v": 2047
  },
  {
    "dt": "2023.08.23 15:00",
    "o": 0.88103,
    "h": 0.88136,
    "l": 0.88046,
    "c": 0.88115,
    "v": 2334
  },
  {
    "dt": "2023.08.23 16:00",
    "o": 0.88115,
    "h": 0.88118,
    "l": 0.87741,
    "c": 0.87818,
    "v": 3446
  },
  {
    "dt": "2023.08.23 17:00",
    "o": 0.87808,
    "h": 0.87942,
    "l": 0.8777,
    "c": 0.8793,
    "v": 3217
  },
  {
    "dt": "2023.08.23 18:00",
    "o": 0.87927,
    "h": 0.87942,
    "l": 0.87789,
    "c": 0.87846,
    "v": 2100
  },
  {
    "dt": "2023.08.23 19:00",
    "o": 0.87844,
    "h": 0.8789,
    "l": 0.87787,
    "c": 0.87828,
    "v": 1542
  },
  {
    "dt": "2023.08.23 20:00",
    "o": 0.8783,
    "h": 0.87842,
    "l": 0.87754,
    "c": 0.87808,
    "v": 1274
  },
  {
    "dt": "2023.08.23 21:00",
    "o": 0.87809,
    "h": 0.87896,
    "l": 0.87782,
    "c": 0.87792,
    "v": 1073
  },
  {
    "dt": "2023.08.23 22:00",
    "o": 0.87792,
    "h": 0.87799,
    "l": 0.87731,
    "c": 0.87766,
    "v": 1050
  },
  {
    "dt": "2023.08.23 23:00",
    "o": 0.87767,
    "h": 0.87819,
    "l": 0.87762,
    "c": 0.87777,
    "v": 1171
  },
  {
    "dt": "2023.08.24 00:00",
    "o": 0.87771,
    "h": 0.8779,
    "l": 0.87713,
    "c": 0.87756,
    "v": 827
  },
  {
    "dt": "2023.08.24 01:00",
    "o": 0.87765,
    "h": 0.87775,
    "l": 0.87743,
    "c": 0.87756,
    "v": 680
  },
  {
    "dt": "2023.08.24 02:00",
    "o": 0.87758,
    "h": 0.87772,
    "l": 0.8773,
    "c": 0.87737,
    "v": 440
  },
  {
    "dt": "2023.08.24 03:00",
    "o": 0.87735,
    "h": 0.8776,
    "l": 0.87662,
    "c": 0.87689,
    "v": 851
  },
  {
    "dt": "2023.08.24 04:00",
    "o": 0.87695,
    "h": 0.87779,
    "l": 0.87691,
    "c": 0.87756,
    "v": 889
  },
  {
    "dt": "2023.08.24 05:00",
    "o": 0.87757,
    "h": 0.87797,
    "l": 0.87712,
    "c": 0.87715,
    "v": 822
  },
  {
    "dt": "2023.08.24 06:00",
    "o": 0.87716,
    "h": 0.87718,
    "l": 0.87643,
    "c": 0.87714,
    "v": 890
  },
  {
    "dt": "2023.08.24 07:00",
    "o": 0.87712,
    "h": 0.87767,
    "l": 0.87689,
    "c": 0.87722,
    "v": 678
  },
  {
    "dt": "2023.08.24 08:00",
    "o": 0.8772,
    "h": 0.8772,
    "l": 0.87632,
    "c": 0.87644,
    "v": 915
  },
  {
    "dt": "2023.08.24 09:00",
    "o": 0.87639,
    "h": 0.8775,
    "l": 0.8759,
    "c": 0.87749,
    "v": 1948
  },
  {
    "dt": "2023.08.24 10:00",
    "o": 0.87751,
    "h": 0.87953,
    "l": 0.87741,
    "c": 0.87936,
    "v": 2602
  },
  {
    "dt": "2023.08.24 11:00",
    "o": 0.87934,
    "h": 0.87982,
    "l": 0.87871,
    "c": 0.87925,
    "v": 2288
  },
  {
    "dt": "2023.08.24 12:00",
    "o": 0.87922,
    "h": 0.88099,
    "l": 0.87892,
    "c": 0.88079,
    "v": 2369
  },
  {
    "dt": "2023.08.24 13:00",
    "o": 0.8808,
    "h": 0.88087,
    "l": 0.87974,
    "c": 0.87995,
    "v": 2067
  },
  {
    "dt": "2023.08.24 14:00",
    "o": 0.87996,
    "h": 0.88173,
    "l": 0.87981,
    "c": 0.88171,
    "v": 2216
  },
  {
    "dt": "2023.08.24 15:00",
    "o": 0.8817,
    "h": 0.8838,
    "l": 0.88168,
    "c": 0.88291,
    "v": 2811
  },
  {
    "dt": "2023.08.24 16:00",
    "o": 0.8829,
    "h": 0.8829,
    "l": 0.88063,
    "c": 0.88086,
    "v": 2894
  },
  {
    "dt": "2023.08.24 17:00",
    "o": 0.88085,
    "h": 0.88233,
    "l": 0.88063,
    "c": 0.88208,
    "v": 3039
  },
  {
    "dt": "2023.08.24 18:00",
    "o": 0.88209,
    "h": 0.88285,
    "l": 0.88179,
    "c": 0.88249,
    "v": 1846
  },
  {
    "dt": "2023.08.24 19:00",
    "o": 0.88255,
    "h": 0.88326,
    "l": 0.88242,
    "c": 0.88314,
    "v": 1493
  },
  {
    "dt": "2023.08.24 20:00",
    "o": 0.88312,
    "h": 0.88411,
    "l": 0.88296,
    "c": 0.88388,
    "v": 1259
  },
  {
    "dt": "2023.08.24 21:00",
    "o": 0.88387,
    "h": 0.88452,
    "l": 0.88345,
    "c": 0.88438,
    "v": 1296
  },
  {
    "dt": "2023.08.24 22:00",
    "o": 0.88436,
    "h": 0.88502,
    "l": 0.88408,
    "c": 0.88483,
    "v": 1066
  },
  {
    "dt": "2023.08.24 23:00",
    "o": 0.88484,
    "h": 0.88484,
    "l": 0.88416,
    "c": 0.8843,
    "v": 473
  },
  {
    "dt": "2023.08.25 00:00",
    "o": 0.88303,
    "h": 0.88436,
    "l": 0.88303,
    "c": 0.88375,
    "v": 835
  },
  {
    "dt": "2023.08.25 01:00",
    "o": 0.88384,
    "h": 0.88476,
    "l": 0.88384,
    "c": 0.88475,
    "v": 504
  },
  {
    "dt": "2023.08.25 02:00",
    "o": 0.88477,
    "h": 0.8854,
    "l": 0.88476,
    "c": 0.88517,
    "v": 842
  },
  {
    "dt": "2023.08.25 03:00",
    "o": 0.88519,
    "h": 0.88536,
    "l": 0.8847,
    "c": 0.88521,
    "v": 1207
  },
  {
    "dt": "2023.08.25 04:00",
    "o": 0.88521,
    "h": 0.88567,
    "l": 0.88505,
    "c": 0.88553,
    "v": 1014
  },
  {
    "dt": "2023.08.25 05:00",
    "o": 0.88553,
    "h": 0.88633,
    "l": 0.88551,
    "c": 0.88604,
    "v": 775
  },
  {
    "dt": "2023.08.25 06:00",
    "o": 0.88604,
    "h": 0.88625,
    "l": 0.88587,
    "c": 0.88623,
    "v": 482
  },
  {
    "dt": "2023.08.25 07:00",
    "o": 0.88624,
    "h": 0.88646,
    "l": 0.88606,
    "c": 0.88624,
    "v": 653
  },
  {
    "dt": "2023.08.25 08:00",
    "o": 0.88626,
    "h": 0.8866,
    "l": 0.88572,
    "c": 0.88574,
    "v": 1006
  },
  {
    "dt": "2023.08.25 09:00",
    "o": 0.88569,
    "h": 0.88629,
    "l": 0.88531,
    "c": 0.88569,
    "v": 1621
  },
  {
    "dt": "2023.08.25 10:00",
    "o": 0.88568,
    "h": 0.8868,
    "l": 0.88498,
    "c": 0.88652,
    "v": 2006
  },
  {
    "dt": "2023.08.25 11:00",
    "o": 0.8865,
    "h": 0.88678,
    "l": 0.88533,
    "c": 0.88548,
    "v": 2183
  },
  {
    "dt": "2023.08.25 12:00",
    "o": 0.88548,
    "h": 0.88616,
    "l": 0.88522,
    "c": 0.88594,
    "v": 1867
  },
  {
    "dt": "2023.08.25 13:00",
    "o": 0.88593,
    "h": 0.8861,
    "l": 0.88518,
    "c": 0.88527,
    "v": 1581
  },
  {
    "dt": "2023.08.25 14:00",
    "o": 0.88528,
    "h": 0.88577,
    "l": 0.88479,
    "c": 0.88504,
    "v": 1480
  },
  {
    "dt": "2023.08.25 15:00",
    "o": 0.88507,
    "h": 0.88524,
    "l": 0.88431,
    "c": 0.88453,
    "v": 1558
  },
  {
    "dt": "2023.08.25 16:00",
    "o": 0.88456,
    "h": 0.88552,
    "l": 0.88401,
    "c": 0.88431,
    "v": 2134
  },
  {
    "dt": "2023.08.25 17:00",
    "o": 0.88428,
    "h": 0.88753,
    "l": 0.88211,
    "c": 0.88686,
    "v": 4534
  },
  {
    "dt": "2023.08.25 18:00",
    "o": 0.88688,
    "h": 0.88696,
    "l": 0.88488,
    "c": 0.88592,
    "v": 3012
  },
  {
    "dt": "2023.08.25 19:00",
    "o": 0.88591,
    "h": 0.88594,
    "l": 0.88489,
    "c": 0.88536,
    "v": 1758
  },
  {
    "dt": "2023.08.25 20:00",
    "o": 0.88535,
    "h": 0.88535,
    "l": 0.8843,
    "c": 0.88441,
    "v": 1794
  },
  {
    "dt": "2023.08.25 21:00",
    "o": 0.8844,
    "h": 0.88444,
    "l": 0.88335,
    "c": 0.88373,
    "v": 1593
  },
  {
    "dt": "2023.08.25 22:00",
    "o": 0.88375,
    "h": 0.88421,
    "l": 0.88335,
    "c": 0.88396,
    "v": 1074
  },
  {
    "dt": "2023.08.25 23:00",
    "o": 0.88397,
    "h": 0.88467,
    "l": 0.88393,
    "c": 0.88435,
    "v": 774
  },
  {
    "dt": "2023.08.28 00:00",
    "o": 0.88439,
    "h": 0.88512,
    "l": 0.88355,
    "c": 0.88369,
    "v": 143
  },
  {
    "dt": "2023.08.28 01:00",
    "o": 0.88376,
    "h": 0.88499,
    "l": 0.88375,
    "c": 0.88498,
    "v": 665
  },
  {
    "dt": "2023.08.28 02:00",
    "o": 0.88493,
    "h": 0.88507,
    "l": 0.8843,
    "c": 0.88476,
    "v": 822
  },
  {
    "dt": "2023.08.28 03:00",
    "o": 0.88478,
    "h": 0.88482,
    "l": 0.88379,
    "c": 0.88402,
    "v": 859
  },
  {
    "dt": "2023.08.28 04:00",
    "o": 0.88401,
    "h": 0.88412,
    "l": 0.88345,
    "c": 0.884,
    "v": 1084
  },
  {
    "dt": "2023.08.28 05:00",
    "o": 0.88398,
    "h": 0.88407,
    "l": 0.88316,
    "c": 0.88327,
    "v": 606
  },
  {
    "dt": "2023.08.28 06:00",
    "o": 0.88328,
    "h": 0.88351,
    "l": 0.88312,
    "c": 0.88334,
    "v": 437
  },
  {
    "dt": "2023.08.28 07:00",
    "o": 0.88333,
    "h": 0.88339,
    "l": 0.88298,
    "c": 0.88313,
    "v": 526
  },
  {
    "dt": "2023.08.28 08:00",
    "o": 0.88316,
    "h": 0.8833,
    "l": 0.88246,
    "c": 0.88313,
    "v": 873
  },
  {
    "dt": "2023.08.28 09:00",
    "o": 0.88318,
    "h": 0.8832,
    "l": 0.88251,
    "c": 0.88293,
    "v": 1254
  },
  {
    "dt": "2023.08.28 10:00",
    "o": 0.88298,
    "h": 0.88349,
    "l": 0.88173,
    "c": 0.88331,
    "v": 2135
  },
  {
    "dt": "2023.08.28 11:00",
    "o": 0.88332,
    "h": 0.88437,
    "l": 0.88316,
    "c": 0.88416,
    "v": 1888
  },
  {
    "dt": "2023.08.28 12:00",
    "o": 0.88417,
    "h": 0.88427,
    "l": 0.88349,
    "c": 0.88396,
    "v": 1706
  },
  {
    "dt": "2023.08.28 13:00",
    "o": 0.884,
    "h": 0.88407,
    "l": 0.88274,
    "c": 0.88336,
    "v": 2101
  },
  {
    "dt": "2023.08.28 14:00",
    "o": 0.88337,
    "h": 0.88465,
    "l": 0.88328,
    "c": 0.88459,
    "v": 1734
  },
  {
    "dt": "2023.08.28 15:00",
    "o": 0.88461,
    "h": 0.88495,
    "l": 0.88363,
    "c": 0.88368,
    "v": 1988
  },
  {
    "dt": "2023.08.28 16:00",
    "o": 0.8837,
    "h": 0.88528,
    "l": 0.88355,
    "c": 0.88467,
    "v": 2382
  },
  {
    "dt": "2023.08.28 17:00",
    "o": 0.88468,
    "h": 0.88526,
    "l": 0.88376,
    "c": 0.88468,
    "v": 2229
  },
  {
    "dt": "2023.08.28 18:00",
    "o": 0.88467,
    "h": 0.88489,
    "l": 0.88304,
    "c": 0.88313,
    "v": 1712
  },
  {
    "dt": "2023.08.28 19:00",
    "o": 0.88311,
    "h": 0.88382,
    "l": 0.883,
    "c": 0.8838,
    "v": 1216
  },
  {
    "dt": "2023.08.28 20:00",
    "o": 0.88381,
    "h": 0.88431,
    "l": 0.88364,
    "c": 0.884,
    "v": 1281
  },
  {
    "dt": "2023.08.28 21:00",
    "o": 0.884,
    "h": 0.88418,
    "l": 0.88355,
    "c": 0.88372,
    "v": 757
  },
  {
    "dt": "2023.08.28 22:00",
    "o": 0.88373,
    "h": 0.88403,
    "l": 0.88344,
    "c": 0.88352,
    "v": 682
  },
  {
    "dt": "2023.08.28 23:00",
    "o": 0.88351,
    "h": 0.88383,
    "l": 0.88344,
    "c": 0.8837,
    "v": 452
  },
  {
    "dt": "2023.08.29 00:00",
    "o": 0.88306,
    "h": 0.88383,
    "l": 0.8828,
    "c": 0.88315,
    "v": 790
  },
  {
    "dt": "2023.08.29 01:00",
    "o": 0.88342,
    "h": 0.88363,
    "l": 0.8829,
    "c": 0.88297,
    "v": 460
  },
  {
    "dt": "2023.08.29 02:00",
    "o": 0.88298,
    "h": 0.88364,
    "l": 0.88294,
    "c": 0.88338,
    "v": 609
  },
  {
    "dt": "2023.08.29 03:00",
    "o": 0.88332,
    "h": 0.88336,
    "l": 0.88271,
    "c": 0.88318,
    "v": 740
  },
  {
    "dt": "2023.08.29 04:00",
    "o": 0.88309,
    "h": 0.88312,
    "l": 0.88251,
    "c": 0.88274,
    "v": 690
  },
  {
    "dt": "2023.08.29 05:00",
    "o": 0.8827,
    "h": 0.88319,
    "l": 0.88264,
    "c": 0.88292,
    "v": 712
  },
  {
    "dt": "2023.08.29 06:00",
    "o": 0.8829,
    "h": 0.88312,
    "l": 0.88258,
    "c": 0.88271,
    "v": 802
  },
  {
    "dt": "2023.08.29 07:00",
    "o": 0.88277,
    "h": 0.88339,
    "l": 0.88274,
    "c": 0.88335,
    "v": 489
  },
  {
    "dt": "2023.08.29 08:00",
    "o": 0.88334,
    "h": 0.88357,
    "l": 0.883,
    "c": 0.88314,
    "v": 684
  },
  {
    "dt": "2023.08.29 09:00",
    "o": 0.88323,
    "h": 0.88469,
    "l": 0.88316,
    "c": 0.88444,
    "v": 1979
  },
  {
    "dt": "2023.08.29 10:00",
    "o": 0.8845,
    "h": 0.885,
    "l": 0.88322,
    "c": 0.8838,
    "v": 2251
  },
  {
    "dt": "2023.08.29 11:00",
    "o": 0.8838,
    "h": 0.88482,
    "l": 0.8836,
    "c": 0.88463,
    "v": 2216
  },
  {
    "dt": "2023.08.29 12:00",
    "o": 0.88464,
    "h": 0.88504,
    "l": 0.88373,
    "c": 0.8838,
    "v": 1627
  },
  {
    "dt": "2023.08.29 13:00",
    "o": 0.88378,
    "h": 0.88519,
    "l": 0.88378,
    "c": 0.88507,
    "v": 2116
  },
  {
    "dt": "2023.08.29 14:00",
    "o": 0.88508,
    "h": 0.88556,
    "l": 0.88445,
    "c": 0.88503,
    "v": 2068
  },
  {
    "dt": "2023.08.29 15:00",
    "o": 0.88502,
    "h": 0.88562,
    "l": 0.88446,
    "c": 0.88495,
    "v": 2647
  },
  {
    "dt": "2023.08.29 16:00",
    "o": 0.88497,
    "h": 0.8858,
    "l": 0.88415,
    "c": 0.88415,
    "v": 2948
  },
  {
    "dt": "2023.08.29 17:00",
    "o": 0.88415,
    "h": 0.88415,
    "l": 0.88039,
    "c": 0.88148,
    "v": 4129
  },
  {
    "dt": "2023.08.29 18:00",
    "o": 0.88146,
    "h": 0.88163,
    "l": 0.879,
    "c": 0.87977,
    "v": 2939
  },
  {
    "dt": "2023.08.29 19:00",
    "o": 0.87978,
    "h": 0.8802,
    "l": 0.87872,
    "c": 0.87893,
    "v": 1978
  },
  {
    "dt": "2023.08.29 20:00",
    "o": 0.87895,
    "h": 0.87895,
    "l": 0.87793,
    "c": 0.87822,
    "v": 2327
  },
  {
    "dt": "2023.08.29 21:00",
    "o": 0.87824,
    "h": 0.87945,
    "l": 0.87823,
    "c": 0.87855,
    "v": 1630
  },
  {
    "dt": "2023.08.29 22:00",
    "o": 0.87858,
    "h": 0.87886,
    "l": 0.87741,
    "c": 0.87772,
    "v": 1547
  },
  {
    "dt": "2023.08.29 23:00",
    "o": 0.87775,
    "h": 0.87839,
    "l": 0.87758,
    "c": 0.87832,
    "v": 613
  },
  {
    "dt": "2023.08.30 00:00",
    "o": 0.87744,
    "h": 0.87839,
    "l": 0.87744,
    "c": 0.87805,
    "v": 1515
  },
  {
    "dt": "2023.08.30 01:00",
    "o": 0.87821,
    "h": 0.87843,
    "l": 0.87797,
    "c": 0.87802,
    "v": 626
  },
  {
    "dt": "2023.08.30 02:00",
    "o": 0.87803,
    "h": 0.87892,
    "l": 0.87796,
    "c": 0.87891,
    "v": 728
  },
  {
    "dt": "2023.08.30 03:00",
    "o": 0.87889,
    "h": 0.87899,
    "l": 0.8784,
    "c": 0.87847,
    "v": 1644
  },
  {
    "dt": "2023.08.30 04:00",
    "o": 0.87849,
    "h": 0.87901,
    "l": 0.8784,
    "c": 0.8789,
    "v": 1869
  },
  {
    "dt": "2023.08.30 05:00",
    "o": 0.87888,
    "h": 0.87914,
    "l": 0.87875,
    "c": 0.8789,
    "v": 1615
  },
  {
    "dt": "2023.08.30 06:00",
    "o": 0.87891,
    "h": 0.87899,
    "l": 0.87863,
    "c": 0.87864,
    "v": 1421
  },
  {
    "dt": "2023.08.30 07:00",
    "o": 0.87863,
    "h": 0.87957,
    "l": 0.87862,
    "c": 0.87957,
    "v": 692
  },
  {
    "dt": "2023.08.30 08:00",
    "o": 0.87959,
    "h": 0.87967,
    "l": 0.87879,
    "c": 0.87918,
    "v": 1657
  },
  {
    "dt": "2023.08.30 09:00",
    "o": 0.87919,
    "h": 0.87934,
    "l": 0.87837,
    "c": 0.87911,
    "v": 2101
  },
  {
    "dt": "2023.08.30 10:00",
    "o": 0.87912,
    "h": 0.87989,
    "l": 0.8784,
    "c": 0.87948,
    "v": 2655
  },
  {
    "dt": "2023.08.30 11:00",
    "o": 0.87943,
    "h": 0.88027,
    "l": 0.87919,
    "c": 0.87941,
    "v": 2785
  },
  {
    "dt": "2023.08.30 12:00",
    "o": 0.87943,
    "h": 0.87995,
    "l": 0.87872,
    "c": 0.87991,
    "v": 2658
  },
  {
    "dt": "2023.08.30 13:00",
    "o": 0.87991,
    "h": 0.87997,
    "l": 0.87902,
    "c": 0.87916,
    "v": 2171
  },
  {
    "dt": "2023.08.30 14:00",
    "o": 0.87917,
    "h": 0.87975,
    "l": 0.87875,
    "c": 0.8792,
    "v": 2167
  },
  {
    "dt": "2023.08.30 15:00",
    "o": 0.8792,
    "h": 0.87948,
    "l": 0.87613,
    "c": 0.87661,
    "v": 3855
  },
  {
    "dt": "2023.08.30 16:00",
    "o": 0.87664,
    "h": 0.87731,
    "l": 0.87469,
    "c": 0.87479,
    "v": 3497
  },
  {
    "dt": "2023.08.30 17:00",
    "o": 0.87483,
    "h": 0.8771,
    "l": 0.87439,
    "c": 0.87663,
    "v": 3277
  },
  {
    "dt": "2023.08.30 18:00",
    "o": 0.87664,
    "h": 0.87746,
    "l": 0.87608,
    "c": 0.8771,
    "v": 2469
  },
  {
    "dt": "2023.08.30 19:00",
    "o": 0.8771,
    "h": 0.87864,
    "l": 0.8771,
    "c": 0.87835,
    "v": 1854
  },
  {
    "dt": "2023.08.30 20:00",
    "o": 0.87834,
    "h": 0.87868,
    "l": 0.8776,
    "c": 0.87846,
    "v": 1211
  },
  {
    "dt": "2023.08.30 21:00",
    "o": 0.87846,
    "h": 0.87875,
    "l": 0.87818,
    "c": 0.87819,
    "v": 1381
  },
  {
    "dt": "2023.08.30 22:00",
    "o": 0.87824,
    "h": 0.87874,
    "l": 0.87811,
    "c": 0.87856,
    "v": 1155
  },
  {
    "dt": "2023.08.30 23:00",
    "o": 0.87855,
    "h": 0.8786,
    "l": 0.87833,
    "c": 0.87835,
    "v": 773
  },
  {
    "dt": "2023.08.31 00:00",
    "o": 0.87792,
    "h": 0.87855,
    "l": 0.87749,
    "c": 0.87806,
    "v": 725
  },
  {
    "dt": "2023.08.31 01:00",
    "o": 0.87808,
    "h": 0.87834,
    "l": 0.87795,
    "c": 0.87827,
    "v": 390
  },
  {
    "dt": "2023.08.31 02:00",
    "o": 0.87827,
    "h": 0.87827,
    "l": 0.87787,
    "c": 0.87803,
    "v": 682
  },
  {
    "dt": "2023.08.31 03:00",
    "o": 0.87802,
    "h": 0.87813,
    "l": 0.87774,
    "c": 0.87776,
    "v": 950
  },
  {
    "dt": "2023.08.31 04:00",
    "o": 0.87777,
    "h": 0.87778,
    "l": 0.87706,
    "c": 0.87766,
    "v": 1529
  },
  {
    "dt": "2023.08.31 05:00",
    "o": 0.87757,
    "h": 0.8783,
    "l": 0.87757,
    "c": 0.87825,
    "v": 1673
  },
  {
    "dt": "2023.08.31 06:00",
    "o": 0.87826,
    "h": 0.87838,
    "l": 0.87819,
    "c": 0.87831,
    "v": 1298
  },
  {
    "dt": "2023.08.31 07:00",
    "o": 0.87832,
    "h": 0.87855,
    "l": 0.87822,
    "c": 0.87847,
    "v": 1062
  },
  {
    "dt": "2023.08.31 08:00",
    "o": 0.87845,
    "h": 0.87865,
    "l": 0.87835,
    "c": 0.8784,
    "v": 1200
  },
  {
    "dt": "2023.08.31 09:00",
    "o": 0.87838,
    "h": 0.8796,
    "l": 0.87838,
    "c": 0.87945,
    "v": 1982
  },
  {
    "dt": "2023.08.31 10:00",
    "o": 0.87943,
    "h": 0.88024,
    "l": 0.87902,
    "c": 0.88005,
    "v": 2732
  },
  {
    "dt": "2023.08.31 11:00",
    "o": 0.88005,
    "h": 0.88076,
    "l": 0.87985,
    "c": 0.88064,
    "v": 2147
  },
  {
    "dt": "2023.08.31 12:00",
    "o": 0.88067,
    "h": 0.88239,
    "l": 0.88062,
    "c": 0.88213,
    "v": 2448
  },
  {
    "dt": "2023.08.31 13:00",
    "o": 0.88212,
    "h": 0.88239,
    "l": 0.88087,
    "c": 0.88116,
    "v": 1915
  },
  {
    "dt": "2023.08.31 14:00",
    "o": 0.88119,
    "h": 0.88239,
    "l": 0.88111,
    "c": 0.88136,
    "v": 2089
  },
  {
    "dt": "2023.08.31 15:00",
    "o": 0.88138,
    "h": 0.88279,
    "l": 0.88077,
    "c": 0.88102,
    "v": 3223
  },
  {
    "dt": "2023.08.31 16:00",
    "o": 0.88103,
    "h": 0.8837,
    "l": 0.88077,
    "c": 0.88314,
    "v": 3372
  },
  {
    "dt": "2023.08.31 17:00",
    "o": 0.88315,
    "h": 0.88379,
    "l": 0.88226,
    "c": 0.8832,
    "v": 3235
  },
  {
    "dt": "2023.08.31 18:00",
    "o": 0.88316,
    "h": 0.88452,
    "l": 0.88272,
    "c": 0.88367,
    "v": 2529
  },
  {
    "dt": "2023.08.31 19:00",
    "o": 0.88369,
    "h": 0.88379,
    "l": 0.88244,
    "c": 0.88278,
    "v": 1634
  },
  {
    "dt": "2023.08.31 20:00",
    "o": 0.88275,
    "h": 0.88313,
    "l": 0.88231,
    "c": 0.88305,
    "v": 1379
  },
  {
    "dt": "2023.08.31 21:00",
    "o": 0.88303,
    "h": 0.88339,
    "l": 0.88247,
    "c": 0.88309,
    "v": 965
  },
  {
    "dt": "2023.08.31 22:00",
    "o": 0.88309,
    "h": 0.88341,
    "l": 0.8828,
    "c": 0.88326,
    "v": 1248
  },
  {
    "dt": "2023.08.31 23:00",
    "o": 0.88326,
    "h": 0.88359,
    "l": 0.88302,
    "c": 0.88326,
    "v": 708
  }
]