[
  {
    "dt": "2023.03.01 00:00",
    "o": 0.996,
    "h": 0.99611,
    "l": 0.99559,
    "c": 0.99605,
    "v": 1171
  },
  {
    "dt": "2023.03.01 01:00",
    "o": 0.99608,
    "h": 0.9966,
    "l": 0.99608,
    "c": 0.99631,
    "v": 1156
  },
  {
    "dt": "2023.03.01 02:00",
    "o": 0.99632,
    "h": 0.99636,
    "l": 0.99573,
    "c": 0.99588,
    "v": 1422
  },
  {
    "dt": "2023.03.01 03:00",
    "o": 0.99587,
    "h": 0.99625,
    "l": 0.99583,
    "c": 0.99617,
    "v": 1696
  },
  {
    "dt": "2023.03.01 04:00",
    "o": 0.99617,
    "h": 0.99623,
    "l": 0.99586,
    "c": 0.99595,
    "v": 1244
  },
  {
    "dt": "2023.03.01 05:00",
    "o": 0.99595,
    "h": 0.99613,
    "l": 0.99582,
    "c": 0.99604,
    "v": 1174
  },
  {
    "dt": "2023.03.01 06:00",
    "o": 0.99603,
    "h": 0.99608,
    "l": 0.99592,
    "c": 0.99605,
    "v": 853
  },
  {
    "dt": "2023.03.01 07:00",
    "o": 0.99605,
    "h": 0.99637,
    "l": 0.99603,
    "c": 0.99618,
    "v": 1274
  },
  {
    "dt": "2023.03.01 08:00",
    "o": 0.99618,
    "h": 0.99727,
    "l": 0.9961,
    "c": 0.99718,
    "v": 1722
  },
  {
    "dt": "2023.03.01 09:00",
    "o": 0.99722,
    "h": 0.99943,
    "l": 0.99702,
    "c": 0.99925,
    "v": 2872
  },
  {
    "dt": "2023.03.01 10:00",
    "o": 0.99926,
    "h": 0.99979,
    "l": 0.99783,
    "c": 0.99849,
    "v": 3511
  },
  {
    "dt": "2023.03.01 11:00",
    "o": 0.99846,
    "h": 0.99891,
    "l": 0.99735,
    "c": 0.99761,
    "v": 2528
  },
  {
    "dt": "2023.03.01 12:00",
    "o": 0.99755,
    "h": 0.99925,
    "l": 0.99749,
    "c": 0.99913,
    "v": 2731
  },
  {
    "dt": "2023.03.01 13:00",
    "o": 0.99913,
    "h": 0.99918,
    "l": 0.99816,
    "c": 0.99856,
    "v": 2493
  },
  {
    "dt": "2023.03.01 14:00",
    "o": 0.99855,
    "h": 0.99951,
    "l": 0.99826,
    "c": 0.99935,
    "v": 2439
  },
  {
    "dt": "2023.03.01 15:00",
    "o": 0.99931,
    "h": 1.00073,
    "l": 0.99924,
    "c": 1.00069,
    "v": 2964
  },
  {
    "dt": "2023.03.01 16:00",
    "o": 1.00069,
    "h": 1.00145,
    "l": 1.00031,
    "c": 1.00053,
    "v": 3204
  },
  {
    "dt": "2023.03.01 17:00",
    "o": 1.00051,
    "h": 1.00231,
    "l": 0.99982,
    "c": 1.00216,
    "v": 4163
  },
  {
    "dt": "2023.03.01 18:00",
    "o": 1.00216,
    "h": 1.00235,
    "l": 1.00137,
    "c": 1.00196,
    "v": 2892
  },
  {
    "dt": "2023.03.01 19:00",
    "o": 1.00196,
    "h": 1.00238,
    "l": 1.00153,
    "c": 1.00236,
    "v": 2225
  },
  {
    "dt": "2023.03.01 20:00",
    "o": 1.00235,
    "h": 1.00238,
    "l": 1.00176,
    "c": 1.00198,
    "v": 1532
  },
  {
    "dt": "2023.03.01 21:00",
    "o": 1.00198,
    "h": 1.00228,
    "l": 1.00189,
    "c": 1.00204,
    "v": 1597
  },
  {
    "dt": "2023.03.01 22:00",
    "o": 1.00205,
    "h": 1.00241,
    "l": 1.00188,
    "c": 1.00227,
    "v": 1589
  },
  {
    "dt": "2023.03.01 23:00",
    "o": 1.00228,
    "h": 1.00256,
    "l": 1.00223,
    "c": 1.00236,
    "v": 808
  },
  {
    "dt": "2023.03.02 00:00",
    "o": 1.0015,
    "h": 1.00215,
    "l": 1.00137,
    "c": 1.00198,
    "v": 363
  },
  {
    "dt": "2023.03.02 01:00",
    "o": 1.00204,
    "h": 1.00252,
    "l": 1.00204,
    "c": 1.00225,
    "v": 758
  },
  {
    "dt": "2023.03.02 02:00",
    "o": 1.00227,
    "h": 1.00237,
    "l": 1.00207,
    "c": 1.00236,
    "v": 1251
  },
  {
    "dt": "2023.03.02 03:00",
    "o": 1.00235,
    "h": 1.00268,
    "l": 1.0022,
    "c": 1.00262,
    "v": 1789
  },
  {
    "dt": "2023.03.02 04:00",
    "o": 1.00263,
    "h": 1.00326,
    "l": 1.00258,
    "c": 1.00325,
    "v": 1391
  },
  {
    "dt": "2023.03.02 05:00",
    "o": 1.00325,
    "h": 1.00325,
    "l": 1.00281,
    "c": 1.00286,
    "v": 1161
  },
  {
    "dt": "2023.03.02 06:00",
    "o": 1.00286,
    "h": 1.00322,
    "l": 1.00278,
    "c": 1.00312,
    "v": 1025
  },
  {
    "dt": "2023.03.02 07:00",
    "o": 1.00313,
    "h": 1.00333,
    "l": 1.00297,
    "c": 1.00313,
    "v": 1122
  },
  {
    "dt": "2023.03.02 08:00",
    "o": 1.00312,
    "h": 1.00335,
    "l": 1.00271,
    "c": 1.00299,
    "v": 1688
  },
  {
    "dt": "2023.03.02 09:00",
    "o": 1.00289,
    "h": 1.00409,
    "l": 1.00257,
    "c": 1.00257,
    "v": 2149
  },
  {
    "dt": "2023.03.02 10:00",
    "o": 1.00258,
    "h": 1.00258,
    "l": 1.00111,
    "c": 1.00173,
    "v": 2797
  },
  {
    "dt": "2023.03.02 11:00",
    "o": 1.00171,
    "h": 1.00172,
    "l": 1.00001,
    "c": 1.00004,
    "v": 2513
  },
  {
    "dt": "2023.03.02 12:00",
    "o": 1.00006,
    "h": 1.00073,
    "l": 0.99926,
    "c": 0.99928,
    "v": 2610
  },
  {
    "dt": "2023.03.02 13:00",
    "o": 0.99927,
    "h": 1.00011,
    "l": 0.99897,
    "c": 0.9995,
    "v": 2222
  },
  {
    "dt": "2023.03.02 14:00",
    "o": 0.9995,
    "h": 0.99954,
    "l": 0.99827,
    "c": 0.99903,
    "v": 2394
  },
  {
    "dt": "2023.03.02 15:00",
    "o": 0.999,
    "h": 0.99917,
    "l": 0.99798,
    "c": 0.99816,
    "v": 3036
  },
  {
    "dt": "2023.03.02 16:00",
    "o": 0.99815,
    "h": 0.99873,
    "l": 0.99785,
    "c": 0.99814,
    "v": 2907
  },
  {
    "dt": "2023.03.02 17:00",
    "o": 0.99814,
    "h": 0.99996,
    "l": 0.99795,
    "c": 0.99873,
    "v": 3235
  },
  {
    "dt": "2023.03.02 18:00",
    "o": 0.99866,
    "h": 0.99876,
    "l": 0.99774,
    "c": 0.9979,
    "v": 2283
  },
  {
    "dt": "2023.03.02 19:00",
    "o": 0.99793,
    "h": 0.99866,
    "l": 0.99778,
    "c": 0.99815,
    "v": 1882
  },
  {
    "dt": "2023.03.02 20:00",
    "o": 0.99815,
    "h": 0.99824,
    "l": 0.99773,
    "c": 0.99777,
    "v": 1690
  },
  {
    "dt": "2023.03.02 21:00",
    "o": 0.99782,
    "h": 0.99784,
    "l": 0.99734,
    "c": 0.99746,
    "v": 1622
  },
  {
    "dt": "2023.03.02 22:00",
    "o": 0.99748,
    "h": 0.99831,
    "l": 0.99741,
    "c": 0.99823,
    "v": 1458
  },
  {
    "dt": "2023.03.02 23:00",
    "o": 0.99826,
    "h": 0.99861,
    "l": 0.99802,
    "c": 0.99857,
    "v": 926
  },
  {
    "dt": "2023.03.03 00:00",
    "o": 0.9985,
    "h": 0.9985,
    "l": 0.99747,
    "c": 0.9985,
    "v": 190
  },
  {
    "dt": "2023.03.03 01:00",
    "o": 0.99858,
    "h": 0.99858,
    "l": 0.99808,
    "c": 0.99828,
    "v": 1084
  },
  {
    "dt": "2023.03.03 02:00",
    "o": 0.99829,
    "h": 0.99865,
    "l": 0.99813,
    "c": 0.99864,
    "v": 1391
  },
  {
    "dt": "2023.03.03 03:00",
    "o": 0.9986,
    "h": 0.9987,
    "l": 0.99827,
    "c": 0.9984,
    "v": 1866
  },
  {
    "dt": "2023.03.03 04:00",
    "o": 0.99841,
    "h": 0.99847,
    "l": 0.99811,
    "c": 0.99816,
    "v": 1671
  },
  {
    "dt": "2023.03.03 05:00",
    "o": 0.99814,
    "h": 0.9983,
    "l": 0.99805,
    "c": 0.99815,
    "v": 1419
  },
  {
    "dt": "2023.03.03 06:00",
    "o": 0.99814,
    "h": 0.99832,
    "l": 0.998,
    "c": 0.99827,
    "v": 887
  },
  {
    "dt": "2023.03.03 07:00",
    "o": 0.99828,
    "h": 0.99831,
    "l": 0.99795,
    "c": 0.99803,
    "v": 1064
  },
  {
    "dt": "2023.03.03 08:00",
    "o": 0.99805,
    "h": 0.99808,
    "l": 0.99749,
    "c": 0.9975,
    "v": 1360
  },
  {
    "dt": "2023.03.03 09:00",
    "o": 0.99749,
    "h": 0.99771,
    "l": 0.99697,
    "c": 0.99713,
    "v": 1988
  },
  {
    "dt": "2023.03.03 10:00",
    "o": 0.99713,
    "h": 0.9972,
    "l": 0.99524,
    "c": 0.9954,
    "v": 2672
  },
  {
    "dt": "2023.03.03 11:00",
    "o": 0.99538,
    "h": 0.99574,
    "l": 0.99459,
    "c": 0.99497,
    "v": 2649
  },
  {
    "dt": "2023.03.03 12:00",
    "o": 0.99496,
    "h": 0.99619,
    "l": 0.99491,
    "c": 0.99611,
    "v": 2363
  },
  {
    "dt": "2023.03.03 13:00",
    "o": 0.99612,
    "h": 0.99699,
    "l": 0.99606,
    "c": 0.99645,
    "v": 2086
  },
  {
    "dt": "2023.03.03 14:00",
    "o": 0.99646,
    "h": 0.99689,
    "l": 0.99591,
    "c": 0.99596,
    "v": 1936
  },
  {
    "dt": "2023.03.03 15:00",
    "o": 0.99597,
    "h": 0.9964,
    "l": 0.99555,
    "c": 0.99608,
    "v": 2622
  },
  {
    "dt": "2023.03.03 16:00",
    "o": 0.99608,
    "h": 0.9962,
    "l": 0.99557,
    "c": 0.99592,
    "v": 2806
  },
  {
    "dt": "2023.03.03 17:00",
    "o": 0.99603,
    "h": 0.99639,
    "l": 0.99529,
    "c": 0.99563,
    "v": 3736
  },
  {
    "dt": "2023.03.03 18:00",
    "o": 0.99562,
    "h": 0.99596,
    "l": 0.99492,
    "c": 0.99585,
    "v": 2518
  },
  {
    "dt": "2023.03.03 19:00",
    "o": 0.99584,
    "h": 0.99643,
    "l": 0.99575,
    "c": 0.99619,
    "v": 2205
  },
  {
    "dt": "2023.03.03 20:00",
    "o": 0.99621,
    "h": 0.99652,
    "l": 0.99613,
    "c": 0.99621,
    "v": 1365
  },
  {
    "dt": "2023.03.03 21:00",
    "o": 0.9962,
    "h": 0.99625,
    "l": 0.99532,
    "c": 0.99544,
    "v": 1616
  },
  {
    "dt": "2023.03.03 22:00",
    "o": 0.99545,
    "h": 0.99587,
    "l": 0.99537,
    "c": 0.99553,
    "v": 1711
  },
  {
    "dt": "2023.03.03 23:00",
    "o": 0.99558,
    "h": 0.99571,
    "l": 0.9952,
    "c": 0.99528,
    "v": 893
  },
  {
    "dt": "2023.03.06 00:00",
    "o": 0.99522,
    "h": 0.99528,
    "l": 0.9947,
    "c": 0.9949,
    "v": 255
  },
  {
    "dt": "2023.03.06 01:00",
    "o": 0.99489,
    "h": 0.99564,
    "l": 0.99489,
    "c": 0.99552,
    "v": 1461
  },
  {
    "dt": "2023.03.06 02:00",
    "o": 0.99553,
    "h": 0.99592,
    "l": 0.99547,
    "c": 0.99572,
    "v": 1506
  },
  {
    "dt": "2023.03.06 03:00",
    "o": 0.99577,
    "h": 0.99594,
    "l": 0.99545,
    "c": 0.99583,
    "v": 1839
  },
  {
    "dt": "2023.03.06 04:00",
    "o": 0.99582,
    "h": 0.99631,
    "l": 0.99569,
    "c": 0.99598,
    "v": 1563
  },
  {
    "dt": "2023.03.06 05:00",
    "o": 0.996,
    "h": 0.99611,
    "l": 0.99579,
    "c": 0.99593,
    "v": 926
  },
  {
    "dt": "2023.03.06 06:00",
    "o": 0.99593,
    "h": 0.99602,
    "l": 0.99581,
    "c": 0.99588,
    "v": 784
  },
  {
    "dt": "2023.03.06 07:00",
    "o": 0.99587,
    "h": 0.99652,
    "l": 0.99586,
    "c": 0.99634,
    "v": 1279
  },
  {
    "dt": "2023.03.06 08:00",
    "o": 0.99634,
    "h": 0.99656,
    "l": 0.99562,
    "c": 0.99573,
    "v": 1336
  },
  {
    "dt": "2023.03.06 09:00",
    "o": 0.99568,
    "h": 0.99573,
    "l": 0.99228,
    "c": 0.99246,
    "v": 2164
  },
  {
    "dt": "2023.03.06 10:00",
    "o": 0.99252,
    "h": 0.99437,
    "l": 0.99227,
    "c": 0.99416,
    "v": 2438
  },
  {
    "dt": "2023.03.06 11:00",
    "o": 0.99414,
    "h": 0.99468,
    "l": 0.99268,
    "c": 0.99288,
    "v": 2449
  },
  {
    "dt": "2023.03.06 12:00",
    "o": 0.99288,
    "h": 0.99381,
    "l": 0.99279,
    "c": 0.99377,
    "v": 2486
  },
  {
    "dt": "2023.03.06 13:00",
    "o": 0.99375,
    "h": 0.99555,
    "l": 0.99341,
    "c": 0.99488,
    "v": 2755
  },
  {
    "dt": "2023.03.06 14:00",
    "o": 0.9949,
    "h": 0.99498,
    "l": 0.99397,
    "c": 0.99408,
    "v": 2279
  },
  {
    "dt": "2023.03.06 15:00",
    "o": 0.99407,
    "h": 0.9955,
    "l": 0.99379,
    "c": 0.99547,
    "v": 2452
  },
  {
    "dt": "2023.03.06 16:00",
    "o": 0.99546,
    "h": 0.99654,
    "l": 0.99516,
    "c": 0.99597,
    "v": 2824
  },
  {
    "dt": "2023.03.06 17:00",
    "o": 0.9961,
    "h": 0.99611,
    "l": 0.99415,
    "c": 0.99542,
    "v": 3211
  },
  {
    "dt": "2023.03.06 18:00",
    "o": 0.99541,
    "h": 0.99561,
    "l": 0.99503,
    "c": 0.99538,
    "v": 2447
  },
  {
    "dt": "2023.03.06 19:00",
    "o": 0.9954,
    "h": 0.9956,
    "l": 0.99503,
    "c": 0.99527,
    "v": 1810
  },
  {
    "dt": "2023.03.06 20:00",
    "o": 0.99515,
    "h": 0.9953,
    "l": 0.99484,
    "c": 0.99492,
    "v": 1600
  },
  {
    "dt": "2023.03.06 21:00",
    "o": 0.99491,
    "h": 0.99525,
    "l": 0.99473,
    "c": 0.9951,
    "v": 1597
  },
  {
    "dt": "2023.03.06 22:00",
    "o": 0.9951,
    "h": 0.99522,
    "l": 0.99488,
    "c": 0.99496,
    "v": 1477
  },
  {
    "dt": "2023.03.06 23:00",
    "o": 0.99498,
    "h": 0.99505,
    "l": 0.99398,
    "c": 0.99412,
    "v": 913
  },
  {
    "dt": "2023.03.07 00:00",
    "o": 0.99319,
    "h": 0.99473,
    "l": 0.99319,
    "c": 0.99399,
    "v": 690
  },
  {
    "dt": "2023.03.07 01:00",
    "o": 0.99386,
    "h": 0.99458,
    "l": 0.99386,
    "c": 0.99443,
    "v": 1047
  },
  {
    "dt": "2023.03.07 02:00",
    "o": 0.99447,
    "h": 0.99449,
    "l": 0.99417,
    "c": 0.99432,
    "v": 1064
  },
  {
    "dt": "2023.03.07 03:00",
    "o": 0.99432,
    "h": 0.99466,
    "l": 0.99428,
    "c": 0.99455,
    "v": 1348
  },
  {
    "dt": "2023.03.07 04:00",
    "o": 0.99454,
    "h": 0.99462,
    "l": 0.99415,
    "c": 0.99416,
    "v": 1147
  },
  {
    "dt": "2023.03.07 05:00",
    "o": 0.99417,
    "h": 0.99447,
    "l": 0.99397,
    "c": 0.99401,
    "v": 1340
  },
  {
    "dt": "2023.03.07 06:00",
    "o": 0.994,
    "h": 0.99409,
    "l": 0.99391,
    "c": 0.99399,
    "v": 714
  },
  {
    "dt": "2023.03.07 07:00",
    "o": 0.99398,
    "h": 0.99398,
    "l": 0.99334,
    "c": 0.99356,
    "v": 985
  },
  {
    "dt": "2023.03.07 08:00",
    "o": 0.99355,
    "h": 0.99364,
    "l": 0.99283,
    "c": 0.99305,
    "v": 1421
  },
  {
    "dt": "2023.03.07 09:00",
    "o": 0.99298,
    "h": 0.99328,
    "l": 0.99253,
    "c": 0.99285,
    "v": 2321
  },
  {
    "dt": "2023.03.07 10:00",
    "o": 0.99283,
    "h": 0.9937,
    "l": 0.99246,
    "c": 0.99344,
    "v": 2854
  },
  {
    "dt": "2023.03.07 11:00",
    "o": 0.99343,
    "h": 0.99389,
    "l": 0.99262,
    "c": 0.99387,
    "v": 2616
  },
  {
    "dt": "2023.03.07 12:00",
    "o": 0.99381,
    "h": 0.9947,
    "l": 0.9933,
    "c": 0.9946,
    "v": 2304
  },
  {
    "dt": "2023.03.07 13:00",
    "o": 0.99458,
    "h": 0.99515,
    "l": 0.99419,
    "c": 0.99509,
    "v": 2121
  },
  {
    "dt": "2023.03.07 14:00",
    "o": 0.9951,
    "h": 0.99593,
    "l": 0.99478,
    "c": 0.99569,
    "v": 2280
  },
  {
    "dt": "2023.03.07 15:00",
    "o": 0.9957,
    "h": 0.99611,
    "l": 0.9953,
    "c": 0.99564,
    "v": 2419
  },
  {
    "dt": "2023.03.07 16:00",
    "o": 0.99566,
    "h": 0.99642,
    "l": 0.9951,
    "c": 0.99513,
    "v": 2900
  },
  {
    "dt": "2023.03.07 17:00",
    "o": 0.99509,
    "h": 0.99615,
    "l": 0.99459,
    "c": 0.99527,
    "v": 4977
  },
  {
    "dt": "2023.03.07 18:00",
    "o": 0.99529,
    "h": 0.99554,
    "l": 0.99426,
    "c": 0.99519,
    "v": 3595
  },
  {
    "dt": "2023.03.07 19:00",
    "o": 0.99525,
    "h": 0.99549,
    "l": 0.99432,
    "c": 0.99441,
    "v": 2846
  },
  {
    "dt": "2023.03.07 20:00",
    "o": 0.99442,
    "h": 0.99463,
    "l": 0.99255,
    "c": 0.99296,
    "v": 2610
  },
  {
    "dt": "2023.03.07 21:00",
    "o": 0.99296,
    "h": 0.99402,
    "l": 0.99294,
    "c": 0.99361,
    "v": 2094
  },
  {
    "dt": "2023.03.07 22:00",
    "o": 0.99353,
    "h": 0.99395,
    "l": 0.99347,
    "c": 0.99378,
    "v": 1722
  },
  {
    "dt": "2023.03.07 23:00",
    "o": 0.99378,
    "h": 0.99394,
    "l": 0.99351,
    "c": 0.99371,
    "v": 753
  },
  {
    "dt": "2023.03.08 00:00",
    "o": 0.99234,
    "h": 0.99337,
    "l": 0.99226,
    "c": 0.99308,
    "v": 174
  },
  {
    "dt": "2023.03.08 01:00",
    "o": 0.99324,
    "h": 0.99396,
    "l": 0.99309,
    "c": 0.99389,
    "v": 1161
  },
  {
    "dt": "2023.03.08 02:00",
    "o": 0.99389,
    "h": 0.9939,
    "l": 0.99338,
    "c": 0.99364,
    "v": 1481
  },
  {
    "dt": "2023.03.08 03:00",
    "o": 0.99362,
    "h": 0.99387,
    "l": 0.99346,
    "c": 0.99364,
    "v": 1571
  },
  {
    "dt": "2023.03.08 04:00",
    "o": 0.99364,
    "h": 0.99381,
    "l": 0.99346,
    "c": 0.99363,
    "v": 1419
  },
  {
    "dt": "2023.03.08 05:00",
    "o": 0.99362,
    "h": 0.99374,
    "l": 0.99331,
    "c": 0.99352,
    "v": 1902
  },
  {
    "dt": "2023.03.08 06:00",
    "o": 0.99352,
    "h": 0.99369,
    "l": 0.99334,
    "c": 0.99355,
    "v": 1826
  },
  {
    "dt": "2023.03.08 07:00",
    "o": 0.99355,
    "h": 0.99372,
    "l": 0.99327,
    "c": 0.99334,
    "v": 1254
  },
  {
    "dt": "2023.03.08 08:00",
    "o": 0.99334,
    "h": 0.9937,
    "l": 0.99332,
    "c": 0.99346,
    "v": 1129
  },
  {
    "dt": "2023.03.08 09:00",
    "o": 0.99336,
    "h": 0.9939,
    "l": 0.99311,
    "c": 0.99334,
    "v": 2064
  },
  {
    "dt": "2023.03.08 10:00",
    "o": 0.9933,
    "h": 0.99359,
    "l": 0.99278,
    "c": 0.99295,
    "v": 2673
  },
  {
    "dt": "2023.03.08 11:00",
    "o": 0.99293,
    "h": 0.99388,
    "l": 0.99285,
    "c": 0.99304,
    "v": 2413
  },
  {
    "dt": "2023.03.08 12:00",
    "o": 0.99304,
    "h": 0.9943,
    "l": 0.99231,
    "c": 0.99369,
    "v": 2167
  },
  {
    "dt": "2023.03.08 13:00",
    "o": 0.99364,
    "h": 0.99391,
    "l": 0.99327,
    "c": 0.99387,
    "v": 1629
  },
  {
    "dt": "2023.03.08 14:00",
    "o": 0.99387,
    "h": 0.99403,
    "l": 0.99315,
    "c": 0.99369,
    "v": 1519
  },
  {
    "dt": "2023.03.08 15:00",
    "o": 0.9937,
    "h": 0.99371,
    "l": 0.99252,
    "c": 0.9929,
    "v": 2904
  },
  {
    "dt": "2023.03.08 16:00",
    "o": 0.9929,
    "h": 0.99361,
    "l": 0.99257,
    "c": 0.99346,
    "v": 2890
  },
  {
    "dt": "2023.03.08 17:00",
    "o": 0.99341,
    "h": 0.99381,
    "l": 0.99212,
    "c": 0.99229,
    "v": 4007
  },
  {
    "dt": "2023.03.08 18:00",
    "o": 0.99236,
    "h": 0.9925,
    "l": 0.99092,
    "c": 0.99095,
    "v": 2775
  },
  {
    "dt": "2023.03.08 19:00",
    "o": 0.99094,
    "h": 0.99258,
    "l": 0.99084,
    "c": 0.99253,
    "v": 2010
  },
  {
    "dt": "2023.03.08 20:00",
    "o": 0.99254,
    "h": 0.99314,
    "l": 0.99246,
    "c": 0.9925,
    "v": 2181
  },
  {
    "dt": "2023.03.08 21:00",
    "o": 0.99251,
    "h": 0.9928,
    "l": 0.99228,
    "c": 0.99249,
    "v": 1543
  },
  {
    "dt": "2023.03.08 22:00",
    "o": 0.9925,
    "h": 0.99278,
    "l": 0.9924,
    "c": 0.99271,
    "v": 985
  },
  {
    "dt": "2023.03.08 23:00",
    "o": 0.99269,
    "h": 0.99271,
    "l": 0.99236,
    "c": 0.99246,
    "v": 449
  },
  {
    "dt": "2023.03.09 00:00",
    "o": 0.99266,
    "h": 0.99286,
    "l": 0.99155,
    "c": 0.99184,
    "v": 314
  },
  {
    "dt": "2023.03.09 01:00",
    "o": 0.99196,
    "h": 0.99257,
    "l": 0.99176,
    "c": 0.99247,
    "v": 697
  },
  {
    "dt": "2023.03.09 02:00",
    "o": 0.99246,
    "h": 0.99247,
    "l": 0.99186,
    "c": 0.99203,
    "v": 1014
  },
  {
    "dt": "2023.03.09 03:00",
    "o": 0.992,
    "h": 0.99228,
    "l": 0.99196,
    "c": 0.99219,
    "v": 1233
  },
  {
    "dt": "2023.03.09 04:00",
    "o": 0.99222,
    "h": 0.99229,
    "l": 0.99197,
    "c": 0.99218,
    "v": 960
  },
  {
    "dt": "2023.03.09 05:00",
    "o": 0.99219,
    "h": 0.99225,
    "l": 0.99199,
    "c": 0.99205,
    "v": 701
  },
  {
    "dt": "2023.03.09 06:00",
    "o": 0.99205,
    "h": 0.99216,
    "l": 0.99194,
    "c": 0.99199,
    "v": 542
  },
  {
    "dt": "2023.03.09 07:00",
    "o": 0.992,
    "h": 0.99208,
    "l": 0.99175,
    "c": 0.99192,
    "v": 792
  },
  {
    "dt": "2023.03.09 08:00",
    "o": 0.99191,
    "h": 0.99198,
    "l": 0.99152,
    "c": 0.99159,
    "v": 958
  },
  {
    "dt": "2023.03.09 09:00",
    "o": 0.99159,
    "h": 0.99172,
    "l": 0.99062,
    "c": 0.99096,
    "v": 1532
  },
  {
    "dt": "2023.03.09 10:00",
    "o": 0.99097,
    "h": 0.99161,
    "l": 0.99085,
    "c": 0.99144,
    "v": 2183
  },
  {
    "dt": "2023.03.09 11:00",
    "o": 0.99141,
    "h": 0.99147,
    "l": 0.98939,
    "c": 0.9894,
    "v": 2129
  },
  {
    "dt": "2023.03.09 12:00",
    "o": 0.9894,
    "h": 0.99096,
    "l": 0.98934,
    "c": 0.99041,
    "v": 2017
  },
  {
    "dt": "2023.03.09 13:00",
    "o": 0.99039,
    "h": 0.99135,
    "l": 0.99036,
    "c": 0.99111,
    "v": 2071
  },
  {
    "dt": "2023.03.09 14:00",
    "o": 0.99111,
    "h": 0.99143,
    "l": 0.99094,
    "c": 0.99108,
    "v": 1753
  },
  {
    "dt": "2023.03.09 15:00",
    "o": 0.99108,
    "h": 0.99171,
    "l": 0.99033,
    "c": 0.99105,
    "v": 2732
  },
  {
    "dt": "2023.03.09 16:00",
    "o": 0.99108,
    "h": 0.99177,
    "l": 0.99033,
    "c": 0.99063,
    "v": 2986
  },
  {
    "dt": "2023.03.09 17:00",
    "o": 0.99063,
    "h": 0.99081,
    "l": 0.98962,
    "c": 0.99002,
    "v": 2835
  },
  {
    "dt": "2023.03.09 18:00",
    "o": 0.98999,
    "h": 0.9905,
    "l": 0.98993,
    "c": 0.99027,
    "v": 2264
  },
  {
    "dt": "2023.03.09 19:00",
    "o": 0.99026,
    "h": 0.99083,
    "l": 0.99016,
    "c": 0.99033,
    "v": 1935
  },
  {
    "dt": "2023.03.09 20:00",
    "o": 0.99031,
    "h": 0.99063,
    "l": 0.98962,
    "c": 0.98973,
    "v": 2211
  },
  {
    "dt": "2023.03.09 21:00",
    "o": 0.98975,
    "h": 0.99043,
    "l": 0.98957,
    "c": 0.99041,
    "v": 1975
  },
  {
    "dt": "2023.03.09 22:00",
    "o": 0.99039,
    "h": 0.99039,
    "l": 0.98794,
    "c": 0.98794,
    "v": 1643
  },
  {
    "dt": "2023.03.09 23:00",
    "o": 0.98797,
    "h": 0.9884,
    "l": 0.98641,
    "c": 0.98674,
    "v": 1554
  },
  {
    "dt": "2023.03.10 00:00",
    "o": 0.98588,
    "h": 0.98798,
    "l": 0.98588,
    "c": 0.98671,
    "v": 344
  },
  {
    "dt": "2023.03.10 01:00",
    "o": 0.98661,
    "h": 0.98742,
    "l": 0.98656,
    "c": 0.98742,
    "v": 1904
  },
  {
    "dt": "2023.03.10 02:00",
    "o": 0.98743,
    "h": 0.98769,
    "l": 0.98699,
    "c": 0.98732,
    "v": 1804
  },
  {
    "dt": "2023.03.10 03:00",
    "o": 0.98729,
    "h": 0.98761,
    "l": 0.98718,
    "c": 0.98723,
    "v": 2241
  },
  {
    "dt": "2023.03.10 04:00",
    "o": 0.98722,
    "h": 0.98729,
    "l": 0.98543,
    "c": 0.98544,
    "v": 2559
  },
  {
    "dt": "2023.03.10 05:00",
    "o": 0.98544,
    "h": 0.98592,
    "l": 0.98385,
    "c": 0.98388,
    "v": 1741
  },
  {
    "dt": "2023.03.10 06:00",
    "o": 0.98388,
    "h": 0.98449,
    "l": 0.98331,
    "c": 0.98443,
    "v": 1651
  },
  {
    "dt": "2023.03.10 07:00",
    "o": 0.98444,
    "h": 0.98506,
    "l": 0.98426,
    "c": 0.98497,
    "v": 1387
  },
  {
    "dt": "2023.03.10 08:00",
    "o": 0.98497,
    "h": 0.98575,
    "l": 0.98388,
    "c": 0.98388,
    "v": 1516
  },
  {
    "dt": "2023.03.10 09:00",
    "o": 0.98398,
    "h": 0.98581,
    "l": 0.98377,
    "c": 0.98526,
    "v": 2916
  },
  {
    "dt": "2023.03.10 10:00",
    "o": 0.98527,
    "h": 0.98609,
    "l": 0.98411,
    "c": 0.98559,
    "v": 3074
  },
  {
    "dt": "2023.03.10 11:00",
    "o": 0.98562,
    "h": 0.98563,
    "l": 0.98406,
    "c": 0.98428,
    "v": 2724
  },
  {
    "dt": "2023.03.10 12:00",
    "o": 0.98433,
    "h": 0.9853,
    "l": 0.98382,
    "c": 0.98423,
    "v": 2338
  },
  {
    "dt": "2023.03.10 13:00",
    "o": 0.98422,
    "h": 0.98424,
    "l": 0.98176,
    "c": 0.98225,
    "v": 2092
  },
  {
    "dt": "2023.03.10 14:00",
    "o": 0.98225,
    "h": 0.98382,
    "l": 0.98101,
    "c": 0.98156,
    "v": 2380
  },
  {
    "dt": "2023.03.10 15:00",
    "o": 0.98158,
    "h": 0.98322,
    "l": 0.98151,
    "c": 0.98286,
    "v": 4447
  },
  {
    "dt": "2023.03.10 16:00",
    "o": 0.98287,
    "h": 0.98299,
    "l": 0.97943,
    "c": 0.9809,
    "v": 4220
  },
  {
    "dt": "2023.03.10 17:00",
    "o": 0.98102,
    "h": 0.98234,
    "l": 0.98046,
    "c": 0.98225,
    "v": 4260
  },
  {
    "dt": "2023.03.10 18:00",
    "o": 0.98225,
    "h": 0.98247,
    "l": 0.9813,
    "c": 0.98193,
    "v": 3962
  },
  {
    "dt": "2023.03.10 19:00",
    "o": 0.98193,
    "h": 0.98222,
    "l": 0.97955,
    "c": 0.98014,
    "v": 2578
  },
  {
    "dt": "2023.03.10 20:00",
    "o": 0.98018,
    "h": 0.98083,
    "l": 0.97991,
    "c": 0.98048,
    "v": 2739
  },
  {
    "dt": "2023.03.10 21:00",
    "o": 0.98045,
    "h": 0.98072,
    "l": 0.9801,
    "c": 0.98042,
    "v": 2622
  },
  {
    "dt": "2023.03.10 22:00",
    "o": 0.98041,
    "h": 0.98061,
    "l": 0.98,
    "c": 0.98006,
    "v": 2469
  },
  {
    "dt": "2023.03.10 23:00",
    "o": 0.98009,
    "h": 0.98073,
    "l": 0.97972,
    "c": 0.97979,
    "v": 1301
  },
  {
    "dt": "2023.03.13 00:00",
    "o": 0.98265,
    "h": 0.98336,
    "l": 0.98062,
    "c": 0.98141,
    "v": 630
  },
  {
    "dt": "2023.03.13 01:00",
    "o": 0.98129,
    "h": 0.98183,
    "l": 0.97893,
    "c": 0.97992,
    "v": 1569
  },
  {
    "dt": "2023.03.13 02:00",
    "o": 0.98032,
    "h": 0.98188,
    "l": 0.97883,
    "c": 0.98177,
    "v": 3040
  },
  {
    "dt": "2023.03.13 03:00",
    "o": 0.9818,
    "h": 0.98208,
    "l": 0.98147,
    "c": 0.98169,
    "v": 3281
  },
  {
    "dt": "2023.03.13 04:00",
    "o": 0.9817,
    "h": 0.982,
    "l": 0.98102,
    "c": 0.98138,
    "v": 2876
  },
  {
    "dt": "2023.03.13 05:00",
    "o": 0.98138,
    "h": 0.98214,
    "l": 0.98092,
    "c": 0.98211,
    "v": 3196
  },
  {
    "dt": "2023.03.13 06:00",
    "o": 0.9821,
    "h": 0.98267,
    "l": 0.98169,
    "c": 0.98231,
    "v": 3072
  },
  {
    "dt": "2023.03.13 07:00",
    "o": 0.98232,
    "h": 0.98296,
    "l": 0.98229,
    "c": 0.98274,
    "v": 2659
  },
  {
    "dt": "2023.03.13 08:00",
    "o": 0.98276,
    "h": 0.98337,
    "l": 0.98265,
    "c": 0.98332,
    "v": 2028
  },
  {
    "dt": "2023.03.13 09:00",
    "o": 0.98331,
    "h": 0.98333,
    "l": 0.98264,
    "c": 0.98298,
    "v": 2623
  },
  {
    "dt": "2023.03.13 10:00",
    "o": 0.98299,
    "h": 0.98318,
    "l": 0.9822,
    "c": 0.98231,
    "v": 3062
  },
  {
    "dt": "2023.03.13 11:00",
    "o": 0.98222,
    "h": 0.98235,
    "l": 0.9801,
    "c": 0.98036,
    "v": 3362
  },
  {
    "dt": "2023.03.13 12:00",
    "o": 0.98036,
    "h": 0.98036,
    "l": 0.97128,
    "c": 0.97476,
    "v": 4661
  },
  {
    "dt": "2023.03.13 13:00",
    "o": 0.97477,
    "h": 0.97687,
    "l": 0.97422,
    "c": 0.97631,
    "v": 3971
  },
  {
    "dt": "2023.03.13 14:00",
    "o": 0.97631,
    "h": 0.97653,
    "l": 0.97433,
    "c": 0.975,
    "v": 3735
  },
  {
    "dt": "2023.03.13 15:00",
    "o": 0.97503,
    "h": 0.97611,
    "l": 0.97185,
    "c": 0.97316,
    "v": 3477
  },
  {
    "dt": "2023.03.13 16:00",
    "o": 0.97295,
    "h": 0.97637,
    "l": 0.97294,
    "c": 0.97377,
    "v": 1375
  },
  {
    "dt": "2023.03.13 17:00",
    "o": 0.97385,
    "h": 0.97698,
    "l": 0.9723,
    "c": 0.97603,
    "v": 4368
  },
  {
    "dt": "2023.03.13 18:00",
    "o": 0.97602,
    "h": 0.97887,
    "l": 0.97576,
    "c": 0.97862,
    "v": 3660
  },
  {
    "dt": "2023.03.13 19:00",
    "o": 0.9786,
    "h": 0.97872,
    "l": 0.97654,
    "c": 0.97826,
    "v": 3729
  },
  {
    "dt": "2023.03.13 20:00",
    "o": 0.97832,
    "h": 0.97846,
    "l": 0.97704,
    "c": 0.97811,
    "v": 2714
  },
  {
    "dt": "2023.03.13 21:00",
    "o": 0.97811,
    "h": 0.9782,
    "l": 0.97744,
    "c": 0.97758,
    "v": 2685
  },
  {
    "dt": "2023.03.13 22:00",
    "o": 0.97756,
    "h": 0.97825,
    "l": 0.97755,
    "c": 0.97793,
    "v": 2909
  },
  {
    "dt": "2023.03.13 23:00",
    "o": 0.97797,
    "h": 0.97885,
    "l": 0.97767,
    "c": 0.97839,
    "v": 1587
  },
  {
    "dt": "2023.03.14 00:00",
    "o": 0.9772,
    "h": 0.97862,
    "l": 0.9772,
    "c": 0.97813,
    "v": 557
  },
  {
    "dt": "2023.03.14 01:00",
    "o": 0.97815,
    "h": 0.97832,
    "l": 0.9773,
    "c": 0.9782,
    "v": 1726
  },
  {
    "dt": "2023.03.14 02:00",
    "o": 0.97821,
    "h": 0.97868,
    "l": 0.97813,
    "c": 0.97852,
    "v": 1017
  },
  {
    "dt": "2023.03.14 03:00",
    "o": 0.97853,
    "h": 0.97858,
    "l": 0.97727,
    "c": 0.97786,
    "v": 2468
  },
  {
    "dt": "2023.03.14 04:00",
    "o": 0.97787,
    "h": 0.97804,
    "l": 0.97721,
    "c": 0.97763,
    "v": 2351
  },
  {
    "dt": "2023.03.14 05:00",
    "o": 0.97764,
    "h": 0.978,
    "l": 0.97743,
    "c": 0.97751,
    "v": 1822
  },
  {
    "dt": "2023.03.14 06:00",
    "o": 0.97749,
    "h": 0.97809,
    "l": 0.97744,
    "c": 0.97799,
    "v": 1966
  },
  {
    "dt": "2023.03.14 07:00",
    "o": 0.97794,
    "h": 0.97856,
    "l": 0.97781,
    "c": 0.97831,
    "v": 1323
  },
  {
    "dt": "2023.03.14 08:00",
    "o": 0.9783,
    "h": 0.97832,
    "l": 0.97741,
    "c": 0.97776,
    "v": 1835
  },
  {
    "dt": "2023.03.14 09:00",
    "o": 0.9778,
    "h": 0.9778,
    "l": 0.97531,
    "c": 0.97663,
    "v": 2992
  },
  {
    "dt": "2023.03.14 10:00",
    "o": 0.97662,
    "h": 0.97666,
    "l": 0.97466,
    "c": 0.97542,
    "v": 3507
  },
  {
    "dt": "2023.03.14 11:00",
    "o": 0.97541,
    "h": 0.97788,
    "l": 0.97503,
    "c": 0.97647,
    "v": 3418
  },
  {
    "dt": "2023.03.14 12:00",
    "o": 0.97648,
    "h": 0.97734,
    "l": 0.97561,
    "c": 0.97638,
    "v": 3365
  },
  {
    "dt": "2023.03.14 13:00",
    "o": 0.97635,
    "h": 0.97729,
    "l": 0.97512,
    "c": 0.97558,
    "v": 2681
  },
  {
    "dt": "2023.03.14 14:00",
    "o": 0.97557,
    "h": 0.97792,
    "l": 0.97554,
    "c": 0.97742,
    "v": 2839
  },
  {
    "dt": "2023.03.14 15:00",
    "o": 0.97742,
    "h": 0.97912,
    "l": 0.97565,
    "c": 0.97792,
    "v": 4951
  },
  {
    "dt": "2023.03.14 16:00",
    "o": 0.97793,
    "h": 0.98063,
    "l": 0.97751,
    "c": 0.98034,
    "v": 4450
  },
  {
    "dt": "2023.03.14 17:00",
    "o": 0.9803,
    "h": 0.98222,
    "l": 0.98002,
    "c": 0.9819,
    "v": 3534
  },
  {
    "dt": "2023.03.14 18:00",
    "o": 0.9819,
    "h": 0.98194,
    "l": 0.97909,
    "c": 0.97962,
    "v": 2730
  },
  {
    "dt": "2023.03.14 19:00",
    "o": 0.97961,
    "h": 0.98158,
    "l": 0.9794,
    "c": 0.98064,
    "v": 2815
  },
  {
    "dt": "2023.03.14 20:00",
    "o": 0.98064,
    "h": 0.98086,
    "l": 0.9796,
    "c": 0.98065,
    "v": 3102
  },
  {
    "dt": "2023.03.14 21:00",
    "o": 0.98064,
    "h": 0.98129,
    "l": 0.98042,
    "c": 0.98083,
    "v": 2490
  },
  {
    "dt": "2023.03.14 22:00",
    "o": 0.98084,
    "h": 0.98088,
    "l": 0.97947,
    "c": 0.98047,
    "v": 1964
  },
  {
    "dt": "2023.03.14 23:00",
    "o": 0.98046,
    "h": 0.98108,
    "l": 0.98044,
    "c": 0.98095,
    "v": 1007
  },
  {
    "dt": "2023.03.15 00:00",
    "o": 0.97988,
    "h": 0.98054,
    "l": 0.97941,
    "c": 0.98048,
    "v": 277
  },
  {
    "dt": "2023.03.15 01:00",
    "o": 0.98062,
    "h": 0.98093,
    "l": 0.9801,
    "c": 0.98065,
    "v": 3589
  },
  {
    "dt": "2023.03.15 02:00",
    "o": 0.98066,
    "h": 0.98103,
    "l": 0.98051,
    "c": 0.98097,
    "v": 1341
  },
  {
    "dt": "2023.03.15 03:00",
    "o": 0.98096,
    "h": 0.98143,
    "l": 0.9808,
    "c": 0.98126,
    "v": 1974
  },
  {
    "dt": "2023.03.15 04:00",
    "o": 0.98126,
    "h": 0.98135,
    "l": 0.98101,
    "c": 0.98119,
    "v": 1642
  },
  {
    "dt": "2023.03.15 05:00",
    "o": 0.9812,
    "h": 0.98183,
    "l": 0.98115,
    "c": 0.98176,
    "v": 2133
  },
  {
    "dt": "2023.03.15 06:00",
    "o": 0.98174,
    "h": 0.98205,
    "l": 0.98168,
    "c": 0.98181,
    "v": 1371
  },
  {
    "dt": "2023.03.15 07:00",
    "o": 0.98182,
    "h": 0.9822,
    "l": 0.98166,
    "c": 0.98194,
    "v": 1353
  },
  {
    "dt": "2023.03.15 08:00",
    "o": 0.98194,
    "h": 0.98211,
    "l": 0.98159,
    "c": 0.98177,
    "v": 1875
  },
  {
    "dt": "2023.03.15 09:00",
    "o": 0.98179,
    "h": 0.98222,
    "l": 0.9814,
    "c": 0.9821,
    "v": 1896
  },
  {
    "dt": "2023.03.15 10:00",
    "o": 0.98213,
    "h": 0.98291,
    "l": 0.98142,
    "c": 0.98198,
    "v": 2961
  },
  {
    "dt": "2023.03.15 11:00",
    "o": 0.98199,
    "h": 0.9829,
    "l": 0.98161,
    "c": 0.98215,
    "v": 2836
  },
  {
    "dt": "2023.03.15 12:00",
    "o": 0.98211,
    "h": 0.98211,
    "l": 0.97911,
    "c": 0.98068,
    "v": 4109
  },
  {
    "dt": "2023.03.15 13:00",
    "o": 0.98064,
    "h": 0.98146,
    "l": 0.97748,
    "c": 0.98,
    "v": 4397
  },
  {
    "dt": "2023.03.15 14:00",
    "o": 0.98001,
    "h": 0.98156,
    "l": 0.97498,
    "c": 0.97677,
    "v": 4568
  },
  {
    "dt": "2023.03.15 15:00",
    "o": 0.97671,
    "h": 0.97757,
    "l": 0.97268,
    "c": 0.97289,
    "v": 4885
  },
  {
    "dt": "2023.03.15 16:00",
    "o": 0.97289,
    "h": 0.97413,
    "l": 0.97168,
    "c": 0.97315,
    "v": 5261
  },
  {
    "dt": "2023.03.15 17:00",
    "o": 0.97306,
    "h": 0.9732,
    "l": 0.97152,
    "c": 0.97211,
    "v": 4577
  },
  {
    "dt": "2023.03.15 18:00",
    "o": 0.9721,
    "h": 0.97358,
    "l": 0.97055,
    "c": 0.97358,
    "v": 4187
  },
  {
    "dt": "2023.03.15 19:00",
    "o": 0.97357,
    "h": 0.97879,
    "l": 0.97285,
    "c": 0.97817,
    "v": 3782
  },
  {
    "dt": "2023.03.15 20:00",
    "o": 0.97817,
    "h": 0.98326,
    "l": 0.97711,
    "c": 0.98241,
    "v": 3785
  },
  {
    "dt": "2023.03.15 21:00",
    "o": 0.98242,
    "h": 0.9855,
    "l": 0.98201,
    "c": 0.9834,
    "v": 3926
  },
  {
    "dt": "2023.03.15 22:00",
    "o": 0.98335,
    "h": 0.98588,
    "l": 0.98166,
    "c": 0.98562,
    "v": 3716
  },
  {
    "dt": "2023.03.15 23:00",
    "o": 0.98558,
    "h": 0.98737,
    "l": 0.98558,
    "c": 0.98709,
    "v": 2295
  },
  {
    "dt": "2023.03.16 00:00",
    "o": 0.98659,
    "h": 0.98699,
    "l": 0.98652,
    "c": 0.98679,
    "v": 155
  },
  {
    "dt": "2023.03.16 01:00",
    "o": 0.98682,
    "h": 0.98819,
    "l": 0.9857,
    "c": 0.98598,
    "v": 1879
  },
  {
    "dt": "2023.03.16 02:00",
    "o": 0.98601,
    "h": 0.98624,
    "l": 0.98545,
    "c": 0.98559,
    "v": 2443
  },
  {
    "dt": "2023.03.16 03:00",
    "o": 0.98559,
    "h": 0.98665,
    "l": 0.98382,
    "c": 0.98651,
    "v": 3207
  },
  {
    "dt": "2023.03.16 04:00",
    "o": 0.98651,
    "h": 0.98715,
    "l": 0.98587,
    "c": 0.98594,
    "v": 3046
  },
  {
    "dt": "2023.03.16 05:00",
    "o": 0.98595,
    "h": 0.98678,
    "l": 0.98573,
    "c": 0.98633,
    "v": 2472
  },
  {
    "dt": "2023.03.16 06:00",
    "o": 0.98634,
    "h": 0.98634,
    "l": 0.98564,
    "c": 0.98612,
    "v": 1745
  },
  {
    "dt": "2023.03.16 07:00",
    "o": 0.98613,
    "h": 0.98643,
    "l": 0.98559,
    "c": 0.98609,
    "v": 1379
  },
  {
    "dt": "2023.03.16 08:00",
    "o": 0.98609,
    "h": 0.9865,
    "l": 0.986,
    "c": 0.98629,
    "v": 1789
  },
  {
    "dt": "2023.03.16 09:00",
    "o": 0.98627,
    "h": 0.98633,
    "l": 0.98487,
    "c": 0.98512,
    "v": 2087
  },
  {
    "dt": "2023.03.16 10:00",
    "o": 0.98507,
    "h": 0.98522,
    "l": 0.98225,
    "c": 0.98249,
    "v": 3606
  },
  {
    "dt": "2023.03.16 11:00",
    "o": 0.98248,
    "h": 0.98322,
    "l": 0.98118,
    "c": 0.98287,
    "v": 4244
  },
  {
    "dt": "2023.03.16 12:00",
    "o": 0.98288,
    "h": 0.98459,
    "l": 0.98199,
    "c": 0.98444,
    "v": 3438
  },
  {
    "dt": "2023.03.16 13:00",
    "o": 0.98441,
    "h": 0.98647,
    "l": 0.98429,
    "c": 0.98598,
    "v": 2864
  },
  {
    "dt": "2023.03.16 14:00",
    "o": 0.98597,
    "h": 0.98623,
    "l": 0.98357,
    "c": 0.98366,
    "v": 2893
  },
  {
    "dt": "2023.03.16 15:00",
    "o": 0.98363,
    "h": 0.98482,
    "l": 0.98074,
    "c": 0.98096,
    "v": 3911
  },
  {
    "dt": "2023.03.16 16:00",
    "o": 0.98102,
    "h": 0.98438,
    "l": 0.97984,
    "c": 0.98406,
    "v": 5269
  },
  {
    "dt": "2023.03.16 17:00",
    "o": 0.98401,
    "h": 0.98643,
    "l": 0.98239,
    "c": 0.98579,
    "v": 5017
  },
  {
    "dt": "2023.03.16 18:00",
    "o": 0.98581,
    "h": 0.98765,
    "l": 0.98473,
    "c": 0.98758,
    "v": 4889
  },
  {
    "dt": "2023.03.16 19:00",
    "o": 0.9876,
    "h": 0.98799,
    "l": 0.98589,
    "c": 0.98666,
    "v": 3683
  },
  {
    "dt": "2023.03.16 20:00",
    "o": 0.98665,
    "h": 0.98744,
    "l": 0.98548,
    "c": 0.98682,
    "v": 3496
  },
  {
    "dt": "2023.03.16 21:00",
    "o": 0.98681,
    "h": 0.98722,
    "l": 0.98608,
    "c": 0.98684,
    "v": 2980
  },
  {
    "dt": "2023.03.16 22:00",
    "o": 0.98684,
    "h": 0.9871,
    "l": 0.98565,
    "c": 0.98691,
    "v": 2488
  },
  {
    "dt": "2023.03.16 23:00",
    "o": 0.98688,
    "h": 0.9871,
    "l": 0.98604,
    "c": 0.98615,
    "v": 1701
  },
  {
    "dt": "2023.03.17 00:00",
    "o": 0.98572,
    "h": 0.98638,
    "l": 0.98572,
    "c": 0.98622,
    "v": 242
  },
  {
    "dt": "2023.03.17 01:00",
    "o": 0.98622,
    "h": 0.98682,
    "l": 0.98597,
    "c": 0.98631,
    "v": 1965
  },
  {
    "dt": "2023.03.17 02:00",
    "o": 0.9863,
    "h": 0.98639,
    "l": 0.98604,
    "c": 0.98615,
    "v": 1458
  },
  {
    "dt": "2023.03.17 03:00",
    "o": 0.98618,
    "h": 0.98654,
    "l": 0.98607,
    "c": 0.98651,
    "v": 1741
  },
  {
    "dt": "2023.03.17 04:00",
    "o": 0.98652,
    "h": 0.98659,
    "l": 0.98587,
    "c": 0.98596,
    "v": 2431
  },
  {
    "dt": "2023.03.17 05:00",
    "o": 0.98596,
    "h": 0.98614,
    "l": 0.98572,
    "c": 0.98609,
    "v": 1599
  },
  {
    "dt": "2023.03.17 06:00",
    "o": 0.98613,
    "h": 0.98651,
    "l": 0.98601,
    "c": 0.98636,
    "v": 1804
  },
  {
    "dt": "2023.03.17 07:00",
    "o": 0.98637,
    "h": 0.98673,
    "l": 0.9863,
    "c": 0.98651,
    "v": 2117
  },
  {
    "dt": "2023.03.17 08:00",
    "o": 0.98649,
    "h": 0.98652,
    "l": 0.98576,
    "c": 0.98599,
    "v": 1847
  },
  {
    "dt": "2023.03.17 09:00",
    "o": 0.98599,
    "h": 0.98662,
    "l": 0.98592,
    "c": 0.98623,
    "v": 1732
  },
  {
    "dt": "2023.03.17 10:00",
    "o": 0.98621,
    "h": 0.98732,
    "l": 0.98554,
    "c": 0.98612,
    "v": 3087
  },
  {
    "dt": "2023.03.17 11:00",
    "o": 0.98597,
    "h": 0.98804,
    "l": 0.98539,
    "c": 0.9854,
    "v": 3571
  },
  {
    "dt": "2023.03.17 12:00",
    "o": 0.98541,
    "h": 0.9861,
    "l": 0.98479,
    "c": 0.98599,
    "v": 2772
  },
  {
    "dt": "2023.03.17 13:00",
    "o": 0.98598,
    "h": 0.98616,
    "l": 0.98495,
    "c": 0.98577,
    "v": 2817
  },
  {
    "dt": "2023.03.17 14:00",
    "o": 0.98574,
    "h": 0.98616,
    "l": 0.98384,
    "c": 0.98609,
    "v": 2980
  },
  {
    "dt": "2023.03.17 15:00",
    "o": 0.98607,
    "h": 0.98642,
    "l": 0.98501,
    "c": 0.98595,
    "v": 3584
  },
  {
    "dt": "2023.03.17 16:00",
    "o": 0.98594,
    "h": 0.98675,
    "l": 0.98496,
    "c": 0.98597,
    "v": 3890
  },
  {
    "dt": "2023.03.17 17:00",
    "o": 0.98536,
    "h": 0.98707,
    "l": 0.98529,
    "c": 0.98623,
    "v": 4159
  },
  {
    "dt": "2023.03.17 18:00",
    "o": 0.98622,
    "h": 0.9885,
    "l": 0.98569,
    "c": 0.98837,
    "v": 3935
  },
  {
    "dt": "2023.03.17 19:00",
    "o": 0.98838,
    "h": 0.99113,
    "l": 0.98806,
    "c": 0.99052,
    "v": 3208
  },
  {
    "dt": "2023.03.17 20:00",
    "o": 0.99053,
    "h": 0.991,
    "l": 0.98958,
    "c": 0.99021,
    "v": 3003
  },
  {
    "dt": "2023.03.17 21:00",
    "o": 0.99025,
    "h": 0.99036,
    "l": 0.98844,
    "c": 0.98862,
    "v": 3400
  },
  {
    "dt": "2023.03.17 22:00",
    "o": 0.98868,
    "h": 0.98871,
    "l": 0.98753,
    "c": 0.98764,
    "v": 2285
  },
  {
    "dt": "2023.03.17 23:00",
    "o": 0.98764,
    "h": 0.98825,
    "l": 0.98716,
    "c": 0.98769,
    "v": 1959
  },
  {
    "dt": "2023.03.20 00:00",
    "o": 0.98888,
    "h": 0.98942,
    "l": 0.9878,
    "c": 0.98867,
    "v": 634
  },
  {
    "dt": "2023.03.20 01:00",
    "o": 0.98846,
    "h": 0.99054,
    "l": 0.9883,
    "c": 0.98875,
    "v": 2559
  },
  {
    "dt": "2023.03.20 02:00",
    "o": 0.98871,
    "h": 0.99009,
    "l": 0.98846,
    "c": 0.98997,
    "v": 1915
  },
  {
    "dt": "2023.03.20 03:00",
    "o": 0.98996,
    "h": 0.99059,
    "l": 0.9895,
    "c": 0.98956,
    "v": 2149
  },
  {
    "dt": "2023.03.20 04:00",
    "o": 0.98958,
    "h": 0.99032,
    "l": 0.98854,
    "c": 0.9893,
    "v": 2725
  },
  {
    "dt": "2023.03.20 05:00",
    "o": 0.9893,
    "h": 0.98952,
    "l": 0.98852,
    "c": 0.98884,
    "v": 1388
  },
  {
    "dt": "2023.03.20 06:00",
    "o": 0.98886,
    "h": 0.98907,
    "l": 0.98783,
    "c": 0.98821,
    "v": 2484
  },
  {
    "dt": "2023.03.20 07:00",
    "o": 0.98822,
    "h": 0.98832,
    "l": 0.98764,
    "c": 0.98787,
    "v": 1934
  },
  {
    "dt": "2023.03.20 08:00",
    "o": 0.98787,
    "h": 0.98833,
    "l": 0.98784,
    "c": 0.98818,
    "v": 1400
  },
  {
    "dt": "2023.03.20 09:00",
    "o": 0.98818,
    "h": 0.98847,
    "l": 0.98572,
    "c": 0.98723,
    "v": 3219
  },
  {
    "dt": "2023.03.20 10:00",
    "o": 0.9872,
    "h": 0.98862,
    "l": 0.98668,
    "c": 0.98856,
    "v": 3763
  },
  {
    "dt": "2023.03.20 11:00",
    "o": 0.98861,
    "h": 0.99059,
    "l": 0.9885,
    "c": 0.98998,
    "v": 4462
  },
  {
    "dt": "2023.03.20 12:00",
    "o": 0.98998,
    "h": 0.99228,
    "l": 0.98975,
    "c": 0.99183,
    "v": 3763
  },
  {
    "dt": "2023.03.20 13:00",
    "o": 0.99183,
    "h": 0.99261,
    "l": 0.99161,
    "c": 0.99236,
    "v": 3112
  },
  {
    "dt": "2023.03.20 14:00",
    "o": 0.99233,
    "h": 0.99305,
    "l": 0.99166,
    "c": 0.99219,
    "v": 3115
  },
  {
    "dt": "2023.03.20 15:00",
    "o": 0.9922,
    "h": 0.99302,
    "l": 0.99154,
    "c": 0.99266,
    "v": 3305
  },
  {
    "dt": "2023.03.20 16:00",
    "o": 0.99266,
    "h": 0.99325,
    "l": 0.9915,
    "c": 0.99176,
    "v": 3542
  },
  {
    "dt": "2023.03.20 17:00",
    "o": 0.99172,
    "h": 0.99238,
    "l": 0.9912,
    "c": 0.9923,
    "v": 3235
  },
  {
    "dt": "2023.03.20 18:00",
    "o": 0.99233,
    "h": 0.99387,
    "l": 0.99172,
    "c": 0.99348,
    "v": 2914
  },
  {
    "dt": "2023.03.20 19:00",
    "o": 0.99348,
    "h": 0.99368,
    "l": 0.99203,
    "c": 0.99317,
    "v": 2560
  },
  {
    "dt": "2023.03.20 20:00",
    "o": 0.99317,
    "h": 0.99484,
    "l": 0.99281,
    "c": 0.99479,
    "v": 1895
  },
  {
    "dt": "2023.03.20 21:00",
    "o": 0.99478,
    "h": 0.99569,
    "l": 0.99424,
    "c": 0.99549,
    "v": 2348
  },
  {
    "dt": "2023.03.20 22:00",
    "o": 0.99549,
    "h": 0.99618,
    "l": 0.99533,
    "c": 0.99569,
    "v": 1703
  },
  {
    "dt": "2023.03.20 23:00",
    "o": 0.99569,
    "h": 0.99647,
    "l": 0.99569,
    "c": 0.99641,
    "v": 975
  },
  {
    "dt": "2023.03.21 00:00",
    "o": 0.99479,
    "h": 0.99576,
    "l": 0.99394,
    "c": 0.99557,
    "v": 729
  },
  {
    "dt": "2023.03.21 01:00",
    "o": 0.99555,
    "h": 0.99602,
    "l": 0.99547,
    "c": 0.99584,
    "v": 2689
  },
  {
    "dt": "2023.03.21 02:00",
    "o": 0.99585,
    "h": 0.99613,
    "l": 0.99569,
    "c": 0.99597,
    "v": 1632
  },
  {
    "dt": "2023.03.21 03:00",
    "o": 0.99595,
    "h": 0.99636,
    "l": 0.99497,
    "c": 0.99519,
    "v": 2813
  },
  {
    "dt": "2023.03.21 04:00",
    "o": 0.99518,
    "h": 0.9958,
    "l": 0.99495,
    "c": 0.99548,
    "v": 3033
  },
  {
    "dt": "2023.03.21 05:00",
    "o": 0.99549,
    "h": 0.99579,
    "l": 0.99511,
    "c": 0.99563,
    "v": 2293
  },
  {
    "dt": "2023.03.21 06:00",
    "o": 0.99563,
    "h": 0.99574,
    "l": 0.99493,
    "c": 0.99543,
    "v": 1925
  },
  {
    "dt": "2023.03.21 07:00",
    "o": 0.99543,
    "h": 0.99586,
    "l": 0.99511,
    "c": 0.99584,
    "v": 1734
  },
  {
    "dt": "2023.03.21 08:00",
    "o": 0.99584,
    "h": 0.99619,
    "l": 0.9957,
    "c": 0.99615,
    "v": 1151
  },
  {
    "dt": "2023.03.21 09:00",
    "o": 0.9961,
    "h": 0.99738,
    "l": 0.9961,
    "c": 0.99712,
    "v": 1890
  },
  {
    "dt": "2023.03.21 10:00",
    "o": 0.99713,
    "h": 0.99743,
    "l": 0.99561,
    "c": 0.99661,
    "v": 2901
  },
  {
    "dt": "2023.03.21 11:00",
    "o": 0.99661,
    "h": 0.9977,
    "l": 0.99573,
    "c": 0.99573,
    "v": 3498
  },
  {
    "dt": "2023.03.21 12:00",
    "o": 0.99573,
    "h": 0.99663,
    "l": 0.99526,
    "c": 0.99582,
    "v": 2626
  },
  {
    "dt": "2023.03.21 13:00",
    "o": 0.99583,
    "h": 0.99601,
    "l": 0.99486,
    "c": 0.9959,
    "v": 2533
  },
  {
    "dt": "2023.03.21 14:00",
    "o": 0.99588,
    "h": 0.99683,
    "l": 0.99526,
    "c": 0.99581,
    "v": 2758
  },
  {
    "dt": "2023.03.21 15:00",
    "o": 0.9958,
    "h": 0.9968,
    "l": 0.99549,
    "c": 0.99633,
    "v": 2930
  },
  {
    "dt": "2023.03.21 16:00",
    "o": 0.99631,
    "h": 0.99712,
    "l": 0.99517,
    "c": 0.99539,
    "v": 2970
  },
  {
    "dt": "2023.03.21 17:00",
    "o": 0.9954,
    "h": 0.99595,
    "l": 0.99476,
    "c": 0.99508,
    "v": 3235
  },
  {
    "dt": "2023.03.21 18:00",
    "o": 0.99506,
    "h": 0.99572,
    "l": 0.99347,
    "c": 0.9947,
    "v": 3034
  },
  {
    "dt": "2023.03.21 19:00",
    "o": 0.9947,
    "h": 0.99496,
    "l": 0.99252,
    "c": 0.99329,
    "v": 2478
  },
  {
    "dt": "2023.03.21 20:00",
    "o": 0.99331,
    "h": 0.99379,
    "l": 0.99294,
    "c": 0.99316,
    "v": 2110
  },
  {
    "dt": "2023.03.21 21:00",
    "o": 0.99314,
    "h": 0.99328,
    "l": 0.99274,
    "c": 0.99325,
    "v": 1938
  },
  {
    "dt": "2023.03.21 22:00",
    "o": 0.99324,
    "h": 0.99377,
    "l": 0.9931,
    "c": 0.99356,
    "v": 1802
  },
  {
    "dt": "2023.03.21 23:00",
    "o": 0.99349,
    "h": 0.99365,
    "l": 0.99295,
    "c": 0.99323,
    "v": 1042
  },
  {
    "dt": "2023.03.22 00:00",
    "o": 0.99283,
    "h": 0.99331,
    "l": 0.99246,
    "c": 0.99313,
    "v": 213
  },
  {
    "dt": "2023.03.22 01:00",
    "o": 0.99319,
    "h": 0.99319,
    "l": 0.99268,
    "c": 0.99289,
    "v": 1233
  },
  {
    "dt": "2023.03.22 02:00",
    "o": 0.9929,
    "h": 0.99307,
    "l": 0.99255,
    "c": 0.99286,
    "v": 1632
  },
  {
    "dt": "2023.03.22 03:00",
    "o": 0.99286,
    "h": 0.99313,
    "l": 0.99257,
    "c": 0.99304,
    "v": 1878
  },
  {
    "dt": "2023.03.22 04:00",
    "o": 0.99304,
    "h": 0.99359,
    "l": 0.99293,
    "c": 0.99358,
    "v": 1998
  },
  {
    "dt": "2023.03.22 05:00",
    "o": 0.99356,
    "h": 0.99379,
    "l": 0.99328,
    "c": 0.99349,
    "v": 1768
  },
  {
    "dt": "2023.03.22 06:00",
    "o": 0.99346,
    "h": 0.99367,
    "l": 0.99338,
    "c": 0.99354,
    "v": 1846
  },
  {
    "dt": "2023.03.22 07:00",
    "o": 0.99351,
    "h": 0.99396,
    "l": 0.99348,
    "c": 0.9938,
    "v": 1490
  },
  {
    "dt": "2023.03.22 08:00",
    "o": 0.99382,
    "h": 0.99396,
    "l": 0.99346,
    "c": 0.99375,
    "v": 1422
  },
  {
    "dt": "2023.03.22 09:00",
    "o": 0.99377,
    "h": 0.99416,
    "l": 0.99297,
    "c": 0.993,
    "v": 1610
  },
  {
    "dt": "2023.03.22 10:00",
    "o": 0.993,
    "h": 0.99472,
    "l": 0.99286,
    "c": 0.99367,
    "v": 2692
  },
  {
    "dt": "2023.03.22 11:00",
    "o": 0.99369,
    "h": 0.99446,
    "l": 0.99275,
    "c": 0.99423,
    "v": 3051
  },
  {
    "dt": "2023.03.22 12:00",
    "o": 0.99424,
    "h": 0.99469,
    "l": 0.99326,
    "c": 0.99425,
    "v": 2669
  },
  {
    "dt": "2023.03.22 13:00",
    "o": 0.9943,
    "h": 0.99548,
    "l": 0.9939,
    "c": 0.99498,
    "v": 2444
  },
  {
    "dt": "2023.03.22 14:00",
    "o": 0.99499,
    "h": 0.99586,
    "l": 0.99473,
    "c": 0.99581,
    "v": 2262
  },
  {
    "dt": "2023.03.22 15:00",
    "o": 0.99582,
    "h": 0.99642,
    "l": 0.99487,
    "c": 0.99498,
    "v": 2324
  },
  {
    "dt": "2023.03.22 16:00",
    "o": 0.99503,
    "h": 0.99638,
    "l": 0.99494,
    "c": 0.99629,
    "v": 2308
  },
  {
    "dt": "2023.03.22 17:00",
    "o": 0.99629,
    "h": 0.99634,
    "l": 0.99473,
    "c": 0.99523,
    "v": 2465
  },
  {
    "dt": "2023.03.22 18:00",
    "o": 0.99525,
    "h": 0.99673,
    "l": 0.99521,
    "c": 0.99666,
    "v": 2395
  },
  {
    "dt": "2023.03.22 19:00",
    "o": 0.99665,
    "h": 0.99723,
    "l": 0.99575,
    "c": 0.99692,
    "v": 2110
  },
  {
    "dt": "2023.03.22 20:00",
    "o": 0.99691,
    "h": 0.99737,
    "l": 0.99625,
    "c": 0.99637,
    "v": 2267
  },
  {
    "dt": "2023.03.22 21:00",
    "o": 0.9964,
    "h": 0.9983,
    "l": 0.99606,
    "c": 0.9978,
    "v": 5445
  },
  {
    "dt": "2023.03.22 22:00",
    "o": 0.99779,
    "h": 0.9981,
    "l": 0.99663,
    "c": 0.9973,
    "v": 4221
  },
  {
    "dt": "2023.03.22 23:00",
    "o": 0.99729,
    "h": 0.99729,
    "l": 0.99561,
    "c": 0.99561,
    "v": 1907
  },
  {
    "dt": "2023.03.23 00:00",
    "o": 0.99606,
    "h": 0.99651,
    "l": 0.99593,
    "c": 0.99614,
    "v": 156
  },
  {
    "dt": "2023.03.23 01:00",
    "o": 0.9961,
    "h": 0.99641,
    "l": 0.99571,
    "c": 0.99612,
    "v": 1582
  },
  {
    "dt": "2023.03.23 02:00",
    "o": 0.99614,
    "h": 0.9964,
    "l": 0.99602,
    "c": 0.99618,
    "v": 1159
  },
  {
    "dt": "2023.03.23 03:00",
    "o": 0.99616,
    "h": 0.99726,
    "l": 0.99616,
    "c": 0.99664,
    "v": 1951
  },
  {
    "dt": "2023.03.23 04:00",
    "o": 0.99665,
    "h": 0.99823,
    "l": 0.99664,
    "c": 0.99813,
    "v": 1963
  },
  {
    "dt": "2023.03.23 05:00",
    "o": 0.99812,
    "h": 0.99824,
    "l": 0.99762,
    "c": 0.99779,
    "v": 1909
  },
  {
    "dt": "2023.03.23 06:00",
    "o": 0.99777,
    "h": 0.99807,
    "l": 0.99697,
    "c": 0.99804,
    "v": 2372
  },
  {
    "dt": "2023.03.23 07:00",
    "o": 0.99803,
    "h": 0.99809,
    "l": 0.99768,
    "c": 0.99785,
    "v": 1704
  },
  {
    "dt": "2023.03.23 08:00",
    "o": 0.99785,
    "h": 0.99857,
    "l": 0.99773,
    "c": 0.99838,
    "v": 1890
  },
  {
    "dt": "2023.03.23 09:00",
    "o": 0.99835,
    "h": 0.99973,
    "l": 0.99809,
    "c": 0.99886,
    "v": 2404
  },
  {
    "dt": "2023.03.23 10:00",
    "o": 0.99886,
    "h": 0.99932,
    "l": 0.99832,
    "c": 0.99895,
    "v": 2919
  },
  {
    "dt": "2023.03.23 11:00",
    "o": 0.99889,
    "h": 0.99941,
    "l": 0.99339,
    "c": 0.99609,
    "v": 3409
  },
  {
    "dt": "2023.03.23 12:00",
    "o": 0.99605,
    "h": 0.99901,
    "l": 0.99508,
    "c": 0.99662,
    "v": 2980
  },
  {
    "dt": "2023.03.23 13:00",
    "o": 0.99661,
    "h": 0.9977,
    "l": 0.99538,
    "c": 0.99708,
    "v": 2603
  },
  {
    "dt": "2023.03.23 14:00",
    "o": 0.99707,
    "h": 0.9973,
    "l": 0.99603,
    "c": 0.99678,
    "v": 2301
  },
  {
    "dt": "2023.03.23 15:00",
    "o": 0.99678,
    "h": 0.99735,
    "l": 0.99648,
    "c": 0.9967,
    "v": 3150
  },
  {
    "dt": "2023.03.23 16:00",
    "o": 0.9967,
    "h": 0.99746,
    "l": 0.99617,
    "c": 0.99648,
    "v": 3084
  },
  {
    "dt": "2023.03.23 17:00",
    "o": 0.9965,
    "h": 0.99676,
    "l": 0.99488,
    "c": 0.99548,
    "v": 3112
  },
  {
    "dt": "2023.03.23 18:00",
    "o": 0.99549,
    "h": 0.9964,
    "l": 0.99519,
    "c": 0.99575,
    "v": 3045
  },
  {
    "dt": "2023.03.23 19:00",
    "o": 0.99575,
    "h": 0.99595,
    "l": 0.99446,
    "c": 0.99566,
    "v": 2600
  },
  {
    "dt": "2023.03.23 20:00",
    "o": 0.99565,
    "h": 0.99566,
    "l": 0.994,
    "c": 0.99412,
    "v": 2342
  },
  {
    "dt": "2023.03.23 21:00",
    "o": 0.99415,
    "h": 0.99453,
    "l": 0.99233,
    "c": 0.99305,
    "v": 2582
  },
  {
    "dt": "2023.03.23 22:00",
    "o": 0.99302,
    "h": 0.99385,
    "l": 0.99189,
    "c": 0.99243,
    "v": 3286
  },
  {
    "dt": "2023.03.23 23:00",
    "o": 0.99244,
    "h": 0.993,
    "l": 0.992,
    "c": 0.99275,
    "v": 1599
  },
  {
    "dt": "2023.03.24 00:00",
    "o": 0.99242,
    "h": 0.99287,
    "l": 0.99236,
    "c": 0.99241,
    "v": 192
  },
  {
    "dt": "2023.03.24 01:00",
    "o": 0.99272,
    "h": 0.99315,
    "l": 0.99245,
    "c": 0.99283,
    "v": 2355
  },
  {
    "dt": "2023.03.24 02:00",
    "o": 0.99283,
    "h": 0.99326,
    "l": 0.9928,
    "c": 0.99315,
    "v": 1733
  },
  {
    "dt": "2023.03.24 03:00",
    "o": 0.99316,
    "h": 0.99316,
    "l": 0.99254,
    "c": 0.99257,
    "v": 1984
  },
  {
    "dt": "2023.03.24 04:00",
    "o": 0.99256,
    "h": 0.99301,
    "l": 0.99207,
    "c": 0.99286,
    "v": 2533
  },
  {
    "dt": "2023.03.24 05:00",
    "o": 0.99287,
    "h": 0.99316,
    "l": 0.99241,
    "c": 0.9928,
    "v": 2265
  },
  {
    "dt": "2023.03.24 06:00",
    "o": 0.9928,
    "h": 0.99301,
    "l": 0.99199,
    "c": 0.99223,
    "v": 1717
  },
  {
    "dt": "2023.03.24 07:00",
    "o": 0.99223,
    "h": 0.99245,
    "l": 0.99182,
    "c": 0.9919,
    "v": 1881
  },
  {
    "dt": "2023.03.24 08:00",
    "o": 0.99188,
    "h": 0.9924,
    "l": 0.99182,
    "c": 0.99208,
    "v": 1995
  },
  {
    "dt": "2023.03.24 09:00",
    "o": 0.99206,
    "h": 0.99383,
    "l": 0.99206,
    "c": 0.99375,
    "v": 2361
  },
  {
    "dt": "2023.03.24 10:00",
    "o": 0.99368,
    "h": 0.99388,
    "l": 0.99312,
    "c": 0.99361,
    "v": 2435
  },
  {
    "dt": "2023.03.24 11:00",
    "o": 0.9936,
    "h": 0.99372,
    "l": 0.9887,
    "c": 0.98896,
    "v": 4035
  },
  {
    "dt": "2023.03.24 12:00",
    "o": 0.98889,
    "h": 0.98974,
    "l": 0.9848,
    "c": 0.98483,
    "v": 3527
  },
  {
    "dt": "2023.03.24 13:00",
    "o": 0.98484,
    "h": 0.98795,
    "l": 0.98483,
    "c": 0.98783,
    "v": 3900
  },
  {
    "dt": "2023.03.24 14:00",
    "o": 0.98785,
    "h": 0.98895,
    "l": 0.98673,
    "c": 0.98766,
    "v": 3290
  },
  {
    "dt": "2023.03.24 15:00",
    "o": 0.98765,
    "h": 0.9885,
    "l": 0.98622,
    "c": 0.98788,
    "v": 3351
  },
  {
    "dt": "2023.03.24 16:00",
    "o": 0.98788,
    "h": 0.98851,
    "l": 0.98616,
    "c": 0.9883,
    "v": 3697
  },
  {
    "dt": "2023.03.24 17:00",
    "o": 0.98831,
    "h": 0.98924,
    "l": 0.98734,
    "c": 0.98735,
    "v": 3579
  },
  {
    "dt": "2023.03.24 18:00",
    "o": 0.98734,
    "h": 0.98799,
    "l": 0.98678,
    "c": 0.98795,
    "v": 3226
  },
  {
    "dt": "2023.03.24 19:00",
    "o": 0.98792,
    "h": 0.98838,
    "l": 0.98682,
    "c": 0.98797,
    "v": 3032
  },
  {
    "dt": "2023.03.24 20:00",
    "o": 0.98797,
    "h": 0.98968,
    "l": 0.98781,
    "c": 0.98908,
    "v": 2357
  },
  {
    "dt": "2023.03.24 21:00",
    "o": 0.98905,
    "h": 0.98971,
    "l": 0.98896,
    "c": 0.98941,
    "v": 1979
  },
  {
    "dt": "2023.03.24 22:00",
    "o": 0.9894,
    "h": 0.98988,
    "l": 0.9891,
    "c": 0.98931,
    "v": 1835
  },
  {
    "dt": "2023.03.24 23:00",
    "o": 0.98934,
    "h": 0.98971,
    "l": 0.98898,
    "c": 0.98933,
    "v": 1181
  },
  {
    "dt": "2023.03.27 00:00",
    "o": 0.98821,
    "h": 0.98985,
    "l": 0.9878,
    "c": 0.98875,
    "v": 997
  },
  {
    "dt": "2023.03.27 01:00",
    "o": 0.98885,
    "h": 0.9908,
    "l": 0.9888,
    "c": 0.99049,
    "v": 2649
  },
  {
    "dt": "2023.03.27 02:00",
    "o": 0.9905,
    "h": 0.99051,
    "l": 0.99015,
    "c": 0.99035,
    "v": 1300
  },
  {
    "dt": "2023.03.27 03:00",
    "o": 0.99036,
    "h": 0.99041,
    "l": 0.9894,
    "c": 0.98983,
    "v": 2201
  },
  {
    "dt": "2023.03.27 04:00",
    "o": 0.98985,
    "h": 0.98998,
    "l": 0.98908,
    "c": 0.98957,
    "v": 2099
  },
  {
    "dt": "2023.03.27 05:00",
    "o": 0.98957,
    "h": 0.9896,
    "l": 0.98911,
    "c": 0.98942,
    "v": 1838
  },
  {
    "dt": "2023.03.27 06:00",
    "o": 0.98943,
    "h": 0.98951,
    "l": 0.98889,
    "c": 0.98908,
    "v": 1507
  },
  {
    "dt": "2023.03.27 07:00",
    "o": 0.98908,
    "h": 0.98914,
    "l": 0.98874,
    "c": 0.98908,
    "v": 1046
  },
  {
    "dt": "2023.03.27 08:00",
    "o": 0.98908,
    "h": 0.98924,
    "l": 0.98849,
    "c": 0.98906,
    "v": 1872
  },
  {
    "dt": "2023.03.27 09:00",
    "o": 0.98906,
    "h": 0.98924,
    "l": 0.98793,
    "c": 0.98822,
    "v": 2528
  },
  {
    "dt": "2023.03.27 10:00",
    "o": 0.98827,
    "h": 0.98888,
    "l": 0.98592,
    "c": 0.98672,
    "v": 2891
  },
  {
    "dt": "2023.03.27 11:00",
    "o": 0.98668,
    "h": 0.98754,
    "l": 0.98584,
    "c": 0.98637,
    "v": 2947
  },
  {
    "dt": "2023.03.27 12:00",
    "o": 0.98636,
    "h": 0.98711,
    "l": 0.98583,
    "c": 0.98663,
    "v": 2695
  },
  {
    "dt": "2023.03.27 13:00",
    "o": 0.9866,
    "h": 0.98692,
    "l": 0.98588,
    "c": 0.98647,
    "v": 2521
  },
  {
    "dt": "2023.03.27 14:00",
    "o": 0.98646,
    "h": 0.98754,
    "l": 0.98611,
    "c": 0.98703,
    "v": 2450
  },
  {
    "dt": "2023.03.27 15:00",
    "o": 0.98703,
    "h": 0.98847,
    "l": 0.98697,
    "c": 0.98839,
    "v": 2648
  },
  {
    "dt": "2023.03.27 16:00",
    "o": 0.98837,
    "h": 0.98885,
    "l": 0.98788,
    "c": 0.98841,
    "v": 2740
  },
  {
    "dt": "2023.03.27 17:00",
    "o": 0.98837,
    "h": 0.98858,
    "l": 0.98776,
    "c": 0.98792,
    "v": 2759
  },
  {
    "dt": "2023.03.27 18:00",
    "o": 0.98793,
    "h": 0.98875,
    "l": 0.98759,
    "c": 0.98856,
    "v": 2002
  },
  {
    "dt": "2023.03.27 19:00",
    "o": 0.98853,
    "h": 0.98903,
    "l": 0.98814,
    "c": 0.98859,
    "v": 1929
  },
  {
    "dt": "2023.03.27 20:00",
    "o": 0.98859,
    "h": 0.98928,
    "l": 0.98833,
    "c": 0.98928,
    "v": 1704
  },
  {
    "dt": "2023.03.27 21:00",
    "o": 0.98926,
    "h": 0.98964,
    "l": 0.98865,
    "c": 0.98881,
    "v": 1552
  },
  {
    "dt": "2023.03.27 22:00",
    "o": 0.98882,
    "h": 0.98921,
    "l": 0.98859,
    "c": 0.98873,
    "v": 1423
  },
  {
    "dt": "2023.03.27 23:00",
    "o": 0.98875,
    "h": 0.98906,
    "l": 0.98845,
    "c": 0.98851,
    "v": 821
  },
  {
    "dt": "2023.03.28 00:00",
    "o": 0.98867,
    "h": 0.98876,
    "l": 0.98829,
    "c": 0.98854,
    "v": 216
  },
  {
    "dt": "2023.03.28 01:00",
    "o": 0.98861,
    "h": 0.98883,
    "l": 0.98841,
    "c": 0.98853,
    "v": 2114
  },
  {
    "dt": "2023.03.28 02:00",
    "o": 0.98852,
    "h": 0.98915,
    "l": 0.98834,
    "c": 0.98884,
    "v": 1020
  },
  {
    "dt": "2023.03.28 03:00",
    "o": 0.98885,
    "h": 0.98919,
    "l": 0.98856,
    "c": 0.98911,
    "v": 1814
  },
  {
    "dt": "2023.03.28 04:00",
    "o": 0.98912,
    "h": 0.98939,
    "l": 0.98798,
    "c": 0.98857,
    "v": 2188
  },
  {
    "dt": "2023.03.28 05:00",
    "o": 0.98857,
    "h": 0.9887,
    "l": 0.98813,
    "c": 0.98832,
    "v": 1431
  },
  {
    "dt": "2023.03.28 06:00",
    "o": 0.98831,
    "h": 0.98852,
    "l": 0.98813,
    "c": 0.9884,
    "v": 1026
  },
  {
    "dt": "2023.03.28 07:00",
    "o": 0.98839,
    "h": 0.9884,
    "l": 0.9881,
    "c": 0.98834,
    "v": 1133
  },
  {
    "dt": "2023.03.28 08:00",
    "o": 0.98835,
    "h": 0.98888,
    "l": 0.98792,
    "c": 0.98865,
    "v": 1339
  },
  {
    "dt": "2023.03.28 09:00",
    "o": 0.98874,
    "h": 0.99204,
    "l": 0.98872,
    "c": 0.991,
    "v": 2354
  },
  {
    "dt": "2023.03.28 10:00",
    "o": 0.99105,
    "h": 0.99263,
    "l": 0.99105,
    "c": 0.9917,
    "v": 2923
  },
  {
    "dt": "2023.03.28 11:00",
    "o": 0.99173,
    "h": 0.99231,
    "l": 0.99139,
    "c": 0.99165,
    "v": 2333
  },
  {
    "dt": "2023.03.28 12:00",
    "o": 0.99167,
    "h": 0.99314,
    "l": 0.99155,
    "c": 0.99254,
    "v": 2342
  },
  {
    "dt": "2023.03.28 13:00",
    "o": 0.99252,
    "h": 0.99355,
    "l": 0.99202,
    "c": 0.99305,
    "v": 1862
  },
  {
    "dt": "2023.03.28 14:00",
    "o": 0.99306,
    "h": 0.99478,
    "l": 0.99271,
    "c": 0.99437,
    "v": 2223
  },
  {
    "dt": "2023.03.28 15:00",
    "o": 0.99436,
    "h": 0.99523,
    "l": 0.99421,
    "c": 0.99515,
    "v": 2615
  },
  {
    "dt": "2023.03.28 16:00",
    "o": 0.99513,
    "h": 0.99683,
    "l": 0.99469,
    "c": 0.9967,
    "v": 2785
  },
  {
    "dt": "2023.03.28 17:00",
    "o": 0.99673,
    "h": 0.99842,
    "l": 0.99639,
    "c": 0.99744,
    "v": 2941
  },
  {
    "dt": "2023.03.28 18:00",
    "o": 0.99741,
    "h": 0.99759,
    "l": 0.99632,
    "c": 0.99728,
    "v": 2490
  },
  {
    "dt": "2023.03.28 19:00",
    "o": 0.99732,
    "h": 0.99744,
    "l": 0.99671,
    "c": 0.99671,
    "v": 1776
  },
  {
    "dt": "2023.03.28 20:00",
    "o": 0.99671,
    "h": 0.99688,
    "l": 0.99635,
    "c": 0.99646,
    "v": 1739
  },
  {
    "dt": "2023.03.28 21:00",
    "o": 0.99641,
    "h": 0.99698,
    "l": 0.99633,
    "c": 0.99675,
    "v": 1507
  },
  {
    "dt": "2023.03.28 22:00",
    "o": 0.9968,
    "h": 0.99698,
    "l": 0.99646,
    "c": 0.99686,
    "v": 1235
  },
  {
    "dt": "2023.03.28 23:00",
    "o": 0.99686,
    "h": 0.99767,
    "l": 0.99683,
    "c": 0.99725,
    "v": 786
  },
  {
    "dt": "2023.03.29 00:00",
    "o": 0.99696,
    "h": 0.9973,
    "l": 0.99644,
    "c": 0.99725,
    "v": 350
  },
  {
    "dt": "2023.03.29 01:00",
    "o": 0.99718,
    "h": 0.99772,
    "l": 0.99707,
    "c": 0.99765,
    "v": 611
  },
  {
    "dt": "2023.03.29 02:00",
    "o": 0.99768,
    "h": 0.99791,
    "l": 0.99749,
    "c": 0.99755,
    "v": 890
  },
  {
    "dt": "2023.03.29 03:00",
    "o": 0.99757,
    "h": 0.99781,
    "l": 0.9972,
    "c": 0.9975,
    "v": 1941
  },
  {
    "dt": "2023.03.29 04:00",
    "o": 0.9975,
    "h": 0.99827,
    "l": 0.99748,
    "c": 0.99772,
    "v": 1597
  },
  {
    "dt": "2023.03.29 05:00",
    "o": 0.99772,
    "h": 0.99778,
    "l": 0.99717,
    "c": 0.99763,
    "v": 1497
  },
  {
    "dt": "2023.03.29 06:00",
    "o": 0.99761,
    "h": 0.99791,
    "l": 0.99748,
    "c": 0.99762,
    "v": 1336
  },
  {
    "dt": "2023.03.29 07:00",
    "o": 0.99763,
    "h": 0.99804,
    "l": 0.99731,
    "c": 0.99766,
    "v": 1206
  },
  {
    "dt": "2023.03.29 08:00",
    "o": 0.99768,
    "h": 0.99835,
    "l": 0.99768,
    "c": 0.99778,
    "v": 1400
  },
  {
    "dt": "2023.03.29 09:00",
    "o": 0.99783,
    "h": 0.99834,
    "l": 0.99743,
    "c": 0.99747,
    "v": 2284
  },
  {
    "dt": "2023.03.29 10:00",
    "o": 0.9975,
    "h": 0.99771,
    "l": 0.9962,
    "c": 0.9969,
    "v": 2479
  },
  {
    "dt": "2023.03.29 11:00",
    "o": 0.99691,
    "h": 0.99713,
    "l": 0.99582,
    "c": 0.99641,
    "v": 2671
  },
  {
    "dt": "2023.03.29 12:00",
    "o": 0.99636,
    "h": 0.99658,
    "l": 0.99458,
    "c": 0.99563,
    "v": 2647
  },
  {
    "dt": "2023.03.29 13:00",
    "o": 0.99563,
    "h": 0.99659,
    "l": 0.99537,
    "c": 0.99659,
    "v": 2454
  },
  {
    "dt": "2023.03.29 14:00",
    "o": 0.99661,
    "h": 0.99765,
    "l": 0.99654,
    "c": 0.99737,
    "v": 2321
  },
  {
    "dt": "2023.03.29 15:00",
    "o": 0.9974,
    "h": 0.99813,
    "l": 0.99693,
    "c": 0.99749,
    "v": 2696
  },
  {
    "dt": "2023.03.29 16:00",
    "o": 0.9975,
    "h": 0.99847,
    "l": 0.99681,
    "c": 0.99845,
    "v": 2824
  },
  {
    "dt": "2023.03.29 17:00",
    "o": 0.9984,
    "h": 0.99848,
    "l": 0.99582,
    "c": 0.996,
    "v": 3057
  },
  {
    "dt": "2023.03.29 18:00",
    "o": 0.99598,
    "h": 0.99617,
    "l": 0.99497,
    "c": 0.99537,
    "v": 2584
  },
  {
    "dt": "2023.03.29 19:00",
    "o": 0.9954,
    "h": 0.99682,
    "l": 0.99534,
    "c": 0.99665,
    "v": 1857
  },
  {
    "dt": "2023.03.29 20:00",
    "o": 0.99666,
    "h": 0.99671,
    "l": 0.99628,
    "c": 0.99647,
    "v": 1528
  },
  {
    "dt": "2023.03.29 21:00",
    "o": 0.99648,
    "h": 0.99658,
    "l": 0.9961,
    "c": 0.99647,
    "v": 1570
  },
  {
    "dt": "2023.03.29 22:00",
    "o": 0.99644,
    "h": 0.99659,
    "l": 0.99583,
    "c": 0.99596,
    "v": 1725
  },
  {
    "dt": "2023.03.29 23:00",
    "o": 0.99592,
    "h": 0.99609,
    "l": 0.9956,
    "c": 0.99574,
    "v": 838
  },
  {
    "dt": "2023.03.30 00:00",
    "o": 0.99651,
    "h": 0.99654,
    "l": 0.99538,
    "c": 0.99553,
    "v": 452
  },
  {
    "dt": "2023.03.30 01:00",
    "o": 0.99539,
    "h": 0.99604,
    "l": 0.99539,
    "c": 0.99569,
    "v": 1031
  },
  {
    "dt": "2023.03.30 02:00",
    "o": 0.9957,
    "h": 0.99585,
    "l": 0.99553,
    "c": 0.99554,
    "v": 1200
  },
  {
    "dt": "2023.03.30 03:00",
    "o": 0.99556,
    "h": 0.99632,
    "l": 0.99541,
    "c": 0.99619,
    "v": 1434
  },
  {
    "dt": "2023.03.30 04:00",
    "o": 0.99618,
    "h": 0.99626,
    "l": 0.99564,
    "c": 0.99568,
    "v": 1470
  },
  {
    "dt": "2023.03.30 05:00",
    "o": 0.99568,
    "h": 0.99593,
    "l": 0.99543,
    "c": 0.9959,
    "v": 952
  },
  {
    "dt": "2023.03.30 06:00",
    "o": 0.9959,
    "h": 0.99626,
    "l": 0.99576,
    "c": 0.99603,
    "v": 1007
  },
  {
    "dt": "2023.03.30 07:00",
    "o": 0.99603,
    "h": 0.99607,
    "l": 0.99565,
    "c": 0.99593,
    "v": 671
  },
  {
    "dt": "2023.03.30 08:00",
    "o": 0.99592,
    "h": 0.99603,
    "l": 0.99494,
    "c": 0.99504,
    "v": 1584
  },
  {
    "dt": "2023.03.30 09:00",
    "o": 0.99515,
    "h": 0.99527,
    "l": 0.99415,
    "c": 0.99467,
    "v": 2248
  },
  {
    "dt": "2023.03.30 10:00",
    "o": 0.99453,
    "h": 0.99537,
    "l": 0.99324,
    "c": 0.99529,
    "v": 3145
  },
  {
    "dt": "2023.03.30 11:00",
    "o": 0.99531,
    "h": 0.99647,
    "l": 0.9951,
    "c": 0.99605,
    "v": 2730
  },
  {
    "dt": "2023.03.30 12:00",
    "o": 0.99615,
    "h": 0.9964,
    "l": 0.99442,
    "c": 0.99462,
    "v": 2562
  },
  {
    "dt": "2023.03.30 13:00",
    "o": 0.99463,
    "h": 0.99553,
    "l": 0.99442,
    "c": 0.99535,
    "v": 2329
  },
  {
    "dt": "2023.03.30 14:00",
    "o": 0.99535,
    "h": 0.9955,
    "l": 0.99476,
    "c": 0.99525,
    "v": 2082
  },
  {
    "dt": "2023.03.30 15:00",
    "o": 0.99528,
    "h": 0.99684,
    "l": 0.99528,
    "c": 0.99614,
    "v": 3149
  },
  {
    "dt": "2023.03.30 16:00",
    "o": 0.99611,
    "h": 0.99787,
    "l": 0.99609,
    "c": 0.9974,
    "v": 3149
  },
  {
    "dt": "2023.03.30 17:00",
    "o": 0.99739,
    "h": 0.99792,
    "l": 0.99633,
    "c": 0.99635,
    "v": 2729
  },
  {
    "dt": "2023.03.30 18:00",
    "o": 0.99638,
    "h": 0.99656,
    "l": 0.99564,
    "c": 0.99614,
    "v": 2504
  },
  {
    "dt": "2023.03.30 19:00",
    "o": 0.99611,
    "h": 0.99671,
    "l": 0.99586,
    "c": 0.9965,
    "v": 1826
  },
  {
    "dt": "2023.03.30 20:00",
    "o": 0.99647,
    "h": 0.99653,
    "l": 0.99575,
    "c": 0.99605,
    "v": 1459
  },
  {
    "dt": "2023.03.30 21:00",
    "o": 0.99608,
    "h": 0.99668,
    "l": 0.99595,
    "c": 0.99644,
    "v": 1216
  },
  {
    "dt": "2023.03.30 22:00",
    "o": 0.99645,
    "h": 0.99688,
    "l": 0.99629,
    "c": 0.99678,
    "v": 1252
  },
  {
    "dt": "2023.03.30 23:00",
    "o": 0.99681,
    "h": 0.99709,
    "l": 0.99583,
    "c": 0.99596,
    "v": 934
  },
  {
    "dt": "2023.03.31 00:00",
    "o": 0.99549,
    "h": 0.99592,
    "l": 0.99499,
    "c": 0.99573,
    "v": 181
  },
  {
    "dt": "2023.03.31 01:00",
    "o": 0.99581,
    "h": 0.99602,
    "l": 0.9954,
    "c": 0.99581,
    "v": 1328
  },
  {
    "dt": "2023.03.31 02:00",
    "o": 0.99581,
    "h": 0.996,
    "l": 0.99565,
    "c": 0.99595,
    "v": 1098
  },
  {
    "dt": "2023.03.31 03:00",
    "o": 0.99595,
    "h": 0.99718,
    "l": 0.99593,
    "c": 0.99697,
    "v": 1728
  },
  {
    "dt": "2023.03.31 04:00",
    "o": 0.99689,
    "h": 0.99696,
    "l": 0.99606,
    "c": 0.99628,
    "v": 2289
  },
  {
    "dt": "2023.03.31 05:00",
    "o": 0.99628,
    "h": 0.99695,
    "l": 0.99626,
    "c": 0.99671,
    "v": 1486
  },
  {
    "dt": "2023.03.31 06:00",
    "o": 0.99672,
    "h": 0.99683,
    "l": 0.99621,
    "c": 0.99629,
    "v": 1398
  },
  {
    "dt": "2023.03.31 07:00",
    "o": 0.99628,
    "h": 0.99654,
    "l": 0.99625,
    "c": 0.99634,
    "v": 1034
  },
  {
    "dt": "2023.03.31 08:00",
    "o": 0.99636,
    "h": 0.99694,
    "l": 0.99603,
    "c": 0.9964,
    "v": 1561
  },
  {
    "dt": "2023.03.31 09:00",
    "o": 0.99636,
    "h": 0.99654,
    "l": 0.9956,
    "c": 0.99614,
    "v": 2240
  },
  {
    "dt": "2023.03.31 10:00",
    "o": 0.99616,
    "h": 0.99688,
    "l": 0.99488,
    "c": 0.99557,
    "v": 2841
  },
  {
    "dt": "2023.03.31 11:00",
    "o": 0.99559,
    "h": 0.99788,
    "l": 0.99469,
    "c": 0.99754,
    "v": 3065
  },
  {
    "dt": "2023.03.31 12:00",
    "o": 0.99755,
    "h": 0.99892,
    "l": 0.99631,
    "c": 0.99825,
    "v": 3078
  },
  {
    "dt": "2023.03.31 13:00",
    "o": 0.99832,
    "h": 0.99833,
    "l": 0.99681,
    "c": 0.997,
    "v": 2068
  },
  {
    "dt": "2023.03.31 14:00",
    "o": 0.99707,
    "h": 0.99779,
    "l": 0.99618,
    "c": 0.99629,
    "v": 2197
  },
  {
    "dt": "2023.03.31 15:00",
    "o": 0.99628,
    "h": 0.99727,
    "l": 0.99547,
    "c": 0.99558,
    "v": 2745
  },
  {
    "dt": "2023.03.31 16:00",
    "o": 0.99559,
    "h": 0.9958,
    "l": 0.99378,
    "c": 0.99432,
    "v": 2913
  },
  {
    "dt": "2023.03.31 17:00",
    "o": 0.99429,
    "h": 0.99454,
    "l": 0.99198,
    "c": 0.99266,
    "v": 3118
  },
  {
    "dt": "2023.03.31 18:00",
    "o": 0.99269,
    "h": 0.9928,
    "l": 0.99059,
    "c": 0.99242,
    "v": 2721
  },
  {
    "dt": "2023.03.31 19:00",
    "o": 0.99242,
    "h": 0.99373,
    "l": 0.99223,
    "c": 0.99318,
    "v": 1915
  },
  {
    "dt": "2023.03.31 20:00",
    "o": 0.99318,
    "h": 0.99324,
    "l": 0.9926,
    "c": 0.99273,
    "v": 1548
  },
  {
    "dt": "2023.03.31 21:00",
    "o": 0.99273,
    "h": 0.99296,
    "l": 0.9923,
    "c": 0.99236,
    "v": 1737
  },
  {
    "dt": "2023.03.31 22:00",
    "o": 0.99235,
    "h": 0.99304,
    "l": 0.99189,
    "c": 0.992,
    "v": 2120
  },
  {
    "dt": "2023.03.31 23:00",
    "o": 0.99199,
    "h": 0.99243,
    "l": 0.99149,
    "c": 0.99172,
    "v": 1277
  }
]