[
  {
    "dt": "2023.10.02 00:00",
    "o": 0.96656,
    "h": 0.96712,
    "l": 0.96656,
    "c": 0.96669,
    "v": 1016
  },
  {
    "dt": "2023.10.02 01:00",
    "o": 0.96675,
    "h": 0.96735,
    "l": 0.96651,
    "c": 0.96705,
    "v": 977
  },
  {
    "dt": "2023.10.02 02:00",
    "o": 0.96708,
    "h": 0.96722,
    "l": 0.9669,
    "c": 0.967,
    "v": 786
  },
  {
    "dt": "2023.10.02 03:00",
    "o": 0.967,
    "h": 0.96774,
    "l": 0.96699,
    "c": 0.96763,
    "v": 1370
  },
  {
    "dt": "2023.10.02 04:00",
    "o": 0.96762,
    "h": 0.96825,
    "l": 0.96756,
    "c": 0.96779,
    "v": 1500
  },
  {
    "dt": "2023.10.02 05:00",
    "o": 0.96778,
    "h": 0.96805,
    "l": 0.96765,
    "c": 0.9677,
    "v": 1125
  },
  {
    "dt": "2023.10.02 06:00",
    "o": 0.96771,
    "h": 0.9678,
    "l": 0.96716,
    "c": 0.96765,
    "v": 989
  },
  {
    "dt": "2023.10.02 07:00",
    "o": 0.96765,
    "h": 0.96782,
    "l": 0.96754,
    "c": 0.96779,
    "v": 823
  },
  {
    "dt": "2023.10.02 08:00",
    "o": 0.96779,
    "h": 0.96824,
    "l": 0.9671,
    "c": 0.96741,
    "v": 1600
  },
  {
    "dt": "2023.10.02 09:00",
    "o": 0.96739,
    "h": 0.96746,
    "l": 0.96586,
    "c": 0.96653,
    "v": 2627
  },
  {
    "dt": "2023.10.02 10:00",
    "o": 0.96652,
    "h": 0.96683,
    "l": 0.96371,
    "c": 0.9639,
    "v": 3552
  },
  {
    "dt": "2023.10.02 11:00",
    "o": 0.9639,
    "h": 0.96428,
    "l": 0.96259,
    "c": 0.9627,
    "v": 2823
  },
  {
    "dt": "2023.10.02 12:00",
    "o": 0.96269,
    "h": 0.96276,
    "l": 0.96144,
    "c": 0.96184,
    "v": 2291
  },
  {
    "dt": "2023.10.02 13:00",
    "o": 0.96184,
    "h": 0.96316,
    "l": 0.96153,
    "c": 0.96316,
    "v": 2027
  },
  {
    "dt": "2023.10.02 14:00",
    "o": 0.96316,
    "h": 0.96341,
    "l": 0.96254,
    "c": 0.96317,
    "v": 2418
  },
  {
    "dt": "2023.10.02 15:00",
    "o": 0.9632,
    "h": 0.9644,
    "l": 0.96317,
    "c": 0.96425,
    "v": 2894
  },
  {
    "dt": "2023.10.02 16:00",
    "o": 0.96426,
    "h": 0.96526,
    "l": 0.9638,
    "c": 0.96386,
    "v": 3216
  },
  {
    "dt": "2023.10.02 17:00",
    "o": 0.96378,
    "h": 0.96496,
    "l": 0.96373,
    "c": 0.96452,
    "v": 4122
  },
  {
    "dt": "2023.10.02 18:00",
    "o": 0.96453,
    "h": 0.96495,
    "l": 0.96336,
    "c": 0.96341,
    "v": 2592
  },
  {
    "dt": "2023.10.02 19:00",
    "o": 0.9634,
    "h": 0.96378,
    "l": 0.96328,
    "c": 0.96338,
    "v": 1808
  },
  {
    "dt": "2023.10.02 20:00",
    "o": 0.96338,
    "h": 0.96364,
    "l": 0.96292,
    "c": 0.96292,
    "v": 1479
  },
  {
    "dt": "2023.10.02 21:00",
    "o": 0.96291,
    "h": 0.96294,
    "l": 0.9621,
    "c": 0.96212,
    "v": 2128
  },
  {
    "dt": "2023.10.02 22:00",
    "o": 0.96211,
    "h": 0.96212,
    "l": 0.96148,
    "c": 0.96159,
    "v": 1569
  },
  {
    "dt": "2023.10.02 23:00",
    "o": 0.96158,
    "h": 0.96222,
    "l": 0.96158,
    "c": 0.96197,
    "v": 557
  },
  {
    "dt": "2023.10.03 00:00",
    "o": 0.9614,
    "h": 0.96203,
    "l": 0.9614,
    "c": 0.96178,
    "v": 1609
  },
  {
    "dt": "2023.10.03 01:00",
    "o": 0.96178,
    "h": 0.96204,
    "l": 0.96155,
    "c": 0.96179,
    "v": 1122
  },
  {
    "dt": "2023.10.03 02:00",
    "o": 0.9618,
    "h": 0.96208,
    "l": 0.96178,
    "c": 0.96194,
    "v": 720
  },
  {
    "dt": "2023.10.03 03:00",
    "o": 0.96194,
    "h": 0.96214,
    "l": 0.96167,
    "c": 0.96179,
    "v": 1465
  },
  {
    "dt": "2023.10.03 04:00",
    "o": 0.96179,
    "h": 0.96196,
    "l": 0.9617,
    "c": 0.9618,
    "v": 1340
  },
  {
    "dt": "2023.10.03 05:00",
    "o": 0.9618,
    "h": 0.96201,
    "l": 0.96166,
    "c": 0.96177,
    "v": 1211
  },
  {
    "dt": "2023.10.03 06:00",
    "o": 0.96176,
    "h": 0.96198,
    "l": 0.96157,
    "c": 0.96162,
    "v": 850
  },
  {
    "dt": "2023.10.03 07:00",
    "o": 0.96161,
    "h": 0.96186,
    "l": 0.96147,
    "c": 0.96185,
    "v": 1389
  },
  {
    "dt": "2023.10.03 08:00",
    "o": 0.9618,
    "h": 0.96232,
    "l": 0.9618,
    "c": 0.96226,
    "v": 1125
  },
  {
    "dt": "2023.10.03 09:00",
    "o": 0.96226,
    "h": 0.96435,
    "l": 0.96175,
    "c": 0.9629,
    "v": 2738
  },
  {
    "dt": "2023.10.03 10:00",
    "o": 0.96291,
    "h": 0.96612,
    "l": 0.96253,
    "c": 0.96565,
    "v": 3106
  },
  {
    "dt": "2023.10.03 11:00",
    "o": 0.96565,
    "h": 0.96596,
    "l": 0.9639,
    "c": 0.96439,
    "v": 3026
  },
  {
    "dt": "2023.10.03 12:00",
    "o": 0.96441,
    "h": 0.96648,
    "l": 0.96433,
    "c": 0.96584,
    "v": 2877
  },
  {
    "dt": "2023.10.03 13:00",
    "o": 0.96583,
    "h": 0.96747,
    "l": 0.96564,
    "c": 0.96667,
    "v": 2530
  },
  {
    "dt": "2023.10.03 14:00",
    "o": 0.96668,
    "h": 0.96718,
    "l": 0.96589,
    "c": 0.96596,
    "v": 2941
  },
  {
    "dt": "2023.10.03 15:00",
    "o": 0.96595,
    "h": 0.96611,
    "l": 0.96508,
    "c": 0.96523,
    "v": 2946
  },
  {
    "dt": "2023.10.03 16:00",
    "o": 0.96521,
    "h": 0.96568,
    "l": 0.96482,
    "c": 0.96556,
    "v": 2839
  },
  {
    "dt": "2023.10.03 17:00",
    "o": 0.96552,
    "h": 0.96606,
    "l": 0.96416,
    "c": 0.96472,
    "v": 4604
  },
  {
    "dt": "2023.10.03 18:00",
    "o": 0.96475,
    "h": 0.96502,
    "l": 0.96411,
    "c": 0.96431,
    "v": 2490
  },
  {
    "dt": "2023.10.03 19:00",
    "o": 0.96433,
    "h": 0.96499,
    "l": 0.96399,
    "c": 0.96404,
    "v": 1932
  },
  {
    "dt": "2023.10.03 20:00",
    "o": 0.96405,
    "h": 0.96426,
    "l": 0.96363,
    "c": 0.96415,
    "v": 1503
  },
  {
    "dt": "2023.10.03 21:00",
    "o": 0.96414,
    "h": 0.96464,
    "l": 0.96387,
    "c": 0.96458,
    "v": 1603
  },
  {
    "dt": "2023.10.03 22:00",
    "o": 0.96458,
    "h": 0.96484,
    "l": 0.96417,
    "c": 0.96417,
    "v": 1537
  },
  {
    "dt": "2023.10.03 23:00",
    "o": 0.9642,
    "h": 0.96433,
    "l": 0.96366,
    "c": 0.96379,
    "v": 907
  },
  {
    "dt": "2023.10.04 00:00",
    "o": 0.96432,
    "h": 0.96439,
    "l": 0.96338,
    "c": 0.96381,
    "v": 1923
  },
  {
    "dt": "2023.10.04 01:00",
    "o": 0.96378,
    "h": 0.96401,
    "l": 0.96318,
    "c": 0.96378,
    "v": 815
  },
  {
    "dt": "2023.10.04 02:00",
    "o": 0.96366,
    "h": 0.96416,
    "l": 0.96344,
    "c": 0.96415,
    "v": 762
  },
  {
    "dt": "2023.10.04 03:00",
    "o": 0.96415,
    "h": 0.9648,
    "l": 0.964,
    "c": 0.96435,
    "v": 1006
  },
  {
    "dt": "2023.10.04 04:00",
    "o": 0.96434,
    "h": 0.96468,
    "l": 0.9642,
    "c": 0.96458,
    "v": 1688
  },
  {
    "dt": "2023.10.04 05:00",
    "o": 0.96457,
    "h": 0.96462,
    "l": 0.96423,
    "c": 0.96441,
    "v": 1117
  },
  {
    "dt": "2023.10.04 06:00",
    "o": 0.96442,
    "h": 0.96468,
    "l": 0.96428,
    "c": 0.96463,
    "v": 1546
  },
  {
    "dt": "2023.10.04 07:00",
    "o": 0.96462,
    "h": 0.96484,
    "l": 0.96446,
    "c": 0.96459,
    "v": 1821
  },
  {
    "dt": "2023.10.04 08:00",
    "o": 0.9646,
    "h": 0.96514,
    "l": 0.96456,
    "c": 0.96501,
    "v": 1805
  },
  {
    "dt": "2023.10.04 09:00",
    "o": 0.96507,
    "h": 0.96516,
    "l": 0.96419,
    "c": 0.96443,
    "v": 2695
  },
  {
    "dt": "2023.10.04 10:00",
    "o": 0.9642,
    "h": 0.96426,
    "l": 0.96336,
    "c": 0.96414,
    "v": 3443
  },
  {
    "dt": "2023.10.04 11:00",
    "o": 0.96413,
    "h": 0.96515,
    "l": 0.96287,
    "c": 0.96321,
    "v": 3318
  },
  {
    "dt": "2023.10.04 12:00",
    "o": 0.96318,
    "h": 0.96484,
    "l": 0.96267,
    "c": 0.9642,
    "v": 2928
  },
  {
    "dt": "2023.10.04 13:00",
    "o": 0.96415,
    "h": 0.96531,
    "l": 0.96364,
    "c": 0.9652,
    "v": 2727
  },
  {
    "dt": "2023.10.04 14:00",
    "o": 0.96521,
    "h": 0.96525,
    "l": 0.96328,
    "c": 0.9634,
    "v": 2973
  },
  {
    "dt": "2023.10.04 15:00",
    "o": 0.96341,
    "h": 0.96368,
    "l": 0.96216,
    "c": 0.96306,
    "v": 4150
  },
  {
    "dt": "2023.10.04 16:00",
    "o": 0.96304,
    "h": 0.96312,
    "l": 0.96178,
    "c": 0.96251,
    "v": 3538
  },
  {
    "dt": "2023.10.04 17:00",
    "o": 0.96244,
    "h": 0.96452,
    "l": 0.9624,
    "c": 0.96441,
    "v": 4092
  },
  {
    "dt": "2023.10.04 18:00",
    "o": 0.96441,
    "h": 0.96459,
    "l": 0.96335,
    "c": 0.96346,
    "v": 3480
  },
  {
    "dt": "2023.10.04 19:00",
    "o": 0.96346,
    "h": 0.96348,
    "l": 0.96277,
    "c": 0.96286,
    "v": 1877
  },
  {
    "dt": "2023.10.04 20:00",
    "o": 0.96287,
    "h": 0.96318,
    "l": 0.96263,
    "c": 0.96296,
    "v": 1946
  },
  {
    "dt": "2023.10.04 21:00",
    "o": 0.96295,
    "h": 0.96338,
    "l": 0.96286,
    "c": 0.96305,
    "v": 1828
  },
  {
    "dt": "2023.10.04 22:00",
    "o": 0.96304,
    "h": 0.96343,
    "l": 0.96293,
    "c": 0.96303,
    "v": 1899
  },
  {
    "dt": "2023.10.04 23:00",
    "o": 0.963,
    "h": 0.9636,
    "l": 0.96291,
    "c": 0.96331,
    "v": 1219
  },
  {
    "dt": "2023.10.05 00:00",
    "o": 0.96308,
    "h": 0.96324,
    "l": 0.96288,
    "c": 0.963,
    "v": 959
  },
  {
    "dt": "2023.10.05 01:00",
    "o": 0.96296,
    "h": 0.96361,
    "l": 0.96296,
    "c": 0.96359,
    "v": 999
  },
  {
    "dt": "2023.10.05 02:00",
    "o": 0.96341,
    "h": 0.96342,
    "l": 0.96313,
    "c": 0.96315,
    "v": 503
  },
  {
    "dt": "2023.10.05 03:00",
    "o": 0.96314,
    "h": 0.9632,
    "l": 0.96247,
    "c": 0.96251,
    "v": 1447
  },
  {
    "dt": "2023.10.05 04:00",
    "o": 0.9625,
    "h": 0.96255,
    "l": 0.9618,
    "c": 0.96198,
    "v": 1995
  },
  {
    "dt": "2023.10.05 05:00",
    "o": 0.96199,
    "h": 0.96212,
    "l": 0.96166,
    "c": 0.96177,
    "v": 1351
  },
  {
    "dt": "2023.10.05 06:00",
    "o": 0.96175,
    "h": 0.96184,
    "l": 0.96157,
    "c": 0.96173,
    "v": 1439
  },
  {
    "dt": "2023.10.05 07:00",
    "o": 0.96174,
    "h": 0.9618,
    "l": 0.96152,
    "c": 0.96166,
    "v": 1414
  },
  {
    "dt": "2023.10.05 08:00",
    "o": 0.96166,
    "h": 0.96203,
    "l": 0.96164,
    "c": 0.96197,
    "v": 1684
  },
  {
    "dt": "2023.10.05 09:00",
    "o": 0.96196,
    "h": 0.96303,
    "l": 0.96161,
    "c": 0.96295,
    "v": 2604
  },
  {
    "dt": "2023.10.05 10:00",
    "o": 0.96297,
    "h": 0.96426,
    "l": 0.96281,
    "c": 0.96405,
    "v": 2912
  },
  {
    "dt": "2023.10.05 11:00",
    "o": 0.96406,
    "h": 0.96445,
    "l": 0.96365,
    "c": 0.96403,
    "v": 3378
  },
  {
    "dt": "2023.10.05 12:00",
    "o": 0.96404,
    "h": 0.96466,
    "l": 0.96361,
    "c": 0.96372,
    "v": 2917
  },
  {
    "dt": "2023.10.05 13:00",
    "o": 0.96373,
    "h": 0.96375,
    "l": 0.96309,
    "c": 0.96312,
    "v": 3036
  },
  {
    "dt": "2023.10.05 14:00",
    "o": 0.96312,
    "h": 0.96315,
    "l": 0.96214,
    "c": 0.96223,
    "v": 2927
  },
  {
    "dt": "2023.10.05 15:00",
    "o": 0.96225,
    "h": 0.96318,
    "l": 0.96207,
    "c": 0.96301,
    "v": 3549
  },
  {
    "dt": "2023.10.05 16:00",
    "o": 0.963,
    "h": 0.96367,
    "l": 0.96157,
    "c": 0.96161,
    "v": 3939
  },
  {
    "dt": "2023.10.05 17:00",
    "o": 0.96161,
    "h": 0.9627,
    "l": 0.96121,
    "c": 0.96242,
    "v": 3487
  },
  {
    "dt": "2023.10.05 18:00",
    "o": 0.96241,
    "h": 0.96258,
    "l": 0.96201,
    "c": 0.9622,
    "v": 3259
  },
  {
    "dt": "2023.10.05 19:00",
    "o": 0.96219,
    "h": 0.96266,
    "l": 0.96215,
    "c": 0.96252,
    "v": 2536
  },
  {
    "dt": "2023.10.05 20:00",
    "o": 0.96253,
    "h": 0.96298,
    "l": 0.96219,
    "c": 0.96256,
    "v": 2165
  },
  {
    "dt": "2023.10.05 21:00",
    "o": 0.96258,
    "h": 0.96313,
    "l": 0.96242,
    "c": 0.96311,
    "v": 1912
  },
  {
    "dt": "2023.10.05 22:00",
    "o": 0.9631,
    "h": 0.96312,
    "l": 0.96228,
    "c": 0.96232,
    "v": 2007
  },
  {
    "dt": "2023.10.05 23:00",
    "o": 0.96232,
    "h": 0.96266,
    "l": 0.96229,
    "c": 0.96246,
    "v": 717
  },
  {
    "dt": "2023.10.06 00:00",
    "o": 0.96238,
    "h": 0.96262,
    "l": 0.96218,
    "c": 0.96243,
    "v": 987
  },
  {
    "dt": "2023.10.06 01:00",
    "o": 0.96241,
    "h": 0.96258,
    "l": 0.96233,
    "c": 0.96252,
    "v": 1633
  },
  {
    "dt": "2023.10.06 02:00",
    "o": 0.96268,
    "h": 0.96268,
    "l": 0.96243,
    "c": 0.96253,
    "v": 1146
  },
  {
    "dt": "2023.10.06 03:00",
    "o": 0.96252,
    "h": 0.96284,
    "l": 0.96241,
    "c": 0.96259,
    "v": 1742
  },
  {
    "dt": "2023.10.06 04:00",
    "o": 0.9626,
    "h": 0.96263,
    "l": 0.96239,
    "c": 0.96256,
    "v": 1579
  },
  {
    "dt": "2023.10.06 05:00",
    "o": 0.96254,
    "h": 0.9628,
    "l": 0.96241,
    "c": 0.96268,
    "v": 1417
  },
  {
    "dt": "2023.10.06 06:00",
    "o": 0.96267,
    "h": 0.96294,
    "l": 0.96246,
    "c": 0.96272,
    "v": 1097
  },
  {
    "dt": "2023.10.06 07:00",
    "o": 0.96271,
    "h": 0.96298,
    "l": 0.96254,
    "c": 0.96277,
    "v": 940
  },
  {
    "dt": "2023.10.06 08:00",
    "o": 0.96276,
    "h": 0.96293,
    "l": 0.96268,
    "c": 0.96291,
    "v": 1105
  },
  {
    "dt": "2023.10.06 09:00",
    "o": 0.9629,
    "h": 0.96333,
    "l": 0.96254,
    "c": 0.96297,
    "v": 1793
  },
  {
    "dt": "2023.10.06 10:00",
    "o": 0.96297,
    "h": 0.96316,
    "l": 0.96216,
    "c": 0.96235,
    "v": 3193
  },
  {
    "dt": "2023.10.06 11:00",
    "o": 0.96236,
    "h": 0.9631,
    "l": 0.96215,
    "c": 0.96288,
    "v": 2573
  },
  {
    "dt": "2023.10.06 12:00",
    "o": 0.96288,
    "h": 0.9634,
    "l": 0.96267,
    "c": 0.96314,
    "v": 2569
  },
  {
    "dt": "2023.10.06 13:00",
    "o": 0.96313,
    "h": 0.96316,
    "l": 0.96258,
    "c": 0.96282,
    "v": 2445
  },
  {
    "dt": "2023.10.06 14:00",
    "o": 0.96282,
    "h": 0.96282,
    "l": 0.96193,
    "c": 0.9627,
    "v": 2387
  },
  {
    "dt": "2023.10.06 15:00",
    "o": 0.96269,
    "h": 0.96322,
    "l": 0.96116,
    "c": 0.96212,
    "v": 4540
  },
  {
    "dt": "2023.10.06 16:00",
    "o": 0.96214,
    "h": 0.96263,
    "l": 0.96124,
    "c": 0.96241,
    "v": 4494
  },
  {
    "dt": "2023.10.06 17:00",
    "o": 0.96238,
    "h": 0.9634,
    "l": 0.96196,
    "c": 0.96287,
    "v": 4351
  },
  {
    "dt": "2023.10.06 18:00",
    "o": 0.96286,
    "h": 0.963,
    "l": 0.96154,
    "c": 0.96219,
    "v": 3931
  },
  {
    "dt": "2023.10.06 19:00",
    "o": 0.96219,
    "h": 0.96302,
    "l": 0.96207,
    "c": 0.96274,
    "v": 2575
  },
  {
    "dt": "2023.10.06 20:00",
    "o": 0.96273,
    "h": 0.96363,
    "l": 0.96261,
    "c": 0.96359,
    "v": 1693
  },
  {
    "dt": "2023.10.06 21:00",
    "o": 0.96358,
    "h": 0.96368,
    "l": 0.96301,
    "c": 0.96313,
    "v": 1539
  },
  {
    "dt": "2023.10.06 22:00",
    "o": 0.96314,
    "h": 0.96356,
    "l": 0.96291,
    "c": 0.96306,
    "v": 1513
  },
  {
    "dt": "2023.10.06 23:00",
    "o": 0.96307,
    "h": 0.96317,
    "l": 0.9627,
    "c": 0.96287,
    "v": 870
  },
  {
    "dt": "2023.10.09 00:00",
    "o": 0.95919,
    "h": 0.96006,
    "l": 0.95896,
    "c": 0.95977,
    "v": 875
  },
  {
    "dt": "2023.10.09 01:00",
    "o": 0.95987,
    "h": 0.9605,
    "l": 0.95916,
    "c": 0.96012,
    "v": 2490
  },
  {
    "dt": "2023.10.09 02:00",
    "o": 0.95985,
    "h": 0.96052,
    "l": 0.95985,
    "c": 0.96035,
    "v": 1409
  },
  {
    "dt": "2023.10.09 03:00",
    "o": 0.96037,
    "h": 0.96079,
    "l": 0.95997,
    "c": 0.96003,
    "v": 1452
  },
  {
    "dt": "2023.10.09 04:00",
    "o": 0.96003,
    "h": 0.96063,
    "l": 0.9599,
    "c": 0.96057,
    "v": 1484
  },
  {
    "dt": "2023.10.09 05:00",
    "o": 0.96058,
    "h": 0.9607,
    "l": 0.96014,
    "c": 0.96031,
    "v": 1038
  },
  {
    "dt": "2023.10.09 06:00",
    "o": 0.96032,
    "h": 0.96066,
    "l": 0.96023,
    "c": 0.96028,
    "v": 782
  },
  {
    "dt": "2023.10.09 07:00",
    "o": 0.96028,
    "h": 0.9605,
    "l": 0.96018,
    "c": 0.96044,
    "v": 1232
  },
  {
    "dt": "2023.10.09 08:00",
    "o": 0.96046,
    "h": 0.96081,
    "l": 0.95996,
    "c": 0.95996,
    "v": 1483
  },
  {
    "dt": "2023.10.09 09:00",
    "o": 0.95994,
    "h": 0.96037,
    "l": 0.95973,
    "c": 0.96029,
    "v": 2509
  },
  {
    "dt": "2023.10.09 10:00",
    "o": 0.9603,
    "h": 0.9606,
    "l": 0.95927,
    "c": 0.9594,
    "v": 3158
  },
  {
    "dt": "2023.10.09 11:00",
    "o": 0.95941,
    "h": 0.96003,
    "l": 0.9589,
    "c": 0.9598,
    "v": 2420
  },
  {
    "dt": "2023.10.09 12:00",
    "o": 0.95978,
    "h": 0.96003,
    "l": 0.95897,
    "c": 0.95905,
    "v": 2336
  },
  {
    "dt": "2023.10.09 13:00",
    "o": 0.95905,
    "h": 0.95907,
    "l": 0.95781,
    "c": 0.95813,
    "v": 2025
  },
  {
    "dt": "2023.10.09 14:00",
    "o": 0.95812,
    "h": 0.95812,
    "l": 0.95708,
    "c": 0.95769,
    "v": 2022
  },
  {
    "dt": "2023.10.09 15:00",
    "o": 0.95772,
    "h": 0.95816,
    "l": 0.95688,
    "c": 0.957,
    "v": 2589
  },
  {
    "dt": "2023.10.09 16:00",
    "o": 0.957,
    "h": 0.95764,
    "l": 0.9563,
    "c": 0.95723,
    "v": 3397
  },
  {
    "dt": "2023.10.09 17:00",
    "o": 0.95723,
    "h": 0.95727,
    "l": 0.9558,
    "c": 0.95671,
    "v": 3153
  },
  {
    "dt": "2023.10.09 18:00",
    "o": 0.95672,
    "h": 0.95749,
    "l": 0.9565,
    "c": 0.95697,
    "v": 2472
  },
  {
    "dt": "2023.10.09 19:00",
    "o": 0.95698,
    "h": 0.95727,
    "l": 0.95663,
    "c": 0.95664,
    "v": 1902
  },
  {
    "dt": "2023.10.09 20:00",
    "o": 0.95663,
    "h": 0.95678,
    "l": 0.95624,
    "c": 0.95673,
    "v": 1529
  },
  {
    "dt": "2023.10.09 21:00",
    "o": 0.95673,
    "h": 0.95683,
    "l": 0.95654,
    "c": 0.95656,
    "v": 1011
  },
  {
    "dt": "2023.10.09 22:00",
    "o": 0.95658,
    "h": 0.95751,
    "l": 0.95637,
    "c": 0.95748,
    "v": 1546
  },
  {
    "dt": "2023.10.09 23:00",
    "o": 0.95748,
    "h": 0.95807,
    "l": 0.95715,
    "c": 0.95786,
    "v": 995
  },
  {
    "dt": "2023.10.10 00:00",
    "o": 0.95662,
    "h": 0.95793,
    "l": 0.95618,
    "c": 0.95753,
    "v": 1502
  },
  {
    "dt": "2023.10.10 01:00",
    "o": 0.95753,
    "h": 0.95763,
    "l": 0.95718,
    "c": 0.95744,
    "v": 626
  },
  {
    "dt": "2023.10.10 02:00",
    "o": 0.95718,
    "h": 0.95734,
    "l": 0.95702,
    "c": 0.95732,
    "v": 492
  },
  {
    "dt": "2023.10.10 03:00",
    "o": 0.95735,
    "h": 0.95748,
    "l": 0.95689,
    "c": 0.95721,
    "v": 2018
  },
  {
    "dt": "2023.10.10 04:00",
    "o": 0.95721,
    "h": 0.9574,
    "l": 0.95681,
    "c": 0.95726,
    "v": 2148
  },
  {
    "dt": "2023.10.10 05:00",
    "o": 0.95726,
    "h": 0.95733,
    "l": 0.95641,
    "c": 0.95643,
    "v": 1370
  },
  {
    "dt": "2023.10.10 06:00",
    "o": 0.95644,
    "h": 0.95653,
    "l": 0.95602,
    "c": 0.95634,
    "v": 1275
  },
  {
    "dt": "2023.10.10 07:00",
    "o": 0.95635,
    "h": 0.95719,
    "l": 0.95635,
    "c": 0.95701,
    "v": 1328
  },
  {
    "dt": "2023.10.10 08:00",
    "o": 0.95701,
    "h": 0.95759,
    "l": 0.95685,
    "c": 0.95702,
    "v": 1745
  },
  {
    "dt": "2023.10.10 09:00",
    "o": 0.95702,
    "h": 0.95742,
    "l": 0.95597,
    "c": 0.95676,
    "v": 3190
  },
  {
    "dt": "2023.10.10 10:00",
    "o": 0.95675,
    "h": 0.95791,
    "l": 0.9565,
    "c": 0.95737,
    "v": 2864
  },
  {
    "dt": "2023.10.10 11:00",
    "o": 0.95737,
    "h": 0.95889,
    "l": 0.95697,
    "c": 0.9587,
    "v": 3747
  },
  {
    "dt": "2023.10.10 12:00",
    "o": 0.95874,
    "h": 0.95913,
    "l": 0.95847,
    "c": 0.95865,
    "v": 3150
  },
  {
    "dt": "2023.10.10 13:00",
    "o": 0.95861,
    "h": 0.95905,
    "l": 0.95844,
    "c": 0.95871,
    "v": 2705
  },
  {
    "dt": "2023.10.10 14:00",
    "o": 0.95871,
    "h": 0.95962,
    "l": 0.95868,
    "c": 0.95897,
    "v": 2787
  },
  {
    "dt": "2023.10.10 15:00",
    "o": 0.95908,
    "h": 0.96101,
    "l": 0.9586,
    "c": 0.9606,
    "v": 3520
  },
  {
    "dt": "2023.10.10 16:00",
    "o": 0.96063,
    "h": 0.96137,
    "l": 0.95975,
    "c": 0.95985,
    "v": 2970
  },
  {
    "dt": "2023.10.10 17:00",
    "o": 0.95985,
    "h": 0.96036,
    "l": 0.95948,
    "c": 0.95961,
    "v": 3085
  },
  {
    "dt": "2023.10.10 18:00",
    "o": 0.9596,
    "h": 0.95985,
    "l": 0.95921,
    "c": 0.95966,
    "v": 2452
  },
  {
    "dt": "2023.10.10 19:00",
    "o": 0.95967,
    "h": 0.95981,
    "l": 0.95949,
    "c": 0.95963,
    "v": 2091
  },
  {
    "dt": "2023.10.10 20:00",
    "o": 0.95964,
    "h": 0.95972,
    "l": 0.95895,
    "c": 0.95911,
    "v": 2317
  },
  {
    "dt": "2023.10.10 21:00",
    "o": 0.95911,
    "h": 0.95923,
    "l": 0.95887,
    "c": 0.95898,
    "v": 1510
  },
  {
    "dt": "2023.10.10 22:00",
    "o": 0.95897,
    "h": 0.95936,
    "l": 0.95879,
    "c": 0.95931,
    "v": 1638
  },
  {
    "dt": "2023.10.10 23:00",
    "o": 0.95932,
    "h": 0.9595,
    "l": 0.95901,
    "c": 0.95925,
    "v": 846
  },
  {
    "dt": "2023.10.11 00:00",
    "o": 0.95941,
    "h": 0.95966,
    "l": 0.95871,
    "c": 0.95902,
    "v": 443
  },
  {
    "dt": "2023.10.11 01:00",
    "o": 0.95889,
    "h": 0.95943,
    "l": 0.95889,
    "c": 0.9593,
    "v": 500
  },
  {
    "dt": "2023.10.11 02:00",
    "o": 0.95917,
    "h": 0.95935,
    "l": 0.95909,
    "c": 0.95916,
    "v": 914
  },
  {
    "dt": "2023.10.11 03:00",
    "o": 0.95915,
    "h": 0.95954,
    "l": 0.95897,
    "c": 0.95933,
    "v": 1305
  },
  {
    "dt": "2023.10.11 04:00",
    "o": 0.95932,
    "h": 0.95934,
    "l": 0.95893,
    "c": 0.95912,
    "v": 1468
  },
  {
    "dt": "2023.10.11 05:00",
    "o": 0.95912,
    "h": 0.9593,
    "l": 0.95884,
    "c": 0.95897,
    "v": 1212
  },
  {
    "dt": "2023.10.11 06:00",
    "o": 0.95898,
    "h": 0.95903,
    "l": 0.95879,
    "c": 0.95891,
    "v": 1032
  },
  {
    "dt": "2023.10.11 07:00",
    "o": 0.95891,
    "h": 0.95963,
    "l": 0.95874,
    "c": 0.9594,
    "v": 1034
  },
  {
    "dt": "2023.10.11 08:00",
    "o": 0.95939,
    "h": 0.95974,
    "l": 0.95931,
    "c": 0.95945,
    "v": 1571
  },
  {
    "dt": "2023.10.11 09:00",
    "o": 0.95943,
    "h": 0.96005,
    "l": 0.95904,
    "c": 0.9594,
    "v": 2569
  },
  {
    "dt": "2023.10.11 10:00",
    "o": 0.95942,
    "h": 0.96004,
    "l": 0.95825,
    "c": 0.95841,
    "v": 3970
  },
  {
    "dt": "2023.10.11 11:00",
    "o": 0.9584,
    "h": 0.9586,
    "l": 0.95735,
    "c": 0.95756,
    "v": 3537
  },
  {
    "dt": "2023.10.11 12:00",
    "o": 0.95757,
    "h": 0.95782,
    "l": 0.95717,
    "c": 0.95722,
    "v": 2642
  },
  {
    "dt": "2023.10.11 13:00",
    "o": 0.95723,
    "h": 0.95788,
    "l": 0.95689,
    "c": 0.95718,
    "v": 2387
  },
  {
    "dt": "2023.10.11 14:00",
    "o": 0.95719,
    "h": 0.95787,
    "l": 0.95688,
    "c": 0.95786,
    "v": 2911
  },
  {
    "dt": "2023.10.11 15:00",
    "o": 0.95785,
    "h": 0.95792,
    "l": 0.95656,
    "c": 0.95729,
    "v": 3678
  },
  {
    "dt": "2023.10.11 16:00",
    "o": 0.95728,
    "h": 0.95765,
    "l": 0.95626,
    "c": 0.95751,
    "v": 3527
  },
  {
    "dt": "2023.10.11 17:00",
    "o": 0.95753,
    "h": 0.95866,
    "l": 0.95718,
    "c": 0.95853,
    "v": 3056
  },
  {
    "dt": "2023.10.11 18:00",
    "o": 0.95856,
    "h": 0.95869,
    "l": 0.9577,
    "c": 0.95783,
    "v": 2702
  },
  {
    "dt": "2023.10.11 19:00",
    "o": 0.95782,
    "h": 0.95791,
    "l": 0.95724,
    "c": 0.95747,
    "v": 1892
  },
  {
    "dt": "2023.10.11 20:00",
    "o": 0.95744,
    "h": 0.95787,
    "l": 0.95723,
    "c": 0.95738,
    "v": 2151
  },
  {
    "dt": "2023.10.11 21:00",
    "o": 0.95738,
    "h": 0.95771,
    "l": 0.95734,
    "c": 0.9575,
    "v": 2027
  },
  {
    "dt": "2023.10.11 22:00",
    "o": 0.95751,
    "h": 0.95775,
    "l": 0.95742,
    "c": 0.9575,
    "v": 1301
  },
  {
    "dt": "2023.10.11 23:00",
    "o": 0.9575,
    "h": 0.95775,
    "l": 0.95741,
    "c": 0.95767,
    "v": 652
  },
  {
    "dt": "2023.10.12 00:00",
    "o": 0.95665,
    "h": 0.95769,
    "l": 0.95665,
    "c": 0.95731,
    "v": 1514
  },
  {
    "dt": "2023.10.12 01:00",
    "o": 0.95735,
    "h": 0.95771,
    "l": 0.95715,
    "c": 0.95743,
    "v": 633
  },
  {
    "dt": "2023.10.12 02:00",
    "o": 0.95736,
    "h": 0.9575,
    "l": 0.95712,
    "c": 0.95716,
    "v": 659
  },
  {
    "dt": "2023.10.12 03:00",
    "o": 0.95715,
    "h": 0.9575,
    "l": 0.95687,
    "c": 0.95713,
    "v": 1535
  },
  {
    "dt": "2023.10.12 04:00",
    "o": 0.95712,
    "h": 0.95712,
    "l": 0.95647,
    "c": 0.95662,
    "v": 1533
  },
  {
    "dt": "2023.10.12 05:00",
    "o": 0.95661,
    "h": 0.9572,
    "l": 0.95657,
    "c": 0.95702,
    "v": 1430
  },
  {
    "dt": "2023.10.12 06:00",
    "o": 0.95701,
    "h": 0.95703,
    "l": 0.95664,
    "c": 0.95698,
    "v": 900
  },
  {
    "dt": "2023.10.12 07:00",
    "o": 0.95697,
    "h": 0.95739,
    "l": 0.9569,
    "c": 0.9573,
    "v": 1092
  },
  {
    "dt": "2023.10.12 08:00",
    "o": 0.95729,
    "h": 0.95742,
    "l": 0.95699,
    "c": 0.95701,
    "v": 1119
  },
  {
    "dt": "2023.10.12 09:00",
    "o": 0.95702,
    "h": 0.95711,
    "l": 0.95597,
    "c": 0.95642,
    "v": 2581
  },
  {
    "dt": "2023.10.12 10:00",
    "o": 0.95641,
    "h": 0.95754,
    "l": 0.95616,
    "c": 0.95726,
    "v": 3061
  },
  {
    "dt": "2023.10.12 11:00",
    "o": 0.95726,
    "h": 0.95726,
    "l": 0.95599,
    "c": 0.95626,
    "v": 2808
  },
  {
    "dt": "2023.10.12 12:00",
    "o": 0.95628,
    "h": 0.95673,
    "l": 0.95531,
    "c": 0.95549,
    "v": 2321
  },
  {
    "dt": "2023.10.12 13:00",
    "o": 0.9555,
    "h": 0.9559,
    "l": 0.95516,
    "c": 0.95586,
    "v": 1794
  },
  {
    "dt": "2023.10.12 14:00",
    "o": 0.95585,
    "h": 0.95639,
    "l": 0.95563,
    "c": 0.95583,
    "v": 2368
  },
  {
    "dt": "2023.10.12 15:00",
    "o": 0.95582,
    "h": 0.95722,
    "l": 0.95519,
    "c": 0.95519,
    "v": 5094
  },
  {
    "dt": "2023.10.12 16:00",
    "o": 0.95524,
    "h": 0.95548,
    "l": 0.95436,
    "c": 0.95497,
    "v": 4448
  },
  {
    "dt": "2023.10.12 17:00",
    "o": 0.95498,
    "h": 0.95664,
    "l": 0.95471,
    "c": 0.95646,
    "v": 3962
  },
  {
    "dt": "2023.10.12 18:00",
    "o": 0.95646,
    "h": 0.95684,
    "l": 0.95602,
    "c": 0.95642,
    "v": 3117
  },
  {
    "dt": "2023.10.12 19:00",
    "o": 0.95641,
    "h": 0.95671,
    "l": 0.9561,
    "c": 0.95666,
    "v": 2055
  },
  {
    "dt": "2023.10.12 20:00",
    "o": 0.95666,
    "h": 0.95704,
    "l": 0.95661,
    "c": 0.95678,
    "v": 2636
  },
  {
    "dt": "2023.10.12 21:00",
    "o": 0.95678,
    "h": 0.95682,
    "l": 0.9562,
    "c": 0.95639,
    "v": 1854
  },
  {
    "dt": "2023.10.12 22:00",
    "o": 0.9564,
    "h": 0.95665,
    "l": 0.95627,
    "c": 0.95633,
    "v": 1585
  },
  {
    "dt": "2023.10.12 23:00",
    "o": 0.95634,
    "h": 0.9566,
    "l": 0.95616,
    "c": 0.95619,
    "v": 651
  },
  {
    "dt": "2023.10.13 00:00",
    "o": 0.95608,
    "h": 0.95646,
    "l": 0.95517,
    "c": 0.95591,
    "v": 1200
  },
  {
    "dt": "2023.10.13 01:00",
    "o": 0.95593,
    "h": 0.95646,
    "l": 0.95593,
    "c": 0.95616,
    "v": 843
  },
  {
    "dt": "2023.10.13 02:00",
    "o": 0.95616,
    "h": 0.9565,
    "l": 0.9561,
    "c": 0.95641,
    "v": 774
  },
  {
    "dt": "2023.10.13 03:00",
    "o": 0.95643,
    "h": 0.95646,
    "l": 0.9559,
    "c": 0.95604,
    "v": 1407
  },
  {
    "dt": "2023.10.13 04:00",
    "o": 0.95602,
    "h": 0.95645,
    "l": 0.95586,
    "c": 0.95637,
    "v": 1779
  },
  {
    "dt": "2023.10.13 05:00",
    "o": 0.95638,
    "h": 0.95641,
    "l": 0.9561,
    "c": 0.95632,
    "v": 1369
  },
  {
    "dt": "2023.10.13 06:00",
    "o": 0.95632,
    "h": 0.95653,
    "l": 0.95625,
    "c": 0.95641,
    "v": 1460
  },
  {
    "dt": "2023.10.13 07:00",
    "o": 0.95641,
    "h": 0.9565,
    "l": 0.9562,
    "c": 0.95628,
    "v": 1334
  },
  {
    "dt": "2023.10.13 08:00",
    "o": 0.95626,
    "h": 0.95661,
    "l": 0.9559,
    "c": 0.95633,
    "v": 1843
  },
  {
    "dt": "2023.10.13 09:00",
    "o": 0.95633,
    "h": 0.95681,
    "l": 0.95617,
    "c": 0.95641,
    "v": 2585
  },
  {
    "dt": "2023.10.13 10:00",
    "o": 0.9564,
    "h": 0.95651,
    "l": 0.95558,
    "c": 0.95639,
    "v": 3171
  },
  {
    "dt": "2023.10.13 11:00",
    "o": 0.95639,
    "h": 0.95717,
    "l": 0.95607,
    "c": 0.95666,
    "v": 3359
  },
  {
    "dt": "2023.10.13 12:00",
    "o": 0.95665,
    "h": 0.95696,
    "l": 0.95551,
    "c": 0.95556,
    "v": 2939
  },
  {
    "dt": "2023.10.13 13:00",
    "o": 0.95554,
    "h": 0.95555,
    "l": 0.95473,
    "c": 0.95523,
    "v": 2504
  },
  {
    "dt": "2023.10.13 14:00",
    "o": 0.95519,
    "h": 0.95531,
    "l": 0.95461,
    "c": 0.95476,
    "v": 2605
  },
  {
    "dt": "2023.10.13 15:00",
    "o": 0.95479,
    "h": 0.95479,
    "l": 0.95382,
    "c": 0.95385,
    "v": 3413
  },
  {
    "dt": "2023.10.13 16:00",
    "o": 0.95384,
    "h": 0.95391,
    "l": 0.95216,
    "c": 0.95279,
    "v": 3249
  },
  {
    "dt": "2023.10.13 17:00",
    "o": 0.9528,
    "h": 0.95288,
    "l": 0.94991,
    "c": 0.95026,
    "v": 4447
  },
  {
    "dt": "2023.10.13 18:00",
    "o": 0.95025,
    "h": 0.95034,
    "l": 0.94688,
    "c": 0.94688,
    "v": 3069
  },
  {
    "dt": "2023.10.13 19:00",
    "o": 0.94689,
    "h": 0.94786,
    "l": 0.94646,
    "c": 0.94707,
    "v": 2389
  },
  {
    "dt": "2023.10.13 20:00",
    "o": 0.94707,
    "h": 0.94709,
    "l": 0.9456,
    "c": 0.94661,
    "v": 2173
  },
  {
    "dt": "2023.10.13 21:00",
    "o": 0.9466,
    "h": 0.94797,
    "l": 0.94637,
    "c": 0.94744,
    "v": 2159
  },
  {
    "dt": "2023.10.13 22:00",
    "o": 0.94741,
    "h": 0.94798,
    "l": 0.94697,
    "c": 0.94798,
    "v": 2464
  },
  {
    "dt": "2023.10.13 23:00",
    "o": 0.948,
    "h": 0.94828,
    "l": 0.94775,
    "c": 0.94802,
    "v": 1228
  },
  {
    "dt": "2023.10.16 00:00",
    "o": 0.9477,
    "h": 0.94832,
    "l": 0.94699,
    "c": 0.94807,
    "v": 928
  },
  {
    "dt": "2023.10.16 01:00",
    "o": 0.94767,
    "h": 0.95007,
    "l": 0.94767,
    "c": 0.94921,
    "v": 1223
  },
  {
    "dt": "2023.10.16 02:00",
    "o": 0.94953,
    "h": 0.94953,
    "l": 0.94919,
    "c": 0.94944,
    "v": 881
  },
  {
    "dt": "2023.10.16 03:00",
    "o": 0.94945,
    "h": 0.94951,
    "l": 0.94854,
    "c": 0.94898,
    "v": 1655
  },
  {
    "dt": "2023.10.16 04:00",
    "o": 0.94898,
    "h": 0.94923,
    "l": 0.94876,
    "c": 0.94877,
    "v": 1307
  },
  {
    "dt": "2023.10.16 05:00",
    "o": 0.94875,
    "h": 0.94913,
    "l": 0.94861,
    "c": 0.9487,
    "v": 1068
  },
  {
    "dt": "2023.10.16 06:00",
    "o": 0.9487,
    "h": 0.94897,
    "l": 0.9487,
    "c": 0.94887,
    "v": 941
  },
  {
    "dt": "2023.10.16 07:00",
    "o": 0.94886,
    "h": 0.94897,
    "l": 0.94862,
    "c": 0.94884,
    "v": 1032
  },
  {
    "dt": "2023.10.16 08:00",
    "o": 0.94885,
    "h": 0.94944,
    "l": 0.94864,
    "c": 0.94942,
    "v": 1339
  },
  {
    "dt": "2023.10.16 09:00",
    "o": 0.94944,
    "h": 0.95105,
    "l": 0.94914,
    "c": 0.95078,
    "v": 2727
  },
  {
    "dt": "2023.10.16 10:00",
    "o": 0.95077,
    "h": 0.95185,
    "l": 0.95001,
    "c": 0.95151,
    "v": 3100
  },
  {
    "dt": "2023.10.16 11:00",
    "o": 0.95151,
    "h": 0.95218,
    "l": 0.95073,
    "c": 0.95146,
    "v": 2588
  },
  {
    "dt": "2023.10.16 12:00",
    "o": 0.95144,
    "h": 0.95174,
    "l": 0.95052,
    "c": 0.95066,
    "v": 2253
  },
  {
    "dt": "2023.10.16 13:00",
    "o": 0.95069,
    "h": 0.95112,
    "l": 0.95042,
    "c": 0.95092,
    "v": 1923
  },
  {
    "dt": "2023.10.16 14:00",
    "o": 0.95091,
    "h": 0.95092,
    "l": 0.95015,
    "c": 0.95037,
    "v": 2111
  },
  {
    "dt": "2023.10.16 15:00",
    "o": 0.95037,
    "h": 0.95057,
    "l": 0.9489,
    "c": 0.94981,
    "v": 2958
  },
  {
    "dt": "2023.10.16 16:00",
    "o": 0.94982,
    "h": 0.95108,
    "l": 0.94982,
    "c": 0.95057,
    "v": 2971
  },
  {
    "dt": "2023.10.16 17:00",
    "o": 0.95058,
    "h": 0.95117,
    "l": 0.95034,
    "c": 0.9509,
    "v": 2744
  },
  {
    "dt": "2023.10.16 18:00",
    "o": 0.9509,
    "h": 0.95111,
    "l": 0.94966,
    "c": 0.94969,
    "v": 2079
  },
  {
    "dt": "2023.10.16 19:00",
    "o": 0.9497,
    "h": 0.94985,
    "l": 0.9492,
    "c": 0.94978,
    "v": 1353
  },
  {
    "dt": "2023.10.16 20:00",
    "o": 0.94981,
    "h": 0.95001,
    "l": 0.94962,
    "c": 0.94963,
    "v": 1215
  },
  {
    "dt": "2023.10.16 21:00",
    "o": 0.94964,
    "h": 0.95006,
    "l": 0.94941,
    "c": 0.95001,
    "v": 1394
  },
  {
    "dt": "2023.10.16 22:00",
    "o": 0.95002,
    "h": 0.95036,
    "l": 0.94993,
    "c": 0.95022,
    "v": 1338
  },
  {
    "dt": "2023.10.16 23:00",
    "o": 0.95021,
    "h": 0.95051,
    "l": 0.95,
    "c": 0.95037,
    "v": 448
  },
  {
    "dt": "2023.10.17 00:00",
    "o": 0.94954,
    "h": 0.95057,
    "l": 0.94953,
    "c": 0.95013,
    "v": 2834
  },
  {
    "dt": "2023.10.17 01:00",
    "o": 0.94986,
    "h": 0.95055,
    "l": 0.94986,
    "c": 0.95024,
    "v": 416
  },
  {
    "dt": "2023.10.17 02:00",
    "o": 0.95034,
    "h": 0.95036,
    "l": 0.95019,
    "c": 0.95031,
    "v": 611
  },
  {
    "dt": "2023.10.17 03:00",
    "o": 0.95031,
    "h": 0.95043,
    "l": 0.95013,
    "c": 0.95017,
    "v": 1171
  },
  {
    "dt": "2023.10.17 04:00",
    "o": 0.95018,
    "h": 0.95052,
    "l": 0.95015,
    "c": 0.9504,
    "v": 1093
  },
  {
    "dt": "2023.10.17 05:00",
    "o": 0.95041,
    "h": 0.95041,
    "l": 0.95008,
    "c": 0.95019,
    "v": 1046
  },
  {
    "dt": "2023.10.17 06:00",
    "o": 0.9502,
    "h": 0.95042,
    "l": 0.95012,
    "c": 0.95018,
    "v": 845
  },
  {
    "dt": "2023.10.17 07:00",
    "o": 0.95019,
    "h": 0.95049,
    "l": 0.95009,
    "c": 0.9504,
    "v": 713
  },
  {
    "dt": "2023.10.17 08:00",
    "o": 0.95039,
    "h": 0.95077,
    "l": 0.95035,
    "c": 0.95053,
    "v": 1272
  },
  {
    "dt": "2023.10.17 09:00",
    "o": 0.95052,
    "h": 0.95053,
    "l": 0.94979,
    "c": 0.95025,
    "v": 2090
  },
  {
    "dt": "2023.10.17 10:00",
    "o": 0.95022,
    "h": 0.95134,
    "l": 0.95013,
    "c": 0.95127,
    "v": 2810
  },
  {
    "dt": "2023.10.17 11:00",
    "o": 0.95128,
    "h": 0.95137,
    "l": 0.95022,
    "c": 0.95087,
    "v": 2286
  },
  {
    "dt": "2023.10.17 12:00",
    "o": 0.95086,
    "h": 0.95169,
    "l": 0.95078,
    "c": 0.95146,
    "v": 2259
  },
  {
    "dt": "2023.10.17 13:00",
    "o": 0.9515,
    "h": 0.95164,
    "l": 0.9505,
    "c": 0.95075,
    "v": 2477
  },
  {
    "dt": "2023.10.17 14:00",
    "o": 0.95076,
    "h": 0.95167,
    "l": 0.95076,
    "c": 0.95151,
    "v": 2228
  },
  {
    "dt": "2023.10.17 15:00",
    "o": 0.95152,
    "h": 0.95181,
    "l": 0.95078,
    "c": 0.95156,
    "v": 3206
  },
  {
    "dt": "2023.10.17 16:00",
    "o": 0.95155,
    "h": 0.9518,
    "l": 0.95092,
    "c": 0.95151,
    "v": 3450
  },
  {
    "dt": "2023.10.17 17:00",
    "o": 0.95153,
    "h": 0.95262,
    "l": 0.95152,
    "c": 0.95213,
    "v": 3528
  },
  {
    "dt": "2023.10.17 18:00",
    "o": 0.95214,
    "h": 0.95292,
    "l": 0.95179,
    "c": 0.95279,
    "v": 2727
  },
  {
    "dt": "2023.10.17 19:00",
    "o": 0.95278,
    "h": 0.9533,
    "l": 0.95265,
    "c": 0.95279,
    "v": 2093
  },
  {
    "dt": "2023.10.17 20:00",
    "o": 0.95279,
    "h": 0.95285,
    "l": 0.95162,
    "c": 0.95216,
    "v": 1771
  },
  {
    "dt": "2023.10.17 21:00",
    "o": 0.95215,
    "h": 0.95217,
    "l": 0.95163,
    "c": 0.95169,
    "v": 1322
  },
  {
    "dt": "2023.10.17 22:00",
    "o": 0.95169,
    "h": 0.95201,
    "l": 0.95169,
    "c": 0.95199,
    "v": 1391
  },
  {
    "dt": "2023.10.17 23:00",
    "o": 0.952,
    "h": 0.95229,
    "l": 0.95192,
    "c": 0.95193,
    "v": 461
  },
  {
    "dt": "2023.10.18 00:00",
    "o": 0.95155,
    "h": 0.95234,
    "l": 0.95115,
    "c": 0.95173,
    "v": 992
  },
  {
    "dt": "2023.10.18 01:00",
    "o": 0.95192,
    "h": 0.95212,
    "l": 0.95167,
    "c": 0.95174,
    "v": 441
  },
  {
    "dt": "2023.10.18 02:00",
    "o": 0.95177,
    "h": 0.95178,
    "l": 0.95149,
    "c": 0.95162,
    "v": 1131
  },
  {
    "dt": "2023.10.18 03:00",
    "o": 0.95161,
    "h": 0.95185,
    "l": 0.95123,
    "c": 0.95131,
    "v": 1278
  },
  {
    "dt": "2023.10.18 04:00",
    "o": 0.95132,
    "h": 0.95141,
    "l": 0.95042,
    "c": 0.95052,
    "v": 1633
  },
  {
    "dt": "2023.10.18 05:00",
    "o": 0.95055,
    "h": 0.95119,
    "l": 0.95044,
    "c": 0.95117,
    "v": 1324
  },
  {
    "dt": "2023.10.18 06:00",
    "o": 0.95117,
    "h": 0.95122,
    "l": 0.95078,
    "c": 0.95079,
    "v": 1101
  },
  {
    "dt": "2023.10.18 07:00",
    "o": 0.95078,
    "h": 0.9511,
    "l": 0.9507,
    "c": 0.9509,
    "v": 1284
  },
  {
    "dt": "2023.10.18 08:00",
    "o": 0.95091,
    "h": 0.95134,
    "l": 0.9507,
    "c": 0.95126,
    "v": 1398
  },
  {
    "dt": "2023.10.18 09:00",
    "o": 0.95125,
    "h": 0.95147,
    "l": 0.95036,
    "c": 0.95072,
    "v": 2876
  },
  {
    "dt": "2023.10.18 10:00",
    "o": 0.95073,
    "h": 0.95136,
    "l": 0.95036,
    "c": 0.95119,
    "v": 3549
  },
  {
    "dt": "2023.10.18 11:00",
    "o": 0.95119,
    "h": 0.95185,
    "l": 0.95095,
    "c": 0.95139,
    "v": 2888
  },
  {
    "dt": "2023.10.18 12:00",
    "o": 0.95137,
    "h": 0.95139,
    "l": 0.94914,
    "c": 0.94914,
    "v": 2907
  },
  {
    "dt": "2023.10.18 13:00",
    "o": 0.94913,
    "h": 0.94991,
    "l": 0.94902,
    "c": 0.94915,
    "v": 3139
  },
  {
    "dt": "2023.10.18 14:00",
    "o": 0.94916,
    "h": 0.94962,
    "l": 0.94877,
    "c": 0.94924,
    "v": 2651
  },
  {
    "dt": "2023.10.18 15:00",
    "o": 0.94925,
    "h": 0.94943,
    "l": 0.94818,
    "c": 0.94863,
    "v": 3665
  },
  {
    "dt": "2023.10.18 16:00",
    "o": 0.94862,
    "h": 0.94913,
    "l": 0.94592,
    "c": 0.94635,
    "v": 3719
  },
  {
    "dt": "2023.10.18 17:00",
    "o": 0.94636,
    "h": 0.94757,
    "l": 0.94483,
    "c": 0.94623,
    "v": 4411
  },
  {
    "dt": "2023.10.18 18:00",
    "o": 0.94623,
    "h": 0.94693,
    "l": 0.94591,
    "c": 0.94626,
    "v": 3422
  },
  {
    "dt": "2023.10.18 19:00",
    "o": 0.94626,
    "h": 0.94675,
    "l": 0.94547,
    "c": 0.9466,
    "v": 2740
  },
  {
    "dt": "2023.10.18 20:00",
    "o": 0.94661,
    "h": 0.94711,
    "l": 0.94653,
    "c": 0.94708,
    "v": 2137
  },
  {
    "dt": "2023.10.18 21:00",
    "o": 0.94708,
    "h": 0.94719,
    "l": 0.94685,
    "c": 0.94706,
    "v": 1602
  },
  {
    "dt": "2023.10.18 22:00",
    "o": 0.94706,
    "h": 0.94724,
    "l": 0.94677,
    "c": 0.94716,
    "v": 1652
  },
  {
    "dt": "2023.10.18 23:00",
    "o": 0.94715,
    "h": 0.94744,
    "l": 0.94702,
    "c": 0.94709,
    "v": 711
  },
  {
    "dt": "2023.10.19 00:00",
    "o": 0.94592,
    "h": 0.94723,
    "l": 0.9459,
    "c": 0.94691,
    "v": 1074
  },
  {
    "dt": "2023.10.19 01:00",
    "o": 0.94671,
    "h": 0.94718,
    "l": 0.94669,
    "c": 0.94714,
    "v": 398
  },
  {
    "dt": "2023.10.19 02:00",
    "o": 0.94708,
    "h": 0.94721,
    "l": 0.94695,
    "c": 0.94709,
    "v": 583
  },
  {
    "dt": "2023.10.19 03:00",
    "o": 0.9471,
    "h": 0.9472,
    "l": 0.94669,
    "c": 0.9472,
    "v": 1424
  },
  {
    "dt": "2023.10.19 04:00",
    "o": 0.94719,
    "h": 0.94724,
    "l": 0.94686,
    "c": 0.94715,
    "v": 1731
  },
  {
    "dt": "2023.10.19 05:00",
    "o": 0.94716,
    "h": 0.9474,
    "l": 0.94715,
    "c": 0.9472,
    "v": 1388
  },
  {
    "dt": "2023.10.19 06:00",
    "o": 0.9472,
    "h": 0.94734,
    "l": 0.94703,
    "c": 0.94705,
    "v": 1116
  },
  {
    "dt": "2023.10.19 07:00",
    "o": 0.94704,
    "h": 0.94716,
    "l": 0.94682,
    "c": 0.94686,
    "v": 1051
  },
  {
    "dt": "2023.10.19 08:00",
    "o": 0.94686,
    "h": 0.94702,
    "l": 0.94653,
    "c": 0.94654,
    "v": 1147
  },
  {
    "dt": "2023.10.19 09:00",
    "o": 0.9465,
    "h": 0.94675,
    "l": 0.94596,
    "c": 0.94662,
    "v": 2107
  },
  {
    "dt": "2023.10.19 10:00",
    "o": 0.94668,
    "h": 0.9481,
    "l": 0.94659,
    "c": 0.94797,
    "v": 3353
  },
  {
    "dt": "2023.10.19 11:00",
    "o": 0.94796,
    "h": 0.94813,
    "l": 0.94736,
    "c": 0.94752,
    "v": 2832
  },
  {
    "dt": "2023.10.19 12:00",
    "o": 0.94753,
    "h": 0.94794,
    "l": 0.94724,
    "c": 0.94738,
    "v": 2250
  },
  {
    "dt": "2023.10.19 13:00",
    "o": 0.94737,
    "h": 0.94775,
    "l": 0.94693,
    "c": 0.94724,
    "v": 2124
  },
  {
    "dt": "2023.10.19 14:00",
    "o": 0.94726,
    "h": 0.94744,
    "l": 0.9466,
    "c": 0.94726,
    "v": 2639
  },
  {
    "dt": "2023.10.19 15:00",
    "o": 0.94725,
    "h": 0.94808,
    "l": 0.94634,
    "c": 0.94803,
    "v": 3166
  },
  {
    "dt": "2023.10.19 16:00",
    "o": 0.94805,
    "h": 0.94837,
    "l": 0.9473,
    "c": 0.94783,
    "v": 3048
  },
  {
    "dt": "2023.10.19 17:00",
    "o": 0.9478,
    "h": 0.94813,
    "l": 0.94731,
    "c": 0.94764,
    "v": 3006
  },
  {
    "dt": "2023.10.19 18:00",
    "o": 0.94763,
    "h": 0.94764,
    "l": 0.94652,
    "c": 0.94653,
    "v": 2466
  },
  {
    "dt": "2023.10.19 19:00",
    "o": 0.94655,
    "h": 0.9479,
    "l": 0.94614,
    "c": 0.94652,
    "v": 4983
  },
  {
    "dt": "2023.10.19 20:00",
    "o": 0.94653,
    "h": 0.94698,
    "l": 0.94552,
    "c": 0.94558,
    "v": 3251
  },
  {
    "dt": "2023.10.19 21:00",
    "o": 0.94559,
    "h": 0.94572,
    "l": 0.94493,
    "c": 0.94523,
    "v": 2369
  },
  {
    "dt": "2023.10.19 22:00",
    "o": 0.94524,
    "h": 0.94582,
    "l": 0.94472,
    "c": 0.94473,
    "v": 2115
  },
  {
    "dt": "2023.10.19 23:00",
    "o": 0.94474,
    "h": 0.94474,
    "l": 0.94268,
    "c": 0.9432,
    "v": 1159
  },
  {
    "dt": "2023.10.20 00:00",
    "o": 0.94287,
    "h": 0.94342,
    "l": 0.94287,
    "c": 0.94298,
    "v": 1280
  },
  {
    "dt": "2023.10.20 01:00",
    "o": 0.94298,
    "h": 0.94447,
    "l": 0.94289,
    "c": 0.94365,
    "v": 873
  },
  {
    "dt": "2023.10.20 02:00",
    "o": 0.94367,
    "h": 0.94403,
    "l": 0.94352,
    "c": 0.94401,
    "v": 778
  },
  {
    "dt": "2023.10.20 03:00",
    "o": 0.94402,
    "h": 0.94447,
    "l": 0.9435,
    "c": 0.94366,
    "v": 1448
  },
  {
    "dt": "2023.10.20 04:00",
    "o": 0.94367,
    "h": 0.94369,
    "l": 0.94311,
    "c": 0.94357,
    "v": 1586
  },
  {
    "dt": "2023.10.20 05:00",
    "o": 0.94359,
    "h": 0.9436,
    "l": 0.94303,
    "c": 0.94324,
    "v": 1260
  },
  {
    "dt": "2023.10.20 06:00",
    "o": 0.94325,
    "h": 0.94371,
    "l": 0.94313,
    "c": 0.9437,
    "v": 960
  },
  {
    "dt": "2023.10.20 07:00",
    "o": 0.94371,
    "h": 0.94422,
    "l": 0.94368,
    "c": 0.94416,
    "v": 1298
  },
  {
    "dt": "2023.10.20 08:00",
    "o": 0.94416,
    "h": 0.94428,
    "l": 0.9434,
    "c": 0.94403,
    "v": 1527
  },
  {
    "dt": "2023.10.20 09:00",
    "o": 0.94395,
    "h": 0.94442,
    "l": 0.94315,
    "c": 0.94425,
    "v": 2712
  },
  {
    "dt": "2023.10.20 10:00",
    "o": 0.94425,
    "h": 0.94462,
    "l": 0.94165,
    "c": 0.94165,
    "v": 3201
  },
  {
    "dt": "2023.10.20 11:00",
    "o": 0.94165,
    "h": 0.9442,
    "l": 0.94165,
    "c": 0.94385,
    "v": 3188
  },
  {
    "dt": "2023.10.20 12:00",
    "o": 0.94384,
    "h": 0.94471,
    "l": 0.94364,
    "c": 0.94424,
    "v": 2755
  },
  {
    "dt": "2023.10.20 13:00",
    "o": 0.94424,
    "h": 0.94429,
    "l": 0.94348,
    "c": 0.94352,
    "v": 2395
  },
  {
    "dt": "2023.10.20 14:00",
    "o": 0.94351,
    "h": 0.94422,
    "l": 0.94315,
    "c": 0.9438,
    "v": 2179
  },
  {
    "dt": "2023.10.20 15:00",
    "o": 0.94379,
    "h": 0.94493,
    "l": 0.94344,
    "c": 0.94468,
    "v": 3256
  },
  {
    "dt": "2023.10.20 16:00",
    "o": 0.9447,
    "h": 0.94528,
    "l": 0.94382,
    "c": 0.94398,
    "v": 3518
  },
  {
    "dt": "2023.10.20 17:00",
    "o": 0.94395,
    "h": 0.94506,
    "l": 0.9437,
    "c": 0.94382,
    "v": 3377
  },
  {
    "dt": "2023.10.20 18:00",
    "o": 0.94382,
    "h": 0.94475,
    "l": 0.94364,
    "c": 0.94453,
    "v": 2774
  },
  {
    "dt": "2023.10.20 19:00",
    "o": 0.94453,
    "h": 0.94483,
    "l": 0.94389,
    "c": 0.94458,
    "v": 2081
  },
  {
    "dt": "2023.10.20 20:00",
    "o": 0.94459,
    "h": 0.94533,
    "l": 0.9441,
    "c": 0.94519,
    "v": 2236
  },
  {
    "dt": "2023.10.20 21:00",
    "o": 0.94519,
    "h": 0.94524,
    "l": 0.94428,
    "c": 0.94465,
    "v": 1888
  },
  {
    "dt": "2023.10.20 22:00",
    "o": 0.94464,
    "h": 0.94501,
    "l": 0.94452,
    "c": 0.94481,
    "v": 1700
  },
  {
    "dt": "2023.10.20 23:00",
    "o": 0.94479,
    "h": 0.94549,
    "l": 0.94469,
    "c": 0.94516,
    "v": 1043
  },
  {
    "dt": "2023.10.23 00:00",
    "o": 0.94396,
    "h": 0.94527,
    "l": 0.94389,
    "c": 0.94441,
    "v": 1378
  },
  {
    "dt": "2023.10.23 01:00",
    "o": 0.9444,
    "h": 0.94578,
    "l": 0.9444,
    "c": 0.94553,
    "v": 1218
  },
  {
    "dt": "2023.10.23 02:00",
    "o": 0.94561,
    "h": 0.94592,
    "l": 0.94542,
    "c": 0.94586,
    "v": 808
  },
  {
    "dt": "2023.10.23 03:00",
    "o": 0.94585,
    "h": 0.94605,
    "l": 0.94533,
    "c": 0.94584,
    "v": 997
  },
  {
    "dt": "2023.10.23 04:00",
    "o": 0.94583,
    "h": 0.94629,
    "l": 0.94583,
    "c": 0.9459,
    "v": 1050
  },
  {
    "dt": "2023.10.23 05:00",
    "o": 0.94588,
    "h": 0.94631,
    "l": 0.94569,
    "c": 0.94584,
    "v": 966
  },
  {
    "dt": "2023.10.23 06:00",
    "o": 0.94584,
    "h": 0.94623,
    "l": 0.94569,
    "c": 0.94609,
    "v": 711
  },
  {
    "dt": "2023.10.23 07:00",
    "o": 0.9461,
    "h": 0.94625,
    "l": 0.94587,
    "c": 0.94601,
    "v": 808
  },
  {
    "dt": "2023.10.23 08:00",
    "o": 0.94602,
    "h": 0.94726,
    "l": 0.94595,
    "c": 0.94726,
    "v": 1516
  },
  {
    "dt": "2023.10.23 09:00",
    "o": 0.94722,
    "h": 0.94722,
    "l": 0.94541,
    "c": 0.94545,
    "v": 2124
  },
  {
    "dt": "2023.10.23 10:00",
    "o": 0.94547,
    "h": 0.94643,
    "l": 0.94505,
    "c": 0.94642,
    "v": 2966
  },
  {
    "dt": "2023.10.23 11:00",
    "o": 0.94642,
    "h": 0.94712,
    "l": 0.94568,
    "c": 0.94615,
    "v": 2590
  },
  {
    "dt": "2023.10.23 12:00",
    "o": 0.94614,
    "h": 0.9476,
    "l": 0.94534,
    "c": 0.94559,
    "v": 2592
  },
  {
    "dt": "2023.10.23 13:00",
    "o": 0.94558,
    "h": 0.94603,
    "l": 0.94503,
    "c": 0.946,
    "v": 2410
  },
  {
    "dt": "2023.10.23 14:00",
    "o": 0.94601,
    "h": 0.94644,
    "l": 0.9454,
    "c": 0.94618,
    "v": 2138
  },
  {
    "dt": "2023.10.23 15:00",
    "o": 0.94618,
    "h": 0.94786,
    "l": 0.94579,
    "c": 0.94781,
    "v": 2747
  },
  {
    "dt": "2023.10.23 16:00",
    "o": 0.94784,
    "h": 0.94816,
    "l": 0.94701,
    "c": 0.94766,
    "v": 2739
  },
  {
    "dt": "2023.10.23 17:00",
    "o": 0.94767,
    "h": 0.94903,
    "l": 0.94766,
    "c": 0.94888,
    "v": 3218
  },
  {
    "dt": "2023.10.23 18:00",
    "o": 0.94889,
    "h": 0.94986,
    "l": 0.9485,
    "c": 0.94943,
    "v": 2415
  },
  {
    "dt": "2023.10.23 19:00",
    "o": 0.94945,
    "h": 0.95074,
    "l": 0.94916,
    "c": 0.95059,
    "v": 1644
  },
  {
    "dt": "2023.10.23 20:00",
    "o": 0.95058,
    "h": 0.95079,
    "l": 0.95032,
    "c": 0.95077,
    "v": 1273
  },
  {
    "dt": "2023.10.23 21:00",
    "o": 0.95076,
    "h": 0.9509,
    "l": 0.95052,
    "c": 0.95081,
    "v": 1725
  },
  {
    "dt": "2023.10.23 22:00",
    "o": 0.95082,
    "h": 0.95114,
    "l": 0.95061,
    "c": 0.9507,
    "v": 1371
  },
  {
    "dt": "2023.10.23 23:00",
    "o": 0.9507,
    "h": 0.9507,
    "l": 0.95034,
    "c": 0.95053,
    "v": 525
  },
  {
    "dt": "2023.10.24 00:00",
    "o": 0.95049,
    "h": 0.95069,
    "l": 0.95031,
    "c": 0.95046,
    "v": 1646
  },
  {
    "dt": "2023.10.24 01:00",
    "o": 0.95043,
    "h": 0.95077,
    "l": 0.95036,
    "c": 0.95042,
    "v": 490
  },
  {
    "dt": "2023.10.24 02:00",
    "o": 0.9504,
    "h": 0.95059,
    "l": 0.95029,
    "c": 0.95045,
    "v": 666
  },
  {
    "dt": "2023.10.24 03:00",
    "o": 0.95046,
    "h": 0.95076,
    "l": 0.95036,
    "c": 0.95064,
    "v": 1220
  },
  {
    "dt": "2023.10.24 04:00",
    "o": 0.95063,
    "h": 0.95086,
    "l": 0.95054,
    "c": 0.9508,
    "v": 1437
  },
  {
    "dt": "2023.10.24 05:00",
    "o": 0.95079,
    "h": 0.95119,
    "l": 0.95058,
    "c": 0.95107,
    "v": 1329
  },
  {
    "dt": "2023.10.24 06:00",
    "o": 0.95107,
    "h": 0.95141,
    "l": 0.95103,
    "c": 0.9514,
    "v": 1104
  },
  {
    "dt": "2023.10.24 07:00",
    "o": 0.95141,
    "h": 0.95141,
    "l": 0.95103,
    "c": 0.95103,
    "v": 1032
  },
  {
    "dt": "2023.10.24 08:00",
    "o": 0.95103,
    "h": 0.95141,
    "l": 0.95097,
    "c": 0.95136,
    "v": 1360
  },
  {
    "dt": "2023.10.24 09:00",
    "o": 0.95137,
    "h": 0.95147,
    "l": 0.9504,
    "c": 0.95061,
    "v": 2221
  },
  {
    "dt": "2023.10.24 10:00",
    "o": 0.95061,
    "h": 0.95116,
    "l": 0.94988,
    "c": 0.9501,
    "v": 3295
  },
  {
    "dt": "2023.10.24 11:00",
    "o": 0.9501,
    "h": 0.95044,
    "l": 0.94912,
    "c": 0.94945,
    "v": 2985
  },
  {
    "dt": "2023.10.24 12:00",
    "o": 0.94944,
    "h": 0.95067,
    "l": 0.94918,
    "c": 0.94994,
    "v": 2206
  },
  {
    "dt": "2023.10.24 13:00",
    "o": 0.94993,
    "h": 0.9503,
    "l": 0.94879,
    "c": 0.94908,
    "v": 2162
  },
  {
    "dt": "2023.10.24 14:00",
    "o": 0.94906,
    "h": 0.95007,
    "l": 0.94886,
    "c": 0.94978,
    "v": 2442
  },
  {
    "dt": "2023.10.24 15:00",
    "o": 0.94979,
    "h": 0.95018,
    "l": 0.9485,
    "c": 0.9488,
    "v": 2826
  },
  {
    "dt": "2023.10.24 16:00",
    "o": 0.9488,
    "h": 0.94977,
    "l": 0.94773,
    "c": 0.94845,
    "v": 3470
  },
  {
    "dt": "2023.10.24 17:00",
    "o": 0.94846,
    "h": 0.94865,
    "l": 0.94642,
    "c": 0.94681,
    "v": 3308
  },
  {
    "dt": "2023.10.24 18:00",
    "o": 0.94681,
    "h": 0.94715,
    "l": 0.94621,
    "c": 0.94649,
    "v": 2485
  },
  {
    "dt": "2023.10.24 19:00",
    "o": 0.94648,
    "h": 0.94655,
    "l": 0.946,
    "c": 0.94605,
    "v": 1700
  },
  {
    "dt": "2023.10.24 20:00",
    "o": 0.94602,
    "h": 0.94636,
    "l": 0.94577,
    "c": 0.94613,
    "v": 1526
  },
  {
    "dt": "2023.10.24 21:00",
    "o": 0.94613,
    "h": 0.94628,
    "l": 0.94591,
    "c": 0.94592,
    "v": 1194
  },
  {
    "dt": "2023.10.24 22:00",
    "o": 0.94592,
    "h": 0.94619,
    "l": 0.94583,
    "c": 0.94594,
    "v": 1199
  },
  {
    "dt": "2023.10.24 23:00",
    "o": 0.94593,
    "h": 0.94604,
    "l": 0.94559,
    "c": 0.94568,
    "v": 617
  },
  {
    "dt": "2023.10.25 00:00",
    "o": 0.94649,
    "h": 0.94649,
    "l": 0.94551,
    "c": 0.94571,
    "v": 2100
  },
  {
    "dt": "2023.10.25 01:00",
    "o": 0.94572,
    "h": 0.94596,
    "l": 0.94543,
    "c": 0.94593,
    "v": 649
  },
  {
    "dt": "2023.10.25 02:00",
    "o": 0.94598,
    "h": 0.94618,
    "l": 0.94594,
    "c": 0.94617,
    "v": 709
  },
  {
    "dt": "2023.10.25 03:00",
    "o": 0.94617,
    "h": 0.94641,
    "l": 0.94579,
    "c": 0.94584,
    "v": 1385
  },
  {
    "dt": "2023.10.25 04:00",
    "o": 0.94586,
    "h": 0.94621,
    "l": 0.94576,
    "c": 0.94596,
    "v": 969
  },
  {
    "dt": "2023.10.25 05:00",
    "o": 0.94595,
    "h": 0.94666,
    "l": 0.94595,
    "c": 0.94663,
    "v": 875
  },
  {
    "dt": "2023.10.25 06:00",
    "o": 0.94663,
    "h": 0.94676,
    "l": 0.9466,
    "c": 0.94665,
    "v": 581
  },
  {
    "dt": "2023.10.25 07:00",
    "o": 0.94664,
    "h": 0.94665,
    "l": 0.94639,
    "c": 0.94665,
    "v": 954
  },
  {
    "dt": "2023.10.25 08:00",
    "o": 0.94664,
    "h": 0.94671,
    "l": 0.94619,
    "c": 0.94622,
    "v": 1278
  },
  {
    "dt": "2023.10.25 09:00",
    "o": 0.94616,
    "h": 0.94649,
    "l": 0.94549,
    "c": 0.9463,
    "v": 1723
  },
  {
    "dt": "2023.10.25 10:00",
    "o": 0.94631,
    "h": 0.94768,
    "l": 0.94615,
    "c": 0.94714,
    "v": 2828
  },
  {
    "dt": "2023.10.25 11:00",
    "o": 0.94712,
    "h": 0.9474,
    "l": 0.94671,
    "c": 0.9474,
    "v": 2688
  },
  {
    "dt": "2023.10.25 12:00",
    "o": 0.94741,
    "h": 0.94761,
    "l": 0.9467,
    "c": 0.94692,
    "v": 2410
  },
  {
    "dt": "2023.10.25 13:00",
    "o": 0.94692,
    "h": 0.94732,
    "l": 0.94656,
    "c": 0.94712,
    "v": 2127
  },
  {
    "dt": "2023.10.25 14:00",
    "o": 0.94713,
    "h": 0.94728,
    "l": 0.94667,
    "c": 0.94711,
    "v": 2241
  },
  {
    "dt": "2023.10.25 15:00",
    "o": 0.94712,
    "h": 0.94737,
    "l": 0.94659,
    "c": 0.94669,
    "v": 2415
  },
  {
    "dt": "2023.10.25 16:00",
    "o": 0.94668,
    "h": 0.94729,
    "l": 0.946,
    "c": 0.94707,
    "v": 3039
  },
  {
    "dt": "2023.10.25 17:00",
    "o": 0.94687,
    "h": 0.94799,
    "l": 0.94682,
    "c": 0.94736,
    "v": 3329
  },
  {
    "dt": "2023.10.25 18:00",
    "o": 0.94737,
    "h": 0.94884,
    "l": 0.94708,
    "c": 0.94726,
    "v": 2605
  },
  {
    "dt": "2023.10.25 19:00",
    "o": 0.94726,
    "h": 0.94831,
    "l": 0.94703,
    "c": 0.94776,
    "v": 1343
  },
  {
    "dt": "2023.10.25 20:00",
    "o": 0.94775,
    "h": 0.94781,
    "l": 0.94717,
    "c": 0.94765,
    "v": 1167
  },
  {
    "dt": "2023.10.25 21:00",
    "o": 0.94764,
    "h": 0.94769,
    "l": 0.94725,
    "c": 0.94739,
    "v": 672
  },
  {
    "dt": "2023.10.25 22:00",
    "o": 0.94737,
    "h": 0.94747,
    "l": 0.94716,
    "c": 0.94737,
    "v": 500
  },
  {
    "dt": "2023.10.25 23:00",
    "o": 0.94737,
    "h": 0.94757,
    "l": 0.94731,
    "c": 0.94744,
    "v": 510
  },
  {
    "dt": "2023.10.26 00:00",
    "o": 0.94698,
    "h": 0.94763,
    "l": 0.94698,
    "c": 0.94733,
    "v": 2470
  },
  {
    "dt": "2023.10.26 01:00",
    "o": 0.94734,
    "h": 0.94751,
    "l": 0.94672,
    "c": 0.94749,
    "v": 1000
  },
  {
    "dt": "2023.10.26 02:00",
    "o": 0.94744,
    "h": 0.94773,
    "l": 0.94734,
    "c": 0.94741,
    "v": 756
  },
  {
    "dt": "2023.10.26 03:00",
    "o": 0.94742,
    "h": 0.94755,
    "l": 0.9472,
    "c": 0.94723,
    "v": 1335
  },
  {
    "dt": "2023.10.26 04:00",
    "o": 0.94724,
    "h": 0.94735,
    "l": 0.94687,
    "c": 0.94703,
    "v": 1576
  },
  {
    "dt": "2023.10.26 05:00",
    "o": 0.94704,
    "h": 0.94727,
    "l": 0.94675,
    "c": 0.94698,
    "v": 1369
  },
  {
    "dt": "2023.10.26 06:00",
    "o": 0.94698,
    "h": 0.94709,
    "l": 0.94663,
    "c": 0.94696,
    "v": 1509
  },
  {
    "dt": "2023.10.26 07:00",
    "o": 0.94697,
    "h": 0.94708,
    "l": 0.94679,
    "c": 0.94707,
    "v": 1111
  },
  {
    "dt": "2023.10.26 08:00",
    "o": 0.94707,
    "h": 0.94752,
    "l": 0.94692,
    "c": 0.94718,
    "v": 1588
  },
  {
    "dt": "2023.10.26 09:00",
    "o": 0.94731,
    "h": 0.94746,
    "l": 0.94665,
    "c": 0.94706,
    "v": 2799
  },
  {
    "dt": "2023.10.26 10:00",
    "o": 0.94711,
    "h": 0.94739,
    "l": 0.94692,
    "c": 0.94723,
    "v": 2324
  },
  {
    "dt": "2023.10.26 11:00",
    "o": 0.94723,
    "h": 0.94933,
    "l": 0.94722,
    "c": 0.94855,
    "v": 2325
  },
  {
    "dt": "2023.10.26 12:00",
    "o": 0.94854,
    "h": 0.94872,
    "l": 0.94714,
    "c": 0.94728,
    "v": 2174
  },
  {
    "dt": "2023.10.26 13:00",
    "o": 0.94727,
    "h": 0.94754,
    "l": 0.94645,
    "c": 0.94674,
    "v": 2130
  },
  {
    "dt": "2023.10.26 14:00",
    "o": 0.94676,
    "h": 0.94729,
    "l": 0.94613,
    "c": 0.9464,
    "v": 2276
  },
  {
    "dt": "2023.10.26 15:00",
    "o": 0.94641,
    "h": 0.94689,
    "l": 0.94567,
    "c": 0.9468,
    "v": 4466
  },
  {
    "dt": "2023.10.26 16:00",
    "o": 0.94681,
    "h": 0.94694,
    "l": 0.94586,
    "c": 0.94632,
    "v": 3665
  },
  {
    "dt": "2023.10.26 17:00",
    "o": 0.94631,
    "h": 0.94767,
    "l": 0.9462,
    "c": 0.9473,
    "v": 3331
  },
  {
    "dt": "2023.10.26 18:00",
    "o": 0.94727,
    "h": 0.9475,
    "l": 0.94691,
    "c": 0.94731,
    "v": 2542
  },
  {
    "dt": "2023.10.26 19:00",
    "o": 0.94731,
    "h": 0.94803,
    "l": 0.94706,
    "c": 0.9476,
    "v": 2348
  },
  {
    "dt": "2023.10.26 20:00",
    "o": 0.94761,
    "h": 0.94871,
    "l": 0.9476,
    "c": 0.94868,
    "v": 2447
  },
  {
    "dt": "2023.10.26 21:00",
    "o": 0.94869,
    "h": 0.94968,
    "l": 0.94869,
    "c": 0.9493,
    "v": 1859
  },
  {
    "dt": "2023.10.26 22:00",
    "o": 0.94929,
    "h": 0.94954,
    "l": 0.94905,
    "c": 0.9494,
    "v": 1631
  },
  {
    "dt": "2023.10.26 23:00",
    "o": 0.94937,
    "h": 0.9499,
    "l": 0.94879,
    "c": 0.94935,
    "v": 1397
  },
  {
    "dt": "2023.10.27 00:00",
    "o": 0.94798,
    "h": 0.9495,
    "l": 0.94787,
    "c": 0.94922,
    "v": 2846
  },
  {
    "dt": "2023.10.27 01:00",
    "o": 0.9492,
    "h": 0.94981,
    "l": 0.9492,
    "c": 0.94973,
    "v": 514
  },
  {
    "dt": "2023.10.27 02:00",
    "o": 0.94971,
    "h": 0.94972,
    "l": 0.94946,
    "c": 0.94947,
    "v": 781
  },
  {
    "dt": "2023.10.27 03:00",
    "o": 0.94949,
    "h": 0.94951,
    "l": 0.94872,
    "c": 0.94932,
    "v": 1422
  },
  {
    "dt": "2023.10.27 04:00",
    "o": 0.94931,
    "h": 0.94949,
    "l": 0.94901,
    "c": 0.94949,
    "v": 1343
  },
  {
    "dt": "2023.10.27 05:00",
    "o": 0.9495,
    "h": 0.94962,
    "l": 0.9488,
    "c": 0.9489,
    "v": 1446
  },
  {
    "dt": "2023.10.27 06:00",
    "o": 0.94889,
    "h": 0.9492,
    "l": 0.94882,
    "c": 0.94896,
    "v": 1047
  },
  {
    "dt": "2023.10.27 07:00",
    "o": 0.94896,
    "h": 0.94946,
    "l": 0.94896,
    "c": 0.94945,
    "v": 1157
  },
  {
    "dt": "2023.10.27 08:00",
    "o": 0.94946,
    "h": 0.94987,
    "l": 0.94943,
    "c": 0.94972,
    "v": 1546
  },
  {
    "dt": "2023.10.27 09:00",
    "o": 0.94968,
    "h": 0.9498,
    "l": 0.94909,
    "c": 0.9494,
    "v": 2567
  },
  {
    "dt": "2023.10.27 10:00",
    "o": 0.9494,
    "h": 0.95009,
    "l": 0.94863,
    "c": 0.95008,
    "v": 2862
  },
  {
    "dt": "2023.10.27 11:00",
    "o": 0.95008,
    "h": 0.95138,
    "l": 0.94992,
    "c": 0.95106,
    "v": 2589
  },
  {
    "dt": "2023.10.27 12:00",
    "o": 0.95107,
    "h": 0.95107,
    "l": 0.94986,
    "c": 0.95053,
    "v": 2244
  },
  {
    "dt": "2023.10.27 13:00",
    "o": 0.95052,
    "h": 0.95145,
    "l": 0.95051,
    "c": 0.95144,
    "v": 2014
  },
  {
    "dt": "2023.10.27 14:00",
    "o": 0.95144,
    "h": 0.95165,
    "l": 0.95016,
    "c": 0.95018,
    "v": 2787
  },
  {
    "dt": "2023.10.27 15:00",
    "o": 0.95019,
    "h": 0.9516,
    "l": 0.94971,
    "c": 0.95152,
    "v": 3320
  },
  {
    "dt": "2023.10.27 16:00",
    "o": 0.95158,
    "h": 0.95454,
    "l": 0.95145,
    "c": 0.95375,
    "v": 4411
  },
  {
    "dt": "2023.10.27 17:00",
    "o": 0.95374,
    "h": 0.955,
    "l": 0.95295,
    "c": 0.95484,
    "v": 4133
  },
  {
    "dt": "2023.10.27 18:00",
    "o": 0.95478,
    "h": 0.95641,
    "l": 0.95458,
    "c": 0.95535,
    "v": 3059
  },
  {
    "dt": "2023.10.27 19:00",
    "o": 0.95536,
    "h": 0.9561,
    "l": 0.95528,
    "c": 0.95558,
    "v": 2292
  },
  {
    "dt": "2023.10.27 20:00",
    "o": 0.95557,
    "h": 0.95567,
    "l": 0.95285,
    "c": 0.953,
    "v": 2560
  },
  {
    "dt": "2023.10.27 21:00",
    "o": 0.95298,
    "h": 0.95353,
    "l": 0.95204,
    "c": 0.95259,
    "v": 2302
  },
  {
    "dt": "2023.10.27 22:00",
    "o": 0.95258,
    "h": 0.95319,
    "l": 0.95243,
    "c": 0.95295,
    "v": 2318
  },
  {
    "dt": "2023.10.27 23:00",
    "o": 0.95295,
    "h": 0.95352,
    "l": 0.95257,
    "c": 0.95323,
    "v": 1014
  },
  {
    "dt": "2023.10.30 00:00",
    "o": 0.95184,
    "h": 0.95233,
    "l": 0.95165,
    "c": 0.95209,
    "v": 501
  },
  {
    "dt": "2023.10.30 01:00",
    "o": 0.95225,
    "h": 0.95321,
    "l": 0.95225,
    "c": 0.95289,
    "v": 848
  },
  {
    "dt": "2023.10.30 02:00",
    "o": 0.95299,
    "h": 0.95311,
    "l": 0.95267,
    "c": 0.95308,
    "v": 915
  },
  {
    "dt": "2023.10.30 03:00",
    "o": 0.95307,
    "h": 0.95375,
    "l": 0.953,
    "c": 0.95375,
    "v": 1361
  },
  {
    "dt": "2023.10.30 04:00",
    "o": 0.95375,
    "h": 0.95386,
    "l": 0.95345,
    "c": 0.9538,
    "v": 1130
  },
  {
    "dt": "2023.10.30 05:00",
    "o": 0.95381,
    "h": 0.9539,
    "l": 0.95366,
    "c": 0.9538,
    "v": 1099
  },
  {
    "dt": "2023.10.30 06:00",
    "o": 0.95379,
    "h": 0.95395,
    "l": 0.95364,
    "c": 0.9539,
    "v": 929
  },
  {
    "dt": "2023.10.30 07:00",
    "o": 0.95391,
    "h": 0.95392,
    "l": 0.95359,
    "c": 0.95375,
    "v": 707
  },
  {
    "dt": "2023.10.30 08:00",
    "o": 0.95374,
    "h": 0.95381,
    "l": 0.95362,
    "c": 0.95372,
    "v": 734
  },
  {
    "dt": "2023.10.30 09:00",
    "o": 0.95373,
    "h": 0.95382,
    "l": 0.95306,
    "c": 0.95344,
    "v": 1432
  },
  {
    "dt": "2023.10.30 10:00",
    "o": 0.9534,
    "h": 0.95376,
    "l": 0.9529,
    "c": 0.95353,
    "v": 2433
  },
  {
    "dt": "2023.10.30 11:00",
    "o": 0.95358,
    "h": 0.95361,
    "l": 0.95246,
    "c": 0.95299,
    "v": 2907
  },
  {
    "dt": "2023.10.30 12:00",
    "o": 0.95298,
    "h": 0.95573,
    "l": 0.95298,
    "c": 0.95569,
    "v": 2413
  },
  {
    "dt": "2023.10.30 13:00",
    "o": 0.95569,
    "h": 0.95638,
    "l": 0.95559,
    "c": 0.95623,
    "v": 2554
  },
  {
    "dt": "2023.10.30 14:00",
    "o": 0.95623,
    "h": 0.95764,
    "l": 0.95614,
    "c": 0.95715,
    "v": 2093
  },
  {
    "dt": "2023.10.30 15:00",
    "o": 0.95715,
    "h": 0.9575,
    "l": 0.95557,
    "c": 0.9567,
    "v": 2959
  },
  {
    "dt": "2023.10.30 16:00",
    "o": 0.95662,
    "h": 0.95726,
    "l": 0.956,
    "c": 0.95706,
    "v": 3144
  },
  {
    "dt": "2023.10.30 17:00",
    "o": 0.95708,
    "h": 0.95734,
    "l": 0.95517,
    "c": 0.95703,
    "v": 3756
  },
  {
    "dt": "2023.10.30 18:00",
    "o": 0.95704,
    "h": 0.95831,
    "l": 0.95675,
    "c": 0.95745,
    "v": 3067
  },
  {
    "dt": "2023.10.30 19:00",
    "o": 0.95744,
    "h": 0.95775,
    "l": 0.95642,
    "c": 0.95699,
    "v": 1904
  },
  {
    "dt": "2023.10.30 20:00",
    "o": 0.957,
    "h": 0.95762,
    "l": 0.95685,
    "c": 0.95738,
    "v": 1220
  },
  {
    "dt": "2023.10.30 21:00",
    "o": 0.95737,
    "h": 0.95758,
    "l": 0.95693,
    "c": 0.95735,
    "v": 1059
  },
  {
    "dt": "2023.10.30 22:00",
    "o": 0.95734,
    "h": 0.95749,
    "l": 0.95694,
    "c": 0.95711,
    "v": 1038
  },
  {
    "dt": "2023.10.30 23:00",
    "o": 0.95711,
    "h": 0.95747,
    "l": 0.95705,
    "c": 0.95728,
    "v": 357
  },
  {
    "dt": "2023.10.31 00:00",
    "o": 0.95729,
    "h": 0.9574,
    "l": 0.95726,
    "c": 0.95731,
    "v": 1019
  },
  {
    "dt": "2023.10.31 01:00",
    "o": 0.95727,
    "h": 0.95759,
    "l": 0.95697,
    "c": 0.95736,
    "v": 407
  },
  {
    "dt": "2023.10.31 02:00",
    "o": 0.95734,
    "h": 0.95764,
    "l": 0.95734,
    "c": 0.95739,
    "v": 624
  },
  {
    "dt": "2023.10.31 03:00",
    "o": 0.95739,
    "h": 0.95742,
    "l": 0.95688,
    "c": 0.95696,
    "v": 1277
  },
  {
    "dt": "2023.10.31 04:00",
    "o": 0.95697,
    "h": 0.95701,
    "l": 0.95651,
    "c": 0.95689,
    "v": 895
  },
  {
    "dt": "2023.10.31 05:00",
    "o": 0.9569,
    "h": 0.95696,
    "l": 0.95644,
    "c": 0.95645,
    "v": 955
  },
  {
    "dt": "2023.10.31 06:00",
    "o": 0.95646,
    "h": 0.9568,
    "l": 0.95618,
    "c": 0.9564,
    "v": 1856
  },
  {
    "dt": "2023.10.31 07:00",
    "o": 0.9564,
    "h": 0.95647,
    "l": 0.95572,
    "c": 0.95584,
    "v": 1252
  },
  {
    "dt": "2023.10.31 08:00",
    "o": 0.95585,
    "h": 0.95602,
    "l": 0.95558,
    "c": 0.95577,
    "v": 1047
  },
  {
    "dt": "2023.10.31 09:00",
    "o": 0.95577,
    "h": 0.9568,
    "l": 0.95567,
    "c": 0.95666,
    "v": 1804
  },
  {
    "dt": "2023.10.31 10:00",
    "o": 0.95669,
    "h": 0.95818,
    "l": 0.95669,
    "c": 0.9579,
    "v": 2659
  },
  {
    "dt": "2023.10.31 11:00",
    "o": 0.95789,
    "h": 0.95927,
    "l": 0.95775,
    "c": 0.95923,
    "v": 2918
  },
  {
    "dt": "2023.10.31 12:00",
    "o": 0.95922,
    "h": 0.96233,
    "l": 0.95876,
    "c": 0.96173,
    "v": 2976
  },
  {
    "dt": "2023.10.31 13:00",
    "o": 0.96172,
    "h": 0.96207,
    "l": 0.96024,
    "c": 0.96194,
    "v": 3271
  },
  {
    "dt": "2023.10.31 14:00",
    "o": 0.96193,
    "h": 0.96233,
    "l": 0.96139,
    "c": 0.9617,
    "v": 2271
  },
  {
    "dt": "2023.10.31 15:00",
    "o": 0.96171,
    "h": 0.96229,
    "l": 0.96072,
    "c": 0.96113,
    "v": 3443
  },
  {
    "dt": "2023.10.31 16:00",
    "o": 0.96117,
    "h": 0.96185,
    "l": 0.96001,
    "c": 0.96101,
    "v": 3617
  },
  {
    "dt": "2023.10.31 17:00",
    "o": 0.96098,
    "h": 0.96211,
    "l": 0.96092,
    "c": 0.96187,
    "v": 3380
  },
  {
    "dt": "2023.10.31 18:00",
    "o": 0.96196,
    "h": 0.9623,
    "l": 0.96078,
    "c": 0.96148,
    "v": 3485
  },
  {
    "dt": "2023.10.31 19:00",
    "o": 0.96143,
    "h": 0.96229,
    "l": 0.9606,
    "c": 0.96102,
    "v": 2430
  },
  {
    "dt": "2023.10.31 20:00",
    "o": 0.96103,
    "h": 0.9619,
    "l": 0.96033,
    "c": 0.96177,
    "v": 1840
  },
  {
    "dt": "2023.10.31 21:00",
    "o": 0.96178,
    "h": 0.96234,
    "l": 0.96175,
    "c": 0.9621,
    "v": 1092
  },
  {
    "dt": "2023.10.31 22:00",
    "o": 0.96207,
    "h": 0.96253,
    "l": 0.96186,
    "c": 0.96237,
    "v": 1039
  },
  {
    "dt": "2023.10.31 23:00",
    "o": 0.96238,
    "h": 0.96282,
    "l": 0.96227,
    "c": 0.96258,
    "v": 580
  }
]