[
  {
    "dt": "2022.04.01 00:00",
    "o": 1.02057,
    "h": 1.02157,
    "l": 1.02057,
    "c": 1.02114,
    "v": 400
  },
  {
    "dt": "2022.04.01 01:00",
    "o": 1.02107,
    "h": 1.02203,
    "l": 1.02091,
    "c": 1.02201,
    "v": 818
  },
  {
    "dt": "2022.04.01 02:00",
    "o": 1.022,
    "h": 1.02235,
    "l": 1.02164,
    "c": 1.0222,
    "v": 814
  },
  {
    "dt": "2022.04.01 03:00",
    "o": 1.02221,
    "h": 1.02284,
    "l": 1.022,
    "c": 1.0228,
    "v": 1546
  },
  {
    "dt": "2022.04.01 04:00",
    "o": 1.02281,
    "h": 1.02346,
    "l": 1.02252,
    "c": 1.02336,
    "v": 1293
  },
  {
    "dt": "2022.04.01 05:00",
    "o": 1.02338,
    "h": 1.02368,
    "l": 1.02304,
    "c": 1.02314,
    "v": 1560
  },
  {
    "dt": "2022.04.01 06:00",
    "o": 1.02314,
    "h": 1.0235,
    "l": 1.02275,
    "c": 1.0232,
    "v": 1254
  },
  {
    "dt": "2022.04.01 07:00",
    "o": 1.02319,
    "h": 1.0235,
    "l": 1.02257,
    "c": 1.02282,
    "v": 1052
  },
  {
    "dt": "2022.04.01 08:00",
    "o": 1.02282,
    "h": 1.02313,
    "l": 1.02226,
    "c": 1.02232,
    "v": 1094
  },
  {
    "dt": "2022.04.01 09:00",
    "o": 1.02231,
    "h": 1.0224,
    "l": 1.01996,
    "c": 1.02144,
    "v": 2358
  },
  {
    "dt": "2022.04.01 10:00",
    "o": 1.02142,
    "h": 1.02192,
    "l": 1.02002,
    "c": 1.0211,
    "v": 3292
  },
  {
    "dt": "2022.04.01 11:00",
    "o": 1.0211,
    "h": 1.0228,
    "l": 1.02087,
    "c": 1.02183,
    "v": 2875
  },
  {
    "dt": "2022.04.01 12:00",
    "o": 1.02178,
    "h": 1.02223,
    "l": 1.02039,
    "c": 1.02139,
    "v": 3104
  },
  {
    "dt": "2022.04.01 13:00",
    "o": 1.02139,
    "h": 1.0225,
    "l": 1.02109,
    "c": 1.0225,
    "v": 2119
  },
  {
    "dt": "2022.04.01 14:00",
    "o": 1.02247,
    "h": 1.02247,
    "l": 1.02115,
    "c": 1.02131,
    "v": 2091
  },
  {
    "dt": "2022.04.01 15:00",
    "o": 1.0213,
    "h": 1.02301,
    "l": 1.02072,
    "c": 1.02232,
    "v": 3058
  },
  {
    "dt": "2022.04.01 16:00",
    "o": 1.02232,
    "h": 1.02409,
    "l": 1.02206,
    "c": 1.02332,
    "v": 2840
  },
  {
    "dt": "2022.04.01 17:00",
    "o": 1.02337,
    "h": 1.02435,
    "l": 1.02219,
    "c": 1.02229,
    "v": 3279
  },
  {
    "dt": "2022.04.01 18:00",
    "o": 1.0223,
    "h": 1.0229,
    "l": 1.02165,
    "c": 1.02217,
    "v": 2468
  },
  {
    "dt": "2022.04.01 19:00",
    "o": 1.02214,
    "h": 1.02251,
    "l": 1.02184,
    "c": 1.02207,
    "v": 1635
  },
  {
    "dt": "2022.04.01 20:00",
    "o": 1.02207,
    "h": 1.02207,
    "l": 1.02126,
    "c": 1.02162,
    "v": 1470
  },
  {
    "dt": "2022.04.01 21:00",
    "o": 1.02161,
    "h": 1.02251,
    "l": 1.02156,
    "c": 1.02164,
    "v": 1473
  },
  {
    "dt": "2022.04.01 22:00",
    "o": 1.02167,
    "h": 1.02238,
    "l": 1.02152,
    "c": 1.02233,
    "v": 1470
  },
  {
    "dt": "2022.04.01 23:00",
    "o": 1.02232,
    "h": 1.02263,
    "l": 1.0218,
    "c": 1.02249,
    "v": 833
  },
  {
    "dt": "2022.04.04 00:00",
    "o": 1.0215,
    "h": 1.0218,
    "l": 1.02105,
    "c": 1.02132,
    "v": 192
  },
  {
    "dt": "2022.04.04 01:00",
    "o": 1.02139,
    "h": 1.0228,
    "l": 1.0213,
    "c": 1.02268,
    "v": 765
  },
  {
    "dt": "2022.04.04 02:00",
    "o": 1.02271,
    "h": 1.02279,
    "l": 1.02229,
    "c": 1.02264,
    "v": 484
  },
  {
    "dt": "2022.04.04 03:00",
    "o": 1.02264,
    "h": 1.02283,
    "l": 1.02193,
    "c": 1.02253,
    "v": 1351
  },
  {
    "dt": "2022.04.04 04:00",
    "o": 1.02253,
    "h": 1.0234,
    "l": 1.02243,
    "c": 1.02337,
    "v": 1422
  },
  {
    "dt": "2022.04.04 05:00",
    "o": 1.02338,
    "h": 1.02396,
    "l": 1.02332,
    "c": 1.02346,
    "v": 946
  },
  {
    "dt": "2022.04.04 06:00",
    "o": 1.02343,
    "h": 1.02355,
    "l": 1.0232,
    "c": 1.02339,
    "v": 738
  },
  {
    "dt": "2022.04.04 07:00",
    "o": 1.0234,
    "h": 1.02374,
    "l": 1.02308,
    "c": 1.02345,
    "v": 837
  },
  {
    "dt": "2022.04.04 08:00",
    "o": 1.02348,
    "h": 1.02354,
    "l": 1.02292,
    "c": 1.02322,
    "v": 1220
  },
  {
    "dt": "2022.04.04 09:00",
    "o": 1.02322,
    "h": 1.02335,
    "l": 1.02106,
    "c": 1.02123,
    "v": 2015
  },
  {
    "dt": "2022.04.04 10:00",
    "o": 1.02124,
    "h": 1.02149,
    "l": 1.02001,
    "c": 1.02057,
    "v": 2488
  },
  {
    "dt": "2022.04.04 11:00",
    "o": 1.02064,
    "h": 1.02201,
    "l": 1.01997,
    "c": 1.02153,
    "v": 2892
  },
  {
    "dt": "2022.04.04 12:00",
    "o": 1.02154,
    "h": 1.02205,
    "l": 1.02068,
    "c": 1.02071,
    "v": 2267
  },
  {
    "dt": "2022.04.04 13:00",
    "o": 1.02072,
    "h": 1.02108,
    "l": 1.02,
    "c": 1.02022,
    "v": 2003
  },
  {
    "dt": "2022.04.04 14:00",
    "o": 1.02022,
    "h": 1.02116,
    "l": 1.02016,
    "c": 1.02025,
    "v": 1859
  },
  {
    "dt": "2022.04.04 15:00",
    "o": 1.02027,
    "h": 1.02064,
    "l": 1.0175,
    "c": 1.01804,
    "v": 2526
  },
  {
    "dt": "2022.04.04 16:00",
    "o": 1.01803,
    "h": 1.01807,
    "l": 1.01588,
    "c": 1.01712,
    "v": 2773
  },
  {
    "dt": "2022.04.04 17:00",
    "o": 1.01711,
    "h": 1.01782,
    "l": 1.01625,
    "c": 1.01671,
    "v": 2843
  },
  {
    "dt": "2022.04.04 18:00",
    "o": 1.01671,
    "h": 1.01787,
    "l": 1.01671,
    "c": 1.01755,
    "v": 2116
  },
  {
    "dt": "2022.04.04 19:00",
    "o": 1.01757,
    "h": 1.0176,
    "l": 1.0167,
    "c": 1.01671,
    "v": 1548
  },
  {
    "dt": "2022.04.04 20:00",
    "o": 1.01672,
    "h": 1.01703,
    "l": 1.01569,
    "c": 1.01574,
    "v": 1531
  },
  {
    "dt": "2022.04.04 21:00",
    "o": 1.01574,
    "h": 1.01627,
    "l": 1.01546,
    "c": 1.01621,
    "v": 1587
  },
  {
    "dt": "2022.04.04 22:00",
    "o": 1.01608,
    "h": 1.01649,
    "l": 1.01595,
    "c": 1.01633,
    "v": 1043
  },
  {
    "dt": "2022.04.04 23:00",
    "o": 1.01633,
    "h": 1.01659,
    "l": 1.01606,
    "c": 1.01648,
    "v": 675
  },
  {
    "dt": "2022.04.05 00:00",
    "o": 1.01611,
    "h": 1.01642,
    "l": 1.01606,
    "c": 1.01625,
    "v": 263
  },
  {
    "dt": "2022.04.05 01:00",
    "o": 1.01616,
    "h": 1.01649,
    "l": 1.01609,
    "c": 1.01613,
    "v": 472
  },
  {
    "dt": "2022.04.05 02:00",
    "o": 1.01618,
    "h": 1.01663,
    "l": 1.01616,
    "c": 1.01659,
    "v": 442
  },
  {
    "dt": "2022.04.05 03:00",
    "o": 1.01658,
    "h": 1.01676,
    "l": 1.01572,
    "c": 1.016,
    "v": 1291
  },
  {
    "dt": "2022.04.05 04:00",
    "o": 1.01602,
    "h": 1.01607,
    "l": 1.01553,
    "c": 1.01564,
    "v": 757
  },
  {
    "dt": "2022.04.05 05:00",
    "o": 1.01563,
    "h": 1.016,
    "l": 1.01558,
    "c": 1.01596,
    "v": 552
  },
  {
    "dt": "2022.04.05 06:00",
    "o": 1.01592,
    "h": 1.01599,
    "l": 1.01568,
    "c": 1.01588,
    "v": 673
  },
  {
    "dt": "2022.04.05 07:00",
    "o": 1.01588,
    "h": 1.01629,
    "l": 1.01556,
    "c": 1.0157,
    "v": 1057
  },
  {
    "dt": "2022.04.05 08:00",
    "o": 1.01572,
    "h": 1.01614,
    "l": 1.01558,
    "c": 1.0157,
    "v": 985
  },
  {
    "dt": "2022.04.05 09:00",
    "o": 1.01569,
    "h": 1.01632,
    "l": 1.01535,
    "c": 1.01576,
    "v": 1702
  },
  {
    "dt": "2022.04.05 10:00",
    "o": 1.01577,
    "h": 1.01706,
    "l": 1.01505,
    "c": 1.0164,
    "v": 2713
  },
  {
    "dt": "2022.04.05 11:00",
    "o": 1.01641,
    "h": 1.01704,
    "l": 1.01499,
    "c": 1.01584,
    "v": 2438
  },
  {
    "dt": "2022.04.05 12:00",
    "o": 1.01585,
    "h": 1.01687,
    "l": 1.01535,
    "c": 1.01565,
    "v": 2064
  },
  {
    "dt": "2022.04.05 13:00",
    "o": 1.01566,
    "h": 1.01572,
    "l": 1.01465,
    "c": 1.0156,
    "v": 2220
  },
  {
    "dt": "2022.04.05 14:00",
    "o": 1.01559,
    "h": 1.01578,
    "l": 1.01449,
    "c": 1.01454,
    "v": 1864
  },
  {
    "dt": "2022.04.05 15:00",
    "o": 1.01456,
    "h": 1.01462,
    "l": 1.01328,
    "c": 1.0138,
    "v": 2092
  },
  {
    "dt": "2022.04.05 16:00",
    "o": 1.01383,
    "h": 1.01445,
    "l": 1.01313,
    "c": 1.01402,
    "v": 2309
  },
  {
    "dt": "2022.04.05 17:00",
    "o": 1.01408,
    "h": 1.0162,
    "l": 1.01389,
    "c": 1.01524,
    "v": 3837
  },
  {
    "dt": "2022.04.05 18:00",
    "o": 1.01527,
    "h": 1.01553,
    "l": 1.01411,
    "c": 1.01475,
    "v": 2535
  },
  {
    "dt": "2022.04.05 19:00",
    "o": 1.01473,
    "h": 1.01489,
    "l": 1.01404,
    "c": 1.01452,
    "v": 1891
  },
  {
    "dt": "2022.04.05 20:00",
    "o": 1.01452,
    "h": 1.01464,
    "l": 1.01382,
    "c": 1.01403,
    "v": 1565
  },
  {
    "dt": "2022.04.05 21:00",
    "o": 1.01402,
    "h": 1.01412,
    "l": 1.01316,
    "c": 1.01325,
    "v": 1647
  },
  {
    "dt": "2022.04.05 22:00",
    "o": 1.01318,
    "h": 1.0135,
    "l": 1.01307,
    "c": 1.01329,
    "v": 1403
  },
  {
    "dt": "2022.04.05 23:00",
    "o": 1.01328,
    "h": 1.01365,
    "l": 1.01319,
    "c": 1.0135,
    "v": 747
  },
  {
    "dt": "2022.04.06 00:00",
    "o": 1.01337,
    "h": 1.01346,
    "l": 1.01317,
    "c": 1.01322,
    "v": 238
  },
  {
    "dt": "2022.04.06 01:00",
    "o": 1.01321,
    "h": 1.01383,
    "l": 1.01321,
    "c": 1.01359,
    "v": 465
  },
  {
    "dt": "2022.04.06 02:00",
    "o": 1.01359,
    "h": 1.01389,
    "l": 1.01359,
    "c": 1.01376,
    "v": 416
  },
  {
    "dt": "2022.04.06 03:00",
    "o": 1.01379,
    "h": 1.01431,
    "l": 1.01339,
    "c": 1.01399,
    "v": 1221
  },
  {
    "dt": "2022.04.06 04:00",
    "o": 1.014,
    "h": 1.01437,
    "l": 1.01358,
    "c": 1.01364,
    "v": 1259
  },
  {
    "dt": "2022.04.06 05:00",
    "o": 1.01364,
    "h": 1.01395,
    "l": 1.01349,
    "c": 1.01382,
    "v": 1390
  },
  {
    "dt": "2022.04.06 06:00",
    "o": 1.01382,
    "h": 1.01443,
    "l": 1.01378,
    "c": 1.01435,
    "v": 1205
  },
  {
    "dt": "2022.04.06 07:00",
    "o": 1.01436,
    "h": 1.01474,
    "l": 1.01432,
    "c": 1.01445,
    "v": 946
  },
  {
    "dt": "2022.04.06 08:00",
    "o": 1.01448,
    "h": 1.01455,
    "l": 1.01395,
    "c": 1.01395,
    "v": 1026
  },
  {
    "dt": "2022.04.06 09:00",
    "o": 1.01396,
    "h": 1.01595,
    "l": 1.01357,
    "c": 1.01592,
    "v": 2015
  },
  {
    "dt": "2022.04.06 10:00",
    "o": 1.01591,
    "h": 1.01788,
    "l": 1.0158,
    "c": 1.01745,
    "v": 3080
  },
  {
    "dt": "2022.04.06 11:00",
    "o": 1.01744,
    "h": 1.01934,
    "l": 1.01683,
    "c": 1.01846,
    "v": 2808
  },
  {
    "dt": "2022.04.06 12:00",
    "o": 1.01844,
    "h": 1.0188,
    "l": 1.01722,
    "c": 1.01839,
    "v": 2544
  },
  {
    "dt": "2022.04.06 13:00",
    "o": 1.01841,
    "h": 1.01863,
    "l": 1.01763,
    "c": 1.01844,
    "v": 2319
  },
  {
    "dt": "2022.04.06 14:00",
    "o": 1.01843,
    "h": 1.01887,
    "l": 1.01805,
    "c": 1.01864,
    "v": 2038
  },
  {
    "dt": "2022.04.06 15:00",
    "o": 1.0187,
    "h": 1.02006,
    "l": 1.01818,
    "c": 1.01999,
    "v": 2429
  },
  {
    "dt": "2022.04.06 16:00",
    "o": 1.01998,
    "h": 1.02036,
    "l": 1.01816,
    "c": 1.01816,
    "v": 2523
  },
  {
    "dt": "2022.04.06 17:00",
    "o": 1.01826,
    "h": 1.01935,
    "l": 1.01784,
    "c": 1.0184,
    "v": 2821
  },
  {
    "dt": "2022.04.06 18:00",
    "o": 1.01833,
    "h": 1.01841,
    "l": 1.01649,
    "c": 1.0175,
    "v": 2403
  },
  {
    "dt": "2022.04.06 19:00",
    "o": 1.01749,
    "h": 1.01794,
    "l": 1.01708,
    "c": 1.01722,
    "v": 1724
  },
  {
    "dt": "2022.04.06 20:00",
    "o": 1.01721,
    "h": 1.01736,
    "l": 1.0165,
    "c": 1.01664,
    "v": 1423
  },
  {
    "dt": "2022.04.06 21:00",
    "o": 1.01665,
    "h": 1.01713,
    "l": 1.01616,
    "c": 1.01685,
    "v": 3639
  },
  {
    "dt": "2022.04.06 22:00",
    "o": 1.01688,
    "h": 1.01721,
    "l": 1.01641,
    "c": 1.01671,
    "v": 1972
  },
  {
    "dt": "2022.04.06 23:00",
    "o": 1.01674,
    "h": 1.01693,
    "l": 1.01655,
    "c": 1.01681,
    "v": 854
  },
  {
    "dt": "2022.04.07 00:00",
    "o": 1.01603,
    "h": 1.01676,
    "l": 1.01529,
    "c": 1.01611,
    "v": 382
  },
  {
    "dt": "2022.04.07 01:00",
    "o": 1.0162,
    "h": 1.017,
    "l": 1.0162,
    "c": 1.01684,
    "v": 490
  },
  {
    "dt": "2022.04.07 02:00",
    "o": 1.01681,
    "h": 1.01715,
    "l": 1.01669,
    "c": 1.01672,
    "v": 484
  },
  {
    "dt": "2022.04.07 03:00",
    "o": 1.01676,
    "h": 1.01712,
    "l": 1.01578,
    "c": 1.01707,
    "v": 1598
  },
  {
    "dt": "2022.04.07 04:00",
    "o": 1.01708,
    "h": 1.01726,
    "l": 1.01669,
    "c": 1.01691,
    "v": 1395
  },
  {
    "dt": "2022.04.07 05:00",
    "o": 1.0169,
    "h": 1.01731,
    "l": 1.01676,
    "c": 1.01727,
    "v": 1063
  },
  {
    "dt": "2022.04.07 06:00",
    "o": 1.01725,
    "h": 1.01733,
    "l": 1.01675,
    "c": 1.01713,
    "v": 775
  },
  {
    "dt": "2022.04.07 07:00",
    "o": 1.01713,
    "h": 1.0181,
    "l": 1.01713,
    "c": 1.01802,
    "v": 732
  },
  {
    "dt": "2022.04.07 08:00",
    "o": 1.01798,
    "h": 1.01822,
    "l": 1.01754,
    "c": 1.01797,
    "v": 1320
  },
  {
    "dt": "2022.04.07 09:00",
    "o": 1.01795,
    "h": 1.01898,
    "l": 1.01758,
    "c": 1.01828,
    "v": 1814
  },
  {
    "dt": "2022.04.07 10:00",
    "o": 1.01832,
    "h": 1.01832,
    "l": 1.01559,
    "c": 1.01599,
    "v": 2337
  },
  {
    "dt": "2022.04.07 11:00",
    "o": 1.01593,
    "h": 1.01597,
    "l": 1.0145,
    "c": 1.01483,
    "v": 2638
  },
  {
    "dt": "2022.04.07 12:00",
    "o": 1.01483,
    "h": 1.0169,
    "l": 1.01472,
    "c": 1.0165,
    "v": 2620
  },
  {
    "dt": "2022.04.07 13:00",
    "o": 1.01651,
    "h": 1.01684,
    "l": 1.01592,
    "c": 1.0165,
    "v": 1822
  },
  {
    "dt": "2022.04.07 14:00",
    "o": 1.0165,
    "h": 1.01866,
    "l": 1.01632,
    "c": 1.01772,
    "v": 3305
  },
  {
    "dt": "2022.04.07 15:00",
    "o": 1.01773,
    "h": 1.01972,
    "l": 1.01767,
    "c": 1.01865,
    "v": 2368
  },
  {
    "dt": "2022.04.07 16:00",
    "o": 1.01863,
    "h": 1.01969,
    "l": 1.01787,
    "c": 1.01798,
    "v": 2886
  },
  {
    "dt": "2022.04.07 17:00",
    "o": 1.01796,
    "h": 1.01851,
    "l": 1.01644,
    "c": 1.01813,
    "v": 3243
  },
  {
    "dt": "2022.04.07 18:00",
    "o": 1.01814,
    "h": 1.01828,
    "l": 1.01653,
    "c": 1.01706,
    "v": 2490
  },
  {
    "dt": "2022.04.07 19:00",
    "o": 1.01705,
    "h": 1.01715,
    "l": 1.0157,
    "c": 1.01608,
    "v": 2009
  },
  {
    "dt": "2022.04.07 20:00",
    "o": 1.01607,
    "h": 1.01614,
    "l": 1.01553,
    "c": 1.01606,
    "v": 1511
  },
  {
    "dt": "2022.04.07 21:00",
    "o": 1.01607,
    "h": 1.01652,
    "l": 1.01547,
    "c": 1.01605,
    "v": 1502
  },
  {
    "dt": "2022.04.07 22:00",
    "o": 1.01604,
    "h": 1.01618,
    "l": 1.01528,
    "c": 1.01542,
    "v": 1405
  },
  {
    "dt": "2022.04.07 23:00",
    "o": 1.01543,
    "h": 1.01635,
    "l": 1.01543,
    "c": 1.01623,
    "v": 811
  },
  {
    "dt": "2022.04.08 00:00",
    "o": 1.01457,
    "h": 1.01575,
    "l": 1.01457,
    "c": 1.01567,
    "v": 457
  },
  {
    "dt": "2022.04.08 01:00",
    "o": 1.01566,
    "h": 1.01625,
    "l": 1.01566,
    "c": 1.0161,
    "v": 631
  },
  {
    "dt": "2022.04.08 02:00",
    "o": 1.01615,
    "h": 1.01615,
    "l": 1.0151,
    "c": 1.01518,
    "v": 998
  },
  {
    "dt": "2022.04.08 03:00",
    "o": 1.01522,
    "h": 1.01553,
    "l": 1.01475,
    "c": 1.01488,
    "v": 2046
  },
  {
    "dt": "2022.04.08 04:00",
    "o": 1.01487,
    "h": 1.01551,
    "l": 1.01459,
    "c": 1.01523,
    "v": 1398
  },
  {
    "dt": "2022.04.08 05:00",
    "o": 1.01522,
    "h": 1.01542,
    "l": 1.01492,
    "c": 1.01504,
    "v": 1166
  },
  {
    "dt": "2022.04.08 06:00",
    "o": 1.01505,
    "h": 1.01549,
    "l": 1.01486,
    "c": 1.01548,
    "v": 877
  },
  {
    "dt": "2022.04.08 07:00",
    "o": 1.01548,
    "h": 1.01548,
    "l": 1.01494,
    "c": 1.01512,
    "v": 918
  },
  {
    "dt": "2022.04.08 08:00",
    "o": 1.01514,
    "h": 1.01553,
    "l": 1.01488,
    "c": 1.01493,
    "v": 1234
  },
  {
    "dt": "2022.04.08 09:00",
    "o": 1.01493,
    "h": 1.01567,
    "l": 1.01461,
    "c": 1.01515,
    "v": 1754
  },
  {
    "dt": "2022.04.08 10:00",
    "o": 1.01512,
    "h": 1.01544,
    "l": 1.01381,
    "c": 1.01541,
    "v": 2382
  },
  {
    "dt": "2022.04.08 11:00",
    "o": 1.01539,
    "h": 1.01677,
    "l": 1.01529,
    "c": 1.01611,
    "v": 2196
  },
  {
    "dt": "2022.04.08 12:00",
    "o": 1.01612,
    "h": 1.01714,
    "l": 1.01603,
    "c": 1.01656,
    "v": 1891
  },
  {
    "dt": "2022.04.08 13:00",
    "o": 1.01653,
    "h": 1.01783,
    "l": 1.01613,
    "c": 1.01738,
    "v": 1885
  },
  {
    "dt": "2022.04.08 14:00",
    "o": 1.0174,
    "h": 1.01747,
    "l": 1.01539,
    "c": 1.01551,
    "v": 1892
  },
  {
    "dt": "2022.04.08 15:00",
    "o": 1.0155,
    "h": 1.01655,
    "l": 1.01495,
    "c": 1.01604,
    "v": 2172
  },
  {
    "dt": "2022.04.08 16:00",
    "o": 1.01601,
    "h": 1.01623,
    "l": 1.01495,
    "c": 1.01538,
    "v": 3006
  },
  {
    "dt": "2022.04.08 17:00",
    "o": 1.01536,
    "h": 1.01646,
    "l": 1.01529,
    "c": 1.01587,
    "v": 2937
  },
  {
    "dt": "2022.04.08 18:00",
    "o": 1.01582,
    "h": 1.01645,
    "l": 1.01475,
    "c": 1.01478,
    "v": 2235
  },
  {
    "dt": "2022.04.08 19:00",
    "o": 1.01474,
    "h": 1.01522,
    "l": 1.01421,
    "c": 1.01502,
    "v": 1593
  },
  {
    "dt": "2022.04.08 20:00",
    "o": 1.01504,
    "h": 1.01557,
    "l": 1.01472,
    "c": 1.01544,
    "v": 1399
  },
  {
    "dt": "2022.04.08 21:00",
    "o": 1.01545,
    "h": 1.01611,
    "l": 1.01532,
    "c": 1.01608,
    "v": 1232
  },
  {
    "dt": "2022.04.08 22:00",
    "o": 1.01608,
    "h": 1.01608,
    "l": 1.01549,
    "c": 1.01578,
    "v": 956
  },
  {
    "dt": "2022.04.08 23:00",
    "o": 1.01579,
    "h": 1.01594,
    "l": 1.01534,
    "c": 1.01585,
    "v": 640
  },
  {
    "dt": "2022.04.11 00:00",
    "o": 1.01746,
    "h": 1.01765,
    "l": 1.01589,
    "c": 1.01663,
    "v": 399
  },
  {
    "dt": "2022.04.11 01:00",
    "o": 1.01676,
    "h": 1.01777,
    "l": 1.01648,
    "c": 1.01683,
    "v": 1302
  },
  {
    "dt": "2022.04.11 02:00",
    "o": 1.01682,
    "h": 1.01713,
    "l": 1.01647,
    "c": 1.01682,
    "v": 1147
  },
  {
    "dt": "2022.04.11 03:00",
    "o": 1.01683,
    "h": 1.01799,
    "l": 1.01672,
    "c": 1.01789,
    "v": 1421
  },
  {
    "dt": "2022.04.11 04:00",
    "o": 1.01789,
    "h": 1.0185,
    "l": 1.01749,
    "c": 1.01834,
    "v": 1390
  },
  {
    "dt": "2022.04.11 05:00",
    "o": 1.01832,
    "h": 1.019,
    "l": 1.01812,
    "c": 1.01822,
    "v": 1579
  },
  {
    "dt": "2022.04.11 06:00",
    "o": 1.01821,
    "h": 1.01883,
    "l": 1.01813,
    "c": 1.01855,
    "v": 1188
  },
  {
    "dt": "2022.04.11 07:00",
    "o": 1.01856,
    "h": 1.01863,
    "l": 1.01781,
    "c": 1.01828,
    "v": 861
  },
  {
    "dt": "2022.04.11 08:00",
    "o": 1.01827,
    "h": 1.01883,
    "l": 1.01793,
    "c": 1.01867,
    "v": 1136
  },
  {
    "dt": "2022.04.11 09:00",
    "o": 1.01865,
    "h": 1.01945,
    "l": 1.01823,
    "c": 1.01929,
    "v": 2140
  },
  {
    "dt": "2022.04.11 10:00",
    "o": 1.01927,
    "h": 1.01996,
    "l": 1.01807,
    "c": 1.01974,
    "v": 2936
  },
  {
    "dt": "2022.04.11 11:00",
    "o": 1.01978,
    "h": 1.02006,
    "l": 1.01907,
    "c": 1.01918,
    "v": 2473
  },
  {
    "dt": "2022.04.11 12:00",
    "o": 1.01919,
    "h": 1.0203,
    "l": 1.01881,
    "c": 1.02,
    "v": 2006
  },
  {
    "dt": "2022.04.11 13:00",
    "o": 1.01999,
    "h": 1.02048,
    "l": 1.01884,
    "c": 1.01924,
    "v": 2311
  },
  {
    "dt": "2022.04.11 14:00",
    "o": 1.01924,
    "h": 1.01937,
    "l": 1.01789,
    "c": 1.01796,
    "v": 1916
  },
  {
    "dt": "2022.04.11 15:00",
    "o": 1.01798,
    "h": 1.0184,
    "l": 1.01693,
    "c": 1.01742,
    "v": 2264
  },
  {
    "dt": "2022.04.11 16:00",
    "o": 1.01741,
    "h": 1.01759,
    "l": 1.01596,
    "c": 1.01637,
    "v": 2535
  },
  {
    "dt": "2022.04.11 17:00",
    "o": 1.01639,
    "h": 1.01669,
    "l": 1.01394,
    "c": 1.01423,
    "v": 2788
  },
  {
    "dt": "2022.04.11 18:00",
    "o": 1.01425,
    "h": 1.01451,
    "l": 1.01212,
    "c": 1.01233,
    "v": 2279
  },
  {
    "dt": "2022.04.11 19:00",
    "o": 1.0123,
    "h": 1.01302,
    "l": 1.01213,
    "c": 1.0126,
    "v": 1668
  },
  {
    "dt": "2022.04.11 20:00",
    "o": 1.01263,
    "h": 1.01383,
    "l": 1.0124,
    "c": 1.01352,
    "v": 1592
  },
  {
    "dt": "2022.04.11 21:00",
    "o": 1.01352,
    "h": 1.01398,
    "l": 1.01337,
    "c": 1.01382,
    "v": 1452
  },
  {
    "dt": "2022.04.11 22:00",
    "o": 1.01381,
    "h": 1.01407,
    "l": 1.01358,
    "c": 1.01359,
    "v": 1139
  },
  {
    "dt": "2022.04.11 23:00",
    "o": 1.01358,
    "h": 1.01371,
    "l": 1.01306,
    "c": 1.01327,
    "v": 693
  },
  {
    "dt": "2022.04.12 00:00",
    "o": 1.01214,
    "h": 1.01324,
    "l": 1.01214,
    "c": 1.01294,
    "v": 199
  },
  {
    "dt": "2022.04.12 01:00",
    "o": 1.01294,
    "h": 1.01341,
    "l": 1.01294,
    "c": 1.01311,
    "v": 463
  },
  {
    "dt": "2022.04.12 02:00",
    "o": 1.01311,
    "h": 1.0137,
    "l": 1.01284,
    "c": 1.01308,
    "v": 816
  },
  {
    "dt": "2022.04.12 03:00",
    "o": 1.01308,
    "h": 1.01372,
    "l": 1.01281,
    "c": 1.01312,
    "v": 1421
  },
  {
    "dt": "2022.04.12 04:00",
    "o": 1.0131,
    "h": 1.01316,
    "l": 1.01229,
    "c": 1.01243,
    "v": 1118
  },
  {
    "dt": "2022.04.12 05:00",
    "o": 1.01243,
    "h": 1.01288,
    "l": 1.01212,
    "c": 1.01261,
    "v": 1069
  },
  {
    "dt": "2022.04.12 06:00",
    "o": 1.01261,
    "h": 1.01287,
    "l": 1.01245,
    "c": 1.01263,
    "v": 707
  },
  {
    "dt": "2022.04.12 07:00",
    "o": 1.01261,
    "h": 1.01292,
    "l": 1.01238,
    "c": 1.01289,
    "v": 709
  },
  {
    "dt": "2022.04.12 08:00",
    "o": 1.01291,
    "h": 1.01304,
    "l": 1.01244,
    "c": 1.01261,
    "v": 1382
  },
  {
    "dt": "2022.04.12 09:00",
    "o": 1.01259,
    "h": 1.01325,
    "l": 1.01199,
    "c": 1.01291,
    "v": 2135
  },
  {
    "dt": "2022.04.12 10:00",
    "o": 1.01288,
    "h": 1.01546,
    "l": 1.01264,
    "c": 1.01504,
    "v": 2846
  },
  {
    "dt": "2022.04.12 11:00",
    "o": 1.01503,
    "h": 1.01547,
    "l": 1.01299,
    "c": 1.01341,
    "v": 2297
  },
  {
    "dt": "2022.04.12 12:00",
    "o": 1.0134,
    "h": 1.01421,
    "l": 1.01335,
    "c": 1.0142,
    "v": 1897
  },
  {
    "dt": "2022.04.12 13:00",
    "o": 1.01419,
    "h": 1.01438,
    "l": 1.0133,
    "c": 1.01341,
    "v": 1676
  },
  {
    "dt": "2022.04.12 14:00",
    "o": 1.01341,
    "h": 1.01358,
    "l": 1.01224,
    "c": 1.01244,
    "v": 1893
  },
  {
    "dt": "2022.04.12 15:00",
    "o": 1.01244,
    "h": 1.01326,
    "l": 1.01186,
    "c": 1.01226,
    "v": 3419
  },
  {
    "dt": "2022.04.12 16:00",
    "o": 1.01227,
    "h": 1.01255,
    "l": 1.01051,
    "c": 1.0115,
    "v": 3822
  },
  {
    "dt": "2022.04.12 17:00",
    "o": 1.01149,
    "h": 1.01172,
    "l": 1.01068,
    "c": 1.0107,
    "v": 3012
  },
  {
    "dt": "2022.04.12 18:00",
    "o": 1.01069,
    "h": 1.01082,
    "l": 1.00901,
    "c": 1.0094,
    "v": 2515
  },
  {
    "dt": "2022.04.12 19:00",
    "o": 1.00942,
    "h": 1.00985,
    "l": 1.00896,
    "c": 1.00962,
    "v": 2699
  },
  {
    "dt": "2022.04.12 20:00",
    "o": 1.00959,
    "h": 1.00998,
    "l": 1.00902,
    "c": 1.00913,
    "v": 2063
  },
  {
    "dt": "2022.04.12 21:00",
    "o": 1.00914,
    "h": 1.00951,
    "l": 1.00885,
    "c": 1.00921,
    "v": 1759
  },
  {
    "dt": "2022.04.12 22:00",
    "o": 1.00922,
    "h": 1.00993,
    "l": 1.00916,
    "c": 1.00974,
    "v": 1563
  },
  {
    "dt": "2022.04.12 23:00",
    "o": 1.00971,
    "h": 1.0099,
    "l": 1.00949,
    "c": 1.00975,
    "v": 688
  },
  {
    "dt": "2022.04.13 00:00",
    "o": 1.00958,
    "h": 1.00972,
    "l": 1.00933,
    "c": 1.00942,
    "v": 481
  },
  {
    "dt": "2022.04.13 01:00",
    "o": 1.00938,
    "h": 1.00988,
    "l": 1.00938,
    "c": 1.00981,
    "v": 679
  },
  {
    "dt": "2022.04.13 02:00",
    "o": 1.00991,
    "h": 1.01013,
    "l": 1.00957,
    "c": 1.00963,
    "v": 606
  },
  {
    "dt": "2022.04.13 03:00",
    "o": 1.00961,
    "h": 1.01027,
    "l": 1.00936,
    "c": 1.00967,
    "v": 1199
  },
  {
    "dt": "2022.04.13 04:00",
    "o": 1.00969,
    "h": 1.01009,
    "l": 1.00957,
    "c": 1.01008,
    "v": 1077
  },
  {
    "dt": "2022.04.13 05:00",
    "o": 1.01006,
    "h": 1.01041,
    "l": 1.00995,
    "c": 1.01036,
    "v": 1185
  },
  {
    "dt": "2022.04.13 06:00",
    "o": 1.01034,
    "h": 1.01049,
    "l": 1.01012,
    "c": 1.0102,
    "v": 793
  },
  {
    "dt": "2022.04.13 07:00",
    "o": 1.0102,
    "h": 1.01045,
    "l": 1.01003,
    "c": 1.01044,
    "v": 855
  },
  {
    "dt": "2022.04.13 08:00",
    "o": 1.0104,
    "h": 1.01067,
    "l": 1.01018,
    "c": 1.01056,
    "v": 994
  },
  {
    "dt": "2022.04.13 09:00",
    "o": 1.0106,
    "h": 1.01103,
    "l": 1.01025,
    "c": 1.0105,
    "v": 2443
  },
  {
    "dt": "2022.04.13 10:00",
    "o": 1.01051,
    "h": 1.01075,
    "l": 1.00912,
    "c": 1.01026,
    "v": 2475
  },
  {
    "dt": "2022.04.13 11:00",
    "o": 1.01022,
    "h": 1.01031,
    "l": 1.00918,
    "c": 1.00966,
    "v": 2198
  },
  {
    "dt": "2022.04.13 12:00",
    "o": 1.00967,
    "h": 1.01085,
    "l": 1.00872,
    "c": 1.01049,
    "v": 2075
  },
  {
    "dt": "2022.04.13 13:00",
    "o": 1.01052,
    "h": 1.01091,
    "l": 1.00992,
    "c": 1.01075,
    "v": 1710
  },
  {
    "dt": "2022.04.13 14:00",
    "o": 1.01076,
    "h": 1.01195,
    "l": 1.01076,
    "c": 1.01174,
    "v": 2237
  },
  {
    "dt": "2022.04.13 15:00",
    "o": 1.01177,
    "h": 1.0122,
    "l": 1.01108,
    "c": 1.01204,
    "v": 2727
  },
  {
    "dt": "2022.04.13 16:00",
    "o": 1.01202,
    "h": 1.01219,
    "l": 1.01021,
    "c": 1.01053,
    "v": 2809
  },
  {
    "dt": "2022.04.13 17:00",
    "o": 1.01057,
    "h": 1.01382,
    "l": 1.01056,
    "c": 1.01362,
    "v": 3091
  },
  {
    "dt": "2022.04.13 18:00",
    "o": 1.01363,
    "h": 1.01521,
    "l": 1.01346,
    "c": 1.01497,
    "v": 2593
  },
  {
    "dt": "2022.04.13 19:00",
    "o": 1.015,
    "h": 1.01623,
    "l": 1.01499,
    "c": 1.01623,
    "v": 2360
  },
  {
    "dt": "2022.04.13 20:00",
    "o": 1.0162,
    "h": 1.01676,
    "l": 1.01547,
    "c": 1.01597,
    "v": 2238
  },
  {
    "dt": "2022.04.13 21:00",
    "o": 1.01597,
    "h": 1.01681,
    "l": 1.01589,
    "c": 1.01667,
    "v": 1434
  },
  {
    "dt": "2022.04.13 22:00",
    "o": 1.01666,
    "h": 1.01761,
    "l": 1.01657,
    "c": 1.01747,
    "v": 1320
  },
  {
    "dt": "2022.04.13 23:00",
    "o": 1.01747,
    "h": 1.01819,
    "l": 1.01728,
    "c": 1.018,
    "v": 630
  },
  {
    "dt": "2022.04.14 00:00",
    "o": 1.01631,
    "h": 1.01738,
    "l": 1.01584,
    "c": 1.01721,
    "v": 753
  },
  {
    "dt": "2022.04.14 01:00",
    "o": 1.01728,
    "h": 1.01793,
    "l": 1.01717,
    "c": 1.01725,
    "v": 733
  },
  {
    "dt": "2022.04.14 02:00",
    "o": 1.01724,
    "h": 1.01758,
    "l": 1.01705,
    "c": 1.01746,
    "v": 900
  },
  {
    "dt": "2022.04.14 03:00",
    "o": 1.01746,
    "h": 1.01791,
    "l": 1.01731,
    "c": 1.01757,
    "v": 1471
  },
  {
    "dt": "2022.04.14 04:00",
    "o": 1.01757,
    "h": 1.01788,
    "l": 1.01724,
    "c": 1.01772,
    "v": 1285
  },
  {
    "dt": "2022.04.14 05:00",
    "o": 1.01772,
    "h": 1.01772,
    "l": 1.01715,
    "c": 1.0173,
    "v": 1181
  },
  {
    "dt": "2022.04.14 06:00",
    "o": 1.0173,
    "h": 1.01738,
    "l": 1.01696,
    "c": 1.01728,
    "v": 861
  },
  {
    "dt": "2022.04.14 07:00",
    "o": 1.01729,
    "h": 1.01791,
    "l": 1.01729,
    "c": 1.01775,
    "v": 1128
  },
  {
    "dt": "2022.04.14 08:00",
    "o": 1.01777,
    "h": 1.01833,
    "l": 1.01776,
    "c": 1.01808,
    "v": 1138
  },
  {
    "dt": "2022.04.14 09:00",
    "o": 1.01809,
    "h": 1.0189,
    "l": 1.01809,
    "c": 1.01887,
    "v": 1494
  },
  {
    "dt": "2022.04.14 10:00",
    "o": 1.01891,
    "h": 1.01925,
    "l": 1.01727,
    "c": 1.01898,
    "v": 2463
  },
  {
    "dt": "2022.04.14 11:00",
    "o": 1.01895,
    "h": 1.02,
    "l": 1.01881,
    "c": 1.01991,
    "v": 2135
  },
  {
    "dt": "2022.04.14 12:00",
    "o": 1.01991,
    "h": 1.02002,
    "l": 1.01935,
    "c": 1.01986,
    "v": 1867
  },
  {
    "dt": "2022.04.14 13:00",
    "o": 1.01986,
    "h": 1.0204,
    "l": 1.01915,
    "c": 1.01935,
    "v": 1725
  },
  {
    "dt": "2022.04.14 14:00",
    "o": 1.01933,
    "h": 1.02116,
    "l": 1.01837,
    "c": 1.01869,
    "v": 2748
  },
  {
    "dt": "2022.04.14 15:00",
    "o": 1.0187,
    "h": 1.01956,
    "l": 1.01673,
    "c": 1.01684,
    "v": 3900
  },
  {
    "dt": "2022.04.14 16:00",
    "o": 1.01687,
    "h": 1.01705,
    "l": 1.01387,
    "c": 1.01503,
    "v": 4439
  },
  {
    "dt": "2022.04.14 17:00",
    "o": 1.01497,
    "h": 1.01723,
    "l": 1.01497,
    "c": 1.01589,
    "v": 3853
  },
  {
    "dt": "2022.04.14 18:00",
    "o": 1.01591,
    "h": 1.01849,
    "l": 1.01531,
    "c": 1.01761,
    "v": 3642
  },
  {
    "dt": "2022.04.14 19:00",
    "o": 1.01761,
    "h": 1.01992,
    "l": 1.01753,
    "c": 1.01985,
    "v": 2737
  },
  {
    "dt": "2022.04.14 20:00",
    "o": 1.01982,
    "h": 1.02074,
    "l": 1.01902,
    "c": 1.02074,
    "v": 1823
  },
  {
    "dt": "2022.04.14 21:00",
    "o": 1.02074,
    "h": 1.02111,
    "l": 1.02037,
    "c": 1.02086,
    "v": 1225
  },
  {
    "dt": "2022.04.14 22:00",
    "o": 1.02086,
    "h": 1.02125,
    "l": 1.02026,
    "c": 1.02041,
    "v": 1162
  },
  {
    "dt": "2022.04.14 23:00",
    "o": 1.0204,
    "h": 1.021,
    "l": 1.02018,
    "c": 1.02042,
    "v": 752
  },
  {
    "dt": "2022.04.15 00:00",
    "o": 1.01961,
    "h": 1.02007,
    "l": 1.01899,
    "c": 1.01948,
    "v": 207
  },
  {
    "dt": "2022.04.15 01:00",
    "o": 1.01957,
    "h": 1.02002,
    "l": 1.01905,
    "c": 1.01969,
    "v": 427
  },
  {
    "dt": "2022.04.15 02:00",
    "o": 1.0197,
    "h": 1.02036,
    "l": 1.01903,
    "c": 1.02031,
    "v": 2139
  },
  {
    "dt": "2022.04.15 03:00",
    "o": 1.02038,
    "h": 1.02045,
    "l": 1.01804,
    "c": 1.01867,
    "v": 2002
  },
  {
    "dt": "2022.04.15 04:00",
    "o": 1.01868,
    "h": 1.02103,
    "l": 1.01842,
    "c": 1.02069,
    "v": 2484
  },
  {
    "dt": "2022.04.15 05:00",
    "o": 1.02068,
    "h": 1.02079,
    "l": 1.01904,
    "c": 1.01908,
    "v": 2424
  },
  {
    "dt": "2022.04.15 06:00",
    "o": 1.01912,
    "h": 1.0199,
    "l": 1.01834,
    "c": 1.0188,
    "v": 2821
  },
  {
    "dt": "2022.04.15 07:00",
    "o": 1.01882,
    "h": 1.01976,
    "l": 1.01844,
    "c": 1.01892,
    "v": 1933
  },
  {
    "dt": "2022.04.15 08:00",
    "o": 1.01896,
    "h": 1.01975,
    "l": 1.01868,
    "c": 1.01924,
    "v": 1940
  },
  {
    "dt": "2022.04.15 09:00",
    "o": 1.0192,
    "h": 1.01943,
    "l": 1.0173,
    "c": 1.01753,
    "v": 2054
  },
  {
    "dt": "2022.04.15 10:00",
    "o": 1.01754,
    "h": 1.01825,
    "l": 1.01708,
    "c": 1.01811,
    "v": 4411
  },
  {
    "dt": "2022.04.15 11:00",
    "o": 1.01811,
    "h": 1.01969,
    "l": 1.01788,
    "c": 1.01917,
    "v": 2865
  },
  {
    "dt": "2022.04.15 12:00",
    "o": 1.01916,
    "h": 1.01934,
    "l": 1.01848,
    "c": 1.01851,
    "v": 2672
  },
  {
    "dt": "2022.04.15 13:00",
    "o": 1.0185,
    "h": 1.01906,
    "l": 1.01796,
    "c": 1.01824,
    "v": 3608
  },
  {
    "dt": "2022.04.15 14:00",
    "o": 1.01821,
    "h": 1.01894,
    "l": 1.01781,
    "c": 1.01891,
    "v": 2061
  },
  {
    "dt": "2022.04.15 15:00",
    "o": 1.01882,
    "h": 1.01934,
    "l": 1.0183,
    "c": 1.01834,
    "v": 2592
  },
  {
    "dt": "2022.04.15 16:00",
    "o": 1.01836,
    "h": 1.01904,
    "l": 1.01777,
    "c": 1.01892,
    "v": 3715
  },
  {
    "dt": "2022.04.15 17:00",
    "o": 1.01891,
    "h": 1.01891,
    "l": 1.01786,
    "c": 1.01854,
    "v": 2601
  },
  {
    "dt": "2022.04.15 18:00",
    "o": 1.01852,
    "h": 1.019,
    "l": 1.01827,
    "c": 1.01876,
    "v": 1559
  },
  {
    "dt": "2022.04.15 19:00",
    "o": 1.01874,
    "h": 1.01913,
    "l": 1.01836,
    "c": 1.01846,
    "v": 787
  },
  {
    "dt": "2022.04.15 20:00",
    "o": 1.01848,
    "h": 1.01882,
    "l": 1.01845,
    "c": 1.01866,
    "v": 691
  },
  {
    "dt": "2022.04.15 21:00",
    "o": 1.01869,
    "h": 1.01893,
    "l": 1.01859,
    "c": 1.01874,
    "v": 502
  },
  {
    "dt": "2022.04.15 22:00",
    "o": 1.01875,
    "h": 1.01914,
    "l": 1.01823,
    "c": 1.01871,
    "v": 501
  },
  {
    "dt": "2022.04.15 23:00",
    "o": 1.01869,
    "h": 1.01926,
    "l": 1.01829,
    "c": 1.01916,
    "v": 413
  },
  {
    "dt": "2022.04.18 00:00",
    "o": 1.0184,
    "h": 1.0184,
    "l": 1.01778,
    "c": 1.01822,
    "v": 145
  },
  {
    "dt": "2022.04.18 01:00",
    "o": 1.01966,
    "h": 1.01973,
    "l": 1.01865,
    "c": 1.01965,
    "v": 1131
  },
  {
    "dt": "2022.04.18 02:00",
    "o": 1.01964,
    "h": 1.02007,
    "l": 1.01891,
    "c": 1.01916,
    "v": 1081
  },
  {
    "dt": "2022.04.18 03:00",
    "o": 1.01915,
    "h": 1.0192,
    "l": 1.01826,
    "c": 1.01855,
    "v": 1540
  },
  {
    "dt": "2022.04.18 04:00",
    "o": 1.01853,
    "h": 1.01888,
    "l": 1.01834,
    "c": 1.01861,
    "v": 1320
  },
  {
    "dt": "2022.04.18 05:00",
    "o": 1.01864,
    "h": 1.01903,
    "l": 1.01832,
    "c": 1.019,
    "v": 931
  },
  {
    "dt": "2022.04.18 06:00",
    "o": 1.01898,
    "h": 1.01906,
    "l": 1.01847,
    "c": 1.01865,
    "v": 1002
  },
  {
    "dt": "2022.04.18 07:00",
    "o": 1.01863,
    "h": 1.01922,
    "l": 1.01851,
    "c": 1.01914,
    "v": 773
  },
  {
    "dt": "2022.04.18 08:00",
    "o": 1.01914,
    "h": 1.0194,
    "l": 1.01876,
    "c": 1.0193,
    "v": 786
  },
  {
    "dt": "2022.04.18 09:00",
    "o": 1.01931,
    "h": 1.0196,
    "l": 1.01834,
    "c": 1.01851,
    "v": 971
  },
  {
    "dt": "2022.04.18 10:00",
    "o": 1.01851,
    "h": 1.01951,
    "l": 1.01838,
    "c": 1.01915,
    "v": 1226
  },
  {
    "dt": "2022.04.18 11:00",
    "o": 1.01914,
    "h": 1.01958,
    "l": 1.01854,
    "c": 1.01943,
    "v": 1499
  },
  {
    "dt": "2022.04.18 12:00",
    "o": 1.01942,
    "h": 1.01945,
    "l": 1.01809,
    "c": 1.01829,
    "v": 1357
  },
  {
    "dt": "2022.04.18 13:00",
    "o": 1.01828,
    "h": 1.01842,
    "l": 1.01729,
    "c": 1.01797,
    "v": 1214
  },
  {
    "dt": "2022.04.18 14:00",
    "o": 1.01797,
    "h": 1.01883,
    "l": 1.01792,
    "c": 1.0187,
    "v": 1453
  },
  {
    "dt": "2022.04.18 15:00",
    "o": 1.01872,
    "h": 1.01932,
    "l": 1.01849,
    "c": 1.01928,
    "v": 2166
  },
  {
    "dt": "2022.04.18 16:00",
    "o": 1.01927,
    "h": 1.01996,
    "l": 1.01813,
    "c": 1.01865,
    "v": 2583
  },
  {
    "dt": "2022.04.18 17:00",
    "o": 1.01863,
    "h": 1.019,
    "l": 1.01787,
    "c": 1.01821,
    "v": 2273
  },
  {
    "dt": "2022.04.18 18:00",
    "o": 1.01817,
    "h": 1.01873,
    "l": 1.01795,
    "c": 1.01817,
    "v": 1879
  },
  {
    "dt": "2022.04.18 19:00",
    "o": 1.01817,
    "h": 1.01831,
    "l": 1.01732,
    "c": 1.01759,
    "v": 1799
  },
  {
    "dt": "2022.04.18 20:00",
    "o": 1.01758,
    "h": 1.01838,
    "l": 1.01737,
    "c": 1.01833,
    "v": 1600
  },
  {
    "dt": "2022.04.18 21:00",
    "o": 1.01834,
    "h": 1.01849,
    "l": 1.01812,
    "c": 1.01842,
    "v": 1599
  },
  {
    "dt": "2022.04.18 22:00",
    "o": 1.01843,
    "h": 1.0185,
    "l": 1.01787,
    "c": 1.0184,
    "v": 1383
  },
  {
    "dt": "2022.04.18 23:00",
    "o": 1.0184,
    "h": 1.01862,
    "l": 1.01823,
    "c": 1.01843,
    "v": 608
  },
  {
    "dt": "2022.04.19 00:00",
    "o": 1.01809,
    "h": 1.01819,
    "l": 1.01663,
    "c": 1.01801,
    "v": 307
  },
  {
    "dt": "2022.04.19 01:00",
    "o": 1.01802,
    "h": 1.0187,
    "l": 1.01801,
    "c": 1.0183,
    "v": 601
  },
  {
    "dt": "2022.04.19 02:00",
    "o": 1.01829,
    "h": 1.01866,
    "l": 1.01813,
    "c": 1.01847,
    "v": 785
  },
  {
    "dt": "2022.04.19 03:00",
    "o": 1.01848,
    "h": 1.01997,
    "l": 1.01822,
    "c": 1.01908,
    "v": 1744
  },
  {
    "dt": "2022.04.19 04:00",
    "o": 1.01906,
    "h": 1.01963,
    "l": 1.01862,
    "c": 1.01871,
    "v": 1464
  },
  {
    "dt": "2022.04.19 05:00",
    "o": 1.01872,
    "h": 1.01902,
    "l": 1.0182,
    "c": 1.01827,
    "v": 1536
  },
  {
    "dt": "2022.04.19 06:00",
    "o": 1.01827,
    "h": 1.01886,
    "l": 1.01801,
    "c": 1.01854,
    "v": 1196
  },
  {
    "dt": "2022.04.19 07:00",
    "o": 1.01855,
    "h": 1.01918,
    "l": 1.01847,
    "c": 1.01887,
    "v": 1054
  },
  {
    "dt": "2022.04.19 08:00",
    "o": 1.01885,
    "h": 1.01911,
    "l": 1.0186,
    "c": 1.01887,
    "v": 1298
  },
  {
    "dt": "2022.04.19 09:00",
    "o": 1.01884,
    "h": 1.01972,
    "l": 1.01834,
    "c": 1.01896,
    "v": 1653
  },
  {
    "dt": "2022.04.19 10:00",
    "o": 1.01896,
    "h": 1.0202,
    "l": 1.01827,
    "c": 1.02001,
    "v": 2647
  },
  {
    "dt": "2022.04.19 11:00",
    "o": 1.02003,
    "h": 1.02268,
    "l": 1.01954,
    "c": 1.02268,
    "v": 2691
  },
  {
    "dt": "2022.04.19 12:00",
    "o": 1.02267,
    "h": 1.02271,
    "l": 1.02127,
    "c": 1.02212,
    "v": 2153
  },
  {
    "dt": "2022.04.19 13:00",
    "o": 1.02211,
    "h": 1.02383,
    "l": 1.02168,
    "c": 1.0238,
    "v": 2393
  },
  {
    "dt": "2022.04.19 14:00",
    "o": 1.0238,
    "h": 1.02416,
    "l": 1.02184,
    "c": 1.0219,
    "v": 2183
  },
  {
    "dt": "2022.04.19 15:00",
    "o": 1.02187,
    "h": 1.02225,
    "l": 1.01856,
    "c": 1.01956,
    "v": 2929
  },
  {
    "dt": "2022.04.19 16:00",
    "o": 1.01955,
    "h": 1.02325,
    "l": 1.01954,
    "c": 1.02325,
    "v": 3127
  },
  {
    "dt": "2022.04.19 17:00",
    "o": 1.02327,
    "h": 1.02404,
    "l": 1.02171,
    "c": 1.02379,
    "v": 2967
  },
  {
    "dt": "2022.04.19 18:00",
    "o": 1.02376,
    "h": 1.02443,
    "l": 1.02295,
    "c": 1.02295,
    "v": 2387
  },
  {
    "dt": "2022.04.19 19:00",
    "o": 1.02293,
    "h": 1.02491,
    "l": 1.02285,
    "c": 1.02487,
    "v": 1740
  },
  {
    "dt": "2022.04.19 20:00",
    "o": 1.02489,
    "h": 1.02559,
    "l": 1.02472,
    "c": 1.0254,
    "v": 1709
  },
  {
    "dt": "2022.04.19 21:00",
    "o": 1.02541,
    "h": 1.02673,
    "l": 1.02525,
    "c": 1.02648,
    "v": 1596
  },
  {
    "dt": "2022.04.19 22:00",
    "o": 1.02643,
    "h": 1.02703,
    "l": 1.02606,
    "c": 1.02665,
    "v": 1190
  },
  {
    "dt": "2022.04.19 23:00",
    "o": 1.02662,
    "h": 1.02755,
    "l": 1.02644,
    "c": 1.02727,
    "v": 845
  },
  {
    "dt": "2022.04.20 00:00",
    "o": 1.02608,
    "h": 1.02687,
    "l": 1.02576,
    "c": 1.02687,
    "v": 523
  },
  {
    "dt": "2022.04.20 01:00",
    "o": 1.02693,
    "h": 1.02769,
    "l": 1.02689,
    "c": 1.0274,
    "v": 1088
  },
  {
    "dt": "2022.04.20 02:00",
    "o": 1.02742,
    "h": 1.02783,
    "l": 1.02677,
    "c": 1.02774,
    "v": 1057
  },
  {
    "dt": "2022.04.20 03:00",
    "o": 1.02772,
    "h": 1.02873,
    "l": 1.02753,
    "c": 1.02854,
    "v": 1610
  },
  {
    "dt": "2022.04.20 04:00",
    "o": 1.02855,
    "h": 1.02902,
    "l": 1.02773,
    "c": 1.0278,
    "v": 2176
  },
  {
    "dt": "2022.04.20 05:00",
    "o": 1.02773,
    "h": 1.02897,
    "l": 1.02773,
    "c": 1.02866,
    "v": 1794
  },
  {
    "dt": "2022.04.20 06:00",
    "o": 1.02864,
    "h": 1.02903,
    "l": 1.02798,
    "c": 1.02866,
    "v": 2089
  },
  {
    "dt": "2022.04.20 07:00",
    "o": 1.02866,
    "h": 1.02908,
    "l": 1.02839,
    "c": 1.0287,
    "v": 1313
  },
  {
    "dt": "2022.04.20 08:00",
    "o": 1.02867,
    "h": 1.02874,
    "l": 1.0281,
    "c": 1.02844,
    "v": 1375
  },
  {
    "dt": "2022.04.20 09:00",
    "o": 1.02839,
    "h": 1.02868,
    "l": 1.02788,
    "c": 1.0285,
    "v": 1691
  },
  {
    "dt": "2022.04.20 10:00",
    "o": 1.02853,
    "h": 1.02872,
    "l": 1.02653,
    "c": 1.02691,
    "v": 2299
  },
  {
    "dt": "2022.04.20 11:00",
    "o": 1.0269,
    "h": 1.02793,
    "l": 1.0264,
    "c": 1.02755,
    "v": 2071
  },
  {
    "dt": "2022.04.20 12:00",
    "o": 1.02757,
    "h": 1.02946,
    "l": 1.02679,
    "c": 1.02885,
    "v": 2601
  },
  {
    "dt": "2022.04.20 13:00",
    "o": 1.02883,
    "h": 1.03004,
    "l": 1.02849,
    "c": 1.02876,
    "v": 2314
  },
  {
    "dt": "2022.04.20 14:00",
    "o": 1.02872,
    "h": 1.02886,
    "l": 1.02471,
    "c": 1.02498,
    "v": 2281
  },
  {
    "dt": "2022.04.20 15:00",
    "o": 1.02496,
    "h": 1.0271,
    "l": 1.02496,
    "c": 1.02685,
    "v": 2315
  },
  {
    "dt": "2022.04.20 16:00",
    "o": 1.02686,
    "h": 1.02812,
    "l": 1.02658,
    "c": 1.0273,
    "v": 2956
  },
  {
    "dt": "2022.04.20 17:00",
    "o": 1.02733,
    "h": 1.02831,
    "l": 1.02656,
    "c": 1.02811,
    "v": 3188
  },
  {
    "dt": "2022.04.20 18:00",
    "o": 1.02811,
    "h": 1.02833,
    "l": 1.02714,
    "c": 1.02792,
    "v": 2315
  },
  {
    "dt": "2022.04.20 19:00",
    "o": 1.02793,
    "h": 1.02908,
    "l": 1.02779,
    "c": 1.02878,
    "v": 1952
  },
  {
    "dt": "2022.04.20 20:00",
    "o": 1.0288,
    "h": 1.0292,
    "l": 1.02866,
    "c": 1.02913,
    "v": 1853
  },
  {
    "dt": "2022.04.20 21:00",
    "o": 1.02912,
    "h": 1.02918,
    "l": 1.0286,
    "c": 1.02861,
    "v": 1567
  },
  {
    "dt": "2022.04.20 22:00",
    "o": 1.02858,
    "h": 1.02912,
    "l": 1.02858,
    "c": 1.02912,
    "v": 1507
  },
  {
    "dt": "2022.04.20 23:00",
    "o": 1.02911,
    "h": 1.02937,
    "l": 1.02869,
    "c": 1.02932,
    "v": 739
  },
  {
    "dt": "2022.04.21 00:00",
    "o": 1.02898,
    "h": 1.02933,
    "l": 1.02837,
    "c": 1.02901,
    "v": 348
  },
  {
    "dt": "2022.04.21 01:00",
    "o": 1.02893,
    "h": 1.02982,
    "l": 1.0289,
    "c": 1.02951,
    "v": 902
  },
  {
    "dt": "2022.04.21 02:00",
    "o": 1.02951,
    "h": 1.02984,
    "l": 1.02926,
    "c": 1.02965,
    "v": 892
  },
  {
    "dt": "2022.04.21 03:00",
    "o": 1.02962,
    "h": 1.02989,
    "l": 1.02871,
    "c": 1.02901,
    "v": 1461
  },
  {
    "dt": "2022.04.21 04:00",
    "o": 1.02902,
    "h": 1.02979,
    "l": 1.02895,
    "c": 1.02977,
    "v": 1490
  },
  {
    "dt": "2022.04.21 05:00",
    "o": 1.02977,
    "h": 1.0301,
    "l": 1.02941,
    "c": 1.02996,
    "v": 1416
  },
  {
    "dt": "2022.04.21 06:00",
    "o": 1.02993,
    "h": 1.02995,
    "l": 1.0294,
    "c": 1.02956,
    "v": 1385
  },
  {
    "dt": "2022.04.21 07:00",
    "o": 1.02956,
    "h": 1.02981,
    "l": 1.02931,
    "c": 1.02968,
    "v": 869
  },
  {
    "dt": "2022.04.21 08:00",
    "o": 1.02967,
    "h": 1.03093,
    "l": 1.02962,
    "c": 1.03069,
    "v": 1553
  },
  {
    "dt": "2022.04.21 09:00",
    "o": 1.03072,
    "h": 1.03331,
    "l": 1.03055,
    "c": 1.03224,
    "v": 2743
  },
  {
    "dt": "2022.04.21 10:00",
    "o": 1.03226,
    "h": 1.03531,
    "l": 1.03226,
    "c": 1.03348,
    "v": 3119
  },
  {
    "dt": "2022.04.21 11:00",
    "o": 1.03348,
    "h": 1.03615,
    "l": 1.03342,
    "c": 1.03569,
    "v": 2612
  },
  {
    "dt": "2022.04.21 12:00",
    "o": 1.03569,
    "h": 1.03704,
    "l": 1.034,
    "c": 1.03494,
    "v": 2357
  },
  {
    "dt": "2022.04.21 13:00",
    "o": 1.03494,
    "h": 1.03549,
    "l": 1.0332,
    "c": 1.03323,
    "v": 2186
  },
  {
    "dt": "2022.04.21 14:00",
    "o": 1.03326,
    "h": 1.0334,
    "l": 1.03237,
    "c": 1.03303,
    "v": 2471
  },
  {
    "dt": "2022.04.21 15:00",
    "o": 1.03298,
    "h": 1.03402,
    "l": 1.03283,
    "c": 1.03347,
    "v": 2445
  },
  {
    "dt": "2022.04.21 16:00",
    "o": 1.03347,
    "h": 1.03437,
    "l": 1.03249,
    "c": 1.03271,
    "v": 3076
  },
  {
    "dt": "2022.04.21 17:00",
    "o": 1.03271,
    "h": 1.03356,
    "l": 1.03165,
    "c": 1.03216,
    "v": 3074
  },
  {
    "dt": "2022.04.21 18:00",
    "o": 1.03219,
    "h": 1.03402,
    "l": 1.03164,
    "c": 1.03331,
    "v": 2976
  },
  {
    "dt": "2022.04.21 19:00",
    "o": 1.03324,
    "h": 1.03506,
    "l": 1.03319,
    "c": 1.03444,
    "v": 2416
  },
  {
    "dt": "2022.04.21 20:00",
    "o": 1.03445,
    "h": 1.03474,
    "l": 1.03343,
    "c": 1.03348,
    "v": 2844
  },
  {
    "dt": "2022.04.21 21:00",
    "o": 1.03346,
    "h": 1.03412,
    "l": 1.03297,
    "c": 1.03298,
    "v": 2268
  },
  {
    "dt": "2022.04.21 22:00",
    "o": 1.03297,
    "h": 1.0331,
    "l": 1.03226,
    "c": 1.03232,
    "v": 1904
  },
  {
    "dt": "2022.04.21 23:00",
    "o": 1.03233,
    "h": 1.0334,
    "l": 1.03233,
    "c": 1.03257,
    "v": 1106
  },
  {
    "dt": "2022.04.22 00:00",
    "o": 1.03283,
    "h": 1.03321,
    "l": 1.03234,
    "c": 1.03283,
    "v": 507
  },
  {
    "dt": "2022.04.22 01:00",
    "o": 1.03278,
    "h": 1.0337,
    "l": 1.03269,
    "c": 1.03345,
    "v": 853
  },
  {
    "dt": "2022.04.22 02:00",
    "o": 1.03343,
    "h": 1.03351,
    "l": 1.03297,
    "c": 1.03331,
    "v": 946
  },
  {
    "dt": "2022.04.22 03:00",
    "o": 1.03331,
    "h": 1.03435,
    "l": 1.03326,
    "c": 1.03431,
    "v": 1476
  },
  {
    "dt": "2022.04.22 04:00",
    "o": 1.0343,
    "h": 1.03433,
    "l": 1.03379,
    "c": 1.03394,
    "v": 1299
  },
  {
    "dt": "2022.04.22 05:00",
    "o": 1.03392,
    "h": 1.03434,
    "l": 1.03374,
    "c": 1.03415,
    "v": 1158
  },
  {
    "dt": "2022.04.22 06:00",
    "o": 1.03411,
    "h": 1.03426,
    "l": 1.03359,
    "c": 1.0341,
    "v": 1234
  },
  {
    "dt": "2022.04.22 07:00",
    "o": 1.03409,
    "h": 1.03431,
    "l": 1.03341,
    "c": 1.034,
    "v": 969
  },
  {
    "dt": "2022.04.22 08:00",
    "o": 1.034,
    "h": 1.03438,
    "l": 1.03346,
    "c": 1.03365,
    "v": 1625
  },
  {
    "dt": "2022.04.22 09:00",
    "o": 1.03366,
    "h": 1.03457,
    "l": 1.03309,
    "c": 1.0334,
    "v": 2235
  },
  {
    "dt": "2022.04.22 10:00",
    "o": 1.03335,
    "h": 1.03351,
    "l": 1.03112,
    "c": 1.03161,
    "v": 3001
  },
  {
    "dt": "2022.04.22 11:00",
    "o": 1.03173,
    "h": 1.03227,
    "l": 1.03069,
    "c": 1.03173,
    "v": 2872
  },
  {
    "dt": "2022.04.22 12:00",
    "o": 1.03175,
    "h": 1.03285,
    "l": 1.03139,
    "c": 1.03219,
    "v": 2577
  },
  {
    "dt": "2022.04.22 13:00",
    "o": 1.03218,
    "h": 1.03282,
    "l": 1.0315,
    "c": 1.03279,
    "v": 2282
  },
  {
    "dt": "2022.04.22 14:00",
    "o": 1.03276,
    "h": 1.03339,
    "l": 1.03256,
    "c": 1.03281,
    "v": 2131
  },
  {
    "dt": "2022.04.22 15:00",
    "o": 1.0328,
    "h": 1.03429,
    "l": 1.03274,
    "c": 1.03359,
    "v": 2563
  },
  {
    "dt": "2022.04.22 16:00",
    "o": 1.03361,
    "h": 1.03509,
    "l": 1.03359,
    "c": 1.03405,
    "v": 3357
  },
  {
    "dt": "2022.04.22 17:00",
    "o": 1.03405,
    "h": 1.03422,
    "l": 1.03189,
    "c": 1.03213,
    "v": 3434
  },
  {
    "dt": "2022.04.22 18:00",
    "o": 1.0321,
    "h": 1.03464,
    "l": 1.03197,
    "c": 1.03423,
    "v": 3235
  },
  {
    "dt": "2022.04.22 19:00",
    "o": 1.03426,
    "h": 1.03445,
    "l": 1.03263,
    "c": 1.03263,
    "v": 2018
  },
  {
    "dt": "2022.04.22 20:00",
    "o": 1.03269,
    "h": 1.0333,
    "l": 1.03239,
    "c": 1.03247,
    "v": 1707
  },
  {
    "dt": "2022.04.22 21:00",
    "o": 1.03246,
    "h": 1.03319,
    "l": 1.0319,
    "c": 1.03202,
    "v": 1711
  },
  {
    "dt": "2022.04.22 22:00",
    "o": 1.03204,
    "h": 1.03313,
    "l": 1.03196,
    "c": 1.03288,
    "v": 1890
  },
  {
    "dt": "2022.04.22 23:00",
    "o": 1.03286,
    "h": 1.03326,
    "l": 1.0326,
    "c": 1.03315,
    "v": 1075
  },
  {
    "dt": "2022.04.25 00:00",
    "o": 1.03427,
    "h": 1.03427,
    "l": 1.03336,
    "c": 1.03359,
    "v": 314
  },
  {
    "dt": "2022.04.25 01:00",
    "o": 1.03364,
    "h": 1.03462,
    "l": 1.03337,
    "c": 1.03364,
    "v": 1360
  },
  {
    "dt": "2022.04.25 02:00",
    "o": 1.03364,
    "h": 1.03376,
    "l": 1.03276,
    "c": 1.03301,
    "v": 981
  },
  {
    "dt": "2022.04.25 03:00",
    "o": 1.03301,
    "h": 1.03355,
    "l": 1.03269,
    "c": 1.03309,
    "v": 1673
  },
  {
    "dt": "2022.04.25 04:00",
    "o": 1.03311,
    "h": 1.03332,
    "l": 1.032,
    "c": 1.03251,
    "v": 1936
  },
  {
    "dt": "2022.04.25 05:00",
    "o": 1.03251,
    "h": 1.03266,
    "l": 1.03158,
    "c": 1.03177,
    "v": 1633
  },
  {
    "dt": "2022.04.25 06:00",
    "o": 1.03178,
    "h": 1.03231,
    "l": 1.03166,
    "c": 1.03169,
    "v": 941
  },
  {
    "dt": "2022.04.25 07:00",
    "o": 1.03169,
    "h": 1.03244,
    "l": 1.03169,
    "c": 1.03213,
    "v": 1113
  },
  {
    "dt": "2022.04.25 08:00",
    "o": 1.03217,
    "h": 1.03316,
    "l": 1.03192,
    "c": 1.03254,
    "v": 1465
  },
  {
    "dt": "2022.04.25 09:00",
    "o": 1.03256,
    "h": 1.03279,
    "l": 1.02685,
    "c": 1.02723,
    "v": 3470
  },
  {
    "dt": "2022.04.25 10:00",
    "o": 1.02727,
    "h": 1.02888,
    "l": 1.02661,
    "c": 1.0286,
    "v": 3648
  },
  {
    "dt": "2022.04.25 11:00",
    "o": 1.02859,
    "h": 1.0302,
    "l": 1.02787,
    "c": 1.03008,
    "v": 3030
  },
  {
    "dt": "2022.04.25 12:00",
    "o": 1.03005,
    "h": 1.0304,
    "l": 1.02862,
    "c": 1.02862,
    "v": 2536
  },
  {
    "dt": "2022.04.25 13:00",
    "o": 1.02865,
    "h": 1.02924,
    "l": 1.02743,
    "c": 1.02788,
    "v": 2336
  },
  {
    "dt": "2022.04.25 14:00",
    "o": 1.02789,
    "h": 1.02966,
    "l": 1.02771,
    "c": 1.02774,
    "v": 3166
  },
  {
    "dt": "2022.04.25 15:00",
    "o": 1.02773,
    "h": 1.02774,
    "l": 1.02523,
    "c": 1.02619,
    "v": 3485
  },
  {
    "dt": "2022.04.25 16:00",
    "o": 1.02624,
    "h": 1.02624,
    "l": 1.02436,
    "c": 1.02489,
    "v": 3355
  },
  {
    "dt": "2022.04.25 17:00",
    "o": 1.02488,
    "h": 1.02657,
    "l": 1.02461,
    "c": 1.0263,
    "v": 3724
  },
  {
    "dt": "2022.04.25 18:00",
    "o": 1.02629,
    "h": 1.0266,
    "l": 1.02538,
    "c": 1.02581,
    "v": 3178
  },
  {
    "dt": "2022.04.25 19:00",
    "o": 1.02581,
    "h": 1.02762,
    "l": 1.02549,
    "c": 1.02733,
    "v": 2452
  },
  {
    "dt": "2022.04.25 20:00",
    "o": 1.02734,
    "h": 1.02831,
    "l": 1.02705,
    "c": 1.02756,
    "v": 1995
  },
  {
    "dt": "2022.04.25 21:00",
    "o": 1.02763,
    "h": 1.02797,
    "l": 1.02707,
    "c": 1.02717,
    "v": 1854
  },
  {
    "dt": "2022.04.25 22:00",
    "o": 1.02713,
    "h": 1.02734,
    "l": 1.02643,
    "c": 1.02699,
    "v": 2013
  },
  {
    "dt": "2022.04.25 23:00",
    "o": 1.02701,
    "h": 1.0278,
    "l": 1.02701,
    "c": 1.02772,
    "v": 756
  },
  {
    "dt": "2022.04.26 00:00",
    "o": 1.02698,
    "h": 1.02718,
    "l": 1.02687,
    "c": 1.02708,
    "v": 291
  },
  {
    "dt": "2022.04.26 01:00",
    "o": 1.02723,
    "h": 1.02751,
    "l": 1.02663,
    "c": 1.02679,
    "v": 1127
  },
  {
    "dt": "2022.04.26 02:00",
    "o": 1.02679,
    "h": 1.02714,
    "l": 1.02657,
    "c": 1.02671,
    "v": 932
  },
  {
    "dt": "2022.04.26 03:00",
    "o": 1.02671,
    "h": 1.02759,
    "l": 1.02613,
    "c": 1.02738,
    "v": 2085
  },
  {
    "dt": "2022.04.26 04:00",
    "o": 1.02732,
    "h": 1.02747,
    "l": 1.02688,
    "c": 1.02708,
    "v": 1835
  },
  {
    "dt": "2022.04.26 05:00",
    "o": 1.02709,
    "h": 1.02776,
    "l": 1.02695,
    "c": 1.02773,
    "v": 1536
  },
  {
    "dt": "2022.04.26 06:00",
    "o": 1.02774,
    "h": 1.02894,
    "l": 1.02768,
    "c": 1.02869,
    "v": 1750
  },
  {
    "dt": "2022.04.26 07:00",
    "o": 1.0287,
    "h": 1.02888,
    "l": 1.02812,
    "c": 1.02831,
    "v": 1153
  },
  {
    "dt": "2022.04.26 08:00",
    "o": 1.0283,
    "h": 1.02897,
    "l": 1.02814,
    "c": 1.02824,
    "v": 1441
  },
  {
    "dt": "2022.04.26 09:00",
    "o": 1.02828,
    "h": 1.0286,
    "l": 1.02631,
    "c": 1.0266,
    "v": 2367
  },
  {
    "dt": "2022.04.26 10:00",
    "o": 1.02657,
    "h": 1.02772,
    "l": 1.02419,
    "c": 1.02425,
    "v": 3370
  },
  {
    "dt": "2022.04.26 11:00",
    "o": 1.02428,
    "h": 1.02569,
    "l": 1.0241,
    "c": 1.02497,
    "v": 2747
  },
  {
    "dt": "2022.04.26 12:00",
    "o": 1.02502,
    "h": 1.02548,
    "l": 1.02387,
    "c": 1.02395,
    "v": 2406
  },
  {
    "dt": "2022.04.26 13:00",
    "o": 1.02394,
    "h": 1.02446,
    "l": 1.02379,
    "c": 1.02394,
    "v": 2218
  },
  {
    "dt": "2022.04.26 14:00",
    "o": 1.0239,
    "h": 1.02397,
    "l": 1.0226,
    "c": 1.02268,
    "v": 2321
  },
  {
    "dt": "2022.04.26 15:00",
    "o": 1.02268,
    "h": 1.02336,
    "l": 1.02163,
    "c": 1.02202,
    "v": 2857
  },
  {
    "dt": "2022.04.26 16:00",
    "o": 1.02197,
    "h": 1.02257,
    "l": 1.02113,
    "c": 1.02244,
    "v": 3193
  },
  {
    "dt": "2022.04.26 17:00",
    "o": 1.02241,
    "h": 1.02316,
    "l": 1.02105,
    "c": 1.02243,
    "v": 3576
  },
  {
    "dt": "2022.04.26 18:00",
    "o": 1.0224,
    "h": 1.02445,
    "l": 1.02216,
    "c": 1.0244,
    "v": 2729
  },
  {
    "dt": "2022.04.26 19:00",
    "o": 1.02438,
    "h": 1.02498,
    "l": 1.02359,
    "c": 1.02425,
    "v": 2179
  },
  {
    "dt": "2022.04.26 20:00",
    "o": 1.02426,
    "h": 1.0244,
    "l": 1.02351,
    "c": 1.02407,
    "v": 1779
  },
  {
    "dt": "2022.04.26 21:00",
    "o": 1.02406,
    "h": 1.02459,
    "l": 1.02385,
    "c": 1.02432,
    "v": 1859
  },
  {
    "dt": "2022.04.26 22:00",
    "o": 1.02436,
    "h": 1.02465,
    "l": 1.02364,
    "c": 1.02396,
    "v": 1822
  },
  {
    "dt": "2022.04.26 23:00",
    "o": 1.02394,
    "h": 1.02421,
    "l": 1.02371,
    "c": 1.02378,
    "v": 1106
  },
  {
    "dt": "2022.04.27 00:00",
    "o": 1.02344,
    "h": 1.02344,
    "l": 1.02276,
    "c": 1.02335,
    "v": 402
  },
  {
    "dt": "2022.04.27 01:00",
    "o": 1.02348,
    "h": 1.02407,
    "l": 1.02271,
    "c": 1.02362,
    "v": 1204
  },
  {
    "dt": "2022.04.27 02:00",
    "o": 1.02369,
    "h": 1.02438,
    "l": 1.02366,
    "c": 1.02423,
    "v": 1004
  },
  {
    "dt": "2022.04.27 03:00",
    "o": 1.02421,
    "h": 1.02466,
    "l": 1.02395,
    "c": 1.02453,
    "v": 1777
  },
  {
    "dt": "2022.04.27 04:00",
    "o": 1.02446,
    "h": 1.02472,
    "l": 1.02399,
    "c": 1.02422,
    "v": 1642
  },
  {
    "dt": "2022.04.27 05:00",
    "o": 1.02421,
    "h": 1.02469,
    "l": 1.02409,
    "c": 1.02427,
    "v": 1302
  },
  {
    "dt": "2022.04.27 06:00",
    "o": 1.02428,
    "h": 1.025,
    "l": 1.02401,
    "c": 1.0249,
    "v": 1346
  },
  {
    "dt": "2022.04.27 07:00",
    "o": 1.0249,
    "h": 1.02529,
    "l": 1.02464,
    "c": 1.02513,
    "v": 1159
  },
  {
    "dt": "2022.04.27 08:00",
    "o": 1.0251,
    "h": 1.02583,
    "l": 1.02495,
    "c": 1.02539,
    "v": 1303
  },
  {
    "dt": "2022.04.27 09:00",
    "o": 1.02537,
    "h": 1.02567,
    "l": 1.02383,
    "c": 1.02446,
    "v": 2584
  },
  {
    "dt": "2022.04.27 10:00",
    "o": 1.02446,
    "h": 1.02538,
    "l": 1.02206,
    "c": 1.02505,
    "v": 3434
  },
  {
    "dt": "2022.04.27 11:00",
    "o": 1.02503,
    "h": 1.02507,
    "l": 1.02173,
    "c": 1.02233,
    "v": 3227
  },
  {
    "dt": "2022.04.27 12:00",
    "o": 1.02229,
    "h": 1.02364,
    "l": 1.0221,
    "c": 1.02265,
    "v": 3066
  },
  {
    "dt": "2022.04.27 13:00",
    "o": 1.02265,
    "h": 1.0232,
    "l": 1.02202,
    "c": 1.02317,
    "v": 2639
  },
  {
    "dt": "2022.04.27 14:00",
    "o": 1.02317,
    "h": 1.02317,
    "l": 1.02187,
    "c": 1.02228,
    "v": 2796
  },
  {
    "dt": "2022.04.27 15:00",
    "o": 1.02229,
    "h": 1.02292,
    "l": 1.02149,
    "c": 1.02261,
    "v": 3404
  },
  {
    "dt": "2022.04.27 16:00",
    "o": 1.02262,
    "h": 1.02283,
    "l": 1.02118,
    "c": 1.02199,
    "v": 3578
  },
  {
    "dt": "2022.04.27 17:00",
    "o": 1.022,
    "h": 1.0225,
    "l": 1.01973,
    "c": 1.01976,
    "v": 3696
  },
  {
    "dt": "2022.04.27 18:00",
    "o": 1.01974,
    "h": 1.02317,
    "l": 1.01974,
    "c": 1.02226,
    "v": 3269
  },
  {
    "dt": "2022.04.27 19:00",
    "o": 1.02227,
    "h": 1.02339,
    "l": 1.02227,
    "c": 1.0226,
    "v": 2347
  },
  {
    "dt": "2022.04.27 20:00",
    "o": 1.02259,
    "h": 1.02329,
    "l": 1.02223,
    "c": 1.02273,
    "v": 2079
  },
  {
    "dt": "2022.04.27 21:00",
    "o": 1.02269,
    "h": 1.02298,
    "l": 1.02234,
    "c": 1.02287,
    "v": 2189
  },
  {
    "dt": "2022.04.27 22:00",
    "o": 1.02281,
    "h": 1.02315,
    "l": 1.02248,
    "c": 1.02265,
    "v": 2049
  },
  {
    "dt": "2022.04.27 23:00",
    "o": 1.02268,
    "h": 1.02325,
    "l": 1.02259,
    "c": 1.02306,
    "v": 857
  },
  {
    "dt": "2022.04.28 00:00",
    "o": 1.02153,
    "h": 1.02239,
    "l": 1.02082,
    "c": 1.02232,
    "v": 250
  },
  {
    "dt": "2022.04.28 01:00",
    "o": 1.02234,
    "h": 1.02272,
    "l": 1.02209,
    "c": 1.02255,
    "v": 852
  },
  {
    "dt": "2022.04.28 02:00",
    "o": 1.02252,
    "h": 1.02267,
    "l": 1.02208,
    "c": 1.02244,
    "v": 1112
  },
  {
    "dt": "2022.04.28 03:00",
    "o": 1.02241,
    "h": 1.02248,
    "l": 1.02135,
    "c": 1.02164,
    "v": 1425
  },
  {
    "dt": "2022.04.28 04:00",
    "o": 1.02164,
    "h": 1.02277,
    "l": 1.02139,
    "c": 1.02186,
    "v": 1827
  },
  {
    "dt": "2022.04.28 05:00",
    "o": 1.02186,
    "h": 1.0219,
    "l": 1.02093,
    "c": 1.02121,
    "v": 1478
  },
  {
    "dt": "2022.04.28 06:00",
    "o": 1.02123,
    "h": 1.02202,
    "l": 1.02069,
    "c": 1.02073,
    "v": 2674
  },
  {
    "dt": "2022.04.28 07:00",
    "o": 1.02074,
    "h": 1.02178,
    "l": 1.02062,
    "c": 1.02106,
    "v": 1576
  },
  {
    "dt": "2022.04.28 08:00",
    "o": 1.02105,
    "h": 1.02117,
    "l": 1.0188,
    "c": 1.01935,
    "v": 2409
  },
  {
    "dt": "2022.04.28 09:00",
    "o": 1.01932,
    "h": 1.02181,
    "l": 1.01897,
    "c": 1.02164,
    "v": 2834
  },
  {
    "dt": "2022.04.28 10:00",
    "o": 1.02166,
    "h": 1.02301,
    "l": 1.01993,
    "c": 1.02208,
    "v": 3718
  },
  {
    "dt": "2022.04.28 11:00",
    "o": 1.02212,
    "h": 1.02232,
    "l": 1.02084,
    "c": 1.02148,
    "v": 3049
  },
  {
    "dt": "2022.04.28 12:00",
    "o": 1.02146,
    "h": 1.02282,
    "l": 1.02105,
    "c": 1.02218,
    "v": 3114
  },
  {
    "dt": "2022.04.28 13:00",
    "o": 1.02217,
    "h": 1.0231,
    "l": 1.02098,
    "c": 1.02111,
    "v": 2811
  },
  {
    "dt": "2022.04.28 14:00",
    "o": 1.0211,
    "h": 1.02187,
    "l": 1.02085,
    "c": 1.02135,
    "v": 2870
  },
  {
    "dt": "2022.04.28 15:00",
    "o": 1.02137,
    "h": 1.02413,
    "l": 1.02136,
    "c": 1.02294,
    "v": 3928
  },
  {
    "dt": "2022.04.28 16:00",
    "o": 1.02296,
    "h": 1.02372,
    "l": 1.022,
    "c": 1.02226,
    "v": 3767
  },
  {
    "dt": "2022.04.28 17:00",
    "o": 1.02226,
    "h": 1.02299,
    "l": 1.02032,
    "c": 1.02163,
    "v": 3901
  },
  {
    "dt": "2022.04.28 18:00",
    "o": 1.02164,
    "h": 1.02257,
    "l": 1.0207,
    "c": 1.02098,
    "v": 3252
  },
  {
    "dt": "2022.04.28 19:00",
    "o": 1.02099,
    "h": 1.02129,
    "l": 1.02002,
    "c": 1.02026,
    "v": 2411
  },
  {
    "dt": "2022.04.28 20:00",
    "o": 1.02028,
    "h": 1.02071,
    "l": 1.01999,
    "c": 1.02068,
    "v": 2491
  },
  {
    "dt": "2022.04.28 21:00",
    "o": 1.0207,
    "h": 1.02104,
    "l": 1.02,
    "c": 1.02075,
    "v": 1762
  },
  {
    "dt": "2022.04.28 22:00",
    "o": 1.02074,
    "h": 1.02128,
    "l": 1.02068,
    "c": 1.02098,
    "v": 1676
  },
  {
    "dt": "2022.04.28 23:00",
    "o": 1.02099,
    "h": 1.02101,
    "l": 1.02017,
    "c": 1.02032,
    "v": 787
  },
  {
    "dt": "2022.04.29 00:00",
    "o": 1.02022,
    "h": 1.02063,
    "l": 1.01998,
    "c": 1.02007,
    "v": 216
  },
  {
    "dt": "2022.04.29 01:00",
    "o": 1.02009,
    "h": 1.02065,
    "l": 1.01999,
    "c": 1.02018,
    "v": 879
  },
  {
    "dt": "2022.04.29 02:00",
    "o": 1.02013,
    "h": 1.02068,
    "l": 1.02012,
    "c": 1.02053,
    "v": 773
  },
  {
    "dt": "2022.04.29 03:00",
    "o": 1.02054,
    "h": 1.02129,
    "l": 1.02046,
    "c": 1.02104,
    "v": 1331
  },
  {
    "dt": "2022.04.29 04:00",
    "o": 1.02104,
    "h": 1.02152,
    "l": 1.021,
    "c": 1.02103,
    "v": 1536
  },
  {
    "dt": "2022.04.29 05:00",
    "o": 1.02103,
    "h": 1.0216,
    "l": 1.02103,
    "c": 1.02141,
    "v": 1550
  },
  {
    "dt": "2022.04.29 06:00",
    "o": 1.02141,
    "h": 1.02171,
    "l": 1.02101,
    "c": 1.02111,
    "v": 1278
  },
  {
    "dt": "2022.04.29 07:00",
    "o": 1.02109,
    "h": 1.02133,
    "l": 1.02087,
    "c": 1.02102,
    "v": 937
  },
  {
    "dt": "2022.04.29 08:00",
    "o": 1.02101,
    "h": 1.02272,
    "l": 1.02095,
    "c": 1.02266,
    "v": 1791
  },
  {
    "dt": "2022.04.29 09:00",
    "o": 1.02258,
    "h": 1.02432,
    "l": 1.02224,
    "c": 1.02416,
    "v": 2320
  },
  {
    "dt": "2022.04.29 10:00",
    "o": 1.02416,
    "h": 1.0248,
    "l": 1.023,
    "c": 1.02311,
    "v": 3040
  },
  {
    "dt": "2022.04.29 11:00",
    "o": 1.02313,
    "h": 1.02585,
    "l": 1.02303,
    "c": 1.02362,
    "v": 2912
  },
  {
    "dt": "2022.04.29 12:00",
    "o": 1.02357,
    "h": 1.02488,
    "l": 1.02334,
    "c": 1.02487,
    "v": 2681
  },
  {
    "dt": "2022.04.29 13:00",
    "o": 1.02485,
    "h": 1.02569,
    "l": 1.02464,
    "c": 1.02525,
    "v": 2139
  },
  {
    "dt": "2022.04.29 14:00",
    "o": 1.02524,
    "h": 1.02657,
    "l": 1.02351,
    "c": 1.02385,
    "v": 2746
  },
  {
    "dt": "2022.04.29 15:00",
    "o": 1.02384,
    "h": 1.02437,
    "l": 1.02259,
    "c": 1.02408,
    "v": 3140
  },
  {
    "dt": "2022.04.29 16:00",
    "o": 1.02399,
    "h": 1.0245,
    "l": 1.02181,
    "c": 1.02204,
    "v": 3353
  },
  {
    "dt": "2022.04.29 17:00",
    "o": 1.02209,
    "h": 1.02403,
    "l": 1.01883,
    "c": 1.0235,
    "v": 3755
  },
  {
    "dt": "2022.04.29 18:00",
    "o": 1.02352,
    "h": 1.02551,
    "l": 1.02339,
    "c": 1.02463,
    "v": 3184
  },
  {
    "dt": "2022.04.29 19:00",
    "o": 1.02461,
    "h": 1.02564,
    "l": 1.02447,
    "c": 1.02554,
    "v": 2081
  },
  {
    "dt": "2022.04.29 20:00",
    "o": 1.02555,
    "h": 1.02623,
    "l": 1.02551,
    "c": 1.0261,
    "v": 1799
  },
  {
    "dt": "2022.04.29 21:00",
    "o": 1.02608,
    "h": 1.02641,
    "l": 1.02519,
    "c": 1.02627,
    "v": 1893
  },
  {
    "dt": "2022.04.29 22:00",
    "o": 1.02629,
    "h": 1.02688,
    "l": 1.0259,
    "c": 1.02595,
    "v": 1981
  },
  {
    "dt": "2022.04.29 23:00",
    "o": 1.02593,
    "h": 1.0269,
    "l": 1.02574,
    "c": 1.02631,
    "v": 1101
  }
]