[
  {
    "dt": "2020.08.03 00:00",
    "o": 0.89931,
    "h": 0.90057,
    "l": 0.89931,
    "c": 0.89984,
    "v": 70
  },
  {
    "dt": "2020.08.03 01:00",
    "o": 0.89979,
    "h": 0.90055,
    "l": 0.89949,
    "c": 0.90024,
    "v": 1440
  },
  {
    "dt": "2020.08.03 02:00",
    "o": 0.90025,
    "h": 0.9003,
    "l": 0.89917,
    "c": 0.89926,
    "v": 1396
  },
  {
    "dt": "2020.08.03 03:00",
    "o": 0.89932,
    "h": 0.89955,
    "l": 0.89815,
    "c": 0.89885,
    "v": 3027
  },
  {
    "dt": "2020.08.03 04:00",
    "o": 0.89886,
    "h": 0.89918,
    "l": 0.89815,
    "c": 0.89893,
    "v": 2792
  },
  {
    "dt": "2020.08.03 05:00",
    "o": 0.89887,
    "h": 0.89959,
    "l": 0.89885,
    "c": 0.8994,
    "v": 1931
  },
  {
    "dt": "2020.08.03 06:00",
    "o": 0.89944,
    "h": 0.89959,
    "l": 0.89904,
    "c": 0.89905,
    "v": 1247
  },
  {
    "dt": "2020.08.03 07:00",
    "o": 0.89905,
    "h": 0.89967,
    "l": 0.89905,
    "c": 0.8994,
    "v": 1426
  },
  {
    "dt": "2020.08.03 08:00",
    "o": 0.89942,
    "h": 0.89953,
    "l": 0.89893,
    "c": 0.89918,
    "v": 1444
  },
  {
    "dt": "2020.08.03 09:00",
    "o": 0.89919,
    "h": 0.90005,
    "l": 0.89896,
    "c": 0.89948,
    "v": 2428
  },
  {
    "dt": "2020.08.03 10:00",
    "o": 0.89943,
    "h": 0.89993,
    "l": 0.89892,
    "c": 0.89944,
    "v": 3238
  },
  {
    "dt": "2020.08.03 11:00",
    "o": 0.89942,
    "h": 0.89954,
    "l": 0.89835,
    "c": 0.89901,
    "v": 2977
  },
  {
    "dt": "2020.08.03 12:00",
    "o": 0.89898,
    "h": 0.90119,
    "l": 0.89859,
    "c": 0.90036,
    "v": 2690
  },
  {
    "dt": "2020.08.03 13:00",
    "o": 0.90035,
    "h": 0.90097,
    "l": 0.8994,
    "c": 0.90072,
    "v": 3022
  },
  {
    "dt": "2020.08.03 14:00",
    "o": 0.9007,
    "h": 0.90131,
    "l": 0.89968,
    "c": 0.89968,
    "v": 2359
  },
  {
    "dt": "2020.08.03 15:00",
    "o": 0.89967,
    "h": 0.90039,
    "l": 0.8982,
    "c": 0.89884,
    "v": 2845
  },
  {
    "dt": "2020.08.03 16:00",
    "o": 0.89887,
    "h": 0.90091,
    "l": 0.8984,
    "c": 0.90072,
    "v": 3380
  },
  {
    "dt": "2020.08.03 17:00",
    "o": 0.9007,
    "h": 0.90143,
    "l": 0.9001,
    "c": 0.90069,
    "v": 3613
  },
  {
    "dt": "2020.08.03 18:00",
    "o": 0.9007,
    "h": 0.9007,
    "l": 0.8997,
    "c": 0.90009,
    "v": 2730
  },
  {
    "dt": "2020.08.03 19:00",
    "o": 0.9001,
    "h": 0.90019,
    "l": 0.89912,
    "c": 0.89967,
    "v": 2172
  },
  {
    "dt": "2020.08.03 20:00",
    "o": 0.89966,
    "h": 0.89979,
    "l": 0.8993,
    "c": 0.89935,
    "v": 1848
  },
  {
    "dt": "2020.08.03 21:00",
    "o": 0.89946,
    "h": 0.8997,
    "l": 0.89891,
    "c": 0.89928,
    "v": 1666
  },
  {
    "dt": "2020.08.03 22:00",
    "o": 0.89929,
    "h": 0.89995,
    "l": 0.89921,
    "c": 0.89947,
    "v": 1674
  },
  {
    "dt": "2020.08.03 23:00",
    "o": 0.89947,
    "h": 0.90003,
    "l": 0.89941,
    "c": 0.89946,
    "v": 1005
  },
  {
    "dt": "2020.08.04 00:00",
    "o": 0.89952,
    "h": 0.89978,
    "l": 0.89879,
    "c": 0.89934,
    "v": 452
  },
  {
    "dt": "2020.08.04 01:00",
    "o": 0.89934,
    "h": 0.89963,
    "l": 0.89921,
    "c": 0.89929,
    "v": 1117
  },
  {
    "dt": "2020.08.04 02:00",
    "o": 0.89929,
    "h": 0.89932,
    "l": 0.89901,
    "c": 0.89912,
    "v": 617
  },
  {
    "dt": "2020.08.04 03:00",
    "o": 0.89913,
    "h": 0.89946,
    "l": 0.89906,
    "c": 0.89929,
    "v": 1167
  },
  {
    "dt": "2020.08.04 04:00",
    "o": 0.89929,
    "h": 0.89947,
    "l": 0.89922,
    "c": 0.89935,
    "v": 1180
  },
  {
    "dt": "2020.08.04 05:00",
    "o": 0.89932,
    "h": 0.89969,
    "l": 0.89921,
    "c": 0.89946,
    "v": 1126
  },
  {
    "dt": "2020.08.04 06:00",
    "o": 0.89947,
    "h": 0.89996,
    "l": 0.89925,
    "c": 0.89996,
    "v": 1106
  },
  {
    "dt": "2020.08.04 07:00",
    "o": 0.89994,
    "h": 0.90022,
    "l": 0.89976,
    "c": 0.89997,
    "v": 1321
  },
  {
    "dt": "2020.08.04 08:00",
    "o": 0.89998,
    "h": 0.90078,
    "l": 0.8999,
    "c": 0.90015,
    "v": 1328
  },
  {
    "dt": "2020.08.04 09:00",
    "o": 0.90014,
    "h": 0.90069,
    "l": 0.89975,
    "c": 0.90042,
    "v": 2169
  },
  {
    "dt": "2020.08.04 10:00",
    "o": 0.90041,
    "h": 0.90094,
    "l": 0.89922,
    "c": 0.90084,
    "v": 3304
  },
  {
    "dt": "2020.08.04 11:00",
    "o": 0.9008,
    "h": 0.90264,
    "l": 0.90041,
    "c": 0.90224,
    "v": 2965
  },
  {
    "dt": "2020.08.04 12:00",
    "o": 0.90222,
    "h": 0.90324,
    "l": 0.90192,
    "c": 0.90302,
    "v": 2705
  },
  {
    "dt": "2020.08.04 13:00",
    "o": 0.90294,
    "h": 0.90329,
    "l": 0.902,
    "c": 0.90303,
    "v": 2611
  },
  {
    "dt": "2020.08.04 14:00",
    "o": 0.90306,
    "h": 0.90375,
    "l": 0.9026,
    "c": 0.90295,
    "v": 2697
  },
  {
    "dt": "2020.08.04 15:00",
    "o": 0.90295,
    "h": 0.904,
    "l": 0.9027,
    "c": 0.90308,
    "v": 3296
  },
  {
    "dt": "2020.08.04 16:00",
    "o": 0.90309,
    "h": 0.9034,
    "l": 0.90107,
    "c": 0.90123,
    "v": 3506
  },
  {
    "dt": "2020.08.04 17:00",
    "o": 0.90122,
    "h": 0.90162,
    "l": 0.90044,
    "c": 0.90114,
    "v": 3888
  },
  {
    "dt": "2020.08.04 18:00",
    "o": 0.90115,
    "h": 0.90156,
    "l": 0.90064,
    "c": 0.90091,
    "v": 3124
  },
  {
    "dt": "2020.08.04 19:00",
    "o": 0.90092,
    "h": 0.90141,
    "l": 0.9005,
    "c": 0.90139,
    "v": 2275
  },
  {
    "dt": "2020.08.04 20:00",
    "o": 0.90139,
    "h": 0.9021,
    "l": 0.90102,
    "c": 0.9021,
    "v": 1871
  },
  {
    "dt": "2020.08.04 21:00",
    "o": 0.90209,
    "h": 0.90281,
    "l": 0.90203,
    "c": 0.9023,
    "v": 2011
  },
  {
    "dt": "2020.08.04 22:00",
    "o": 0.90229,
    "h": 0.90297,
    "l": 0.90224,
    "c": 0.90289,
    "v": 1898
  },
  {
    "dt": "2020.08.04 23:00",
    "o": 0.90287,
    "h": 0.90295,
    "l": 0.90246,
    "c": 0.90275,
    "v": 1065
  },
  {
    "dt": "2020.08.05 00:00",
    "o": 0.90247,
    "h": 0.90307,
    "l": 0.90233,
    "c": 0.90269,
    "v": 343
  },
  {
    "dt": "2020.08.05 01:00",
    "o": 0.90256,
    "h": 0.90276,
    "l": 0.90231,
    "c": 0.90249,
    "v": 930
  },
  {
    "dt": "2020.08.05 02:00",
    "o": 0.90249,
    "h": 0.90293,
    "l": 0.90234,
    "c": 0.90275,
    "v": 924
  },
  {
    "dt": "2020.08.05 03:00",
    "o": 0.90275,
    "h": 0.90285,
    "l": 0.90235,
    "c": 0.90267,
    "v": 1469
  },
  {
    "dt": "2020.08.05 04:00",
    "o": 0.90266,
    "h": 0.90289,
    "l": 0.90238,
    "c": 0.90278,
    "v": 1572
  },
  {
    "dt": "2020.08.05 05:00",
    "o": 0.90277,
    "h": 0.90339,
    "l": 0.90257,
    "c": 0.90301,
    "v": 1445
  },
  {
    "dt": "2020.08.05 06:00",
    "o": 0.90301,
    "h": 0.90304,
    "l": 0.90258,
    "c": 0.9026,
    "v": 1041
  },
  {
    "dt": "2020.08.05 07:00",
    "o": 0.9026,
    "h": 0.9026,
    "l": 0.90218,
    "c": 0.90228,
    "v": 911
  },
  {
    "dt": "2020.08.05 08:00",
    "o": 0.90228,
    "h": 0.90244,
    "l": 0.90213,
    "c": 0.90238,
    "v": 1129
  },
  {
    "dt": "2020.08.05 09:00",
    "o": 0.90239,
    "h": 0.90372,
    "l": 0.90207,
    "c": 0.903,
    "v": 2269
  },
  {
    "dt": "2020.08.05 10:00",
    "o": 0.90301,
    "h": 0.90301,
    "l": 0.90114,
    "c": 0.90218,
    "v": 3057
  },
  {
    "dt": "2020.08.05 11:00",
    "o": 0.90215,
    "h": 0.90419,
    "l": 0.90206,
    "c": 0.90367,
    "v": 3038
  },
  {
    "dt": "2020.08.05 12:00",
    "o": 0.90363,
    "h": 0.90455,
    "l": 0.90286,
    "c": 0.90295,
    "v": 2895
  },
  {
    "dt": "2020.08.05 13:00",
    "o": 0.90294,
    "h": 0.90398,
    "l": 0.90162,
    "c": 0.90181,
    "v": 2779
  },
  {
    "dt": "2020.08.05 14:00",
    "o": 0.90182,
    "h": 0.90269,
    "l": 0.90155,
    "c": 0.90197,
    "v": 2595
  },
  {
    "dt": "2020.08.05 15:00",
    "o": 0.90196,
    "h": 0.90383,
    "l": 0.90184,
    "c": 0.90383,
    "v": 3197
  },
  {
    "dt": "2020.08.05 16:00",
    "o": 0.90385,
    "h": 0.90494,
    "l": 0.90298,
    "c": 0.90411,
    "v": 3533
  },
  {
    "dt": "2020.08.05 17:00",
    "o": 0.90411,
    "h": 0.90464,
    "l": 0.90352,
    "c": 0.904,
    "v": 3690
  },
  {
    "dt": "2020.08.05 18:00",
    "o": 0.90394,
    "h": 0.90581,
    "l": 0.90392,
    "c": 0.9053,
    "v": 3210
  },
  {
    "dt": "2020.08.05 19:00",
    "o": 0.90527,
    "h": 0.90568,
    "l": 0.90409,
    "c": 0.90441,
    "v": 2494
  },
  {
    "dt": "2020.08.05 20:00",
    "o": 0.9044,
    "h": 0.90475,
    "l": 0.90405,
    "c": 0.90435,
    "v": 1814
  },
  {
    "dt": "2020.08.05 21:00",
    "o": 0.90435,
    "h": 0.90448,
    "l": 0.904,
    "c": 0.90415,
    "v": 1554
  },
  {
    "dt": "2020.08.05 22:00",
    "o": 0.90413,
    "h": 0.90457,
    "l": 0.904,
    "c": 0.90441,
    "v": 1537
  },
  {
    "dt": "2020.08.05 23:00",
    "o": 0.90439,
    "h": 0.90462,
    "l": 0.90418,
    "c": 0.90459,
    "v": 1059
  },
  {
    "dt": "2020.08.06 00:00",
    "o": 0.90379,
    "h": 0.9046,
    "l": 0.90343,
    "c": 0.90443,
    "v": 324
  },
  {
    "dt": "2020.08.06 01:00",
    "o": 0.90447,
    "h": 0.90466,
    "l": 0.90416,
    "c": 0.90445,
    "v": 652
  },
  {
    "dt": "2020.08.06 02:00",
    "o": 0.90444,
    "h": 0.90457,
    "l": 0.90419,
    "c": 0.90444,
    "v": 768
  },
  {
    "dt": "2020.08.06 03:00",
    "o": 0.90442,
    "h": 0.9046,
    "l": 0.904,
    "c": 0.90419,
    "v": 1685
  },
  {
    "dt": "2020.08.06 04:00",
    "o": 0.9042,
    "h": 0.90437,
    "l": 0.90391,
    "c": 0.90407,
    "v": 1628
  },
  {
    "dt": "2020.08.06 05:00",
    "o": 0.90406,
    "h": 0.90416,
    "l": 0.9037,
    "c": 0.90395,
    "v": 1894
  },
  {
    "dt": "2020.08.06 06:00",
    "o": 0.90395,
    "h": 0.90418,
    "l": 0.90383,
    "c": 0.90405,
    "v": 1138
  },
  {
    "dt": "2020.08.06 07:00",
    "o": 0.90406,
    "h": 0.90437,
    "l": 0.90405,
    "c": 0.9043,
    "v": 1149
  },
  {
    "dt": "2020.08.06 08:00",
    "o": 0.9043,
    "h": 0.90527,
    "l": 0.9043,
    "c": 0.90468,
    "v": 1635
  },
  {
    "dt": "2020.08.06 09:00",
    "o": 0.90465,
    "h": 0.90481,
    "l": 0.90208,
    "c": 0.90215,
    "v": 3602
  },
  {
    "dt": "2020.08.06 10:00",
    "o": 0.90216,
    "h": 0.90273,
    "l": 0.90023,
    "c": 0.90052,
    "v": 3672
  },
  {
    "dt": "2020.08.06 11:00",
    "o": 0.90051,
    "h": 0.90086,
    "l": 0.89915,
    "c": 0.89975,
    "v": 3089
  },
  {
    "dt": "2020.08.06 12:00",
    "o": 0.89976,
    "h": 0.90098,
    "l": 0.89892,
    "c": 0.90012,
    "v": 2816
  },
  {
    "dt": "2020.08.06 13:00",
    "o": 0.90009,
    "h": 0.90047,
    "l": 0.89863,
    "c": 0.89898,
    "v": 2755
  },
  {
    "dt": "2020.08.06 14:00",
    "o": 0.89897,
    "h": 0.90026,
    "l": 0.8984,
    "c": 0.89992,
    "v": 2912
  },
  {
    "dt": "2020.08.06 15:00",
    "o": 0.89993,
    "h": 0.90095,
    "l": 0.89981,
    "c": 0.90069,
    "v": 3236
  },
  {
    "dt": "2020.08.06 16:00",
    "o": 0.90071,
    "h": 0.90073,
    "l": 0.89944,
    "c": 0.90026,
    "v": 3457
  },
  {
    "dt": "2020.08.06 17:00",
    "o": 0.90024,
    "h": 0.90102,
    "l": 0.89945,
    "c": 0.90102,
    "v": 4234
  },
  {
    "dt": "2020.08.06 18:00",
    "o": 0.90104,
    "h": 0.90258,
    "l": 0.90076,
    "c": 0.90165,
    "v": 3299
  },
  {
    "dt": "2020.08.06 19:00",
    "o": 0.90168,
    "h": 0.9031,
    "l": 0.90165,
    "c": 0.90273,
    "v": 3238
  },
  {
    "dt": "2020.08.06 20:00",
    "o": 0.90269,
    "h": 0.90339,
    "l": 0.90204,
    "c": 0.90312,
    "v": 2476
  },
  {
    "dt": "2020.08.06 21:00",
    "o": 0.90312,
    "h": 0.90329,
    "l": 0.90265,
    "c": 0.90285,
    "v": 1954
  },
  {
    "dt": "2020.08.06 22:00",
    "o": 0.90285,
    "h": 0.90362,
    "l": 0.90269,
    "c": 0.90355,
    "v": 2300
  },
  {
    "dt": "2020.08.06 23:00",
    "o": 0.90356,
    "h": 0.90402,
    "l": 0.90341,
    "c": 0.90349,
    "v": 978
  },
  {
    "dt": "2020.08.07 00:00",
    "o": 0.9026,
    "h": 0.90369,
    "l": 0.90206,
    "c": 0.90347,
    "v": 733
  },
  {
    "dt": "2020.08.07 01:00",
    "o": 0.90353,
    "h": 0.9041,
    "l": 0.90353,
    "c": 0.90392,
    "v": 814
  },
  {
    "dt": "2020.08.07 02:00",
    "o": 0.90391,
    "h": 0.90393,
    "l": 0.90347,
    "c": 0.90382,
    "v": 815
  },
  {
    "dt": "2020.08.07 03:00",
    "o": 0.90382,
    "h": 0.904,
    "l": 0.90335,
    "c": 0.90363,
    "v": 1428
  },
  {
    "dt": "2020.08.07 04:00",
    "o": 0.90359,
    "h": 0.90376,
    "l": 0.90326,
    "c": 0.90335,
    "v": 1870
  },
  {
    "dt": "2020.08.07 05:00",
    "o": 0.90335,
    "h": 0.90384,
    "l": 0.90235,
    "c": 0.90253,
    "v": 1929
  },
  {
    "dt": "2020.08.07 06:00",
    "o": 0.90252,
    "h": 0.90283,
    "l": 0.90233,
    "c": 0.90247,
    "v": 2119
  },
  {
    "dt": "2020.08.07 07:00",
    "o": 0.90247,
    "h": 0.9027,
    "l": 0.90205,
    "c": 0.90222,
    "v": 1615
  },
  {
    "dt": "2020.08.07 08:00",
    "o": 0.90221,
    "h": 0.90248,
    "l": 0.90179,
    "c": 0.90216,
    "v": 1534
  },
  {
    "dt": "2020.08.07 09:00",
    "o": 0.9022,
    "h": 0.90269,
    "l": 0.90189,
    "c": 0.90236,
    "v": 2137
  },
  {
    "dt": "2020.08.07 10:00",
    "o": 0.90233,
    "h": 0.9039,
    "l": 0.90151,
    "c": 0.90357,
    "v": 2899
  },
  {
    "dt": "2020.08.07 11:00",
    "o": 0.90359,
    "h": 0.90359,
    "l": 0.9022,
    "c": 0.90285,
    "v": 2560
  },
  {
    "dt": "2020.08.07 12:00",
    "o": 0.90288,
    "h": 0.90329,
    "l": 0.90215,
    "c": 0.90255,
    "v": 2591
  },
  {
    "dt": "2020.08.07 13:00",
    "o": 0.90256,
    "h": 0.90392,
    "l": 0.90234,
    "c": 0.90392,
    "v": 2235
  },
  {
    "dt": "2020.08.07 14:00",
    "o": 0.9039,
    "h": 0.90404,
    "l": 0.90289,
    "c": 0.90359,
    "v": 2364
  },
  {
    "dt": "2020.08.07 15:00",
    "o": 0.90361,
    "h": 0.90413,
    "l": 0.90286,
    "c": 0.90327,
    "v": 3692
  },
  {
    "dt": "2020.08.07 16:00",
    "o": 0.90325,
    "h": 0.90343,
    "l": 0.90208,
    "c": 0.9027,
    "v": 4593
  },
  {
    "dt": "2020.08.07 17:00",
    "o": 0.9027,
    "h": 0.90393,
    "l": 0.90218,
    "c": 0.90313,
    "v": 4228
  },
  {
    "dt": "2020.08.07 18:00",
    "o": 0.90314,
    "h": 0.90346,
    "l": 0.90282,
    "c": 0.90288,
    "v": 3245
  },
  {
    "dt": "2020.08.07 19:00",
    "o": 0.90287,
    "h": 0.90305,
    "l": 0.90215,
    "c": 0.9023,
    "v": 2411
  },
  {
    "dt": "2020.08.07 20:00",
    "o": 0.90231,
    "h": 0.90294,
    "l": 0.9023,
    "c": 0.90261,
    "v": 2308
  },
  {
    "dt": "2020.08.07 21:00",
    "o": 0.90261,
    "h": 0.90284,
    "l": 0.90241,
    "c": 0.90259,
    "v": 1833
  },
  {
    "dt": "2020.08.07 22:00",
    "o": 0.90256,
    "h": 0.90282,
    "l": 0.90227,
    "c": 0.90254,
    "v": 1692
  },
  {
    "dt": "2020.08.07 23:00",
    "o": 0.90251,
    "h": 0.90305,
    "l": 0.90224,
    "c": 0.90276,
    "v": 1244
  },
  {
    "dt": "2020.08.10 00:00",
    "o": 0.9023,
    "h": 0.90246,
    "l": 0.90165,
    "c": 0.90206,
    "v": 109
  },
  {
    "dt": "2020.08.10 01:00",
    "o": 0.90202,
    "h": 0.90284,
    "l": 0.90198,
    "c": 0.90271,
    "v": 1216
  },
  {
    "dt": "2020.08.10 02:00",
    "o": 0.90268,
    "h": 0.90282,
    "l": 0.90255,
    "c": 0.90262,
    "v": 780
  },
  {
    "dt": "2020.08.10 03:00",
    "o": 0.90261,
    "h": 0.9027,
    "l": 0.90229,
    "c": 0.90261,
    "v": 1034
  },
  {
    "dt": "2020.08.10 04:00",
    "o": 0.9026,
    "h": 0.90263,
    "l": 0.9023,
    "c": 0.90237,
    "v": 1369
  },
  {
    "dt": "2020.08.10 05:00",
    "o": 0.90236,
    "h": 0.90241,
    "l": 0.902,
    "c": 0.90206,
    "v": 1187
  },
  {
    "dt": "2020.08.10 06:00",
    "o": 0.90206,
    "h": 0.90225,
    "l": 0.90195,
    "c": 0.90215,
    "v": 856
  },
  {
    "dt": "2020.08.10 07:00",
    "o": 0.90215,
    "h": 0.90225,
    "l": 0.90195,
    "c": 0.90225,
    "v": 689
  },
  {
    "dt": "2020.08.10 08:00",
    "o": 0.90225,
    "h": 0.90233,
    "l": 0.90206,
    "c": 0.90225,
    "v": 938
  },
  {
    "dt": "2020.08.10 09:00",
    "o": 0.90227,
    "h": 0.90289,
    "l": 0.90145,
    "c": 0.90146,
    "v": 2118
  },
  {
    "dt": "2020.08.10 10:00",
    "o": 0.90142,
    "h": 0.90147,
    "l": 0.9004,
    "c": 0.90119,
    "v": 2737
  },
  {
    "dt": "2020.08.10 11:00",
    "o": 0.90118,
    "h": 0.90163,
    "l": 0.90002,
    "c": 0.9001,
    "v": 2665
  },
  {
    "dt": "2020.08.10 12:00",
    "o": 0.90013,
    "h": 0.90066,
    "l": 0.89963,
    "c": 0.90052,
    "v": 2205
  },
  {
    "dt": "2020.08.10 13:00",
    "o": 0.90054,
    "h": 0.90211,
    "l": 0.90036,
    "c": 0.9018,
    "v": 2300
  },
  {
    "dt": "2020.08.10 14:00",
    "o": 0.9018,
    "h": 0.90228,
    "l": 0.90098,
    "c": 0.9014,
    "v": 2275
  },
  {
    "dt": "2020.08.10 15:00",
    "o": 0.90142,
    "h": 0.90163,
    "l": 0.90043,
    "c": 0.90044,
    "v": 2304
  },
  {
    "dt": "2020.08.10 16:00",
    "o": 0.90042,
    "h": 0.90056,
    "l": 0.89923,
    "c": 0.90006,
    "v": 3229
  },
  {
    "dt": "2020.08.10 17:00",
    "o": 0.90007,
    "h": 0.90007,
    "l": 0.89839,
    "c": 0.8988,
    "v": 3396
  },
  {
    "dt": "2020.08.10 18:00",
    "o": 0.8988,
    "h": 0.89922,
    "l": 0.89804,
    "c": 0.89862,
    "v": 2824
  },
  {
    "dt": "2020.08.10 19:00",
    "o": 0.89861,
    "h": 0.89864,
    "l": 0.89775,
    "c": 0.89814,
    "v": 1914
  },
  {
    "dt": "2020.08.10 20:00",
    "o": 0.89813,
    "h": 0.89934,
    "l": 0.8979,
    "c": 0.89922,
    "v": 1585
  },
  {
    "dt": "2020.08.10 21:00",
    "o": 0.89921,
    "h": 0.89957,
    "l": 0.89853,
    "c": 0.89859,
    "v": 1735
  },
  {
    "dt": "2020.08.10 22:00",
    "o": 0.89861,
    "h": 0.89861,
    "l": 0.89795,
    "c": 0.89807,
    "v": 1794
  },
  {
    "dt": "2020.08.10 23:00",
    "o": 0.89808,
    "h": 0.89829,
    "l": 0.89755,
    "c": 0.89755,
    "v": 862
  },
  {
    "dt": "2020.08.11 00:00",
    "o": 0.89759,
    "h": 0.89813,
    "l": 0.89739,
    "c": 0.89785,
    "v": 392
  },
  {
    "dt": "2020.08.11 01:00",
    "o": 0.89792,
    "h": 0.898,
    "l": 0.89762,
    "c": 0.89799,
    "v": 596
  },
  {
    "dt": "2020.08.11 02:00",
    "o": 0.898,
    "h": 0.89808,
    "l": 0.89744,
    "c": 0.89746,
    "v": 546
  },
  {
    "dt": "2020.08.11 03:00",
    "o": 0.89748,
    "h": 0.89771,
    "l": 0.89706,
    "c": 0.89715,
    "v": 1458
  },
  {
    "dt": "2020.08.11 04:00",
    "o": 0.89715,
    "h": 0.89727,
    "l": 0.89689,
    "c": 0.8971,
    "v": 1508
  },
  {
    "dt": "2020.08.11 05:00",
    "o": 0.89711,
    "h": 0.89753,
    "l": 0.89704,
    "c": 0.89745,
    "v": 1288
  },
  {
    "dt": "2020.08.11 06:00",
    "o": 0.89746,
    "h": 0.89775,
    "l": 0.89736,
    "c": 0.89763,
    "v": 935
  },
  {
    "dt": "2020.08.11 07:00",
    "o": 0.89762,
    "h": 0.89807,
    "l": 0.89758,
    "c": 0.89797,
    "v": 940
  },
  {
    "dt": "2020.08.11 08:00",
    "o": 0.89796,
    "h": 0.89825,
    "l": 0.89763,
    "c": 0.89778,
    "v": 1395
  },
  {
    "dt": "2020.08.11 09:00",
    "o": 0.89772,
    "h": 0.89838,
    "l": 0.89756,
    "c": 0.8981,
    "v": 2571
  },
  {
    "dt": "2020.08.11 10:00",
    "o": 0.89812,
    "h": 0.89841,
    "l": 0.8975,
    "c": 0.89775,
    "v": 2801
  },
  {
    "dt": "2020.08.11 11:00",
    "o": 0.89773,
    "h": 0.89966,
    "l": 0.89764,
    "c": 0.89938,
    "v": 3281
  },
  {
    "dt": "2020.08.11 12:00",
    "o": 0.89936,
    "h": 0.90001,
    "l": 0.89906,
    "c": 0.90001,
    "v": 2946
  },
  {
    "dt": "2020.08.11 13:00",
    "o": 0.90001,
    "h": 0.90062,
    "l": 0.89976,
    "c": 0.90058,
    "v": 2726
  },
  {
    "dt": "2020.08.11 14:00",
    "o": 0.90055,
    "h": 0.90082,
    "l": 0.89805,
    "c": 0.89813,
    "v": 3061
  },
  {
    "dt": "2020.08.11 15:00",
    "o": 0.89815,
    "h": 0.89946,
    "l": 0.89794,
    "c": 0.89915,
    "v": 3295
  },
  {
    "dt": "2020.08.11 16:00",
    "o": 0.89913,
    "h": 0.89914,
    "l": 0.89767,
    "c": 0.89853,
    "v": 4249
  },
  {
    "dt": "2020.08.11 17:00",
    "o": 0.89853,
    "h": 0.89967,
    "l": 0.89804,
    "c": 0.89894,
    "v": 3639
  },
  {
    "dt": "2020.08.11 18:00",
    "o": 0.89893,
    "h": 0.90011,
    "l": 0.8989,
    "c": 0.89953,
    "v": 3261
  },
  {
    "dt": "2020.08.11 19:00",
    "o": 0.8995,
    "h": 0.8998,
    "l": 0.89887,
    "c": 0.89915,
    "v": 2379
  },
  {
    "dt": "2020.08.11 20:00",
    "o": 0.89917,
    "h": 0.89922,
    "l": 0.89846,
    "c": 0.89882,
    "v": 2583
  },
  {
    "dt": "2020.08.11 21:00",
    "o": 0.89882,
    "h": 0.89931,
    "l": 0.89865,
    "c": 0.89905,
    "v": 2367
  },
  {
    "dt": "2020.08.11 22:00",
    "o": 0.89908,
    "h": 0.89941,
    "l": 0.8987,
    "c": 0.89935,
    "v": 2710
  },
  {
    "dt": "2020.08.11 23:00",
    "o": 0.89934,
    "h": 0.89962,
    "l": 0.89904,
    "c": 0.89945,
    "v": 1175
  },
  {
    "dt": "2020.08.12 00:00",
    "o": 0.89905,
    "h": 0.89956,
    "l": 0.89858,
    "c": 0.8993,
    "v": 961
  },
  {
    "dt": "2020.08.12 01:00",
    "o": 0.89925,
    "h": 0.89944,
    "l": 0.89908,
    "c": 0.89922,
    "v": 756
  },
  {
    "dt": "2020.08.12 02:00",
    "o": 0.89918,
    "h": 0.89931,
    "l": 0.8989,
    "c": 0.89903,
    "v": 986
  },
  {
    "dt": "2020.08.12 03:00",
    "o": 0.89902,
    "h": 0.89946,
    "l": 0.89902,
    "c": 0.8993,
    "v": 1977
  },
  {
    "dt": "2020.08.12 04:00",
    "o": 0.8993,
    "h": 0.89986,
    "l": 0.89919,
    "c": 0.89962,
    "v": 2026
  },
  {
    "dt": "2020.08.12 05:00",
    "o": 0.89955,
    "h": 0.89992,
    "l": 0.89939,
    "c": 0.89949,
    "v": 2638
  },
  {
    "dt": "2020.08.12 06:00",
    "o": 0.89948,
    "h": 0.89976,
    "l": 0.89926,
    "c": 0.89968,
    "v": 1652
  },
  {
    "dt": "2020.08.12 07:00",
    "o": 0.89968,
    "h": 0.89968,
    "l": 0.89936,
    "c": 0.89952,
    "v": 1543
  },
  {
    "dt": "2020.08.12 08:00",
    "o": 0.89952,
    "h": 0.89979,
    "l": 0.89916,
    "c": 0.89921,
    "v": 1547
  },
  {
    "dt": "2020.08.12 09:00",
    "o": 0.89915,
    "h": 0.89948,
    "l": 0.89885,
    "c": 0.89924,
    "v": 2549
  },
  {
    "dt": "2020.08.12 10:00",
    "o": 0.89925,
    "h": 0.90028,
    "l": 0.89908,
    "c": 0.9002,
    "v": 3168
  },
  {
    "dt": "2020.08.12 11:00",
    "o": 0.9002,
    "h": 0.90045,
    "l": 0.89936,
    "c": 0.89987,
    "v": 2958
  },
  {
    "dt": "2020.08.12 12:00",
    "o": 0.89983,
    "h": 0.90172,
    "l": 0.89966,
    "c": 0.90164,
    "v": 2791
  },
  {
    "dt": "2020.08.12 13:00",
    "o": 0.90167,
    "h": 0.90315,
    "l": 0.90144,
    "c": 0.9027,
    "v": 2436
  },
  {
    "dt": "2020.08.12 14:00",
    "o": 0.9027,
    "h": 0.90403,
    "l": 0.90262,
    "c": 0.90388,
    "v": 2974
  },
  {
    "dt": "2020.08.12 15:00",
    "o": 0.90391,
    "h": 0.90493,
    "l": 0.90366,
    "c": 0.90425,
    "v": 3464
  },
  {
    "dt": "2020.08.12 16:00",
    "o": 0.90429,
    "h": 0.90462,
    "l": 0.90341,
    "c": 0.90424,
    "v": 3599
  },
  {
    "dt": "2020.08.12 17:00",
    "o": 0.90419,
    "h": 0.90523,
    "l": 0.90391,
    "c": 0.90403,
    "v": 3767
  },
  {
    "dt": "2020.08.12 18:00",
    "o": 0.90402,
    "h": 0.90428,
    "l": 0.90364,
    "c": 0.90406,
    "v": 3257
  },
  {
    "dt": "2020.08.12 19:00",
    "o": 0.90404,
    "h": 0.90437,
    "l": 0.90353,
    "c": 0.9039,
    "v": 2318
  },
  {
    "dt": "2020.08.12 20:00",
    "o": 0.90389,
    "h": 0.90443,
    "l": 0.90387,
    "c": 0.90438,
    "v": 2142
  },
  {
    "dt": "2020.08.12 21:00",
    "o": 0.90437,
    "h": 0.90501,
    "l": 0.90436,
    "c": 0.90454,
    "v": 1628
  },
  {
    "dt": "2020.08.12 22:00",
    "o": 0.90453,
    "h": 0.90514,
    "l": 0.90437,
    "c": 0.90514,
    "v": 2147
  },
  {
    "dt": "2020.08.12 23:00",
    "o": 0.90511,
    "h": 0.90514,
    "l": 0.90405,
    "c": 0.90407,
    "v": 1174
  },
  {
    "dt": "2020.08.13 00:00",
    "o": 0.90322,
    "h": 0.90406,
    "l": 0.90322,
    "c": 0.90404,
    "v": 617
  },
  {
    "dt": "2020.08.13 01:00",
    "o": 0.90403,
    "h": 0.90439,
    "l": 0.904,
    "c": 0.90413,
    "v": 587
  },
  {
    "dt": "2020.08.13 02:00",
    "o": 0.90413,
    "h": 0.90427,
    "l": 0.90386,
    "c": 0.90394,
    "v": 797
  },
  {
    "dt": "2020.08.13 03:00",
    "o": 0.90385,
    "h": 0.90421,
    "l": 0.90385,
    "c": 0.90415,
    "v": 1604
  },
  {
    "dt": "2020.08.13 04:00",
    "o": 0.90415,
    "h": 0.90423,
    "l": 0.90363,
    "c": 0.90402,
    "v": 1750
  },
  {
    "dt": "2020.08.13 05:00",
    "o": 0.90407,
    "h": 0.9042,
    "l": 0.90379,
    "c": 0.904,
    "v": 1263
  },
  {
    "dt": "2020.08.13 06:00",
    "o": 0.904,
    "h": 0.90429,
    "l": 0.90396,
    "c": 0.9042,
    "v": 937
  },
  {
    "dt": "2020.08.13 07:00",
    "o": 0.9042,
    "h": 0.90441,
    "l": 0.90415,
    "c": 0.9042,
    "v": 1009
  },
  {
    "dt": "2020.08.13 08:00",
    "o": 0.9042,
    "h": 0.90423,
    "l": 0.90339,
    "c": 0.90354,
    "v": 1363
  },
  {
    "dt": "2020.08.13 09:00",
    "o": 0.90355,
    "h": 0.90512,
    "l": 0.90352,
    "c": 0.90486,
    "v": 2344
  },
  {
    "dt": "2020.08.13 10:00",
    "o": 0.90487,
    "h": 0.90514,
    "l": 0.90396,
    "c": 0.90398,
    "v": 2724
  },
  {
    "dt": "2020.08.13 11:00",
    "o": 0.90397,
    "h": 0.90474,
    "l": 0.90332,
    "c": 0.90456,
    "v": 2966
  },
  {
    "dt": "2020.08.13 12:00",
    "o": 0.90455,
    "h": 0.90497,
    "l": 0.90391,
    "c": 0.90445,
    "v": 2527
  },
  {
    "dt": "2020.08.13 13:00",
    "o": 0.90443,
    "h": 0.90476,
    "l": 0.90355,
    "c": 0.90391,
    "v": 2770
  },
  {
    "dt": "2020.08.13 14:00",
    "o": 0.9039,
    "h": 0.90421,
    "l": 0.90304,
    "c": 0.90383,
    "v": 2629
  },
  {
    "dt": "2020.08.13 15:00",
    "o": 0.90383,
    "h": 0.90454,
    "l": 0.90327,
    "c": 0.9045,
    "v": 2784
  },
  {
    "dt": "2020.08.13 16:00",
    "o": 0.90451,
    "h": 0.90459,
    "l": 0.90297,
    "c": 0.9039,
    "v": 3170
  },
  {
    "dt": "2020.08.13 17:00",
    "o": 0.90389,
    "h": 0.90442,
    "l": 0.90328,
    "c": 0.90398,
    "v": 3772
  },
  {
    "dt": "2020.08.13 18:00",
    "o": 0.90402,
    "h": 0.90423,
    "l": 0.9034,
    "c": 0.9034,
    "v": 2942
  },
  {
    "dt": "2020.08.13 19:00",
    "o": 0.9034,
    "h": 0.90369,
    "l": 0.90311,
    "c": 0.9034,
    "v": 1868
  },
  {
    "dt": "2020.08.13 20:00",
    "o": 0.9034,
    "h": 0.904,
    "l": 0.9033,
    "c": 0.90385,
    "v": 2010
  },
  {
    "dt": "2020.08.13 21:00",
    "o": 0.90387,
    "h": 0.90413,
    "l": 0.90366,
    "c": 0.90387,
    "v": 2623
  },
  {
    "dt": "2020.08.13 22:00",
    "o": 0.90385,
    "h": 0.90478,
    "l": 0.90385,
    "c": 0.90471,
    "v": 2071
  },
  {
    "dt": "2020.08.13 23:00",
    "o": 0.90472,
    "h": 0.90489,
    "l": 0.90388,
    "c": 0.90396,
    "v": 1091
  },
  {
    "dt": "2020.08.14 00:00",
    "o": 0.90415,
    "h": 0.90443,
    "l": 0.90359,
    "c": 0.90399,
    "v": 383
  },
  {
    "dt": "2020.08.14 01:00",
    "o": 0.90399,
    "h": 0.90419,
    "l": 0.90393,
    "c": 0.90405,
    "v": 601
  },
  {
    "dt": "2020.08.14 02:00",
    "o": 0.90407,
    "h": 0.90425,
    "l": 0.90393,
    "c": 0.90394,
    "v": 999
  },
  {
    "dt": "2020.08.14 03:00",
    "o": 0.90393,
    "h": 0.90418,
    "l": 0.90374,
    "c": 0.90413,
    "v": 1437
  },
  {
    "dt": "2020.08.14 04:00",
    "o": 0.90411,
    "h": 0.90458,
    "l": 0.90382,
    "c": 0.90449,
    "v": 1360
  },
  {
    "dt": "2020.08.14 05:00",
    "o": 0.90452,
    "h": 0.90459,
    "l": 0.90435,
    "c": 0.90444,
    "v": 1235
  },
  {
    "dt": "2020.08.14 06:00",
    "o": 0.90444,
    "h": 0.90463,
    "l": 0.90429,
    "c": 0.90439,
    "v": 1093
  },
  {
    "dt": "2020.08.14 07:00",
    "o": 0.90438,
    "h": 0.9046,
    "l": 0.90431,
    "c": 0.90453,
    "v": 793
  },
  {
    "dt": "2020.08.14 08:00",
    "o": 0.90451,
    "h": 0.90458,
    "l": 0.90406,
    "c": 0.90417,
    "v": 1033
  },
  {
    "dt": "2020.08.14 09:00",
    "o": 0.90416,
    "h": 0.9048,
    "l": 0.90405,
    "c": 0.90433,
    "v": 1919
  },
  {
    "dt": "2020.08.14 10:00",
    "o": 0.90435,
    "h": 0.90456,
    "l": 0.90275,
    "c": 0.90319,
    "v": 2745
  },
  {
    "dt": "2020.08.14 11:00",
    "o": 0.90319,
    "h": 0.90378,
    "l": 0.90274,
    "c": 0.90336,
    "v": 2781
  },
  {
    "dt": "2020.08.14 12:00",
    "o": 0.90336,
    "h": 0.90339,
    "l": 0.90172,
    "c": 0.90177,
    "v": 2384
  },
  {
    "dt": "2020.08.14 13:00",
    "o": 0.90176,
    "h": 0.90196,
    "l": 0.90085,
    "c": 0.90106,
    "v": 2601
  },
  {
    "dt": "2020.08.14 14:00",
    "o": 0.90107,
    "h": 0.9016,
    "l": 0.9009,
    "c": 0.90102,
    "v": 2346
  },
  {
    "dt": "2020.08.14 15:00",
    "o": 0.90102,
    "h": 0.90187,
    "l": 0.9,
    "c": 0.90026,
    "v": 2656
  },
  {
    "dt": "2020.08.14 16:00",
    "o": 0.90026,
    "h": 0.90201,
    "l": 0.9001,
    "c": 0.90166,
    "v": 3114
  },
  {
    "dt": "2020.08.14 17:00",
    "o": 0.90167,
    "h": 0.90289,
    "l": 0.90164,
    "c": 0.9022,
    "v": 3163
  },
  {
    "dt": "2020.08.14 18:00",
    "o": 0.90222,
    "h": 0.90322,
    "l": 0.90221,
    "c": 0.90273,
    "v": 2310
  },
  {
    "dt": "2020.08.14 19:00",
    "o": 0.90273,
    "h": 0.9045,
    "l": 0.90256,
    "c": 0.9041,
    "v": 2232
  },
  {
    "dt": "2020.08.14 20:00",
    "o": 0.90409,
    "h": 0.90457,
    "l": 0.90407,
    "c": 0.9043,
    "v": 1779
  },
  {
    "dt": "2020.08.14 21:00",
    "o": 0.90433,
    "h": 0.90449,
    "l": 0.90391,
    "c": 0.90421,
    "v": 1381
  },
  {
    "dt": "2020.08.14 22:00",
    "o": 0.90423,
    "h": 0.90448,
    "l": 0.90388,
    "c": 0.90441,
    "v": 1506
  },
  {
    "dt": "2020.08.14 23:00",
    "o": 0.9044,
    "h": 0.90504,
    "l": 0.90428,
    "c": 0.9048,
    "v": 1219
  },
  {
    "dt": "2020.08.17 00:00",
    "o": 0.90383,
    "h": 0.90449,
    "l": 0.90279,
    "c": 0.90302,
    "v": 152
  },
  {
    "dt": "2020.08.17 01:00",
    "o": 0.90321,
    "h": 0.90431,
    "l": 0.9031,
    "c": 0.90409,
    "v": 720
  },
  {
    "dt": "2020.08.17 02:00",
    "o": 0.90407,
    "h": 0.90445,
    "l": 0.90402,
    "c": 0.90426,
    "v": 980
  },
  {
    "dt": "2020.08.17 03:00",
    "o": 0.90424,
    "h": 0.90441,
    "l": 0.90398,
    "c": 0.90415,
    "v": 1155
  },
  {
    "dt": "2020.08.17 04:00",
    "o": 0.90416,
    "h": 0.90459,
    "l": 0.90405,
    "c": 0.90435,
    "v": 1150
  },
  {
    "dt": "2020.08.17 05:00",
    "o": 0.90435,
    "h": 0.90515,
    "l": 0.90432,
    "c": 0.90477,
    "v": 1206
  },
  {
    "dt": "2020.08.17 06:00",
    "o": 0.90476,
    "h": 0.90551,
    "l": 0.90475,
    "c": 0.90533,
    "v": 745
  },
  {
    "dt": "2020.08.17 07:00",
    "o": 0.90531,
    "h": 0.90566,
    "l": 0.90519,
    "c": 0.90566,
    "v": 954
  },
  {
    "dt": "2020.08.17 08:00",
    "o": 0.90567,
    "h": 0.90602,
    "l": 0.90554,
    "c": 0.90575,
    "v": 855
  },
  {
    "dt": "2020.08.17 09:00",
    "o": 0.9058,
    "h": 0.90595,
    "l": 0.90467,
    "c": 0.90479,
    "v": 1920
  },
  {
    "dt": "2020.08.17 10:00",
    "o": 0.90475,
    "h": 0.90506,
    "l": 0.90354,
    "c": 0.90497,
    "v": 2630
  },
  {
    "dt": "2020.08.17 11:00",
    "o": 0.90499,
    "h": 0.90532,
    "l": 0.90408,
    "c": 0.90419,
    "v": 2770
  },
  {
    "dt": "2020.08.17 12:00",
    "o": 0.90415,
    "h": 0.90427,
    "l": 0.90375,
    "c": 0.90388,
    "v": 2459
  },
  {
    "dt": "2020.08.17 13:00",
    "o": 0.90387,
    "h": 0.90553,
    "l": 0.90345,
    "c": 0.9053,
    "v": 2285
  },
  {
    "dt": "2020.08.17 14:00",
    "o": 0.90535,
    "h": 0.906,
    "l": 0.90465,
    "c": 0.906,
    "v": 2420
  },
  {
    "dt": "2020.08.17 15:00",
    "o": 0.90603,
    "h": 0.90633,
    "l": 0.90536,
    "c": 0.90543,
    "v": 2226
  },
  {
    "dt": "2020.08.17 16:00",
    "o": 0.90546,
    "h": 0.90651,
    "l": 0.90498,
    "c": 0.90612,
    "v": 2620
  },
  {
    "dt": "2020.08.17 17:00",
    "o": 0.90612,
    "h": 0.90694,
    "l": 0.90585,
    "c": 0.9059,
    "v": 2964
  },
  {
    "dt": "2020.08.17 18:00",
    "o": 0.90588,
    "h": 0.90632,
    "l": 0.90563,
    "c": 0.90565,
    "v": 2448
  },
  {
    "dt": "2020.08.17 19:00",
    "o": 0.90566,
    "h": 0.90594,
    "l": 0.90537,
    "c": 0.90566,
    "v": 1926
  },
  {
    "dt": "2020.08.17 20:00",
    "o": 0.90566,
    "h": 0.90574,
    "l": 0.90515,
    "c": 0.90547,
    "v": 1396
  },
  {
    "dt": "2020.08.17 21:00",
    "o": 0.90548,
    "h": 0.90567,
    "l": 0.90522,
    "c": 0.90562,
    "v": 1346
  },
  {
    "dt": "2020.08.17 22:00",
    "o": 0.9056,
    "h": 0.90587,
    "l": 0.90509,
    "c": 0.90517,
    "v": 1300
  },
  {
    "dt": "2020.08.17 23:00",
    "o": 0.90521,
    "h": 0.90595,
    "l": 0.90521,
    "c": 0.90563,
    "v": 814
  },
  {
    "dt": "2020.08.18 00:00",
    "o": 0.90499,
    "h": 0.9061,
    "l": 0.90463,
    "c": 0.90544,
    "v": 720
  },
  {
    "dt": "2020.08.18 01:00",
    "o": 0.90551,
    "h": 0.90604,
    "l": 0.9055,
    "c": 0.90601,
    "v": 579
  },
  {
    "dt": "2020.08.18 02:00",
    "o": 0.90602,
    "h": 0.90614,
    "l": 0.90589,
    "c": 0.90591,
    "v": 725
  },
  {
    "dt": "2020.08.18 03:00",
    "o": 0.90594,
    "h": 0.90601,
    "l": 0.90534,
    "c": 0.90534,
    "v": 1704
  },
  {
    "dt": "2020.08.18 04:00",
    "o": 0.90539,
    "h": 0.90571,
    "l": 0.90509,
    "c": 0.9055,
    "v": 1946
  },
  {
    "dt": "2020.08.18 05:00",
    "o": 0.9055,
    "h": 0.90562,
    "l": 0.90533,
    "c": 0.9055,
    "v": 1278
  },
  {
    "dt": "2020.08.18 06:00",
    "o": 0.9055,
    "h": 0.90573,
    "l": 0.90524,
    "c": 0.90527,
    "v": 1190
  },
  {
    "dt": "2020.08.18 07:00",
    "o": 0.90527,
    "h": 0.90545,
    "l": 0.90517,
    "c": 0.90522,
    "v": 944
  },
  {
    "dt": "2020.08.18 08:00",
    "o": 0.90523,
    "h": 0.90528,
    "l": 0.90484,
    "c": 0.90517,
    "v": 1071
  },
  {
    "dt": "2020.08.18 09:00",
    "o": 0.90517,
    "h": 0.90518,
    "l": 0.90347,
    "c": 0.90359,
    "v": 2310
  },
  {
    "dt": "2020.08.18 10:00",
    "o": 0.9036,
    "h": 0.90401,
    "l": 0.90316,
    "c": 0.90387,
    "v": 3326
  },
  {
    "dt": "2020.08.18 11:00",
    "o": 0.90385,
    "h": 0.90443,
    "l": 0.90316,
    "c": 0.90435,
    "v": 2943
  },
  {
    "dt": "2020.08.18 12:00",
    "o": 0.90435,
    "h": 0.90452,
    "l": 0.90348,
    "c": 0.90358,
    "v": 2451
  },
  {
    "dt": "2020.08.18 13:00",
    "o": 0.90358,
    "h": 0.90418,
    "l": 0.90304,
    "c": 0.90413,
    "v": 2157
  },
  {
    "dt": "2020.08.18 14:00",
    "o": 0.90412,
    "h": 0.90461,
    "l": 0.90315,
    "c": 0.90343,
    "v": 2336
  },
  {
    "dt": "2020.08.18 15:00",
    "o": 0.9034,
    "h": 0.90497,
    "l": 0.90327,
    "c": 0.9046,
    "v": 3069
  },
  {
    "dt": "2020.08.18 16:00",
    "o": 0.90459,
    "h": 0.90595,
    "l": 0.90345,
    "c": 0.90381,
    "v": 3734
  },
  {
    "dt": "2020.08.18 17:00",
    "o": 0.90379,
    "h": 0.90387,
    "l": 0.90151,
    "c": 0.90178,
    "v": 4311
  },
  {
    "dt": "2020.08.18 18:00",
    "o": 0.90179,
    "h": 0.9025,
    "l": 0.90124,
    "c": 0.90177,
    "v": 2652
  },
  {
    "dt": "2020.08.18 19:00",
    "o": 0.90176,
    "h": 0.90236,
    "l": 0.90133,
    "c": 0.90179,
    "v": 2349
  },
  {
    "dt": "2020.08.18 20:00",
    "o": 0.90176,
    "h": 0.90176,
    "l": 0.9011,
    "c": 0.90131,
    "v": 1840
  },
  {
    "dt": "2020.08.18 21:00",
    "o": 0.90132,
    "h": 0.90152,
    "l": 0.90085,
    "c": 0.90129,
    "v": 1361
  },
  {
    "dt": "2020.08.18 22:00",
    "o": 0.9013,
    "h": 0.90147,
    "l": 0.90079,
    "c": 0.90121,
    "v": 1535
  },
  {
    "dt": "2020.08.18 23:00",
    "o": 0.9012,
    "h": 0.90148,
    "l": 0.90092,
    "c": 0.90106,
    "v": 898
  },
  {
    "dt": "2020.08.19 00:00",
    "o": 0.90045,
    "h": 0.90121,
    "l": 0.90031,
    "c": 0.90077,
    "v": 557
  },
  {
    "dt": "2020.08.19 01:00",
    "o": 0.90077,
    "h": 0.90129,
    "l": 0.90074,
    "c": 0.90127,
    "v": 957
  },
  {
    "dt": "2020.08.19 02:00",
    "o": 0.90128,
    "h": 0.90155,
    "l": 0.90114,
    "c": 0.90133,
    "v": 672
  },
  {
    "dt": "2020.08.19 03:00",
    "o": 0.90132,
    "h": 0.9016,
    "l": 0.90084,
    "c": 0.90128,
    "v": 1513
  },
  {
    "dt": "2020.08.19 04:00",
    "o": 0.90129,
    "h": 0.90166,
    "l": 0.90104,
    "c": 0.90141,
    "v": 1604
  },
  {
    "dt": "2020.08.19 05:00",
    "o": 0.9014,
    "h": 0.90155,
    "l": 0.9011,
    "c": 0.9013,
    "v": 1328
  },
  {
    "dt": "2020.08.19 06:00",
    "o": 0.90129,
    "h": 0.90142,
    "l": 0.90105,
    "c": 0.90112,
    "v": 1214
  },
  {
    "dt": "2020.08.19 07:00",
    "o": 0.90113,
    "h": 0.90131,
    "l": 0.90106,
    "c": 0.9012,
    "v": 1153
  },
  {
    "dt": "2020.08.19 08:00",
    "o": 0.90114,
    "h": 0.90133,
    "l": 0.90084,
    "c": 0.90122,
    "v": 1497
  },
  {
    "dt": "2020.08.19 09:00",
    "o": 0.90123,
    "h": 0.90128,
    "l": 0.90027,
    "c": 0.90096,
    "v": 2340
  },
  {
    "dt": "2020.08.19 10:00",
    "o": 0.90098,
    "h": 0.9015,
    "l": 0.90048,
    "c": 0.90063,
    "v": 2924
  },
  {
    "dt": "2020.08.19 11:00",
    "o": 0.90064,
    "h": 0.90156,
    "l": 0.90034,
    "c": 0.90156,
    "v": 2656
  },
  {
    "dt": "2020.08.19 12:00",
    "o": 0.90152,
    "h": 0.90206,
    "l": 0.9012,
    "c": 0.90206,
    "v": 2763
  },
  {
    "dt": "2020.08.19 13:00",
    "o": 0.90203,
    "h": 0.90331,
    "l": 0.90201,
    "c": 0.90301,
    "v": 2207
  },
  {
    "dt": "2020.08.19 14:00",
    "o": 0.90301,
    "h": 0.90425,
    "l": 0.90274,
    "c": 0.9033,
    "v": 2542
  },
  {
    "dt": "2020.08.19 15:00",
    "o": 0.90331,
    "h": 0.9039,
    "l": 0.90294,
    "c": 0.90356,
    "v": 2178
  },
  {
    "dt": "2020.08.19 16:00",
    "o": 0.90353,
    "h": 0.90375,
    "l": 0.90306,
    "c": 0.90368,
    "v": 2798
  },
  {
    "dt": "2020.08.19 17:00",
    "o": 0.9037,
    "h": 0.90371,
    "l": 0.90237,
    "c": 0.90243,
    "v": 3630
  },
  {
    "dt": "2020.08.19 18:00",
    "o": 0.90245,
    "h": 0.90273,
    "l": 0.90157,
    "c": 0.9019,
    "v": 3219
  },
  {
    "dt": "2020.08.19 19:00",
    "o": 0.90193,
    "h": 0.90276,
    "l": 0.90114,
    "c": 0.90216,
    "v": 2786
  },
  {
    "dt": "2020.08.19 20:00",
    "o": 0.90214,
    "h": 0.90286,
    "l": 0.90213,
    "c": 0.90259,
    "v": 1902
  },
  {
    "dt": "2020.08.19 21:00",
    "o": 0.90252,
    "h": 0.90449,
    "l": 0.90234,
    "c": 0.90398,
    "v": 4612
  },
  {
    "dt": "2020.08.19 22:00",
    "o": 0.90398,
    "h": 0.90431,
    "l": 0.90334,
    "c": 0.90409,
    "v": 3101
  },
  {
    "dt": "2020.08.19 23:00",
    "o": 0.90409,
    "h": 0.90434,
    "l": 0.90341,
    "c": 0.90341,
    "v": 1257
  },
  {
    "dt": "2020.08.20 00:00",
    "o": 0.90349,
    "h": 0.9037,
    "l": 0.90281,
    "c": 0.90299,
    "v": 895
  },
  {
    "dt": "2020.08.20 01:00",
    "o": 0.90297,
    "h": 0.90343,
    "l": 0.90296,
    "c": 0.90341,
    "v": 1075
  },
  {
    "dt": "2020.08.20 02:00",
    "o": 0.9034,
    "h": 0.90374,
    "l": 0.90332,
    "c": 0.90335,
    "v": 943
  },
  {
    "dt": "2020.08.20 03:00",
    "o": 0.90338,
    "h": 0.90376,
    "l": 0.90332,
    "c": 0.9036,
    "v": 1273
  },
  {
    "dt": "2020.08.20 04:00",
    "o": 0.9036,
    "h": 0.90416,
    "l": 0.90355,
    "c": 0.9041,
    "v": 1724
  },
  {
    "dt": "2020.08.20 05:00",
    "o": 0.9041,
    "h": 0.90448,
    "l": 0.9041,
    "c": 0.90443,
    "v": 1092
  },
  {
    "dt": "2020.08.20 06:00",
    "o": 0.9044,
    "h": 0.90442,
    "l": 0.90379,
    "c": 0.90383,
    "v": 1225
  },
  {
    "dt": "2020.08.20 07:00",
    "o": 0.90383,
    "h": 0.90457,
    "l": 0.90383,
    "c": 0.90455,
    "v": 754
  },
  {
    "dt": "2020.08.20 08:00",
    "o": 0.90453,
    "h": 0.90511,
    "l": 0.90429,
    "c": 0.90476,
    "v": 1675
  },
  {
    "dt": "2020.08.20 09:00",
    "o": 0.90476,
    "h": 0.90579,
    "l": 0.9044,
    "c": 0.90523,
    "v": 2572
  },
  {
    "dt": "2020.08.20 10:00",
    "o": 0.90525,
    "h": 0.90676,
    "l": 0.90522,
    "c": 0.90532,
    "v": 3242
  },
  {
    "dt": "2020.08.20 11:00",
    "o": 0.90527,
    "h": 0.90551,
    "l": 0.90256,
    "c": 0.90302,
    "v": 3648
  },
  {
    "dt": "2020.08.20 12:00",
    "o": 0.90302,
    "h": 0.90311,
    "l": 0.90198,
    "c": 0.9021,
    "v": 2842
  },
  {
    "dt": "2020.08.20 13:00",
    "o": 0.90205,
    "h": 0.90257,
    "l": 0.90138,
    "c": 0.90179,
    "v": 2683
  },
  {
    "dt": "2020.08.20 14:00",
    "o": 0.90174,
    "h": 0.90184,
    "l": 0.90094,
    "c": 0.90141,
    "v": 2748
  },
  {
    "dt": "2020.08.20 15:00",
    "o": 0.90145,
    "h": 0.90291,
    "l": 0.901,
    "c": 0.9029,
    "v": 3361
  },
  {
    "dt": "2020.08.20 16:00",
    "o": 0.90285,
    "h": 0.90316,
    "l": 0.90181,
    "c": 0.9029,
    "v": 3433
  },
  {
    "dt": "2020.08.20 17:00",
    "o": 0.90293,
    "h": 0.90294,
    "l": 0.90016,
    "c": 0.90115,
    "v": 3989
  },
  {
    "dt": "2020.08.20 18:00",
    "o": 0.90109,
    "h": 0.90171,
    "l": 0.89914,
    "c": 0.89914,
    "v": 3386
  },
  {
    "dt": "2020.08.20 19:00",
    "o": 0.89912,
    "h": 0.89935,
    "l": 0.89814,
    "c": 0.89885,
    "v": 2743
  },
  {
    "dt": "2020.08.20 20:00",
    "o": 0.8987,
    "h": 0.89885,
    "l": 0.89779,
    "c": 0.89811,
    "v": 1987
  },
  {
    "dt": "2020.08.20 21:00",
    "o": 0.89808,
    "h": 0.89818,
    "l": 0.89691,
    "c": 0.897,
    "v": 2112
  },
  {
    "dt": "2020.08.20 22:00",
    "o": 0.89702,
    "h": 0.89744,
    "l": 0.89694,
    "c": 0.89704,
    "v": 2165
  },
  {
    "dt": "2020.08.20 23:00",
    "o": 0.89704,
    "h": 0.89753,
    "l": 0.89691,
    "c": 0.89744,
    "v": 914
  },
  {
    "dt": "2020.08.21 00:00",
    "o": 0.89708,
    "h": 0.89762,
    "l": 0.89691,
    "c": 0.89729,
    "v": 202
  },
  {
    "dt": "2020.08.21 01:00",
    "o": 0.89729,
    "h": 0.89759,
    "l": 0.89713,
    "c": 0.89745,
    "v": 1108
  },
  {
    "dt": "2020.08.21 02:00",
    "o": 0.89744,
    "h": 0.89787,
    "l": 0.89733,
    "c": 0.89787,
    "v": 584
  },
  {
    "dt": "2020.08.21 03:00",
    "o": 0.89785,
    "h": 0.89787,
    "l": 0.89715,
    "c": 0.89734,
    "v": 1473
  },
  {
    "dt": "2020.08.21 04:00",
    "o": 0.89736,
    "h": 0.89769,
    "l": 0.89703,
    "c": 0.89704,
    "v": 1673
  },
  {
    "dt": "2020.08.21 05:00",
    "o": 0.89703,
    "h": 0.89727,
    "l": 0.89687,
    "c": 0.89723,
    "v": 1112
  },
  {
    "dt": "2020.08.21 06:00",
    "o": 0.8972,
    "h": 0.89731,
    "l": 0.89698,
    "c": 0.8972,
    "v": 817
  },
  {
    "dt": "2020.08.21 07:00",
    "o": 0.8972,
    "h": 0.89743,
    "l": 0.89683,
    "c": 0.89687,
    "v": 1017
  },
  {
    "dt": "2020.08.21 08:00",
    "o": 0.89685,
    "h": 0.89715,
    "l": 0.89665,
    "c": 0.89708,
    "v": 1287
  },
  {
    "dt": "2020.08.21 09:00",
    "o": 0.89707,
    "h": 0.89719,
    "l": 0.89598,
    "c": 0.89645,
    "v": 2258
  },
  {
    "dt": "2020.08.21 10:00",
    "o": 0.89645,
    "h": 0.89659,
    "l": 0.89448,
    "c": 0.89502,
    "v": 3466
  },
  {
    "dt": "2020.08.21 11:00",
    "o": 0.89502,
    "h": 0.89541,
    "l": 0.89436,
    "c": 0.89485,
    "v": 3624
  },
  {
    "dt": "2020.08.21 12:00",
    "o": 0.89484,
    "h": 0.89784,
    "l": 0.89475,
    "c": 0.89706,
    "v": 3021
  },
  {
    "dt": "2020.08.21 13:00",
    "o": 0.89707,
    "h": 0.89791,
    "l": 0.89675,
    "c": 0.89703,
    "v": 3073
  },
  {
    "dt": "2020.08.21 14:00",
    "o": 0.89702,
    "h": 0.89832,
    "l": 0.89668,
    "c": 0.89827,
    "v": 2897
  },
  {
    "dt": "2020.08.21 15:00",
    "o": 0.89829,
    "h": 0.89906,
    "l": 0.89735,
    "c": 0.89901,
    "v": 3074
  },
  {
    "dt": "2020.08.21 16:00",
    "o": 0.899,
    "h": 0.90037,
    "l": 0.89801,
    "c": 0.8981,
    "v": 3839
  },
  {
    "dt": "2020.08.21 17:00",
    "o": 0.8981,
    "h": 0.90149,
    "l": 0.89783,
    "c": 0.90096,
    "v": 3649
  },
  {
    "dt": "2020.08.21 18:00",
    "o": 0.90096,
    "h": 0.90138,
    "l": 0.89877,
    "c": 0.89887,
    "v": 3108
  },
  {
    "dt": "2020.08.21 19:00",
    "o": 0.89891,
    "h": 0.90031,
    "l": 0.89825,
    "c": 0.90012,
    "v": 2287
  },
  {
    "dt": "2020.08.21 20:00",
    "o": 0.9001,
    "h": 0.90087,
    "l": 0.90005,
    "c": 0.90072,
    "v": 1708
  },
  {
    "dt": "2020.08.21 21:00",
    "o": 0.90071,
    "h": 0.90075,
    "l": 0.90017,
    "c": 0.90028,
    "v": 1255
  },
  {
    "dt": "2020.08.21 22:00",
    "o": 0.90026,
    "h": 0.90112,
    "l": 0.90001,
    "c": 0.90109,
    "v": 1686
  },
  {
    "dt": "2020.08.21 23:00",
    "o": 0.90108,
    "h": 0.90136,
    "l": 0.90065,
    "c": 0.90099,
    "v": 1100
  },
  {
    "dt": "2020.08.24 00:00",
    "o": 0.90038,
    "h": 0.90117,
    "l": 0.90035,
    "c": 0.901,
    "v": 116
  },
  {
    "dt": "2020.08.24 01:00",
    "o": 0.90097,
    "h": 0.9012,
    "l": 0.90062,
    "c": 0.90083,
    "v": 983
  },
  {
    "dt": "2020.08.24 02:00",
    "o": 0.90084,
    "h": 0.9011,
    "l": 0.90077,
    "c": 0.90103,
    "v": 533
  },
  {
    "dt": "2020.08.24 03:00",
    "o": 0.90104,
    "h": 0.90117,
    "l": 0.90077,
    "c": 0.90114,
    "v": 1034
  },
  {
    "dt": "2020.08.24 04:00",
    "o": 0.90114,
    "h": 0.90154,
    "l": 0.90113,
    "c": 0.90124,
    "v": 1185
  },
  {
    "dt": "2020.08.24 05:00",
    "o": 0.90122,
    "h": 0.90142,
    "l": 0.9009,
    "c": 0.90091,
    "v": 824
  },
  {
    "dt": "2020.08.24 06:00",
    "o": 0.9009,
    "h": 0.90105,
    "l": 0.90055,
    "c": 0.90082,
    "v": 866
  },
  {
    "dt": "2020.08.24 07:00",
    "o": 0.90083,
    "h": 0.90112,
    "l": 0.90065,
    "c": 0.9011,
    "v": 977
  },
  {
    "dt": "2020.08.24 08:00",
    "o": 0.9011,
    "h": 0.90112,
    "l": 0.9007,
    "c": 0.90078,
    "v": 1121
  },
  {
    "dt": "2020.08.24 09:00",
    "o": 0.90074,
    "h": 0.90093,
    "l": 0.9001,
    "c": 0.90064,
    "v": 1897
  },
  {
    "dt": "2020.08.24 10:00",
    "o": 0.90064,
    "h": 0.90223,
    "l": 0.90025,
    "c": 0.90155,
    "v": 2849
  },
  {
    "dt": "2020.08.24 11:00",
    "o": 0.90153,
    "h": 0.90314,
    "l": 0.90122,
    "c": 0.90214,
    "v": 2636
  },
  {
    "dt": "2020.08.24 12:00",
    "o": 0.90214,
    "h": 0.90286,
    "l": 0.9013,
    "c": 0.90152,
    "v": 2360
  },
  {
    "dt": "2020.08.24 13:00",
    "o": 0.9015,
    "h": 0.90204,
    "l": 0.90115,
    "c": 0.90202,
    "v": 1975
  },
  {
    "dt": "2020.08.24 14:00",
    "o": 0.90198,
    "h": 0.90234,
    "l": 0.9013,
    "c": 0.90131,
    "v": 2077
  },
  {
    "dt": "2020.08.24 15:00",
    "o": 0.90135,
    "h": 0.90275,
    "l": 0.90097,
    "c": 0.90248,
    "v": 2495
  },
  {
    "dt": "2020.08.24 16:00",
    "o": 0.90244,
    "h": 0.90369,
    "l": 0.90221,
    "c": 0.90361,
    "v": 2667
  },
  {
    "dt": "2020.08.24 17:00",
    "o": 0.90362,
    "h": 0.90435,
    "l": 0.9032,
    "c": 0.90372,
    "v": 3347
  },
  {
    "dt": "2020.08.24 18:00",
    "o": 0.90374,
    "h": 0.9038,
    "l": 0.90194,
    "c": 0.90239,
    "v": 2882
  },
  {
    "dt": "2020.08.24 19:00",
    "o": 0.90239,
    "h": 0.9032,
    "l": 0.90229,
    "c": 0.90277,
    "v": 2144
  },
  {
    "dt": "2020.08.24 20:00",
    "o": 0.90277,
    "h": 0.90337,
    "l": 0.90266,
    "c": 0.90311,
    "v": 1595
  },
  {
    "dt": "2020.08.24 21:00",
    "o": 0.90312,
    "h": 0.90325,
    "l": 0.90282,
    "c": 0.90297,
    "v": 1372
  },
  {
    "dt": "2020.08.24 22:00",
    "o": 0.90301,
    "h": 0.90305,
    "l": 0.90212,
    "c": 0.90219,
    "v": 1534
  },
  {
    "dt": "2020.08.24 23:00",
    "o": 0.90215,
    "h": 0.90261,
    "l": 0.902,
    "c": 0.90216,
    "v": 841
  },
  {
    "dt": "2020.08.25 00:00",
    "o": 0.90224,
    "h": 0.90232,
    "l": 0.90153,
    "c": 0.90206,
    "v": 435
  },
  {
    "dt": "2020.08.25 01:00",
    "o": 0.90211,
    "h": 0.90251,
    "l": 0.90205,
    "c": 0.90231,
    "v": 681
  },
  {
    "dt": "2020.08.25 02:00",
    "o": 0.90231,
    "h": 0.90234,
    "l": 0.902,
    "c": 0.9022,
    "v": 497
  },
  {
    "dt": "2020.08.25 03:00",
    "o": 0.90221,
    "h": 0.90248,
    "l": 0.90198,
    "c": 0.90203,
    "v": 1503
  },
  {
    "dt": "2020.08.25 04:00",
    "o": 0.902,
    "h": 0.90225,
    "l": 0.90122,
    "c": 0.90125,
    "v": 1393
  },
  {
    "dt": "2020.08.25 05:00",
    "o": 0.90127,
    "h": 0.90142,
    "l": 0.90064,
    "c": 0.90094,
    "v": 1140
  },
  {
    "dt": "2020.08.25 06:00",
    "o": 0.90095,
    "h": 0.90113,
    "l": 0.9007,
    "c": 0.9008,
    "v": 884
  },
  {
    "dt": "2020.08.25 07:00",
    "o": 0.90079,
    "h": 0.90124,
    "l": 0.90035,
    "c": 0.9012,
    "v": 1085
  },
  {
    "dt": "2020.08.25 08:00",
    "o": 0.90121,
    "h": 0.90166,
    "l": 0.90118,
    "c": 0.90149,
    "v": 1074
  },
  {
    "dt": "2020.08.25 09:00",
    "o": 0.9015,
    "h": 0.90227,
    "l": 0.90122,
    "c": 0.9016,
    "v": 2033
  },
  {
    "dt": "2020.08.25 10:00",
    "o": 0.90159,
    "h": 0.90316,
    "l": 0.9011,
    "c": 0.90257,
    "v": 2645
  },
  {
    "dt": "2020.08.25 11:00",
    "o": 0.90252,
    "h": 0.90367,
    "l": 0.90171,
    "c": 0.90198,
    "v": 2749
  },
  {
    "dt": "2020.08.25 12:00",
    "o": 0.90198,
    "h": 0.9032,
    "l": 0.90155,
    "c": 0.90199,
    "v": 2623
  },
  {
    "dt": "2020.08.25 13:00",
    "o": 0.90197,
    "h": 0.90211,
    "l": 0.9004,
    "c": 0.90094,
    "v": 2460
  },
  {
    "dt": "2020.08.25 14:00",
    "o": 0.90084,
    "h": 0.90085,
    "l": 0.89932,
    "c": 0.89937,
    "v": 2394
  },
  {
    "dt": "2020.08.25 15:00",
    "o": 0.8994,
    "h": 0.90016,
    "l": 0.89909,
    "c": 0.89953,
    "v": 2596
  },
  {
    "dt": "2020.08.25 16:00",
    "o": 0.89955,
    "h": 0.90087,
    "l": 0.89822,
    "c": 0.90048,
    "v": 3974
  },
  {
    "dt": "2020.08.25 17:00",
    "o": 0.90059,
    "h": 0.90132,
    "l": 0.89961,
    "c": 0.9012,
    "v": 3844
  },
  {
    "dt": "2020.08.25 18:00",
    "o": 0.90121,
    "h": 0.90134,
    "l": 0.8994,
    "c": 0.89955,
    "v": 3076
  },
  {
    "dt": "2020.08.25 19:00",
    "o": 0.89959,
    "h": 0.90006,
    "l": 0.8992,
    "c": 0.90002,
    "v": 2291
  },
  {
    "dt": "2020.08.25 20:00",
    "o": 0.90004,
    "h": 0.90037,
    "l": 0.8996,
    "c": 0.90002,
    "v": 1420
  },
  {
    "dt": "2020.08.25 21:00",
    "o": 0.90006,
    "h": 0.90009,
    "l": 0.89961,
    "c": 0.90003,
    "v": 1526
  },
  {
    "dt": "2020.08.25 22:00",
    "o": 0.90002,
    "h": 0.90027,
    "l": 0.89988,
    "c": 0.90004,
    "v": 1342
  },
  {
    "dt": "2020.08.25 23:00",
    "o": 0.90003,
    "h": 0.90025,
    "l": 0.89969,
    "c": 0.89969,
    "v": 860
  },
  {
    "dt": "2020.08.26 00:00",
    "o": 0.89924,
    "h": 0.90008,
    "l": 0.89923,
    "c": 0.89999,
    "v": 376
  },
  {
    "dt": "2020.08.26 01:00",
    "o": 0.89988,
    "h": 0.90002,
    "l": 0.89976,
    "c": 0.9,
    "v": 520
  },
  {
    "dt": "2020.08.26 02:00",
    "o": 0.90001,
    "h": 0.90001,
    "l": 0.89956,
    "c": 0.89985,
    "v": 491
  },
  {
    "dt": "2020.08.26 03:00",
    "o": 0.89987,
    "h": 0.90029,
    "l": 0.89969,
    "c": 0.89985,
    "v": 1150
  },
  {
    "dt": "2020.08.26 04:00",
    "o": 0.89985,
    "h": 0.90017,
    "l": 0.89972,
    "c": 0.90004,
    "v": 1183
  },
  {
    "dt": "2020.08.26 05:00",
    "o": 0.90004,
    "h": 0.90014,
    "l": 0.8995,
    "c": 0.8997,
    "v": 1192
  },
  {
    "dt": "2020.08.26 06:00",
    "o": 0.89969,
    "h": 0.8999,
    "l": 0.89951,
    "c": 0.89978,
    "v": 1160
  },
  {
    "dt": "2020.08.26 07:00",
    "o": 0.89975,
    "h": 0.89981,
    "l": 0.89899,
    "c": 0.89905,
    "v": 991
  },
  {
    "dt": "2020.08.26 08:00",
    "o": 0.89905,
    "h": 0.89971,
    "l": 0.89876,
    "c": 0.89956,
    "v": 1312
  },
  {
    "dt": "2020.08.26 09:00",
    "o": 0.89956,
    "h": 0.89978,
    "l": 0.8985,
    "c": 0.89865,
    "v": 1737
  },
  {
    "dt": "2020.08.26 10:00",
    "o": 0.8986,
    "h": 0.89885,
    "l": 0.89784,
    "c": 0.89811,
    "v": 2975
  },
  {
    "dt": "2020.08.26 11:00",
    "o": 0.89812,
    "h": 0.89862,
    "l": 0.89774,
    "c": 0.89787,
    "v": 2708
  },
  {
    "dt": "2020.08.26 12:00",
    "o": 0.8979,
    "h": 0.89889,
    "l": 0.89748,
    "c": 0.89878,
    "v": 2352
  },
  {
    "dt": "2020.08.26 13:00",
    "o": 0.89878,
    "h": 0.89884,
    "l": 0.89749,
    "c": 0.89806,
    "v": 1953
  },
  {
    "dt": "2020.08.26 14:00",
    "o": 0.89807,
    "h": 0.89864,
    "l": 0.89734,
    "c": 0.8974,
    "v": 2161
  },
  {
    "dt": "2020.08.26 15:00",
    "o": 0.89739,
    "h": 0.89765,
    "l": 0.8965,
    "c": 0.89752,
    "v": 3072
  },
  {
    "dt": "2020.08.26 16:00",
    "o": 0.89753,
    "h": 0.89762,
    "l": 0.89582,
    "c": 0.8959,
    "v": 3321
  },
  {
    "dt": "2020.08.26 17:00",
    "o": 0.89596,
    "h": 0.89621,
    "l": 0.89463,
    "c": 0.89568,
    "v": 3376
  },
  {
    "dt": "2020.08.26 18:00",
    "o": 0.8957,
    "h": 0.89651,
    "l": 0.8956,
    "c": 0.89583,
    "v": 2783
  },
  {
    "dt": "2020.08.26 19:00",
    "o": 0.89588,
    "h": 0.89597,
    "l": 0.89497,
    "c": 0.89537,
    "v": 2132
  },
  {
    "dt": "2020.08.26 20:00",
    "o": 0.89535,
    "h": 0.89584,
    "l": 0.89484,
    "c": 0.89578,
    "v": 1759
  },
  {
    "dt": "2020.08.26 21:00",
    "o": 0.89577,
    "h": 0.89593,
    "l": 0.8951,
    "c": 0.89558,
    "v": 1643
  },
  {
    "dt": "2020.08.26 22:00",
    "o": 0.89559,
    "h": 0.89577,
    "l": 0.89506,
    "c": 0.8953,
    "v": 1913
  },
  {
    "dt": "2020.08.26 23:00",
    "o": 0.89526,
    "h": 0.89569,
    "l": 0.89511,
    "c": 0.89539,
    "v": 1006
  },
  {
    "dt": "2020.08.27 00:00",
    "o": 0.89518,
    "h": 0.89562,
    "l": 0.89513,
    "c": 0.89531,
    "v": 117
  },
  {
    "dt": "2020.08.27 01:00",
    "o": 0.89533,
    "h": 0.89562,
    "l": 0.8952,
    "c": 0.89536,
    "v": 805
  },
  {
    "dt": "2020.08.27 02:00",
    "o": 0.89534,
    "h": 0.89583,
    "l": 0.89534,
    "c": 0.89563,
    "v": 668
  },
  {
    "dt": "2020.08.27 03:00",
    "o": 0.89563,
    "h": 0.89603,
    "l": 0.89561,
    "c": 0.8959,
    "v": 1033
  },
  {
    "dt": "2020.08.27 04:00",
    "o": 0.8959,
    "h": 0.89613,
    "l": 0.89555,
    "c": 0.89571,
    "v": 1427
  },
  {
    "dt": "2020.08.27 05:00",
    "o": 0.89572,
    "h": 0.89632,
    "l": 0.8955,
    "c": 0.89603,
    "v": 1241
  },
  {
    "dt": "2020.08.27 06:00",
    "o": 0.89579,
    "h": 0.89585,
    "l": 0.89552,
    "c": 0.89578,
    "v": 709
  },
  {
    "dt": "2020.08.27 07:00",
    "o": 0.89577,
    "h": 0.8959,
    "l": 0.89557,
    "c": 0.89565,
    "v": 834
  },
  {
    "dt": "2020.08.27 08:00",
    "o": 0.89566,
    "h": 0.8958,
    "l": 0.89533,
    "c": 0.89579,
    "v": 985
  },
  {
    "dt": "2020.08.27 09:00",
    "o": 0.89582,
    "h": 0.8964,
    "l": 0.89548,
    "c": 0.89566,
    "v": 1702
  },
  {
    "dt": "2020.08.27 10:00",
    "o": 0.89567,
    "h": 0.89585,
    "l": 0.89432,
    "c": 0.8952,
    "v": 2583
  },
  {
    "dt": "2020.08.27 11:00",
    "o": 0.89523,
    "h": 0.8958,
    "l": 0.89451,
    "c": 0.89553,
    "v": 2382
  },
  {
    "dt": "2020.08.27 12:00",
    "o": 0.89553,
    "h": 0.89614,
    "l": 0.89496,
    "c": 0.8953,
    "v": 1976
  },
  {
    "dt": "2020.08.27 13:00",
    "o": 0.8953,
    "h": 0.89589,
    "l": 0.8946,
    "c": 0.89544,
    "v": 2048
  },
  {
    "dt": "2020.08.27 14:00",
    "o": 0.89544,
    "h": 0.89613,
    "l": 0.89453,
    "c": 0.89495,
    "v": 2442
  },
  {
    "dt": "2020.08.27 15:00",
    "o": 0.89497,
    "h": 0.89586,
    "l": 0.8946,
    "c": 0.89523,
    "v": 2754
  },
  {
    "dt": "2020.08.27 16:00",
    "o": 0.89528,
    "h": 0.89613,
    "l": 0.89365,
    "c": 0.89398,
    "v": 4310
  },
  {
    "dt": "2020.08.27 17:00",
    "o": 0.89397,
    "h": 0.89471,
    "l": 0.89289,
    "c": 0.89381,
    "v": 3946
  },
  {
    "dt": "2020.08.27 18:00",
    "o": 0.89377,
    "h": 0.89431,
    "l": 0.8934,
    "c": 0.89371,
    "v": 3252
  },
  {
    "dt": "2020.08.27 19:00",
    "o": 0.8937,
    "h": 0.89539,
    "l": 0.89368,
    "c": 0.89483,
    "v": 3185
  },
  {
    "dt": "2020.08.27 20:00",
    "o": 0.89484,
    "h": 0.8958,
    "l": 0.89462,
    "c": 0.89508,
    "v": 2369
  },
  {
    "dt": "2020.08.27 21:00",
    "o": 0.89506,
    "h": 0.89539,
    "l": 0.89473,
    "c": 0.89531,
    "v": 2286
  },
  {
    "dt": "2020.08.27 22:00",
    "o": 0.8953,
    "h": 0.89563,
    "l": 0.89505,
    "c": 0.89555,
    "v": 2101
  },
  {
    "dt": "2020.08.27 23:00",
    "o": 0.89556,
    "h": 0.89565,
    "l": 0.89515,
    "c": 0.89541,
    "v": 869
  },
  {
    "dt": "2020.08.28 00:00",
    "o": 0.8944,
    "h": 0.89532,
    "l": 0.89433,
    "c": 0.89485,
    "v": 485
  },
  {
    "dt": "2020.08.28 01:00",
    "o": 0.89481,
    "h": 0.89554,
    "l": 0.89476,
    "c": 0.89546,
    "v": 517
  },
  {
    "dt": "2020.08.28 02:00",
    "o": 0.89546,
    "h": 0.89563,
    "l": 0.89519,
    "c": 0.89545,
    "v": 599
  },
  {
    "dt": "2020.08.28 03:00",
    "o": 0.89545,
    "h": 0.89568,
    "l": 0.89528,
    "c": 0.8953,
    "v": 1367
  },
  {
    "dt": "2020.08.28 04:00",
    "o": 0.89531,
    "h": 0.89572,
    "l": 0.8949,
    "c": 0.89499,
    "v": 1113
  },
  {
    "dt": "2020.08.28 05:00",
    "o": 0.895,
    "h": 0.89524,
    "l": 0.89438,
    "c": 0.89438,
    "v": 1411
  },
  {
    "dt": "2020.08.28 06:00",
    "o": 0.89437,
    "h": 0.89513,
    "l": 0.8943,
    "c": 0.89513,
    "v": 1518
  },
  {
    "dt": "2020.08.28 07:00",
    "o": 0.89512,
    "h": 0.89554,
    "l": 0.89481,
    "c": 0.8954,
    "v": 1237
  },
  {
    "dt": "2020.08.28 08:00",
    "o": 0.89555,
    "h": 0.89574,
    "l": 0.89451,
    "c": 0.89521,
    "v": 2482
  },
  {
    "dt": "2020.08.28 09:00",
    "o": 0.89521,
    "h": 0.89527,
    "l": 0.89434,
    "c": 0.89492,
    "v": 2589
  },
  {
    "dt": "2020.08.28 10:00",
    "o": 0.89495,
    "h": 0.89618,
    "l": 0.89447,
    "c": 0.89612,
    "v": 3081
  },
  {
    "dt": "2020.08.28 11:00",
    "o": 0.89612,
    "h": 0.89737,
    "l": 0.8961,
    "c": 0.8966,
    "v": 2881
  },
  {
    "dt": "2020.08.28 12:00",
    "o": 0.89661,
    "h": 0.89677,
    "l": 0.89558,
    "c": 0.89572,
    "v": 2590
  },
  {
    "dt": "2020.08.28 13:00",
    "o": 0.89571,
    "h": 0.89595,
    "l": 0.89477,
    "c": 0.89479,
    "v": 2423
  },
  {
    "dt": "2020.08.28 14:00",
    "o": 0.89483,
    "h": 0.89537,
    "l": 0.89445,
    "c": 0.89482,
    "v": 2584
  },
  {
    "dt": "2020.08.28 15:00",
    "o": 0.89484,
    "h": 0.89553,
    "l": 0.89438,
    "c": 0.8955,
    "v": 2685
  },
  {
    "dt": "2020.08.28 16:00",
    "o": 0.89551,
    "h": 0.89559,
    "l": 0.89362,
    "c": 0.89383,
    "v": 3313
  },
  {
    "dt": "2020.08.28 17:00",
    "o": 0.8938,
    "h": 0.89456,
    "l": 0.89224,
    "c": 0.89244,
    "v": 3712
  },
  {
    "dt": "2020.08.28 18:00",
    "o": 0.89249,
    "h": 0.89259,
    "l": 0.8911,
    "c": 0.89199,
    "v": 2684
  },
  {
    "dt": "2020.08.28 19:00",
    "o": 0.89196,
    "h": 0.89227,
    "l": 0.89158,
    "c": 0.89196,
    "v": 1872
  },
  {
    "dt": "2020.08.28 20:00",
    "o": 0.89199,
    "h": 0.89215,
    "l": 0.89159,
    "c": 0.89178,
    "v": 1833
  },
  {
    "dt": "2020.08.28 21:00",
    "o": 0.89173,
    "h": 0.89182,
    "l": 0.8911,
    "c": 0.8911,
    "v": 1584
  },
  {
    "dt": "2020.08.28 22:00",
    "o": 0.8911,
    "h": 0.89135,
    "l": 0.89081,
    "c": 0.89118,
    "v": 1526
  },
  {
    "dt": "2020.08.28 23:00",
    "o": 0.89115,
    "h": 0.89173,
    "l": 0.89112,
    "c": 0.89145,
    "v": 932
  },
  {
    "dt": "2020.08.31 00:00",
    "o": 0.89143,
    "h": 0.89208,
    "l": 0.89143,
    "c": 0.89155,
    "v": 186
  },
  {
    "dt": "2020.08.31 01:00",
    "o": 0.89155,
    "h": 0.89225,
    "l": 0.89155,
    "c": 0.89222,
    "v": 1268
  },
  {
    "dt": "2020.08.31 02:00",
    "o": 0.89222,
    "h": 0.89235,
    "l": 0.89181,
    "c": 0.89224,
    "v": 887
  },
  {
    "dt": "2020.08.31 03:00",
    "o": 0.89223,
    "h": 0.89254,
    "l": 0.89193,
    "c": 0.89216,
    "v": 1681
  },
  {
    "dt": "2020.08.31 04:00",
    "o": 0.89218,
    "h": 0.89248,
    "l": 0.89205,
    "c": 0.89211,
    "v": 1541
  },
  {
    "dt": "2020.08.31 05:00",
    "o": 0.89215,
    "h": 0.8924,
    "l": 0.89205,
    "c": 0.89217,
    "v": 1279
  },
  {
    "dt": "2020.08.31 06:00",
    "o": 0.89218,
    "h": 0.89229,
    "l": 0.89164,
    "c": 0.89174,
    "v": 1128
  },
  {
    "dt": "2020.08.31 07:00",
    "o": 0.89177,
    "h": 0.89224,
    "l": 0.89172,
    "c": 0.8922,
    "v": 1031
  },
  {
    "dt": "2020.08.31 08:00",
    "o": 0.8922,
    "h": 0.89235,
    "l": 0.89182,
    "c": 0.89209,
    "v": 1205
  },
  {
    "dt": "2020.08.31 09:00",
    "o": 0.8921,
    "h": 0.89311,
    "l": 0.89198,
    "c": 0.89274,
    "v": 1887
  },
  {
    "dt": "2020.08.31 10:00",
    "o": 0.89281,
    "h": 0.89362,
    "l": 0.89243,
    "c": 0.89329,
    "v": 2326
  },
  {
    "dt": "2020.08.31 11:00",
    "o": 0.89326,
    "h": 0.89435,
    "l": 0.89315,
    "c": 0.89428,
    "v": 2396
  },
  {
    "dt": "2020.08.31 12:00",
    "o": 0.89428,
    "h": 0.89538,
    "l": 0.89388,
    "c": 0.89499,
    "v": 2237
  },
  {
    "dt": "2020.08.31 13:00",
    "o": 0.89496,
    "h": 0.89544,
    "l": 0.89444,
    "c": 0.89513,
    "v": 1821
  },
  {
    "dt": "2020.08.31 14:00",
    "o": 0.89512,
    "h": 0.89555,
    "l": 0.89464,
    "c": 0.89548,
    "v": 2328
  },
  {
    "dt": "2020.08.31 15:00",
    "o": 0.89544,
    "h": 0.8966,
    "l": 0.89534,
    "c": 0.89569,
    "v": 2133
  },
  {
    "dt": "2020.08.31 16:00",
    "o": 0.89569,
    "h": 0.89607,
    "l": 0.8952,
    "c": 0.89528,
    "v": 2807
  },
  {
    "dt": "2020.08.31 17:00",
    "o": 0.89529,
    "h": 0.8954,
    "l": 0.89285,
    "c": 0.89319,
    "v": 3474
  },
  {
    "dt": "2020.08.31 18:00",
    "o": 0.89323,
    "h": 0.89418,
    "l": 0.89289,
    "c": 0.8934,
    "v": 2975
  },
  {
    "dt": "2020.08.31 19:00",
    "o": 0.89339,
    "h": 0.89347,
    "l": 0.89266,
    "c": 0.89278,
    "v": 2224
  },
  {
    "dt": "2020.08.31 20:00",
    "o": 0.89278,
    "h": 0.89315,
    "l": 0.89269,
    "c": 0.89286,
    "v": 1450
  },
  {
    "dt": "2020.08.31 21:00",
    "o": 0.89283,
    "h": 0.89302,
    "l": 0.89212,
    "c": 0.89214,
    "v": 1639
  },
  {
    "dt": "2020.08.31 22:00",
    "o": 0.89216,
    "h": 0.8928,
    "l": 0.89215,
    "c": 0.8928,
    "v": 2111
  },
  {
    "dt": "2020.08.31 23:00",
    "o": 0.89279,
    "h": 0.89299,
    "l": 0.89239,
    "c": 0.89285,
    "v": 1227
  }
]