[
  {
    "dt": "2020.10.01 00:00",
    "o": 0.90656,
    "h": 0.90724,
    "l": 0.90656,
    "c": 0.90703,
    "v": 163
  },
  {
    "dt": "2020.10.01 01:00",
    "o": 0.90705,
    "h": 0.90749,
    "l": 0.90705,
    "c": 0.90742,
    "v": 644
  },
  {
    "dt": "2020.10.01 02:00",
    "o": 0.90739,
    "h": 0.90775,
    "l": 0.90725,
    "c": 0.90753,
    "v": 562
  },
  {
    "dt": "2020.10.01 03:00",
    "o": 0.90754,
    "h": 0.90782,
    "l": 0.90695,
    "c": 0.90723,
    "v": 861
  },
  {
    "dt": "2020.10.01 04:00",
    "o": 0.90722,
    "h": 0.90786,
    "l": 0.90671,
    "c": 0.90708,
    "v": 1337
  },
  {
    "dt": "2020.10.01 05:00",
    "o": 0.90709,
    "h": 0.90749,
    "l": 0.9068,
    "c": 0.90746,
    "v": 943
  },
  {
    "dt": "2020.10.01 06:00",
    "o": 0.90749,
    "h": 0.90778,
    "l": 0.90745,
    "c": 0.90774,
    "v": 775
  },
  {
    "dt": "2020.10.01 07:00",
    "o": 0.90773,
    "h": 0.90788,
    "l": 0.9074,
    "c": 0.90785,
    "v": 786
  },
  {
    "dt": "2020.10.01 08:00",
    "o": 0.90785,
    "h": 0.90798,
    "l": 0.90747,
    "c": 0.90755,
    "v": 953
  },
  {
    "dt": "2020.10.01 09:00",
    "o": 0.90758,
    "h": 0.90811,
    "l": 0.90722,
    "c": 0.90806,
    "v": 1807
  },
  {
    "dt": "2020.10.01 10:00",
    "o": 0.90805,
    "h": 0.91081,
    "l": 0.90685,
    "c": 0.91039,
    "v": 3570
  },
  {
    "dt": "2020.10.01 11:00",
    "o": 0.9104,
    "h": 0.91478,
    "l": 0.91026,
    "c": 0.91408,
    "v": 3742
  },
  {
    "dt": "2020.10.01 12:00",
    "o": 0.91408,
    "h": 0.91464,
    "l": 0.91243,
    "c": 0.91413,
    "v": 3204
  },
  {
    "dt": "2020.10.01 13:00",
    "o": 0.91412,
    "h": 0.91544,
    "l": 0.9139,
    "c": 0.91481,
    "v": 2389
  },
  {
    "dt": "2020.10.01 14:00",
    "o": 0.91488,
    "h": 0.91545,
    "l": 0.90638,
    "c": 0.90718,
    "v": 4280
  },
  {
    "dt": "2020.10.01 15:00",
    "o": 0.90718,
    "h": 0.90766,
    "l": 0.90615,
    "c": 0.90759,
    "v": 3143
  },
  {
    "dt": "2020.10.01 16:00",
    "o": 0.9076,
    "h": 0.91206,
    "l": 0.90703,
    "c": 0.91189,
    "v": 4171
  },
  {
    "dt": "2020.10.01 17:00",
    "o": 0.91186,
    "h": 0.91256,
    "l": 0.91006,
    "c": 0.91188,
    "v": 4097
  },
  {
    "dt": "2020.10.01 18:00",
    "o": 0.91184,
    "h": 0.91261,
    "l": 0.91058,
    "c": 0.91085,
    "v": 3333
  },
  {
    "dt": "2020.10.01 19:00",
    "o": 0.91085,
    "h": 0.91165,
    "l": 0.91046,
    "c": 0.9108,
    "v": 2784
  },
  {
    "dt": "2020.10.01 20:00",
    "o": 0.91077,
    "h": 0.9119,
    "l": 0.91047,
    "c": 0.91175,
    "v": 2024
  },
  {
    "dt": "2020.10.01 21:00",
    "o": 0.91176,
    "h": 0.91178,
    "l": 0.91075,
    "c": 0.91101,
    "v": 2699
  },
  {
    "dt": "2020.10.01 22:00",
    "o": 0.911,
    "h": 0.91162,
    "l": 0.91087,
    "c": 0.9116,
    "v": 2190
  },
  {
    "dt": "2020.10.01 23:00",
    "o": 0.91156,
    "h": 0.91156,
    "l": 0.9111,
    "c": 0.91131,
    "v": 975
  },
  {
    "dt": "2020.10.02 00:00",
    "o": 0.91031,
    "h": 0.91164,
    "l": 0.91031,
    "c": 0.91151,
    "v": 270
  },
  {
    "dt": "2020.10.02 01:00",
    "o": 0.91151,
    "h": 0.91161,
    "l": 0.91115,
    "c": 0.91119,
    "v": 639
  },
  {
    "dt": "2020.10.02 02:00",
    "o": 0.91119,
    "h": 0.9114,
    "l": 0.91116,
    "c": 0.9113,
    "v": 496
  },
  {
    "dt": "2020.10.02 03:00",
    "o": 0.91128,
    "h": 0.91147,
    "l": 0.91103,
    "c": 0.91126,
    "v": 1196
  },
  {
    "dt": "2020.10.02 04:00",
    "o": 0.91123,
    "h": 0.91126,
    "l": 0.91095,
    "c": 0.91117,
    "v": 914
  },
  {
    "dt": "2020.10.02 05:00",
    "o": 0.91115,
    "h": 0.91149,
    "l": 0.91102,
    "c": 0.91115,
    "v": 960
  },
  {
    "dt": "2020.10.02 06:00",
    "o": 0.91117,
    "h": 0.91126,
    "l": 0.91075,
    "c": 0.91075,
    "v": 799
  },
  {
    "dt": "2020.10.02 07:00",
    "o": 0.9107,
    "h": 0.91158,
    "l": 0.91055,
    "c": 0.91132,
    "v": 955
  },
  {
    "dt": "2020.10.02 08:00",
    "o": 0.91131,
    "h": 0.91143,
    "l": 0.91045,
    "c": 0.91076,
    "v": 2976
  },
  {
    "dt": "2020.10.02 09:00",
    "o": 0.91079,
    "h": 0.91181,
    "l": 0.9104,
    "c": 0.91134,
    "v": 2601
  },
  {
    "dt": "2020.10.02 10:00",
    "o": 0.91129,
    "h": 0.91231,
    "l": 0.90643,
    "c": 0.90757,
    "v": 4025
  },
  {
    "dt": "2020.10.02 11:00",
    "o": 0.90754,
    "h": 0.90855,
    "l": 0.90459,
    "c": 0.90479,
    "v": 3472
  },
  {
    "dt": "2020.10.02 12:00",
    "o": 0.90468,
    "h": 0.9074,
    "l": 0.90435,
    "c": 0.90727,
    "v": 2851
  },
  {
    "dt": "2020.10.02 13:00",
    "o": 0.90724,
    "h": 0.90791,
    "l": 0.9064,
    "c": 0.90669,
    "v": 2426
  },
  {
    "dt": "2020.10.02 14:00",
    "o": 0.9067,
    "h": 0.90758,
    "l": 0.90507,
    "c": 0.90593,
    "v": 2939
  },
  {
    "dt": "2020.10.02 15:00",
    "o": 0.90591,
    "h": 0.9067,
    "l": 0.90463,
    "c": 0.90552,
    "v": 3415
  },
  {
    "dt": "2020.10.02 16:00",
    "o": 0.90549,
    "h": 0.90746,
    "l": 0.90462,
    "c": 0.90584,
    "v": 3973
  },
  {
    "dt": "2020.10.02 17:00",
    "o": 0.90584,
    "h": 0.90676,
    "l": 0.90513,
    "c": 0.90578,
    "v": 3733
  },
  {
    "dt": "2020.10.02 18:00",
    "o": 0.90576,
    "h": 0.90662,
    "l": 0.90497,
    "c": 0.9054,
    "v": 3287
  },
  {
    "dt": "2020.10.02 19:00",
    "o": 0.9054,
    "h": 0.90609,
    "l": 0.90474,
    "c": 0.90609,
    "v": 2901
  },
  {
    "dt": "2020.10.02 20:00",
    "o": 0.90607,
    "h": 0.90651,
    "l": 0.90543,
    "c": 0.90556,
    "v": 2180
  },
  {
    "dt": "2020.10.02 21:00",
    "o": 0.90555,
    "h": 0.90593,
    "l": 0.90536,
    "c": 0.90548,
    "v": 2194
  },
  {
    "dt": "2020.10.02 22:00",
    "o": 0.9055,
    "h": 0.90592,
    "l": 0.90515,
    "c": 0.9054,
    "v": 2195
  },
  {
    "dt": "2020.10.02 23:00",
    "o": 0.90542,
    "h": 0.90572,
    "l": 0.90502,
    "c": 0.90561,
    "v": 1257
  },
  {
    "dt": "2020.10.05 00:00",
    "o": 0.9052,
    "h": 0.90616,
    "l": 0.90504,
    "c": 0.9059,
    "v": 207
  },
  {
    "dt": "2020.10.05 01:00",
    "o": 0.90602,
    "h": 0.90679,
    "l": 0.90578,
    "c": 0.90582,
    "v": 967
  },
  {
    "dt": "2020.10.05 02:00",
    "o": 0.90578,
    "h": 0.90643,
    "l": 0.90578,
    "c": 0.90636,
    "v": 974
  },
  {
    "dt": "2020.10.05 03:00",
    "o": 0.90635,
    "h": 0.90648,
    "l": 0.90528,
    "c": 0.90579,
    "v": 1471
  },
  {
    "dt": "2020.10.05 04:00",
    "o": 0.9058,
    "h": 0.90648,
    "l": 0.90573,
    "c": 0.90626,
    "v": 1264
  },
  {
    "dt": "2020.10.05 05:00",
    "o": 0.90626,
    "h": 0.90633,
    "l": 0.906,
    "c": 0.90613,
    "v": 866
  },
  {
    "dt": "2020.10.05 06:00",
    "o": 0.90612,
    "h": 0.9064,
    "l": 0.90594,
    "c": 0.90636,
    "v": 732
  },
  {
    "dt": "2020.10.05 07:00",
    "o": 0.90637,
    "h": 0.90672,
    "l": 0.90622,
    "c": 0.90669,
    "v": 770
  },
  {
    "dt": "2020.10.05 08:00",
    "o": 0.9067,
    "h": 0.90713,
    "l": 0.90658,
    "c": 0.90709,
    "v": 575
  },
  {
    "dt": "2020.10.05 09:00",
    "o": 0.9071,
    "h": 0.90783,
    "l": 0.90658,
    "c": 0.90766,
    "v": 1711
  },
  {
    "dt": "2020.10.05 10:00",
    "o": 0.90768,
    "h": 0.90879,
    "l": 0.90673,
    "c": 0.90715,
    "v": 2737
  },
  {
    "dt": "2020.10.05 11:00",
    "o": 0.90717,
    "h": 0.90749,
    "l": 0.9058,
    "c": 0.90703,
    "v": 2723
  },
  {
    "dt": "2020.10.05 12:00",
    "o": 0.90701,
    "h": 0.9079,
    "l": 0.90629,
    "c": 0.90762,
    "v": 2415
  },
  {
    "dt": "2020.10.05 13:00",
    "o": 0.90762,
    "h": 0.90827,
    "l": 0.90697,
    "c": 0.9077,
    "v": 2300
  },
  {
    "dt": "2020.10.05 14:00",
    "o": 0.90768,
    "h": 0.90878,
    "l": 0.90724,
    "c": 0.90823,
    "v": 2267
  },
  {
    "dt": "2020.10.05 15:00",
    "o": 0.9082,
    "h": 0.90851,
    "l": 0.90666,
    "c": 0.90724,
    "v": 2473
  },
  {
    "dt": "2020.10.05 16:00",
    "o": 0.90721,
    "h": 0.90875,
    "l": 0.9064,
    "c": 0.90844,
    "v": 2987
  },
  {
    "dt": "2020.10.05 17:00",
    "o": 0.90844,
    "h": 0.90889,
    "l": 0.90782,
    "c": 0.90864,
    "v": 3082
  },
  {
    "dt": "2020.10.05 18:00",
    "o": 0.90863,
    "h": 0.90896,
    "l": 0.90807,
    "c": 0.90855,
    "v": 2376
  },
  {
    "dt": "2020.10.05 19:00",
    "o": 0.90855,
    "h": 0.90891,
    "l": 0.90789,
    "c": 0.90802,
    "v": 1743
  },
  {
    "dt": "2020.10.05 20:00",
    "o": 0.90803,
    "h": 0.90817,
    "l": 0.90695,
    "c": 0.90766,
    "v": 1691
  },
  {
    "dt": "2020.10.05 21:00",
    "o": 0.90766,
    "h": 0.90774,
    "l": 0.90711,
    "c": 0.90766,
    "v": 1508
  },
  {
    "dt": "2020.10.05 22:00",
    "o": 0.90766,
    "h": 0.90786,
    "l": 0.90693,
    "c": 0.90755,
    "v": 1221
  },
  {
    "dt": "2020.10.05 23:00",
    "o": 0.90753,
    "h": 0.90793,
    "l": 0.90745,
    "c": 0.90751,
    "v": 904
  },
  {
    "dt": "2020.10.06 00:00",
    "o": 0.90731,
    "h": 0.90784,
    "l": 0.90717,
    "c": 0.90745,
    "v": 309
  },
  {
    "dt": "2020.10.06 01:00",
    "o": 0.90742,
    "h": 0.90779,
    "l": 0.90708,
    "c": 0.90736,
    "v": 698
  },
  {
    "dt": "2020.10.06 02:00",
    "o": 0.90737,
    "h": 0.90754,
    "l": 0.9073,
    "c": 0.9073,
    "v": 572
  },
  {
    "dt": "2020.10.06 03:00",
    "o": 0.90728,
    "h": 0.90754,
    "l": 0.90719,
    "c": 0.90744,
    "v": 1056
  },
  {
    "dt": "2020.10.06 04:00",
    "o": 0.90744,
    "h": 0.90789,
    "l": 0.90727,
    "c": 0.90785,
    "v": 1060
  },
  {
    "dt": "2020.10.06 05:00",
    "o": 0.90784,
    "h": 0.90793,
    "l": 0.90759,
    "c": 0.90785,
    "v": 663
  },
  {
    "dt": "2020.10.06 06:00",
    "o": 0.90783,
    "h": 0.90789,
    "l": 0.90732,
    "c": 0.90779,
    "v": 1018
  },
  {
    "dt": "2020.10.06 07:00",
    "o": 0.9078,
    "h": 0.90781,
    "l": 0.90744,
    "c": 0.90746,
    "v": 673
  },
  {
    "dt": "2020.10.06 08:00",
    "o": 0.90747,
    "h": 0.9079,
    "l": 0.90747,
    "c": 0.90761,
    "v": 790
  },
  {
    "dt": "2020.10.06 09:00",
    "o": 0.90761,
    "h": 0.9077,
    "l": 0.9069,
    "c": 0.90716,
    "v": 1509
  },
  {
    "dt": "2020.10.06 10:00",
    "o": 0.90711,
    "h": 0.90828,
    "l": 0.90618,
    "c": 0.90723,
    "v": 3400
  },
  {
    "dt": "2020.10.06 11:00",
    "o": 0.90726,
    "h": 0.90828,
    "l": 0.906,
    "c": 0.90648,
    "v": 3116
  },
  {
    "dt": "2020.10.06 12:00",
    "o": 0.90647,
    "h": 0.90816,
    "l": 0.90615,
    "c": 0.90812,
    "v": 2326
  },
  {
    "dt": "2020.10.06 13:00",
    "o": 0.90811,
    "h": 0.91185,
    "l": 0.90739,
    "c": 0.91064,
    "v": 2705
  },
  {
    "dt": "2020.10.06 14:00",
    "o": 0.91069,
    "h": 0.91157,
    "l": 0.90957,
    "c": 0.91064,
    "v": 2887
  },
  {
    "dt": "2020.10.06 15:00",
    "o": 0.91065,
    "h": 0.91188,
    "l": 0.91018,
    "c": 0.91173,
    "v": 2967
  },
  {
    "dt": "2020.10.06 16:00",
    "o": 0.91174,
    "h": 0.91252,
    "l": 0.90856,
    "c": 0.9091,
    "v": 3615
  },
  {
    "dt": "2020.10.06 17:00",
    "o": 0.90913,
    "h": 0.90965,
    "l": 0.9081,
    "c": 0.9089,
    "v": 3206
  },
  {
    "dt": "2020.10.06 18:00",
    "o": 0.90892,
    "h": 0.90987,
    "l": 0.9086,
    "c": 0.90981,
    "v": 2734
  },
  {
    "dt": "2020.10.06 19:00",
    "o": 0.90981,
    "h": 0.91027,
    "l": 0.90921,
    "c": 0.90928,
    "v": 2054
  },
  {
    "dt": "2020.10.06 20:00",
    "o": 0.90927,
    "h": 0.91047,
    "l": 0.90925,
    "c": 0.91015,
    "v": 1790
  },
  {
    "dt": "2020.10.06 21:00",
    "o": 0.91015,
    "h": 0.911,
    "l": 0.91,
    "c": 0.91094,
    "v": 2372
  },
  {
    "dt": "2020.10.06 22:00",
    "o": 0.91095,
    "h": 0.91196,
    "l": 0.90914,
    "c": 0.91027,
    "v": 4304
  },
  {
    "dt": "2020.10.06 23:00",
    "o": 0.91021,
    "h": 0.91177,
    "l": 0.91018,
    "c": 0.91111,
    "v": 1561
  },
  {
    "dt": "2020.10.07 00:00",
    "o": 0.9113,
    "h": 0.91156,
    "l": 0.90945,
    "c": 0.91096,
    "v": 753
  },
  {
    "dt": "2020.10.07 01:00",
    "o": 0.91102,
    "h": 0.91125,
    "l": 0.9108,
    "c": 0.91108,
    "v": 1418
  },
  {
    "dt": "2020.10.07 02:00",
    "o": 0.91116,
    "h": 0.91118,
    "l": 0.91077,
    "c": 0.91091,
    "v": 917
  },
  {
    "dt": "2020.10.07 03:00",
    "o": 0.91091,
    "h": 0.91124,
    "l": 0.91066,
    "c": 0.91094,
    "v": 1126
  },
  {
    "dt": "2020.10.07 04:00",
    "o": 0.91095,
    "h": 0.91109,
    "l": 0.91026,
    "c": 0.91045,
    "v": 1238
  },
  {
    "dt": "2020.10.07 05:00",
    "o": 0.91045,
    "h": 0.9107,
    "l": 0.91031,
    "c": 0.91037,
    "v": 946
  },
  {
    "dt": "2020.10.07 06:00",
    "o": 0.91039,
    "h": 0.91047,
    "l": 0.9102,
    "c": 0.91029,
    "v": 609
  },
  {
    "dt": "2020.10.07 07:00",
    "o": 0.91028,
    "h": 0.91062,
    "l": 0.91024,
    "c": 0.91037,
    "v": 554
  },
  {
    "dt": "2020.10.07 08:00",
    "o": 0.91036,
    "h": 0.91048,
    "l": 0.90955,
    "c": 0.90998,
    "v": 1119
  },
  {
    "dt": "2020.10.07 09:00",
    "o": 0.91001,
    "h": 0.911,
    "l": 0.9098,
    "c": 0.91069,
    "v": 2071
  },
  {
    "dt": "2020.10.07 10:00",
    "o": 0.9107,
    "h": 0.9109,
    "l": 0.90943,
    "c": 0.91013,
    "v": 3336
  },
  {
    "dt": "2020.10.07 11:00",
    "o": 0.91012,
    "h": 0.91112,
    "l": 0.90951,
    "c": 0.91109,
    "v": 2560
  },
  {
    "dt": "2020.10.07 12:00",
    "o": 0.91104,
    "h": 0.9129,
    "l": 0.91101,
    "c": 0.91261,
    "v": 2528
  },
  {
    "dt": "2020.10.07 13:00",
    "o": 0.9126,
    "h": 0.9142,
    "l": 0.91231,
    "c": 0.91397,
    "v": 2784
  },
  {
    "dt": "2020.10.07 14:00",
    "o": 0.91397,
    "h": 0.91523,
    "l": 0.91344,
    "c": 0.91423,
    "v": 2870
  },
  {
    "dt": "2020.10.07 15:00",
    "o": 0.91424,
    "h": 0.91457,
    "l": 0.91255,
    "c": 0.91313,
    "v": 2796
  },
  {
    "dt": "2020.10.07 16:00",
    "o": 0.91313,
    "h": 0.916,
    "l": 0.91274,
    "c": 0.91344,
    "v": 3386
  },
  {
    "dt": "2020.10.07 17:00",
    "o": 0.91343,
    "h": 0.91434,
    "l": 0.91153,
    "c": 0.91177,
    "v": 3120
  },
  {
    "dt": "2020.10.07 18:00",
    "o": 0.91176,
    "h": 0.91226,
    "l": 0.91001,
    "c": 0.91124,
    "v": 3096
  },
  {
    "dt": "2020.10.07 19:00",
    "o": 0.91123,
    "h": 0.91171,
    "l": 0.91077,
    "c": 0.91114,
    "v": 2163
  },
  {
    "dt": "2020.10.07 20:00",
    "o": 0.91114,
    "h": 0.91181,
    "l": 0.91063,
    "c": 0.91063,
    "v": 1580
  },
  {
    "dt": "2020.10.07 21:00",
    "o": 0.91063,
    "h": 0.91153,
    "l": 0.91063,
    "c": 0.91131,
    "v": 1910
  },
  {
    "dt": "2020.10.07 22:00",
    "o": 0.9113,
    "h": 0.91132,
    "l": 0.91069,
    "c": 0.91094,
    "v": 1840
  },
  {
    "dt": "2020.10.07 23:00",
    "o": 0.91094,
    "h": 0.91115,
    "l": 0.91029,
    "c": 0.91031,
    "v": 1061
  },
  {
    "dt": "2020.10.08 00:00",
    "o": 0.91052,
    "h": 0.91064,
    "l": 0.90987,
    "c": 0.91046,
    "v": 503
  },
  {
    "dt": "2020.10.08 01:00",
    "o": 0.91048,
    "h": 0.9109,
    "l": 0.91048,
    "c": 0.91081,
    "v": 598
  },
  {
    "dt": "2020.10.08 02:00",
    "o": 0.91082,
    "h": 0.91087,
    "l": 0.9106,
    "c": 0.91081,
    "v": 455
  },
  {
    "dt": "2020.10.08 03:00",
    "o": 0.9108,
    "h": 0.91081,
    "l": 0.91019,
    "c": 0.91051,
    "v": 829
  },
  {
    "dt": "2020.10.08 04:00",
    "o": 0.9105,
    "h": 0.91071,
    "l": 0.90995,
    "c": 0.91015,
    "v": 1135
  },
  {
    "dt": "2020.10.08 05:00",
    "o": 0.91016,
    "h": 0.91016,
    "l": 0.9099,
    "c": 0.9101,
    "v": 807
  },
  {
    "dt": "2020.10.08 06:00",
    "o": 0.9101,
    "h": 0.91036,
    "l": 0.90998,
    "c": 0.91022,
    "v": 670
  },
  {
    "dt": "2020.10.08 07:00",
    "o": 0.91022,
    "h": 0.91044,
    "l": 0.90994,
    "c": 0.90997,
    "v": 590
  },
  {
    "dt": "2020.10.08 08:00",
    "o": 0.90997,
    "h": 0.91029,
    "l": 0.90971,
    "c": 0.91008,
    "v": 679
  },
  {
    "dt": "2020.10.08 09:00",
    "o": 0.91008,
    "h": 0.91048,
    "l": 0.90919,
    "c": 0.90951,
    "v": 1704
  },
  {
    "dt": "2020.10.08 10:00",
    "o": 0.90943,
    "h": 0.90959,
    "l": 0.9082,
    "c": 0.90924,
    "v": 2770
  },
  {
    "dt": "2020.10.08 11:00",
    "o": 0.90922,
    "h": 0.90934,
    "l": 0.90692,
    "c": 0.90776,
    "v": 2692
  },
  {
    "dt": "2020.10.08 12:00",
    "o": 0.9078,
    "h": 0.90987,
    "l": 0.90762,
    "c": 0.90976,
    "v": 2319
  },
  {
    "dt": "2020.10.08 13:00",
    "o": 0.90977,
    "h": 0.91219,
    "l": 0.90961,
    "c": 0.9119,
    "v": 2237
  },
  {
    "dt": "2020.10.08 14:00",
    "o": 0.91189,
    "h": 0.91189,
    "l": 0.90989,
    "c": 0.91124,
    "v": 2420
  },
  {
    "dt": "2020.10.08 15:00",
    "o": 0.91127,
    "h": 0.91141,
    "l": 0.91019,
    "c": 0.91048,
    "v": 2665
  },
  {
    "dt": "2020.10.08 16:00",
    "o": 0.91051,
    "h": 0.9106,
    "l": 0.90767,
    "c": 0.90817,
    "v": 3188
  },
  {
    "dt": "2020.10.08 17:00",
    "o": 0.90816,
    "h": 0.90952,
    "l": 0.90804,
    "c": 0.90866,
    "v": 3155
  },
  {
    "dt": "2020.10.08 18:00",
    "o": 0.90867,
    "h": 0.90936,
    "l": 0.90763,
    "c": 0.90793,
    "v": 2470
  },
  {
    "dt": "2020.10.08 19:00",
    "o": 0.90794,
    "h": 0.9086,
    "l": 0.90776,
    "c": 0.90837,
    "v": 1960
  },
  {
    "dt": "2020.10.08 20:00",
    "o": 0.90839,
    "h": 0.9087,
    "l": 0.90816,
    "c": 0.90826,
    "v": 1717
  },
  {
    "dt": "2020.10.08 21:00",
    "o": 0.90826,
    "h": 0.90925,
    "l": 0.90822,
    "c": 0.90915,
    "v": 1461
  },
  {
    "dt": "2020.10.08 22:00",
    "o": 0.90913,
    "h": 0.9093,
    "l": 0.90878,
    "c": 0.90916,
    "v": 1545
  },
  {
    "dt": "2020.10.08 23:00",
    "o": 0.90918,
    "h": 0.90929,
    "l": 0.90885,
    "c": 0.90898,
    "v": 923
  },
  {
    "dt": "2020.10.09 00:00",
    "o": 0.90877,
    "h": 0.90949,
    "l": 0.9083,
    "c": 0.90876,
    "v": 401
  },
  {
    "dt": "2020.10.09 01:00",
    "o": 0.90878,
    "h": 0.90932,
    "l": 0.90878,
    "c": 0.90927,
    "v": 883
  },
  {
    "dt": "2020.10.09 02:00",
    "o": 0.90932,
    "h": 0.90955,
    "l": 0.90908,
    "c": 0.90929,
    "v": 509
  },
  {
    "dt": "2020.10.09 03:00",
    "o": 0.90931,
    "h": 0.90938,
    "l": 0.90853,
    "c": 0.90872,
    "v": 851
  },
  {
    "dt": "2020.10.09 04:00",
    "o": 0.90875,
    "h": 0.90892,
    "l": 0.90834,
    "c": 0.90881,
    "v": 1183
  },
  {
    "dt": "2020.10.09 05:00",
    "o": 0.90877,
    "h": 0.90912,
    "l": 0.90865,
    "c": 0.9089,
    "v": 888
  },
  {
    "dt": "2020.10.09 06:00",
    "o": 0.90892,
    "h": 0.90925,
    "l": 0.90888,
    "c": 0.9089,
    "v": 824
  },
  {
    "dt": "2020.10.09 07:00",
    "o": 0.90891,
    "h": 0.90902,
    "l": 0.90878,
    "c": 0.90893,
    "v": 449
  },
  {
    "dt": "2020.10.09 08:00",
    "o": 0.90893,
    "h": 0.90923,
    "l": 0.90876,
    "c": 0.90892,
    "v": 803
  },
  {
    "dt": "2020.10.09 09:00",
    "o": 0.90886,
    "h": 0.90977,
    "l": 0.90864,
    "c": 0.9089,
    "v": 1873
  },
  {
    "dt": "2020.10.09 10:00",
    "o": 0.9089,
    "h": 0.9092,
    "l": 0.90769,
    "c": 0.90875,
    "v": 2727
  },
  {
    "dt": "2020.10.09 11:00",
    "o": 0.90875,
    "h": 0.91179,
    "l": 0.90875,
    "c": 0.9115,
    "v": 3026
  },
  {
    "dt": "2020.10.09 12:00",
    "o": 0.9115,
    "h": 0.91237,
    "l": 0.91116,
    "c": 0.9116,
    "v": 2332
  },
  {
    "dt": "2020.10.09 13:00",
    "o": 0.91162,
    "h": 0.9123,
    "l": 0.91102,
    "c": 0.91144,
    "v": 2301
  },
  {
    "dt": "2020.10.09 14:00",
    "o": 0.91144,
    "h": 0.91306,
    "l": 0.91089,
    "c": 0.91155,
    "v": 2350
  },
  {
    "dt": "2020.10.09 15:00",
    "o": 0.91158,
    "h": 0.91217,
    "l": 0.91047,
    "c": 0.91061,
    "v": 2708
  },
  {
    "dt": "2020.10.09 16:00",
    "o": 0.91061,
    "h": 0.9112,
    "l": 0.91003,
    "c": 0.91012,
    "v": 2933
  },
  {
    "dt": "2020.10.09 17:00",
    "o": 0.91012,
    "h": 0.91059,
    "l": 0.90856,
    "c": 0.90902,
    "v": 3087
  },
  {
    "dt": "2020.10.09 18:00",
    "o": 0.90902,
    "h": 0.90941,
    "l": 0.90821,
    "c": 0.90895,
    "v": 2920
  },
  {
    "dt": "2020.10.09 19:00",
    "o": 0.90891,
    "h": 0.90913,
    "l": 0.9075,
    "c": 0.908,
    "v": 2488
  },
  {
    "dt": "2020.10.09 20:00",
    "o": 0.90798,
    "h": 0.90823,
    "l": 0.90693,
    "c": 0.90725,
    "v": 1578
  },
  {
    "dt": "2020.10.09 21:00",
    "o": 0.90725,
    "h": 0.90728,
    "l": 0.90691,
    "c": 0.90696,
    "v": 1302
  },
  {
    "dt": "2020.10.09 22:00",
    "o": 0.907,
    "h": 0.907,
    "l": 0.90639,
    "c": 0.9066,
    "v": 1367
  },
  {
    "dt": "2020.10.09 23:00",
    "o": 0.9066,
    "h": 0.90707,
    "l": 0.90622,
    "c": 0.90622,
    "v": 1143
  },
  {
    "dt": "2020.10.12 00:00",
    "o": 0.90623,
    "h": 0.907,
    "l": 0.90599,
    "c": 0.90646,
    "v": 300
  },
  {
    "dt": "2020.10.12 01:00",
    "o": 0.90635,
    "h": 0.90677,
    "l": 0.90631,
    "c": 0.90651,
    "v": 1105
  },
  {
    "dt": "2020.10.12 02:00",
    "o": 0.90653,
    "h": 0.90692,
    "l": 0.90646,
    "c": 0.90669,
    "v": 643
  },
  {
    "dt": "2020.10.12 03:00",
    "o": 0.90668,
    "h": 0.90694,
    "l": 0.90647,
    "c": 0.90659,
    "v": 1107
  },
  {
    "dt": "2020.10.12 04:00",
    "o": 0.90657,
    "h": 0.90714,
    "l": 0.90655,
    "c": 0.90695,
    "v": 1518
  },
  {
    "dt": "2020.10.12 05:00",
    "o": 0.90695,
    "h": 0.90709,
    "l": 0.9068,
    "c": 0.90698,
    "v": 895
  },
  {
    "dt": "2020.10.12 06:00",
    "o": 0.907,
    "h": 0.90705,
    "l": 0.90662,
    "c": 0.90667,
    "v": 619
  },
  {
    "dt": "2020.10.12 07:00",
    "o": 0.90666,
    "h": 0.9067,
    "l": 0.90619,
    "c": 0.90621,
    "v": 509
  },
  {
    "dt": "2020.10.12 08:00",
    "o": 0.90621,
    "h": 0.90654,
    "l": 0.906,
    "c": 0.90619,
    "v": 892
  },
  {
    "dt": "2020.10.12 09:00",
    "o": 0.90618,
    "h": 0.90618,
    "l": 0.90512,
    "c": 0.90529,
    "v": 1832
  },
  {
    "dt": "2020.10.12 10:00",
    "o": 0.9053,
    "h": 0.90746,
    "l": 0.90478,
    "c": 0.90695,
    "v": 2884
  },
  {
    "dt": "2020.10.12 11:00",
    "o": 0.90696,
    "h": 0.90751,
    "l": 0.90614,
    "c": 0.90747,
    "v": 2291
  },
  {
    "dt": "2020.10.12 12:00",
    "o": 0.90749,
    "h": 0.90779,
    "l": 0.90592,
    "c": 0.90592,
    "v": 2138
  },
  {
    "dt": "2020.10.12 13:00",
    "o": 0.90594,
    "h": 0.90725,
    "l": 0.90594,
    "c": 0.90646,
    "v": 1831
  },
  {
    "dt": "2020.10.12 14:00",
    "o": 0.90641,
    "h": 0.90673,
    "l": 0.90509,
    "c": 0.90572,
    "v": 2203
  },
  {
    "dt": "2020.10.12 15:00",
    "o": 0.90572,
    "h": 0.90605,
    "l": 0.90501,
    "c": 0.90541,
    "v": 2554
  },
  {
    "dt": "2020.10.12 16:00",
    "o": 0.90539,
    "h": 0.90593,
    "l": 0.90505,
    "c": 0.90575,
    "v": 2412
  },
  {
    "dt": "2020.10.12 17:00",
    "o": 0.9057,
    "h": 0.9061,
    "l": 0.90359,
    "c": 0.90418,
    "v": 3230
  },
  {
    "dt": "2020.10.12 18:00",
    "o": 0.90424,
    "h": 0.90432,
    "l": 0.90276,
    "c": 0.90363,
    "v": 2795
  },
  {
    "dt": "2020.10.12 19:00",
    "o": 0.90362,
    "h": 0.90432,
    "l": 0.90327,
    "c": 0.90407,
    "v": 2356
  },
  {
    "dt": "2020.10.12 20:00",
    "o": 0.90406,
    "h": 0.90418,
    "l": 0.9034,
    "c": 0.90355,
    "v": 1934
  },
  {
    "dt": "2020.10.12 21:00",
    "o": 0.90351,
    "h": 0.9041,
    "l": 0.90325,
    "c": 0.90408,
    "v": 1747
  },
  {
    "dt": "2020.10.12 22:00",
    "o": 0.90409,
    "h": 0.90411,
    "l": 0.9038,
    "c": 0.90405,
    "v": 1473
  },
  {
    "dt": "2020.10.12 23:00",
    "o": 0.90404,
    "h": 0.90416,
    "l": 0.90384,
    "c": 0.90384,
    "v": 831
  },
  {
    "dt": "2020.10.13 00:00",
    "o": 0.90343,
    "h": 0.90438,
    "l": 0.90318,
    "c": 0.90373,
    "v": 582
  },
  {
    "dt": "2020.10.13 01:00",
    "o": 0.90374,
    "h": 0.90415,
    "l": 0.90374,
    "c": 0.90415,
    "v": 601
  },
  {
    "dt": "2020.10.13 02:00",
    "o": 0.90413,
    "h": 0.90421,
    "l": 0.90405,
    "c": 0.9041,
    "v": 554
  },
  {
    "dt": "2020.10.13 03:00",
    "o": 0.9041,
    "h": 0.90442,
    "l": 0.90386,
    "c": 0.90428,
    "v": 1716
  },
  {
    "dt": "2020.10.13 04:00",
    "o": 0.90429,
    "h": 0.90451,
    "l": 0.904,
    "c": 0.90415,
    "v": 1363
  },
  {
    "dt": "2020.10.13 05:00",
    "o": 0.90415,
    "h": 0.90447,
    "l": 0.9041,
    "c": 0.90421,
    "v": 1032
  },
  {
    "dt": "2020.10.13 06:00",
    "o": 0.90422,
    "h": 0.90425,
    "l": 0.90409,
    "c": 0.90421,
    "v": 703
  },
  {
    "dt": "2020.10.13 07:00",
    "o": 0.90421,
    "h": 0.90425,
    "l": 0.90395,
    "c": 0.904,
    "v": 479
  },
  {
    "dt": "2020.10.13 08:00",
    "o": 0.904,
    "h": 0.90448,
    "l": 0.90374,
    "c": 0.90376,
    "v": 1210
  },
  {
    "dt": "2020.10.13 09:00",
    "o": 0.90377,
    "h": 0.90413,
    "l": 0.90329,
    "c": 0.90344,
    "v": 2224
  },
  {
    "dt": "2020.10.13 10:00",
    "o": 0.90345,
    "h": 0.90462,
    "l": 0.90317,
    "c": 0.90454,
    "v": 2867
  },
  {
    "dt": "2020.10.13 11:00",
    "o": 0.90452,
    "h": 0.90512,
    "l": 0.90259,
    "c": 0.90272,
    "v": 2989
  },
  {
    "dt": "2020.10.13 12:00",
    "o": 0.90268,
    "h": 0.90384,
    "l": 0.90187,
    "c": 0.90318,
    "v": 2719
  },
  {
    "dt": "2020.10.13 13:00",
    "o": 0.90317,
    "h": 0.90371,
    "l": 0.90284,
    "c": 0.90315,
    "v": 2169
  },
  {
    "dt": "2020.10.13 14:00",
    "o": 0.90318,
    "h": 0.90564,
    "l": 0.90282,
    "c": 0.90456,
    "v": 2845
  },
  {
    "dt": "2020.10.13 15:00",
    "o": 0.90457,
    "h": 0.90636,
    "l": 0.90455,
    "c": 0.90603,
    "v": 3098
  },
  {
    "dt": "2020.10.13 16:00",
    "o": 0.90605,
    "h": 0.90725,
    "l": 0.90523,
    "c": 0.90562,
    "v": 4203
  },
  {
    "dt": "2020.10.13 17:00",
    "o": 0.90565,
    "h": 0.90615,
    "l": 0.90417,
    "c": 0.90437,
    "v": 4026
  },
  {
    "dt": "2020.10.13 18:00",
    "o": 0.90438,
    "h": 0.90566,
    "l": 0.9038,
    "c": 0.90499,
    "v": 3016
  },
  {
    "dt": "2020.10.13 19:00",
    "o": 0.9049,
    "h": 0.90593,
    "l": 0.90451,
    "c": 0.9055,
    "v": 2386
  },
  {
    "dt": "2020.10.13 20:00",
    "o": 0.90552,
    "h": 0.90748,
    "l": 0.90539,
    "c": 0.90728,
    "v": 1967
  },
  {
    "dt": "2020.10.13 21:00",
    "o": 0.90729,
    "h": 0.90805,
    "l": 0.90702,
    "c": 0.90762,
    "v": 2175
  },
  {
    "dt": "2020.10.13 22:00",
    "o": 0.90765,
    "h": 0.90844,
    "l": 0.9076,
    "c": 0.90779,
    "v": 1720
  },
  {
    "dt": "2020.10.13 23:00",
    "o": 0.90782,
    "h": 0.90806,
    "l": 0.90762,
    "c": 0.90762,
    "v": 983
  },
  {
    "dt": "2020.10.14 00:00",
    "o": 0.90737,
    "h": 0.90783,
    "l": 0.90737,
    "c": 0.90752,
    "v": 259
  },
  {
    "dt": "2020.10.14 01:00",
    "o": 0.90751,
    "h": 0.90792,
    "l": 0.90747,
    "c": 0.90778,
    "v": 653
  },
  {
    "dt": "2020.10.14 02:00",
    "o": 0.90779,
    "h": 0.9079,
    "l": 0.90763,
    "c": 0.90771,
    "v": 440
  },
  {
    "dt": "2020.10.14 03:00",
    "o": 0.90771,
    "h": 0.90797,
    "l": 0.90743,
    "c": 0.90779,
    "v": 1045
  },
  {
    "dt": "2020.10.14 04:00",
    "o": 0.9078,
    "h": 0.90827,
    "l": 0.90774,
    "c": 0.908,
    "v": 1440
  },
  {
    "dt": "2020.10.14 05:00",
    "o": 0.908,
    "h": 0.908,
    "l": 0.90735,
    "c": 0.90769,
    "v": 1103
  },
  {
    "dt": "2020.10.14 06:00",
    "o": 0.9077,
    "h": 0.90786,
    "l": 0.90751,
    "c": 0.90784,
    "v": 639
  },
  {
    "dt": "2020.10.14 07:00",
    "o": 0.90784,
    "h": 0.90904,
    "l": 0.9077,
    "c": 0.90862,
    "v": 748
  },
  {
    "dt": "2020.10.14 08:00",
    "o": 0.90861,
    "h": 0.90932,
    "l": 0.90842,
    "c": 0.90925,
    "v": 1090
  },
  {
    "dt": "2020.10.14 09:00",
    "o": 0.90925,
    "h": 0.91083,
    "l": 0.9092,
    "c": 0.91074,
    "v": 2128
  },
  {
    "dt": "2020.10.14 10:00",
    "o": 0.91069,
    "h": 0.91209,
    "l": 0.91019,
    "c": 0.91098,
    "v": 3143
  },
  {
    "dt": "2020.10.14 11:00",
    "o": 0.91101,
    "h": 0.91119,
    "l": 0.90943,
    "c": 0.90962,
    "v": 2566
  },
  {
    "dt": "2020.10.14 12:00",
    "o": 0.90966,
    "h": 0.90973,
    "l": 0.90459,
    "c": 0.90659,
    "v": 3221
  },
  {
    "dt": "2020.10.14 13:00",
    "o": 0.90662,
    "h": 0.90668,
    "l": 0.90489,
    "c": 0.90604,
    "v": 2987
  },
  {
    "dt": "2020.10.14 14:00",
    "o": 0.90604,
    "h": 0.9062,
    "l": 0.90404,
    "c": 0.90488,
    "v": 2940
  },
  {
    "dt": "2020.10.14 15:00",
    "o": 0.90494,
    "h": 0.90584,
    "l": 0.90212,
    "c": 0.90266,
    "v": 3570
  },
  {
    "dt": "2020.10.14 16:00",
    "o": 0.90261,
    "h": 0.90292,
    "l": 0.90197,
    "c": 0.90201,
    "v": 3155
  },
  {
    "dt": "2020.10.14 17:00",
    "o": 0.90205,
    "h": 0.90245,
    "l": 0.90062,
    "c": 0.90156,
    "v": 3399
  },
  {
    "dt": "2020.10.14 18:00",
    "o": 0.90157,
    "h": 0.90308,
    "l": 0.90122,
    "c": 0.90259,
    "v": 2913
  },
  {
    "dt": "2020.10.14 19:00",
    "o": 0.90261,
    "h": 0.90303,
    "l": 0.90219,
    "c": 0.90276,
    "v": 2372
  },
  {
    "dt": "2020.10.14 20:00",
    "o": 0.90276,
    "h": 0.90277,
    "l": 0.90193,
    "c": 0.902,
    "v": 1791
  },
  {
    "dt": "2020.10.14 21:00",
    "o": 0.902,
    "h": 0.90236,
    "l": 0.90168,
    "c": 0.90213,
    "v": 1694
  },
  {
    "dt": "2020.10.14 22:00",
    "o": 0.90211,
    "h": 0.90239,
    "l": 0.90164,
    "c": 0.90183,
    "v": 1919
  },
  {
    "dt": "2020.10.14 23:00",
    "o": 0.90184,
    "h": 0.90271,
    "l": 0.90175,
    "c": 0.90261,
    "v": 1179
  },
  {
    "dt": "2020.10.15 00:00",
    "o": 0.90238,
    "h": 0.90271,
    "l": 0.90177,
    "c": 0.90242,
    "v": 680
  },
  {
    "dt": "2020.10.15 01:00",
    "o": 0.90235,
    "h": 0.90274,
    "l": 0.90235,
    "c": 0.90257,
    "v": 754
  },
  {
    "dt": "2020.10.15 02:00",
    "o": 0.90257,
    "h": 0.9027,
    "l": 0.90225,
    "c": 0.90257,
    "v": 657
  },
  {
    "dt": "2020.10.15 03:00",
    "o": 0.90255,
    "h": 0.9027,
    "l": 0.90201,
    "c": 0.90201,
    "v": 1123
  },
  {
    "dt": "2020.10.15 04:00",
    "o": 0.90203,
    "h": 0.90272,
    "l": 0.90195,
    "c": 0.9027,
    "v": 1507
  },
  {
    "dt": "2020.10.15 05:00",
    "o": 0.90268,
    "h": 0.90286,
    "l": 0.90243,
    "c": 0.90257,
    "v": 1163
  },
  {
    "dt": "2020.10.15 06:00",
    "o": 0.90252,
    "h": 0.90289,
    "l": 0.9025,
    "c": 0.90288,
    "v": 716
  },
  {
    "dt": "2020.10.15 07:00",
    "o": 0.90287,
    "h": 0.9029,
    "l": 0.9025,
    "c": 0.9025,
    "v": 577
  },
  {
    "dt": "2020.10.15 08:00",
    "o": 0.90251,
    "h": 0.90298,
    "l": 0.9023,
    "c": 0.90281,
    "v": 710
  },
  {
    "dt": "2020.10.15 09:00",
    "o": 0.90284,
    "h": 0.9039,
    "l": 0.90255,
    "c": 0.90268,
    "v": 2295
  },
  {
    "dt": "2020.10.15 10:00",
    "o": 0.90267,
    "h": 0.90377,
    "l": 0.90215,
    "c": 0.90257,
    "v": 3165
  },
  {
    "dt": "2020.10.15 11:00",
    "o": 0.9026,
    "h": 0.90485,
    "l": 0.90157,
    "c": 0.90405,
    "v": 3689
  },
  {
    "dt": "2020.10.15 12:00",
    "o": 0.90405,
    "h": 0.90472,
    "l": 0.90238,
    "c": 0.90281,
    "v": 3043
  },
  {
    "dt": "2020.10.15 13:00",
    "o": 0.9028,
    "h": 0.90582,
    "l": 0.90262,
    "c": 0.90459,
    "v": 3036
  },
  {
    "dt": "2020.10.15 14:00",
    "o": 0.90458,
    "h": 0.90728,
    "l": 0.9041,
    "c": 0.90562,
    "v": 3111
  },
  {
    "dt": "2020.10.15 15:00",
    "o": 0.90561,
    "h": 0.90643,
    "l": 0.90475,
    "c": 0.9051,
    "v": 3497
  },
  {
    "dt": "2020.10.15 16:00",
    "o": 0.90506,
    "h": 0.90625,
    "l": 0.90326,
    "c": 0.90374,
    "v": 3876
  },
  {
    "dt": "2020.10.15 17:00",
    "o": 0.90369,
    "h": 0.907,
    "l": 0.90353,
    "c": 0.9065,
    "v": 4138
  },
  {
    "dt": "2020.10.15 18:00",
    "o": 0.90651,
    "h": 0.90655,
    "l": 0.90477,
    "c": 0.90575,
    "v": 3565
  },
  {
    "dt": "2020.10.15 19:00",
    "o": 0.90575,
    "h": 0.90638,
    "l": 0.90413,
    "c": 0.90514,
    "v": 2740
  },
  {
    "dt": "2020.10.15 20:00",
    "o": 0.90518,
    "h": 0.90649,
    "l": 0.90478,
    "c": 0.9063,
    "v": 2445
  },
  {
    "dt": "2020.10.15 21:00",
    "o": 0.90628,
    "h": 0.90682,
    "l": 0.90602,
    "c": 0.90666,
    "v": 2125
  },
  {
    "dt": "2020.10.15 22:00",
    "o": 0.90665,
    "h": 0.90738,
    "l": 0.90655,
    "c": 0.90725,
    "v": 1614
  },
  {
    "dt": "2020.10.15 23:00",
    "o": 0.90726,
    "h": 0.90768,
    "l": 0.90701,
    "c": 0.90703,
    "v": 950
  },
  {
    "dt": "2020.10.16 00:00",
    "o": 0.9067,
    "h": 0.90745,
    "l": 0.90532,
    "c": 0.90744,
    "v": 289
  },
  {
    "dt": "2020.10.16 01:00",
    "o": 0.9074,
    "h": 0.90754,
    "l": 0.90688,
    "c": 0.90723,
    "v": 752
  },
  {
    "dt": "2020.10.16 02:00",
    "o": 0.9072,
    "h": 0.90746,
    "l": 0.90713,
    "c": 0.90717,
    "v": 829
  },
  {
    "dt": "2020.10.16 03:00",
    "o": 0.90716,
    "h": 0.9078,
    "l": 0.90692,
    "c": 0.90742,
    "v": 1245
  },
  {
    "dt": "2020.10.16 04:00",
    "o": 0.90741,
    "h": 0.90788,
    "l": 0.90735,
    "c": 0.9077,
    "v": 1302
  },
  {
    "dt": "2020.10.16 05:00",
    "o": 0.90768,
    "h": 0.90822,
    "l": 0.90767,
    "c": 0.9078,
    "v": 863
  },
  {
    "dt": "2020.10.16 06:00",
    "o": 0.9078,
    "h": 0.90795,
    "l": 0.90732,
    "c": 0.90754,
    "v": 889
  },
  {
    "dt": "2020.10.16 07:00",
    "o": 0.90754,
    "h": 0.90784,
    "l": 0.9075,
    "c": 0.90771,
    "v": 659
  },
  {
    "dt": "2020.10.16 08:00",
    "o": 0.9077,
    "h": 0.90808,
    "l": 0.90764,
    "c": 0.90771,
    "v": 696
  },
  {
    "dt": "2020.10.16 09:00",
    "o": 0.90772,
    "h": 0.90825,
    "l": 0.90565,
    "c": 0.90597,
    "v": 1930
  },
  {
    "dt": "2020.10.16 10:00",
    "o": 0.906,
    "h": 0.90726,
    "l": 0.90511,
    "c": 0.90572,
    "v": 3417
  },
  {
    "dt": "2020.10.16 11:00",
    "o": 0.90575,
    "h": 0.90602,
    "l": 0.90438,
    "c": 0.90497,
    "v": 2811
  },
  {
    "dt": "2020.10.16 12:00",
    "o": 0.90496,
    "h": 0.90602,
    "l": 0.9046,
    "c": 0.90482,
    "v": 2429
  },
  {
    "dt": "2020.10.16 13:00",
    "o": 0.90478,
    "h": 0.91046,
    "l": 0.9043,
    "c": 0.90884,
    "v": 2931
  },
  {
    "dt": "2020.10.16 14:00",
    "o": 0.90879,
    "h": 0.91086,
    "l": 0.90713,
    "c": 0.90841,
    "v": 4107
  },
  {
    "dt": "2020.10.16 15:00",
    "o": 0.9084,
    "h": 0.91052,
    "l": 0.9078,
    "c": 0.90874,
    "v": 3295
  },
  {
    "dt": "2020.10.16 16:00",
    "o": 0.90875,
    "h": 0.91089,
    "l": 0.90858,
    "c": 0.90874,
    "v": 3589
  },
  {
    "dt": "2020.10.16 17:00",
    "o": 0.90876,
    "h": 0.90907,
    "l": 0.90612,
    "c": 0.9064,
    "v": 3559
  },
  {
    "dt": "2020.10.16 18:00",
    "o": 0.90642,
    "h": 0.9071,
    "l": 0.90605,
    "c": 0.9061,
    "v": 2653
  },
  {
    "dt": "2020.10.16 19:00",
    "o": 0.90608,
    "h": 0.90726,
    "l": 0.90493,
    "c": 0.90666,
    "v": 2492
  },
  {
    "dt": "2020.10.16 20:00",
    "o": 0.90664,
    "h": 0.9077,
    "l": 0.90664,
    "c": 0.90761,
    "v": 1782
  },
  {
    "dt": "2020.10.16 21:00",
    "o": 0.90759,
    "h": 0.90769,
    "l": 0.90605,
    "c": 0.90617,
    "v": 1934
  },
  {
    "dt": "2020.10.16 22:00",
    "o": 0.90615,
    "h": 0.90669,
    "l": 0.90609,
    "c": 0.90637,
    "v": 2134
  },
  {
    "dt": "2020.10.16 23:00",
    "o": 0.90635,
    "h": 0.90761,
    "l": 0.90584,
    "c": 0.90657,
    "v": 1387
  },
  {
    "dt": "2020.10.19 00:00",
    "o": 0.90767,
    "h": 0.90795,
    "l": 0.90723,
    "c": 0.90769,
    "v": 344
  },
  {
    "dt": "2020.10.19 01:00",
    "o": 0.90769,
    "h": 0.9079,
    "l": 0.90604,
    "c": 0.90659,
    "v": 1378
  },
  {
    "dt": "2020.10.19 02:00",
    "o": 0.90656,
    "h": 0.90658,
    "l": 0.90603,
    "c": 0.90624,
    "v": 996
  },
  {
    "dt": "2020.10.19 03:00",
    "o": 0.90623,
    "h": 0.90623,
    "l": 0.90576,
    "c": 0.90577,
    "v": 1040
  },
  {
    "dt": "2020.10.19 04:00",
    "o": 0.90572,
    "h": 0.90588,
    "l": 0.90548,
    "c": 0.90579,
    "v": 1076
  },
  {
    "dt": "2020.10.19 05:00",
    "o": 0.90581,
    "h": 0.90591,
    "l": 0.9052,
    "c": 0.90559,
    "v": 949
  },
  {
    "dt": "2020.10.19 06:00",
    "o": 0.9056,
    "h": 0.90589,
    "l": 0.90541,
    "c": 0.90546,
    "v": 1025
  },
  {
    "dt": "2020.10.19 07:00",
    "o": 0.90546,
    "h": 0.90552,
    "l": 0.90528,
    "c": 0.90547,
    "v": 620
  },
  {
    "dt": "2020.10.19 08:00",
    "o": 0.90546,
    "h": 0.90571,
    "l": 0.90516,
    "c": 0.90516,
    "v": 786
  },
  {
    "dt": "2020.10.19 09:00",
    "o": 0.90521,
    "h": 0.90538,
    "l": 0.90382,
    "c": 0.9039,
    "v": 1666
  },
  {
    "dt": "2020.10.19 10:00",
    "o": 0.9039,
    "h": 0.90406,
    "l": 0.90215,
    "c": 0.90368,
    "v": 3032
  },
  {
    "dt": "2020.10.19 11:00",
    "o": 0.90367,
    "h": 0.90424,
    "l": 0.9024,
    "c": 0.90308,
    "v": 2996
  },
  {
    "dt": "2020.10.19 12:00",
    "o": 0.90305,
    "h": 0.90463,
    "l": 0.90283,
    "c": 0.90441,
    "v": 2861
  },
  {
    "dt": "2020.10.19 13:00",
    "o": 0.90443,
    "h": 0.90628,
    "l": 0.90341,
    "c": 0.90536,
    "v": 2477
  },
  {
    "dt": "2020.10.19 14:00",
    "o": 0.90532,
    "h": 0.90605,
    "l": 0.9045,
    "c": 0.9057,
    "v": 2798
  },
  {
    "dt": "2020.10.19 15:00",
    "o": 0.90568,
    "h": 0.90679,
    "l": 0.90533,
    "c": 0.90638,
    "v": 2534
  },
  {
    "dt": "2020.10.19 16:00",
    "o": 0.90639,
    "h": 0.90821,
    "l": 0.90472,
    "c": 0.90606,
    "v": 3055
  },
  {
    "dt": "2020.10.19 17:00",
    "o": 0.90605,
    "h": 0.90781,
    "l": 0.90473,
    "c": 0.90637,
    "v": 3730
  },
  {
    "dt": "2020.10.19 18:00",
    "o": 0.90635,
    "h": 0.90728,
    "l": 0.90594,
    "c": 0.9069,
    "v": 2831
  },
  {
    "dt": "2020.10.19 19:00",
    "o": 0.90691,
    "h": 0.90775,
    "l": 0.90611,
    "c": 0.90748,
    "v": 2307
  },
  {
    "dt": "2020.10.19 20:00",
    "o": 0.9075,
    "h": 0.90856,
    "l": 0.90723,
    "c": 0.90851,
    "v": 1929
  },
  {
    "dt": "2020.10.19 21:00",
    "o": 0.90853,
    "h": 0.90913,
    "l": 0.90818,
    "c": 0.90894,
    "v": 2451
  },
  {
    "dt": "2020.10.19 22:00",
    "o": 0.90895,
    "h": 0.90938,
    "l": 0.90854,
    "c": 0.90935,
    "v": 2457
  },
  {
    "dt": "2020.10.19 23:00",
    "o": 0.90935,
    "h": 0.90973,
    "l": 0.90875,
    "c": 0.90878,
    "v": 1180
  },
  {
    "dt": "2020.10.20 00:00",
    "o": 0.90889,
    "h": 0.90926,
    "l": 0.90836,
    "c": 0.909,
    "v": 964
  },
  {
    "dt": "2020.10.20 01:00",
    "o": 0.90897,
    "h": 0.9091,
    "l": 0.90841,
    "c": 0.90887,
    "v": 596
  },
  {
    "dt": "2020.10.20 02:00",
    "o": 0.90884,
    "h": 0.90889,
    "l": 0.90862,
    "c": 0.90884,
    "v": 475
  },
  {
    "dt": "2020.10.20 03:00",
    "o": 0.90885,
    "h": 0.90932,
    "l": 0.90884,
    "c": 0.90914,
    "v": 1253
  },
  {
    "dt": "2020.10.20 04:00",
    "o": 0.90914,
    "h": 0.90945,
    "l": 0.90859,
    "c": 0.90927,
    "v": 1510
  },
  {
    "dt": "2020.10.20 05:00",
    "o": 0.9093,
    "h": 0.90944,
    "l": 0.90894,
    "c": 0.90913,
    "v": 934
  },
  {
    "dt": "2020.10.20 06:00",
    "o": 0.90912,
    "h": 0.90937,
    "l": 0.90902,
    "c": 0.9092,
    "v": 509
  },
  {
    "dt": "2020.10.20 07:00",
    "o": 0.90919,
    "h": 0.90973,
    "l": 0.90896,
    "c": 0.9097,
    "v": 511
  },
  {
    "dt": "2020.10.20 08:00",
    "o": 0.90969,
    "h": 0.91016,
    "l": 0.90945,
    "c": 0.90953,
    "v": 738
  },
  {
    "dt": "2020.10.20 09:00",
    "o": 0.90939,
    "h": 0.9098,
    "l": 0.9088,
    "c": 0.90926,
    "v": 1871
  },
  {
    "dt": "2020.10.20 10:00",
    "o": 0.90925,
    "h": 0.9105,
    "l": 0.9087,
    "c": 0.90971,
    "v": 2955
  },
  {
    "dt": "2020.10.20 11:00",
    "o": 0.90972,
    "h": 0.91028,
    "l": 0.9086,
    "c": 0.90869,
    "v": 2632
  },
  {
    "dt": "2020.10.20 12:00",
    "o": 0.90868,
    "h": 0.91087,
    "l": 0.9079,
    "c": 0.91082,
    "v": 2599
  },
  {
    "dt": "2020.10.20 13:00",
    "o": 0.91081,
    "h": 0.91265,
    "l": 0.90993,
    "c": 0.91196,
    "v": 2704
  },
  {
    "dt": "2020.10.20 14:00",
    "o": 0.912,
    "h": 0.91343,
    "l": 0.91123,
    "c": 0.91245,
    "v": 2494
  },
  {
    "dt": "2020.10.20 15:00",
    "o": 0.91246,
    "h": 0.91467,
    "l": 0.91222,
    "c": 0.91345,
    "v": 2898
  },
  {
    "dt": "2020.10.20 16:00",
    "o": 0.91345,
    "h": 0.91423,
    "l": 0.91069,
    "c": 0.9113,
    "v": 3043
  },
  {
    "dt": "2020.10.20 17:00",
    "o": 0.91123,
    "h": 0.91315,
    "l": 0.91103,
    "c": 0.91261,
    "v": 3270
  },
  {
    "dt": "2020.10.20 18:00",
    "o": 0.91263,
    "h": 0.91321,
    "l": 0.9121,
    "c": 0.91288,
    "v": 2596
  },
  {
    "dt": "2020.10.20 19:00",
    "o": 0.91287,
    "h": 0.91456,
    "l": 0.9127,
    "c": 0.91388,
    "v": 2154
  },
  {
    "dt": "2020.10.20 20:00",
    "o": 0.91388,
    "h": 0.91477,
    "l": 0.91387,
    "c": 0.91432,
    "v": 1698
  },
  {
    "dt": "2020.10.20 21:00",
    "o": 0.9143,
    "h": 0.91433,
    "l": 0.91354,
    "c": 0.91376,
    "v": 1584
  },
  {
    "dt": "2020.10.20 22:00",
    "o": 0.91378,
    "h": 0.91428,
    "l": 0.91366,
    "c": 0.91366,
    "v": 1987
  },
  {
    "dt": "2020.10.20 23:00",
    "o": 0.91366,
    "h": 0.91386,
    "l": 0.91275,
    "c": 0.91283,
    "v": 1045
  },
  {
    "dt": "2020.10.21 00:00",
    "o": 0.91292,
    "h": 0.91331,
    "l": 0.91261,
    "c": 0.91317,
    "v": 359
  },
  {
    "dt": "2020.10.21 01:00",
    "o": 0.91335,
    "h": 0.91335,
    "l": 0.9127,
    "c": 0.91329,
    "v": 986
  },
  {
    "dt": "2020.10.21 02:00",
    "o": 0.9133,
    "h": 0.91344,
    "l": 0.91289,
    "c": 0.91289,
    "v": 619
  },
  {
    "dt": "2020.10.21 03:00",
    "o": 0.91284,
    "h": 0.91314,
    "l": 0.91263,
    "c": 0.91298,
    "v": 914
  },
  {
    "dt": "2020.10.21 04:00",
    "o": 0.91297,
    "h": 0.91305,
    "l": 0.91256,
    "c": 0.91285,
    "v": 930
  },
  {
    "dt": "2020.10.21 05:00",
    "o": 0.91285,
    "h": 0.91291,
    "l": 0.91255,
    "c": 0.91274,
    "v": 1024
  },
  {
    "dt": "2020.10.21 06:00",
    "o": 0.91273,
    "h": 0.91301,
    "l": 0.9126,
    "c": 0.91272,
    "v": 815
  },
  {
    "dt": "2020.10.21 07:00",
    "o": 0.91275,
    "h": 0.91284,
    "l": 0.91253,
    "c": 0.91268,
    "v": 545
  },
  {
    "dt": "2020.10.21 08:00",
    "o": 0.91266,
    "h": 0.913,
    "l": 0.91248,
    "c": 0.91267,
    "v": 726
  },
  {
    "dt": "2020.10.21 09:00",
    "o": 0.91266,
    "h": 0.91324,
    "l": 0.91207,
    "c": 0.91265,
    "v": 2430
  },
  {
    "dt": "2020.10.21 10:00",
    "o": 0.91261,
    "h": 0.91269,
    "l": 0.90876,
    "c": 0.9095,
    "v": 3412
  },
  {
    "dt": "2020.10.21 11:00",
    "o": 0.9095,
    "h": 0.9095,
    "l": 0.90805,
    "c": 0.90872,
    "v": 3463
  },
  {
    "dt": "2020.10.21 12:00",
    "o": 0.90871,
    "h": 0.90912,
    "l": 0.90661,
    "c": 0.90731,
    "v": 2873
  },
  {
    "dt": "2020.10.21 13:00",
    "o": 0.90729,
    "h": 0.90834,
    "l": 0.90702,
    "c": 0.90717,
    "v": 2475
  },
  {
    "dt": "2020.10.21 14:00",
    "o": 0.90715,
    "h": 0.90862,
    "l": 0.90714,
    "c": 0.90738,
    "v": 2584
  },
  {
    "dt": "2020.10.21 15:00",
    "o": 0.90738,
    "h": 0.90782,
    "l": 0.90574,
    "c": 0.90582,
    "v": 3239
  },
  {
    "dt": "2020.10.21 16:00",
    "o": 0.90583,
    "h": 0.90617,
    "l": 0.90237,
    "c": 0.90433,
    "v": 3443
  },
  {
    "dt": "2020.10.21 17:00",
    "o": 0.90431,
    "h": 0.90431,
    "l": 0.90163,
    "c": 0.90238,
    "v": 3871
  },
  {
    "dt": "2020.10.21 18:00",
    "o": 0.90235,
    "h": 0.90355,
    "l": 0.90232,
    "c": 0.90307,
    "v": 3226
  },
  {
    "dt": "2020.10.21 19:00",
    "o": 0.90308,
    "h": 0.90337,
    "l": 0.90143,
    "c": 0.90232,
    "v": 2964
  },
  {
    "dt": "2020.10.21 20:00",
    "o": 0.90226,
    "h": 0.90233,
    "l": 0.90127,
    "c": 0.90145,
    "v": 2244
  },
  {
    "dt": "2020.10.21 21:00",
    "o": 0.90144,
    "h": 0.90204,
    "l": 0.90107,
    "c": 0.90126,
    "v": 2100
  },
  {
    "dt": "2020.10.21 22:00",
    "o": 0.90127,
    "h": 0.90213,
    "l": 0.90109,
    "c": 0.90205,
    "v": 2491
  },
  {
    "dt": "2020.10.21 23:00",
    "o": 0.90207,
    "h": 0.90266,
    "l": 0.90185,
    "c": 0.90185,
    "v": 1281
  },
  {
    "dt": "2020.10.22 00:00",
    "o": 0.90189,
    "h": 0.90231,
    "l": 0.90169,
    "c": 0.90221,
    "v": 464
  },
  {
    "dt": "2020.10.22 01:00",
    "o": 0.90224,
    "h": 0.90249,
    "l": 0.90197,
    "c": 0.90241,
    "v": 854
  },
  {
    "dt": "2020.10.22 02:00",
    "o": 0.90243,
    "h": 0.90279,
    "l": 0.90238,
    "c": 0.90259,
    "v": 1328
  },
  {
    "dt": "2020.10.22 03:00",
    "o": 0.90261,
    "h": 0.90262,
    "l": 0.9014,
    "c": 0.90156,
    "v": 1737
  },
  {
    "dt": "2020.10.22 04:00",
    "o": 0.90155,
    "h": 0.90198,
    "l": 0.90145,
    "c": 0.90176,
    "v": 1427
  },
  {
    "dt": "2020.10.22 05:00",
    "o": 0.90176,
    "h": 0.90214,
    "l": 0.90163,
    "c": 0.90194,
    "v": 1298
  },
  {
    "dt": "2020.10.22 06:00",
    "o": 0.90196,
    "h": 0.90217,
    "l": 0.90169,
    "c": 0.90213,
    "v": 599
  },
  {
    "dt": "2020.10.22 07:00",
    "o": 0.90215,
    "h": 0.9022,
    "l": 0.90177,
    "c": 0.90197,
    "v": 548
  },
  {
    "dt": "2020.10.22 08:00",
    "o": 0.90196,
    "h": 0.90201,
    "l": 0.90162,
    "c": 0.90188,
    "v": 696
  },
  {
    "dt": "2020.10.22 09:00",
    "o": 0.90189,
    "h": 0.90228,
    "l": 0.90139,
    "c": 0.90203,
    "v": 1759
  },
  {
    "dt": "2020.10.22 10:00",
    "o": 0.90196,
    "h": 0.90345,
    "l": 0.90195,
    "c": 0.90255,
    "v": 3008
  },
  {
    "dt": "2020.10.22 11:00",
    "o": 0.90257,
    "h": 0.90372,
    "l": 0.90216,
    "c": 0.90358,
    "v": 2616
  },
  {
    "dt": "2020.10.22 12:00",
    "o": 0.9036,
    "h": 0.90453,
    "l": 0.90311,
    "c": 0.90335,
    "v": 2976
  },
  {
    "dt": "2020.10.22 13:00",
    "o": 0.90336,
    "h": 0.90375,
    "l": 0.90187,
    "c": 0.90287,
    "v": 2609
  },
  {
    "dt": "2020.10.22 14:00",
    "o": 0.90285,
    "h": 0.90307,
    "l": 0.90159,
    "c": 0.90269,
    "v": 2949
  },
  {
    "dt": "2020.10.22 15:00",
    "o": 0.9027,
    "h": 0.90324,
    "l": 0.902,
    "c": 0.9025,
    "v": 2899
  },
  {
    "dt": "2020.10.22 16:00",
    "o": 0.90251,
    "h": 0.90323,
    "l": 0.90207,
    "c": 0.90226,
    "v": 3268
  },
  {
    "dt": "2020.10.22 17:00",
    "o": 0.90225,
    "h": 0.90428,
    "l": 0.90217,
    "c": 0.90314,
    "v": 3765
  },
  {
    "dt": "2020.10.22 18:00",
    "o": 0.90315,
    "h": 0.90416,
    "l": 0.90292,
    "c": 0.90333,
    "v": 3060
  },
  {
    "dt": "2020.10.22 19:00",
    "o": 0.90332,
    "h": 0.90361,
    "l": 0.90234,
    "c": 0.90263,
    "v": 2159
  },
  {
    "dt": "2020.10.22 20:00",
    "o": 0.90264,
    "h": 0.90318,
    "l": 0.90264,
    "c": 0.90303,
    "v": 1918
  },
  {
    "dt": "2020.10.22 21:00",
    "o": 0.90303,
    "h": 0.90368,
    "l": 0.90301,
    "c": 0.90367,
    "v": 1547
  },
  {
    "dt": "2020.10.22 22:00",
    "o": 0.90368,
    "h": 0.90392,
    "l": 0.90343,
    "c": 0.90375,
    "v": 1618
  },
  {
    "dt": "2020.10.22 23:00",
    "o": 0.90376,
    "h": 0.9039,
    "l": 0.90304,
    "c": 0.90305,
    "v": 917
  },
  {
    "dt": "2020.10.23 00:00",
    "o": 0.90253,
    "h": 0.90351,
    "l": 0.9023,
    "c": 0.90348,
    "v": 487
  },
  {
    "dt": "2020.10.23 01:00",
    "o": 0.90343,
    "h": 0.90378,
    "l": 0.90313,
    "c": 0.90377,
    "v": 848
  },
  {
    "dt": "2020.10.23 02:00",
    "o": 0.90376,
    "h": 0.90379,
    "l": 0.90327,
    "c": 0.90332,
    "v": 602
  },
  {
    "dt": "2020.10.23 03:00",
    "o": 0.90332,
    "h": 0.90333,
    "l": 0.90204,
    "c": 0.90258,
    "v": 1902
  },
  {
    "dt": "2020.10.23 04:00",
    "o": 0.90259,
    "h": 0.90304,
    "l": 0.90254,
    "c": 0.90289,
    "v": 989
  },
  {
    "dt": "2020.10.23 05:00",
    "o": 0.9029,
    "h": 0.90304,
    "l": 0.90272,
    "c": 0.90284,
    "v": 920
  },
  {
    "dt": "2020.10.23 06:00",
    "o": 0.90285,
    "h": 0.90299,
    "l": 0.9026,
    "c": 0.90297,
    "v": 849
  },
  {
    "dt": "2020.10.23 07:00",
    "o": 0.90299,
    "h": 0.90353,
    "l": 0.90277,
    "c": 0.90343,
    "v": 992
  },
  {
    "dt": "2020.10.23 08:00",
    "o": 0.90343,
    "h": 0.90374,
    "l": 0.90317,
    "c": 0.90362,
    "v": 829
  },
  {
    "dt": "2020.10.23 09:00",
    "o": 0.90358,
    "h": 0.90384,
    "l": 0.90313,
    "c": 0.90359,
    "v": 1599
  },
  {
    "dt": "2020.10.23 10:00",
    "o": 0.90356,
    "h": 0.90418,
    "l": 0.90265,
    "c": 0.90339,
    "v": 3117
  },
  {
    "dt": "2020.10.23 11:00",
    "o": 0.90346,
    "h": 0.90464,
    "l": 0.90285,
    "c": 0.90439,
    "v": 2940
  },
  {
    "dt": "2020.10.23 12:00",
    "o": 0.90438,
    "h": 0.90551,
    "l": 0.90426,
    "c": 0.90539,
    "v": 2611
  },
  {
    "dt": "2020.10.23 13:00",
    "o": 0.90538,
    "h": 0.90675,
    "l": 0.90495,
    "c": 0.90603,
    "v": 2451
  },
  {
    "dt": "2020.10.23 14:00",
    "o": 0.90603,
    "h": 0.90713,
    "l": 0.90572,
    "c": 0.90637,
    "v": 2423
  },
  {
    "dt": "2020.10.23 15:00",
    "o": 0.90638,
    "h": 0.90693,
    "l": 0.90366,
    "c": 0.90534,
    "v": 3363
  },
  {
    "dt": "2020.10.23 16:00",
    "o": 0.90534,
    "h": 0.90657,
    "l": 0.9052,
    "c": 0.90595,
    "v": 3058
  },
  {
    "dt": "2020.10.23 17:00",
    "o": 0.90598,
    "h": 0.90842,
    "l": 0.90562,
    "c": 0.90751,
    "v": 3910
  },
  {
    "dt": "2020.10.23 18:00",
    "o": 0.90746,
    "h": 0.90837,
    "l": 0.9067,
    "c": 0.90822,
    "v": 2828
  },
  {
    "dt": "2020.10.23 19:00",
    "o": 0.90819,
    "h": 0.90908,
    "l": 0.90819,
    "c": 0.90875,
    "v": 2313
  },
  {
    "dt": "2020.10.23 20:00",
    "o": 0.90876,
    "h": 0.91025,
    "l": 0.90875,
    "c": 0.91002,
    "v": 2031
  },
  {
    "dt": "2020.10.23 21:00",
    "o": 0.91004,
    "h": 0.91067,
    "l": 0.90963,
    "c": 0.9097,
    "v": 1704
  },
  {
    "dt": "2020.10.23 22:00",
    "o": 0.90971,
    "h": 0.90996,
    "l": 0.90921,
    "c": 0.90926,
    "v": 1696
  },
  {
    "dt": "2020.10.23 23:00",
    "o": 0.90927,
    "h": 0.90949,
    "l": 0.90866,
    "c": 0.90925,
    "v": 1220
  },
  {
    "dt": "2020.10.26 00:00",
    "o": 0.90784,
    "h": 0.90861,
    "l": 0.90773,
    "c": 0.90813,
    "v": 301
  },
  {
    "dt": "2020.10.26 01:00",
    "o": 0.90825,
    "h": 0.90834,
    "l": 0.90696,
    "c": 0.90785,
    "v": 2209
  },
  {
    "dt": "2020.10.26 02:00",
    "o": 0.90786,
    "h": 0.9082,
    "l": 0.90732,
    "c": 0.90759,
    "v": 887
  },
  {
    "dt": "2020.10.26 03:00",
    "o": 0.90758,
    "h": 0.908,
    "l": 0.90751,
    "c": 0.90773,
    "v": 906
  },
  {
    "dt": "2020.10.26 04:00",
    "o": 0.90773,
    "h": 0.90828,
    "l": 0.9075,
    "c": 0.90814,
    "v": 1200
  },
  {
    "dt": "2020.10.26 05:00",
    "o": 0.90813,
    "h": 0.90854,
    "l": 0.90799,
    "c": 0.90837,
    "v": 970
  },
  {
    "dt": "2020.10.26 06:00",
    "o": 0.9084,
    "h": 0.90857,
    "l": 0.90826,
    "c": 0.90833,
    "v": 966
  },
  {
    "dt": "2020.10.26 07:00",
    "o": 0.90833,
    "h": 0.90874,
    "l": 0.90833,
    "c": 0.90852,
    "v": 621
  },
  {
    "dt": "2020.10.26 08:00",
    "o": 0.9085,
    "h": 0.90871,
    "l": 0.9083,
    "c": 0.90832,
    "v": 883
  },
  {
    "dt": "2020.10.26 09:00",
    "o": 0.90831,
    "h": 0.90875,
    "l": 0.90817,
    "c": 0.90868,
    "v": 1004
  },
  {
    "dt": "2020.10.26 10:00",
    "o": 0.90869,
    "h": 0.91052,
    "l": 0.90868,
    "c": 0.90939,
    "v": 2357
  },
  {
    "dt": "2020.10.26 11:00",
    "o": 0.90936,
    "h": 0.91009,
    "l": 0.90664,
    "c": 0.90782,
    "v": 3617
  },
  {
    "dt": "2020.10.26 12:00",
    "o": 0.90781,
    "h": 0.90788,
    "l": 0.90473,
    "c": 0.90491,
    "v": 3165
  },
  {
    "dt": "2020.10.26 13:00",
    "o": 0.90493,
    "h": 0.90523,
    "l": 0.90406,
    "c": 0.90493,
    "v": 2730
  },
  {
    "dt": "2020.10.26 14:00",
    "o": 0.90492,
    "h": 0.90601,
    "l": 0.90484,
    "c": 0.9056,
    "v": 2537
  },
  {
    "dt": "2020.10.26 15:00",
    "o": 0.90559,
    "h": 0.9075,
    "l": 0.9053,
    "c": 0.90695,
    "v": 2921
  },
  {
    "dt": "2020.10.26 16:00",
    "o": 0.90696,
    "h": 0.90805,
    "l": 0.90692,
    "c": 0.9076,
    "v": 3440
  },
  {
    "dt": "2020.10.26 17:00",
    "o": 0.90762,
    "h": 0.90896,
    "l": 0.90762,
    "c": 0.90859,
    "v": 3346
  },
  {
    "dt": "2020.10.26 18:00",
    "o": 0.90858,
    "h": 0.90875,
    "l": 0.90725,
    "c": 0.90739,
    "v": 3417
  },
  {
    "dt": "2020.10.26 19:00",
    "o": 0.90739,
    "h": 0.90814,
    "l": 0.90718,
    "c": 0.90785,
    "v": 2391
  },
  {
    "dt": "2020.10.26 20:00",
    "o": 0.90785,
    "h": 0.90786,
    "l": 0.90704,
    "c": 0.90722,
    "v": 2152
  },
  {
    "dt": "2020.10.26 21:00",
    "o": 0.90721,
    "h": 0.90737,
    "l": 0.9068,
    "c": 0.90727,
    "v": 1868
  },
  {
    "dt": "2020.10.26 22:00",
    "o": 0.90728,
    "h": 0.90731,
    "l": 0.90665,
    "c": 0.90684,
    "v": 1917
  },
  {
    "dt": "2020.10.26 23:00",
    "o": 0.90683,
    "h": 0.90692,
    "l": 0.90658,
    "c": 0.90658,
    "v": 921
  },
  {
    "dt": "2020.10.27 00:00",
    "o": 0.90671,
    "h": 0.90753,
    "l": 0.90634,
    "c": 0.9067,
    "v": 331
  },
  {
    "dt": "2020.10.27 01:00",
    "o": 0.90657,
    "h": 0.90722,
    "l": 0.90653,
    "c": 0.907,
    "v": 1122
  },
  {
    "dt": "2020.10.27 02:00",
    "o": 0.90708,
    "h": 0.90732,
    "l": 0.90703,
    "c": 0.90723,
    "v": 548
  },
  {
    "dt": "2020.10.27 03:00",
    "o": 0.90724,
    "h": 0.90757,
    "l": 0.90691,
    "c": 0.90737,
    "v": 1120
  },
  {
    "dt": "2020.10.27 04:00",
    "o": 0.90737,
    "h": 0.90757,
    "l": 0.90692,
    "c": 0.90695,
    "v": 1115
  },
  {
    "dt": "2020.10.27 05:00",
    "o": 0.90695,
    "h": 0.90705,
    "l": 0.90661,
    "c": 0.90664,
    "v": 986
  },
  {
    "dt": "2020.10.27 06:00",
    "o": 0.90664,
    "h": 0.90692,
    "l": 0.90654,
    "c": 0.90683,
    "v": 721
  },
  {
    "dt": "2020.10.27 07:00",
    "o": 0.90684,
    "h": 0.90718,
    "l": 0.90668,
    "c": 0.90711,
    "v": 541
  },
  {
    "dt": "2020.10.27 08:00",
    "o": 0.90714,
    "h": 0.90761,
    "l": 0.9071,
    "c": 0.90746,
    "v": 1047
  },
  {
    "dt": "2020.10.27 09:00",
    "o": 0.90743,
    "h": 0.9078,
    "l": 0.90714,
    "c": 0.90771,
    "v": 1225
  },
  {
    "dt": "2020.10.27 10:00",
    "o": 0.90772,
    "h": 0.90838,
    "l": 0.90748,
    "c": 0.90759,
    "v": 2235
  },
  {
    "dt": "2020.10.27 11:00",
    "o": 0.90759,
    "h": 0.90813,
    "l": 0.90675,
    "c": 0.90716,
    "v": 3135
  },
  {
    "dt": "2020.10.27 12:00",
    "o": 0.90717,
    "h": 0.90754,
    "l": 0.90662,
    "c": 0.90666,
    "v": 2492
  },
  {
    "dt": "2020.10.27 13:00",
    "o": 0.90664,
    "h": 0.90741,
    "l": 0.9062,
    "c": 0.90624,
    "v": 2334
  },
  {
    "dt": "2020.10.27 14:00",
    "o": 0.90621,
    "h": 0.90694,
    "l": 0.90592,
    "c": 0.90605,
    "v": 2440
  },
  {
    "dt": "2020.10.27 15:00",
    "o": 0.90606,
    "h": 0.90804,
    "l": 0.90595,
    "c": 0.90765,
    "v": 2370
  },
  {
    "dt": "2020.10.27 16:00",
    "o": 0.90765,
    "h": 0.90812,
    "l": 0.90682,
    "c": 0.9078,
    "v": 2956
  },
  {
    "dt": "2020.10.27 17:00",
    "o": 0.90782,
    "h": 0.90804,
    "l": 0.9063,
    "c": 0.90644,
    "v": 3065
  },
  {
    "dt": "2020.10.27 18:00",
    "o": 0.90643,
    "h": 0.90693,
    "l": 0.90446,
    "c": 0.90559,
    "v": 2882
  },
  {
    "dt": "2020.10.27 19:00",
    "o": 0.90558,
    "h": 0.90581,
    "l": 0.90479,
    "c": 0.90483,
    "v": 2363
  },
  {
    "dt": "2020.10.27 20:00",
    "o": 0.90479,
    "h": 0.9054,
    "l": 0.90455,
    "c": 0.90505,
    "v": 1636
  },
  {
    "dt": "2020.10.27 21:00",
    "o": 0.90503,
    "h": 0.90538,
    "l": 0.90459,
    "c": 0.90461,
    "v": 1424
  },
  {
    "dt": "2020.10.27 22:00",
    "o": 0.90463,
    "h": 0.90498,
    "l": 0.90444,
    "c": 0.90459,
    "v": 1425
  },
  {
    "dt": "2020.10.27 23:00",
    "o": 0.90458,
    "h": 0.90481,
    "l": 0.90365,
    "c": 0.90392,
    "v": 1442
  },
  {
    "dt": "2020.10.28 00:00",
    "o": 0.90408,
    "h": 0.90448,
    "l": 0.90332,
    "c": 0.90359,
    "v": 988
  },
  {
    "dt": "2020.10.28 01:00",
    "o": 0.90358,
    "h": 0.90426,
    "l": 0.90283,
    "c": 0.9042,
    "v": 1703
  },
  {
    "dt": "2020.10.28 02:00",
    "o": 0.90416,
    "h": 0.90426,
    "l": 0.90388,
    "c": 0.90407,
    "v": 862
  },
  {
    "dt": "2020.10.28 03:00",
    "o": 0.90405,
    "h": 0.90418,
    "l": 0.90347,
    "c": 0.90368,
    "v": 1323
  },
  {
    "dt": "2020.10.28 04:00",
    "o": 0.90369,
    "h": 0.90427,
    "l": 0.90342,
    "c": 0.90362,
    "v": 1263
  },
  {
    "dt": "2020.10.28 05:00",
    "o": 0.90362,
    "h": 0.90367,
    "l": 0.90324,
    "c": 0.90353,
    "v": 1153
  },
  {
    "dt": "2020.10.28 06:00",
    "o": 0.90352,
    "h": 0.90368,
    "l": 0.90333,
    "c": 0.90345,
    "v": 646
  },
  {
    "dt": "2020.10.28 07:00",
    "o": 0.90346,
    "h": 0.90346,
    "l": 0.90309,
    "c": 0.90315,
    "v": 625
  },
  {
    "dt": "2020.10.28 08:00",
    "o": 0.90316,
    "h": 0.90328,
    "l": 0.9028,
    "c": 0.90325,
    "v": 858
  },
  {
    "dt": "2020.10.28 09:00",
    "o": 0.90326,
    "h": 0.90328,
    "l": 0.9015,
    "c": 0.90157,
    "v": 1623
  },
  {
    "dt": "2020.10.28 10:00",
    "o": 0.90158,
    "h": 0.90325,
    "l": 0.90141,
    "c": 0.90322,
    "v": 2636
  },
  {
    "dt": "2020.10.28 11:00",
    "o": 0.90322,
    "h": 0.90529,
    "l": 0.90284,
    "c": 0.90482,
    "v": 3564
  },
  {
    "dt": "2020.10.28 12:00",
    "o": 0.90473,
    "h": 0.90656,
    "l": 0.90454,
    "c": 0.90559,
    "v": 3435
  },
  {
    "dt": "2020.10.28 13:00",
    "o": 0.90562,
    "h": 0.90581,
    "l": 0.90438,
    "c": 0.90491,
    "v": 2933
  },
  {
    "dt": "2020.10.28 14:00",
    "o": 0.90492,
    "h": 0.90583,
    "l": 0.90434,
    "c": 0.90573,
    "v": 3185
  },
  {
    "dt": "2020.10.28 15:00",
    "o": 0.90573,
    "h": 0.9075,
    "l": 0.90524,
    "c": 0.90604,
    "v": 3551
  },
  {
    "dt": "2020.10.28 16:00",
    "o": 0.90608,
    "h": 0.90664,
    "l": 0.90508,
    "c": 0.90561,
    "v": 3944
  },
  {
    "dt": "2020.10.28 17:00",
    "o": 0.90559,
    "h": 0.90563,
    "l": 0.90178,
    "c": 0.90379,
    "v": 4377
  },
  {
    "dt": "2020.10.28 18:00",
    "o": 0.90378,
    "h": 0.90419,
    "l": 0.90167,
    "c": 0.90404,
    "v": 3959
  },
  {
    "dt": "2020.10.28 19:00",
    "o": 0.90406,
    "h": 0.90605,
    "l": 0.90394,
    "c": 0.90517,
    "v": 3273
  },
  {
    "dt": "2020.10.28 20:00",
    "o": 0.90517,
    "h": 0.9052,
    "l": 0.90446,
    "c": 0.90449,
    "v": 2436
  },
  {
    "dt": "2020.10.28 21:00",
    "o": 0.9045,
    "h": 0.90495,
    "l": 0.90412,
    "c": 0.90436,
    "v": 2164
  },
  {
    "dt": "2020.10.28 22:00",
    "o": 0.90436,
    "h": 0.90506,
    "l": 0.90436,
    "c": 0.90478,
    "v": 2445
  },
  {
    "dt": "2020.10.28 23:00",
    "o": 0.90479,
    "h": 0.90495,
    "l": 0.90454,
    "c": 0.90454,
    "v": 1183
  },
  {
    "dt": "2020.10.29 00:00",
    "o": 0.9041,
    "h": 0.90446,
    "l": 0.90383,
    "c": 0.90405,
    "v": 357
  },
  {
    "dt": "2020.10.29 01:00",
    "o": 0.90402,
    "h": 0.90466,
    "l": 0.90402,
    "c": 0.90454,
    "v": 860
  },
  {
    "dt": "2020.10.29 02:00",
    "o": 0.90455,
    "h": 0.90466,
    "l": 0.90433,
    "c": 0.90434,
    "v": 591
  },
  {
    "dt": "2020.10.29 03:00",
    "o": 0.90435,
    "h": 0.90461,
    "l": 0.90426,
    "c": 0.90455,
    "v": 1353
  },
  {
    "dt": "2020.10.29 04:00",
    "o": 0.90455,
    "h": 0.9047,
    "l": 0.9041,
    "c": 0.90458,
    "v": 1296
  },
  {
    "dt": "2020.10.29 05:00",
    "o": 0.90457,
    "h": 0.90472,
    "l": 0.90417,
    "c": 0.90419,
    "v": 895
  },
  {
    "dt": "2020.10.29 06:00",
    "o": 0.90419,
    "h": 0.90439,
    "l": 0.9037,
    "c": 0.9038,
    "v": 923
  },
  {
    "dt": "2020.10.29 07:00",
    "o": 0.9038,
    "h": 0.90393,
    "l": 0.90355,
    "c": 0.90383,
    "v": 746
  },
  {
    "dt": "2020.10.29 08:00",
    "o": 0.90384,
    "h": 0.90386,
    "l": 0.90266,
    "c": 0.90266,
    "v": 1092
  },
  {
    "dt": "2020.10.29 09:00",
    "o": 0.90266,
    "h": 0.90362,
    "l": 0.90245,
    "c": 0.90341,
    "v": 1314
  },
  {
    "dt": "2020.10.29 10:00",
    "o": 0.90342,
    "h": 0.90365,
    "l": 0.90248,
    "c": 0.90251,
    "v": 2590
  },
  {
    "dt": "2020.10.29 11:00",
    "o": 0.90251,
    "h": 0.90357,
    "l": 0.90212,
    "c": 0.90269,
    "v": 3479
  },
  {
    "dt": "2020.10.29 12:00",
    "o": 0.90268,
    "h": 0.9027,
    "l": 0.90058,
    "c": 0.9012,
    "v": 2914
  },
  {
    "dt": "2020.10.29 13:00",
    "o": 0.90118,
    "h": 0.90273,
    "l": 0.90076,
    "c": 0.90213,
    "v": 3199
  },
  {
    "dt": "2020.10.29 14:00",
    "o": 0.90212,
    "h": 0.90467,
    "l": 0.90212,
    "c": 0.90429,
    "v": 3454
  },
  {
    "dt": "2020.10.29 15:00",
    "o": 0.90428,
    "h": 0.9053,
    "l": 0.90355,
    "c": 0.9047,
    "v": 3646
  },
  {
    "dt": "2020.10.29 16:00",
    "o": 0.90472,
    "h": 0.90586,
    "l": 0.90375,
    "c": 0.90383,
    "v": 4526
  },
  {
    "dt": "2020.10.29 17:00",
    "o": 0.90386,
    "h": 0.90446,
    "l": 0.90218,
    "c": 0.90384,
    "v": 4330
  },
  {
    "dt": "2020.10.29 18:00",
    "o": 0.90385,
    "h": 0.90511,
    "l": 0.90277,
    "c": 0.90431,
    "v": 3868
  },
  {
    "dt": "2020.10.29 19:00",
    "o": 0.9043,
    "h": 0.90475,
    "l": 0.90264,
    "c": 0.90275,
    "v": 3215
  },
  {
    "dt": "2020.10.29 20:00",
    "o": 0.90276,
    "h": 0.90326,
    "l": 0.90249,
    "c": 0.9032,
    "v": 2151
  },
  {
    "dt": "2020.10.29 21:00",
    "o": 0.90322,
    "h": 0.90322,
    "l": 0.90253,
    "c": 0.90273,
    "v": 2199
  },
  {
    "dt": "2020.10.29 22:00",
    "o": 0.90273,
    "h": 0.90301,
    "l": 0.9025,
    "c": 0.90268,
    "v": 2228
  },
  {
    "dt": "2020.10.29 23:00",
    "o": 0.90263,
    "h": 0.90313,
    "l": 0.90259,
    "c": 0.9026,
    "v": 1274
  },
  {
    "dt": "2020.10.30 00:00",
    "o": 0.90272,
    "h": 0.90353,
    "l": 0.90261,
    "c": 0.90283,
    "v": 579
  },
  {
    "dt": "2020.10.30 01:00",
    "o": 0.9029,
    "h": 0.9031,
    "l": 0.90251,
    "c": 0.90259,
    "v": 965
  },
  {
    "dt": "2020.10.30 02:00",
    "o": 0.90259,
    "h": 0.90305,
    "l": 0.90234,
    "c": 0.90303,
    "v": 897
  },
  {
    "dt": "2020.10.30 03:00",
    "o": 0.90302,
    "h": 0.9033,
    "l": 0.90252,
    "c": 0.90302,
    "v": 1285
  },
  {
    "dt": "2020.10.30 04:00",
    "o": 0.90301,
    "h": 0.90329,
    "l": 0.90278,
    "c": 0.90313,
    "v": 1492
  },
  {
    "dt": "2020.10.30 05:00",
    "o": 0.90312,
    "h": 0.90372,
    "l": 0.90311,
    "c": 0.9037,
    "v": 1125
  },
  {
    "dt": "2020.10.30 06:00",
    "o": 0.90371,
    "h": 0.90407,
    "l": 0.90361,
    "c": 0.90384,
    "v": 934
  },
  {
    "dt": "2020.10.30 07:00",
    "o": 0.90383,
    "h": 0.9043,
    "l": 0.90367,
    "c": 0.90421,
    "v": 794
  },
  {
    "dt": "2020.10.30 08:00",
    "o": 0.90422,
    "h": 0.90493,
    "l": 0.90421,
    "c": 0.90479,
    "v": 1583
  },
  {
    "dt": "2020.10.30 09:00",
    "o": 0.90479,
    "h": 0.9052,
    "l": 0.90443,
    "c": 0.90485,
    "v": 1603
  },
  {
    "dt": "2020.10.30 10:00",
    "o": 0.90486,
    "h": 0.90489,
    "l": 0.90344,
    "c": 0.90397,
    "v": 2458
  },
  {
    "dt": "2020.10.30 11:00",
    "o": 0.904,
    "h": 0.90413,
    "l": 0.90241,
    "c": 0.90248,
    "v": 3304
  },
  {
    "dt": "2020.10.30 12:00",
    "o": 0.90251,
    "h": 0.90312,
    "l": 0.90059,
    "c": 0.90078,
    "v": 3282
  },
  {
    "dt": "2020.10.30 13:00",
    "o": 0.90078,
    "h": 0.90168,
    "l": 0.8994,
    "c": 0.89945,
    "v": 2967
  },
  {
    "dt": "2020.10.30 14:00",
    "o": 0.89945,
    "h": 0.90017,
    "l": 0.8985,
    "c": 0.89883,
    "v": 3350
  },
  {
    "dt": "2020.10.30 15:00",
    "o": 0.89882,
    "h": 0.90179,
    "l": 0.89868,
    "c": 0.90175,
    "v": 3298
  },
  {
    "dt": "2020.10.30 16:00",
    "o": 0.90173,
    "h": 0.90258,
    "l": 0.89987,
    "c": 0.90123,
    "v": 3716
  },
  {
    "dt": "2020.10.30 17:00",
    "o": 0.90122,
    "h": 0.903,
    "l": 0.90063,
    "c": 0.90274,
    "v": 3662
  },
  {
    "dt": "2020.10.30 18:00",
    "o": 0.90272,
    "h": 0.90273,
    "l": 0.9003,
    "c": 0.90054,
    "v": 4375
  },
  {
    "dt": "2020.10.30 19:00",
    "o": 0.90051,
    "h": 0.90133,
    "l": 0.89871,
    "c": 0.8994,
    "v": 3418
  },
  {
    "dt": "2020.10.30 20:00",
    "o": 0.89939,
    "h": 0.89976,
    "l": 0.89867,
    "c": 0.89974,
    "v": 2290
  },
  {
    "dt": "2020.10.30 21:00",
    "o": 0.89978,
    "h": 0.89997,
    "l": 0.89832,
    "c": 0.89854,
    "v": 2319
  },
  {
    "dt": "2020.10.30 22:00",
    "o": 0.89854,
    "h": 0.89929,
    "l": 0.89847,
    "c": 0.89896,
    "v": 2333
  },
  {
    "dt": "2020.10.30 23:00",
    "o": 0.89895,
    "h": 0.89924,
    "l": 0.89832,
    "c": 0.89833,
    "v": 1837
  }
]