[
  {
    "dt": "2021.03.01 00:00",
    "o": 0.86632,
    "h": 0.86645,
    "l": 0.8655,
    "c": 0.86601,
    "v": 1433
  },
  {
    "dt": "2021.03.01 01:00",
    "o": 0.86601,
    "h": 0.86673,
    "l": 0.86471,
    "c": 0.86513,
    "v": 1898
  },
  {
    "dt": "2021.03.01 02:00",
    "o": 0.86513,
    "h": 0.86514,
    "l": 0.86439,
    "c": 0.86439,
    "v": 2240
  },
  {
    "dt": "2021.03.01 03:00",
    "o": 0.86438,
    "h": 0.86478,
    "l": 0.86382,
    "c": 0.86398,
    "v": 2349
  },
  {
    "dt": "2021.03.01 04:00",
    "o": 0.86399,
    "h": 0.86405,
    "l": 0.86349,
    "c": 0.86373,
    "v": 1771
  },
  {
    "dt": "2021.03.01 05:00",
    "o": 0.86375,
    "h": 0.86421,
    "l": 0.86364,
    "c": 0.86375,
    "v": 1488
  },
  {
    "dt": "2021.03.01 06:00",
    "o": 0.86376,
    "h": 0.86469,
    "l": 0.86374,
    "c": 0.86458,
    "v": 1598
  },
  {
    "dt": "2021.03.01 07:00",
    "o": 0.86459,
    "h": 0.86462,
    "l": 0.8639,
    "c": 0.8641,
    "v": 1772
  },
  {
    "dt": "2021.03.01 08:00",
    "o": 0.86415,
    "h": 0.86435,
    "l": 0.86364,
    "c": 0.86395,
    "v": 1625
  },
  {
    "dt": "2021.03.01 09:00",
    "o": 0.86398,
    "h": 0.86498,
    "l": 0.86344,
    "c": 0.86474,
    "v": 2557
  },
  {
    "dt": "2021.03.01 10:00",
    "o": 0.86481,
    "h": 0.86518,
    "l": 0.86403,
    "c": 0.86406,
    "v": 3687
  },
  {
    "dt": "2021.03.01 11:00",
    "o": 0.86408,
    "h": 0.86435,
    "l": 0.86258,
    "c": 0.86314,
    "v": 3248
  },
  {
    "dt": "2021.03.01 12:00",
    "o": 0.86312,
    "h": 0.86378,
    "l": 0.8627,
    "c": 0.86297,
    "v": 2628
  },
  {
    "dt": "2021.03.01 13:00",
    "o": 0.863,
    "h": 0.86398,
    "l": 0.86192,
    "c": 0.86394,
    "v": 2795
  },
  {
    "dt": "2021.03.01 14:00",
    "o": 0.86388,
    "h": 0.8648,
    "l": 0.86346,
    "c": 0.86472,
    "v": 2724
  },
  {
    "dt": "2021.03.01 15:00",
    "o": 0.86471,
    "h": 0.86605,
    "l": 0.86453,
    "c": 0.86461,
    "v": 3346
  },
  {
    "dt": "2021.03.01 16:00",
    "o": 0.86471,
    "h": 0.86595,
    "l": 0.86381,
    "c": 0.86503,
    "v": 4213
  },
  {
    "dt": "2021.03.01 17:00",
    "o": 0.8649,
    "h": 0.865,
    "l": 0.86335,
    "c": 0.8645,
    "v": 4456
  },
  {
    "dt": "2021.03.01 18:00",
    "o": 0.86451,
    "h": 0.86509,
    "l": 0.86374,
    "c": 0.86475,
    "v": 3301
  },
  {
    "dt": "2021.03.01 19:00",
    "o": 0.86476,
    "h": 0.86521,
    "l": 0.8642,
    "c": 0.86497,
    "v": 2824
  },
  {
    "dt": "2021.03.01 20:00",
    "o": 0.86496,
    "h": 0.8654,
    "l": 0.86494,
    "c": 0.86513,
    "v": 2528
  },
  {
    "dt": "2021.03.01 21:00",
    "o": 0.86515,
    "h": 0.86546,
    "l": 0.86488,
    "c": 0.86525,
    "v": 2128
  },
  {
    "dt": "2021.03.01 22:00",
    "o": 0.86517,
    "h": 0.86534,
    "l": 0.86481,
    "c": 0.86507,
    "v": 1790
  },
  {
    "dt": "2021.03.01 23:00",
    "o": 0.86507,
    "h": 0.86531,
    "l": 0.86489,
    "c": 0.86509,
    "v": 976
  },
  {
    "dt": "2021.03.02 00:00",
    "o": 0.86508,
    "h": 0.86523,
    "l": 0.86461,
    "c": 0.86483,
    "v": 418
  },
  {
    "dt": "2021.03.02 01:00",
    "o": 0.86486,
    "h": 0.86528,
    "l": 0.86469,
    "c": 0.86492,
    "v": 959
  },
  {
    "dt": "2021.03.02 02:00",
    "o": 0.86492,
    "h": 0.86506,
    "l": 0.86409,
    "c": 0.86424,
    "v": 1281
  },
  {
    "dt": "2021.03.02 03:00",
    "o": 0.86424,
    "h": 0.8653,
    "l": 0.86421,
    "c": 0.86508,
    "v": 2286
  },
  {
    "dt": "2021.03.02 04:00",
    "o": 0.86509,
    "h": 0.86608,
    "l": 0.86488,
    "c": 0.86586,
    "v": 2256
  },
  {
    "dt": "2021.03.02 05:00",
    "o": 0.86585,
    "h": 0.86592,
    "l": 0.86538,
    "c": 0.86565,
    "v": 2305
  },
  {
    "dt": "2021.03.02 06:00",
    "o": 0.86565,
    "h": 0.8666,
    "l": 0.86552,
    "c": 0.86655,
    "v": 1931
  },
  {
    "dt": "2021.03.02 07:00",
    "o": 0.86656,
    "h": 0.86664,
    "l": 0.86574,
    "c": 0.8659,
    "v": 1764
  },
  {
    "dt": "2021.03.02 08:00",
    "o": 0.86589,
    "h": 0.86618,
    "l": 0.86534,
    "c": 0.86557,
    "v": 1689
  },
  {
    "dt": "2021.03.02 09:00",
    "o": 0.86556,
    "h": 0.86593,
    "l": 0.86489,
    "c": 0.86507,
    "v": 2889
  },
  {
    "dt": "2021.03.02 10:00",
    "o": 0.86506,
    "h": 0.86525,
    "l": 0.86399,
    "c": 0.86471,
    "v": 3284
  },
  {
    "dt": "2021.03.02 11:00",
    "o": 0.86472,
    "h": 0.86608,
    "l": 0.86465,
    "c": 0.86571,
    "v": 3423
  },
  {
    "dt": "2021.03.02 12:00",
    "o": 0.86574,
    "h": 0.86632,
    "l": 0.86509,
    "c": 0.86539,
    "v": 2994
  },
  {
    "dt": "2021.03.02 13:00",
    "o": 0.86536,
    "h": 0.8654,
    "l": 0.86379,
    "c": 0.8638,
    "v": 2953
  },
  {
    "dt": "2021.03.02 14:00",
    "o": 0.86381,
    "h": 0.86451,
    "l": 0.86362,
    "c": 0.86392,
    "v": 2918
  },
  {
    "dt": "2021.03.02 15:00",
    "o": 0.86385,
    "h": 0.86508,
    "l": 0.86372,
    "c": 0.86463,
    "v": 3137
  },
  {
    "dt": "2021.03.02 16:00",
    "o": 0.86465,
    "h": 0.86506,
    "l": 0.86424,
    "c": 0.86434,
    "v": 3837
  },
  {
    "dt": "2021.03.02 17:00",
    "o": 0.86431,
    "h": 0.86513,
    "l": 0.86401,
    "c": 0.86476,
    "v": 3918
  },
  {
    "dt": "2021.03.02 18:00",
    "o": 0.86477,
    "h": 0.86576,
    "l": 0.86414,
    "c": 0.86509,
    "v": 3805
  },
  {
    "dt": "2021.03.02 19:00",
    "o": 0.86508,
    "h": 0.8652,
    "l": 0.86459,
    "c": 0.86474,
    "v": 2336
  },
  {
    "dt": "2021.03.02 20:00",
    "o": 0.86474,
    "h": 0.86507,
    "l": 0.86466,
    "c": 0.86476,
    "v": 2143
  },
  {
    "dt": "2021.03.02 21:00",
    "o": 0.86476,
    "h": 0.86573,
    "l": 0.86463,
    "c": 0.86531,
    "v": 2275
  },
  {
    "dt": "2021.03.02 22:00",
    "o": 0.86528,
    "h": 0.86573,
    "l": 0.86518,
    "c": 0.86554,
    "v": 1767
  },
  {
    "dt": "2021.03.02 23:00",
    "o": 0.86553,
    "h": 0.86613,
    "l": 0.86545,
    "c": 0.86578,
    "v": 1156
  },
  {
    "dt": "2021.03.03 00:00",
    "o": 0.86576,
    "h": 0.86605,
    "l": 0.86519,
    "c": 0.86604,
    "v": 543
  },
  {
    "dt": "2021.03.03 01:00",
    "o": 0.86604,
    "h": 0.86615,
    "l": 0.8658,
    "c": 0.86598,
    "v": 1025
  },
  {
    "dt": "2021.03.03 02:00",
    "o": 0.86592,
    "h": 0.86616,
    "l": 0.86576,
    "c": 0.86589,
    "v": 1319
  },
  {
    "dt": "2021.03.03 03:00",
    "o": 0.8659,
    "h": 0.8663,
    "l": 0.86573,
    "c": 0.866,
    "v": 1728
  },
  {
    "dt": "2021.03.03 04:00",
    "o": 0.86601,
    "h": 0.86606,
    "l": 0.86547,
    "c": 0.86548,
    "v": 1327
  },
  {
    "dt": "2021.03.03 05:00",
    "o": 0.86554,
    "h": 0.8657,
    "l": 0.86525,
    "c": 0.86529,
    "v": 1396
  },
  {
    "dt": "2021.03.03 06:00",
    "o": 0.86527,
    "h": 0.86611,
    "l": 0.86525,
    "c": 0.8661,
    "v": 1195
  },
  {
    "dt": "2021.03.03 07:00",
    "o": 0.8661,
    "h": 0.86637,
    "l": 0.86589,
    "c": 0.86603,
    "v": 1156
  },
  {
    "dt": "2021.03.03 08:00",
    "o": 0.86603,
    "h": 0.86672,
    "l": 0.8656,
    "c": 0.86573,
    "v": 1363
  },
  {
    "dt": "2021.03.03 09:00",
    "o": 0.86573,
    "h": 0.86616,
    "l": 0.86466,
    "c": 0.86491,
    "v": 2732
  },
  {
    "dt": "2021.03.03 10:00",
    "o": 0.8649,
    "h": 0.86511,
    "l": 0.86421,
    "c": 0.8648,
    "v": 3182
  },
  {
    "dt": "2021.03.03 11:00",
    "o": 0.8648,
    "h": 0.86548,
    "l": 0.86344,
    "c": 0.86543,
    "v": 3117
  },
  {
    "dt": "2021.03.03 12:00",
    "o": 0.86541,
    "h": 0.86541,
    "l": 0.86404,
    "c": 0.86412,
    "v": 2612
  },
  {
    "dt": "2021.03.03 13:00",
    "o": 0.86411,
    "h": 0.86545,
    "l": 0.86378,
    "c": 0.86443,
    "v": 2711
  },
  {
    "dt": "2021.03.03 14:00",
    "o": 0.86438,
    "h": 0.86487,
    "l": 0.86323,
    "c": 0.86359,
    "v": 2638
  },
  {
    "dt": "2021.03.03 15:00",
    "o": 0.86359,
    "h": 0.86409,
    "l": 0.86213,
    "c": 0.86277,
    "v": 4046
  },
  {
    "dt": "2021.03.03 16:00",
    "o": 0.86279,
    "h": 0.8643,
    "l": 0.86248,
    "c": 0.86398,
    "v": 4080
  },
  {
    "dt": "2021.03.03 17:00",
    "o": 0.86399,
    "h": 0.86578,
    "l": 0.86367,
    "c": 0.86388,
    "v": 4754
  },
  {
    "dt": "2021.03.03 18:00",
    "o": 0.86384,
    "h": 0.86428,
    "l": 0.86314,
    "c": 0.86366,
    "v": 3864
  },
  {
    "dt": "2021.03.03 19:00",
    "o": 0.86365,
    "h": 0.86473,
    "l": 0.8633,
    "c": 0.86386,
    "v": 3186
  },
  {
    "dt": "2021.03.03 20:00",
    "o": 0.86385,
    "h": 0.8646,
    "l": 0.86347,
    "c": 0.86409,
    "v": 2757
  },
  {
    "dt": "2021.03.03 21:00",
    "o": 0.86408,
    "h": 0.8646,
    "l": 0.86403,
    "c": 0.86441,
    "v": 2671
  },
  {
    "dt": "2021.03.03 22:00",
    "o": 0.86445,
    "h": 0.86486,
    "l": 0.8641,
    "c": 0.86447,
    "v": 2376
  },
  {
    "dt": "2021.03.03 23:00",
    "o": 0.86445,
    "h": 0.86479,
    "l": 0.86445,
    "c": 0.86472,
    "v": 1250
  },
  {
    "dt": "2021.03.04 00:00",
    "o": 0.86415,
    "h": 0.86473,
    "l": 0.86393,
    "c": 0.86445,
    "v": 549
  },
  {
    "dt": "2021.03.04 01:00",
    "o": 0.8644,
    "h": 0.86525,
    "l": 0.86437,
    "c": 0.86521,
    "v": 1350
  },
  {
    "dt": "2021.03.04 02:00",
    "o": 0.86521,
    "h": 0.86528,
    "l": 0.8649,
    "c": 0.86496,
    "v": 1528
  },
  {
    "dt": "2021.03.04 03:00",
    "o": 0.86494,
    "h": 0.86519,
    "l": 0.86458,
    "c": 0.86509,
    "v": 1948
  },
  {
    "dt": "2021.03.04 04:00",
    "o": 0.86509,
    "h": 0.86516,
    "l": 0.86441,
    "c": 0.86479,
    "v": 1562
  },
  {
    "dt": "2021.03.04 05:00",
    "o": 0.86481,
    "h": 0.8649,
    "l": 0.86432,
    "c": 0.86434,
    "v": 1319
  },
  {
    "dt": "2021.03.04 06:00",
    "o": 0.86434,
    "h": 0.86465,
    "l": 0.86386,
    "c": 0.864,
    "v": 1874
  },
  {
    "dt": "2021.03.04 07:00",
    "o": 0.86399,
    "h": 0.86403,
    "l": 0.86364,
    "c": 0.86383,
    "v": 1821
  },
  {
    "dt": "2021.03.04 08:00",
    "o": 0.86384,
    "h": 0.86426,
    "l": 0.86363,
    "c": 0.86382,
    "v": 1739
  },
  {
    "dt": "2021.03.04 09:00",
    "o": 0.86387,
    "h": 0.864,
    "l": 0.86301,
    "c": 0.86352,
    "v": 2361
  },
  {
    "dt": "2021.03.04 10:00",
    "o": 0.86358,
    "h": 0.86419,
    "l": 0.8628,
    "c": 0.86378,
    "v": 3692
  },
  {
    "dt": "2021.03.04 11:00",
    "o": 0.8638,
    "h": 0.86429,
    "l": 0.86317,
    "c": 0.86366,
    "v": 3309
  },
  {
    "dt": "2021.03.04 12:00",
    "o": 0.8637,
    "h": 0.86443,
    "l": 0.8636,
    "c": 0.86398,
    "v": 2808
  },
  {
    "dt": "2021.03.04 13:00",
    "o": 0.86397,
    "h": 0.86472,
    "l": 0.8629,
    "c": 0.86332,
    "v": 2879
  },
  {
    "dt": "2021.03.04 14:00",
    "o": 0.86334,
    "h": 0.86348,
    "l": 0.86227,
    "c": 0.86254,
    "v": 2807
  },
  {
    "dt": "2021.03.04 15:00",
    "o": 0.86252,
    "h": 0.86298,
    "l": 0.86103,
    "c": 0.86194,
    "v": 3294
  },
  {
    "dt": "2021.03.04 16:00",
    "o": 0.86195,
    "h": 0.86237,
    "l": 0.86095,
    "c": 0.8611,
    "v": 3724
  },
  {
    "dt": "2021.03.04 17:00",
    "o": 0.8611,
    "h": 0.86134,
    "l": 0.85961,
    "c": 0.86045,
    "v": 4413
  },
  {
    "dt": "2021.03.04 18:00",
    "o": 0.86042,
    "h": 0.86133,
    "l": 0.85955,
    "c": 0.8603,
    "v": 3721
  },
  {
    "dt": "2021.03.04 19:00",
    "o": 0.86033,
    "h": 0.86143,
    "l": 0.86002,
    "c": 0.86138,
    "v": 4794
  },
  {
    "dt": "2021.03.04 20:00",
    "o": 0.86131,
    "h": 0.86197,
    "l": 0.86022,
    "c": 0.86176,
    "v": 4724
  },
  {
    "dt": "2021.03.04 21:00",
    "o": 0.86176,
    "h": 0.86195,
    "l": 0.86077,
    "c": 0.86153,
    "v": 4054
  },
  {
    "dt": "2021.03.04 22:00",
    "o": 0.86154,
    "h": 0.8622,
    "l": 0.86129,
    "c": 0.86174,
    "v": 3718
  },
  {
    "dt": "2021.03.04 23:00",
    "o": 0.86172,
    "h": 0.86181,
    "l": 0.86135,
    "c": 0.86161,
    "v": 1549
  },
  {
    "dt": "2021.03.05 00:00",
    "o": 0.86104,
    "h": 0.86177,
    "l": 0.86083,
    "c": 0.86146,
    "v": 1196
  },
  {
    "dt": "2021.03.05 01:00",
    "o": 0.86155,
    "h": 0.86202,
    "l": 0.86113,
    "c": 0.86126,
    "v": 1344
  },
  {
    "dt": "2021.03.05 02:00",
    "o": 0.86127,
    "h": 0.86146,
    "l": 0.861,
    "c": 0.86125,
    "v": 1634
  },
  {
    "dt": "2021.03.05 03:00",
    "o": 0.86125,
    "h": 0.86205,
    "l": 0.86118,
    "c": 0.86152,
    "v": 2396
  },
  {
    "dt": "2021.03.05 04:00",
    "o": 0.86153,
    "h": 0.86176,
    "l": 0.86075,
    "c": 0.86091,
    "v": 2125
  },
  {
    "dt": "2021.03.05 05:00",
    "o": 0.86091,
    "h": 0.86101,
    "l": 0.86017,
    "c": 0.8602,
    "v": 1971
  },
  {
    "dt": "2021.03.05 06:00",
    "o": 0.86018,
    "h": 0.86105,
    "l": 0.86018,
    "c": 0.86103,
    "v": 1591
  },
  {
    "dt": "2021.03.05 07:00",
    "o": 0.86103,
    "h": 0.86147,
    "l": 0.86094,
    "c": 0.86118,
    "v": 1747
  },
  {
    "dt": "2021.03.05 08:00",
    "o": 0.86118,
    "h": 0.86142,
    "l": 0.86077,
    "c": 0.86084,
    "v": 1885
  },
  {
    "dt": "2021.03.05 09:00",
    "o": 0.86083,
    "h": 0.86257,
    "l": 0.8608,
    "c": 0.86137,
    "v": 2851
  },
  {
    "dt": "2021.03.05 10:00",
    "o": 0.86137,
    "h": 0.86181,
    "l": 0.86066,
    "c": 0.8617,
    "v": 3937
  },
  {
    "dt": "2021.03.05 11:00",
    "o": 0.8617,
    "h": 0.86333,
    "l": 0.8617,
    "c": 0.86301,
    "v": 3478
  },
  {
    "dt": "2021.03.05 12:00",
    "o": 0.86297,
    "h": 0.86511,
    "l": 0.86292,
    "c": 0.86454,
    "v": 2831
  },
  {
    "dt": "2021.03.05 13:00",
    "o": 0.86456,
    "h": 0.86483,
    "l": 0.86302,
    "c": 0.86358,
    "v": 3039
  },
  {
    "dt": "2021.03.05 14:00",
    "o": 0.86357,
    "h": 0.86397,
    "l": 0.86304,
    "c": 0.8631,
    "v": 2949
  },
  {
    "dt": "2021.03.05 15:00",
    "o": 0.86303,
    "h": 0.86383,
    "l": 0.86189,
    "c": 0.86194,
    "v": 4265
  },
  {
    "dt": "2021.03.05 16:00",
    "o": 0.86194,
    "h": 0.86293,
    "l": 0.86074,
    "c": 0.86233,
    "v": 4797
  },
  {
    "dt": "2021.03.05 17:00",
    "o": 0.86235,
    "h": 0.86287,
    "l": 0.86136,
    "c": 0.86168,
    "v": 5142
  },
  {
    "dt": "2021.03.05 18:00",
    "o": 0.86167,
    "h": 0.8633,
    "l": 0.86153,
    "c": 0.86217,
    "v": 4303
  },
  {
    "dt": "2021.03.05 19:00",
    "o": 0.86219,
    "h": 0.86288,
    "l": 0.86152,
    "c": 0.86156,
    "v": 3554
  },
  {
    "dt": "2021.03.05 20:00",
    "o": 0.86157,
    "h": 0.86166,
    "l": 0.86076,
    "c": 0.8609,
    "v": 3134
  },
  {
    "dt": "2021.03.05 21:00",
    "o": 0.8609,
    "h": 0.86112,
    "l": 0.86048,
    "c": 0.86052,
    "v": 2320
  },
  {
    "dt": "2021.03.05 22:00",
    "o": 0.86053,
    "h": 0.86087,
    "l": 0.86039,
    "c": 0.86048,
    "v": 2185
  },
  {
    "dt": "2021.03.05 23:00",
    "o": 0.86048,
    "h": 0.86127,
    "l": 0.86043,
    "c": 0.86088,
    "v": 1686
  },
  {
    "dt": "2021.03.08 00:00",
    "o": 0.86205,
    "h": 0.86231,
    "l": 0.8605,
    "c": 0.86092,
    "v": 1010
  },
  {
    "dt": "2021.03.08 01:00",
    "o": 0.86103,
    "h": 0.86114,
    "l": 0.86032,
    "c": 0.86099,
    "v": 2496
  },
  {
    "dt": "2021.03.08 02:00",
    "o": 0.86098,
    "h": 0.86142,
    "l": 0.86065,
    "c": 0.86076,
    "v": 1449
  },
  {
    "dt": "2021.03.08 03:00",
    "o": 0.86075,
    "h": 0.8611,
    "l": 0.8606,
    "c": 0.86109,
    "v": 1826
  },
  {
    "dt": "2021.03.08 04:00",
    "o": 0.86106,
    "h": 0.86156,
    "l": 0.86089,
    "c": 0.86124,
    "v": 2105
  },
  {
    "dt": "2021.03.08 05:00",
    "o": 0.86124,
    "h": 0.86161,
    "l": 0.861,
    "c": 0.86158,
    "v": 1777
  },
  {
    "dt": "2021.03.08 06:00",
    "o": 0.86158,
    "h": 0.86168,
    "l": 0.861,
    "c": 0.86114,
    "v": 1455
  },
  {
    "dt": "2021.03.08 07:00",
    "o": 0.86114,
    "h": 0.8612,
    "l": 0.86091,
    "c": 0.86096,
    "v": 1955
  },
  {
    "dt": "2021.03.08 08:00",
    "o": 0.86096,
    "h": 0.86123,
    "l": 0.86063,
    "c": 0.86087,
    "v": 1798
  },
  {
    "dt": "2021.03.08 09:00",
    "o": 0.86093,
    "h": 0.86115,
    "l": 0.8598,
    "c": 0.86013,
    "v": 2917
  },
  {
    "dt": "2021.03.08 10:00",
    "o": 0.86008,
    "h": 0.86009,
    "l": 0.85866,
    "c": 0.85938,
    "v": 3579
  },
  {
    "dt": "2021.03.08 11:00",
    "o": 0.85938,
    "h": 0.85964,
    "l": 0.85804,
    "c": 0.85827,
    "v": 3261
  },
  {
    "dt": "2021.03.08 12:00",
    "o": 0.85829,
    "h": 0.85896,
    "l": 0.8575,
    "c": 0.85792,
    "v": 2950
  },
  {
    "dt": "2021.03.08 13:00",
    "o": 0.85792,
    "h": 0.85911,
    "l": 0.85724,
    "c": 0.85774,
    "v": 3205
  },
  {
    "dt": "2021.03.08 14:00",
    "o": 0.85781,
    "h": 0.85847,
    "l": 0.85726,
    "c": 0.85798,
    "v": 3446
  },
  {
    "dt": "2021.03.08 15:00",
    "o": 0.85797,
    "h": 0.858,
    "l": 0.8567,
    "c": 0.85706,
    "v": 3815
  },
  {
    "dt": "2021.03.08 16:00",
    "o": 0.85705,
    "h": 0.85901,
    "l": 0.85703,
    "c": 0.85897,
    "v": 4242
  },
  {
    "dt": "2021.03.08 17:00",
    "o": 0.85898,
    "h": 0.85939,
    "l": 0.85821,
    "c": 0.8584,
    "v": 4601
  },
  {
    "dt": "2021.03.08 18:00",
    "o": 0.85843,
    "h": 0.85878,
    "l": 0.85776,
    "c": 0.85798,
    "v": 3644
  },
  {
    "dt": "2021.03.08 19:00",
    "o": 0.85796,
    "h": 0.85803,
    "l": 0.85665,
    "c": 0.85669,
    "v": 2978
  },
  {
    "dt": "2021.03.08 20:00",
    "o": 0.85669,
    "h": 0.85715,
    "l": 0.85663,
    "c": 0.85671,
    "v": 2700
  },
  {
    "dt": "2021.03.08 21:00",
    "o": 0.85674,
    "h": 0.85721,
    "l": 0.85653,
    "c": 0.85688,
    "v": 2646
  },
  {
    "dt": "2021.03.08 22:00",
    "o": 0.85691,
    "h": 0.85718,
    "l": 0.85681,
    "c": 0.85712,
    "v": 2250
  },
  {
    "dt": "2021.03.08 23:00",
    "o": 0.85713,
    "h": 0.85733,
    "l": 0.85693,
    "c": 0.85696,
    "v": 1024
  },
  {
    "dt": "2021.03.09 00:00",
    "o": 0.85682,
    "h": 0.85731,
    "l": 0.85681,
    "c": 0.8573,
    "v": 364
  },
  {
    "dt": "2021.03.09 01:00",
    "o": 0.85712,
    "h": 0.85738,
    "l": 0.85701,
    "c": 0.85729,
    "v": 927
  },
  {
    "dt": "2021.03.09 02:00",
    "o": 0.85729,
    "h": 0.85766,
    "l": 0.85711,
    "c": 0.85713,
    "v": 1864
  },
  {
    "dt": "2021.03.09 03:00",
    "o": 0.85713,
    "h": 0.8574,
    "l": 0.8569,
    "c": 0.8573,
    "v": 2445
  },
  {
    "dt": "2021.03.09 04:00",
    "o": 0.8573,
    "h": 0.8573,
    "l": 0.85668,
    "c": 0.85685,
    "v": 2579
  },
  {
    "dt": "2021.03.09 05:00",
    "o": 0.85682,
    "h": 0.85702,
    "l": 0.85642,
    "c": 0.8568,
    "v": 2301
  },
  {
    "dt": "2021.03.09 06:00",
    "o": 0.85681,
    "h": 0.85681,
    "l": 0.8564,
    "c": 0.85657,
    "v": 1679
  },
  {
    "dt": "2021.03.09 07:00",
    "o": 0.85656,
    "h": 0.85675,
    "l": 0.85617,
    "c": 0.85648,
    "v": 1747
  },
  {
    "dt": "2021.03.09 08:00",
    "o": 0.85646,
    "h": 0.85707,
    "l": 0.85644,
    "c": 0.85695,
    "v": 1609
  },
  {
    "dt": "2021.03.09 09:00",
    "o": 0.85695,
    "h": 0.85751,
    "l": 0.85565,
    "c": 0.85595,
    "v": 3150
  },
  {
    "dt": "2021.03.09 10:00",
    "o": 0.85594,
    "h": 0.85721,
    "l": 0.85554,
    "c": 0.85623,
    "v": 3638
  },
  {
    "dt": "2021.03.09 11:00",
    "o": 0.85622,
    "h": 0.85714,
    "l": 0.85609,
    "c": 0.85667,
    "v": 3152
  },
  {
    "dt": "2021.03.09 12:00",
    "o": 0.85664,
    "h": 0.85855,
    "l": 0.85664,
    "c": 0.85735,
    "v": 2956
  },
  {
    "dt": "2021.03.09 13:00",
    "o": 0.85737,
    "h": 0.85802,
    "l": 0.85737,
    "c": 0.85796,
    "v": 2899
  },
  {
    "dt": "2021.03.09 14:00",
    "o": 0.85795,
    "h": 0.85805,
    "l": 0.8569,
    "c": 0.85715,
    "v": 2926
  },
  {
    "dt": "2021.03.09 15:00",
    "o": 0.85711,
    "h": 0.85725,
    "l": 0.85602,
    "c": 0.85622,
    "v": 3277
  },
  {
    "dt": "2021.03.09 16:00",
    "o": 0.85622,
    "h": 0.85637,
    "l": 0.85511,
    "c": 0.85526,
    "v": 4002
  },
  {
    "dt": "2021.03.09 17:00",
    "o": 0.85525,
    "h": 0.85639,
    "l": 0.85496,
    "c": 0.85541,
    "v": 3952
  },
  {
    "dt": "2021.03.09 18:00",
    "o": 0.85543,
    "h": 0.85636,
    "l": 0.85522,
    "c": 0.85603,
    "v": 3349
  },
  {
    "dt": "2021.03.09 19:00",
    "o": 0.85602,
    "h": 0.85614,
    "l": 0.85546,
    "c": 0.85566,
    "v": 2458
  },
  {
    "dt": "2021.03.09 20:00",
    "o": 0.85565,
    "h": 0.85614,
    "l": 0.85544,
    "c": 0.85608,
    "v": 2599
  },
  {
    "dt": "2021.03.09 21:00",
    "o": 0.85607,
    "h": 0.85659,
    "l": 0.85586,
    "c": 0.8562,
    "v": 1905
  },
  {
    "dt": "2021.03.09 22:00",
    "o": 0.85621,
    "h": 0.8567,
    "l": 0.85591,
    "c": 0.85661,
    "v": 1706
  },
  {
    "dt": "2021.03.09 23:00",
    "o": 0.85661,
    "h": 0.85689,
    "l": 0.85646,
    "c": 0.85673,
    "v": 1075
  },
  {
    "dt": "2021.03.10 00:00",
    "o": 0.85589,
    "h": 0.85671,
    "l": 0.85578,
    "c": 0.85643,
    "v": 580
  },
  {
    "dt": "2021.03.10 01:00",
    "o": 0.85645,
    "h": 0.85697,
    "l": 0.85643,
    "c": 0.85656,
    "v": 812
  },
  {
    "dt": "2021.03.10 02:00",
    "o": 0.85657,
    "h": 0.85662,
    "l": 0.85617,
    "c": 0.85633,
    "v": 1135
  },
  {
    "dt": "2021.03.10 03:00",
    "o": 0.85634,
    "h": 0.85698,
    "l": 0.85627,
    "c": 0.85681,
    "v": 1692
  },
  {
    "dt": "2021.03.10 04:00",
    "o": 0.85673,
    "h": 0.85698,
    "l": 0.85651,
    "c": 0.85687,
    "v": 1755
  },
  {
    "dt": "2021.03.10 05:00",
    "o": 0.85688,
    "h": 0.85698,
    "l": 0.85645,
    "c": 0.8566,
    "v": 1550
  },
  {
    "dt": "2021.03.10 06:00",
    "o": 0.8566,
    "h": 0.85676,
    "l": 0.85647,
    "c": 0.85675,
    "v": 1112
  },
  {
    "dt": "2021.03.10 07:00",
    "o": 0.85674,
    "h": 0.85717,
    "l": 0.85647,
    "c": 0.85681,
    "v": 1576
  },
  {
    "dt": "2021.03.10 08:00",
    "o": 0.85684,
    "h": 0.85724,
    "l": 0.85623,
    "c": 0.85628,
    "v": 1501
  },
  {
    "dt": "2021.03.10 09:00",
    "o": 0.85628,
    "h": 0.85655,
    "l": 0.85588,
    "c": 0.85593,
    "v": 2065
  },
  {
    "dt": "2021.03.10 10:00",
    "o": 0.8559,
    "h": 0.85629,
    "l": 0.85491,
    "c": 0.85596,
    "v": 2866
  },
  {
    "dt": "2021.03.10 11:00",
    "o": 0.85593,
    "h": 0.85663,
    "l": 0.85535,
    "c": 0.85547,
    "v": 2574
  },
  {
    "dt": "2021.03.10 12:00",
    "o": 0.85548,
    "h": 0.85673,
    "l": 0.85526,
    "c": 0.85626,
    "v": 2541
  },
  {
    "dt": "2021.03.10 13:00",
    "o": 0.85629,
    "h": 0.85729,
    "l": 0.85609,
    "c": 0.85727,
    "v": 2574
  },
  {
    "dt": "2021.03.10 14:00",
    "o": 0.85726,
    "h": 0.85783,
    "l": 0.85603,
    "c": 0.8562,
    "v": 2662
  },
  {
    "dt": "2021.03.10 15:00",
    "o": 0.85621,
    "h": 0.85698,
    "l": 0.85592,
    "c": 0.85641,
    "v": 4043
  },
  {
    "dt": "2021.03.10 16:00",
    "o": 0.85639,
    "h": 0.85649,
    "l": 0.8554,
    "c": 0.85622,
    "v": 4242
  },
  {
    "dt": "2021.03.10 17:00",
    "o": 0.85621,
    "h": 0.8569,
    "l": 0.85551,
    "c": 0.85556,
    "v": 4152
  },
  {
    "dt": "2021.03.10 18:00",
    "o": 0.85552,
    "h": 0.85658,
    "l": 0.85539,
    "c": 0.85607,
    "v": 3198
  },
  {
    "dt": "2021.03.10 19:00",
    "o": 0.85604,
    "h": 0.85657,
    "l": 0.85602,
    "c": 0.85631,
    "v": 2490
  },
  {
    "dt": "2021.03.10 20:00",
    "o": 0.85632,
    "h": 0.85666,
    "l": 0.85594,
    "c": 0.85594,
    "v": 3395
  },
  {
    "dt": "2021.03.10 21:00",
    "o": 0.85594,
    "h": 0.85606,
    "l": 0.85544,
    "c": 0.85551,
    "v": 2164
  },
  {
    "dt": "2021.03.10 22:00",
    "o": 0.85552,
    "h": 0.85601,
    "l": 0.85552,
    "c": 0.85598,
    "v": 1601
  },
  {
    "dt": "2021.03.10 23:00",
    "o": 0.85596,
    "h": 0.856,
    "l": 0.85559,
    "c": 0.8559,
    "v": 1168
  },
  {
    "dt": "2021.03.11 00:00",
    "o": 0.8559,
    "h": 0.85625,
    "l": 0.8555,
    "c": 0.85563,
    "v": 960
  },
  {
    "dt": "2021.03.11 01:00",
    "o": 0.85568,
    "h": 0.856,
    "l": 0.85557,
    "c": 0.85589,
    "v": 452
  },
  {
    "dt": "2021.03.11 02:00",
    "o": 0.85588,
    "h": 0.85605,
    "l": 0.85562,
    "c": 0.85591,
    "v": 1021
  },
  {
    "dt": "2021.03.11 03:00",
    "o": 0.8559,
    "h": 0.85616,
    "l": 0.85582,
    "c": 0.85592,
    "v": 1597
  },
  {
    "dt": "2021.03.11 04:00",
    "o": 0.85595,
    "h": 0.8563,
    "l": 0.85589,
    "c": 0.85621,
    "v": 1673
  },
  {
    "dt": "2021.03.11 05:00",
    "o": 0.85621,
    "h": 0.85632,
    "l": 0.85602,
    "c": 0.85626,
    "v": 1223
  },
  {
    "dt": "2021.03.11 06:00",
    "o": 0.85625,
    "h": 0.8563,
    "l": 0.85564,
    "c": 0.85574,
    "v": 1065
  },
  {
    "dt": "2021.03.11 07:00",
    "o": 0.85574,
    "h": 0.85585,
    "l": 0.85548,
    "c": 0.85556,
    "v": 1397
  },
  {
    "dt": "2021.03.11 08:00",
    "o": 0.85556,
    "h": 0.85606,
    "l": 0.85543,
    "c": 0.85587,
    "v": 1481
  },
  {
    "dt": "2021.03.11 09:00",
    "o": 0.85592,
    "h": 0.8565,
    "l": 0.8551,
    "c": 0.85619,
    "v": 2457
  },
  {
    "dt": "2021.03.11 10:00",
    "o": 0.85617,
    "h": 0.85811,
    "l": 0.85606,
    "c": 0.85777,
    "v": 3302
  },
  {
    "dt": "2021.03.11 11:00",
    "o": 0.85781,
    "h": 0.85807,
    "l": 0.8573,
    "c": 0.85752,
    "v": 2642
  },
  {
    "dt": "2021.03.11 12:00",
    "o": 0.85753,
    "h": 0.85771,
    "l": 0.85673,
    "c": 0.85685,
    "v": 2178
  },
  {
    "dt": "2021.03.11 13:00",
    "o": 0.85686,
    "h": 0.85749,
    "l": 0.85666,
    "c": 0.85701,
    "v": 2165
  },
  {
    "dt": "2021.03.11 14:00",
    "o": 0.85703,
    "h": 0.85753,
    "l": 0.85598,
    "c": 0.85629,
    "v": 2765
  },
  {
    "dt": "2021.03.11 15:00",
    "o": 0.85629,
    "h": 0.85686,
    "l": 0.85537,
    "c": 0.85608,
    "v": 3858
  },
  {
    "dt": "2021.03.11 16:00",
    "o": 0.85606,
    "h": 0.85658,
    "l": 0.85546,
    "c": 0.85548,
    "v": 3779
  },
  {
    "dt": "2021.03.11 17:00",
    "o": 0.85547,
    "h": 0.85616,
    "l": 0.85476,
    "c": 0.85604,
    "v": 3566
  },
  {
    "dt": "2021.03.11 18:00",
    "o": 0.85605,
    "h": 0.85697,
    "l": 0.85598,
    "c": 0.85672,
    "v": 2771
  },
  {
    "dt": "2021.03.11 19:00",
    "o": 0.85671,
    "h": 0.85717,
    "l": 0.85633,
    "c": 0.85691,
    "v": 2526
  },
  {
    "dt": "2021.03.11 20:00",
    "o": 0.8569,
    "h": 0.85755,
    "l": 0.8569,
    "c": 0.85729,
    "v": 2813
  },
  {
    "dt": "2021.03.11 21:00",
    "o": 0.8573,
    "h": 0.85734,
    "l": 0.85653,
    "c": 0.85653,
    "v": 1894
  },
  {
    "dt": "2021.03.11 22:00",
    "o": 0.85653,
    "h": 0.85699,
    "l": 0.8565,
    "c": 0.85679,
    "v": 1455
  },
  {
    "dt": "2021.03.11 23:00",
    "o": 0.85678,
    "h": 0.85686,
    "l": 0.85631,
    "c": 0.85641,
    "v": 859
  },
  {
    "dt": "2021.03.12 00:00",
    "o": 0.85614,
    "h": 0.85673,
    "l": 0.85601,
    "c": 0.85636,
    "v": 338
  },
  {
    "dt": "2021.03.12 01:00",
    "o": 0.85634,
    "h": 0.85674,
    "l": 0.85628,
    "c": 0.85641,
    "v": 707
  },
  {
    "dt": "2021.03.12 02:00",
    "o": 0.85641,
    "h": 0.85661,
    "l": 0.85602,
    "c": 0.85606,
    "v": 941
  },
  {
    "dt": "2021.03.12 03:00",
    "o": 0.85607,
    "h": 0.85648,
    "l": 0.85578,
    "c": 0.85624,
    "v": 1602
  },
  {
    "dt": "2021.03.12 04:00",
    "o": 0.85625,
    "h": 0.85638,
    "l": 0.85562,
    "c": 0.85573,
    "v": 1839
  },
  {
    "dt": "2021.03.12 05:00",
    "o": 0.8557,
    "h": 0.85599,
    "l": 0.85563,
    "c": 0.85573,
    "v": 1333
  },
  {
    "dt": "2021.03.12 06:00",
    "o": 0.85568,
    "h": 0.85596,
    "l": 0.85562,
    "c": 0.85595,
    "v": 1008
  },
  {
    "dt": "2021.03.12 07:00",
    "o": 0.85594,
    "h": 0.85629,
    "l": 0.85586,
    "c": 0.85594,
    "v": 1163
  },
  {
    "dt": "2021.03.12 08:00",
    "o": 0.85595,
    "h": 0.85655,
    "l": 0.85575,
    "c": 0.85629,
    "v": 1993
  },
  {
    "dt": "2021.03.12 09:00",
    "o": 0.85628,
    "h": 0.85677,
    "l": 0.85603,
    "c": 0.85661,
    "v": 2702
  },
  {
    "dt": "2021.03.12 10:00",
    "o": 0.85665,
    "h": 0.8568,
    "l": 0.85581,
    "c": 0.85581,
    "v": 3444
  },
  {
    "dt": "2021.03.12 11:00",
    "o": 0.85583,
    "h": 0.85656,
    "l": 0.85567,
    "c": 0.85655,
    "v": 3109
  },
  {
    "dt": "2021.03.12 12:00",
    "o": 0.85654,
    "h": 0.85658,
    "l": 0.85533,
    "c": 0.85565,
    "v": 2413
  },
  {
    "dt": "2021.03.12 13:00",
    "o": 0.85566,
    "h": 0.85847,
    "l": 0.85554,
    "c": 0.85817,
    "v": 2948
  },
  {
    "dt": "2021.03.12 14:00",
    "o": 0.85819,
    "h": 0.85869,
    "l": 0.85757,
    "c": 0.85869,
    "v": 2653
  },
  {
    "dt": "2021.03.12 15:00",
    "o": 0.85868,
    "h": 0.85925,
    "l": 0.85813,
    "c": 0.85882,
    "v": 3501
  },
  {
    "dt": "2021.03.12 16:00",
    "o": 0.85881,
    "h": 0.8598,
    "l": 0.85867,
    "c": 0.85895,
    "v": 3834
  },
  {
    "dt": "2021.03.12 17:00",
    "o": 0.85895,
    "h": 0.85964,
    "l": 0.85851,
    "c": 0.85896,
    "v": 3788
  },
  {
    "dt": "2021.03.12 18:00",
    "o": 0.85899,
    "h": 0.85949,
    "l": 0.85814,
    "c": 0.85818,
    "v": 2985
  },
  {
    "dt": "2021.03.12 19:00",
    "o": 0.85818,
    "h": 0.85832,
    "l": 0.85781,
    "c": 0.85813,
    "v": 2146
  },
  {
    "dt": "2021.03.12 20:00",
    "o": 0.85813,
    "h": 0.85887,
    "l": 0.85802,
    "c": 0.85861,
    "v": 1996
  },
  {
    "dt": "2021.03.12 21:00",
    "o": 0.85862,
    "h": 0.85896,
    "l": 0.85808,
    "c": 0.85814,
    "v": 1817
  },
  {
    "dt": "2021.03.12 22:00",
    "o": 0.85814,
    "h": 0.85864,
    "l": 0.858,
    "c": 0.85858,
    "v": 1589
  },
  {
    "dt": "2021.03.12 23:00",
    "o": 0.85857,
    "h": 0.85868,
    "l": 0.85802,
    "c": 0.85806,
    "v": 1376
  },
  {
    "dt": "2021.03.15 00:00",
    "o": 0.85772,
    "h": 0.85814,
    "l": 0.85753,
    "c": 0.85802,
    "v": 253
  },
  {
    "dt": "2021.03.15 01:00",
    "o": 0.85804,
    "h": 0.85833,
    "l": 0.85771,
    "c": 0.8579,
    "v": 936
  },
  {
    "dt": "2021.03.15 02:00",
    "o": 0.85801,
    "h": 0.8582,
    "l": 0.85767,
    "c": 0.85778,
    "v": 1018
  },
  {
    "dt": "2021.03.15 03:00",
    "o": 0.85777,
    "h": 0.8579,
    "l": 0.85744,
    "c": 0.85773,
    "v": 1246
  },
  {
    "dt": "2021.03.15 04:00",
    "o": 0.85774,
    "h": 0.858,
    "l": 0.85754,
    "c": 0.85793,
    "v": 1792
  },
  {
    "dt": "2021.03.15 05:00",
    "o": 0.85792,
    "h": 0.85812,
    "l": 0.85779,
    "c": 0.85795,
    "v": 1770
  },
  {
    "dt": "2021.03.15 06:00",
    "o": 0.85796,
    "h": 0.85831,
    "l": 0.85794,
    "c": 0.85826,
    "v": 1376
  },
  {
    "dt": "2021.03.15 07:00",
    "o": 0.85829,
    "h": 0.85835,
    "l": 0.85758,
    "c": 0.85761,
    "v": 1067
  },
  {
    "dt": "2021.03.15 08:00",
    "o": 0.85757,
    "h": 0.85801,
    "l": 0.85743,
    "c": 0.85792,
    "v": 1729
  },
  {
    "dt": "2021.03.15 09:00",
    "o": 0.85794,
    "h": 0.85829,
    "l": 0.85731,
    "c": 0.85748,
    "v": 1947
  },
  {
    "dt": "2021.03.15 10:00",
    "o": 0.85747,
    "h": 0.85755,
    "l": 0.85612,
    "c": 0.85629,
    "v": 2377
  },
  {
    "dt": "2021.03.15 11:00",
    "o": 0.85625,
    "h": 0.85678,
    "l": 0.85591,
    "c": 0.85603,
    "v": 3014
  },
  {
    "dt": "2021.03.15 12:00",
    "o": 0.85604,
    "h": 0.85632,
    "l": 0.85538,
    "c": 0.85579,
    "v": 2495
  },
  {
    "dt": "2021.03.15 13:00",
    "o": 0.85579,
    "h": 0.85649,
    "l": 0.85539,
    "c": 0.85632,
    "v": 1958
  },
  {
    "dt": "2021.03.15 14:00",
    "o": 0.85631,
    "h": 0.85713,
    "l": 0.85627,
    "c": 0.85711,
    "v": 2266
  },
  {
    "dt": "2021.03.15 15:00",
    "o": 0.85712,
    "h": 0.85713,
    "l": 0.85623,
    "c": 0.8564,
    "v": 2642
  },
  {
    "dt": "2021.03.15 16:00",
    "o": 0.8564,
    "h": 0.85754,
    "l": 0.85631,
    "c": 0.85704,
    "v": 3026
  },
  {
    "dt": "2021.03.15 17:00",
    "o": 0.85705,
    "h": 0.85874,
    "l": 0.857,
    "c": 0.85864,
    "v": 3041
  },
  {
    "dt": "2021.03.15 18:00",
    "o": 0.85864,
    "h": 0.85988,
    "l": 0.8584,
    "c": 0.85943,
    "v": 3084
  },
  {
    "dt": "2021.03.15 19:00",
    "o": 0.85944,
    "h": 0.8597,
    "l": 0.85839,
    "c": 0.85853,
    "v": 2747
  },
  {
    "dt": "2021.03.15 20:00",
    "o": 0.85853,
    "h": 0.85883,
    "l": 0.85809,
    "c": 0.85848,
    "v": 1797
  },
  {
    "dt": "2021.03.15 21:00",
    "o": 0.85847,
    "h": 0.8587,
    "l": 0.85831,
    "c": 0.85855,
    "v": 1489
  },
  {
    "dt": "2021.03.15 22:00",
    "o": 0.85855,
    "h": 0.85877,
    "l": 0.85805,
    "c": 0.85813,
    "v": 1455
  },
  {
    "dt": "2021.03.15 23:00",
    "o": 0.85814,
    "h": 0.85842,
    "l": 0.85799,
    "c": 0.858,
    "v": 924
  },
  {
    "dt": "2021.03.16 00:00",
    "o": 0.85784,
    "h": 0.85811,
    "l": 0.85722,
    "c": 0.85791,
    "v": 306
  },
  {
    "dt": "2021.03.16 01:00",
    "o": 0.85791,
    "h": 0.85819,
    "l": 0.85775,
    "c": 0.85801,
    "v": 615
  },
  {
    "dt": "2021.03.16 02:00",
    "o": 0.85801,
    "h": 0.85811,
    "l": 0.8579,
    "c": 0.85802,
    "v": 483
  },
  {
    "dt": "2021.03.16 03:00",
    "o": 0.85803,
    "h": 0.8587,
    "l": 0.85799,
    "c": 0.85864,
    "v": 824
  },
  {
    "dt": "2021.03.16 04:00",
    "o": 0.85863,
    "h": 0.85906,
    "l": 0.85843,
    "c": 0.85899,
    "v": 1359
  },
  {
    "dt": "2021.03.16 05:00",
    "o": 0.859,
    "h": 0.85989,
    "l": 0.85883,
    "c": 0.85986,
    "v": 1251
  },
  {
    "dt": "2021.03.16 06:00",
    "o": 0.85985,
    "h": 0.86029,
    "l": 0.85961,
    "c": 0.86022,
    "v": 1256
  },
  {
    "dt": "2021.03.16 07:00",
    "o": 0.86023,
    "h": 0.86065,
    "l": 0.86007,
    "c": 0.86054,
    "v": 1016
  },
  {
    "dt": "2021.03.16 08:00",
    "o": 0.86053,
    "h": 0.86088,
    "l": 0.86012,
    "c": 0.86025,
    "v": 1090
  },
  {
    "dt": "2021.03.16 09:00",
    "o": 0.86026,
    "h": 0.86077,
    "l": 0.86005,
    "c": 0.8606,
    "v": 1506
  },
  {
    "dt": "2021.03.16 10:00",
    "o": 0.86064,
    "h": 0.8624,
    "l": 0.86046,
    "c": 0.86174,
    "v": 2425
  },
  {
    "dt": "2021.03.16 11:00",
    "o": 0.86174,
    "h": 0.86322,
    "l": 0.86145,
    "c": 0.863,
    "v": 2550
  },
  {
    "dt": "2021.03.16 12:00",
    "o": 0.86297,
    "h": 0.8639,
    "l": 0.86247,
    "c": 0.86249,
    "v": 2857
  },
  {
    "dt": "2021.03.16 13:00",
    "o": 0.86248,
    "h": 0.86328,
    "l": 0.86222,
    "c": 0.86248,
    "v": 2390
  },
  {
    "dt": "2021.03.16 14:00",
    "o": 0.86254,
    "h": 0.86264,
    "l": 0.86132,
    "c": 0.86176,
    "v": 2646
  },
  {
    "dt": "2021.03.16 15:00",
    "o": 0.86173,
    "h": 0.86187,
    "l": 0.8589,
    "c": 0.85918,
    "v": 3407
  },
  {
    "dt": "2021.03.16 16:00",
    "o": 0.85918,
    "h": 0.85952,
    "l": 0.8569,
    "c": 0.85751,
    "v": 3945
  },
  {
    "dt": "2021.03.16 17:00",
    "o": 0.8575,
    "h": 0.85753,
    "l": 0.85695,
    "c": 0.8573,
    "v": 3035
  },
  {
    "dt": "2021.03.16 18:00",
    "o": 0.85734,
    "h": 0.85737,
    "l": 0.85599,
    "c": 0.85624,
    "v": 3044
  },
  {
    "dt": "2021.03.16 19:00",
    "o": 0.85623,
    "h": 0.85656,
    "l": 0.85578,
    "c": 0.85613,
    "v": 2721
  },
  {
    "dt": "2021.03.16 20:00",
    "o": 0.85613,
    "h": 0.85693,
    "l": 0.85603,
    "c": 0.8567,
    "v": 2485
  },
  {
    "dt": "2021.03.16 21:00",
    "o": 0.85671,
    "h": 0.85698,
    "l": 0.85644,
    "c": 0.8566,
    "v": 1701
  },
  {
    "dt": "2021.03.16 22:00",
    "o": 0.85658,
    "h": 0.85675,
    "l": 0.85634,
    "c": 0.85653,
    "v": 1540
  },
  {
    "dt": "2021.03.16 23:00",
    "o": 0.85652,
    "h": 0.85678,
    "l": 0.85645,
    "c": 0.85659,
    "v": 720
  },
  {
    "dt": "2021.03.17 00:00",
    "o": 0.8565,
    "h": 0.85681,
    "l": 0.85602,
    "c": 0.85624,
    "v": 375
  },
  {
    "dt": "2021.03.17 01:00",
    "o": 0.85629,
    "h": 0.85673,
    "l": 0.85618,
    "c": 0.85618,
    "v": 358
  },
  {
    "dt": "2021.03.17 02:00",
    "o": 0.85618,
    "h": 0.85631,
    "l": 0.85605,
    "c": 0.85607,
    "v": 566
  },
  {
    "dt": "2021.03.17 03:00",
    "o": 0.85606,
    "h": 0.85652,
    "l": 0.85606,
    "c": 0.85652,
    "v": 909
  },
  {
    "dt": "2021.03.17 04:00",
    "o": 0.85652,
    "h": 0.85693,
    "l": 0.85642,
    "c": 0.85665,
    "v": 1574
  },
  {
    "dt": "2021.03.17 05:00",
    "o": 0.85666,
    "h": 0.85707,
    "l": 0.85662,
    "c": 0.85689,
    "v": 1009
  },
  {
    "dt": "2021.03.17 06:00",
    "o": 0.85688,
    "h": 0.85697,
    "l": 0.85671,
    "c": 0.85671,
    "v": 906
  },
  {
    "dt": "2021.03.17 07:00",
    "o": 0.85673,
    "h": 0.85684,
    "l": 0.85633,
    "c": 0.85669,
    "v": 858
  },
  {
    "dt": "2021.03.17 08:00",
    "o": 0.85667,
    "h": 0.85715,
    "l": 0.85662,
    "c": 0.85702,
    "v": 1067
  },
  {
    "dt": "2021.03.17 09:00",
    "o": 0.85702,
    "h": 0.8573,
    "l": 0.85574,
    "c": 0.85577,
    "v": 1366
  },
  {
    "dt": "2021.03.17 10:00",
    "o": 0.85577,
    "h": 0.85591,
    "l": 0.85396,
    "c": 0.85438,
    "v": 1981
  },
  {
    "dt": "2021.03.17 11:00",
    "o": 0.85439,
    "h": 0.85608,
    "l": 0.85406,
    "c": 0.856,
    "v": 2240
  },
  {
    "dt": "2021.03.17 12:00",
    "o": 0.85601,
    "h": 0.85721,
    "l": 0.85579,
    "c": 0.85676,
    "v": 2537
  },
  {
    "dt": "2021.03.17 13:00",
    "o": 0.85675,
    "h": 0.85711,
    "l": 0.85547,
    "c": 0.85603,
    "v": 2003
  },
  {
    "dt": "2021.03.17 14:00",
    "o": 0.85603,
    "h": 0.85635,
    "l": 0.85525,
    "c": 0.85575,
    "v": 2695
  },
  {
    "dt": "2021.03.17 15:00",
    "o": 0.8557,
    "h": 0.85678,
    "l": 0.8556,
    "c": 0.8564,
    "v": 2719
  },
  {
    "dt": "2021.03.17 16:00",
    "o": 0.85641,
    "h": 0.8567,
    "l": 0.85611,
    "c": 0.85617,
    "v": 2467
  },
  {
    "dt": "2021.03.17 17:00",
    "o": 0.85616,
    "h": 0.85829,
    "l": 0.85613,
    "c": 0.85773,
    "v": 2738
  },
  {
    "dt": "2021.03.17 18:00",
    "o": 0.85773,
    "h": 0.8583,
    "l": 0.85694,
    "c": 0.85712,
    "v": 2870
  },
  {
    "dt": "2021.03.17 19:00",
    "o": 0.85711,
    "h": 0.85784,
    "l": 0.85702,
    "c": 0.8577,
    "v": 2517
  },
  {
    "dt": "2021.03.17 20:00",
    "o": 0.85769,
    "h": 0.85965,
    "l": 0.8576,
    "c": 0.85884,
    "v": 2237
  },
  {
    "dt": "2021.03.17 21:00",
    "o": 0.85882,
    "h": 0.86039,
    "l": 0.85876,
    "c": 0.85877,
    "v": 5140
  },
  {
    "dt": "2021.03.17 22:00",
    "o": 0.85878,
    "h": 0.85901,
    "l": 0.85766,
    "c": 0.85768,
    "v": 3572
  },
  {
    "dt": "2021.03.17 23:00",
    "o": 0.85767,
    "h": 0.85816,
    "l": 0.85751,
    "c": 0.85781,
    "v": 1253
  },
  {
    "dt": "2021.03.18 00:00",
    "o": 0.85726,
    "h": 0.85816,
    "l": 0.85713,
    "c": 0.85794,
    "v": 597
  },
  {
    "dt": "2021.03.18 01:00",
    "o": 0.85794,
    "h": 0.85815,
    "l": 0.85755,
    "c": 0.85777,
    "v": 839
  },
  {
    "dt": "2021.03.18 02:00",
    "o": 0.85777,
    "h": 0.8578,
    "l": 0.85724,
    "c": 0.85735,
    "v": 1005
  },
  {
    "dt": "2021.03.18 03:00",
    "o": 0.85734,
    "h": 0.85813,
    "l": 0.85733,
    "c": 0.85789,
    "v": 1442
  },
  {
    "dt": "2021.03.18 04:00",
    "o": 0.85788,
    "h": 0.85837,
    "l": 0.85767,
    "c": 0.85776,
    "v": 1802
  },
  {
    "dt": "2021.03.18 05:00",
    "o": 0.85775,
    "h": 0.85797,
    "l": 0.85768,
    "c": 0.85786,
    "v": 1192
  },
  {
    "dt": "2021.03.18 06:00",
    "o": 0.85785,
    "h": 0.8579,
    "l": 0.85755,
    "c": 0.85767,
    "v": 1757
  },
  {
    "dt": "2021.03.18 07:00",
    "o": 0.85767,
    "h": 0.85784,
    "l": 0.8572,
    "c": 0.85722,
    "v": 1065
  },
  {
    "dt": "2021.03.18 08:00",
    "o": 0.85723,
    "h": 0.85755,
    "l": 0.85711,
    "c": 0.85714,
    "v": 1208
  },
  {
    "dt": "2021.03.18 09:00",
    "o": 0.85711,
    "h": 0.85754,
    "l": 0.85609,
    "c": 0.85654,
    "v": 1423
  },
  {
    "dt": "2021.03.18 10:00",
    "o": 0.85653,
    "h": 0.85662,
    "l": 0.85584,
    "c": 0.8559,
    "v": 3269
  },
  {
    "dt": "2021.03.18 11:00",
    "o": 0.85593,
    "h": 0.85608,
    "l": 0.85514,
    "c": 0.85598,
    "v": 3434
  },
  {
    "dt": "2021.03.18 12:00",
    "o": 0.85592,
    "h": 0.85592,
    "l": 0.85477,
    "c": 0.85531,
    "v": 2823
  },
  {
    "dt": "2021.03.18 13:00",
    "o": 0.85531,
    "h": 0.85541,
    "l": 0.85363,
    "c": 0.85369,
    "v": 2390
  },
  {
    "dt": "2021.03.18 14:00",
    "o": 0.85365,
    "h": 0.85555,
    "l": 0.85325,
    "c": 0.85485,
    "v": 2979
  },
  {
    "dt": "2021.03.18 15:00",
    "o": 0.85488,
    "h": 0.85708,
    "l": 0.85461,
    "c": 0.85531,
    "v": 3788
  },
  {
    "dt": "2021.03.18 16:00",
    "o": 0.85531,
    "h": 0.85721,
    "l": 0.85518,
    "c": 0.85707,
    "v": 3422
  },
  {
    "dt": "2021.03.18 17:00",
    "o": 0.85709,
    "h": 0.8571,
    "l": 0.85498,
    "c": 0.85583,
    "v": 3399
  },
  {
    "dt": "2021.03.18 18:00",
    "o": 0.85584,
    "h": 0.85603,
    "l": 0.85442,
    "c": 0.85561,
    "v": 3023
  },
  {
    "dt": "2021.03.18 19:00",
    "o": 0.8556,
    "h": 0.85595,
    "l": 0.85528,
    "c": 0.85553,
    "v": 2571
  },
  {
    "dt": "2021.03.18 20:00",
    "o": 0.85552,
    "h": 0.85588,
    "l": 0.85504,
    "c": 0.85506,
    "v": 2280
  },
  {
    "dt": "2021.03.18 21:00",
    "o": 0.85507,
    "h": 0.8559,
    "l": 0.85501,
    "c": 0.85517,
    "v": 2314
  },
  {
    "dt": "2021.03.18 22:00",
    "o": 0.85519,
    "h": 0.85571,
    "l": 0.85518,
    "c": 0.85531,
    "v": 2161
  },
  {
    "dt": "2021.03.18 23:00",
    "o": 0.85532,
    "h": 0.85555,
    "l": 0.8549,
    "c": 0.8553,
    "v": 1243
  },
  {
    "dt": "2021.03.19 00:00",
    "o": 0.85469,
    "h": 0.85553,
    "l": 0.85469,
    "c": 0.85518,
    "v": 262
  },
  {
    "dt": "2021.03.19 01:00",
    "o": 0.85518,
    "h": 0.85578,
    "l": 0.85513,
    "c": 0.85577,
    "v": 642
  },
  {
    "dt": "2021.03.19 02:00",
    "o": 0.85577,
    "h": 0.85588,
    "l": 0.85541,
    "c": 0.85586,
    "v": 587
  },
  {
    "dt": "2021.03.19 03:00",
    "o": 0.85588,
    "h": 0.85647,
    "l": 0.85587,
    "c": 0.85612,
    "v": 1224
  },
  {
    "dt": "2021.03.19 04:00",
    "o": 0.85608,
    "h": 0.85677,
    "l": 0.85581,
    "c": 0.85581,
    "v": 1648
  },
  {
    "dt": "2021.03.19 05:00",
    "o": 0.85581,
    "h": 0.85613,
    "l": 0.8555,
    "c": 0.8561,
    "v": 1176
  },
  {
    "dt": "2021.03.19 06:00",
    "o": 0.8561,
    "h": 0.85655,
    "l": 0.85604,
    "c": 0.85608,
    "v": 1564
  },
  {
    "dt": "2021.03.19 07:00",
    "o": 0.85608,
    "h": 0.85617,
    "l": 0.8558,
    "c": 0.856,
    "v": 1122
  },
  {
    "dt": "2021.03.19 08:00",
    "o": 0.856,
    "h": 0.85648,
    "l": 0.856,
    "c": 0.85631,
    "v": 1101
  },
  {
    "dt": "2021.03.19 09:00",
    "o": 0.85631,
    "h": 0.85672,
    "l": 0.85616,
    "c": 0.85639,
    "v": 1392
  },
  {
    "dt": "2021.03.19 10:00",
    "o": 0.85638,
    "h": 0.85652,
    "l": 0.85488,
    "c": 0.85534,
    "v": 2040
  },
  {
    "dt": "2021.03.19 11:00",
    "o": 0.85529,
    "h": 0.85587,
    "l": 0.85451,
    "c": 0.85455,
    "v": 2681
  },
  {
    "dt": "2021.03.19 12:00",
    "o": 0.85454,
    "h": 0.85498,
    "l": 0.8535,
    "c": 0.85414,
    "v": 2320
  },
  {
    "dt": "2021.03.19 13:00",
    "o": 0.85413,
    "h": 0.85434,
    "l": 0.85346,
    "c": 0.8541,
    "v": 1995
  },
  {
    "dt": "2021.03.19 14:00",
    "o": 0.85409,
    "h": 0.85543,
    "l": 0.85397,
    "c": 0.85542,
    "v": 2242
  },
  {
    "dt": "2021.03.19 15:00",
    "o": 0.85543,
    "h": 0.8571,
    "l": 0.85507,
    "c": 0.85665,
    "v": 2781
  },
  {
    "dt": "2021.03.19 16:00",
    "o": 0.85664,
    "h": 0.85883,
    "l": 0.85649,
    "c": 0.85834,
    "v": 4214
  },
  {
    "dt": "2021.03.19 17:00",
    "o": 0.85833,
    "h": 0.85893,
    "l": 0.85794,
    "c": 0.85794,
    "v": 3376
  },
  {
    "dt": "2021.03.19 18:00",
    "o": 0.85792,
    "h": 0.85894,
    "l": 0.85762,
    "c": 0.85852,
    "v": 3026
  },
  {
    "dt": "2021.03.19 19:00",
    "o": 0.85848,
    "h": 0.85865,
    "l": 0.85769,
    "c": 0.85821,
    "v": 2626
  },
  {
    "dt": "2021.03.19 20:00",
    "o": 0.85821,
    "h": 0.85845,
    "l": 0.85773,
    "c": 0.85788,
    "v": 1663
  },
  {
    "dt": "2021.03.19 21:00",
    "o": 0.85789,
    "h": 0.85862,
    "l": 0.85769,
    "c": 0.85843,
    "v": 1664
  },
  {
    "dt": "2021.03.19 22:00",
    "o": 0.85845,
    "h": 0.8589,
    "l": 0.85833,
    "c": 0.85864,
    "v": 1389
  },
  {
    "dt": "2021.03.19 23:00",
    "o": 0.85865,
    "h": 0.85886,
    "l": 0.85777,
    "c": 0.85805,
    "v": 1251
  },
  {
    "dt": "2021.03.22 00:00",
    "o": 0.85737,
    "h": 0.85849,
    "l": 0.85737,
    "c": 0.85827,
    "v": 343
  },
  {
    "dt": "2021.03.22 01:00",
    "o": 0.85815,
    "h": 0.85888,
    "l": 0.8581,
    "c": 0.85867,
    "v": 965
  },
  {
    "dt": "2021.03.22 02:00",
    "o": 0.85866,
    "h": 0.85913,
    "l": 0.85862,
    "c": 0.85895,
    "v": 704
  },
  {
    "dt": "2021.03.22 03:00",
    "o": 0.85896,
    "h": 0.85939,
    "l": 0.8587,
    "c": 0.85931,
    "v": 987
  },
  {
    "dt": "2021.03.22 04:00",
    "o": 0.85935,
    "h": 0.85962,
    "l": 0.85912,
    "c": 0.85945,
    "v": 1369
  },
  {
    "dt": "2021.03.22 05:00",
    "o": 0.85944,
    "h": 0.85962,
    "l": 0.85919,
    "c": 0.85939,
    "v": 907
  },
  {
    "dt": "2021.03.22 06:00",
    "o": 0.85943,
    "h": 0.8595,
    "l": 0.85909,
    "c": 0.85935,
    "v": 871
  },
  {
    "dt": "2021.03.22 07:00",
    "o": 0.85936,
    "h": 0.85939,
    "l": 0.85867,
    "c": 0.85874,
    "v": 819
  },
  {
    "dt": "2021.03.22 08:00",
    "o": 0.85876,
    "h": 0.85879,
    "l": 0.85821,
    "c": 0.85838,
    "v": 808
  },
  {
    "dt": "2021.03.22 09:00",
    "o": 0.85837,
    "h": 0.8586,
    "l": 0.85765,
    "c": 0.85781,
    "v": 1547
  },
  {
    "dt": "2021.03.22 10:00",
    "o": 0.8578,
    "h": 0.8585,
    "l": 0.85762,
    "c": 0.85807,
    "v": 2338
  },
  {
    "dt": "2021.03.22 11:00",
    "o": 0.85806,
    "h": 0.85849,
    "l": 0.85759,
    "c": 0.85834,
    "v": 2690
  },
  {
    "dt": "2021.03.22 12:00",
    "o": 0.85833,
    "h": 0.85906,
    "l": 0.85801,
    "c": 0.85889,
    "v": 2036
  },
  {
    "dt": "2021.03.22 13:00",
    "o": 0.85888,
    "h": 0.85997,
    "l": 0.85852,
    "c": 0.85967,
    "v": 1897
  },
  {
    "dt": "2021.03.22 14:00",
    "o": 0.85967,
    "h": 0.86066,
    "l": 0.85943,
    "c": 0.85985,
    "v": 2354
  },
  {
    "dt": "2021.03.22 15:00",
    "o": 0.85986,
    "h": 0.8611,
    "l": 0.85979,
    "c": 0.86108,
    "v": 2438
  },
  {
    "dt": "2021.03.22 16:00",
    "o": 0.86107,
    "h": 0.86271,
    "l": 0.86091,
    "c": 0.86169,
    "v": 2942
  },
  {
    "dt": "2021.03.22 17:00",
    "o": 0.86167,
    "h": 0.862,
    "l": 0.86112,
    "c": 0.86146,
    "v": 2818
  },
  {
    "dt": "2021.03.22 18:00",
    "o": 0.86148,
    "h": 0.86198,
    "l": 0.8611,
    "c": 0.8612,
    "v": 2739
  },
  {
    "dt": "2021.03.22 19:00",
    "o": 0.86118,
    "h": 0.86142,
    "l": 0.86072,
    "c": 0.86142,
    "v": 2177
  },
  {
    "dt": "2021.03.22 20:00",
    "o": 0.86139,
    "h": 0.86155,
    "l": 0.86104,
    "c": 0.86117,
    "v": 1743
  },
  {
    "dt": "2021.03.22 21:00",
    "o": 0.86118,
    "h": 0.86131,
    "l": 0.86101,
    "c": 0.86125,
    "v": 1186
  },
  {
    "dt": "2021.03.22 22:00",
    "o": 0.86128,
    "h": 0.86128,
    "l": 0.86084,
    "c": 0.86118,
    "v": 1021
  },
  {
    "dt": "2021.03.22 23:00",
    "o": 0.86118,
    "h": 0.86119,
    "l": 0.86039,
    "c": 0.86057,
    "v": 1037
  },
  {
    "dt": "2021.03.23 00:00",
    "o": 0.86053,
    "h": 0.86092,
    "l": 0.86027,
    "c": 0.86081,
    "v": 389
  },
  {
    "dt": "2021.03.23 01:00",
    "o": 0.86081,
    "h": 0.86096,
    "l": 0.86062,
    "c": 0.86078,
    "v": 630
  },
  {
    "dt": "2021.03.23 02:00",
    "o": 0.8608,
    "h": 0.86094,
    "l": 0.86052,
    "c": 0.86091,
    "v": 614
  },
  {
    "dt": "2021.03.23 03:00",
    "o": 0.86088,
    "h": 0.8618,
    "l": 0.86088,
    "c": 0.86151,
    "v": 1157
  },
  {
    "dt": "2021.03.23 04:00",
    "o": 0.86158,
    "h": 0.86215,
    "l": 0.86147,
    "c": 0.86156,
    "v": 1365
  },
  {
    "dt": "2021.03.23 05:00",
    "o": 0.86154,
    "h": 0.8618,
    "l": 0.86154,
    "c": 0.8616,
    "v": 1283
  },
  {
    "dt": "2021.03.23 06:00",
    "o": 0.86159,
    "h": 0.86163,
    "l": 0.86131,
    "c": 0.86155,
    "v": 874
  },
  {
    "dt": "2021.03.23 07:00",
    "o": 0.86157,
    "h": 0.86192,
    "l": 0.86138,
    "c": 0.86179,
    "v": 988
  },
  {
    "dt": "2021.03.23 08:00",
    "o": 0.8618,
    "h": 0.86219,
    "l": 0.8617,
    "c": 0.86209,
    "v": 1206
  },
  {
    "dt": "2021.03.23 09:00",
    "o": 0.86209,
    "h": 0.8625,
    "l": 0.86144,
    "c": 0.86183,
    "v": 1508
  },
  {
    "dt": "2021.03.23 10:00",
    "o": 0.86175,
    "h": 0.86187,
    "l": 0.8597,
    "c": 0.8599,
    "v": 2238
  },
  {
    "dt": "2021.03.23 11:00",
    "o": 0.85988,
    "h": 0.86161,
    "l": 0.85985,
    "c": 0.86147,
    "v": 3143
  },
  {
    "dt": "2021.03.23 12:00",
    "o": 0.86145,
    "h": 0.86384,
    "l": 0.86121,
    "c": 0.86311,
    "v": 2924
  },
  {
    "dt": "2021.03.23 13:00",
    "o": 0.86309,
    "h": 0.86443,
    "l": 0.86285,
    "c": 0.86313,
    "v": 3194
  },
  {
    "dt": "2021.03.23 14:00",
    "o": 0.86312,
    "h": 0.86333,
    "l": 0.86128,
    "c": 0.8624,
    "v": 2660
  },
  {
    "dt": "2021.03.23 15:00",
    "o": 0.8624,
    "h": 0.86269,
    "l": 0.86142,
    "c": 0.86191,
    "v": 2653
  },
  {
    "dt": "2021.03.23 16:00",
    "o": 0.8619,
    "h": 0.86206,
    "l": 0.86122,
    "c": 0.86173,
    "v": 3021
  },
  {
    "dt": "2021.03.23 17:00",
    "o": 0.86171,
    "h": 0.86176,
    "l": 0.86026,
    "c": 0.8606,
    "v": 3160
  },
  {
    "dt": "2021.03.23 18:00",
    "o": 0.86055,
    "h": 0.86093,
    "l": 0.86025,
    "c": 0.8606,
    "v": 2958
  },
  {
    "dt": "2021.03.23 19:00",
    "o": 0.86061,
    "h": 0.86123,
    "l": 0.86044,
    "c": 0.86122,
    "v": 2601
  },
  {
    "dt": "2021.03.23 20:00",
    "o": 0.86126,
    "h": 0.86199,
    "l": 0.86097,
    "c": 0.86165,
    "v": 2240
  },
  {
    "dt": "2021.03.23 21:00",
    "o": 0.86167,
    "h": 0.86168,
    "l": 0.86081,
    "c": 0.86131,
    "v": 1759
  },
  {
    "dt": "2021.03.23 22:00",
    "o": 0.86132,
    "h": 0.86177,
    "l": 0.86132,
    "c": 0.86162,
    "v": 1720
  },
  {
    "dt": "2021.03.23 23:00",
    "o": 0.86166,
    "h": 0.86207,
    "l": 0.86144,
    "c": 0.8615,
    "v": 1450
  },
  {
    "dt": "2021.03.24 00:00",
    "o": 0.86085,
    "h": 0.86193,
    "l": 0.86083,
    "c": 0.86146,
    "v": 564
  },
  {
    "dt": "2021.03.24 01:00",
    "o": 0.86148,
    "h": 0.86176,
    "l": 0.86124,
    "c": 0.86168,
    "v": 788
  },
  {
    "dt": "2021.03.24 02:00",
    "o": 0.86169,
    "h": 0.8625,
    "l": 0.86162,
    "c": 0.86214,
    "v": 1266
  },
  {
    "dt": "2021.03.24 03:00",
    "o": 0.86211,
    "h": 0.8626,
    "l": 0.86191,
    "c": 0.86219,
    "v": 1273
  },
  {
    "dt": "2021.03.24 04:00",
    "o": 0.86219,
    "h": 0.86275,
    "l": 0.86212,
    "c": 0.8626,
    "v": 1289
  },
  {
    "dt": "2021.03.24 05:00",
    "o": 0.8626,
    "h": 0.86298,
    "l": 0.86244,
    "c": 0.86282,
    "v": 1175
  },
  {
    "dt": "2021.03.24 06:00",
    "o": 0.86281,
    "h": 0.86314,
    "l": 0.86268,
    "c": 0.86312,
    "v": 922
  },
  {
    "dt": "2021.03.24 07:00",
    "o": 0.8631,
    "h": 0.86415,
    "l": 0.86287,
    "c": 0.86382,
    "v": 985
  },
  {
    "dt": "2021.03.24 08:00",
    "o": 0.86382,
    "h": 0.86411,
    "l": 0.86351,
    "c": 0.86365,
    "v": 1216
  },
  {
    "dt": "2021.03.24 09:00",
    "o": 0.86366,
    "h": 0.8637,
    "l": 0.86305,
    "c": 0.86347,
    "v": 1758
  },
  {
    "dt": "2021.03.24 10:00",
    "o": 0.86347,
    "h": 0.86447,
    "l": 0.86335,
    "c": 0.86349,
    "v": 2747
  },
  {
    "dt": "2021.03.24 11:00",
    "o": 0.86347,
    "h": 0.86375,
    "l": 0.86288,
    "c": 0.86359,
    "v": 3176
  },
  {
    "dt": "2021.03.24 12:00",
    "o": 0.8636,
    "h": 0.86362,
    "l": 0.86179,
    "c": 0.86186,
    "v": 2716
  },
  {
    "dt": "2021.03.24 13:00",
    "o": 0.8619,
    "h": 0.86294,
    "l": 0.86135,
    "c": 0.86257,
    "v": 2361
  },
  {
    "dt": "2021.03.24 14:00",
    "o": 0.86256,
    "h": 0.86322,
    "l": 0.86201,
    "c": 0.86296,
    "v": 2056
  },
  {
    "dt": "2021.03.24 15:00",
    "o": 0.86296,
    "h": 0.86308,
    "l": 0.86203,
    "c": 0.86261,
    "v": 2247
  },
  {
    "dt": "2021.03.24 16:00",
    "o": 0.86261,
    "h": 0.86275,
    "l": 0.86192,
    "c": 0.86233,
    "v": 2863
  },
  {
    "dt": "2021.03.24 17:00",
    "o": 0.86235,
    "h": 0.86296,
    "l": 0.86191,
    "c": 0.86205,
    "v": 2854
  },
  {
    "dt": "2021.03.24 18:00",
    "o": 0.86207,
    "h": 0.86272,
    "l": 0.86185,
    "c": 0.86207,
    "v": 2583
  },
  {
    "dt": "2021.03.24 19:00",
    "o": 0.86205,
    "h": 0.86222,
    "l": 0.86169,
    "c": 0.86179,
    "v": 2414
  },
  {
    "dt": "2021.03.24 20:00",
    "o": 0.86181,
    "h": 0.8626,
    "l": 0.86179,
    "c": 0.86244,
    "v": 1878
  },
  {
    "dt": "2021.03.24 21:00",
    "o": 0.86243,
    "h": 0.86361,
    "l": 0.86243,
    "c": 0.86322,
    "v": 1835
  },
  {
    "dt": "2021.03.24 22:00",
    "o": 0.86322,
    "h": 0.86355,
    "l": 0.8629,
    "c": 0.86299,
    "v": 1849
  },
  {
    "dt": "2021.03.24 23:00",
    "o": 0.86297,
    "h": 0.86332,
    "l": 0.86274,
    "c": 0.86301,
    "v": 1103
  },
  {
    "dt": "2021.03.25 00:00",
    "o": 0.86284,
    "h": 0.86297,
    "l": 0.86247,
    "c": 0.86257,
    "v": 371
  },
  {
    "dt": "2021.03.25 01:00",
    "o": 0.86255,
    "h": 0.86332,
    "l": 0.86255,
    "c": 0.86331,
    "v": 862
  },
  {
    "dt": "2021.03.25 02:00",
    "o": 0.86327,
    "h": 0.86336,
    "l": 0.86284,
    "c": 0.86288,
    "v": 558
  },
  {
    "dt": "2021.03.25 03:00",
    "o": 0.86286,
    "h": 0.86314,
    "l": 0.86269,
    "c": 0.8627,
    "v": 958
  },
  {
    "dt": "2021.03.25 04:00",
    "o": 0.86268,
    "h": 0.86322,
    "l": 0.86261,
    "c": 0.86317,
    "v": 1540
  },
  {
    "dt": "2021.03.25 05:00",
    "o": 0.86316,
    "h": 0.86326,
    "l": 0.86242,
    "c": 0.86262,
    "v": 1441
  },
  {
    "dt": "2021.03.25 06:00",
    "o": 0.86261,
    "h": 0.86326,
    "l": 0.86259,
    "c": 0.86288,
    "v": 1185
  },
  {
    "dt": "2021.03.25 07:00",
    "o": 0.86286,
    "h": 0.86295,
    "l": 0.86257,
    "c": 0.86282,
    "v": 1135
  },
  {
    "dt": "2021.03.25 08:00",
    "o": 0.86285,
    "h": 0.86341,
    "l": 0.86264,
    "c": 0.86293,
    "v": 1007
  },
  {
    "dt": "2021.03.25 09:00",
    "o": 0.86294,
    "h": 0.86373,
    "l": 0.86293,
    "c": 0.86342,
    "v": 1373
  },
  {
    "dt": "2021.03.25 10:00",
    "o": 0.86342,
    "h": 0.86407,
    "l": 0.86303,
    "c": 0.86304,
    "v": 2077
  },
  {
    "dt": "2021.03.25 11:00",
    "o": 0.86303,
    "h": 0.86349,
    "l": 0.86183,
    "c": 0.86266,
    "v": 2745
  },
  {
    "dt": "2021.03.25 12:00",
    "o": 0.86271,
    "h": 0.86288,
    "l": 0.86187,
    "c": 0.86188,
    "v": 1922
  },
  {
    "dt": "2021.03.25 13:00",
    "o": 0.8619,
    "h": 0.8621,
    "l": 0.86032,
    "c": 0.86117,
    "v": 2259
  },
  {
    "dt": "2021.03.25 14:00",
    "o": 0.86118,
    "h": 0.86176,
    "l": 0.86073,
    "c": 0.86162,
    "v": 2486
  },
  {
    "dt": "2021.03.25 15:00",
    "o": 0.86173,
    "h": 0.86198,
    "l": 0.86043,
    "c": 0.86056,
    "v": 2820
  },
  {
    "dt": "2021.03.25 16:00",
    "o": 0.86057,
    "h": 0.86101,
    "l": 0.8603,
    "c": 0.8607,
    "v": 3194
  },
  {
    "dt": "2021.03.25 17:00",
    "o": 0.86071,
    "h": 0.86076,
    "l": 0.85895,
    "c": 0.85999,
    "v": 3317
  },
  {
    "dt": "2021.03.25 18:00",
    "o": 0.85998,
    "h": 0.86031,
    "l": 0.85794,
    "c": 0.8581,
    "v": 3417
  },
  {
    "dt": "2021.03.25 19:00",
    "o": 0.85809,
    "h": 0.85839,
    "l": 0.85648,
    "c": 0.8565,
    "v": 2604
  },
  {
    "dt": "2021.03.25 20:00",
    "o": 0.85653,
    "h": 0.85734,
    "l": 0.85649,
    "c": 0.857,
    "v": 2681
  },
  {
    "dt": "2021.03.25 21:00",
    "o": 0.85701,
    "h": 0.85737,
    "l": 0.85684,
    "c": 0.85701,
    "v": 2008
  },
  {
    "dt": "2021.03.25 22:00",
    "o": 0.85702,
    "h": 0.85705,
    "l": 0.85641,
    "c": 0.85655,
    "v": 1829
  },
  {
    "dt": "2021.03.25 23:00",
    "o": 0.85655,
    "h": 0.85674,
    "l": 0.85605,
    "c": 0.85658,
    "v": 1103
  },
  {
    "dt": "2021.03.26 00:00",
    "o": 0.85604,
    "h": 0.85691,
    "l": 0.85604,
    "c": 0.85641,
    "v": 413
  },
  {
    "dt": "2021.03.26 01:00",
    "o": 0.85668,
    "h": 0.85686,
    "l": 0.85642,
    "c": 0.8568,
    "v": 943
  },
  {
    "dt": "2021.03.26 02:00",
    "o": 0.8568,
    "h": 0.85687,
    "l": 0.85642,
    "c": 0.85654,
    "v": 588
  },
  {
    "dt": "2021.03.26 03:00",
    "o": 0.85655,
    "h": 0.85692,
    "l": 0.85601,
    "c": 0.85677,
    "v": 1210
  },
  {
    "dt": "2021.03.26 04:00",
    "o": 0.85678,
    "h": 0.85692,
    "l": 0.85593,
    "c": 0.85612,
    "v": 1192
  },
  {
    "dt": "2021.03.26 05:00",
    "o": 0.85611,
    "h": 0.8563,
    "l": 0.85604,
    "c": 0.8561,
    "v": 1189
  },
  {
    "dt": "2021.03.26 06:00",
    "o": 0.85608,
    "h": 0.85614,
    "l": 0.85581,
    "c": 0.85588,
    "v": 726
  },
  {
    "dt": "2021.03.26 07:00",
    "o": 0.85589,
    "h": 0.85599,
    "l": 0.85576,
    "c": 0.85588,
    "v": 654
  },
  {
    "dt": "2021.03.26 08:00",
    "o": 0.85583,
    "h": 0.85593,
    "l": 0.8556,
    "c": 0.85589,
    "v": 759
  },
  {
    "dt": "2021.03.26 09:00",
    "o": 0.85589,
    "h": 0.85671,
    "l": 0.85567,
    "c": 0.85649,
    "v": 1358
  },
  {
    "dt": "2021.03.26 10:00",
    "o": 0.85649,
    "h": 0.85707,
    "l": 0.85569,
    "c": 0.8562,
    "v": 1816
  },
  {
    "dt": "2021.03.26 11:00",
    "o": 0.85622,
    "h": 0.85624,
    "l": 0.85475,
    "c": 0.85603,
    "v": 2376
  },
  {
    "dt": "2021.03.26 12:00",
    "o": 0.85602,
    "h": 0.85641,
    "l": 0.85498,
    "c": 0.85498,
    "v": 2235
  },
  {
    "dt": "2021.03.26 13:00",
    "o": 0.85498,
    "h": 0.85565,
    "l": 0.85495,
    "c": 0.85501,
    "v": 1973
  },
  {
    "dt": "2021.03.26 14:00",
    "o": 0.85504,
    "h": 0.85556,
    "l": 0.85453,
    "c": 0.85461,
    "v": 1921
  },
  {
    "dt": "2021.03.26 15:00",
    "o": 0.85464,
    "h": 0.8564,
    "l": 0.85462,
    "c": 0.85528,
    "v": 2491
  },
  {
    "dt": "2021.03.26 16:00",
    "o": 0.85529,
    "h": 0.85539,
    "l": 0.85406,
    "c": 0.8542,
    "v": 3053
  },
  {
    "dt": "2021.03.26 17:00",
    "o": 0.85419,
    "h": 0.85521,
    "l": 0.85413,
    "c": 0.85516,
    "v": 2907
  },
  {
    "dt": "2021.03.26 18:00",
    "o": 0.85517,
    "h": 0.85536,
    "l": 0.85342,
    "c": 0.85525,
    "v": 3173
  },
  {
    "dt": "2021.03.26 19:00",
    "o": 0.85524,
    "h": 0.85563,
    "l": 0.85507,
    "c": 0.85559,
    "v": 2409
  },
  {
    "dt": "2021.03.26 20:00",
    "o": 0.85559,
    "h": 0.8556,
    "l": 0.85444,
    "c": 0.85472,
    "v": 1709
  },
  {
    "dt": "2021.03.26 21:00",
    "o": 0.85472,
    "h": 0.85546,
    "l": 0.85468,
    "c": 0.85518,
    "v": 1908
  },
  {
    "dt": "2021.03.26 22:00",
    "o": 0.85519,
    "h": 0.8558,
    "l": 0.85493,
    "c": 0.85545,
    "v": 1730
  },
  {
    "dt": "2021.03.26 23:00",
    "o": 0.85542,
    "h": 0.85565,
    "l": 0.85464,
    "c": 0.85475,
    "v": 1280
  },
  {
    "dt": "2021.03.29 00:00",
    "o": 0.85499,
    "h": 0.85548,
    "l": 0.85438,
    "c": 0.85469,
    "v": 231
  },
  {
    "dt": "2021.03.29 01:00",
    "o": 0.85473,
    "h": 0.85537,
    "l": 0.85451,
    "c": 0.8547,
    "v": 916
  },
  {
    "dt": "2021.03.29 02:00",
    "o": 0.85471,
    "h": 0.85493,
    "l": 0.85452,
    "c": 0.85468,
    "v": 643
  },
  {
    "dt": "2021.03.29 03:00",
    "o": 0.85467,
    "h": 0.85529,
    "l": 0.85467,
    "c": 0.85514,
    "v": 1141
  },
  {
    "dt": "2021.03.29 04:00",
    "o": 0.85512,
    "h": 0.85549,
    "l": 0.85488,
    "c": 0.85529,
    "v": 1250
  },
  {
    "dt": "2021.03.29 05:00",
    "o": 0.85528,
    "h": 0.85539,
    "l": 0.85484,
    "c": 0.85531,
    "v": 996
  },
  {
    "dt": "2021.03.29 06:00",
    "o": 0.85531,
    "h": 0.85566,
    "l": 0.85511,
    "c": 0.85531,
    "v": 918
  },
  {
    "dt": "2021.03.29 07:00",
    "o": 0.85534,
    "h": 0.85556,
    "l": 0.85491,
    "c": 0.85514,
    "v": 735
  },
  {
    "dt": "2021.03.29 08:00",
    "o": 0.85511,
    "h": 0.85572,
    "l": 0.85509,
    "c": 0.85553,
    "v": 1202
  },
  {
    "dt": "2021.03.29 09:00",
    "o": 0.85552,
    "h": 0.85618,
    "l": 0.85525,
    "c": 0.85573,
    "v": 2054
  },
  {
    "dt": "2021.03.29 10:00",
    "o": 0.85572,
    "h": 0.85576,
    "l": 0.85405,
    "c": 0.85425,
    "v": 2456
  },
  {
    "dt": "2021.03.29 11:00",
    "o": 0.85426,
    "h": 0.85426,
    "l": 0.85089,
    "c": 0.85196,
    "v": 3022
  },
  {
    "dt": "2021.03.29 12:00",
    "o": 0.85195,
    "h": 0.85234,
    "l": 0.8512,
    "c": 0.85121,
    "v": 2367
  },
  {
    "dt": "2021.03.29 13:00",
    "o": 0.8512,
    "h": 0.85156,
    "l": 0.85052,
    "c": 0.85109,
    "v": 2073
  },
  {
    "dt": "2021.03.29 14:00",
    "o": 0.85109,
    "h": 0.8512,
    "l": 0.85062,
    "c": 0.85097,
    "v": 2214
  },
  {
    "dt": "2021.03.29 15:00",
    "o": 0.85094,
    "h": 0.85255,
    "l": 0.85077,
    "c": 0.85254,
    "v": 2393
  },
  {
    "dt": "2021.03.29 16:00",
    "o": 0.85252,
    "h": 0.85341,
    "l": 0.85178,
    "c": 0.85302,
    "v": 2951
  },
  {
    "dt": "2021.03.29 17:00",
    "o": 0.853,
    "h": 0.85449,
    "l": 0.85287,
    "c": 0.85407,
    "v": 3561
  },
  {
    "dt": "2021.03.29 18:00",
    "o": 0.85411,
    "h": 0.85447,
    "l": 0.85366,
    "c": 0.85378,
    "v": 2911
  },
  {
    "dt": "2021.03.29 19:00",
    "o": 0.85379,
    "h": 0.85473,
    "l": 0.85362,
    "c": 0.85447,
    "v": 2002
  },
  {
    "dt": "2021.03.29 20:00",
    "o": 0.85446,
    "h": 0.85505,
    "l": 0.8544,
    "c": 0.85495,
    "v": 1594
  },
  {
    "dt": "2021.03.29 21:00",
    "o": 0.85494,
    "h": 0.85514,
    "l": 0.85452,
    "c": 0.85481,
    "v": 1819
  },
  {
    "dt": "2021.03.29 22:00",
    "o": 0.85482,
    "h": 0.85508,
    "l": 0.85462,
    "c": 0.85482,
    "v": 1545
  },
  {
    "dt": "2021.03.29 23:00",
    "o": 0.8548,
    "h": 0.85496,
    "l": 0.85462,
    "c": 0.8548,
    "v": 676
  },
  {
    "dt": "2021.03.30 00:00",
    "o": 0.85445,
    "h": 0.85496,
    "l": 0.85431,
    "c": 0.85467,
    "v": 385
  },
  {
    "dt": "2021.03.30 01:00",
    "o": 0.8547,
    "h": 0.85494,
    "l": 0.85454,
    "c": 0.85479,
    "v": 592
  },
  {
    "dt": "2021.03.30 02:00",
    "o": 0.8548,
    "h": 0.85482,
    "l": 0.85417,
    "c": 0.8543,
    "v": 561
  },
  {
    "dt": "2021.03.30 03:00",
    "o": 0.85429,
    "h": 0.85489,
    "l": 0.85427,
    "c": 0.85476,
    "v": 895
  },
  {
    "dt": "2021.03.30 04:00",
    "o": 0.85476,
    "h": 0.85512,
    "l": 0.85459,
    "c": 0.85467,
    "v": 1098
  },
  {
    "dt": "2021.03.30 05:00",
    "o": 0.85467,
    "h": 0.85472,
    "l": 0.85417,
    "c": 0.85429,
    "v": 1042
  },
  {
    "dt": "2021.03.30 06:00",
    "o": 0.8543,
    "h": 0.85436,
    "l": 0.8539,
    "c": 0.85401,
    "v": 826
  },
  {
    "dt": "2021.03.30 07:00",
    "o": 0.85399,
    "h": 0.85402,
    "l": 0.85355,
    "c": 0.85355,
    "v": 778
  },
  {
    "dt": "2021.03.30 08:00",
    "o": 0.85354,
    "h": 0.85431,
    "l": 0.8535,
    "c": 0.85431,
    "v": 709
  },
  {
    "dt": "2021.03.30 09:00",
    "o": 0.85431,
    "h": 0.8545,
    "l": 0.85282,
    "c": 0.85403,
    "v": 2331
  },
  {
    "dt": "2021.03.30 10:00",
    "o": 0.85398,
    "h": 0.85462,
    "l": 0.8529,
    "c": 0.85308,
    "v": 2746
  },
  {
    "dt": "2021.03.30 11:00",
    "o": 0.85308,
    "h": 0.85345,
    "l": 0.85225,
    "c": 0.8528,
    "v": 2335
  },
  {
    "dt": "2021.03.30 12:00",
    "o": 0.85281,
    "h": 0.85332,
    "l": 0.85225,
    "c": 0.85295,
    "v": 1724
  },
  {
    "dt": "2021.03.30 13:00",
    "o": 0.85294,
    "h": 0.85364,
    "l": 0.85264,
    "c": 0.85314,
    "v": 1857
  },
  {
    "dt": "2021.03.30 14:00",
    "o": 0.85315,
    "h": 0.85442,
    "l": 0.85287,
    "c": 0.85439,
    "v": 2202
  },
  {
    "dt": "2021.03.30 15:00",
    "o": 0.85439,
    "h": 0.85455,
    "l": 0.85325,
    "c": 0.85376,
    "v": 2382
  },
  {
    "dt": "2021.03.30 16:00",
    "o": 0.85377,
    "h": 0.85423,
    "l": 0.85308,
    "c": 0.85409,
    "v": 2640
  },
  {
    "dt": "2021.03.30 17:00",
    "o": 0.85406,
    "h": 0.85559,
    "l": 0.85374,
    "c": 0.85513,
    "v": 2792
  },
  {
    "dt": "2021.03.30 18:00",
    "o": 0.85513,
    "h": 0.85522,
    "l": 0.85389,
    "c": 0.8539,
    "v": 2214
  },
  {
    "dt": "2021.03.30 19:00",
    "o": 0.85391,
    "h": 0.85446,
    "l": 0.85368,
    "c": 0.8541,
    "v": 1574
  },
  {
    "dt": "2021.03.30 20:00",
    "o": 0.85411,
    "h": 0.85426,
    "l": 0.85365,
    "c": 0.85389,
    "v": 1243
  },
  {
    "dt": "2021.03.30 21:00",
    "o": 0.85387,
    "h": 0.85409,
    "l": 0.85372,
    "c": 0.85379,
    "v": 1074
  },
  {
    "dt": "2021.03.30 22:00",
    "o": 0.85378,
    "h": 0.85389,
    "l": 0.8535,
    "c": 0.85376,
    "v": 1070
  },
  {
    "dt": "2021.03.30 23:00",
    "o": 0.85379,
    "h": 0.8539,
    "l": 0.85248,
    "c": 0.85255,
    "v": 802
  },
  {
    "dt": "2021.03.31 00:00",
    "o": 0.85241,
    "h": 0.85272,
    "l": 0.85215,
    "c": 0.85253,
    "v": 533
  },
  {
    "dt": "2021.03.31 01:00",
    "o": 0.85255,
    "h": 0.85286,
    "l": 0.85247,
    "c": 0.85273,
    "v": 494
  },
  {
    "dt": "2021.03.31 02:00",
    "o": 0.85268,
    "h": 0.8529,
    "l": 0.8525,
    "c": 0.85277,
    "v": 642
  },
  {
    "dt": "2021.03.31 03:00",
    "o": 0.85277,
    "h": 0.85317,
    "l": 0.8525,
    "c": 0.85287,
    "v": 1279
  },
  {
    "dt": "2021.03.31 04:00",
    "o": 0.8529,
    "h": 0.853,
    "l": 0.85245,
    "c": 0.85255,
    "v": 1094
  },
  {
    "dt": "2021.03.31 05:00",
    "o": 0.85254,
    "h": 0.85309,
    "l": 0.85242,
    "c": 0.85297,
    "v": 1025
  },
  {
    "dt": "2021.03.31 06:00",
    "o": 0.85298,
    "h": 0.85316,
    "l": 0.85267,
    "c": 0.85273,
    "v": 1037
  },
  {
    "dt": "2021.03.31 07:00",
    "o": 0.85273,
    "h": 0.8529,
    "l": 0.85248,
    "c": 0.85285,
    "v": 697
  },
  {
    "dt": "2021.03.31 08:00",
    "o": 0.85284,
    "h": 0.85329,
    "l": 0.85274,
    "c": 0.85275,
    "v": 1174
  },
  {
    "dt": "2021.03.31 09:00",
    "o": 0.85274,
    "h": 0.85326,
    "l": 0.85236,
    "c": 0.85263,
    "v": 2114
  },
  {
    "dt": "2021.03.31 10:00",
    "o": 0.85267,
    "h": 0.85367,
    "l": 0.85245,
    "c": 0.85361,
    "v": 2172
  },
  {
    "dt": "2021.03.31 11:00",
    "o": 0.85363,
    "h": 0.85369,
    "l": 0.85212,
    "c": 0.85216,
    "v": 2091
  },
  {
    "dt": "2021.03.31 12:00",
    "o": 0.85215,
    "h": 0.85225,
    "l": 0.85097,
    "c": 0.85099,
    "v": 2028
  },
  {
    "dt": "2021.03.31 13:00",
    "o": 0.85101,
    "h": 0.85257,
    "l": 0.8506,
    "c": 0.85257,
    "v": 1803
  },
  {
    "dt": "2021.03.31 14:00",
    "o": 0.85259,
    "h": 0.8527,
    "l": 0.85163,
    "c": 0.8519,
    "v": 1780
  },
  {
    "dt": "2021.03.31 15:00",
    "o": 0.85189,
    "h": 0.85225,
    "l": 0.85131,
    "c": 0.85159,
    "v": 2341
  },
  {
    "dt": "2021.03.31 16:00",
    "o": 0.8516,
    "h": 0.85189,
    "l": 0.85116,
    "c": 0.85137,
    "v": 2397
  },
  {
    "dt": "2021.03.31 17:00",
    "o": 0.85138,
    "h": 0.85203,
    "l": 0.8505,
    "c": 0.85175,
    "v": 3090
  },
  {
    "dt": "2021.03.31 18:00",
    "o": 0.85174,
    "h": 0.85223,
    "l": 0.85093,
    "c": 0.8512,
    "v": 2857
  },
  {
    "dt": "2021.03.31 19:00",
    "o": 0.85122,
    "h": 0.85139,
    "l": 0.85058,
    "c": 0.85134,
    "v": 1750
  },
  {
    "dt": "2021.03.31 20:00",
    "o": 0.85137,
    "h": 0.85138,
    "l": 0.85068,
    "c": 0.85083,
    "v": 1425
  },
  {
    "dt": "2021.03.31 21:00",
    "o": 0.85082,
    "h": 0.85128,
    "l": 0.85064,
    "c": 0.85091,
    "v": 1534
  },
  {
    "dt": "2021.03.31 22:00",
    "o": 0.85093,
    "h": 0.85114,
    "l": 0.85019,
    "c": 0.85063,
    "v": 1606
  },
  {
    "dt": "2021.03.31 23:00",
    "o": 0.85062,
    "h": 0.85089,
    "l": 0.8503,
    "c": 0.85085,
    "v": 1094
  }
]