[
  {
    "dt": "2021.07.01 00:00",
    "o": 1.46985,
    "h": 1.46997,
    "l": 1.46933,
    "c": 1.46961,
    "v": 227
  },
  {
    "dt": "2021.07.01 01:00",
    "o": 1.4696,
    "h": 1.47019,
    "l": 1.46927,
    "c": 1.46946,
    "v": 526
  },
  {
    "dt": "2021.07.01 02:00",
    "o": 1.46952,
    "h": 1.46959,
    "l": 1.46912,
    "c": 1.46928,
    "v": 512
  },
  {
    "dt": "2021.07.01 03:00",
    "o": 1.4693,
    "h": 1.47031,
    "l": 1.46885,
    "c": 1.4702,
    "v": 1327
  },
  {
    "dt": "2021.07.01 04:00",
    "o": 1.47021,
    "h": 1.47034,
    "l": 1.46962,
    "c": 1.46988,
    "v": 1610
  },
  {
    "dt": "2021.07.01 05:00",
    "o": 1.46983,
    "h": 1.47004,
    "l": 1.46922,
    "c": 1.46939,
    "v": 988
  },
  {
    "dt": "2021.07.01 06:00",
    "o": 1.46939,
    "h": 1.4696,
    "l": 1.46889,
    "c": 1.46889,
    "v": 1019
  },
  {
    "dt": "2021.07.01 07:00",
    "o": 1.46891,
    "h": 1.46918,
    "l": 1.46865,
    "c": 1.46908,
    "v": 685
  },
  {
    "dt": "2021.07.01 08:00",
    "o": 1.46907,
    "h": 1.46933,
    "l": 1.46857,
    "c": 1.46882,
    "v": 1417
  },
  {
    "dt": "2021.07.01 09:00",
    "o": 1.46877,
    "h": 1.47012,
    "l": 1.46812,
    "c": 1.47003,
    "v": 3281
  },
  {
    "dt": "2021.07.01 10:00",
    "o": 1.47,
    "h": 1.47046,
    "l": 1.46859,
    "c": 1.46907,
    "v": 4413
  },
  {
    "dt": "2021.07.01 11:00",
    "o": 1.46906,
    "h": 1.47008,
    "l": 1.46871,
    "c": 1.47002,
    "v": 3961
  },
  {
    "dt": "2021.07.01 12:00",
    "o": 1.47005,
    "h": 1.47119,
    "l": 1.4698,
    "c": 1.4702,
    "v": 3783
  },
  {
    "dt": "2021.07.01 13:00",
    "o": 1.47024,
    "h": 1.47149,
    "l": 1.4702,
    "c": 1.47091,
    "v": 3991
  },
  {
    "dt": "2021.07.01 14:00",
    "o": 1.47092,
    "h": 1.47115,
    "l": 1.46992,
    "c": 1.47027,
    "v": 4205
  },
  {
    "dt": "2021.07.01 15:00",
    "o": 1.47026,
    "h": 1.47057,
    "l": 1.46924,
    "c": 1.47012,
    "v": 4057
  },
  {
    "dt": "2021.07.01 16:00",
    "o": 1.47012,
    "h": 1.47014,
    "l": 1.46813,
    "c": 1.46898,
    "v": 4371
  },
  {
    "dt": "2021.07.01 17:00",
    "o": 1.4689,
    "h": 1.47056,
    "l": 1.46852,
    "c": 1.47019,
    "v": 4795
  },
  {
    "dt": "2021.07.01 18:00",
    "o": 1.4702,
    "h": 1.47271,
    "l": 1.47005,
    "c": 1.47062,
    "v": 4401
  },
  {
    "dt": "2021.07.01 19:00",
    "o": 1.47061,
    "h": 1.47239,
    "l": 1.4706,
    "c": 1.47224,
    "v": 3364
  },
  {
    "dt": "2021.07.01 20:00",
    "o": 1.47225,
    "h": 1.47352,
    "l": 1.47198,
    "c": 1.47288,
    "v": 2724
  },
  {
    "dt": "2021.07.01 21:00",
    "o": 1.47289,
    "h": 1.47363,
    "l": 1.4725,
    "c": 1.47342,
    "v": 2812
  },
  {
    "dt": "2021.07.01 22:00",
    "o": 1.47341,
    "h": 1.47397,
    "l": 1.47315,
    "c": 1.4735,
    "v": 2031
  },
  {
    "dt": "2021.07.01 23:00",
    "o": 1.47354,
    "h": 1.47403,
    "l": 1.4732,
    "c": 1.4732,
    "v": 1370
  },
  {
    "dt": "2021.07.02 00:00",
    "o": 1.47329,
    "h": 1.47399,
    "l": 1.47329,
    "c": 1.47393,
    "v": 170
  },
  {
    "dt": "2021.07.02 01:00",
    "o": 1.47393,
    "h": 1.47402,
    "l": 1.47328,
    "c": 1.47353,
    "v": 645
  },
  {
    "dt": "2021.07.02 02:00",
    "o": 1.47352,
    "h": 1.4737,
    "l": 1.47329,
    "c": 1.47356,
    "v": 793
  },
  {
    "dt": "2021.07.02 03:00",
    "o": 1.47357,
    "h": 1.4736,
    "l": 1.47298,
    "c": 1.47329,
    "v": 1643
  },
  {
    "dt": "2021.07.02 04:00",
    "o": 1.47327,
    "h": 1.4736,
    "l": 1.4728,
    "c": 1.47313,
    "v": 1857
  },
  {
    "dt": "2021.07.02 05:00",
    "o": 1.4731,
    "h": 1.47319,
    "l": 1.47215,
    "c": 1.47226,
    "v": 1761
  },
  {
    "dt": "2021.07.02 06:00",
    "o": 1.47228,
    "h": 1.47251,
    "l": 1.47186,
    "c": 1.47209,
    "v": 1305
  },
  {
    "dt": "2021.07.02 07:00",
    "o": 1.47208,
    "h": 1.4724,
    "l": 1.47186,
    "c": 1.47227,
    "v": 1098
  },
  {
    "dt": "2021.07.02 08:00",
    "o": 1.47228,
    "h": 1.47264,
    "l": 1.4721,
    "c": 1.47248,
    "v": 1439
  },
  {
    "dt": "2021.07.02 09:00",
    "o": 1.47243,
    "h": 1.47311,
    "l": 1.47161,
    "c": 1.47301,
    "v": 2900
  },
  {
    "dt": "2021.07.02 10:00",
    "o": 1.47302,
    "h": 1.47302,
    "l": 1.47043,
    "c": 1.47092,
    "v": 3851
  },
  {
    "dt": "2021.07.02 11:00",
    "o": 1.4709,
    "h": 1.47106,
    "l": 1.46973,
    "c": 1.47078,
    "v": 3810
  },
  {
    "dt": "2021.07.02 12:00",
    "o": 1.47073,
    "h": 1.47111,
    "l": 1.46925,
    "c": 1.46944,
    "v": 3076
  },
  {
    "dt": "2021.07.02 13:00",
    "o": 1.46951,
    "h": 1.46951,
    "l": 1.46813,
    "c": 1.4683,
    "v": 2546
  },
  {
    "dt": "2021.07.02 14:00",
    "o": 1.46833,
    "h": 1.4684,
    "l": 1.4673,
    "c": 1.46788,
    "v": 3281
  },
  {
    "dt": "2021.07.02 15:00",
    "o": 1.46787,
    "h": 1.46842,
    "l": 1.46615,
    "c": 1.46744,
    "v": 5023
  },
  {
    "dt": "2021.07.02 16:00",
    "o": 1.46743,
    "h": 1.46828,
    "l": 1.46443,
    "c": 1.46452,
    "v": 5512
  },
  {
    "dt": "2021.07.02 17:00",
    "o": 1.46455,
    "h": 1.46552,
    "l": 1.46343,
    "c": 1.46474,
    "v": 4948
  },
  {
    "dt": "2021.07.02 18:00",
    "o": 1.46469,
    "h": 1.46493,
    "l": 1.46216,
    "c": 1.46248,
    "v": 3582
  },
  {
    "dt": "2021.07.02 19:00",
    "o": 1.46247,
    "h": 1.46284,
    "l": 1.46163,
    "c": 1.46173,
    "v": 2722
  },
  {
    "dt": "2021.07.02 20:00",
    "o": 1.46168,
    "h": 1.46321,
    "l": 1.46162,
    "c": 1.46317,
    "v": 2712
  },
  {
    "dt": "2021.07.02 21:00",
    "o": 1.46316,
    "h": 1.46319,
    "l": 1.46122,
    "c": 1.46169,
    "v": 2366
  },
  {
    "dt": "2021.07.02 22:00",
    "o": 1.4617,
    "h": 1.46242,
    "l": 1.46168,
    "c": 1.46202,
    "v": 1653
  },
  {
    "dt": "2021.07.02 23:00",
    "o": 1.46195,
    "h": 1.46266,
    "l": 1.46144,
    "c": 1.46218,
    "v": 1884
  },
  {
    "dt": "2021.07.05 00:00",
    "o": 1.46059,
    "h": 1.46206,
    "l": 1.45971,
    "c": 1.46184,
    "v": 78
  },
  {
    "dt": "2021.07.05 01:00",
    "o": 1.46168,
    "h": 1.46246,
    "l": 1.46155,
    "c": 1.46186,
    "v": 1034
  },
  {
    "dt": "2021.07.05 02:00",
    "o": 1.46185,
    "h": 1.46226,
    "l": 1.46154,
    "c": 1.46181,
    "v": 974
  },
  {
    "dt": "2021.07.05 03:00",
    "o": 1.46182,
    "h": 1.46346,
    "l": 1.46182,
    "c": 1.46317,
    "v": 1778
  },
  {
    "dt": "2021.07.05 04:00",
    "o": 1.46313,
    "h": 1.46319,
    "l": 1.46267,
    "c": 1.46275,
    "v": 2045
  },
  {
    "dt": "2021.07.05 05:00",
    "o": 1.46275,
    "h": 1.46316,
    "l": 1.46263,
    "c": 1.46289,
    "v": 1320
  },
  {
    "dt": "2021.07.05 06:00",
    "o": 1.46289,
    "h": 1.46331,
    "l": 1.46275,
    "c": 1.46323,
    "v": 1287
  },
  {
    "dt": "2021.07.05 07:00",
    "o": 1.46319,
    "h": 1.46344,
    "l": 1.46309,
    "c": 1.4633,
    "v": 775
  },
  {
    "dt": "2021.07.05 08:00",
    "o": 1.46325,
    "h": 1.46368,
    "l": 1.46322,
    "c": 1.46324,
    "v": 1499
  },
  {
    "dt": "2021.07.05 09:00",
    "o": 1.46324,
    "h": 1.4648,
    "l": 1.46308,
    "c": 1.46406,
    "v": 2774
  },
  {
    "dt": "2021.07.05 10:00",
    "o": 1.46406,
    "h": 1.46609,
    "l": 1.46369,
    "c": 1.46532,
    "v": 3504
  },
  {
    "dt": "2021.07.05 11:00",
    "o": 1.46533,
    "h": 1.46541,
    "l": 1.46386,
    "c": 1.46489,
    "v": 3074
  },
  {
    "dt": "2021.07.05 12:00",
    "o": 1.46485,
    "h": 1.46624,
    "l": 1.46481,
    "c": 1.46624,
    "v": 2709
  },
  {
    "dt": "2021.07.05 13:00",
    "o": 1.46623,
    "h": 1.46676,
    "l": 1.46568,
    "c": 1.46622,
    "v": 2436
  },
  {
    "dt": "2021.07.05 14:00",
    "o": 1.46627,
    "h": 1.46702,
    "l": 1.46609,
    "c": 1.46686,
    "v": 2470
  },
  {
    "dt": "2021.07.05 15:00",
    "o": 1.46687,
    "h": 1.46704,
    "l": 1.46555,
    "c": 1.46674,
    "v": 2777
  },
  {
    "dt": "2021.07.05 16:00",
    "o": 1.46673,
    "h": 1.46686,
    "l": 1.46502,
    "c": 1.46635,
    "v": 2560
  },
  {
    "dt": "2021.07.05 17:00",
    "o": 1.46627,
    "h": 1.4667,
    "l": 1.46486,
    "c": 1.46518,
    "v": 2535
  },
  {
    "dt": "2021.07.05 18:00",
    "o": 1.46517,
    "h": 1.4654,
    "l": 1.46297,
    "c": 1.46302,
    "v": 2758
  },
  {
    "dt": "2021.07.05 19:00",
    "o": 1.46298,
    "h": 1.46373,
    "l": 1.46239,
    "c": 1.46339,
    "v": 2036
  },
  {
    "dt": "2021.07.05 20:00",
    "o": 1.46338,
    "h": 1.46382,
    "l": 1.4626,
    "c": 1.46358,
    "v": 1639
  },
  {
    "dt": "2021.07.05 21:00",
    "o": 1.46358,
    "h": 1.46407,
    "l": 1.46326,
    "c": 1.46405,
    "v": 971
  },
  {
    "dt": "2021.07.05 22:00",
    "o": 1.46405,
    "h": 1.46421,
    "l": 1.46296,
    "c": 1.46301,
    "v": 1582
  },
  {
    "dt": "2021.07.05 23:00",
    "o": 1.46301,
    "h": 1.46483,
    "l": 1.46288,
    "c": 1.46351,
    "v": 957
  },
  {
    "dt": "2021.07.06 00:00",
    "o": 1.46357,
    "h": 1.46357,
    "l": 1.4628,
    "c": 1.46323,
    "v": 80
  },
  {
    "dt": "2021.07.06 01:00",
    "o": 1.46321,
    "h": 1.46367,
    "l": 1.46226,
    "c": 1.46328,
    "v": 659
  },
  {
    "dt": "2021.07.06 02:00",
    "o": 1.46331,
    "h": 1.46405,
    "l": 1.4633,
    "c": 1.46381,
    "v": 668
  },
  {
    "dt": "2021.07.06 03:00",
    "o": 1.46382,
    "h": 1.46444,
    "l": 1.46335,
    "c": 1.46368,
    "v": 1683
  },
  {
    "dt": "2021.07.06 04:00",
    "o": 1.46373,
    "h": 1.46411,
    "l": 1.46269,
    "c": 1.46312,
    "v": 1938
  },
  {
    "dt": "2021.07.06 05:00",
    "o": 1.46311,
    "h": 1.46364,
    "l": 1.46268,
    "c": 1.46328,
    "v": 1922
  },
  {
    "dt": "2021.07.06 06:00",
    "o": 1.46326,
    "h": 1.46345,
    "l": 1.46285,
    "c": 1.46324,
    "v": 1668
  },
  {
    "dt": "2021.07.06 07:00",
    "o": 1.46323,
    "h": 1.46406,
    "l": 1.4632,
    "c": 1.46365,
    "v": 1799
  },
  {
    "dt": "2021.07.06 08:00",
    "o": 1.46364,
    "h": 1.46436,
    "l": 1.4634,
    "c": 1.46375,
    "v": 1715
  },
  {
    "dt": "2021.07.06 09:00",
    "o": 1.46371,
    "h": 1.46382,
    "l": 1.4629,
    "c": 1.46345,
    "v": 3064
  },
  {
    "dt": "2021.07.06 10:00",
    "o": 1.4634,
    "h": 1.46419,
    "l": 1.46306,
    "c": 1.46313,
    "v": 3994
  },
  {
    "dt": "2021.07.06 11:00",
    "o": 1.4631,
    "h": 1.46364,
    "l": 1.46174,
    "c": 1.46184,
    "v": 3995
  },
  {
    "dt": "2021.07.06 12:00",
    "o": 1.46184,
    "h": 1.46314,
    "l": 1.46156,
    "c": 1.46292,
    "v": 3224
  },
  {
    "dt": "2021.07.06 13:00",
    "o": 1.46286,
    "h": 1.46381,
    "l": 1.46214,
    "c": 1.4627,
    "v": 2911
  },
  {
    "dt": "2021.07.06 14:00",
    "o": 1.46275,
    "h": 1.46374,
    "l": 1.46209,
    "c": 1.4634,
    "v": 3168
  },
  {
    "dt": "2021.07.06 15:00",
    "o": 1.46339,
    "h": 1.465,
    "l": 1.46319,
    "c": 1.465,
    "v": 4170
  },
  {
    "dt": "2021.07.06 16:00",
    "o": 1.46504,
    "h": 1.46868,
    "l": 1.46458,
    "c": 1.4681,
    "v": 4955
  },
  {
    "dt": "2021.07.06 17:00",
    "o": 1.46823,
    "h": 1.477,
    "l": 1.46782,
    "c": 1.47628,
    "v": 5909
  },
  {
    "dt": "2021.07.06 18:00",
    "o": 1.47628,
    "h": 1.47706,
    "l": 1.47261,
    "c": 1.47273,
    "v": 4957
  },
  {
    "dt": "2021.07.06 19:00",
    "o": 1.47275,
    "h": 1.4755,
    "l": 1.47272,
    "c": 1.475,
    "v": 4476
  },
  {
    "dt": "2021.07.06 20:00",
    "o": 1.47502,
    "h": 1.47569,
    "l": 1.47185,
    "c": 1.47207,
    "v": 3373
  },
  {
    "dt": "2021.07.06 21:00",
    "o": 1.47206,
    "h": 1.47371,
    "l": 1.47205,
    "c": 1.47348,
    "v": 2732
  },
  {
    "dt": "2021.07.06 22:00",
    "o": 1.47345,
    "h": 1.47377,
    "l": 1.47271,
    "c": 1.47341,
    "v": 2153
  },
  {
    "dt": "2021.07.06 23:00",
    "o": 1.47339,
    "h": 1.4735,
    "l": 1.47238,
    "c": 1.47322,
    "v": 1459
  },
  {
    "dt": "2021.07.07 00:00",
    "o": 1.47286,
    "h": 1.47301,
    "l": 1.47207,
    "c": 1.47223,
    "v": 246
  },
  {
    "dt": "2021.07.07 01:00",
    "o": 1.47225,
    "h": 1.47308,
    "l": 1.47225,
    "c": 1.4727,
    "v": 579
  },
  {
    "dt": "2021.07.07 02:00",
    "o": 1.47273,
    "h": 1.47288,
    "l": 1.47234,
    "c": 1.47277,
    "v": 471
  },
  {
    "dt": "2021.07.07 03:00",
    "o": 1.4728,
    "h": 1.47393,
    "l": 1.47258,
    "c": 1.47393,
    "v": 2265
  },
  {
    "dt": "2021.07.07 04:00",
    "o": 1.47393,
    "h": 1.47414,
    "l": 1.47316,
    "c": 1.47407,
    "v": 2300
  },
  {
    "dt": "2021.07.07 05:00",
    "o": 1.474,
    "h": 1.47452,
    "l": 1.47386,
    "c": 1.4741,
    "v": 1784
  },
  {
    "dt": "2021.07.07 06:00",
    "o": 1.47409,
    "h": 1.47414,
    "l": 1.47355,
    "c": 1.47377,
    "v": 1496
  },
  {
    "dt": "2021.07.07 07:00",
    "o": 1.47378,
    "h": 1.4745,
    "l": 1.47339,
    "c": 1.4744,
    "v": 1482
  },
  {
    "dt": "2021.07.07 08:00",
    "o": 1.47438,
    "h": 1.47473,
    "l": 1.47388,
    "c": 1.47409,
    "v": 1688
  },
  {
    "dt": "2021.07.07 09:00",
    "o": 1.47407,
    "h": 1.47426,
    "l": 1.47258,
    "c": 1.47279,
    "v": 3091
  },
  {
    "dt": "2021.07.07 10:00",
    "o": 1.47275,
    "h": 1.47282,
    "l": 1.47029,
    "c": 1.47131,
    "v": 4243
  },
  {
    "dt": "2021.07.07 11:00",
    "o": 1.47125,
    "h": 1.47199,
    "l": 1.47062,
    "c": 1.47141,
    "v": 3625
  },
  {
    "dt": "2021.07.07 12:00",
    "o": 1.47144,
    "h": 1.47217,
    "l": 1.47041,
    "c": 1.47072,
    "v": 3428
  },
  {
    "dt": "2021.07.07 13:00",
    "o": 1.47063,
    "h": 1.47148,
    "l": 1.46951,
    "c": 1.47012,
    "v": 3294
  },
  {
    "dt": "2021.07.07 14:00",
    "o": 1.47013,
    "h": 1.47104,
    "l": 1.46946,
    "c": 1.46958,
    "v": 3284
  },
  {
    "dt": "2021.07.07 15:00",
    "o": 1.46955,
    "h": 1.47182,
    "l": 1.46932,
    "c": 1.47069,
    "v": 4686
  },
  {
    "dt": "2021.07.07 16:00",
    "o": 1.47066,
    "h": 1.47068,
    "l": 1.4676,
    "c": 1.46903,
    "v": 4627
  },
  {
    "dt": "2021.07.07 17:00",
    "o": 1.46906,
    "h": 1.47585,
    "l": 1.46904,
    "c": 1.47553,
    "v": 5521
  },
  {
    "dt": "2021.07.07 18:00",
    "o": 1.47554,
    "h": 1.47645,
    "l": 1.47462,
    "c": 1.47614,
    "v": 4715
  },
  {
    "dt": "2021.07.07 19:00",
    "o": 1.47605,
    "h": 1.47605,
    "l": 1.47278,
    "c": 1.47287,
    "v": 3708
  },
  {
    "dt": "2021.07.07 20:00",
    "o": 1.47286,
    "h": 1.47363,
    "l": 1.47169,
    "c": 1.4734,
    "v": 2905
  },
  {
    "dt": "2021.07.07 21:00",
    "o": 1.47339,
    "h": 1.47353,
    "l": 1.47116,
    "c": 1.4727,
    "v": 4941
  },
  {
    "dt": "2021.07.07 22:00",
    "o": 1.47272,
    "h": 1.47386,
    "l": 1.47235,
    "c": 1.4725,
    "v": 2993
  },
  {
    "dt": "2021.07.07 23:00",
    "o": 1.47248,
    "h": 1.47274,
    "l": 1.4709,
    "c": 1.4709,
    "v": 1882
  },
  {
    "dt": "2021.07.08 00:00",
    "o": 1.47085,
    "h": 1.47199,
    "l": 1.47044,
    "c": 1.4714,
    "v": 138
  },
  {
    "dt": "2021.07.08 01:00",
    "o": 1.47158,
    "h": 1.47237,
    "l": 1.47156,
    "c": 1.47218,
    "v": 621
  },
  {
    "dt": "2021.07.08 02:00",
    "o": 1.47217,
    "h": 1.47226,
    "l": 1.47179,
    "c": 1.47189,
    "v": 693
  },
  {
    "dt": "2021.07.08 03:00",
    "o": 1.47189,
    "h": 1.47391,
    "l": 1.47156,
    "c": 1.47372,
    "v": 2171
  },
  {
    "dt": "2021.07.08 04:00",
    "o": 1.47371,
    "h": 1.47498,
    "l": 1.4733,
    "c": 1.47475,
    "v": 2263
  },
  {
    "dt": "2021.07.08 05:00",
    "o": 1.47473,
    "h": 1.47521,
    "l": 1.47444,
    "c": 1.47485,
    "v": 2227
  },
  {
    "dt": "2021.07.08 06:00",
    "o": 1.47485,
    "h": 1.47618,
    "l": 1.47451,
    "c": 1.47618,
    "v": 1595
  },
  {
    "dt": "2021.07.08 07:00",
    "o": 1.47614,
    "h": 1.47701,
    "l": 1.47614,
    "c": 1.47699,
    "v": 1292
  },
  {
    "dt": "2021.07.08 08:00",
    "o": 1.47698,
    "h": 1.47827,
    "l": 1.47698,
    "c": 1.47811,
    "v": 2282
  },
  {
    "dt": "2021.07.08 09:00",
    "o": 1.47816,
    "h": 1.48004,
    "l": 1.47751,
    "c": 1.47997,
    "v": 4079
  },
  {
    "dt": "2021.07.08 10:00",
    "o": 1.47998,
    "h": 1.48361,
    "l": 1.47976,
    "c": 1.4832,
    "v": 5478
  },
  {
    "dt": "2021.07.08 11:00",
    "o": 1.48326,
    "h": 1.48561,
    "l": 1.48277,
    "c": 1.48533,
    "v": 5309
  },
  {
    "dt": "2021.07.08 12:00",
    "o": 1.48533,
    "h": 1.48677,
    "l": 1.48429,
    "c": 1.48674,
    "v": 4553
  },
  {
    "dt": "2021.07.08 13:00",
    "o": 1.48673,
    "h": 1.48942,
    "l": 1.48596,
    "c": 1.48669,
    "v": 5004
  },
  {
    "dt": "2021.07.08 14:00",
    "o": 1.48671,
    "h": 1.48687,
    "l": 1.48467,
    "c": 1.48663,
    "v": 4995
  },
  {
    "dt": "2021.07.08 15:00",
    "o": 1.48663,
    "h": 1.49137,
    "l": 1.48597,
    "c": 1.49114,
    "v": 5095
  },
  {
    "dt": "2021.07.08 16:00",
    "o": 1.4911,
    "h": 1.4911,
    "l": 1.4866,
    "c": 1.48665,
    "v": 5454
  },
  {
    "dt": "2021.07.08 17:00",
    "o": 1.48664,
    "h": 1.48944,
    "l": 1.48598,
    "c": 1.48752,
    "v": 5637
  },
  {
    "dt": "2021.07.08 18:00",
    "o": 1.48749,
    "h": 1.48764,
    "l": 1.48314,
    "c": 1.4839,
    "v": 4766
  },
  {
    "dt": "2021.07.08 19:00",
    "o": 1.48387,
    "h": 1.48397,
    "l": 1.48242,
    "c": 1.48336,
    "v": 3509
  },
  {
    "dt": "2021.07.08 20:00",
    "o": 1.4834,
    "h": 1.48385,
    "l": 1.48187,
    "c": 1.48194,
    "v": 3235
  },
  {
    "dt": "2021.07.08 21:00",
    "o": 1.48195,
    "h": 1.48372,
    "l": 1.48192,
    "c": 1.48364,
    "v": 2762
  },
  {
    "dt": "2021.07.08 22:00",
    "o": 1.48364,
    "h": 1.48503,
    "l": 1.48326,
    "c": 1.48478,
    "v": 3439
  },
  {
    "dt": "2021.07.08 23:00",
    "o": 1.48475,
    "h": 1.48512,
    "l": 1.4835,
    "c": 1.4835,
    "v": 1919
  },
  {
    "dt": "2021.07.09 00:00",
    "o": 1.48437,
    "h": 1.48437,
    "l": 1.48268,
    "c": 1.4842,
    "v": 193
  },
  {
    "dt": "2021.07.09 01:00",
    "o": 1.48443,
    "h": 1.48603,
    "l": 1.48387,
    "c": 1.48584,
    "v": 630
  },
  {
    "dt": "2021.07.09 02:00",
    "o": 1.48594,
    "h": 1.48596,
    "l": 1.48403,
    "c": 1.48436,
    "v": 1085
  },
  {
    "dt": "2021.07.09 03:00",
    "o": 1.48435,
    "h": 1.48446,
    "l": 1.48353,
    "c": 1.48377,
    "v": 2479
  },
  {
    "dt": "2021.07.09 04:00",
    "o": 1.4838,
    "h": 1.48623,
    "l": 1.4837,
    "c": 1.48591,
    "v": 3160
  },
  {
    "dt": "2021.07.09 05:00",
    "o": 1.48589,
    "h": 1.48607,
    "l": 1.48425,
    "c": 1.48492,
    "v": 2242
  },
  {
    "dt": "2021.07.09 06:00",
    "o": 1.48494,
    "h": 1.4852,
    "l": 1.48406,
    "c": 1.485,
    "v": 2112
  },
  {
    "dt": "2021.07.09 07:00",
    "o": 1.48501,
    "h": 1.48508,
    "l": 1.48329,
    "c": 1.48332,
    "v": 1815
  },
  {
    "dt": "2021.07.09 08:00",
    "o": 1.48331,
    "h": 1.48338,
    "l": 1.48253,
    "c": 1.48292,
    "v": 2187
  },
  {
    "dt": "2021.07.09 09:00",
    "o": 1.48291,
    "h": 1.48312,
    "l": 1.48191,
    "c": 1.4829,
    "v": 3328
  },
  {
    "dt": "2021.07.09 10:00",
    "o": 1.483,
    "h": 1.48339,
    "l": 1.48135,
    "c": 1.48281,
    "v": 4413
  },
  {
    "dt": "2021.07.09 11:00",
    "o": 1.48278,
    "h": 1.48291,
    "l": 1.48132,
    "c": 1.48153,
    "v": 4251
  },
  {
    "dt": "2021.07.09 12:00",
    "o": 1.48156,
    "h": 1.48287,
    "l": 1.48104,
    "c": 1.4828,
    "v": 4285
  },
  {
    "dt": "2021.07.09 13:00",
    "o": 1.48292,
    "h": 1.48478,
    "l": 1.48282,
    "c": 1.48328,
    "v": 3928
  },
  {
    "dt": "2021.07.09 14:00",
    "o": 1.48321,
    "h": 1.48414,
    "l": 1.48127,
    "c": 1.48127,
    "v": 3955
  },
  {
    "dt": "2021.07.09 15:00",
    "o": 1.4813,
    "h": 1.48245,
    "l": 1.47927,
    "c": 1.4819,
    "v": 4373
  },
  {
    "dt": "2021.07.09 16:00",
    "o": 1.48203,
    "h": 1.48287,
    "l": 1.48099,
    "c": 1.48228,
    "v": 4527
  },
  {
    "dt": "2021.07.09 17:00",
    "o": 1.48228,
    "h": 1.48354,
    "l": 1.47978,
    "c": 1.48049,
    "v": 4415
  },
  {
    "dt": "2021.07.09 18:00",
    "o": 1.48049,
    "h": 1.48071,
    "l": 1.47845,
    "c": 1.47971,
    "v": 3648
  },
  {
    "dt": "2021.07.09 19:00",
    "o": 1.47966,
    "h": 1.48132,
    "l": 1.47943,
    "c": 1.4803,
    "v": 2115
  },
  {
    "dt": "2021.07.09 20:00",
    "o": 1.48028,
    "h": 1.48065,
    "l": 1.4796,
    "c": 1.48002,
    "v": 1660
  },
  {
    "dt": "2021.07.09 21:00",
    "o": 1.48002,
    "h": 1.48047,
    "l": 1.47891,
    "c": 1.47912,
    "v": 1815
  },
  {
    "dt": "2021.07.09 22:00",
    "o": 1.47914,
    "h": 1.47925,
    "l": 1.47861,
    "c": 1.47876,
    "v": 1711
  },
  {
    "dt": "2021.07.09 23:00",
    "o": 1.47874,
    "h": 1.47948,
    "l": 1.47737,
    "c": 1.4776,
    "v": 1749
  },
  {
    "dt": "2021.07.12 00:00",
    "o": 1.47858,
    "h": 1.47897,
    "l": 1.47826,
    "c": 1.47868,
    "v": 36
  },
  {
    "dt": "2021.07.12 01:00",
    "o": 1.47843,
    "h": 1.47881,
    "l": 1.47731,
    "c": 1.47863,
    "v": 1296
  },
  {
    "dt": "2021.07.12 02:00",
    "o": 1.47857,
    "h": 1.47858,
    "l": 1.47743,
    "c": 1.47781,
    "v": 968
  },
  {
    "dt": "2021.07.12 03:00",
    "o": 1.47781,
    "h": 1.47963,
    "l": 1.4778,
    "c": 1.4791,
    "v": 1901
  },
  {
    "dt": "2021.07.12 04:00",
    "o": 1.47911,
    "h": 1.48012,
    "l": 1.47862,
    "c": 1.47919,
    "v": 2759
  },
  {
    "dt": "2021.07.12 05:00",
    "o": 1.47921,
    "h": 1.47987,
    "l": 1.47892,
    "c": 1.4795,
    "v": 1705
  },
  {
    "dt": "2021.07.12 06:00",
    "o": 1.4795,
    "h": 1.48045,
    "l": 1.47945,
    "c": 1.48026,
    "v": 1278
  },
  {
    "dt": "2021.07.12 07:00",
    "o": 1.48025,
    "h": 1.4803,
    "l": 1.47921,
    "c": 1.47921,
    "v": 1001
  },
  {
    "dt": "2021.07.12 08:00",
    "o": 1.47922,
    "h": 1.48013,
    "l": 1.47911,
    "c": 1.47929,
    "v": 1088
  },
  {
    "dt": "2021.07.12 09:00",
    "o": 1.47927,
    "h": 1.47978,
    "l": 1.47871,
    "c": 1.47974,
    "v": 2603
  },
  {
    "dt": "2021.07.12 10:00",
    "o": 1.47975,
    "h": 1.48201,
    "l": 1.47933,
    "c": 1.48119,
    "v": 4408
  },
  {
    "dt": "2021.07.12 11:00",
    "o": 1.48122,
    "h": 1.48203,
    "l": 1.47988,
    "c": 1.48203,
    "v": 3663
  },
  {
    "dt": "2021.07.12 12:00",
    "o": 1.48207,
    "h": 1.48269,
    "l": 1.48029,
    "c": 1.48058,
    "v": 3297
  },
  {
    "dt": "2021.07.12 13:00",
    "o": 1.48057,
    "h": 1.48311,
    "l": 1.48005,
    "c": 1.48179,
    "v": 3467
  },
  {
    "dt": "2021.07.12 14:00",
    "o": 1.48175,
    "h": 1.48203,
    "l": 1.47933,
    "c": 1.4805,
    "v": 3428
  },
  {
    "dt": "2021.07.12 15:00",
    "o": 1.4805,
    "h": 1.48222,
    "l": 1.48024,
    "c": 1.48094,
    "v": 3817
  },
  {
    "dt": "2021.07.12 16:00",
    "o": 1.48098,
    "h": 1.48232,
    "l": 1.48046,
    "c": 1.48155,
    "v": 4651
  },
  {
    "dt": "2021.07.12 17:00",
    "o": 1.48155,
    "h": 1.48184,
    "l": 1.47772,
    "c": 1.47815,
    "v": 4920
  },
  {
    "dt": "2021.07.12 18:00",
    "o": 1.47814,
    "h": 1.47842,
    "l": 1.47666,
    "c": 1.47679,
    "v": 3664
  },
  {
    "dt": "2021.07.12 19:00",
    "o": 1.47687,
    "h": 1.47845,
    "l": 1.47678,
    "c": 1.47808,
    "v": 2592
  },
  {
    "dt": "2021.07.12 20:00",
    "o": 1.47807,
    "h": 1.47847,
    "l": 1.47753,
    "c": 1.47833,
    "v": 2369
  },
  {
    "dt": "2021.07.12 21:00",
    "o": 1.47833,
    "h": 1.47864,
    "l": 1.47745,
    "c": 1.47816,
    "v": 2325
  },
  {
    "dt": "2021.07.12 22:00",
    "o": 1.47815,
    "h": 1.47831,
    "l": 1.47684,
    "c": 1.47696,
    "v": 1716
  },
  {
    "dt": "2021.07.12 23:00",
    "o": 1.47699,
    "h": 1.4775,
    "l": 1.47631,
    "c": 1.47638,
    "v": 1712
  },
  {
    "dt": "2021.07.13 00:00",
    "o": 1.47664,
    "h": 1.47696,
    "l": 1.47631,
    "c": 1.4769,
    "v": 166
  },
  {
    "dt": "2021.07.13 01:00",
    "o": 1.47692,
    "h": 1.4777,
    "l": 1.47679,
    "c": 1.4776,
    "v": 602
  },
  {
    "dt": "2021.07.13 02:00",
    "o": 1.47759,
    "h": 1.47761,
    "l": 1.47718,
    "c": 1.47754,
    "v": 949
  },
  {
    "dt": "2021.07.13 03:00",
    "o": 1.4776,
    "h": 1.47768,
    "l": 1.47666,
    "c": 1.47688,
    "v": 1197
  },
  {
    "dt": "2021.07.13 04:00",
    "o": 1.47686,
    "h": 1.47768,
    "l": 1.47668,
    "c": 1.47703,
    "v": 1793
  },
  {
    "dt": "2021.07.13 05:00",
    "o": 1.47704,
    "h": 1.47791,
    "l": 1.47672,
    "c": 1.47759,
    "v": 1602
  },
  {
    "dt": "2021.07.13 06:00",
    "o": 1.47757,
    "h": 1.47791,
    "l": 1.47712,
    "c": 1.47766,
    "v": 1119
  },
  {
    "dt": "2021.07.13 07:00",
    "o": 1.4777,
    "h": 1.4783,
    "l": 1.47752,
    "c": 1.47754,
    "v": 915
  },
  {
    "dt": "2021.07.13 08:00",
    "o": 1.47755,
    "h": 1.47804,
    "l": 1.47728,
    "c": 1.47742,
    "v": 1434
  },
  {
    "dt": "2021.07.13 09:00",
    "o": 1.47743,
    "h": 1.47833,
    "l": 1.47724,
    "c": 1.47733,
    "v": 2880
  },
  {
    "dt": "2021.07.13 10:00",
    "o": 1.47726,
    "h": 1.47793,
    "l": 1.47643,
    "c": 1.47734,
    "v": 3569
  },
  {
    "dt": "2021.07.13 11:00",
    "o": 1.47739,
    "h": 1.47774,
    "l": 1.47661,
    "c": 1.47685,
    "v": 3049
  },
  {
    "dt": "2021.07.13 12:00",
    "o": 1.47684,
    "h": 1.47779,
    "l": 1.47665,
    "c": 1.47777,
    "v": 2732
  },
  {
    "dt": "2021.07.13 13:00",
    "o": 1.47777,
    "h": 1.4784,
    "l": 1.47729,
    "c": 1.47835,
    "v": 2614
  },
  {
    "dt": "2021.07.13 14:00",
    "o": 1.47846,
    "h": 1.4792,
    "l": 1.47713,
    "c": 1.47718,
    "v": 2736
  },
  {
    "dt": "2021.07.13 15:00",
    "o": 1.47718,
    "h": 1.47965,
    "l": 1.47545,
    "c": 1.47851,
    "v": 4813
  },
  {
    "dt": "2021.07.13 16:00",
    "o": 1.47849,
    "h": 1.48067,
    "l": 1.47674,
    "c": 1.48063,
    "v": 5769
  },
  {
    "dt": "2021.07.13 17:00",
    "o": 1.48069,
    "h": 1.48162,
    "l": 1.47945,
    "c": 1.48107,
    "v": 5049
  },
  {
    "dt": "2021.07.13 18:00",
    "o": 1.48107,
    "h": 1.4815,
    "l": 1.47724,
    "c": 1.47756,
    "v": 3441
  },
  {
    "dt": "2021.07.13 19:00",
    "o": 1.47754,
    "h": 1.47802,
    "l": 1.47624,
    "c": 1.47659,
    "v": 2524
  },
  {
    "dt": "2021.07.13 20:00",
    "o": 1.47658,
    "h": 1.47672,
    "l": 1.47533,
    "c": 1.47548,
    "v": 3841
  },
  {
    "dt": "2021.07.13 21:00",
    "o": 1.47547,
    "h": 1.47581,
    "l": 1.47427,
    "c": 1.47487,
    "v": 3626
  },
  {
    "dt": "2021.07.13 22:00",
    "o": 1.47487,
    "h": 1.47525,
    "l": 1.47349,
    "c": 1.47358,
    "v": 2880
  },
  {
    "dt": "2021.07.13 23:00",
    "o": 1.47355,
    "h": 1.47422,
    "l": 1.47293,
    "c": 1.47293,
    "v": 1557
  },
  {
    "dt": "2021.07.14 00:00",
    "o": 1.47263,
    "h": 1.47375,
    "l": 1.47263,
    "c": 1.47327,
    "v": 223
  },
  {
    "dt": "2021.07.14 01:00",
    "o": 1.47354,
    "h": 1.47498,
    "l": 1.47316,
    "c": 1.47493,
    "v": 532
  },
  {
    "dt": "2021.07.14 02:00",
    "o": 1.47486,
    "h": 1.47494,
    "l": 1.47395,
    "c": 1.4743,
    "v": 596
  },
  {
    "dt": "2021.07.14 03:00",
    "o": 1.4743,
    "h": 1.47446,
    "l": 1.47349,
    "c": 1.47355,
    "v": 1702
  },
  {
    "dt": "2021.07.14 04:00",
    "o": 1.47357,
    "h": 1.47391,
    "l": 1.47315,
    "c": 1.47365,
    "v": 1831
  },
  {
    "dt": "2021.07.14 05:00",
    "o": 1.47364,
    "h": 1.47365,
    "l": 1.47164,
    "c": 1.47301,
    "v": 1977
  },
  {
    "dt": "2021.07.14 06:00",
    "o": 1.473,
    "h": 1.47348,
    "l": 1.47299,
    "c": 1.47324,
    "v": 965
  },
  {
    "dt": "2021.07.14 07:00",
    "o": 1.47325,
    "h": 1.47393,
    "l": 1.47323,
    "c": 1.47387,
    "v": 1038
  },
  {
    "dt": "2021.07.14 08:00",
    "o": 1.47387,
    "h": 1.47398,
    "l": 1.47361,
    "c": 1.47377,
    "v": 1646
  },
  {
    "dt": "2021.07.14 09:00",
    "o": 1.47384,
    "h": 1.47435,
    "l": 1.47315,
    "c": 1.47358,
    "v": 2990
  },
  {
    "dt": "2021.07.14 10:00",
    "o": 1.47358,
    "h": 1.47494,
    "l": 1.47334,
    "c": 1.47439,
    "v": 3850
  },
  {
    "dt": "2021.07.14 11:00",
    "o": 1.47437,
    "h": 1.47511,
    "l": 1.47387,
    "c": 1.47486,
    "v": 3655
  },
  {
    "dt": "2021.07.14 12:00",
    "o": 1.47485,
    "h": 1.47525,
    "l": 1.47354,
    "c": 1.47506,
    "v": 3289
  },
  {
    "dt": "2021.07.14 13:00",
    "o": 1.47514,
    "h": 1.47529,
    "l": 1.47411,
    "c": 1.47458,
    "v": 3031
  },
  {
    "dt": "2021.07.14 14:00",
    "o": 1.47458,
    "h": 1.47531,
    "l": 1.47272,
    "c": 1.47284,
    "v": 3453
  },
  {
    "dt": "2021.07.14 15:00",
    "o": 1.4728,
    "h": 1.47373,
    "l": 1.47175,
    "c": 1.47248,
    "v": 4660
  },
  {
    "dt": "2021.07.14 16:00",
    "o": 1.47247,
    "h": 1.47325,
    "l": 1.4713,
    "c": 1.47314,
    "v": 4807
  },
  {
    "dt": "2021.07.14 17:00",
    "o": 1.47315,
    "h": 1.47913,
    "l": 1.4691,
    "c": 1.47682,
    "v": 5366
  },
  {
    "dt": "2021.07.14 18:00",
    "o": 1.47679,
    "h": 1.48094,
    "l": 1.47674,
    "c": 1.48076,
    "v": 4256
  },
  {
    "dt": "2021.07.14 19:00",
    "o": 1.4808,
    "h": 1.48087,
    "l": 1.47946,
    "c": 1.48063,
    "v": 3577
  },
  {
    "dt": "2021.07.14 20:00",
    "o": 1.48061,
    "h": 1.48098,
    "l": 1.47944,
    "c": 1.47964,
    "v": 3331
  },
  {
    "dt": "2021.07.14 21:00",
    "o": 1.47963,
    "h": 1.4804,
    "l": 1.47835,
    "c": 1.47969,
    "v": 3098
  },
  {
    "dt": "2021.07.14 22:00",
    "o": 1.47967,
    "h": 1.48109,
    "l": 1.47954,
    "c": 1.47993,
    "v": 2688
  },
  {
    "dt": "2021.07.14 23:00",
    "o": 1.47994,
    "h": 1.48098,
    "l": 1.47964,
    "c": 1.47983,
    "v": 1602
  },
  {
    "dt": "2021.07.15 00:00",
    "o": 1.48074,
    "h": 1.48094,
    "l": 1.47993,
    "c": 1.48064,
    "v": 142
  },
  {
    "dt": "2021.07.15 01:00",
    "o": 1.48086,
    "h": 1.48109,
    "l": 1.48049,
    "c": 1.48106,
    "v": 608
  },
  {
    "dt": "2021.07.15 02:00",
    "o": 1.48104,
    "h": 1.48135,
    "l": 1.48079,
    "c": 1.48091,
    "v": 747
  },
  {
    "dt": "2021.07.15 03:00",
    "o": 1.48094,
    "h": 1.48285,
    "l": 1.48089,
    "c": 1.4823,
    "v": 2086
  },
  {
    "dt": "2021.07.15 04:00",
    "o": 1.48238,
    "h": 1.48307,
    "l": 1.48198,
    "c": 1.4823,
    "v": 2485
  },
  {
    "dt": "2021.07.15 05:00",
    "o": 1.48227,
    "h": 1.48365,
    "l": 1.48189,
    "c": 1.48347,
    "v": 2387
  },
  {
    "dt": "2021.07.15 06:00",
    "o": 1.48348,
    "h": 1.48388,
    "l": 1.483,
    "c": 1.48339,
    "v": 1183
  },
  {
    "dt": "2021.07.15 07:00",
    "o": 1.48339,
    "h": 1.48411,
    "l": 1.4833,
    "c": 1.48333,
    "v": 1297
  },
  {
    "dt": "2021.07.15 08:00",
    "o": 1.48341,
    "h": 1.48399,
    "l": 1.48292,
    "c": 1.48322,
    "v": 1769
  },
  {
    "dt": "2021.07.15 09:00",
    "o": 1.48323,
    "h": 1.48393,
    "l": 1.4828,
    "c": 1.48287,
    "v": 3284
  },
  {
    "dt": "2021.07.15 10:00",
    "o": 1.48286,
    "h": 1.48404,
    "l": 1.48166,
    "c": 1.48281,
    "v": 3857
  },
  {
    "dt": "2021.07.15 11:00",
    "o": 1.48287,
    "h": 1.48287,
    "l": 1.48102,
    "c": 1.48178,
    "v": 3805
  },
  {
    "dt": "2021.07.15 12:00",
    "o": 1.48185,
    "h": 1.48269,
    "l": 1.48121,
    "c": 1.48121,
    "v": 3076
  },
  {
    "dt": "2021.07.15 13:00",
    "o": 1.48123,
    "h": 1.48129,
    "l": 1.47878,
    "c": 1.47936,
    "v": 4262
  },
  {
    "dt": "2021.07.15 14:00",
    "o": 1.47935,
    "h": 1.48073,
    "l": 1.47934,
    "c": 1.4799,
    "v": 3916
  },
  {
    "dt": "2021.07.15 15:00",
    "o": 1.47989,
    "h": 1.48247,
    "l": 1.47988,
    "c": 1.48237,
    "v": 4045
  },
  {
    "dt": "2021.07.15 16:00",
    "o": 1.48239,
    "h": 1.4845,
    "l": 1.48233,
    "c": 1.48274,
    "v": 4838
  },
  {
    "dt": "2021.07.15 17:00",
    "o": 1.48273,
    "h": 1.4833,
    "l": 1.48108,
    "c": 1.4828,
    "v": 4836
  },
  {
    "dt": "2021.07.15 18:00",
    "o": 1.48278,
    "h": 1.48557,
    "l": 1.4815,
    "c": 1.48527,
    "v": 4145
  },
  {
    "dt": "2021.07.15 19:00",
    "o": 1.48516,
    "h": 1.48556,
    "l": 1.48359,
    "c": 1.48554,
    "v": 3550
  },
  {
    "dt": "2021.07.15 20:00",
    "o": 1.48555,
    "h": 1.48828,
    "l": 1.48536,
    "c": 1.48775,
    "v": 3860
  },
  {
    "dt": "2021.07.15 21:00",
    "o": 1.48775,
    "h": 1.48885,
    "l": 1.48698,
    "c": 1.48852,
    "v": 3699
  },
  {
    "dt": "2021.07.15 22:00",
    "o": 1.48857,
    "h": 1.48927,
    "l": 1.48787,
    "c": 1.48812,
    "v": 2459
  },
  {
    "dt": "2021.07.15 23:00",
    "o": 1.48811,
    "h": 1.48829,
    "l": 1.48699,
    "c": 1.48734,
    "v": 1898
  },
  {
    "dt": "2021.07.16 00:00",
    "o": 1.48708,
    "h": 1.48717,
    "l": 1.48631,
    "c": 1.48705,
    "v": 192
  },
  {
    "dt": "2021.07.16 01:00",
    "o": 1.48714,
    "h": 1.48765,
    "l": 1.48636,
    "c": 1.4876,
    "v": 1039
  },
  {
    "dt": "2021.07.16 02:00",
    "o": 1.48754,
    "h": 1.48801,
    "l": 1.48702,
    "c": 1.48715,
    "v": 880
  },
  {
    "dt": "2021.07.16 03:00",
    "o": 1.48716,
    "h": 1.48784,
    "l": 1.48611,
    "c": 1.48701,
    "v": 1931
  },
  {
    "dt": "2021.07.16 04:00",
    "o": 1.48701,
    "h": 1.48725,
    "l": 1.48541,
    "c": 1.48545,
    "v": 2386
  },
  {
    "dt": "2021.07.16 05:00",
    "o": 1.48548,
    "h": 1.48585,
    "l": 1.48476,
    "c": 1.48534,
    "v": 1683
  },
  {
    "dt": "2021.07.16 06:00",
    "o": 1.48529,
    "h": 1.48529,
    "l": 1.48461,
    "c": 1.48507,
    "v": 1638
  },
  {
    "dt": "2021.07.16 07:00",
    "o": 1.48506,
    "h": 1.48506,
    "l": 1.48402,
    "c": 1.48421,
    "v": 1031
  },
  {
    "dt": "2021.07.16 08:00",
    "o": 1.48421,
    "h": 1.4852,
    "l": 1.48404,
    "c": 1.48449,
    "v": 1418
  },
  {
    "dt": "2021.07.16 09:00",
    "o": 1.48461,
    "h": 1.48552,
    "l": 1.48436,
    "c": 1.48501,
    "v": 2621
  },
  {
    "dt": "2021.07.16 10:00",
    "o": 1.48499,
    "h": 1.48649,
    "l": 1.48464,
    "c": 1.48643,
    "v": 3695
  },
  {
    "dt": "2021.07.16 11:00",
    "o": 1.48645,
    "h": 1.48669,
    "l": 1.48409,
    "c": 1.48476,
    "v": 3548
  },
  {
    "dt": "2021.07.16 12:00",
    "o": 1.48478,
    "h": 1.48668,
    "l": 1.48447,
    "c": 1.48608,
    "v": 3294
  },
  {
    "dt": "2021.07.16 13:00",
    "o": 1.4861,
    "h": 1.48684,
    "l": 1.48554,
    "c": 1.4856,
    "v": 3388
  },
  {
    "dt": "2021.07.16 14:00",
    "o": 1.48555,
    "h": 1.48662,
    "l": 1.48521,
    "c": 1.48537,
    "v": 3001
  },
  {
    "dt": "2021.07.16 15:00",
    "o": 1.48532,
    "h": 1.48569,
    "l": 1.48415,
    "c": 1.48545,
    "v": 4008
  },
  {
    "dt": "2021.07.16 16:00",
    "o": 1.48552,
    "h": 1.48677,
    "l": 1.48449,
    "c": 1.4859,
    "v": 4388
  },
  {
    "dt": "2021.07.16 17:00",
    "o": 1.48589,
    "h": 1.48803,
    "l": 1.48569,
    "c": 1.48734,
    "v": 5220
  },
  {
    "dt": "2021.07.16 18:00",
    "o": 1.48729,
    "h": 1.48803,
    "l": 1.48603,
    "c": 1.48631,
    "v": 4063
  },
  {
    "dt": "2021.07.16 19:00",
    "o": 1.48631,
    "h": 1.4867,
    "l": 1.48556,
    "c": 1.48645,
    "v": 2712
  },
  {
    "dt": "2021.07.16 20:00",
    "o": 1.48645,
    "h": 1.48788,
    "l": 1.48618,
    "c": 1.48767,
    "v": 2861
  },
  {
    "dt": "2021.07.16 21:00",
    "o": 1.48767,
    "h": 1.48904,
    "l": 1.48765,
    "c": 1.48846,
    "v": 3739
  },
  {
    "dt": "2021.07.16 22:00",
    "o": 1.48847,
    "h": 1.48937,
    "l": 1.48838,
    "c": 1.48844,
    "v": 2827
  },
  {
    "dt": "2021.07.16 23:00",
    "o": 1.48844,
    "h": 1.48978,
    "l": 1.48765,
    "c": 1.48875,
    "v": 1798
  },
  {
    "dt": "2021.07.19 00:00",
    "o": 1.48831,
    "h": 1.48883,
    "l": 1.48773,
    "c": 1.48863,
    "v": 80
  },
  {
    "dt": "2021.07.19 01:00",
    "o": 1.48855,
    "h": 1.49026,
    "l": 1.4884,
    "c": 1.49026,
    "v": 674
  },
  {
    "dt": "2021.07.19 02:00",
    "o": 1.49023,
    "h": 1.49065,
    "l": 1.48967,
    "c": 1.49032,
    "v": 1358
  },
  {
    "dt": "2021.07.19 03:00",
    "o": 1.49033,
    "h": 1.49137,
    "l": 1.49014,
    "c": 1.491,
    "v": 2095
  },
  {
    "dt": "2021.07.19 04:00",
    "o": 1.49101,
    "h": 1.49113,
    "l": 1.49008,
    "c": 1.49076,
    "v": 2172
  },
  {
    "dt": "2021.07.19 05:00",
    "o": 1.49077,
    "h": 1.4919,
    "l": 1.49072,
    "c": 1.49188,
    "v": 1681
  },
  {
    "dt": "2021.07.19 06:00",
    "o": 1.49189,
    "h": 1.49202,
    "l": 1.49143,
    "c": 1.49181,
    "v": 1272
  },
  {
    "dt": "2021.07.19 07:00",
    "o": 1.49175,
    "h": 1.49257,
    "l": 1.49171,
    "c": 1.49229,
    "v": 1310
  },
  {
    "dt": "2021.07.19 08:00",
    "o": 1.49228,
    "h": 1.49274,
    "l": 1.49216,
    "c": 1.4923,
    "v": 1511
  },
  {
    "dt": "2021.07.19 09:00",
    "o": 1.49226,
    "h": 1.494,
    "l": 1.49203,
    "c": 1.49341,
    "v": 2571
  },
  {
    "dt": "2021.07.19 10:00",
    "o": 1.49326,
    "h": 1.49718,
    "l": 1.49323,
    "c": 1.49564,
    "v": 4502
  },
  {
    "dt": "2021.07.19 11:00",
    "o": 1.4956,
    "h": 1.49905,
    "l": 1.49472,
    "c": 1.49887,
    "v": 4572
  },
  {
    "dt": "2021.07.19 12:00",
    "o": 1.49886,
    "h": 1.5042,
    "l": 1.49826,
    "c": 1.50233,
    "v": 3962
  },
  {
    "dt": "2021.07.19 13:00",
    "o": 1.50237,
    "h": 1.50783,
    "l": 1.50208,
    "c": 1.5053,
    "v": 4159
  },
  {
    "dt": "2021.07.19 14:00",
    "o": 1.50528,
    "h": 1.50575,
    "l": 1.50277,
    "c": 1.50369,
    "v": 4343
  },
  {
    "dt": "2021.07.19 15:00",
    "o": 1.50374,
    "h": 1.50453,
    "l": 1.50065,
    "c": 1.50225,
    "v": 4621
  },
  {
    "dt": "2021.07.19 16:00",
    "o": 1.50226,
    "h": 1.50847,
    "l": 1.5021,
    "c": 1.50708,
    "v": 5704
  },
  {
    "dt": "2021.07.19 17:00",
    "o": 1.5071,
    "h": 1.50986,
    "l": 1.50502,
    "c": 1.50821,
    "v": 5984
  },
  {
    "dt": "2021.07.19 18:00",
    "o": 1.50822,
    "h": 1.50868,
    "l": 1.50503,
    "c": 1.50536,
    "v": 5125
  },
  {
    "dt": "2021.07.19 19:00",
    "o": 1.50535,
    "h": 1.50748,
    "l": 1.50516,
    "c": 1.50686,
    "v": 4404
  },
  {
    "dt": "2021.07.19 20:00",
    "o": 1.50685,
    "h": 1.50694,
    "l": 1.50446,
    "c": 1.50487,
    "v": 4715
  },
  {
    "dt": "2021.07.19 21:00",
    "o": 1.50483,
    "h": 1.50589,
    "l": 1.50407,
    "c": 1.5043,
    "v": 4123
  },
  {
    "dt": "2021.07.19 22:00",
    "o": 1.5043,
    "h": 1.50547,
    "l": 1.50361,
    "c": 1.50368,
    "v": 3785
  },
  {
    "dt": "2021.07.19 23:00",
    "o": 1.50367,
    "h": 1.50439,
    "l": 1.50295,
    "c": 1.50315,
    "v": 2150
  },
  {
    "dt": "2021.07.20 00:00",
    "o": 1.50342,
    "h": 1.50389,
    "l": 1.50274,
    "c": 1.50346,
    "v": 400
  },
  {
    "dt": "2021.07.20 01:00",
    "o": 1.50357,
    "h": 1.50424,
    "l": 1.50345,
    "c": 1.50385,
    "v": 725
  },
  {
    "dt": "2021.07.20 02:00",
    "o": 1.50384,
    "h": 1.50384,
    "l": 1.503,
    "c": 1.50333,
    "v": 697
  },
  {
    "dt": "2021.07.20 03:00",
    "o": 1.50331,
    "h": 1.50358,
    "l": 1.50271,
    "c": 1.50309,
    "v": 1748
  },
  {
    "dt": "2021.07.20 04:00",
    "o": 1.50311,
    "h": 1.5034,
    "l": 1.50243,
    "c": 1.50255,
    "v": 2024
  },
  {
    "dt": "2021.07.20 05:00",
    "o": 1.50257,
    "h": 1.50298,
    "l": 1.50239,
    "c": 1.50279,
    "v": 2347
  },
  {
    "dt": "2021.07.20 06:00",
    "o": 1.50279,
    "h": 1.50408,
    "l": 1.50213,
    "c": 1.50397,
    "v": 2489
  },
  {
    "dt": "2021.07.20 07:00",
    "o": 1.50396,
    "h": 1.50502,
    "l": 1.50378,
    "c": 1.50379,
    "v": 1874
  },
  {
    "dt": "2021.07.20 08:00",
    "o": 1.50376,
    "h": 1.50494,
    "l": 1.50362,
    "c": 1.50457,
    "v": 2325
  },
  {
    "dt": "2021.07.20 09:00",
    "o": 1.50455,
    "h": 1.50556,
    "l": 1.50385,
    "c": 1.50448,
    "v": 3716
  },
  {
    "dt": "2021.07.20 10:00",
    "o": 1.50448,
    "h": 1.50594,
    "l": 1.50343,
    "c": 1.50569,
    "v": 4727
  },
  {
    "dt": "2021.07.20 11:00",
    "o": 1.50575,
    "h": 1.50576,
    "l": 1.50307,
    "c": 1.50317,
    "v": 4609
  },
  {
    "dt": "2021.07.20 12:00",
    "o": 1.50314,
    "h": 1.50477,
    "l": 1.50259,
    "c": 1.50439,
    "v": 4152
  },
  {
    "dt": "2021.07.20 13:00",
    "o": 1.5044,
    "h": 1.50542,
    "l": 1.50263,
    "c": 1.50342,
    "v": 4020
  },
  {
    "dt": "2021.07.20 14:00",
    "o": 1.50339,
    "h": 1.50401,
    "l": 1.50162,
    "c": 1.50276,
    "v": 4326
  },
  {
    "dt": "2021.07.20 15:00",
    "o": 1.50276,
    "h": 1.50356,
    "l": 1.50055,
    "c": 1.50348,
    "v": 4546
  },
  {
    "dt": "2021.07.20 16:00",
    "o": 1.50346,
    "h": 1.504,
    "l": 1.49962,
    "c": 1.50102,
    "v": 5709
  },
  {
    "dt": "2021.07.20 17:00",
    "o": 1.50101,
    "h": 1.50114,
    "l": 1.49779,
    "c": 1.49877,
    "v": 5452
  },
  {
    "dt": "2021.07.20 18:00",
    "o": 1.49875,
    "h": 1.50051,
    "l": 1.49763,
    "c": 1.49811,
    "v": 4636
  },
  {
    "dt": "2021.07.20 19:00",
    "o": 1.49815,
    "h": 1.49921,
    "l": 1.49683,
    "c": 1.49684,
    "v": 3842
  },
  {
    "dt": "2021.07.20 20:00",
    "o": 1.49685,
    "h": 1.49862,
    "l": 1.49665,
    "c": 1.49784,
    "v": 3493
  },
  {
    "dt": "2021.07.20 21:00",
    "o": 1.4979,
    "h": 1.49791,
    "l": 1.49524,
    "c": 1.49562,
    "v": 2990
  },
  {
    "dt": "2021.07.20 22:00",
    "o": 1.49561,
    "h": 1.49564,
    "l": 1.4932,
    "c": 1.49359,
    "v": 2391
  },
  {
    "dt": "2021.07.20 23:00",
    "o": 1.49362,
    "h": 1.49408,
    "l": 1.4933,
    "c": 1.49337,
    "v": 1788
  },
  {
    "dt": "2021.07.21 00:00",
    "o": 1.49348,
    "h": 1.49384,
    "l": 1.49284,
    "c": 1.49318,
    "v": 196
  },
  {
    "dt": "2021.07.21 01:00",
    "o": 1.49319,
    "h": 1.4939,
    "l": 1.49314,
    "c": 1.49374,
    "v": 597
  },
  {
    "dt": "2021.07.21 02:00",
    "o": 1.49374,
    "h": 1.49393,
    "l": 1.49307,
    "c": 1.49321,
    "v": 675
  },
  {
    "dt": "2021.07.21 03:00",
    "o": 1.49326,
    "h": 1.49405,
    "l": 1.49296,
    "c": 1.49385,
    "v": 1859
  },
  {
    "dt": "2021.07.21 04:00",
    "o": 1.49387,
    "h": 1.49467,
    "l": 1.49332,
    "c": 1.49446,
    "v": 1786
  },
  {
    "dt": "2021.07.21 05:00",
    "o": 1.49452,
    "h": 1.49647,
    "l": 1.49443,
    "c": 1.49644,
    "v": 2304
  },
  {
    "dt": "2021.07.21 06:00",
    "o": 1.49641,
    "h": 1.49645,
    "l": 1.49541,
    "c": 1.49542,
    "v": 1547
  },
  {
    "dt": "2021.07.21 07:00",
    "o": 1.49541,
    "h": 1.49585,
    "l": 1.49525,
    "c": 1.4958,
    "v": 891
  },
  {
    "dt": "2021.07.21 08:00",
    "o": 1.49579,
    "h": 1.49623,
    "l": 1.4955,
    "c": 1.49614,
    "v": 1626
  },
  {
    "dt": "2021.07.21 09:00",
    "o": 1.49616,
    "h": 1.49733,
    "l": 1.49557,
    "c": 1.4957,
    "v": 3705
  },
  {
    "dt": "2021.07.21 10:00",
    "o": 1.49554,
    "h": 1.49623,
    "l": 1.49345,
    "c": 1.49359,
    "v": 4649
  },
  {
    "dt": "2021.07.21 11:00",
    "o": 1.49362,
    "h": 1.49381,
    "l": 1.49226,
    "c": 1.49281,
    "v": 3903
  },
  {
    "dt": "2021.07.21 12:00",
    "o": 1.49275,
    "h": 1.49336,
    "l": 1.49191,
    "c": 1.49325,
    "v": 3404
  },
  {
    "dt": "2021.07.21 13:00",
    "o": 1.4932,
    "h": 1.4941,
    "l": 1.49242,
    "c": 1.49296,
    "v": 3222
  },
  {
    "dt": "2021.07.21 14:00",
    "o": 1.49302,
    "h": 1.49505,
    "l": 1.49254,
    "c": 1.49461,
    "v": 3605
  },
  {
    "dt": "2021.07.21 15:00",
    "o": 1.4946,
    "h": 1.49466,
    "l": 1.48985,
    "c": 1.49011,
    "v": 4127
  },
  {
    "dt": "2021.07.21 16:00",
    "o": 1.49017,
    "h": 1.49051,
    "l": 1.48704,
    "c": 1.489,
    "v": 4841
  },
  {
    "dt": "2021.07.21 17:00",
    "o": 1.489,
    "h": 1.48902,
    "l": 1.48291,
    "c": 1.48356,
    "v": 5150
  },
  {
    "dt": "2021.07.21 18:00",
    "o": 1.48359,
    "h": 1.48377,
    "l": 1.47746,
    "c": 1.47943,
    "v": 4680
  },
  {
    "dt": "2021.07.21 19:00",
    "o": 1.47942,
    "h": 1.48204,
    "l": 1.47854,
    "c": 1.48095,
    "v": 3719
  },
  {
    "dt": "2021.07.21 20:00",
    "o": 1.48097,
    "h": 1.48176,
    "l": 1.48054,
    "c": 1.48101,
    "v": 3313
  },
  {
    "dt": "2021.07.21 21:00",
    "o": 1.48099,
    "h": 1.48207,
    "l": 1.48047,
    "c": 1.48193,
    "v": 2904
  },
  {
    "dt": "2021.07.21 22:00",
    "o": 1.48195,
    "h": 1.48295,
    "l": 1.48171,
    "c": 1.48255,
    "v": 2316
  },
  {
    "dt": "2021.07.21 23:00",
    "o": 1.48249,
    "h": 1.48283,
    "l": 1.48003,
    "c": 1.48003,
    "v": 1842
  },
  {
    "dt": "2021.07.22 00:00",
    "o": 1.47996,
    "h": 1.48188,
    "l": 1.47975,
    "c": 1.48141,
    "v": 246
  },
  {
    "dt": "2021.07.22 01:00",
    "o": 1.48139,
    "h": 1.4821,
    "l": 1.48128,
    "c": 1.48164,
    "v": 727
  },
  {
    "dt": "2021.07.22 02:00",
    "o": 1.48161,
    "h": 1.48233,
    "l": 1.48138,
    "c": 1.48232,
    "v": 641
  },
  {
    "dt": "2021.07.22 03:00",
    "o": 1.48231,
    "h": 1.48309,
    "l": 1.48207,
    "c": 1.48304,
    "v": 1109
  },
  {
    "dt": "2021.07.22 04:00",
    "o": 1.48305,
    "h": 1.4836,
    "l": 1.48267,
    "c": 1.48343,
    "v": 1540
  },
  {
    "dt": "2021.07.22 05:00",
    "o": 1.48338,
    "h": 1.48371,
    "l": 1.48298,
    "c": 1.48306,
    "v": 1405
  },
  {
    "dt": "2021.07.22 06:00",
    "o": 1.48305,
    "h": 1.48364,
    "l": 1.48292,
    "c": 1.48336,
    "v": 1189
  },
  {
    "dt": "2021.07.22 07:00",
    "o": 1.48334,
    "h": 1.48441,
    "l": 1.48309,
    "c": 1.4843,
    "v": 899
  },
  {
    "dt": "2021.07.22 08:00",
    "o": 1.48429,
    "h": 1.48454,
    "l": 1.48388,
    "c": 1.48409,
    "v": 1353
  },
  {
    "dt": "2021.07.22 09:00",
    "o": 1.48408,
    "h": 1.4844,
    "l": 1.48301,
    "c": 1.48305,
    "v": 3245
  },
  {
    "dt": "2021.07.22 10:00",
    "o": 1.48307,
    "h": 1.48358,
    "l": 1.48205,
    "c": 1.48248,
    "v": 3794
  },
  {
    "dt": "2021.07.22 11:00",
    "o": 1.48249,
    "h": 1.48286,
    "l": 1.48087,
    "c": 1.48265,
    "v": 3659
  },
  {
    "dt": "2021.07.22 12:00",
    "o": 1.48264,
    "h": 1.48295,
    "l": 1.48093,
    "c": 1.48113,
    "v": 2814
  },
  {
    "dt": "2021.07.22 13:00",
    "o": 1.48115,
    "h": 1.48142,
    "l": 1.47952,
    "c": 1.47956,
    "v": 3059
  },
  {
    "dt": "2021.07.22 14:00",
    "o": 1.47957,
    "h": 1.48234,
    "l": 1.47799,
    "c": 1.47892,
    "v": 3940
  },
  {
    "dt": "2021.07.22 15:00",
    "o": 1.47894,
    "h": 1.48295,
    "l": 1.47733,
    "c": 1.48164,
    "v": 5258
  },
  {
    "dt": "2021.07.22 16:00",
    "o": 1.48167,
    "h": 1.4881,
    "l": 1.48135,
    "c": 1.48623,
    "v": 5512
  },
  {
    "dt": "2021.07.22 17:00",
    "o": 1.48628,
    "h": 1.48694,
    "l": 1.48195,
    "c": 1.48231,
    "v": 5320
  },
  {
    "dt": "2021.07.22 18:00",
    "o": 1.4823,
    "h": 1.4823,
    "l": 1.48007,
    "c": 1.48007,
    "v": 4336
  },
  {
    "dt": "2021.07.22 19:00",
    "o": 1.48007,
    "h": 1.4804,
    "l": 1.47771,
    "c": 1.47796,
    "v": 3856
  },
  {
    "dt": "2021.07.22 20:00",
    "o": 1.478,
    "h": 1.47886,
    "l": 1.47788,
    "c": 1.47799,
    "v": 2998
  },
  {
    "dt": "2021.07.22 21:00",
    "o": 1.47798,
    "h": 1.47944,
    "l": 1.4778,
    "c": 1.47801,
    "v": 2992
  },
  {
    "dt": "2021.07.22 22:00",
    "o": 1.47801,
    "h": 1.47933,
    "l": 1.47762,
    "c": 1.47882,
    "v": 2071
  },
  {
    "dt": "2021.07.22 23:00",
    "o": 1.47882,
    "h": 1.47906,
    "l": 1.47784,
    "c": 1.47817,
    "v": 1441
  },
  {
    "dt": "2021.07.23 00:00",
    "o": 1.47786,
    "h": 1.47841,
    "l": 1.47662,
    "c": 1.47781,
    "v": 358
  },
  {
    "dt": "2021.07.23 01:00",
    "o": 1.47785,
    "h": 1.47916,
    "l": 1.47768,
    "c": 1.479,
    "v": 760
  },
  {
    "dt": "2021.07.23 02:00",
    "o": 1.47898,
    "h": 1.47934,
    "l": 1.47878,
    "c": 1.47896,
    "v": 666
  },
  {
    "dt": "2021.07.23 03:00",
    "o": 1.47894,
    "h": 1.47924,
    "l": 1.47871,
    "c": 1.47901,
    "v": 1090
  },
  {
    "dt": "2021.07.23 04:00",
    "o": 1.47902,
    "h": 1.47979,
    "l": 1.47882,
    "c": 1.47969,
    "v": 1395
  },
  {
    "dt": "2021.07.23 05:00",
    "o": 1.47973,
    "h": 1.47988,
    "l": 1.47934,
    "c": 1.47985,
    "v": 1228
  },
  {
    "dt": "2021.07.23 06:00",
    "o": 1.47981,
    "h": 1.48005,
    "l": 1.47936,
    "c": 1.47943,
    "v": 1061
  },
  {
    "dt": "2021.07.23 07:00",
    "o": 1.47944,
    "h": 1.47958,
    "l": 1.47913,
    "c": 1.47931,
    "v": 1600
  },
  {
    "dt": "2021.07.23 08:00",
    "o": 1.47933,
    "h": 1.4795,
    "l": 1.47909,
    "c": 1.47915,
    "v": 1242
  },
  {
    "dt": "2021.07.23 09:00",
    "o": 1.47917,
    "h": 1.48006,
    "l": 1.47905,
    "c": 1.47983,
    "v": 2875
  },
  {
    "dt": "2021.07.23 10:00",
    "o": 1.47983,
    "h": 1.48094,
    "l": 1.47925,
    "c": 1.48051,
    "v": 4243
  },
  {
    "dt": "2021.07.23 11:00",
    "o": 1.48056,
    "h": 1.48115,
    "l": 1.47943,
    "c": 1.47944,
    "v": 3770
  },
  {
    "dt": "2021.07.23 12:00",
    "o": 1.47946,
    "h": 1.47957,
    "l": 1.47831,
    "c": 1.47892,
    "v": 3227
  },
  {
    "dt": "2021.07.23 13:00",
    "o": 1.47896,
    "h": 1.47904,
    "l": 1.47762,
    "c": 1.47763,
    "v": 3191
  },
  {
    "dt": "2021.07.23 14:00",
    "o": 1.47763,
    "h": 1.47973,
    "l": 1.47763,
    "c": 1.47792,
    "v": 3360
  },
  {
    "dt": "2021.07.23 15:00",
    "o": 1.47797,
    "h": 1.48059,
    "l": 1.47765,
    "c": 1.48011,
    "v": 3580
  },
  {
    "dt": "2021.07.23 16:00",
    "o": 1.4801,
    "h": 1.48127,
    "l": 1.47869,
    "c": 1.48103,
    "v": 4392
  },
  {
    "dt": "2021.07.23 17:00",
    "o": 1.48098,
    "h": 1.48243,
    "l": 1.48019,
    "c": 1.48048,
    "v": 3975
  },
  {
    "dt": "2021.07.23 18:00",
    "o": 1.48049,
    "h": 1.48058,
    "l": 1.4791,
    "c": 1.47954,
    "v": 3022
  },
  {
    "dt": "2021.07.23 19:00",
    "o": 1.47949,
    "h": 1.4798,
    "l": 1.47848,
    "c": 1.4795,
    "v": 2810
  },
  {
    "dt": "2021.07.23 20:00",
    "o": 1.4795,
    "h": 1.48047,
    "l": 1.4795,
    "c": 1.47977,
    "v": 2228
  },
  {
    "dt": "2021.07.23 21:00",
    "o": 1.47977,
    "h": 1.4803,
    "l": 1.47952,
    "c": 1.48009,
    "v": 2003
  },
  {
    "dt": "2021.07.23 22:00",
    "o": 1.48008,
    "h": 1.48016,
    "l": 1.47928,
    "c": 1.47947,
    "v": 2465
  },
  {
    "dt": "2021.07.23 23:00",
    "o": 1.47947,
    "h": 1.47947,
    "l": 1.47823,
    "c": 1.47823,
    "v": 1580
  },
  {
    "dt": "2021.07.26 00:00",
    "o": 1.47853,
    "h": 1.47883,
    "l": 1.47778,
    "c": 1.47838,
    "v": 62
  },
  {
    "dt": "2021.07.26 01:00",
    "o": 1.47857,
    "h": 1.47972,
    "l": 1.47825,
    "c": 1.47968,
    "v": 772
  },
  {
    "dt": "2021.07.26 02:00",
    "o": 1.47965,
    "h": 1.47995,
    "l": 1.47918,
    "c": 1.47959,
    "v": 528
  },
  {
    "dt": "2021.07.26 03:00",
    "o": 1.47961,
    "h": 1.4802,
    "l": 1.47947,
    "c": 1.47993,
    "v": 1951
  },
  {
    "dt": "2021.07.26 04:00",
    "o": 1.47994,
    "h": 1.48097,
    "l": 1.47987,
    "c": 1.48075,
    "v": 2353
  },
  {
    "dt": "2021.07.26 05:00",
    "o": 1.48074,
    "h": 1.48173,
    "l": 1.4805,
    "c": 1.48139,
    "v": 1792
  },
  {
    "dt": "2021.07.26 06:00",
    "o": 1.48139,
    "h": 1.48187,
    "l": 1.48122,
    "c": 1.48164,
    "v": 1270
  },
  {
    "dt": "2021.07.26 07:00",
    "o": 1.48157,
    "h": 1.48158,
    "l": 1.48075,
    "c": 1.48101,
    "v": 1016
  },
  {
    "dt": "2021.07.26 08:00",
    "o": 1.481,
    "h": 1.48256,
    "l": 1.481,
    "c": 1.4822,
    "v": 1933
  },
  {
    "dt": "2021.07.26 09:00",
    "o": 1.48217,
    "h": 1.4828,
    "l": 1.48144,
    "c": 1.48182,
    "v": 3391
  },
  {
    "dt": "2021.07.26 10:00",
    "o": 1.48178,
    "h": 1.48308,
    "l": 1.48085,
    "c": 1.48147,
    "v": 4145
  },
  {
    "dt": "2021.07.26 11:00",
    "o": 1.48145,
    "h": 1.48272,
    "l": 1.48042,
    "c": 1.48046,
    "v": 3919
  },
  {
    "dt": "2021.07.26 12:00",
    "o": 1.48044,
    "h": 1.48093,
    "l": 1.47947,
    "c": 1.48039,
    "v": 3264
  },
  {
    "dt": "2021.07.26 13:00",
    "o": 1.48041,
    "h": 1.48163,
    "l": 1.48,
    "c": 1.48112,
    "v": 3084
  },
  {
    "dt": "2021.07.26 14:00",
    "o": 1.4811,
    "h": 1.48192,
    "l": 1.48059,
    "c": 1.48067,
    "v": 3400
  },
  {
    "dt": "2021.07.26 15:00",
    "o": 1.48069,
    "h": 1.48281,
    "l": 1.47992,
    "c": 1.48186,
    "v": 3700
  },
  {
    "dt": "2021.07.26 16:00",
    "o": 1.48193,
    "h": 1.48335,
    "l": 1.481,
    "c": 1.48152,
    "v": 4546
  },
  {
    "dt": "2021.07.26 17:00",
    "o": 1.48151,
    "h": 1.48213,
    "l": 1.4797,
    "c": 1.48019,
    "v": 4674
  },
  {
    "dt": "2021.07.26 18:00",
    "o": 1.48032,
    "h": 1.48165,
    "l": 1.48015,
    "c": 1.48091,
    "v": 3699
  },
  {
    "dt": "2021.07.26 19:00",
    "o": 1.48091,
    "h": 1.48196,
    "l": 1.48084,
    "c": 1.48131,
    "v": 2575
  },
  {
    "dt": "2021.07.26 20:00",
    "o": 1.48131,
    "h": 1.48264,
    "l": 1.48103,
    "c": 1.48202,
    "v": 2333
  },
  {
    "dt": "2021.07.26 21:00",
    "o": 1.48201,
    "h": 1.48255,
    "l": 1.48044,
    "c": 1.48053,
    "v": 2520
  },
  {
    "dt": "2021.07.26 22:00",
    "o": 1.48053,
    "h": 1.48083,
    "l": 1.4801,
    "c": 1.48042,
    "v": 2037
  },
  {
    "dt": "2021.07.26 23:00",
    "o": 1.48038,
    "h": 1.48123,
    "l": 1.48021,
    "c": 1.48123,
    "v": 1633
  },
  {
    "dt": "2021.07.27 00:00",
    "o": 1.48016,
    "h": 1.48092,
    "l": 1.48001,
    "c": 1.48048,
    "v": 170
  },
  {
    "dt": "2021.07.27 01:00",
    "o": 1.48054,
    "h": 1.48076,
    "l": 1.47998,
    "c": 1.48015,
    "v": 677
  },
  {
    "dt": "2021.07.27 02:00",
    "o": 1.48018,
    "h": 1.48059,
    "l": 1.48007,
    "c": 1.48059,
    "v": 651
  },
  {
    "dt": "2021.07.27 03:00",
    "o": 1.48055,
    "h": 1.48123,
    "l": 1.48053,
    "c": 1.48083,
    "v": 1440
  },
  {
    "dt": "2021.07.27 04:00",
    "o": 1.48083,
    "h": 1.48115,
    "l": 1.48038,
    "c": 1.48059,
    "v": 1780
  },
  {
    "dt": "2021.07.27 05:00",
    "o": 1.48056,
    "h": 1.48139,
    "l": 1.48039,
    "c": 1.48066,
    "v": 1266
  },
  {
    "dt": "2021.07.27 06:00",
    "o": 1.48065,
    "h": 1.48099,
    "l": 1.48046,
    "c": 1.48081,
    "v": 1619
  },
  {
    "dt": "2021.07.27 07:00",
    "o": 1.4808,
    "h": 1.4809,
    "l": 1.48039,
    "c": 1.48071,
    "v": 1005
  },
  {
    "dt": "2021.07.27 08:00",
    "o": 1.48071,
    "h": 1.48135,
    "l": 1.48064,
    "c": 1.48126,
    "v": 1700
  },
  {
    "dt": "2021.07.27 09:00",
    "o": 1.48127,
    "h": 1.48176,
    "l": 1.48051,
    "c": 1.48058,
    "v": 3136
  },
  {
    "dt": "2021.07.27 10:00",
    "o": 1.48058,
    "h": 1.48315,
    "l": 1.48015,
    "c": 1.48193,
    "v": 5193
  },
  {
    "dt": "2021.07.27 11:00",
    "o": 1.48187,
    "h": 1.4824,
    "l": 1.48096,
    "c": 1.48233,
    "v": 4244
  },
  {
    "dt": "2021.07.27 12:00",
    "o": 1.48225,
    "h": 1.48289,
    "l": 1.48081,
    "c": 1.48148,
    "v": 3590
  },
  {
    "dt": "2021.07.27 13:00",
    "o": 1.48145,
    "h": 1.48266,
    "l": 1.48057,
    "c": 1.48232,
    "v": 3035
  },
  {
    "dt": "2021.07.27 14:00",
    "o": 1.48231,
    "h": 1.48374,
    "l": 1.48195,
    "c": 1.48305,
    "v": 3152
  },
  {
    "dt": "2021.07.27 15:00",
    "o": 1.4831,
    "h": 1.48491,
    "l": 1.48286,
    "c": 1.48372,
    "v": 4029
  },
  {
    "dt": "2021.07.27 16:00",
    "o": 1.4838,
    "h": 1.48685,
    "l": 1.48375,
    "c": 1.48623,
    "v": 4826
  },
  {
    "dt": "2021.07.27 17:00",
    "o": 1.48611,
    "h": 1.48703,
    "l": 1.48477,
    "c": 1.48585,
    "v": 5325
  },
  {
    "dt": "2021.07.27 18:00",
    "o": 1.48588,
    "h": 1.48894,
    "l": 1.48537,
    "c": 1.48828,
    "v": 4864
  },
  {
    "dt": "2021.07.27 19:00",
    "o": 1.48829,
    "h": 1.48915,
    "l": 1.48764,
    "c": 1.48871,
    "v": 4171
  },
  {
    "dt": "2021.07.27 20:00",
    "o": 1.48874,
    "h": 1.48965,
    "l": 1.48806,
    "c": 1.48924,
    "v": 3746
  },
  {
    "dt": "2021.07.27 21:00",
    "o": 1.48922,
    "h": 1.48926,
    "l": 1.48826,
    "c": 1.48864,
    "v": 3293
  },
  {
    "dt": "2021.07.27 22:00",
    "o": 1.48857,
    "h": 1.48892,
    "l": 1.48758,
    "c": 1.48862,
    "v": 2670
  },
  {
    "dt": "2021.07.27 23:00",
    "o": 1.48865,
    "h": 1.48927,
    "l": 1.48816,
    "c": 1.4886,
    "v": 2512
  },
  {
    "dt": "2021.07.28 00:00",
    "o": 1.48857,
    "h": 1.489,
    "l": 1.48818,
    "c": 1.48895,
    "v": 234
  },
  {
    "dt": "2021.07.28 01:00",
    "o": 1.48895,
    "h": 1.48937,
    "l": 1.48851,
    "c": 1.48857,
    "v": 893
  },
  {
    "dt": "2021.07.28 02:00",
    "o": 1.48856,
    "h": 1.48874,
    "l": 1.48807,
    "c": 1.48823,
    "v": 772
  },
  {
    "dt": "2021.07.28 03:00",
    "o": 1.48823,
    "h": 1.4887,
    "l": 1.48772,
    "c": 1.48773,
    "v": 1748
  },
  {
    "dt": "2021.07.28 04:00",
    "o": 1.48772,
    "h": 1.48808,
    "l": 1.48702,
    "c": 1.48796,
    "v": 2312
  },
  {
    "dt": "2021.07.28 05:00",
    "o": 1.48793,
    "h": 1.48862,
    "l": 1.48711,
    "c": 1.48761,
    "v": 1827
  },
  {
    "dt": "2021.07.28 06:00",
    "o": 1.48759,
    "h": 1.48814,
    "l": 1.48738,
    "c": 1.48792,
    "v": 1545
  },
  {
    "dt": "2021.07.28 07:00",
    "o": 1.48786,
    "h": 1.48793,
    "l": 1.48721,
    "c": 1.48751,
    "v": 1136
  },
  {
    "dt": "2021.07.28 08:00",
    "o": 1.48752,
    "h": 1.48829,
    "l": 1.4867,
    "c": 1.48674,
    "v": 2107
  },
  {
    "dt": "2021.07.28 09:00",
    "o": 1.48675,
    "h": 1.48722,
    "l": 1.48481,
    "c": 1.48538,
    "v": 3151
  },
  {
    "dt": "2021.07.28 10:00",
    "o": 1.48533,
    "h": 1.48654,
    "l": 1.48506,
    "c": 1.48553,
    "v": 3621
  },
  {
    "dt": "2021.07.28 11:00",
    "o": 1.48556,
    "h": 1.48669,
    "l": 1.48452,
    "c": 1.4866,
    "v": 3653
  },
  {
    "dt": "2021.07.28 12:00",
    "o": 1.48666,
    "h": 1.48666,
    "l": 1.48439,
    "c": 1.4845,
    "v": 3353
  },
  {
    "dt": "2021.07.28 13:00",
    "o": 1.48448,
    "h": 1.48507,
    "l": 1.4836,
    "c": 1.48435,
    "v": 3451
  },
  {
    "dt": "2021.07.28 14:00",
    "o": 1.48436,
    "h": 1.48448,
    "l": 1.4832,
    "c": 1.48365,
    "v": 3737
  },
  {
    "dt": "2021.07.28 15:00",
    "o": 1.48369,
    "h": 1.48512,
    "l": 1.4827,
    "c": 1.48509,
    "v": 4149
  },
  {
    "dt": "2021.07.28 16:00",
    "o": 1.48501,
    "h": 1.48568,
    "l": 1.48362,
    "c": 1.48436,
    "v": 5036
  },
  {
    "dt": "2021.07.28 17:00",
    "o": 1.48428,
    "h": 1.48493,
    "l": 1.48239,
    "c": 1.48419,
    "v": 4895
  },
  {
    "dt": "2021.07.28 18:00",
    "o": 1.48424,
    "h": 1.4843,
    "l": 1.48224,
    "c": 1.48351,
    "v": 4156
  },
  {
    "dt": "2021.07.28 19:00",
    "o": 1.48348,
    "h": 1.48434,
    "l": 1.4831,
    "c": 1.48363,
    "v": 3514
  },
  {
    "dt": "2021.07.28 20:00",
    "o": 1.48361,
    "h": 1.48484,
    "l": 1.48309,
    "c": 1.48408,
    "v": 3245
  },
  {
    "dt": "2021.07.28 21:00",
    "o": 1.48416,
    "h": 1.48452,
    "l": 1.48233,
    "c": 1.48328,
    "v": 6214
  },
  {
    "dt": "2021.07.28 22:00",
    "o": 1.48329,
    "h": 1.48508,
    "l": 1.4824,
    "c": 1.48437,
    "v": 4834
  },
  {
    "dt": "2021.07.28 23:00",
    "o": 1.48437,
    "h": 1.48437,
    "l": 1.48259,
    "c": 1.4835,
    "v": 2369
  },
  {
    "dt": "2021.07.29 00:00",
    "o": 1.48338,
    "h": 1.48354,
    "l": 1.4825,
    "c": 1.48299,
    "v": 204
  },
  {
    "dt": "2021.07.29 01:00",
    "o": 1.48317,
    "h": 1.48341,
    "l": 1.48287,
    "c": 1.48321,
    "v": 633
  },
  {
    "dt": "2021.07.29 02:00",
    "o": 1.4832,
    "h": 1.48327,
    "l": 1.48286,
    "c": 1.48299,
    "v": 772
  },
  {
    "dt": "2021.07.29 03:00",
    "o": 1.48298,
    "h": 1.48362,
    "l": 1.48281,
    "c": 1.48321,
    "v": 1751
  },
  {
    "dt": "2021.07.29 04:00",
    "o": 1.48323,
    "h": 1.48382,
    "l": 1.4832,
    "c": 1.48333,
    "v": 2285
  },
  {
    "dt": "2021.07.29 05:00",
    "o": 1.48332,
    "h": 1.48364,
    "l": 1.48194,
    "c": 1.48254,
    "v": 2015
  },
  {
    "dt": "2021.07.29 06:00",
    "o": 1.48252,
    "h": 1.48271,
    "l": 1.48072,
    "c": 1.48074,
    "v": 1488
  },
  {
    "dt": "2021.07.29 07:00",
    "o": 1.48074,
    "h": 1.48077,
    "l": 1.48019,
    "c": 1.48051,
    "v": 990
  },
  {
    "dt": "2021.07.29 08:00",
    "o": 1.4805,
    "h": 1.48092,
    "l": 1.48013,
    "c": 1.48061,
    "v": 1708
  },
  {
    "dt": "2021.07.29 09:00",
    "o": 1.4806,
    "h": 1.48077,
    "l": 1.47972,
    "c": 1.47999,
    "v": 3233
  },
  {
    "dt": "2021.07.29 10:00",
    "o": 1.48,
    "h": 1.48133,
    "l": 1.47915,
    "c": 1.47958,
    "v": 3765
  },
  {
    "dt": "2021.07.29 11:00",
    "o": 1.47957,
    "h": 1.48035,
    "l": 1.47882,
    "c": 1.48023,
    "v": 3647
  },
  {
    "dt": "2021.07.29 12:00",
    "o": 1.48022,
    "h": 1.48105,
    "l": 1.47955,
    "c": 1.48035,
    "v": 3157
  },
  {
    "dt": "2021.07.29 13:00",
    "o": 1.48035,
    "h": 1.48112,
    "l": 1.48009,
    "c": 1.48088,
    "v": 3024
  },
  {
    "dt": "2021.07.29 14:00",
    "o": 1.48087,
    "h": 1.48137,
    "l": 1.48005,
    "c": 1.48007,
    "v": 3263
  },
  {
    "dt": "2021.07.29 15:00",
    "o": 1.4801,
    "h": 1.48138,
    "l": 1.4795,
    "c": 1.481,
    "v": 3801
  },
  {
    "dt": "2021.07.29 16:00",
    "o": 1.481,
    "h": 1.48234,
    "l": 1.48016,
    "c": 1.48228,
    "v": 4553
  },
  {
    "dt": "2021.07.29 17:00",
    "o": 1.48227,
    "h": 1.48259,
    "l": 1.47867,
    "c": 1.47923,
    "v": 4439
  },
  {
    "dt": "2021.07.29 18:00",
    "o": 1.47927,
    "h": 1.47989,
    "l": 1.47775,
    "c": 1.47843,
    "v": 3674
  },
  {
    "dt": "2021.07.29 19:00",
    "o": 1.47843,
    "h": 1.4789,
    "l": 1.47798,
    "c": 1.47883,
    "v": 2786
  },
  {
    "dt": "2021.07.29 20:00",
    "o": 1.47881,
    "h": 1.47896,
    "l": 1.47778,
    "c": 1.47848,
    "v": 2778
  },
  {
    "dt": "2021.07.29 21:00",
    "o": 1.47846,
    "h": 1.47931,
    "l": 1.47785,
    "c": 1.47879,
    "v": 2509
  },
  {
    "dt": "2021.07.29 22:00",
    "o": 1.4788,
    "h": 1.48018,
    "l": 1.4788,
    "c": 1.47973,
    "v": 2117
  },
  {
    "dt": "2021.07.29 23:00",
    "o": 1.47972,
    "h": 1.47978,
    "l": 1.47881,
    "c": 1.47907,
    "v": 2244
  },
  {
    "dt": "2021.07.30 00:00",
    "o": 1.4788,
    "h": 1.47935,
    "l": 1.47814,
    "c": 1.47885,
    "v": 255
  },
  {
    "dt": "2021.07.30 01:00",
    "o": 1.47896,
    "h": 1.47962,
    "l": 1.47875,
    "c": 1.47912,
    "v": 621
  },
  {
    "dt": "2021.07.30 02:00",
    "o": 1.47913,
    "h": 1.48026,
    "l": 1.47904,
    "c": 1.48011,
    "v": 814
  },
  {
    "dt": "2021.07.30 03:00",
    "o": 1.48011,
    "h": 1.48091,
    "l": 1.47971,
    "c": 1.48059,
    "v": 2608
  },
  {
    "dt": "2021.07.30 04:00",
    "o": 1.48059,
    "h": 1.48187,
    "l": 1.48041,
    "c": 1.48105,
    "v": 2695
  },
  {
    "dt": "2021.07.30 05:00",
    "o": 1.48107,
    "h": 1.48115,
    "l": 1.4789,
    "c": 1.47893,
    "v": 2056
  },
  {
    "dt": "2021.07.30 06:00",
    "o": 1.47889,
    "h": 1.47955,
    "l": 1.47867,
    "c": 1.47879,
    "v": 1609
  },
  {
    "dt": "2021.07.30 07:00",
    "o": 1.47882,
    "h": 1.47902,
    "l": 1.47858,
    "c": 1.4787,
    "v": 774
  },
  {
    "dt": "2021.07.30 08:00",
    "o": 1.47875,
    "h": 1.47924,
    "l": 1.47862,
    "c": 1.47924,
    "v": 1783
  },
  {
    "dt": "2021.07.30 09:00",
    "o": 1.47923,
    "h": 1.47948,
    "l": 1.47869,
    "c": 1.47923,
    "v": 3260
  },
  {
    "dt": "2021.07.30 10:00",
    "o": 1.47919,
    "h": 1.47975,
    "l": 1.47856,
    "c": 1.47936,
    "v": 3745
  },
  {
    "dt": "2021.07.30 11:00",
    "o": 1.47939,
    "h": 1.47999,
    "l": 1.47859,
    "c": 1.47976,
    "v": 3302
  },
  {
    "dt": "2021.07.30 12:00",
    "o": 1.47968,
    "h": 1.48053,
    "l": 1.47911,
    "c": 1.47987,
    "v": 3426
  },
  {
    "dt": "2021.07.30 13:00",
    "o": 1.47991,
    "h": 1.4804,
    "l": 1.47871,
    "c": 1.4801,
    "v": 3741
  },
  {
    "dt": "2021.07.30 14:00",
    "o": 1.48008,
    "h": 1.48096,
    "l": 1.47865,
    "c": 1.47893,
    "v": 3437
  },
  {
    "dt": "2021.07.30 15:00",
    "o": 1.47888,
    "h": 1.47933,
    "l": 1.47734,
    "c": 1.47735,
    "v": 3437
  },
  {
    "dt": "2021.07.30 16:00",
    "o": 1.47739,
    "h": 1.47789,
    "l": 1.47608,
    "c": 1.47649,
    "v": 4400
  },
  {
    "dt": "2021.07.30 17:00",
    "o": 1.47652,
    "h": 1.48053,
    "l": 1.47591,
    "c": 1.47944,
    "v": 5104
  },
  {
    "dt": "2021.07.30 18:00",
    "o": 1.47949,
    "h": 1.48036,
    "l": 1.47834,
    "c": 1.47881,
    "v": 3913
  },
  {
    "dt": "2021.07.30 19:00",
    "o": 1.47879,
    "h": 1.47992,
    "l": 1.47862,
    "c": 1.47925,
    "v": 3170
  },
  {
    "dt": "2021.07.30 20:00",
    "o": 1.47925,
    "h": 1.48052,
    "l": 1.47895,
    "c": 1.48018,
    "v": 2829
  },
  {
    "dt": "2021.07.30 21:00",
    "o": 1.48016,
    "h": 1.48065,
    "l": 1.47908,
    "c": 1.47953,
    "v": 2399
  },
  {
    "dt": "2021.07.30 22:00",
    "o": 1.47947,
    "h": 1.4802,
    "l": 1.47834,
    "c": 1.4802,
    "v": 2623
  },
  {
    "dt": "2021.07.30 23:00",
    "o": 1.48019,
    "h": 1.48043,
    "l": 1.47829,
    "c": 1.48043,
    "v": 2332
  }
]