[
  {
    "dt": "2023.01.02 00:00",
    "o": 89.08,
    "h": 89.231,
    "l": 88.891,
    "c": 89.227,
    "v": 95
  },
  {
    "dt": "2023.01.02 01:00",
    "o": 89.085,
    "h": 89.209,
    "l": 89.038,
    "c": 89.209,
    "v": 80
  },
  {
    "dt": "2023.01.02 02:00",
    "o": 89.208,
    "h": 89.292,
    "l": 89.055,
    "c": 89.138,
    "v": 69
  },
  {
    "dt": "2023.01.02 03:00",
    "o": 89.139,
    "h": 89.184,
    "l": 89.105,
    "c": 89.122,
    "v": 92
  },
  {
    "dt": "2023.01.02 04:00",
    "o": 89.12,
    "h": 89.172,
    "l": 89.119,
    "c": 89.16,
    "v": 93
  },
  {
    "dt": "2023.01.02 05:00",
    "o": 89.161,
    "h": 89.161,
    "l": 89.054,
    "c": 89.074,
    "v": 62
  },
  {
    "dt": "2023.01.02 06:00",
    "o": 89.072,
    "h": 89.087,
    "l": 89.045,
    "c": 89.069,
    "v": 93
  },
  {
    "dt": "2023.01.02 07:00",
    "o": 89.06,
    "h": 89.091,
    "l": 89.031,
    "c": 89.061,
    "v": 268
  },
  {
    "dt": "2023.01.02 08:00",
    "o": 89.058,
    "h": 89.122,
    "l": 89.05,
    "c": 89.067,
    "v": 263
  },
  {
    "dt": "2023.01.02 09:00",
    "o": 89.064,
    "h": 89.081,
    "l": 88.97,
    "c": 89.008,
    "v": 227
  },
  {
    "dt": "2023.01.02 10:00",
    "o": 89.0,
    "h": 89.177,
    "l": 88.996,
    "c": 89.038,
    "v": 489
  },
  {
    "dt": "2023.01.02 11:00",
    "o": 89.04,
    "h": 89.052,
    "l": 88.903,
    "c": 88.917,
    "v": 1320
  },
  {
    "dt": "2023.01.02 12:00",
    "o": 88.917,
    "h": 89.019,
    "l": 88.855,
    "c": 88.876,
    "v": 1808
  },
  {
    "dt": "2023.01.02 13:00",
    "o": 88.876,
    "h": 89.021,
    "l": 88.862,
    "c": 88.979,
    "v": 1227
  },
  {
    "dt": "2023.01.02 14:00",
    "o": 88.96,
    "h": 89.051,
    "l": 88.856,
    "c": 88.978,
    "v": 894
  },
  {
    "dt": "2023.01.02 15:00",
    "o": 89.001,
    "h": 89.005,
    "l": 88.855,
    "c": 88.883,
    "v": 1282
  },
  {
    "dt": "2023.01.02 16:00",
    "o": 88.885,
    "h": 89.086,
    "l": 88.88,
    "c": 89.031,
    "v": 1536
  },
  {
    "dt": "2023.01.02 17:00",
    "o": 89.03,
    "h": 89.154,
    "l": 89.029,
    "c": 89.146,
    "v": 2429
  },
  {
    "dt": "2023.01.02 18:00",
    "o": 89.146,
    "h": 89.188,
    "l": 89.067,
    "c": 89.083,
    "v": 2668
  },
  {
    "dt": "2023.01.02 19:00",
    "o": 89.085,
    "h": 89.118,
    "l": 89.066,
    "c": 89.104,
    "v": 1846
  },
  {
    "dt": "2023.01.02 20:00",
    "o": 89.106,
    "h": 89.119,
    "l": 89.003,
    "c": 89.028,
    "v": 791
  },
  {
    "dt": "2023.01.02 21:00",
    "o": 89.028,
    "h": 89.087,
    "l": 88.984,
    "c": 88.984,
    "v": 469
  },
  {
    "dt": "2023.01.02 22:00",
    "o": 88.982,
    "h": 89.008,
    "l": 88.822,
    "c": 88.878,
    "v": 180
  },
  {
    "dt": "2023.01.02 23:00",
    "o": 88.871,
    "h": 88.901,
    "l": 88.779,
    "c": 88.82,
    "v": 81
  },
  {
    "dt": "2023.01.03 00:00",
    "o": 88.944,
    "h": 88.985,
    "l": 88.736,
    "c": 88.789,
    "v": 155
  },
  {
    "dt": "2023.01.03 01:00",
    "o": 88.904,
    "h": 89.311,
    "l": 88.81,
    "c": 89.026,
    "v": 3337
  },
  {
    "dt": "2023.01.03 02:00",
    "o": 89.042,
    "h": 89.078,
    "l": 88.684,
    "c": 88.751,
    "v": 3327
  },
  {
    "dt": "2023.01.03 03:00",
    "o": 88.752,
    "h": 88.764,
    "l": 88.015,
    "c": 88.25,
    "v": 4802
  },
  {
    "dt": "2023.01.03 04:00",
    "o": 88.247,
    "h": 88.5,
    "l": 88.214,
    "c": 88.485,
    "v": 3836
  },
  {
    "dt": "2023.01.03 05:00",
    "o": 88.473,
    "h": 88.689,
    "l": 88.473,
    "c": 88.647,
    "v": 3706
  },
  {
    "dt": "2023.01.03 06:00",
    "o": 88.648,
    "h": 88.65,
    "l": 88.402,
    "c": 88.465,
    "v": 3182
  },
  {
    "dt": "2023.01.03 07:00",
    "o": 88.469,
    "h": 88.486,
    "l": 88.154,
    "c": 88.209,
    "v": 3906
  },
  {
    "dt": "2023.01.03 08:00",
    "o": 88.205,
    "h": 88.395,
    "l": 88.104,
    "c": 88.294,
    "v": 3741
  },
  {
    "dt": "2023.01.03 09:00",
    "o": 88.296,
    "h": 88.453,
    "l": 88.279,
    "c": 88.294,
    "v": 4644
  },
  {
    "dt": "2023.01.03 10:00",
    "o": 88.292,
    "h": 88.34,
    "l": 87.714,
    "c": 87.775,
    "v": 5742
  },
  {
    "dt": "2023.01.03 11:00",
    "o": 87.769,
    "h": 87.769,
    "l": 87.424,
    "c": 87.653,
    "v": 5465
  },
  {
    "dt": "2023.01.03 12:00",
    "o": 87.648,
    "h": 87.697,
    "l": 87.511,
    "c": 87.603,
    "v": 4730
  },
  {
    "dt": "2023.01.03 13:00",
    "o": 87.604,
    "h": 87.654,
    "l": 87.402,
    "c": 87.65,
    "v": 4388
  },
  {
    "dt": "2023.01.03 14:00",
    "o": 87.651,
    "h": 87.852,
    "l": 87.639,
    "c": 87.819,
    "v": 4585
  },
  {
    "dt": "2023.01.03 15:00",
    "o": 87.828,
    "h": 88.034,
    "l": 87.719,
    "c": 88.021,
    "v": 4931
  },
  {
    "dt": "2023.01.03 16:00",
    "o": 88.01,
    "h": 88.15,
    "l": 87.82,
    "c": 87.852,
    "v": 5318
  },
  {
    "dt": "2023.01.03 17:00",
    "o": 87.854,
    "h": 88.224,
    "l": 87.854,
    "c": 88.154,
    "v": 5679
  },
  {
    "dt": "2023.01.03 18:00",
    "o": 88.156,
    "h": 88.191,
    "l": 87.983,
    "c": 88.033,
    "v": 5138
  },
  {
    "dt": "2023.01.03 19:00",
    "o": 88.032,
    "h": 88.103,
    "l": 87.967,
    "c": 87.983,
    "v": 4221
  },
  {
    "dt": "2023.01.03 20:00",
    "o": 87.98,
    "h": 87.98,
    "l": 87.84,
    "c": 87.94,
    "v": 3885
  },
  {
    "dt": "2023.01.03 21:00",
    "o": 87.944,
    "h": 88.143,
    "l": 87.906,
    "c": 88.082,
    "v": 3738
  },
  {
    "dt": "2023.01.03 22:00",
    "o": 88.085,
    "h": 88.12,
    "l": 88.033,
    "c": 88.109,
    "v": 3588
  },
  {
    "dt": "2023.01.03 23:00",
    "o": 88.11,
    "h": 88.144,
    "l": 88.035,
    "c": 88.1,
    "v": 2608
  },
  {
    "dt": "2023.01.04 00:00",
    "o": 88.158,
    "h": 88.159,
    "l": 88.056,
    "c": 88.102,
    "v": 709
  },
  {
    "dt": "2023.01.04 01:00",
    "o": 88.116,
    "h": 88.291,
    "l": 88.091,
    "c": 88.29,
    "v": 3248
  },
  {
    "dt": "2023.01.04 02:00",
    "o": 88.289,
    "h": 88.34,
    "l": 88.016,
    "c": 88.338,
    "v": 3623
  },
  {
    "dt": "2023.01.04 03:00",
    "o": 88.333,
    "h": 88.575,
    "l": 88.313,
    "c": 88.365,
    "v": 4090
  },
  {
    "dt": "2023.01.04 04:00",
    "o": 88.37,
    "h": 88.596,
    "l": 88.356,
    "c": 88.514,
    "v": 3520
  },
  {
    "dt": "2023.01.04 05:00",
    "o": 88.515,
    "h": 88.619,
    "l": 88.449,
    "c": 88.6,
    "v": 3064
  },
  {
    "dt": "2023.01.04 06:00",
    "o": 88.6,
    "h": 89.153,
    "l": 88.6,
    "c": 89.014,
    "v": 2815
  },
  {
    "dt": "2023.01.04 07:00",
    "o": 89.019,
    "h": 89.128,
    "l": 88.784,
    "c": 88.986,
    "v": 3550
  },
  {
    "dt": "2023.01.04 08:00",
    "o": 88.988,
    "h": 88.992,
    "l": 88.832,
    "c": 88.934,
    "v": 3559
  },
  {
    "dt": "2023.01.04 09:00",
    "o": 88.939,
    "h": 89.16,
    "l": 88.874,
    "c": 89.106,
    "v": 4993
  },
  {
    "dt": "2023.01.04 10:00",
    "o": 89.113,
    "h": 89.673,
    "l": 89.02,
    "c": 89.662,
    "v": 5797
  },
  {
    "dt": "2023.01.04 11:00",
    "o": 89.667,
    "h": 89.734,
    "l": 89.54,
    "c": 89.604,
    "v": 4922
  },
  {
    "dt": "2023.01.04 12:00",
    "o": 89.603,
    "h": 89.727,
    "l": 89.603,
    "c": 89.718,
    "v": 4399
  },
  {
    "dt": "2023.01.04 13:00",
    "o": 89.717,
    "h": 89.745,
    "l": 89.626,
    "c": 89.688,
    "v": 4111
  },
  {
    "dt": "2023.01.04 14:00",
    "o": 89.682,
    "h": 89.875,
    "l": 89.654,
    "c": 89.698,
    "v": 4796
  },
  {
    "dt": "2023.01.04 15:00",
    "o": 89.686,
    "h": 89.875,
    "l": 89.64,
    "c": 89.851,
    "v": 5119
  },
  {
    "dt": "2023.01.04 16:00",
    "o": 89.851,
    "h": 90.118,
    "l": 89.831,
    "c": 90.083,
    "v": 5057
  },
  {
    "dt": "2023.01.04 17:00",
    "o": 90.088,
    "h": 90.551,
    "l": 89.904,
    "c": 90.464,
    "v": 6269
  },
  {
    "dt": "2023.01.04 18:00",
    "o": 90.464,
    "h": 90.527,
    "l": 90.344,
    "c": 90.525,
    "v": 5349
  },
  {
    "dt": "2023.01.04 19:00",
    "o": 90.527,
    "h": 90.869,
    "l": 90.492,
    "c": 90.723,
    "v": 4423
  },
  {
    "dt": "2023.01.04 20:00",
    "o": 90.725,
    "h": 90.829,
    "l": 90.503,
    "c": 90.503,
    "v": 4211
  },
  {
    "dt": "2023.01.04 21:00",
    "o": 90.519,
    "h": 90.71,
    "l": 90.469,
    "c": 90.687,
    "v": 5408
  },
  {
    "dt": "2023.01.04 22:00",
    "o": 90.689,
    "h": 90.726,
    "l": 90.579,
    "c": 90.709,
    "v": 4391
  },
  {
    "dt": "2023.01.04 23:00",
    "o": 90.711,
    "h": 90.768,
    "l": 90.685,
    "c": 90.697,
    "v": 2215
  },
  {
    "dt": "2023.01.05 00:00",
    "o": 90.572,
    "h": 90.64,
    "l": 90.398,
    "c": 90.46,
    "v": 759
  },
  {
    "dt": "2023.01.05 01:00",
    "o": 90.458,
    "h": 90.519,
    "l": 90.2,
    "c": 90.301,
    "v": 2935
  },
  {
    "dt": "2023.01.05 02:00",
    "o": 90.3,
    "h": 90.312,
    "l": 90.066,
    "c": 90.083,
    "v": 3962
  },
  {
    "dt": "2023.01.05 03:00",
    "o": 90.082,
    "h": 90.26,
    "l": 89.988,
    "c": 90.243,
    "v": 3864
  },
  {
    "dt": "2023.01.05 04:00",
    "o": 90.244,
    "h": 90.269,
    "l": 89.843,
    "c": 89.951,
    "v": 3770
  },
  {
    "dt": "2023.01.05 05:00",
    "o": 89.948,
    "h": 90.136,
    "l": 89.907,
    "c": 90.021,
    "v": 3558
  },
  {
    "dt": "2023.01.05 06:00",
    "o": 90.023,
    "h": 90.234,
    "l": 89.993,
    "c": 90.158,
    "v": 2908
  },
  {
    "dt": "2023.01.05 07:00",
    "o": 90.156,
    "h": 90.385,
    "l": 90.146,
    "c": 90.375,
    "v": 2981
  },
  {
    "dt": "2023.01.05 08:00",
    "o": 90.376,
    "h": 90.458,
    "l": 90.261,
    "c": 90.266,
    "v": 3128
  },
  {
    "dt": "2023.01.05 09:00",
    "o": 90.272,
    "h": 90.332,
    "l": 90.128,
    "c": 90.211,
    "v": 4199
  },
  {
    "dt": "2023.01.05 10:00",
    "o": 90.209,
    "h": 90.52,
    "l": 90.202,
    "c": 90.425,
    "v": 5141
  },
  {
    "dt": "2023.01.05 11:00",
    "o": 90.43,
    "h": 90.541,
    "l": 90.367,
    "c": 90.44,
    "v": 4478
  },
  {
    "dt": "2023.01.05 12:00",
    "o": 90.44,
    "h": 90.511,
    "l": 90.372,
    "c": 90.455,
    "v": 4002
  },
  {
    "dt": "2023.01.05 13:00",
    "o": 90.454,
    "h": 90.607,
    "l": 90.411,
    "c": 90.508,
    "v": 4101
  },
  {
    "dt": "2023.01.05 14:00",
    "o": 90.51,
    "h": 90.684,
    "l": 90.466,
    "c": 90.661,
    "v": 4130
  },
  {
    "dt": "2023.01.05 15:00",
    "o": 90.661,
    "h": 90.969,
    "l": 90.516,
    "c": 90.603,
    "v": 5835
  },
  {
    "dt": "2023.01.05 16:00",
    "o": 90.597,
    "h": 90.604,
    "l": 90.39,
    "c": 90.466,
    "v": 5727
  },
  {
    "dt": "2023.01.05 17:00",
    "o": 90.465,
    "h": 90.576,
    "l": 90.168,
    "c": 90.203,
    "v": 5755
  },
  {
    "dt": "2023.01.05 18:00",
    "o": 90.204,
    "h": 90.338,
    "l": 89.982,
    "c": 90.064,
    "v": 5155
  },
  {
    "dt": "2023.01.05 19:00",
    "o": 90.06,
    "h": 90.073,
    "l": 89.802,
    "c": 89.872,
    "v": 4498
  },
  {
    "dt": "2023.01.05 20:00",
    "o": 89.873,
    "h": 90.142,
    "l": 89.817,
    "c": 90.052,
    "v": 4699
  },
  {
    "dt": "2023.01.05 21:00",
    "o": 90.054,
    "h": 90.155,
    "l": 89.991,
    "c": 89.999,
    "v": 4264
  },
  {
    "dt": "2023.01.05 22:00",
    "o": 89.997,
    "h": 90.069,
    "l": 89.989,
    "c": 90.036,
    "v": 3776
  },
  {
    "dt": "2023.01.05 23:00",
    "o": 90.035,
    "h": 90.081,
    "l": 89.995,
    "c": 90.077,
    "v": 2481
  },
  {
    "dt": "2023.01.06 00:00",
    "o": 90.079,
    "h": 90.177,
    "l": 90.033,
    "c": 90.059,
    "v": 821
  },
  {
    "dt": "2023.01.06 01:00",
    "o": 90.108,
    "h": 90.222,
    "l": 90.012,
    "c": 90.022,
    "v": 3288
  },
  {
    "dt": "2023.01.06 02:00",
    "o": 90.024,
    "h": 90.424,
    "l": 90.023,
    "c": 90.414,
    "v": 3478
  },
  {
    "dt": "2023.01.06 03:00",
    "o": 90.42,
    "h": 90.499,
    "l": 90.327,
    "c": 90.442,
    "v": 3356
  },
  {
    "dt": "2023.01.06 04:00",
    "o": 90.441,
    "h": 90.507,
    "l": 90.332,
    "c": 90.364,
    "v": 2797
  },
  {
    "dt": "2023.01.06 05:00",
    "o": 90.364,
    "h": 90.855,
    "l": 90.355,
    "c": 90.631,
    "v": 3540
  },
  {
    "dt": "2023.01.06 06:00",
    "o": 90.634,
    "h": 90.726,
    "l": 90.591,
    "c": 90.627,
    "v": 2173
  },
  {
    "dt": "2023.01.06 07:00",
    "o": 90.63,
    "h": 90.754,
    "l": 90.443,
    "c": 90.622,
    "v": 3420
  },
  {
    "dt": "2023.01.06 08:00",
    "o": 90.632,
    "h": 90.779,
    "l": 90.599,
    "c": 90.599,
    "v": 3940
  },
  {
    "dt": "2023.01.06 09:00",
    "o": 90.6,
    "h": 90.679,
    "l": 90.457,
    "c": 90.589,
    "v": 4705
  },
  {
    "dt": "2023.01.06 10:00",
    "o": 90.59,
    "h": 90.752,
    "l": 90.58,
    "c": 90.704,
    "v": 4795
  },
  {
    "dt": "2023.01.06 11:00",
    "o": 90.702,
    "h": 90.735,
    "l": 90.527,
    "c": 90.61,
    "v": 4532
  },
  {
    "dt": "2023.01.06 12:00",
    "o": 90.603,
    "h": 90.622,
    "l": 90.476,
    "c": 90.55,
    "v": 4129
  },
  {
    "dt": "2023.01.06 13:00",
    "o": 90.55,
    "h": 90.625,
    "l": 90.449,
    "c": 90.517,
    "v": 4119
  },
  {
    "dt": "2023.01.06 14:00",
    "o": 90.521,
    "h": 90.637,
    "l": 90.482,
    "c": 90.616,
    "v": 4424
  },
  {
    "dt": "2023.01.06 15:00",
    "o": 90.616,
    "h": 90.833,
    "l": 90.357,
    "c": 90.53,
    "v": 5769
  },
  {
    "dt": "2023.01.06 16:00",
    "o": 90.534,
    "h": 90.618,
    "l": 90.391,
    "c": 90.435,
    "v": 6003
  },
  {
    "dt": "2023.01.06 17:00",
    "o": 90.422,
    "h": 90.707,
    "l": 90.297,
    "c": 90.586,
    "v": 6300
  },
  {
    "dt": "2023.01.06 18:00",
    "o": 90.586,
    "h": 90.933,
    "l": 90.496,
    "c": 90.732,
    "v": 5506
  },
  {
    "dt": "2023.01.06 19:00",
    "o": 90.734,
    "h": 90.81,
    "l": 90.659,
    "c": 90.74,
    "v": 4378
  },
  {
    "dt": "2023.01.06 20:00",
    "o": 90.736,
    "h": 90.853,
    "l": 90.685,
    "c": 90.809,
    "v": 4171
  },
  {
    "dt": "2023.01.06 21:00",
    "o": 90.809,
    "h": 90.878,
    "l": 90.784,
    "c": 90.845,
    "v": 3763
  },
  {
    "dt": "2023.01.06 22:00",
    "o": 90.84,
    "h": 90.943,
    "l": 90.81,
    "c": 90.926,
    "v": 3404
  },
  {
    "dt": "2023.01.06 23:00",
    "o": 90.927,
    "h": 90.931,
    "l": 90.769,
    "c": 90.805,
    "v": 2081
  },
  {
    "dt": "2023.01.09 00:00",
    "o": 90.674,
    "h": 90.838,
    "l": 90.667,
    "c": 90.81,
    "v": 605
  },
  {
    "dt": "2023.01.09 01:00",
    "o": 90.812,
    "h": 91.024,
    "l": 90.812,
    "c": 90.878,
    "v": 3862
  },
  {
    "dt": "2023.01.09 02:00",
    "o": 90.882,
    "h": 91.009,
    "l": 90.836,
    "c": 90.948,
    "v": 3898
  },
  {
    "dt": "2023.01.09 03:00",
    "o": 90.936,
    "h": 91.058,
    "l": 90.821,
    "c": 90.932,
    "v": 4151
  },
  {
    "dt": "2023.01.09 04:00",
    "o": 90.93,
    "h": 91.0,
    "l": 90.837,
    "c": 90.962,
    "v": 3603
  },
  {
    "dt": "2023.01.09 05:00",
    "o": 90.962,
    "h": 91.023,
    "l": 90.876,
    "c": 91.002,
    "v": 2962
  },
  {
    "dt": "2023.01.09 06:00",
    "o": 91.0,
    "h": 91.253,
    "l": 90.995,
    "c": 91.227,
    "v": 2257
  },
  {
    "dt": "2023.01.09 07:00",
    "o": 91.225,
    "h": 91.455,
    "l": 91.219,
    "c": 91.415,
    "v": 2587
  },
  {
    "dt": "2023.01.09 08:00",
    "o": 91.415,
    "h": 91.515,
    "l": 91.307,
    "c": 91.382,
    "v": 2958
  },
  {
    "dt": "2023.01.09 09:00",
    "o": 91.38,
    "h": 91.519,
    "l": 91.33,
    "c": 91.444,
    "v": 4745
  },
  {
    "dt": "2023.01.09 10:00",
    "o": 91.441,
    "h": 91.648,
    "l": 91.408,
    "c": 91.525,
    "v": 4927
  },
  {
    "dt": "2023.01.09 11:00",
    "o": 91.531,
    "h": 91.811,
    "l": 91.52,
    "c": 91.716,
    "v": 4660
  },
  {
    "dt": "2023.01.09 12:00",
    "o": 91.715,
    "h": 91.721,
    "l": 91.525,
    "c": 91.614,
    "v": 4475
  },
  {
    "dt": "2023.01.09 13:00",
    "o": 91.615,
    "h": 91.648,
    "l": 91.486,
    "c": 91.6,
    "v": 4134
  },
  {
    "dt": "2023.01.09 14:00",
    "o": 91.599,
    "h": 91.605,
    "l": 91.378,
    "c": 91.538,
    "v": 4329
  },
  {
    "dt": "2023.01.09 15:00",
    "o": 91.54,
    "h": 91.555,
    "l": 91.334,
    "c": 91.353,
    "v": 5254
  },
  {
    "dt": "2023.01.09 16:00",
    "o": 91.351,
    "h": 91.494,
    "l": 91.267,
    "c": 91.471,
    "v": 5403
  },
  {
    "dt": "2023.01.09 17:00",
    "o": 91.49,
    "h": 91.716,
    "l": 91.475,
    "c": 91.59,
    "v": 5201
  },
  {
    "dt": "2023.01.09 18:00",
    "o": 91.584,
    "h": 91.595,
    "l": 91.388,
    "c": 91.399,
    "v": 4806
  },
  {
    "dt": "2023.01.09 19:00",
    "o": 91.399,
    "h": 91.405,
    "l": 91.274,
    "c": 91.391,
    "v": 4351
  },
  {
    "dt": "2023.01.09 20:00",
    "o": 91.391,
    "h": 91.406,
    "l": 91.223,
    "c": 91.307,
    "v": 4094
  },
  {
    "dt": "2023.01.09 21:00",
    "o": 91.309,
    "h": 91.321,
    "l": 91.168,
    "c": 91.227,
    "v": 4160
  },
  {
    "dt": "2023.01.09 22:00",
    "o": 91.226,
    "h": 91.226,
    "l": 91.078,
    "c": 91.094,
    "v": 4250
  },
  {
    "dt": "2023.01.09 23:00",
    "o": 91.093,
    "h": 91.159,
    "l": 91.06,
    "c": 91.154,
    "v": 1988
  },
  {
    "dt": "2023.01.10 00:00",
    "o": 91.128,
    "h": 91.19,
    "l": 91.059,
    "c": 91.113,
    "v": 693
  },
  {
    "dt": "2023.01.10 01:00",
    "o": 91.113,
    "h": 91.121,
    "l": 90.929,
    "c": 91.005,
    "v": 2758
  },
  {
    "dt": "2023.01.10 02:00",
    "o": 91.006,
    "h": 91.289,
    "l": 90.975,
    "c": 91.011,
    "v": 4471
  },
  {
    "dt": "2023.01.10 03:00",
    "o": 91.011,
    "h": 91.115,
    "l": 90.897,
    "c": 91.063,
    "v": 4921
  },
  {
    "dt": "2023.01.10 04:00",
    "o": 91.066,
    "h": 91.185,
    "l": 90.852,
    "c": 90.969,
    "v": 4707
  },
  {
    "dt": "2023.01.10 05:00",
    "o": 90.971,
    "h": 91.055,
    "l": 90.894,
    "c": 90.99,
    "v": 4242
  },
  {
    "dt": "2023.01.10 06:00",
    "o": 90.995,
    "h": 91.138,
    "l": 90.96,
    "c": 91.111,
    "v": 3168
  },
  {
    "dt": "2023.01.10 07:00",
    "o": 91.111,
    "h": 91.196,
    "l": 91.016,
    "c": 91.065,
    "v": 3857
  },
  {
    "dt": "2023.01.10 08:00",
    "o": 91.069,
    "h": 91.18,
    "l": 91.008,
    "c": 91.121,
    "v": 3864
  },
  {
    "dt": "2023.01.10 09:00",
    "o": 91.12,
    "h": 91.203,
    "l": 90.987,
    "c": 91.175,
    "v": 5278
  },
  {
    "dt": "2023.01.10 10:00",
    "o": 91.184,
    "h": 91.188,
    "l": 90.958,
    "c": 91.03,
    "v": 5095
  },
  {
    "dt": "2023.01.10 11:00",
    "o": 91.027,
    "h": 91.046,
    "l": 90.827,
    "c": 90.941,
    "v": 4577
  },
  {
    "dt": "2023.01.10 12:00",
    "o": 90.942,
    "h": 91.058,
    "l": 90.934,
    "c": 90.965,
    "v": 4374
  },
  {
    "dt": "2023.01.10 13:00",
    "o": 90.97,
    "h": 91.027,
    "l": 90.885,
    "c": 90.892,
    "v": 4303
  },
  {
    "dt": "2023.01.10 14:00",
    "o": 90.89,
    "h": 90.91,
    "l": 90.788,
    "c": 90.862,
    "v": 4613
  },
  {
    "dt": "2023.01.10 15:00",
    "o": 90.863,
    "h": 90.948,
    "l": 90.771,
    "c": 90.92,
    "v": 4734
  },
  {
    "dt": "2023.01.10 16:00",
    "o": 90.92,
    "h": 91.061,
    "l": 90.837,
    "c": 90.973,
    "v": 5956
  },
  {
    "dt": "2023.01.10 17:00",
    "o": 90.977,
    "h": 91.063,
    "l": 90.775,
    "c": 90.942,
    "v": 5799
  },
  {
    "dt": "2023.01.10 18:00",
    "o": 90.941,
    "h": 91.071,
    "l": 90.922,
    "c": 91.018,
    "v": 5169
  },
  {
    "dt": "2023.01.10 19:00",
    "o": 91.019,
    "h": 91.07,
    "l": 90.95,
    "c": 91.011,
    "v": 4258
  },
  {
    "dt": "2023.01.10 20:00",
    "o": 91.005,
    "h": 91.137,
    "l": 90.972,
    "c": 91.127,
    "v": 3980
  },
  {
    "dt": "2023.01.10 21:00",
    "o": 91.129,
    "h": 91.156,
    "l": 91.074,
    "c": 91.156,
    "v": 3408
  },
  {
    "dt": "2023.01.10 22:00",
    "o": 91.151,
    "h": 91.163,
    "l": 91.052,
    "c": 91.142,
    "v": 2981
  },
  {
    "dt": "2023.01.10 23:00",
    "o": 91.144,
    "h": 91.16,
    "l": 91.099,
    "c": 91.132,
    "v": 1875
  },
  {
    "dt": "2023.01.11 00:00",
    "o": 91.023,
    "h": 91.134,
    "l": 90.906,
    "c": 91.119,
    "v": 1365
  },
  {
    "dt": "2023.01.11 01:00",
    "o": 91.148,
    "h": 91.178,
    "l": 91.02,
    "c": 91.049,
    "v": 2418
  },
  {
    "dt": "2023.01.11 02:00",
    "o": 91.048,
    "h": 91.399,
    "l": 91.048,
    "c": 91.23,
    "v": 4124
  },
  {
    "dt": "2023.01.11 03:00",
    "o": 91.229,
    "h": 91.257,
    "l": 91.152,
    "c": 91.213,
    "v": 4341
  },
  {
    "dt": "2023.01.11 04:00",
    "o": 91.213,
    "h": 91.408,
    "l": 91.195,
    "c": 91.306,
    "v": 3801
  },
  {
    "dt": "2023.01.11 05:00",
    "o": 91.305,
    "h": 91.457,
    "l": 91.282,
    "c": 91.406,
    "v": 3223
  },
  {
    "dt": "2023.01.11 06:00",
    "o": 91.406,
    "h": 91.477,
    "l": 91.385,
    "c": 91.405,
    "v": 2655
  },
  {
    "dt": "2023.01.11 07:00",
    "o": 91.404,
    "h": 91.573,
    "l": 91.393,
    "c": 91.471,
    "v": 3368
  },
  {
    "dt": "2023.01.11 08:00",
    "o": 91.471,
    "h": 91.561,
    "l": 91.43,
    "c": 91.436,
    "v": 3615
  },
  {
    "dt": "2023.01.11 09:00",
    "o": 91.432,
    "h": 91.44,
    "l": 91.331,
    "c": 91.432,
    "v": 4254
  },
  {
    "dt": "2023.01.11 10:00",
    "o": 91.433,
    "h": 91.521,
    "l": 91.375,
    "c": 91.498,
    "v": 4833
  },
  {
    "dt": "2023.01.11 11:00",
    "o": 91.498,
    "h": 91.661,
    "l": 91.497,
    "c": 91.559,
    "v": 4508
  },
  {
    "dt": "2023.01.11 12:00",
    "o": 91.56,
    "h": 91.57,
    "l": 91.397,
    "c": 91.471,
    "v": 4009
  },
  {
    "dt": "2023.01.11 13:00",
    "o": 91.471,
    "h": 91.527,
    "l": 91.371,
    "c": 91.375,
    "v": 3941
  },
  {
    "dt": "2023.01.11 14:00",
    "o": 91.382,
    "h": 91.452,
    "l": 91.176,
    "c": 91.416,
    "v": 4149
  },
  {
    "dt": "2023.01.11 15:00",
    "o": 91.413,
    "h": 91.53,
    "l": 91.373,
    "c": 91.518,
    "v": 4640
  },
  {
    "dt": "2023.01.11 16:00",
    "o": 91.519,
    "h": 91.551,
    "l": 91.352,
    "c": 91.404,
    "v": 5171
  },
  {
    "dt": "2023.01.11 17:00",
    "o": 91.407,
    "h": 91.498,
    "l": 91.282,
    "c": 91.484,
    "v": 5152
  },
  {
    "dt": "2023.01.11 18:00",
    "o": 91.486,
    "h": 91.492,
    "l": 91.399,
    "c": 91.441,
    "v": 4188
  },
  {
    "dt": "2023.01.11 19:00",
    "o": 91.443,
    "h": 91.517,
    "l": 91.319,
    "c": 91.319,
    "v": 3387
  },
  {
    "dt": "2023.01.11 20:00",
    "o": 91.32,
    "h": 91.433,
    "l": 91.32,
    "c": 91.388,
    "v": 4177
  },
  {
    "dt": "2023.01.11 21:00",
    "o": 91.388,
    "h": 91.535,
    "l": 91.356,
    "c": 91.513,
    "v": 3536
  },
  {
    "dt": "2023.01.11 22:00",
    "o": 91.511,
    "h": 91.539,
    "l": 91.476,
    "c": 91.521,
    "v": 3160
  },
  {
    "dt": "2023.01.11 23:00",
    "o": 91.523,
    "h": 91.532,
    "l": 91.482,
    "c": 91.486,
    "v": 2511
  },
  {
    "dt": "2023.01.12 00:00",
    "o": 91.344,
    "h": 91.479,
    "l": 91.32,
    "c": 91.423,
    "v": 742
  },
  {
    "dt": "2023.01.12 01:00",
    "o": 91.417,
    "h": 91.44,
    "l": 91.091,
    "c": 91.118,
    "v": 3950
  },
  {
    "dt": "2023.01.12 02:00",
    "o": 91.118,
    "h": 91.275,
    "l": 90.987,
    "c": 91.173,
    "v": 4633
  },
  {
    "dt": "2023.01.12 03:00",
    "o": 91.175,
    "h": 91.255,
    "l": 90.949,
    "c": 91.06,
    "v": 4740
  },
  {
    "dt": "2023.01.12 04:00",
    "o": 91.061,
    "h": 91.161,
    "l": 90.951,
    "c": 91.02,
    "v": 3787
  },
  {
    "dt": "2023.01.12 05:00",
    "o": 91.02,
    "h": 91.073,
    "l": 90.946,
    "c": 91.03,
    "v": 3351
  },
  {
    "dt": "2023.01.12 06:00",
    "o": 91.03,
    "h": 91.091,
    "l": 90.957,
    "c": 90.985,
    "v": 3026
  },
  {
    "dt": "2023.01.12 07:00",
    "o": 90.983,
    "h": 91.059,
    "l": 90.926,
    "c": 91.042,
    "v": 3598
  },
  {
    "dt": "2023.01.12 08:00",
    "o": 91.044,
    "h": 91.062,
    "l": 90.884,
    "c": 90.915,
    "v": 3593
  },
  {
    "dt": "2023.01.12 09:00",
    "o": 90.917,
    "h": 90.934,
    "l": 90.758,
    "c": 90.802,
    "v": 4537
  },
  {
    "dt": "2023.01.12 10:00",
    "o": 90.808,
    "h": 90.825,
    "l": 90.664,
    "c": 90.797,
    "v": 4541
  },
  {
    "dt": "2023.01.12 11:00",
    "o": 90.796,
    "h": 90.864,
    "l": 90.442,
    "c": 90.519,
    "v": 4902
  },
  {
    "dt": "2023.01.12 12:00",
    "o": 90.518,
    "h": 90.554,
    "l": 90.435,
    "c": 90.446,
    "v": 4348
  },
  {
    "dt": "2023.01.12 13:00",
    "o": 90.445,
    "h": 90.462,
    "l": 90.281,
    "c": 90.321,
    "v": 3977
  },
  {
    "dt": "2023.01.12 14:00",
    "o": 90.319,
    "h": 90.322,
    "l": 90.144,
    "c": 90.272,
    "v": 4281
  },
  {
    "dt": "2023.01.12 15:00",
    "o": 90.271,
    "h": 90.511,
    "l": 89.931,
    "c": 90.492,
    "v": 5797
  },
  {
    "dt": "2023.01.12 16:00",
    "o": 90.496,
    "h": 90.63,
    "l": 90.051,
    "c": 90.167,
    "v": 6370
  },
  {
    "dt": "2023.01.12 17:00",
    "o": 90.166,
    "h": 90.383,
    "l": 89.943,
    "c": 90.008,
    "v": 6308
  },
  {
    "dt": "2023.01.12 18:00",
    "o": 90.008,
    "h": 90.135,
    "l": 89.937,
    "c": 90.103,
    "v": 5766
  },
  {
    "dt": "2023.01.12 19:00",
    "o": 90.103,
    "h": 90.317,
    "l": 90.052,
    "c": 90.105,
    "v": 5071
  },
  {
    "dt": "2023.01.12 20:00",
    "o": 90.108,
    "h": 90.141,
    "l": 89.951,
    "c": 90.141,
    "v": 5184
  },
  {
    "dt": "2023.01.12 21:00",
    "o": 90.141,
    "h": 90.232,
    "l": 90.082,
    "c": 90.132,
    "v": 4864
  },
  {
    "dt": "2023.01.12 22:00",
    "o": 90.133,
    "h": 90.144,
    "l": 90.001,
    "c": 90.015,
    "v": 4342
  },
  {
    "dt": "2023.01.12 23:00",
    "o": 90.02,
    "h": 90.117,
    "l": 90.012,
    "c": 90.087,
    "v": 2756
  },
  {
    "dt": "2023.01.13 00:00",
    "o": 90.02,
    "h": 90.094,
    "l": 89.948,
    "c": 90.018,
    "v": 507
  },
  {
    "dt": "2023.01.13 01:00",
    "o": 90.041,
    "h": 90.119,
    "l": 89.911,
    "c": 90.004,
    "v": 3718
  },
  {
    "dt": "2023.01.13 02:00",
    "o": 90.019,
    "h": 90.045,
    "l": 89.808,
    "c": 90.001,
    "v": 4992
  },
  {
    "dt": "2023.01.13 03:00",
    "o": 90.007,
    "h": 90.076,
    "l": 89.713,
    "c": 89.834,
    "v": 5118
  },
  {
    "dt": "2023.01.13 04:00",
    "o": 89.833,
    "h": 89.895,
    "l": 89.678,
    "c": 89.845,
    "v": 4585
  },
  {
    "dt": "2023.01.13 05:00",
    "o": 89.849,
    "h": 89.857,
    "l": 89.707,
    "c": 89.776,
    "v": 3555
  },
  {
    "dt": "2023.01.13 06:00",
    "o": 89.777,
    "h": 89.855,
    "l": 89.675,
    "c": 89.855,
    "v": 3318
  },
  {
    "dt": "2023.01.13 07:00",
    "o": 89.855,
    "h": 89.913,
    "l": 89.747,
    "c": 89.792,
    "v": 3733
  },
  {
    "dt": "2023.01.13 08:00",
    "o": 89.793,
    "h": 89.86,
    "l": 89.559,
    "c": 89.654,
    "v": 4342
  },
  {
    "dt": "2023.01.13 09:00",
    "o": 89.659,
    "h": 89.733,
    "l": 89.392,
    "c": 89.482,
    "v": 5068
  },
  {
    "dt": "2023.01.13 10:00",
    "o": 89.477,
    "h": 89.701,
    "l": 89.438,
    "c": 89.627,
    "v": 5452
  },
  {
    "dt": "2023.01.13 11:00",
    "o": 89.625,
    "h": 89.792,
    "l": 89.566,
    "c": 89.639,
    "v": 4917
  },
  {
    "dt": "2023.01.13 12:00",
    "o": 89.641,
    "h": 89.697,
    "l": 89.541,
    "c": 89.567,
    "v": 4167
  },
  {
    "dt": "2023.01.13 13:00",
    "o": 89.565,
    "h": 89.596,
    "l": 89.345,
    "c": 89.454,
    "v": 4462
  },
  {
    "dt": "2023.01.13 14:00",
    "o": 89.457,
    "h": 89.506,
    "l": 89.151,
    "c": 89.168,
    "v": 4693
  },
  {
    "dt": "2023.01.13 15:00",
    "o": 89.168,
    "h": 89.201,
    "l": 88.734,
    "c": 88.792,
    "v": 5312
  },
  {
    "dt": "2023.01.13 16:00",
    "o": 88.792,
    "h": 88.885,
    "l": 88.645,
    "c": 88.645,
    "v": 5637
  },
  {
    "dt": "2023.01.13 17:00",
    "o": 88.663,
    "h": 88.894,
    "l": 88.644,
    "c": 88.733,
    "v": 5881
  },
  {
    "dt": "2023.01.13 18:00",
    "o": 88.731,
    "h": 88.879,
    "l": 88.645,
    "c": 88.842,
    "v": 5001
  },
  {
    "dt": "2023.01.13 19:00",
    "o": 88.843,
    "h": 88.989,
    "l": 88.822,
    "c": 88.953,
    "v": 4197
  },
  {
    "dt": "2023.01.13 20:00",
    "o": 88.949,
    "h": 89.176,
    "l": 88.917,
    "c": 89.166,
    "v": 3744
  },
  {
    "dt": "2023.01.13 21:00",
    "o": 89.166,
    "h": 89.255,
    "l": 89.097,
    "c": 89.251,
    "v": 3372
  },
  {
    "dt": "2023.01.13 22:00",
    "o": 89.246,
    "h": 89.274,
    "l": 89.208,
    "c": 89.224,
    "v": 2855
  },
  {
    "dt": "2023.01.13 23:00",
    "o": 89.227,
    "h": 89.24,
    "l": 89.126,
    "c": 89.18,
    "v": 1770
  },
  {
    "dt": "2023.01.16 00:00",
    "o": 89.07,
    "h": 89.115,
    "l": 89.012,
    "c": 89.064,
    "v": 397
  },
  {
    "dt": "2023.01.16 01:00",
    "o": 89.074,
    "h": 89.33,
    "l": 89.05,
    "c": 89.274,
    "v": 3295
  },
  {
    "dt": "2023.01.16 02:00",
    "o": 89.275,
    "h": 89.582,
    "l": 89.229,
    "c": 89.318,
    "v": 3818
  },
  {
    "dt": "2023.01.16 03:00",
    "o": 89.324,
    "h": 89.567,
    "l": 89.147,
    "c": 89.561,
    "v": 4722
  },
  {
    "dt": "2023.01.16 04:00",
    "o": 89.554,
    "h": 89.557,
    "l": 89.231,
    "c": 89.343,
    "v": 4243
  },
  {
    "dt": "2023.01.16 05:00",
    "o": 89.345,
    "h": 89.368,
    "l": 89.163,
    "c": 89.291,
    "v": 2951
  },
  {
    "dt": "2023.01.16 06:00",
    "o": 89.29,
    "h": 89.311,
    "l": 89.16,
    "c": 89.196,
    "v": 2692
  },
  {
    "dt": "2023.01.16 07:00",
    "o": 89.201,
    "h": 89.345,
    "l": 89.172,
    "c": 89.238,
    "v": 3234
  },
  {
    "dt": "2023.01.16 08:00",
    "o": 89.239,
    "h": 89.343,
    "l": 89.134,
    "c": 89.317,
    "v": 3596
  },
  {
    "dt": "2023.01.16 09:00",
    "o": 89.316,
    "h": 89.387,
    "l": 89.195,
    "c": 89.277,
    "v": 4499
  },
  {
    "dt": "2023.01.16 10:00",
    "o": 89.277,
    "h": 89.571,
    "l": 89.193,
    "c": 89.373,
    "v": 5458
  },
  {
    "dt": "2023.01.16 11:00",
    "o": 89.377,
    "h": 89.485,
    "l": 89.319,
    "c": 89.387,
    "v": 4643
  },
  {
    "dt": "2023.01.16 12:00",
    "o": 89.389,
    "h": 89.506,
    "l": 89.333,
    "c": 89.421,
    "v": 3592
  },
  {
    "dt": "2023.01.16 13:00",
    "o": 89.422,
    "h": 89.499,
    "l": 89.306,
    "c": 89.392,
    "v": 3330
  },
  {
    "dt": "2023.01.16 14:00",
    "o": 89.39,
    "h": 89.484,
    "l": 89.361,
    "c": 89.403,
    "v": 3603
  },
  {
    "dt": "2023.01.16 15:00",
    "o": 89.409,
    "h": 89.43,
    "l": 89.274,
    "c": 89.368,
    "v": 3936
  },
  {
    "dt": "2023.01.16 16:00",
    "o": 89.364,
    "h": 89.46,
    "l": 89.327,
    "c": 89.396,
    "v": 3891
  },
  {
    "dt": "2023.01.16 17:00",
    "o": 89.395,
    "h": 89.52,
    "l": 89.384,
    "c": 89.428,
    "v": 3325
  },
  {
    "dt": "2023.01.16 18:00",
    "o": 89.427,
    "h": 89.498,
    "l": 89.382,
    "c": 89.455,
    "v": 2753
  },
  {
    "dt": "2023.01.16 19:00",
    "o": 89.455,
    "h": 89.522,
    "l": 89.451,
    "c": 89.507,
    "v": 2028
  },
  {
    "dt": "2023.01.16 20:00",
    "o": 89.51,
    "h": 89.51,
    "l": 89.365,
    "c": 89.375,
    "v": 1330
  },
  {
    "dt": "2023.01.16 21:00",
    "o": 89.377,
    "h": 89.4,
    "l": 89.33,
    "c": 89.399,
    "v": 940
  },
  {
    "dt": "2023.01.16 22:00",
    "o": 89.4,
    "h": 89.415,
    "l": 89.313,
    "c": 89.326,
    "v": 1025
  },
  {
    "dt": "2023.01.16 23:00",
    "o": 89.328,
    "h": 89.384,
    "l": 89.29,
    "c": 89.35,
    "v": 1219
  },
  {
    "dt": "2023.01.17 00:00",
    "o": 89.337,
    "h": 89.361,
    "l": 89.267,
    "c": 89.326,
    "v": 1257
  },
  {
    "dt": "2023.01.17 01:00",
    "o": 89.313,
    "h": 89.398,
    "l": 89.213,
    "c": 89.393,
    "v": 2383
  },
  {
    "dt": "2023.01.17 02:00",
    "o": 89.396,
    "h": 89.582,
    "l": 89.366,
    "c": 89.429,
    "v": 3437
  },
  {
    "dt": "2023.01.17 03:00",
    "o": 89.427,
    "h": 89.859,
    "l": 89.406,
    "c": 89.719,
    "v": 4224
  },
  {
    "dt": "2023.01.17 04:00",
    "o": 89.745,
    "h": 89.864,
    "l": 89.615,
    "c": 89.746,
    "v": 4159
  },
  {
    "dt": "2023.01.17 05:00",
    "o": 89.747,
    "h": 89.836,
    "l": 89.693,
    "c": 89.733,
    "v": 3402
  },
  {
    "dt": "2023.01.17 06:00",
    "o": 89.726,
    "h": 89.736,
    "l": 89.638,
    "c": 89.711,
    "v": 2877
  },
  {
    "dt": "2023.01.17 07:00",
    "o": 89.709,
    "h": 89.751,
    "l": 89.549,
    "c": 89.613,
    "v": 2773
  },
  {
    "dt": "2023.01.17 08:00",
    "o": 89.619,
    "h": 89.796,
    "l": 89.587,
    "c": 89.612,
    "v": 3570
  },
  {
    "dt": "2023.01.17 09:00",
    "o": 89.614,
    "h": 89.688,
    "l": 89.547,
    "c": 89.617,
    "v": 4109
  },
  {
    "dt": "2023.01.17 10:00",
    "o": 89.618,
    "h": 89.672,
    "l": 89.374,
    "c": 89.391,
    "v": 4838
  },
  {
    "dt": "2023.01.17 11:00",
    "o": 89.397,
    "h": 89.557,
    "l": 89.392,
    "c": 89.502,
    "v": 4302
  },
  {
    "dt": "2023.01.17 12:00",
    "o": 89.514,
    "h": 89.555,
    "l": 89.415,
    "c": 89.431,
    "v": 4179
  },
  {
    "dt": "2023.01.17 13:00",
    "o": 89.432,
    "h": 89.49,
    "l": 89.358,
    "c": 89.456,
    "v": 3771
  },
  {
    "dt": "2023.01.17 14:00",
    "o": 89.457,
    "h": 89.541,
    "l": 89.321,
    "c": 89.404,
    "v": 4427
  },
  {
    "dt": "2023.01.17 15:00",
    "o": 89.405,
    "h": 89.411,
    "l": 89.259,
    "c": 89.41,
    "v": 4941
  },
  {
    "dt": "2023.01.17 16:00",
    "o": 89.412,
    "h": 89.544,
    "l": 89.354,
    "c": 89.39,
    "v": 5536
  },
  {
    "dt": "2023.01.17 17:00",
    "o": 89.393,
    "h": 89.733,
    "l": 89.393,
    "c": 89.577,
    "v": 6002
  },
  {
    "dt": "2023.01.17 18:00",
    "o": 89.591,
    "h": 89.607,
    "l": 89.453,
    "c": 89.527,
    "v": 4568
  },
  {
    "dt": "2023.01.17 19:00",
    "o": 89.524,
    "h": 89.585,
    "l": 89.465,
    "c": 89.57,
    "v": 3050
  },
  {
    "dt": "2023.01.17 20:00",
    "o": 89.57,
    "h": 89.675,
    "l": 89.551,
    "c": 89.651,
    "v": 2853
  },
  {
    "dt": "2023.01.17 21:00",
    "o": 89.65,
    "h": 89.722,
    "l": 89.56,
    "c": 89.692,
    "v": 3498
  },
  {
    "dt": "2023.01.17 22:00",
    "o": 89.69,
    "h": 89.697,
    "l": 89.507,
    "c": 89.555,
    "v": 2930
  },
  {
    "dt": "2023.01.17 23:00",
    "o": 89.555,
    "h": 89.614,
    "l": 89.51,
    "c": 89.52,
    "v": 1971
  },
  {
    "dt": "2023.01.18 00:00",
    "o": 89.467,
    "h": 89.597,
    "l": 89.39,
    "c": 89.596,
    "v": 818
  },
  {
    "dt": "2023.01.18 01:00",
    "o": 89.602,
    "h": 89.678,
    "l": 89.567,
    "c": 89.633,
    "v": 2453
  },
  {
    "dt": "2023.01.18 02:00",
    "o": 89.634,
    "h": 89.959,
    "l": 89.617,
    "c": 89.922,
    "v": 3977
  },
  {
    "dt": "2023.01.18 03:00",
    "o": 89.927,
    "h": 90.121,
    "l": 89.843,
    "c": 89.887,
    "v": 4019
  },
  {
    "dt": "2023.01.18 04:00",
    "o": 89.887,
    "h": 91.274,
    "l": 89.818,
    "c": 91.248,
    "v": 5009
  },
  {
    "dt": "2023.01.18 05:00",
    "o": 91.232,
    "h": 91.645,
    "l": 91.158,
    "c": 91.595,
    "v": 5744
  },
  {
    "dt": "2023.01.18 06:00",
    "o": 91.596,
    "h": 91.896,
    "l": 91.568,
    "c": 91.84,
    "v": 4706
  },
  {
    "dt": "2023.01.18 07:00",
    "o": 91.842,
    "h": 91.908,
    "l": 91.428,
    "c": 91.501,
    "v": 4538
  },
  {
    "dt": "2023.01.18 08:00",
    "o": 91.504,
    "h": 91.787,
    "l": 91.367,
    "c": 91.633,
    "v": 4900
  },
  {
    "dt": "2023.01.18 09:00",
    "o": 91.63,
    "h": 91.89,
    "l": 91.367,
    "c": 91.414,
    "v": 5946
  },
  {
    "dt": "2023.01.18 10:00",
    "o": 91.417,
    "h": 91.526,
    "l": 90.977,
    "c": 90.99,
    "v": 5866
  },
  {
    "dt": "2023.01.18 11:00",
    "o": 90.993,
    "h": 91.09,
    "l": 90.728,
    "c": 90.892,
    "v": 5558
  },
  {
    "dt": "2023.01.18 12:00",
    "o": 90.895,
    "h": 90.958,
    "l": 90.637,
    "c": 90.712,
    "v": 5213
  },
  {
    "dt": "2023.01.18 13:00",
    "o": 90.71,
    "h": 90.849,
    "l": 90.464,
    "c": 90.522,
    "v": 4916
  },
  {
    "dt": "2023.01.18 14:00",
    "o": 90.518,
    "h": 90.725,
    "l": 90.459,
    "c": 90.652,
    "v": 4855
  },
  {
    "dt": "2023.01.18 15:00",
    "o": 90.653,
    "h": 90.712,
    "l": 90.121,
    "c": 90.219,
    "v": 5760
  },
  {
    "dt": "2023.01.18 16:00",
    "o": 90.229,
    "h": 90.294,
    "l": 90.018,
    "c": 90.294,
    "v": 6189
  },
  {
    "dt": "2023.01.18 17:00",
    "o": 90.3,
    "h": 90.338,
    "l": 89.971,
    "c": 90.005,
    "v": 6105
  },
  {
    "dt": "2023.01.18 18:00",
    "o": 90.001,
    "h": 90.045,
    "l": 89.716,
    "c": 89.745,
    "v": 5497
  },
  {
    "dt": "2023.01.18 19:00",
    "o": 89.743,
    "h": 89.797,
    "l": 89.598,
    "c": 89.647,
    "v": 4871
  },
  {
    "dt": "2023.01.18 20:00",
    "o": 89.653,
    "h": 89.672,
    "l": 89.329,
    "c": 89.492,
    "v": 4521
  },
  {
    "dt": "2023.01.18 21:00",
    "o": 89.49,
    "h": 89.558,
    "l": 89.338,
    "c": 89.352,
    "v": 4084
  },
  {
    "dt": "2023.01.18 22:00",
    "o": 89.356,
    "h": 89.405,
    "l": 89.344,
    "c": 89.375,
    "v": 3984
  },
  {
    "dt": "2023.01.18 23:00",
    "o": 89.377,
    "h": 89.473,
    "l": 89.352,
    "c": 89.452,
    "v": 2672
  },
  {
    "dt": "2023.01.19 00:00",
    "o": 89.442,
    "h": 89.464,
    "l": 89.208,
    "c": 89.372,
    "v": 1301
  },
  {
    "dt": "2023.01.19 01:00",
    "o": 89.365,
    "h": 89.435,
    "l": 89.186,
    "c": 89.253,
    "v": 3072
  },
  {
    "dt": "2023.01.19 02:00",
    "o": 89.242,
    "h": 89.248,
    "l": 88.601,
    "c": 88.691,
    "v": 4754
  },
  {
    "dt": "2023.01.19 03:00",
    "o": 88.709,
    "h": 88.867,
    "l": 88.666,
    "c": 88.724,
    "v": 4416
  },
  {
    "dt": "2023.01.19 04:00",
    "o": 88.723,
    "h": 88.773,
    "l": 88.626,
    "c": 88.673,
    "v": 3300
  },
  {
    "dt": "2023.01.19 05:00",
    "o": 88.672,
    "h": 88.72,
    "l": 88.523,
    "c": 88.586,
    "v": 3632
  },
  {
    "dt": "2023.01.19 06:00",
    "o": 88.586,
    "h": 88.587,
    "l": 88.286,
    "c": 88.376,
    "v": 3498
  },
  {
    "dt": "2023.01.19 07:00",
    "o": 88.377,
    "h": 88.4,
    "l": 88.11,
    "c": 88.264,
    "v": 3581
  },
  {
    "dt": "2023.01.19 08:00",
    "o": 88.267,
    "h": 88.325,
    "l": 88.136,
    "c": 88.163,
    "v": 3497
  },
  {
    "dt": "2023.01.19 09:00",
    "o": 88.161,
    "h": 88.306,
    "l": 88.105,
    "c": 88.293,
    "v": 4679
  },
  {
    "dt": "2023.01.19 10:00",
    "o": 88.295,
    "h": 88.51,
    "l": 88.265,
    "c": 88.367,
    "v": 4930
  },
  {
    "dt": "2023.01.19 11:00",
    "o": 88.371,
    "h": 88.486,
    "l": 88.278,
    "c": 88.321,
    "v": 4379
  },
  {
    "dt": "2023.01.19 12:00",
    "o": 88.324,
    "h": 88.517,
    "l": 88.291,
    "c": 88.505,
    "v": 4600
  },
  {
    "dt": "2023.01.19 13:00",
    "o": 88.499,
    "h": 88.532,
    "l": 88.421,
    "c": 88.508,
    "v": 4456
  },
  {
    "dt": "2023.01.19 14:00",
    "o": 88.509,
    "h": 88.531,
    "l": 88.369,
    "c": 88.446,
    "v": 4368
  },
  {
    "dt": "2023.01.19 15:00",
    "o": 88.442,
    "h": 88.709,
    "l": 88.315,
    "c": 88.632,
    "v": 5571
  },
  {
    "dt": "2023.01.19 16:00",
    "o": 88.628,
    "h": 88.767,
    "l": 88.598,
    "c": 88.709,
    "v": 5641
  },
  {
    "dt": "2023.01.19 17:00",
    "o": 88.711,
    "h": 88.831,
    "l": 88.436,
    "c": 88.513,
    "v": 5554
  },
  {
    "dt": "2023.01.19 18:00",
    "o": 88.514,
    "h": 88.679,
    "l": 88.452,
    "c": 88.459,
    "v": 4776
  },
  {
    "dt": "2023.01.19 19:00",
    "o": 88.463,
    "h": 88.731,
    "l": 88.46,
    "c": 88.692,
    "v": 4037
  },
  {
    "dt": "2023.01.19 20:00",
    "o": 88.691,
    "h": 88.791,
    "l": 88.61,
    "c": 88.752,
    "v": 4484
  },
  {
    "dt": "2023.01.19 21:00",
    "o": 88.759,
    "h": 88.892,
    "l": 88.711,
    "c": 88.846,
    "v": 3796
  },
  {
    "dt": "2023.01.19 22:00",
    "o": 88.844,
    "h": 88.898,
    "l": 88.761,
    "c": 88.769,
    "v": 3785
  },
  {
    "dt": "2023.01.19 23:00",
    "o": 88.773,
    "h": 88.807,
    "l": 88.68,
    "c": 88.729,
    "v": 2355
  },
  {
    "dt": "2023.01.20 00:00",
    "o": 88.718,
    "h": 88.756,
    "l": 88.653,
    "c": 88.737,
    "v": 842
  },
  {
    "dt": "2023.01.20 01:00",
    "o": 88.741,
    "h": 88.855,
    "l": 88.713,
    "c": 88.718,
    "v": 2635
  },
  {
    "dt": "2023.01.20 02:00",
    "o": 88.717,
    "h": 88.971,
    "l": 88.713,
    "c": 88.901,
    "v": 3501
  },
  {
    "dt": "2023.01.20 03:00",
    "o": 88.902,
    "h": 89.168,
    "l": 88.819,
    "c": 89.162,
    "v": 3796
  },
  {
    "dt": "2023.01.20 04:00",
    "o": 89.159,
    "h": 89.28,
    "l": 89.108,
    "c": 89.161,
    "v": 3218
  },
  {
    "dt": "2023.01.20 05:00",
    "o": 89.162,
    "h": 89.197,
    "l": 89.1,
    "c": 89.16,
    "v": 2467
  },
  {
    "dt": "2023.01.20 06:00",
    "o": 89.163,
    "h": 89.3,
    "l": 89.139,
    "c": 89.256,
    "v": 3059
  },
  {
    "dt": "2023.01.20 07:00",
    "o": 89.253,
    "h": 89.496,
    "l": 89.222,
    "c": 89.431,
    "v": 3585
  },
  {
    "dt": "2023.01.20 08:00",
    "o": 89.432,
    "h": 89.472,
    "l": 89.347,
    "c": 89.45,
    "v": 3088
  },
  {
    "dt": "2023.01.20 09:00",
    "o": 89.443,
    "h": 89.484,
    "l": 89.274,
    "c": 89.416,
    "v": 4375
  },
  {
    "dt": "2023.01.20 10:00",
    "o": 89.418,
    "h": 89.677,
    "l": 89.371,
    "c": 89.65,
    "v": 4754
  },
  {
    "dt": "2023.01.20 11:00",
    "o": 89.649,
    "h": 89.852,
    "l": 89.636,
    "c": 89.735,
    "v": 4734
  },
  {
    "dt": "2023.01.20 12:00",
    "o": 89.734,
    "h": 89.877,
    "l": 89.617,
    "c": 89.855,
    "v": 4935
  },
  {
    "dt": "2023.01.20 13:00",
    "o": 89.847,
    "h": 89.981,
    "l": 89.785,
    "c": 89.874,
    "v": 4172
  },
  {
    "dt": "2023.01.20 14:00",
    "o": 89.871,
    "h": 90.213,
    "l": 89.835,
    "c": 90.151,
    "v": 4998
  },
  {
    "dt": "2023.01.20 15:00",
    "o": 90.157,
    "h": 90.285,
    "l": 90.099,
    "c": 90.281,
    "v": 5061
  },
  {
    "dt": "2023.01.20 16:00",
    "o": 90.279,
    "h": 90.426,
    "l": 90.172,
    "c": 90.294,
    "v": 5570
  },
  {
    "dt": "2023.01.20 17:00",
    "o": 90.3,
    "h": 90.411,
    "l": 90.213,
    "c": 90.298,
    "v": 5736
  },
  {
    "dt": "2023.01.20 18:00",
    "o": 90.297,
    "h": 90.348,
    "l": 90.197,
    "c": 90.341,
    "v": 4575
  },
  {
    "dt": "2023.01.20 19:00",
    "o": 90.341,
    "h": 90.355,
    "l": 90.204,
    "c": 90.253,
    "v": 3628
  },
  {
    "dt": "2023.01.20 20:00",
    "o": 90.255,
    "h": 90.32,
    "l": 90.1,
    "c": 90.302,
    "v": 3821
  },
  {
    "dt": "2023.01.20 21:00",
    "o": 90.301,
    "h": 90.323,
    "l": 90.221,
    "c": 90.292,
    "v": 3254
  },
  {
    "dt": "2023.01.20 22:00",
    "o": 90.293,
    "h": 90.342,
    "l": 90.25,
    "c": 90.306,
    "v": 3222
  },
  {
    "dt": "2023.01.20 23:00",
    "o": 90.306,
    "h": 90.347,
    "l": 90.24,
    "c": 90.27,
    "v": 1818
  },
  {
    "dt": "2023.01.23 00:00",
    "o": 90.113,
    "h": 90.344,
    "l": 90.113,
    "c": 90.334,
    "v": 453
  },
  {
    "dt": "2023.01.23 01:00",
    "o": 90.33,
    "h": 90.401,
    "l": 90.225,
    "c": 90.349,
    "v": 3038
  },
  {
    "dt": "2023.01.23 02:00",
    "o": 90.351,
    "h": 90.403,
    "l": 90.218,
    "c": 90.311,
    "v": 3472
  },
  {
    "dt": "2023.01.23 03:00",
    "o": 90.312,
    "h": 90.348,
    "l": 90.196,
    "c": 90.251,
    "v": 3916
  },
  {
    "dt": "2023.01.23 04:00",
    "o": 90.25,
    "h": 90.282,
    "l": 90.154,
    "c": 90.2,
    "v": 2305
  },
  {
    "dt": "2023.01.23 05:00",
    "o": 90.193,
    "h": 90.326,
    "l": 90.161,
    "c": 90.293,
    "v": 2644
  },
  {
    "dt": "2023.01.23 06:00",
    "o": 90.292,
    "h": 90.524,
    "l": 90.291,
    "c": 90.47,
    "v": 3010
  },
  {
    "dt": "2023.01.23 07:00",
    "o": 90.47,
    "h": 90.666,
    "l": 90.451,
    "c": 90.616,
    "v": 3183
  },
  {
    "dt": "2023.01.23 08:00",
    "o": 90.614,
    "h": 90.841,
    "l": 90.564,
    "c": 90.79,
    "v": 3728
  },
  {
    "dt": "2023.01.23 09:00",
    "o": 90.791,
    "h": 90.922,
    "l": 90.728,
    "c": 90.829,
    "v": 4654
  },
  {
    "dt": "2023.01.23 10:00",
    "o": 90.831,
    "h": 90.919,
    "l": 90.719,
    "c": 90.905,
    "v": 5024
  },
  {
    "dt": "2023.01.23 11:00",
    "o": 90.905,
    "h": 91.026,
    "l": 90.834,
    "c": 90.973,
    "v": 4219
  },
  {
    "dt": "2023.01.23 12:00",
    "o": 90.975,
    "h": 91.194,
    "l": 90.884,
    "c": 91.16,
    "v": 4158
  },
  {
    "dt": "2023.01.23 13:00",
    "o": 91.159,
    "h": 91.245,
    "l": 91.003,
    "c": 91.086,
    "v": 4363
  },
  {
    "dt": "2023.01.23 14:00",
    "o": 91.084,
    "h": 91.171,
    "l": 90.987,
    "c": 91.109,
    "v": 4420
  },
  {
    "dt": "2023.01.23 15:00",
    "o": 91.112,
    "h": 91.267,
    "l": 90.997,
    "c": 91.025,
    "v": 4958
  },
  {
    "dt": "2023.01.23 16:00",
    "o": 91.026,
    "h": 91.26,
    "l": 90.993,
    "c": 91.167,
    "v": 5612
  },
  {
    "dt": "2023.01.23 17:00",
    "o": 91.171,
    "h": 91.891,
    "l": 91.117,
    "c": 91.828,
    "v": 4389
  },
  {
    "dt": "2023.01.23 18:00",
    "o": 91.825,
    "h": 91.916,
    "l": 91.699,
    "c": 91.788,
    "v": 4939
  },
  {
    "dt": "2023.01.23 19:00",
    "o": 91.789,
    "h": 91.832,
    "l": 91.737,
    "c": 91.78,
    "v": 3793
  },
  {
    "dt": "2023.01.23 20:00",
    "o": 91.779,
    "h": 91.888,
    "l": 91.773,
    "c": 91.804,
    "v": 3104
  },
  {
    "dt": "2023.01.23 21:00",
    "o": 91.805,
    "h": 91.805,
    "l": 91.622,
    "c": 91.731,
    "v": 3827
  },
  {
    "dt": "2023.01.23 22:00",
    "o": 91.726,
    "h": 91.822,
    "l": 91.713,
    "c": 91.822,
    "v": 3986
  },
  {
    "dt": "2023.01.23 23:00",
    "o": 91.819,
    "h": 91.849,
    "l": 91.773,
    "c": 91.834,
    "v": 2196
  },
  {
    "dt": "2023.01.24 00:00",
    "o": 91.745,
    "h": 91.789,
    "l": 91.703,
    "c": 91.769,
    "v": 587
  },
  {
    "dt": "2023.01.24 01:00",
    "o": 91.762,
    "h": 91.811,
    "l": 91.684,
    "c": 91.771,
    "v": 2318
  },
  {
    "dt": "2023.01.24 02:00",
    "o": 91.771,
    "h": 91.829,
    "l": 91.566,
    "c": 91.694,
    "v": 3287
  },
  {
    "dt": "2023.01.24 03:00",
    "o": 91.695,
    "h": 91.782,
    "l": 91.619,
    "c": 91.731,
    "v": 3139
  },
  {
    "dt": "2023.01.24 04:00",
    "o": 91.731,
    "h": 91.85,
    "l": 91.62,
    "c": 91.723,
    "v": 2672
  },
  {
    "dt": "2023.01.24 05:00",
    "o": 91.722,
    "h": 91.746,
    "l": 91.65,
    "c": 91.701,
    "v": 2266
  },
  {
    "dt": "2023.01.24 06:00",
    "o": 91.7,
    "h": 91.742,
    "l": 91.48,
    "c": 91.595,
    "v": 2604
  },
  {
    "dt": "2023.01.24 07:00",
    "o": 91.596,
    "h": 91.657,
    "l": 91.527,
    "c": 91.575,
    "v": 2440
  },
  {
    "dt": "2023.01.24 08:00",
    "o": 91.573,
    "h": 91.679,
    "l": 91.532,
    "c": 91.641,
    "v": 2688
  },
  {
    "dt": "2023.01.24 09:00",
    "o": 91.639,
    "h": 91.642,
    "l": 91.326,
    "c": 91.344,
    "v": 4271
  },
  {
    "dt": "2023.01.24 10:00",
    "o": 91.343,
    "h": 91.437,
    "l": 91.284,
    "c": 91.355,
    "v": 4662
  },
  {
    "dt": "2023.01.24 11:00",
    "o": 91.355,
    "h": 91.481,
    "l": 91.28,
    "c": 91.306,
    "v": 4789
  },
  {
    "dt": "2023.01.24 12:00",
    "o": 91.311,
    "h": 91.394,
    "l": 91.244,
    "c": 91.393,
    "v": 4065
  },
  {
    "dt": "2023.01.24 13:00",
    "o": 91.394,
    "h": 91.437,
    "l": 91.328,
    "c": 91.417,
    "v": 3547
  },
  {
    "dt": "2023.01.24 14:00",
    "o": 91.415,
    "h": 91.421,
    "l": 91.294,
    "c": 91.348,
    "v": 3741
  },
  {
    "dt": "2023.01.24 15:00",
    "o": 91.356,
    "h": 91.555,
    "l": 91.33,
    "c": 91.489,
    "v": 4871
  },
  {
    "dt": "2023.01.24 16:00",
    "o": 91.487,
    "h": 91.84,
    "l": 91.392,
    "c": 91.706,
    "v": 5274
  },
  {
    "dt": "2023.01.24 17:00",
    "o": 91.714,
    "h": 91.912,
    "l": 91.636,
    "c": 91.689,
    "v": 5966
  },
  {
    "dt": "2023.01.24 18:00",
    "o": 91.694,
    "h": 91.717,
    "l": 91.493,
    "c": 91.561,
    "v": 4816
  },
  {
    "dt": "2023.01.24 19:00",
    "o": 91.56,
    "h": 91.588,
    "l": 91.48,
    "c": 91.579,
    "v": 3850
  },
  {
    "dt": "2023.01.24 20:00",
    "o": 91.578,
    "h": 91.639,
    "l": 91.555,
    "c": 91.6,
    "v": 3336
  },
  {
    "dt": "2023.01.24 21:00",
    "o": 91.601,
    "h": 91.668,
    "l": 91.546,
    "c": 91.654,
    "v": 2870
  },
  {
    "dt": "2023.01.24 22:00",
    "o": 91.653,
    "h": 91.672,
    "l": 91.593,
    "c": 91.638,
    "v": 2870
  },
  {
    "dt": "2023.01.24 23:00",
    "o": 91.637,
    "h": 91.741,
    "l": 91.626,
    "c": 91.689,
    "v": 2638
  },
  {
    "dt": "2023.01.25 00:00",
    "o": 91.655,
    "h": 91.695,
    "l": 91.558,
    "c": 91.611,
    "v": 702
  },
  {
    "dt": "2023.01.25 01:00",
    "o": 91.607,
    "h": 91.79,
    "l": 91.467,
    "c": 91.777,
    "v": 2606
  },
  {
    "dt": "2023.01.25 02:00",
    "o": 91.794,
    "h": 92.369,
    "l": 91.693,
    "c": 92.255,
    "v": 4090
  },
  {
    "dt": "2023.01.25 03:00",
    "o": 92.257,
    "h": 92.329,
    "l": 92.147,
    "c": 92.254,
    "v": 3666
  },
  {
    "dt": "2023.01.25 04:00",
    "o": 92.253,
    "h": 92.521,
    "l": 92.231,
    "c": 92.437,
    "v": 3107
  },
  {
    "dt": "2023.01.25 05:00",
    "o": 92.438,
    "h": 92.704,
    "l": 92.422,
    "c": 92.622,
    "v": 3118
  },
  {
    "dt": "2023.01.25 06:00",
    "o": 92.628,
    "h": 92.7,
    "l": 92.547,
    "c": 92.587,
    "v": 2968
  },
  {
    "dt": "2023.01.25 07:00",
    "o": 92.588,
    "h": 92.706,
    "l": 92.548,
    "c": 92.571,
    "v": 2885
  },
  {
    "dt": "2023.01.25 08:00",
    "o": 92.577,
    "h": 92.748,
    "l": 92.569,
    "c": 92.748,
    "v": 3118
  },
  {
    "dt": "2023.01.25 09:00",
    "o": 92.753,
    "h": 92.777,
    "l": 92.516,
    "c": 92.556,
    "v": 4310
  },
  {
    "dt": "2023.01.25 10:00",
    "o": 92.56,
    "h": 92.592,
    "l": 92.4,
    "c": 92.408,
    "v": 4388
  },
  {
    "dt": "2023.01.25 11:00",
    "o": 92.409,
    "h": 92.418,
    "l": 92.029,
    "c": 92.049,
    "v": 4342
  },
  {
    "dt": "2023.01.25 12:00",
    "o": 92.052,
    "h": 92.205,
    "l": 91.964,
    "c": 92.061,
    "v": 4165
  },
  {
    "dt": "2023.01.25 13:00",
    "o": 92.062,
    "h": 92.066,
    "l": 91.799,
    "c": 91.836,
    "v": 4106
  },
  {
    "dt": "2023.01.25 14:00",
    "o": 91.835,
    "h": 91.961,
    "l": 91.651,
    "c": 91.829,
    "v": 4246
  },
  {
    "dt": "2023.01.25 15:00",
    "o": 91.829,
    "h": 91.923,
    "l": 91.705,
    "c": 91.797,
    "v": 4504
  },
  {
    "dt": "2023.01.25 16:00",
    "o": 91.797,
    "h": 91.871,
    "l": 91.609,
    "c": 91.717,
    "v": 5264
  },
  {
    "dt": "2023.01.25 17:00",
    "o": 91.712,
    "h": 91.764,
    "l": 91.409,
    "c": 91.66,
    "v": 5776
  },
  {
    "dt": "2023.01.25 18:00",
    "o": 91.657,
    "h": 91.867,
    "l": 91.655,
    "c": 91.762,
    "v": 4897
  },
  {
    "dt": "2023.01.25 19:00",
    "o": 91.764,
    "h": 91.801,
    "l": 91.721,
    "c": 91.751,
    "v": 3622
  },
  {
    "dt": "2023.01.25 20:00",
    "o": 91.753,
    "h": 91.929,
    "l": 91.748,
    "c": 91.902,
    "v": 3907
  },
  {
    "dt": "2023.01.25 21:00",
    "o": 91.903,
    "h": 92.071,
    "l": 91.901,
    "c": 91.961,
    "v": 3400
  },
  {
    "dt": "2023.01.25 22:00",
    "o": 91.962,
    "h": 92.035,
    "l": 91.959,
    "c": 92.031,
    "v": 3287
  },
  {
    "dt": "2023.01.25 23:00",
    "o": 92.031,
    "h": 92.053,
    "l": 91.948,
    "c": 92.007,
    "v": 2620
  },
  {
    "dt": "2023.01.26 00:00",
    "o": 92.047,
    "h": 92.047,
    "l": 91.903,
    "c": 91.979,
    "v": 1049
  },
  {
    "dt": "2023.01.26 01:00",
    "o": 91.973,
    "h": 91.997,
    "l": 91.841,
    "c": 91.858,
    "v": 3011
  },
  {
    "dt": "2023.01.26 02:00",
    "o": 91.855,
    "h": 91.971,
    "l": 91.776,
    "c": 91.797,
    "v": 3697
  },
  {
    "dt": "2023.01.26 03:00",
    "o": 91.807,
    "h": 91.871,
    "l": 91.631,
    "c": 91.866,
    "v": 3866
  },
  {
    "dt": "2023.01.26 04:00",
    "o": 91.867,
    "h": 92.083,
    "l": 91.778,
    "c": 92.033,
    "v": 3507
  },
  {
    "dt": "2023.01.26 05:00",
    "o": 92.038,
    "h": 92.137,
    "l": 91.916,
    "c": 91.937,
    "v": 3063
  },
  {
    "dt": "2023.01.26 06:00",
    "o": 91.937,
    "h": 92.061,
    "l": 91.833,
    "c": 92.007,
    "v": 3126
  },
  {
    "dt": "2023.01.26 07:00",
    "o": 92.009,
    "h": 92.217,
    "l": 91.99,
    "c": 92.112,
    "v": 2982
  },
  {
    "dt": "2023.01.26 08:00",
    "o": 92.115,
    "h": 92.156,
    "l": 91.961,
    "c": 91.984,
    "v": 3243
  },
  {
    "dt": "2023.01.26 09:00",
    "o": 91.986,
    "h": 92.19,
    "l": 91.965,
    "c": 92.167,
    "v": 4549
  },
  {
    "dt": "2023.01.26 10:00",
    "o": 92.166,
    "h": 92.419,
    "l": 92.162,
    "c": 92.267,
    "v": 4644
  },
  {
    "dt": "2023.01.26 11:00",
    "o": 92.268,
    "h": 92.39,
    "l": 92.136,
    "c": 92.305,
    "v": 4562
  },
  {
    "dt": "2023.01.26 12:00",
    "o": 92.305,
    "h": 92.348,
    "l": 92.263,
    "c": 92.277,
    "v": 3754
  },
  {
    "dt": "2023.01.26 13:00",
    "o": 92.277,
    "h": 92.451,
    "l": 92.271,
    "c": 92.382,
    "v": 3502
  },
  {
    "dt": "2023.01.26 14:00",
    "o": 92.382,
    "h": 92.459,
    "l": 92.29,
    "c": 92.388,
    "v": 3686
  },
  {
    "dt": "2023.01.26 15:00",
    "o": 92.382,
    "h": 92.594,
    "l": 92.214,
    "c": 92.489,
    "v": 4996
  },
  {
    "dt": "2023.01.26 16:00",
    "o": 92.497,
    "h": 92.803,
    "l": 92.463,
    "c": 92.566,
    "v": 5753
  },
  {
    "dt": "2023.01.26 17:00",
    "o": 92.573,
    "h": 92.632,
    "l": 92.386,
    "c": 92.408,
    "v": 5668
  },
  {
    "dt": "2023.01.26 18:00",
    "o": 92.406,
    "h": 92.559,
    "l": 92.33,
    "c": 92.48,
    "v": 4962
  },
  {
    "dt": "2023.01.26 19:00",
    "o": 92.483,
    "h": 92.55,
    "l": 92.408,
    "c": 92.456,
    "v": 3651
  },
  {
    "dt": "2023.01.26 20:00",
    "o": 92.457,
    "h": 92.477,
    "l": 92.386,
    "c": 92.461,
    "v": 3802
  },
  {
    "dt": "2023.01.26 21:00",
    "o": 92.462,
    "h": 92.619,
    "l": 92.458,
    "c": 92.613,
    "v": 3027
  },
  {
    "dt": "2023.01.26 22:00",
    "o": 92.611,
    "h": 92.692,
    "l": 92.587,
    "c": 92.677,
    "v": 2668
  },
  {
    "dt": "2023.01.26 23:00",
    "o": 92.677,
    "h": 92.688,
    "l": 92.629,
    "c": 92.641,
    "v": 1727
  },
  {
    "dt": "2023.01.27 00:00",
    "o": 92.505,
    "h": 92.611,
    "l": 92.505,
    "c": 92.55,
    "v": 2616
  },
  {
    "dt": "2023.01.27 01:00",
    "o": 92.553,
    "h": 92.593,
    "l": 92.28,
    "c": 92.332,
    "v": 3489
  },
  {
    "dt": "2023.01.27 02:00",
    "o": 92.333,
    "h": 92.54,
    "l": 92.251,
    "c": 92.412,
    "v": 3925
  },
  {
    "dt": "2023.01.27 03:00",
    "o": 92.404,
    "h": 92.435,
    "l": 92.284,
    "c": 92.37,
    "v": 3517
  },
  {
    "dt": "2023.01.27 04:00",
    "o": 92.372,
    "h": 92.443,
    "l": 92.328,
    "c": 92.384,
    "v": 2893
  },
  {
    "dt": "2023.01.27 05:00",
    "o": 92.381,
    "h": 92.406,
    "l": 92.29,
    "c": 92.301,
    "v": 3102
  },
  {
    "dt": "2023.01.27 06:00",
    "o": 92.299,
    "h": 92.505,
    "l": 92.297,
    "c": 92.388,
    "v": 2652
  },
  {
    "dt": "2023.01.27 07:00",
    "o": 92.386,
    "h": 92.488,
    "l": 92.337,
    "c": 92.481,
    "v": 2438
  },
  {
    "dt": "2023.01.27 08:00",
    "o": 92.481,
    "h": 92.483,
    "l": 92.338,
    "c": 92.44,
    "v": 2994
  },
  {
    "dt": "2023.01.27 09:00",
    "o": 92.438,
    "h": 92.442,
    "l": 92.275,
    "c": 92.315,
    "v": 3639
  },
  {
    "dt": "2023.01.27 10:00",
    "o": 92.311,
    "h": 92.382,
    "l": 92.149,
    "c": 92.379,
    "v": 4333
  },
  {
    "dt": "2023.01.27 11:00",
    "o": 92.381,
    "h": 92.407,
    "l": 92.241,
    "c": 92.245,
    "v": 3760
  },
  {
    "dt": "2023.01.27 12:00",
    "o": 92.243,
    "h": 92.33,
    "l": 92.2,
    "c": 92.33,
    "v": 3636
  },
  {
    "dt": "2023.01.27 13:00",
    "o": 92.329,
    "h": 92.346,
    "l": 92.261,
    "c": 92.312,
    "v": 3486
  },
  {
    "dt": "2023.01.27 14:00",
    "o": 92.315,
    "h": 92.37,
    "l": 92.215,
    "c": 92.238,
    "v": 3664
  },
  {
    "dt": "2023.01.27 15:00",
    "o": 92.233,
    "h": 92.362,
    "l": 92.155,
    "c": 92.215,
    "v": 4773
  },
  {
    "dt": "2023.01.27 16:00",
    "o": 92.218,
    "h": 92.393,
    "l": 92.182,
    "c": 92.329,
    "v": 5145
  },
  {
    "dt": "2023.01.27 17:00",
    "o": 92.316,
    "h": 92.442,
    "l": 92.053,
    "c": 92.172,
    "v": 5408
  },
  {
    "dt": "2023.01.27 18:00",
    "o": 92.177,
    "h": 92.344,
    "l": 92.119,
    "c": 92.262,
    "v": 4428
  },
  {
    "dt": "2023.01.27 19:00",
    "o": 92.257,
    "h": 92.304,
    "l": 92.209,
    "c": 92.301,
    "v": 3485
  },
  {
    "dt": "2023.01.27 20:00",
    "o": 92.301,
    "h": 92.325,
    "l": 92.205,
    "c": 92.293,
    "v": 3181
  },
  {
    "dt": "2023.01.27 21:00",
    "o": 92.294,
    "h": 92.373,
    "l": 92.267,
    "c": 92.359,
    "v": 2660
  },
  {
    "dt": "2023.01.27 22:00",
    "o": 92.363,
    "h": 92.38,
    "l": 92.288,
    "c": 92.303,
    "v": 2347
  },
  {
    "dt": "2023.01.27 23:00",
    "o": 92.307,
    "h": 92.322,
    "l": 92.217,
    "c": 92.257,
    "v": 1603
  },
  {
    "dt": "2023.01.30 00:00",
    "o": 92.012,
    "h": 92.187,
    "l": 91.993,
    "c": 92.162,
    "v": 939
  },
  {
    "dt": "2023.01.30 01:00",
    "o": 92.164,
    "h": 92.291,
    "l": 92.131,
    "c": 92.277,
    "v": 2734
  },
  {
    "dt": "2023.01.30 02:00",
    "o": 92.278,
    "h": 92.613,
    "l": 92.265,
    "c": 92.604,
    "v": 3416
  },
  {
    "dt": "2023.01.30 03:00",
    "o": 92.601,
    "h": 92.649,
    "l": 92.483,
    "c": 92.63,
    "v": 4257
  },
  {
    "dt": "2023.01.30 04:00",
    "o": 92.628,
    "h": 92.645,
    "l": 92.21,
    "c": 92.219,
    "v": 3718
  },
  {
    "dt": "2023.01.30 05:00",
    "o": 92.22,
    "h": 92.3,
    "l": 92.041,
    "c": 92.044,
    "v": 2976
  },
  {
    "dt": "2023.01.30 06:00",
    "o": 92.043,
    "h": 92.067,
    "l": 91.689,
    "c": 91.823,
    "v": 4897
  },
  {
    "dt": "2023.01.30 07:00",
    "o": 91.82,
    "h": 91.922,
    "l": 91.702,
    "c": 91.862,
    "v": 4056
  },
  {
    "dt": "2023.01.30 08:00",
    "o": 91.863,
    "h": 91.907,
    "l": 91.771,
    "c": 91.895,
    "v": 3942
  },
  {
    "dt": "2023.01.30 09:00",
    "o": 91.892,
    "h": 91.9,
    "l": 91.601,
    "c": 91.774,
    "v": 4052
  },
  {
    "dt": "2023.01.30 10:00",
    "o": 91.789,
    "h": 92.171,
    "l": 91.789,
    "c": 92.055,
    "v": 5370
  },
  {
    "dt": "2023.01.30 11:00",
    "o": 92.055,
    "h": 92.071,
    "l": 91.907,
    "c": 91.971,
    "v": 4470
  },
  {
    "dt": "2023.01.30 12:00",
    "o": 91.972,
    "h": 92.171,
    "l": 91.957,
    "c": 92.076,
    "v": 3901
  },
  {
    "dt": "2023.01.30 13:00",
    "o": 92.079,
    "h": 92.249,
    "l": 92.045,
    "c": 92.083,
    "v": 4138
  },
  {
    "dt": "2023.01.30 14:00",
    "o": 92.085,
    "h": 92.148,
    "l": 92.032,
    "c": 92.08,
    "v": 3808
  },
  {
    "dt": "2023.01.30 15:00",
    "o": 92.081,
    "h": 92.145,
    "l": 91.964,
    "c": 92.035,
    "v": 4541
  },
  {
    "dt": "2023.01.30 16:00",
    "o": 92.035,
    "h": 92.199,
    "l": 91.995,
    "c": 92.125,
    "v": 4969
  },
  {
    "dt": "2023.01.30 17:00",
    "o": 92.129,
    "h": 92.295,
    "l": 92.077,
    "c": 92.261,
    "v": 5172
  },
  {
    "dt": "2023.01.30 18:00",
    "o": 92.263,
    "h": 92.306,
    "l": 92.15,
    "c": 92.212,
    "v": 4525
  },
  {
    "dt": "2023.01.30 19:00",
    "o": 92.212,
    "h": 92.234,
    "l": 92.129,
    "c": 92.195,
    "v": 3872
  },
  {
    "dt": "2023.01.30 20:00",
    "o": 92.192,
    "h": 92.226,
    "l": 92.133,
    "c": 92.167,
    "v": 3532
  },
  {
    "dt": "2023.01.30 21:00",
    "o": 92.165,
    "h": 92.168,
    "l": 92.033,
    "c": 92.123,
    "v": 3273
  },
  {
    "dt": "2023.01.30 22:00",
    "o": 92.12,
    "h": 92.167,
    "l": 92.049,
    "c": 92.077,
    "v": 3016
  },
  {
    "dt": "2023.01.30 23:00",
    "o": 92.077,
    "h": 92.096,
    "l": 92.04,
    "c": 92.08,
    "v": 1883
  },
  {
    "dt": "2023.01.31 00:00",
    "o": 92.04,
    "h": 92.138,
    "l": 91.931,
    "c": 91.988,
    "v": 1355
  },
  {
    "dt": "2023.01.31 01:00",
    "o": 91.983,
    "h": 92.115,
    "l": 91.939,
    "c": 92.084,
    "v": 2437
  },
  {
    "dt": "2023.01.31 02:00",
    "o": 92.081,
    "h": 92.1,
    "l": 91.727,
    "c": 91.869,
    "v": 3993
  },
  {
    "dt": "2023.01.31 03:00",
    "o": 91.842,
    "h": 91.951,
    "l": 91.676,
    "c": 91.807,
    "v": 4090
  },
  {
    "dt": "2023.01.31 04:00",
    "o": 91.807,
    "h": 91.839,
    "l": 91.633,
    "c": 91.747,
    "v": 3634
  },
  {
    "dt": "2023.01.31 05:00",
    "o": 91.748,
    "h": 91.757,
    "l": 91.579,
    "c": 91.613,
    "v": 3189
  },
  {
    "dt": "2023.01.31 06:00",
    "o": 91.621,
    "h": 91.703,
    "l": 91.514,
    "c": 91.703,
    "v": 3101
  },
  {
    "dt": "2023.01.31 07:00",
    "o": 91.7,
    "h": 91.748,
    "l": 91.509,
    "c": 91.535,
    "v": 3167
  },
  {
    "dt": "2023.01.31 08:00",
    "o": 91.534,
    "h": 91.631,
    "l": 91.497,
    "c": 91.593,
    "v": 3266
  },
  {
    "dt": "2023.01.31 09:00",
    "o": 91.59,
    "h": 91.59,
    "l": 91.456,
    "c": 91.555,
    "v": 3853
  },
  {
    "dt": "2023.01.31 10:00",
    "o": 91.56,
    "h": 91.583,
    "l": 91.295,
    "c": 91.331,
    "v": 4784
  },
  {
    "dt": "2023.01.31 11:00",
    "o": 91.332,
    "h": 91.434,
    "l": 91.289,
    "c": 91.411,
    "v": 4214
  },
  {
    "dt": "2023.01.31 12:00",
    "o": 91.419,
    "h": 91.422,
    "l": 91.103,
    "c": 91.104,
    "v": 3848
  },
  {
    "dt": "2023.01.31 13:00",
    "o": 91.1,
    "h": 91.261,
    "l": 91.076,
    "c": 91.261,
    "v": 3604
  },
  {
    "dt": "2023.01.31 14:00",
    "o": 91.273,
    "h": 91.37,
    "l": 91.203,
    "c": 91.213,
    "v": 3840
  },
  {
    "dt": "2023.01.31 15:00",
    "o": 91.212,
    "h": 91.423,
    "l": 91.135,
    "c": 91.256,
    "v": 5318
  },
  {
    "dt": "2023.01.31 16:00",
    "o": 91.255,
    "h": 91.351,
    "l": 91.122,
    "c": 91.212,
    "v": 5303
  },
  {
    "dt": "2023.01.31 17:00",
    "o": 91.212,
    "h": 91.714,
    "l": 91.19,
    "c": 91.601,
    "v": 5640
  },
  {
    "dt": "2023.01.31 18:00",
    "o": 91.6,
    "h": 91.779,
    "l": 91.589,
    "c": 91.755,
    "v": 4669
  },
  {
    "dt": "2023.01.31 19:00",
    "o": 91.757,
    "h": 91.849,
    "l": 91.713,
    "c": 91.762,
    "v": 3559
  },
  {
    "dt": "2023.01.31 20:00",
    "o": 91.764,
    "h": 91.862,
    "l": 91.764,
    "c": 91.839,
    "v": 2968
  },
  {
    "dt": "2023.01.31 21:00",
    "o": 91.841,
    "h": 91.872,
    "l": 91.791,
    "c": 91.798,
    "v": 2973
  },
  {
    "dt": "2023.01.31 22:00",
    "o": 91.8,
    "h": 91.877,
    "l": 91.755,
    "c": 91.849,
    "v": 3223
  },
  {
    "dt": "2023.01.31 23:00",
    "o": 91.849,
    "h": 91.863,
    "l": 91.724,
    "c": 91.758,
    "v": 2522
  }
]