[
  {
    "dt": "2023.03.01 00:00",
    "o": 91.614,
    "h": 91.698,
    "l": 91.538,
    "c": 91.695,
    "v": 751
  },
  {
    "dt": "2023.03.01 01:00",
    "o": 91.695,
    "h": 91.76,
    "l": 91.625,
    "c": 91.753,
    "v": 2524
  },
  {
    "dt": "2023.03.01 02:00",
    "o": 91.754,
    "h": 91.77,
    "l": 91.273,
    "c": 91.349,
    "v": 3534
  },
  {
    "dt": "2023.03.01 03:00",
    "o": 91.347,
    "h": 91.769,
    "l": 91.318,
    "c": 91.763,
    "v": 4435
  },
  {
    "dt": "2023.03.01 04:00",
    "o": 91.764,
    "h": 91.898,
    "l": 91.742,
    "c": 91.879,
    "v": 3207
  },
  {
    "dt": "2023.03.01 05:00",
    "o": 91.884,
    "h": 92.015,
    "l": 91.864,
    "c": 92.015,
    "v": 2764
  },
  {
    "dt": "2023.03.01 06:00",
    "o": 92.017,
    "h": 92.074,
    "l": 91.938,
    "c": 92.04,
    "v": 2850
  },
  {
    "dt": "2023.03.01 07:00",
    "o": 92.04,
    "h": 92.186,
    "l": 92.031,
    "c": 92.052,
    "v": 3181
  },
  {
    "dt": "2023.03.01 08:00",
    "o": 92.053,
    "h": 92.208,
    "l": 92.042,
    "c": 92.179,
    "v": 3680
  },
  {
    "dt": "2023.03.01 09:00",
    "o": 92.18,
    "h": 92.193,
    "l": 91.943,
    "c": 91.979,
    "v": 4562
  },
  {
    "dt": "2023.03.01 10:00",
    "o": 91.977,
    "h": 92.055,
    "l": 91.825,
    "c": 91.988,
    "v": 5055
  },
  {
    "dt": "2023.03.01 11:00",
    "o": 91.992,
    "h": 92.045,
    "l": 91.778,
    "c": 91.857,
    "v": 4516
  },
  {
    "dt": "2023.03.01 12:00",
    "o": 91.861,
    "h": 91.869,
    "l": 91.766,
    "c": 91.806,
    "v": 4542
  },
  {
    "dt": "2023.03.01 13:00",
    "o": 91.808,
    "h": 91.814,
    "l": 91.575,
    "c": 91.664,
    "v": 4396
  },
  {
    "dt": "2023.03.01 14:00",
    "o": 91.663,
    "h": 91.837,
    "l": 91.626,
    "c": 91.786,
    "v": 4152
  },
  {
    "dt": "2023.03.01 15:00",
    "o": 91.783,
    "h": 91.86,
    "l": 91.675,
    "c": 91.69,
    "v": 4552
  },
  {
    "dt": "2023.03.01 16:00",
    "o": 91.69,
    "h": 91.944,
    "l": 91.649,
    "c": 91.879,
    "v": 4959
  },
  {
    "dt": "2023.03.01 17:00",
    "o": 91.886,
    "h": 92.077,
    "l": 91.637,
    "c": 92.049,
    "v": 5881
  },
  {
    "dt": "2023.03.01 18:00",
    "o": 92.048,
    "h": 92.05,
    "l": 91.879,
    "c": 91.908,
    "v": 4837
  },
  {
    "dt": "2023.03.01 19:00",
    "o": 91.904,
    "h": 91.925,
    "l": 91.813,
    "c": 91.902,
    "v": 3943
  },
  {
    "dt": "2023.03.01 20:00",
    "o": 91.902,
    "h": 91.947,
    "l": 91.875,
    "c": 91.9,
    "v": 2856
  },
  {
    "dt": "2023.03.01 21:00",
    "o": 91.894,
    "h": 91.966,
    "l": 91.88,
    "c": 91.93,
    "v": 2766
  },
  {
    "dt": "2023.03.01 22:00",
    "o": 91.928,
    "h": 91.987,
    "l": 91.917,
    "c": 91.971,
    "v": 2756
  },
  {
    "dt": "2023.03.01 23:00",
    "o": 91.969,
    "h": 92.077,
    "l": 91.969,
    "c": 92.041,
    "v": 1543
  },
  {
    "dt": "2023.03.02 00:00",
    "o": 92.008,
    "h": 92.009,
    "l": 91.911,
    "c": 91.928,
    "v": 567
  },
  {
    "dt": "2023.03.02 01:00",
    "o": 91.929,
    "h": 92.071,
    "l": 91.918,
    "c": 92.046,
    "v": 2362
  },
  {
    "dt": "2023.03.02 02:00",
    "o": 92.043,
    "h": 92.084,
    "l": 91.921,
    "c": 91.947,
    "v": 3507
  },
  {
    "dt": "2023.03.02 03:00",
    "o": 91.938,
    "h": 92.012,
    "l": 91.769,
    "c": 91.874,
    "v": 4559
  },
  {
    "dt": "2023.03.02 04:00",
    "o": 91.873,
    "h": 91.994,
    "l": 91.839,
    "c": 91.985,
    "v": 3869
  },
  {
    "dt": "2023.03.02 05:00",
    "o": 91.984,
    "h": 92.0,
    "l": 91.898,
    "c": 91.996,
    "v": 3375
  },
  {
    "dt": "2023.03.02 06:00",
    "o": 91.993,
    "h": 92.039,
    "l": 91.952,
    "c": 92.006,
    "v": 2936
  },
  {
    "dt": "2023.03.02 07:00",
    "o": 92.008,
    "h": 92.056,
    "l": 91.948,
    "c": 92.048,
    "v": 3310
  },
  {
    "dt": "2023.03.02 08:00",
    "o": 92.049,
    "h": 92.149,
    "l": 91.979,
    "c": 92.126,
    "v": 3447
  },
  {
    "dt": "2023.03.02 09:00",
    "o": 92.127,
    "h": 92.143,
    "l": 92.023,
    "c": 92.051,
    "v": 4198
  },
  {
    "dt": "2023.03.02 10:00",
    "o": 92.051,
    "h": 92.082,
    "l": 91.876,
    "c": 91.902,
    "v": 4993
  },
  {
    "dt": "2023.03.02 11:00",
    "o": 91.898,
    "h": 91.964,
    "l": 91.851,
    "c": 91.916,
    "v": 4634
  },
  {
    "dt": "2023.03.02 12:00",
    "o": 91.916,
    "h": 91.93,
    "l": 91.793,
    "c": 91.894,
    "v": 4566
  },
  {
    "dt": "2023.03.02 13:00",
    "o": 91.895,
    "h": 92.023,
    "l": 91.895,
    "c": 91.981,
    "v": 3999
  },
  {
    "dt": "2023.03.02 14:00",
    "o": 91.979,
    "h": 92.024,
    "l": 91.872,
    "c": 91.936,
    "v": 4141
  },
  {
    "dt": "2023.03.02 15:00",
    "o": 91.933,
    "h": 92.024,
    "l": 91.878,
    "c": 91.938,
    "v": 4717
  },
  {
    "dt": "2023.03.02 16:00",
    "o": 91.936,
    "h": 92.01,
    "l": 91.869,
    "c": 91.938,
    "v": 5119
  },
  {
    "dt": "2023.03.02 17:00",
    "o": 91.938,
    "h": 92.062,
    "l": 91.889,
    "c": 91.953,
    "v": 4998
  },
  {
    "dt": "2023.03.02 18:00",
    "o": 91.957,
    "h": 91.982,
    "l": 91.868,
    "c": 91.929,
    "v": 4138
  },
  {
    "dt": "2023.03.02 19:00",
    "o": 91.93,
    "h": 91.937,
    "l": 91.868,
    "c": 91.91,
    "v": 3150
  },
  {
    "dt": "2023.03.02 20:00",
    "o": 91.911,
    "h": 91.97,
    "l": 91.842,
    "c": 91.923,
    "v": 3236
  },
  {
    "dt": "2023.03.02 21:00",
    "o": 91.927,
    "h": 92.041,
    "l": 91.924,
    "c": 91.981,
    "v": 3562
  },
  {
    "dt": "2023.03.02 22:00",
    "o": 91.98,
    "h": 92.057,
    "l": 91.974,
    "c": 92.002,
    "v": 2829
  },
  {
    "dt": "2023.03.02 23:00",
    "o": 92.002,
    "h": 92.044,
    "l": 91.988,
    "c": 92.023,
    "v": 1674
  },
  {
    "dt": "2023.03.03 00:00",
    "o": 92.036,
    "h": 92.037,
    "l": 91.895,
    "c": 91.978,
    "v": 806
  },
  {
    "dt": "2023.03.03 01:00",
    "o": 91.98,
    "h": 92.057,
    "l": 91.905,
    "c": 92.027,
    "v": 2198
  },
  {
    "dt": "2023.03.03 02:00",
    "o": 92.024,
    "h": 92.156,
    "l": 91.968,
    "c": 92.139,
    "v": 2570
  },
  {
    "dt": "2023.03.03 03:00",
    "o": 92.142,
    "h": 92.199,
    "l": 92.039,
    "c": 92.139,
    "v": 4155
  },
  {
    "dt": "2023.03.03 04:00",
    "o": 92.136,
    "h": 92.192,
    "l": 92.016,
    "c": 92.116,
    "v": 3572
  },
  {
    "dt": "2023.03.03 05:00",
    "o": 92.116,
    "h": 92.155,
    "l": 92.074,
    "c": 92.113,
    "v": 2946
  },
  {
    "dt": "2023.03.03 06:00",
    "o": 92.113,
    "h": 92.174,
    "l": 92.107,
    "c": 92.172,
    "v": 2000
  },
  {
    "dt": "2023.03.03 07:00",
    "o": 92.171,
    "h": 92.237,
    "l": 92.158,
    "c": 92.161,
    "v": 2344
  },
  {
    "dt": "2023.03.03 08:00",
    "o": 92.157,
    "h": 92.2,
    "l": 92.085,
    "c": 92.172,
    "v": 3172
  },
  {
    "dt": "2023.03.03 09:00",
    "o": 92.173,
    "h": 92.191,
    "l": 92.073,
    "c": 92.073,
    "v": 3898
  },
  {
    "dt": "2023.03.03 10:00",
    "o": 92.073,
    "h": 92.205,
    "l": 92.028,
    "c": 92.181,
    "v": 4453
  },
  {
    "dt": "2023.03.03 11:00",
    "o": 92.182,
    "h": 92.195,
    "l": 91.986,
    "c": 92.002,
    "v": 4315
  },
  {
    "dt": "2023.03.03 12:00",
    "o": 92.0,
    "h": 92.099,
    "l": 91.994,
    "c": 92.067,
    "v": 3813
  },
  {
    "dt": "2023.03.03 13:00",
    "o": 92.065,
    "h": 92.09,
    "l": 91.902,
    "c": 91.925,
    "v": 3396
  },
  {
    "dt": "2023.03.03 14:00",
    "o": 91.922,
    "h": 91.953,
    "l": 91.896,
    "c": 91.948,
    "v": 3604
  },
  {
    "dt": "2023.03.03 15:00",
    "o": 91.95,
    "h": 91.958,
    "l": 91.826,
    "c": 91.847,
    "v": 4253
  },
  {
    "dt": "2023.03.03 16:00",
    "o": 91.846,
    "h": 91.906,
    "l": 91.766,
    "c": 91.824,
    "v": 4776
  },
  {
    "dt": "2023.03.03 17:00",
    "o": 91.774,
    "h": 92.022,
    "l": 91.774,
    "c": 91.909,
    "v": 5582
  },
  {
    "dt": "2023.03.03 18:00",
    "o": 91.911,
    "h": 91.997,
    "l": 91.904,
    "c": 91.962,
    "v": 4280
  },
  {
    "dt": "2023.03.03 19:00",
    "o": 91.962,
    "h": 92.016,
    "l": 91.922,
    "c": 92.001,
    "v": 3268
  },
  {
    "dt": "2023.03.03 20:00",
    "o": 92.0,
    "h": 92.004,
    "l": 91.871,
    "c": 91.878,
    "v": 2289
  },
  {
    "dt": "2023.03.03 21:00",
    "o": 91.88,
    "h": 91.991,
    "l": 91.869,
    "c": 91.954,
    "v": 2903
  },
  {
    "dt": "2023.03.03 22:00",
    "o": 91.952,
    "h": 91.986,
    "l": 91.916,
    "c": 91.953,
    "v": 2923
  },
  {
    "dt": "2023.03.03 23:00",
    "o": 91.956,
    "h": 91.966,
    "l": 91.895,
    "c": 91.895,
    "v": 1338
  },
  {
    "dt": "2023.03.06 00:00",
    "o": 91.703,
    "h": 91.899,
    "l": 91.702,
    "c": 91.784,
    "v": 1486
  },
  {
    "dt": "2023.03.06 01:00",
    "o": 91.8,
    "h": 91.88,
    "l": 91.739,
    "c": 91.852,
    "v": 3451
  },
  {
    "dt": "2023.03.06 02:00",
    "o": 91.855,
    "h": 91.892,
    "l": 91.696,
    "c": 91.696,
    "v": 3466
  },
  {
    "dt": "2023.03.06 03:00",
    "o": 91.699,
    "h": 91.709,
    "l": 91.51,
    "c": 91.69,
    "v": 3806
  },
  {
    "dt": "2023.03.06 04:00",
    "o": 91.69,
    "h": 91.83,
    "l": 91.65,
    "c": 91.82,
    "v": 3628
  },
  {
    "dt": "2023.03.06 05:00",
    "o": 91.819,
    "h": 91.822,
    "l": 91.598,
    "c": 91.65,
    "v": 3278
  },
  {
    "dt": "2023.03.06 06:00",
    "o": 91.648,
    "h": 91.683,
    "l": 91.594,
    "c": 91.621,
    "v": 2496
  },
  {
    "dt": "2023.03.06 07:00",
    "o": 91.623,
    "h": 91.726,
    "l": 91.571,
    "c": 91.721,
    "v": 2656
  },
  {
    "dt": "2023.03.06 08:00",
    "o": 91.723,
    "h": 91.727,
    "l": 91.609,
    "c": 91.621,
    "v": 2991
  },
  {
    "dt": "2023.03.06 09:00",
    "o": 91.62,
    "h": 91.678,
    "l": 91.58,
    "c": 91.649,
    "v": 3842
  },
  {
    "dt": "2023.03.06 10:00",
    "o": 91.646,
    "h": 91.719,
    "l": 91.558,
    "c": 91.599,
    "v": 4454
  },
  {
    "dt": "2023.03.06 11:00",
    "o": 91.597,
    "h": 91.643,
    "l": 91.482,
    "c": 91.627,
    "v": 3828
  },
  {
    "dt": "2023.03.06 12:00",
    "o": 91.626,
    "h": 91.642,
    "l": 91.474,
    "c": 91.52,
    "v": 3624
  },
  {
    "dt": "2023.03.06 13:00",
    "o": 91.52,
    "h": 91.52,
    "l": 91.422,
    "c": 91.49,
    "v": 3999
  },
  {
    "dt": "2023.03.06 14:00",
    "o": 91.49,
    "h": 91.522,
    "l": 91.452,
    "c": 91.49,
    "v": 3485
  },
  {
    "dt": "2023.03.06 15:00",
    "o": 91.49,
    "h": 91.542,
    "l": 91.445,
    "c": 91.485,
    "v": 4052
  },
  {
    "dt": "2023.03.06 16:00",
    "o": 91.483,
    "h": 91.569,
    "l": 91.432,
    "c": 91.569,
    "v": 4594
  },
  {
    "dt": "2023.03.06 17:00",
    "o": 91.567,
    "h": 91.569,
    "l": 91.36,
    "c": 91.522,
    "v": 4896
  },
  {
    "dt": "2023.03.06 18:00",
    "o": 91.519,
    "h": 91.577,
    "l": 91.452,
    "c": 91.569,
    "v": 3773
  },
  {
    "dt": "2023.03.06 19:00",
    "o": 91.566,
    "h": 91.625,
    "l": 91.504,
    "c": 91.54,
    "v": 2971
  },
  {
    "dt": "2023.03.06 20:00",
    "o": 91.537,
    "h": 91.543,
    "l": 91.425,
    "c": 91.451,
    "v": 3043
  },
  {
    "dt": "2023.03.06 21:00",
    "o": 91.449,
    "h": 91.464,
    "l": 91.403,
    "c": 91.434,
    "v": 2899
  },
  {
    "dt": "2023.03.06 22:00",
    "o": 91.435,
    "h": 91.487,
    "l": 91.414,
    "c": 91.473,
    "v": 2773
  },
  {
    "dt": "2023.03.06 23:00",
    "o": 91.47,
    "h": 91.505,
    "l": 91.447,
    "c": 91.473,
    "v": 1348
  },
  {
    "dt": "2023.03.07 00:00",
    "o": 91.372,
    "h": 91.484,
    "l": 91.372,
    "c": 91.461,
    "v": 362
  },
  {
    "dt": "2023.03.07 01:00",
    "o": 91.458,
    "h": 91.558,
    "l": 91.443,
    "c": 91.533,
    "v": 1563
  },
  {
    "dt": "2023.03.07 02:00",
    "o": 91.527,
    "h": 91.597,
    "l": 91.504,
    "c": 91.576,
    "v": 2741
  },
  {
    "dt": "2023.03.07 03:00",
    "o": 91.578,
    "h": 91.648,
    "l": 91.56,
    "c": 91.627,
    "v": 3310
  },
  {
    "dt": "2023.03.07 04:00",
    "o": 91.628,
    "h": 91.727,
    "l": 91.578,
    "c": 91.674,
    "v": 3164
  },
  {
    "dt": "2023.03.07 05:00",
    "o": 91.671,
    "h": 91.708,
    "l": 91.057,
    "c": 91.29,
    "v": 3535
  },
  {
    "dt": "2023.03.07 06:00",
    "o": 91.291,
    "h": 91.365,
    "l": 91.184,
    "c": 91.309,
    "v": 2430
  },
  {
    "dt": "2023.03.07 07:00",
    "o": 91.308,
    "h": 91.313,
    "l": 91.188,
    "c": 91.248,
    "v": 2204
  },
  {
    "dt": "2023.03.07 08:00",
    "o": 91.252,
    "h": 91.266,
    "l": 91.039,
    "c": 91.095,
    "v": 3092
  },
  {
    "dt": "2023.03.07 09:00",
    "o": 91.095,
    "h": 91.172,
    "l": 91.015,
    "c": 91.032,
    "v": 3907
  },
  {
    "dt": "2023.03.07 10:00",
    "o": 91.033,
    "h": 91.062,
    "l": 90.639,
    "c": 90.66,
    "v": 4529
  },
  {
    "dt": "2023.03.07 11:00",
    "o": 90.659,
    "h": 90.807,
    "l": 90.621,
    "c": 90.681,
    "v": 4297
  },
  {
    "dt": "2023.03.07 12:00",
    "o": 90.681,
    "h": 90.75,
    "l": 90.67,
    "c": 90.727,
    "v": 3689
  },
  {
    "dt": "2023.03.07 13:00",
    "o": 90.727,
    "h": 90.807,
    "l": 90.624,
    "c": 90.632,
    "v": 3494
  },
  {
    "dt": "2023.03.07 14:00",
    "o": 90.632,
    "h": 90.785,
    "l": 90.626,
    "c": 90.771,
    "v": 3591
  },
  {
    "dt": "2023.03.07 15:00",
    "o": 90.777,
    "h": 90.808,
    "l": 90.64,
    "c": 90.649,
    "v": 4125
  },
  {
    "dt": "2023.03.07 16:00",
    "o": 90.647,
    "h": 90.718,
    "l": 90.58,
    "c": 90.606,
    "v": 4572
  },
  {
    "dt": "2023.03.07 17:00",
    "o": 90.595,
    "h": 90.673,
    "l": 90.308,
    "c": 90.354,
    "v": 6196
  },
  {
    "dt": "2023.03.07 18:00",
    "o": 90.358,
    "h": 90.448,
    "l": 90.257,
    "c": 90.333,
    "v": 5125
  },
  {
    "dt": "2023.03.07 19:00",
    "o": 90.328,
    "h": 90.369,
    "l": 90.237,
    "c": 90.274,
    "v": 4627
  },
  {
    "dt": "2023.03.07 20:00",
    "o": 90.275,
    "h": 90.323,
    "l": 90.198,
    "c": 90.284,
    "v": 3972
  },
  {
    "dt": "2023.03.07 21:00",
    "o": 90.284,
    "h": 90.365,
    "l": 90.242,
    "c": 90.28,
    "v": 2907
  },
  {
    "dt": "2023.03.07 22:00",
    "o": 90.282,
    "h": 90.44,
    "l": 90.282,
    "c": 90.391,
    "v": 2710
  },
  {
    "dt": "2023.03.07 23:00",
    "o": 90.391,
    "h": 90.399,
    "l": 90.256,
    "c": 90.284,
    "v": 1760
  },
  {
    "dt": "2023.03.08 00:00",
    "o": 90.302,
    "h": 90.339,
    "l": 90.196,
    "c": 90.334,
    "v": 887
  },
  {
    "dt": "2023.03.08 01:00",
    "o": 90.324,
    "h": 90.552,
    "l": 90.316,
    "c": 90.518,
    "v": 2778
  },
  {
    "dt": "2023.03.08 02:00",
    "o": 90.517,
    "h": 90.571,
    "l": 90.396,
    "c": 90.458,
    "v": 3174
  },
  {
    "dt": "2023.03.08 03:00",
    "o": 90.457,
    "h": 90.577,
    "l": 90.419,
    "c": 90.457,
    "v": 3354
  },
  {
    "dt": "2023.03.08 04:00",
    "o": 90.467,
    "h": 90.517,
    "l": 90.37,
    "c": 90.48,
    "v": 3059
  },
  {
    "dt": "2023.03.08 05:00",
    "o": 90.479,
    "h": 90.546,
    "l": 90.472,
    "c": 90.538,
    "v": 3073
  },
  {
    "dt": "2023.03.08 06:00",
    "o": 90.537,
    "h": 90.846,
    "l": 90.536,
    "c": 90.821,
    "v": 2992
  },
  {
    "dt": "2023.03.08 07:00",
    "o": 90.823,
    "h": 90.881,
    "l": 90.746,
    "c": 90.753,
    "v": 3034
  },
  {
    "dt": "2023.03.08 08:00",
    "o": 90.751,
    "h": 90.845,
    "l": 90.733,
    "c": 90.796,
    "v": 2834
  },
  {
    "dt": "2023.03.08 09:00",
    "o": 90.795,
    "h": 90.806,
    "l": 90.695,
    "c": 90.699,
    "v": 4169
  },
  {
    "dt": "2023.03.08 10:00",
    "o": 90.701,
    "h": 90.783,
    "l": 90.66,
    "c": 90.724,
    "v": 4335
  },
  {
    "dt": "2023.03.08 11:00",
    "o": 90.729,
    "h": 90.914,
    "l": 90.725,
    "c": 90.805,
    "v": 3992
  },
  {
    "dt": "2023.03.08 12:00",
    "o": 90.807,
    "h": 90.884,
    "l": 90.735,
    "c": 90.765,
    "v": 3494
  },
  {
    "dt": "2023.03.08 13:00",
    "o": 90.768,
    "h": 90.797,
    "l": 90.541,
    "c": 90.553,
    "v": 3482
  },
  {
    "dt": "2023.03.08 14:00",
    "o": 90.554,
    "h": 90.625,
    "l": 90.512,
    "c": 90.595,
    "v": 3283
  },
  {
    "dt": "2023.03.08 15:00",
    "o": 90.596,
    "h": 90.605,
    "l": 90.408,
    "c": 90.424,
    "v": 4563
  },
  {
    "dt": "2023.03.08 16:00",
    "o": 90.424,
    "h": 90.491,
    "l": 90.257,
    "c": 90.478,
    "v": 4770
  },
  {
    "dt": "2023.03.08 17:00",
    "o": 90.481,
    "h": 90.569,
    "l": 90.404,
    "c": 90.437,
    "v": 5757
  },
  {
    "dt": "2023.03.08 18:00",
    "o": 90.439,
    "h": 90.559,
    "l": 90.418,
    "c": 90.535,
    "v": 4345
  },
  {
    "dt": "2023.03.08 19:00",
    "o": 90.536,
    "h": 90.552,
    "l": 90.398,
    "c": 90.418,
    "v": 3481
  },
  {
    "dt": "2023.03.08 20:00",
    "o": 90.423,
    "h": 90.45,
    "l": 90.302,
    "c": 90.357,
    "v": 3408
  },
  {
    "dt": "2023.03.08 21:00",
    "o": 90.354,
    "h": 90.453,
    "l": 90.354,
    "c": 90.397,
    "v": 2913
  },
  {
    "dt": "2023.03.08 22:00",
    "o": 90.401,
    "h": 90.51,
    "l": 90.352,
    "c": 90.488,
    "v": 2146
  },
  {
    "dt": "2023.03.08 23:00",
    "o": 90.488,
    "h": 90.534,
    "l": 90.456,
    "c": 90.493,
    "v": 1260
  },
  {
    "dt": "2023.03.09 00:00",
    "o": 90.468,
    "h": 90.486,
    "l": 90.398,
    "c": 90.421,
    "v": 475
  },
  {
    "dt": "2023.03.09 01:00",
    "o": 90.421,
    "h": 90.494,
    "l": 90.399,
    "c": 90.477,
    "v": 1746
  },
  {
    "dt": "2023.03.09 02:00",
    "o": 90.469,
    "h": 90.494,
    "l": 90.139,
    "c": 90.233,
    "v": 3427
  },
  {
    "dt": "2023.03.09 03:00",
    "o": 90.234,
    "h": 90.316,
    "l": 90.174,
    "c": 90.239,
    "v": 3197
  },
  {
    "dt": "2023.03.09 04:00",
    "o": 90.241,
    "h": 90.266,
    "l": 90.185,
    "c": 90.248,
    "v": 2603
  },
  {
    "dt": "2023.03.09 05:00",
    "o": 90.25,
    "h": 90.287,
    "l": 90.166,
    "c": 90.261,
    "v": 2357
  },
  {
    "dt": "2023.03.09 06:00",
    "o": 90.261,
    "h": 90.415,
    "l": 90.222,
    "c": 90.409,
    "v": 2166
  },
  {
    "dt": "2023.03.09 07:00",
    "o": 90.404,
    "h": 90.494,
    "l": 90.356,
    "c": 90.405,
    "v": 2576
  },
  {
    "dt": "2023.03.09 08:00",
    "o": 90.402,
    "h": 90.427,
    "l": 90.313,
    "c": 90.345,
    "v": 2733
  },
  {
    "dt": "2023.03.09 09:00",
    "o": 90.345,
    "h": 90.47,
    "l": 90.318,
    "c": 90.469,
    "v": 3410
  },
  {
    "dt": "2023.03.09 10:00",
    "o": 90.466,
    "h": 90.466,
    "l": 90.121,
    "c": 90.194,
    "v": 4132
  },
  {
    "dt": "2023.03.09 11:00",
    "o": 90.194,
    "h": 90.214,
    "l": 89.991,
    "c": 90.012,
    "v": 3801
  },
  {
    "dt": "2023.03.09 12:00",
    "o": 90.009,
    "h": 90.073,
    "l": 89.976,
    "c": 90.016,
    "v": 3529
  },
  {
    "dt": "2023.03.09 13:00",
    "o": 90.015,
    "h": 90.202,
    "l": 89.999,
    "c": 90.176,
    "v": 3708
  },
  {
    "dt": "2023.03.09 14:00",
    "o": 90.175,
    "h": 90.195,
    "l": 90.105,
    "c": 90.129,
    "v": 3733
  },
  {
    "dt": "2023.03.09 15:00",
    "o": 90.128,
    "h": 90.192,
    "l": 90.011,
    "c": 90.189,
    "v": 4774
  },
  {
    "dt": "2023.03.09 16:00",
    "o": 90.19,
    "h": 90.302,
    "l": 90.153,
    "c": 90.168,
    "v": 5156
  },
  {
    "dt": "2023.03.09 17:00",
    "o": 90.168,
    "h": 90.218,
    "l": 90.074,
    "c": 90.171,
    "v": 4942
  },
  {
    "dt": "2023.03.09 18:00",
    "o": 90.17,
    "h": 90.212,
    "l": 90.09,
    "c": 90.164,
    "v": 4151
  },
  {
    "dt": "2023.03.09 19:00",
    "o": 90.162,
    "h": 90.177,
    "l": 89.96,
    "c": 90.013,
    "v": 3780
  },
  {
    "dt": "2023.03.09 20:00",
    "o": 90.015,
    "h": 90.024,
    "l": 89.83,
    "c": 89.85,
    "v": 4417
  },
  {
    "dt": "2023.03.09 21:00",
    "o": 89.85,
    "h": 89.86,
    "l": 89.68,
    "c": 89.682,
    "v": 3534
  },
  {
    "dt": "2023.03.09 22:00",
    "o": 89.682,
    "h": 89.701,
    "l": 89.586,
    "c": 89.656,
    "v": 2858
  },
  {
    "dt": "2023.03.09 23:00",
    "o": 89.658,
    "h": 89.71,
    "l": 89.622,
    "c": 89.702,
    "v": 2035
  },
  {
    "dt": "2023.03.10 00:00",
    "o": 89.671,
    "h": 89.715,
    "l": 89.629,
    "c": 89.691,
    "v": 737
  },
  {
    "dt": "2023.03.10 01:00",
    "o": 89.697,
    "h": 89.871,
    "l": 89.653,
    "c": 89.841,
    "v": 3284
  },
  {
    "dt": "2023.03.10 02:00",
    "o": 89.841,
    "h": 89.892,
    "l": 89.455,
    "c": 89.504,
    "v": 4638
  },
  {
    "dt": "2023.03.10 03:00",
    "o": 89.507,
    "h": 89.602,
    "l": 89.382,
    "c": 89.481,
    "v": 4229
  },
  {
    "dt": "2023.03.10 04:00",
    "o": 89.479,
    "h": 89.985,
    "l": 89.255,
    "c": 89.893,
    "v": 5204
  },
  {
    "dt": "2023.03.10 05:00",
    "o": 89.895,
    "h": 89.899,
    "l": 89.677,
    "c": 89.798,
    "v": 4255
  },
  {
    "dt": "2023.03.10 06:00",
    "o": 89.798,
    "h": 90.127,
    "l": 89.777,
    "c": 90.108,
    "v": 4032
  },
  {
    "dt": "2023.03.10 07:00",
    "o": 90.106,
    "h": 90.134,
    "l": 90.007,
    "c": 90.007,
    "v": 4077
  },
  {
    "dt": "2023.03.10 08:00",
    "o": 90.006,
    "h": 90.128,
    "l": 89.98,
    "c": 90.054,
    "v": 3763
  },
  {
    "dt": "2023.03.10 09:00",
    "o": 90.052,
    "h": 90.085,
    "l": 89.907,
    "c": 89.99,
    "v": 5289
  },
  {
    "dt": "2023.03.10 10:00",
    "o": 89.986,
    "h": 89.986,
    "l": 89.637,
    "c": 89.842,
    "v": 5391
  },
  {
    "dt": "2023.03.10 11:00",
    "o": 89.837,
    "h": 90.128,
    "l": 89.819,
    "c": 90.076,
    "v": 4697
  },
  {
    "dt": "2023.03.10 12:00",
    "o": 90.074,
    "h": 90.24,
    "l": 90.03,
    "c": 90.185,
    "v": 4324
  },
  {
    "dt": "2023.03.10 13:00",
    "o": 90.184,
    "h": 90.242,
    "l": 90.074,
    "c": 90.117,
    "v": 3933
  },
  {
    "dt": "2023.03.10 14:00",
    "o": 90.117,
    "h": 90.129,
    "l": 90.004,
    "c": 90.093,
    "v": 4347
  },
  {
    "dt": "2023.03.10 15:00",
    "o": 90.089,
    "h": 90.184,
    "l": 89.888,
    "c": 90.055,
    "v": 5907
  },
  {
    "dt": "2023.03.10 16:00",
    "o": 90.057,
    "h": 90.092,
    "l": 89.021,
    "c": 89.247,
    "v": 5822
  },
  {
    "dt": "2023.03.10 17:00",
    "o": 89.247,
    "h": 89.321,
    "l": 88.89,
    "c": 89.035,
    "v": 6385
  },
  {
    "dt": "2023.03.10 18:00",
    "o": 89.034,
    "h": 89.524,
    "l": 89.01,
    "c": 89.246,
    "v": 5960
  },
  {
    "dt": "2023.03.10 19:00",
    "o": 89.244,
    "h": 89.302,
    "l": 89.112,
    "c": 89.128,
    "v": 5210
  },
  {
    "dt": "2023.03.10 20:00",
    "o": 89.127,
    "h": 89.175,
    "l": 88.629,
    "c": 88.677,
    "v": 4513
  },
  {
    "dt": "2023.03.10 21:00",
    "o": 88.676,
    "h": 88.776,
    "l": 88.62,
    "c": 88.732,
    "v": 5226
  },
  {
    "dt": "2023.03.10 22:00",
    "o": 88.736,
    "h": 88.792,
    "l": 88.635,
    "c": 88.681,
    "v": 4355
  },
  {
    "dt": "2023.03.10 23:00",
    "o": 88.68,
    "h": 88.924,
    "l": 88.667,
    "c": 88.866,
    "v": 2194
  },
  {
    "dt": "2023.03.13 00:00",
    "o": 88.919,
    "h": 88.923,
    "l": 88.301,
    "c": 88.301,
    "v": 567
  },
  {
    "dt": "2023.03.13 01:00",
    "o": 88.3,
    "h": 89.167,
    "l": 88.168,
    "c": 89.096,
    "v": 3490
  },
  {
    "dt": "2023.03.13 02:00",
    "o": 89.093,
    "h": 89.566,
    "l": 88.869,
    "c": 89.504,
    "v": 5399
  },
  {
    "dt": "2023.03.13 03:00",
    "o": 89.483,
    "h": 89.508,
    "l": 88.801,
    "c": 88.823,
    "v": 5391
  },
  {
    "dt": "2023.03.13 04:00",
    "o": 88.815,
    "h": 89.136,
    "l": 88.794,
    "c": 89.033,
    "v": 5212
  },
  {
    "dt": "2023.03.13 05:00",
    "o": 89.039,
    "h": 89.241,
    "l": 88.988,
    "c": 89.214,
    "v": 5519
  },
  {
    "dt": "2023.03.13 06:00",
    "o": 89.213,
    "h": 89.365,
    "l": 89.159,
    "c": 89.339,
    "v": 5083
  },
  {
    "dt": "2023.03.13 07:00",
    "o": 89.332,
    "h": 89.419,
    "l": 89.261,
    "c": 89.416,
    "v": 4075
  },
  {
    "dt": "2023.03.13 08:00",
    "o": 89.418,
    "h": 89.532,
    "l": 89.302,
    "c": 89.513,
    "v": 4047
  },
  {
    "dt": "2023.03.13 09:00",
    "o": 89.511,
    "h": 89.641,
    "l": 89.404,
    "c": 89.594,
    "v": 4653
  },
  {
    "dt": "2023.03.13 10:00",
    "o": 89.596,
    "h": 89.81,
    "l": 89.549,
    "c": 89.755,
    "v": 5297
  },
  {
    "dt": "2023.03.13 11:00",
    "o": 89.753,
    "h": 89.815,
    "l": 89.07,
    "c": 89.1,
    "v": 5730
  },
  {
    "dt": "2023.03.13 12:00",
    "o": 89.098,
    "h": 89.169,
    "l": 88.054,
    "c": 88.238,
    "v": 6223
  },
  {
    "dt": "2023.03.13 13:00",
    "o": 88.234,
    "h": 88.567,
    "l": 88.23,
    "c": 88.551,
    "v": 5978
  },
  {
    "dt": "2023.03.13 14:00",
    "o": 88.553,
    "h": 88.825,
    "l": 88.239,
    "c": 88.364,
    "v": 5809
  },
  {
    "dt": "2023.03.13 15:00",
    "o": 88.364,
    "h": 88.445,
    "l": 87.812,
    "c": 88.023,
    "v": 4437
  },
  {
    "dt": "2023.03.13 16:00",
    "o": 88.037,
    "h": 88.754,
    "l": 88.037,
    "c": 88.692,
    "v": 1924
  },
  {
    "dt": "2023.03.13 17:00",
    "o": 88.691,
    "h": 88.906,
    "l": 88.468,
    "c": 88.897,
    "v": 6211
  },
  {
    "dt": "2023.03.13 18:00",
    "o": 88.895,
    "h": 89.166,
    "l": 88.885,
    "c": 88.983,
    "v": 5828
  },
  {
    "dt": "2023.03.13 19:00",
    "o": 89.002,
    "h": 89.061,
    "l": 88.678,
    "c": 88.715,
    "v": 5816
  },
  {
    "dt": "2023.03.13 20:00",
    "o": 88.714,
    "h": 88.894,
    "l": 88.637,
    "c": 88.873,
    "v": 5335
  },
  {
    "dt": "2023.03.13 21:00",
    "o": 88.878,
    "h": 89.081,
    "l": 88.86,
    "c": 88.984,
    "v": 5352
  },
  {
    "dt": "2023.03.13 22:00",
    "o": 88.989,
    "h": 89.097,
    "l": 88.841,
    "c": 88.889,
    "v": 5235
  },
  {
    "dt": "2023.03.13 23:00",
    "o": 88.886,
    "h": 88.924,
    "l": 88.784,
    "c": 88.822,
    "v": 3208
  },
  {
    "dt": "2023.03.14 00:00",
    "o": 88.754,
    "h": 88.836,
    "l": 88.738,
    "c": 88.781,
    "v": 752
  },
  {
    "dt": "2023.03.14 01:00",
    "o": 88.766,
    "h": 88.801,
    "l": 88.687,
    "c": 88.756,
    "v": 3642
  },
  {
    "dt": "2023.03.14 02:00",
    "o": 88.756,
    "h": 88.835,
    "l": 88.559,
    "c": 88.559,
    "v": 2925
  },
  {
    "dt": "2023.03.14 03:00",
    "o": 88.565,
    "h": 88.705,
    "l": 88.536,
    "c": 88.597,
    "v": 4488
  },
  {
    "dt": "2023.03.14 04:00",
    "o": 88.603,
    "h": 88.991,
    "l": 88.601,
    "c": 88.874,
    "v": 4889
  },
  {
    "dt": "2023.03.14 05:00",
    "o": 88.874,
    "h": 88.906,
    "l": 88.653,
    "c": 88.68,
    "v": 4373
  },
  {
    "dt": "2023.03.14 06:00",
    "o": 88.679,
    "h": 88.906,
    "l": 88.679,
    "c": 88.868,
    "v": 4114
  },
  {
    "dt": "2023.03.14 07:00",
    "o": 88.866,
    "h": 88.989,
    "l": 88.818,
    "c": 88.979,
    "v": 3751
  },
  {
    "dt": "2023.03.14 08:00",
    "o": 88.99,
    "h": 89.11,
    "l": 88.938,
    "c": 89.043,
    "v": 3646
  },
  {
    "dt": "2023.03.14 09:00",
    "o": 89.042,
    "h": 89.107,
    "l": 88.69,
    "c": 88.98,
    "v": 5061
  },
  {
    "dt": "2023.03.14 10:00",
    "o": 88.979,
    "h": 89.074,
    "l": 88.888,
    "c": 89.062,
    "v": 5491
  },
  {
    "dt": "2023.03.14 11:00",
    "o": 89.063,
    "h": 89.459,
    "l": 89.031,
    "c": 89.311,
    "v": 5647
  },
  {
    "dt": "2023.03.14 12:00",
    "o": 89.307,
    "h": 89.319,
    "l": 89.082,
    "c": 89.193,
    "v": 5241
  },
  {
    "dt": "2023.03.14 13:00",
    "o": 89.194,
    "h": 89.257,
    "l": 89.076,
    "c": 89.125,
    "v": 4428
  },
  {
    "dt": "2023.03.14 14:00",
    "o": 89.125,
    "h": 89.46,
    "l": 89.116,
    "c": 89.417,
    "v": 4476
  },
  {
    "dt": "2023.03.14 15:00",
    "o": 89.418,
    "h": 89.713,
    "l": 89.187,
    "c": 89.635,
    "v": 5838
  },
  {
    "dt": "2023.03.14 16:00",
    "o": 89.632,
    "h": 90.088,
    "l": 89.62,
    "c": 90.017,
    "v": 5929
  },
  {
    "dt": "2023.03.14 17:00",
    "o": 90.021,
    "h": 90.041,
    "l": 89.714,
    "c": 89.725,
    "v": 5433
  },
  {
    "dt": "2023.03.14 18:00",
    "o": 89.722,
    "h": 89.783,
    "l": 89.451,
    "c": 89.477,
    "v": 4824
  },
  {
    "dt": "2023.03.14 19:00",
    "o": 89.479,
    "h": 89.746,
    "l": 89.476,
    "c": 89.613,
    "v": 4688
  },
  {
    "dt": "2023.03.14 20:00",
    "o": 89.613,
    "h": 89.67,
    "l": 89.367,
    "c": 89.655,
    "v": 5110
  },
  {
    "dt": "2023.03.14 21:00",
    "o": 89.655,
    "h": 89.739,
    "l": 89.549,
    "c": 89.686,
    "v": 4747
  },
  {
    "dt": "2023.03.14 22:00",
    "o": 89.689,
    "h": 89.715,
    "l": 89.502,
    "c": 89.683,
    "v": 4434
  },
  {
    "dt": "2023.03.14 23:00",
    "o": 89.684,
    "h": 89.687,
    "l": 89.613,
    "c": 89.669,
    "v": 1812
  },
  {
    "dt": "2023.03.15 00:00",
    "o": 89.61,
    "h": 89.739,
    "l": 89.525,
    "c": 89.656,
    "v": 621
  },
  {
    "dt": "2023.03.15 01:00",
    "o": 89.66,
    "h": 89.804,
    "l": 89.612,
    "c": 89.757,
    "v": 3842
  },
  {
    "dt": "2023.03.15 02:00",
    "o": 89.756,
    "h": 89.942,
    "l": 89.752,
    "c": 89.887,
    "v": 2332
  },
  {
    "dt": "2023.03.15 03:00",
    "o": 89.885,
    "h": 89.956,
    "l": 89.739,
    "c": 89.739,
    "v": 4021
  },
  {
    "dt": "2023.03.15 04:00",
    "o": 89.737,
    "h": 89.818,
    "l": 89.656,
    "c": 89.776,
    "v": 3800
  },
  {
    "dt": "2023.03.15 05:00",
    "o": 89.775,
    "h": 89.993,
    "l": 89.716,
    "c": 89.956,
    "v": 4060
  },
  {
    "dt": "2023.03.15 06:00",
    "o": 89.959,
    "h": 89.962,
    "l": 89.835,
    "c": 89.893,
    "v": 3154
  },
  {
    "dt": "2023.03.15 07:00",
    "o": 89.892,
    "h": 90.033,
    "l": 89.877,
    "c": 90.022,
    "v": 2924
  },
  {
    "dt": "2023.03.15 08:00",
    "o": 90.022,
    "h": 90.036,
    "l": 89.888,
    "c": 89.948,
    "v": 3287
  },
  {
    "dt": "2023.03.15 09:00",
    "o": 89.949,
    "h": 90.126,
    "l": 89.912,
    "c": 90.042,
    "v": 3827
  },
  {
    "dt": "2023.03.15 10:00",
    "o": 90.044,
    "h": 90.184,
    "l": 90.006,
    "c": 90.045,
    "v": 4910
  },
  {
    "dt": "2023.03.15 11:00",
    "o": 90.044,
    "h": 90.134,
    "l": 89.849,
    "c": 89.869,
    "v": 4994
  },
  {
    "dt": "2023.03.15 12:00",
    "o": 89.868,
    "h": 89.877,
    "l": 89.184,
    "c": 89.268,
    "v": 5670
  },
  {
    "dt": "2023.03.15 13:00",
    "o": 89.26,
    "h": 89.281,
    "l": 88.534,
    "c": 88.693,
    "v": 6186
  },
  {
    "dt": "2023.03.15 14:00",
    "o": 88.693,
    "h": 88.887,
    "l": 88.521,
    "c": 88.656,
    "v": 6051
  },
  {
    "dt": "2023.03.15 15:00",
    "o": 88.653,
    "h": 88.671,
    "l": 88.017,
    "c": 88.079,
    "v": 6161
  },
  {
    "dt": "2023.03.15 16:00",
    "o": 88.079,
    "h": 88.544,
    "l": 87.784,
    "c": 87.906,
    "v": 6410
  },
  {
    "dt": "2023.03.15 17:00",
    "o": 87.91,
    "h": 88.379,
    "l": 87.847,
    "c": 87.928,
    "v": 5954
  },
  {
    "dt": "2023.03.15 18:00",
    "o": 87.928,
    "h": 88.055,
    "l": 87.76,
    "c": 87.785,
    "v": 5787
  },
  {
    "dt": "2023.03.15 19:00",
    "o": 87.785,
    "h": 87.807,
    "l": 87.341,
    "c": 87.505,
    "v": 5392
  },
  {
    "dt": "2023.03.15 20:00",
    "o": 87.508,
    "h": 87.923,
    "l": 87.483,
    "c": 87.881,
    "v": 5468
  },
  {
    "dt": "2023.03.15 21:00",
    "o": 87.88,
    "h": 88.559,
    "l": 87.759,
    "c": 88.386,
    "v": 5636
  },
  {
    "dt": "2023.03.15 22:00",
    "o": 88.387,
    "h": 88.463,
    "l": 88.08,
    "c": 88.165,
    "v": 5764
  },
  {
    "dt": "2023.03.15 23:00",
    "o": 88.161,
    "h": 88.332,
    "l": 88.134,
    "c": 88.301,
    "v": 2849
  },
  {
    "dt": "2023.03.16 00:00",
    "o": 88.191,
    "h": 88.275,
    "l": 88.136,
    "c": 88.143,
    "v": 368
  },
  {
    "dt": "2023.03.16 01:00",
    "o": 88.149,
    "h": 88.243,
    "l": 88.081,
    "c": 88.196,
    "v": 2873
  },
  {
    "dt": "2023.03.16 02:00",
    "o": 88.197,
    "h": 88.248,
    "l": 87.869,
    "c": 87.937,
    "v": 3051
  },
  {
    "dt": "2023.03.16 03:00",
    "o": 87.94,
    "h": 88.503,
    "l": 87.815,
    "c": 88.485,
    "v": 5369
  },
  {
    "dt": "2023.03.16 04:00",
    "o": 88.483,
    "h": 88.64,
    "l": 88.218,
    "c": 88.241,
    "v": 5291
  },
  {
    "dt": "2023.03.16 05:00",
    "o": 88.24,
    "h": 88.263,
    "l": 87.998,
    "c": 88.001,
    "v": 4587
  },
  {
    "dt": "2023.03.16 06:00",
    "o": 88.003,
    "h": 88.042,
    "l": 87.892,
    "c": 87.979,
    "v": 3827
  },
  {
    "dt": "2023.03.16 07:00",
    "o": 87.979,
    "h": 88.114,
    "l": 87.864,
    "c": 88.113,
    "v": 3673
  },
  {
    "dt": "2023.03.16 08:00",
    "o": 88.112,
    "h": 88.372,
    "l": 88.039,
    "c": 88.125,
    "v": 3842
  },
  {
    "dt": "2023.03.16 09:00",
    "o": 88.123,
    "h": 88.281,
    "l": 88.062,
    "c": 88.247,
    "v": 3773
  },
  {
    "dt": "2023.03.16 10:00",
    "o": 88.243,
    "h": 88.631,
    "l": 88.186,
    "c": 88.62,
    "v": 5185
  },
  {
    "dt": "2023.03.16 11:00",
    "o": 88.621,
    "h": 88.709,
    "l": 88.151,
    "c": 88.41,
    "v": 5892
  },
  {
    "dt": "2023.03.16 12:00",
    "o": 88.4,
    "h": 88.412,
    "l": 88.193,
    "c": 88.273,
    "v": 5039
  },
  {
    "dt": "2023.03.16 13:00",
    "o": 88.271,
    "h": 88.362,
    "l": 88.201,
    "c": 88.309,
    "v": 4273
  },
  {
    "dt": "2023.03.16 14:00",
    "o": 88.308,
    "h": 88.308,
    "l": 88.106,
    "c": 88.155,
    "v": 4374
  },
  {
    "dt": "2023.03.16 15:00",
    "o": 88.154,
    "h": 88.179,
    "l": 87.805,
    "c": 87.918,
    "v": 5561
  },
  {
    "dt": "2023.03.16 16:00",
    "o": 87.918,
    "h": 88.063,
    "l": 87.386,
    "c": 87.991,
    "v": 6347
  },
  {
    "dt": "2023.03.16 17:00",
    "o": 87.992,
    "h": 88.519,
    "l": 87.631,
    "c": 88.337,
    "v": 6292
  },
  {
    "dt": "2023.03.16 18:00",
    "o": 88.346,
    "h": 88.626,
    "l": 88.186,
    "c": 88.458,
    "v": 6087
  },
  {
    "dt": "2023.03.16 19:00",
    "o": 88.462,
    "h": 88.777,
    "l": 88.231,
    "c": 88.769,
    "v": 5412
  },
  {
    "dt": "2023.03.16 20:00",
    "o": 88.763,
    "h": 88.924,
    "l": 88.715,
    "c": 88.777,
    "v": 5185
  },
  {
    "dt": "2023.03.16 21:00",
    "o": 88.776,
    "h": 88.809,
    "l": 88.644,
    "c": 88.762,
    "v": 4350
  },
  {
    "dt": "2023.03.16 22:00",
    "o": 88.76,
    "h": 88.882,
    "l": 88.75,
    "c": 88.851,
    "v": 4212
  },
  {
    "dt": "2023.03.16 23:00",
    "o": 88.852,
    "h": 89.074,
    "l": 88.84,
    "c": 89.014,
    "v": 2541
  },
  {
    "dt": "2023.03.17 00:00",
    "o": 88.953,
    "h": 89.002,
    "l": 88.785,
    "c": 88.874,
    "v": 454
  },
  {
    "dt": "2023.03.17 01:00",
    "o": 88.865,
    "h": 88.926,
    "l": 88.811,
    "c": 88.836,
    "v": 2313
  },
  {
    "dt": "2023.03.17 02:00",
    "o": 88.833,
    "h": 88.911,
    "l": 88.785,
    "c": 88.857,
    "v": 2699
  },
  {
    "dt": "2023.03.17 03:00",
    "o": 88.854,
    "h": 88.996,
    "l": 88.781,
    "c": 88.864,
    "v": 3666
  },
  {
    "dt": "2023.03.17 04:00",
    "o": 88.862,
    "h": 89.131,
    "l": 88.834,
    "c": 89.085,
    "v": 4056
  },
  {
    "dt": "2023.03.17 05:00",
    "o": 89.086,
    "h": 89.242,
    "l": 89.082,
    "c": 89.219,
    "v": 3183
  },
  {
    "dt": "2023.03.17 06:00",
    "o": 89.221,
    "h": 89.328,
    "l": 89.147,
    "c": 89.32,
    "v": 3617
  },
  {
    "dt": "2023.03.17 07:00",
    "o": 89.322,
    "h": 89.436,
    "l": 89.298,
    "c": 89.34,
    "v": 3087
  },
  {
    "dt": "2023.03.17 08:00",
    "o": 89.342,
    "h": 89.38,
    "l": 89.141,
    "c": 89.243,
    "v": 3199
  },
  {
    "dt": "2023.03.17 09:00",
    "o": 89.244,
    "h": 89.257,
    "l": 89.106,
    "c": 89.195,
    "v": 3309
  },
  {
    "dt": "2023.03.17 10:00",
    "o": 89.194,
    "h": 89.379,
    "l": 89.15,
    "c": 89.26,
    "v": 4855
  },
  {
    "dt": "2023.03.17 11:00",
    "o": 89.236,
    "h": 89.491,
    "l": 89.223,
    "c": 89.277,
    "v": 5247
  },
  {
    "dt": "2023.03.17 12:00",
    "o": 89.279,
    "h": 89.413,
    "l": 89.132,
    "c": 89.237,
    "v": 4388
  },
  {
    "dt": "2023.03.17 13:00",
    "o": 89.237,
    "h": 89.308,
    "l": 89.071,
    "c": 89.104,
    "v": 4136
  },
  {
    "dt": "2023.03.17 14:00",
    "o": 89.107,
    "h": 89.149,
    "l": 88.636,
    "c": 88.782,
    "v": 4871
  },
  {
    "dt": "2023.03.17 15:00",
    "o": 88.781,
    "h": 88.861,
    "l": 88.296,
    "c": 88.486,
    "v": 5314
  },
  {
    "dt": "2023.03.17 16:00",
    "o": 88.487,
    "h": 88.674,
    "l": 88.391,
    "c": 88.511,
    "v": 5610
  },
  {
    "dt": "2023.03.17 17:00",
    "o": 88.456,
    "h": 88.717,
    "l": 88.114,
    "c": 88.327,
    "v": 6112
  },
  {
    "dt": "2023.03.17 18:00",
    "o": 88.32,
    "h": 88.431,
    "l": 88.073,
    "c": 88.218,
    "v": 5487
  },
  {
    "dt": "2023.03.17 19:00",
    "o": 88.215,
    "h": 88.612,
    "l": 88.208,
    "c": 88.503,
    "v": 4768
  },
  {
    "dt": "2023.03.17 20:00",
    "o": 88.505,
    "h": 88.624,
    "l": 88.468,
    "c": 88.599,
    "v": 4173
  },
  {
    "dt": "2023.03.17 21:00",
    "o": 88.604,
    "h": 88.63,
    "l": 88.237,
    "c": 88.363,
    "v": 4471
  },
  {
    "dt": "2023.03.17 22:00",
    "o": 88.368,
    "h": 88.453,
    "l": 88.296,
    "c": 88.37,
    "v": 4195
  },
  {
    "dt": "2023.03.17 23:00",
    "o": 88.37,
    "h": 88.413,
    "l": 88.251,
    "c": 88.326,
    "v": 2673
  },
  {
    "dt": "2023.03.20 00:00",
    "o": 88.392,
    "h": 88.536,
    "l": 88.27,
    "c": 88.536,
    "v": 136
  },
  {
    "dt": "2023.03.20 01:00",
    "o": 88.447,
    "h": 88.779,
    "l": 88.37,
    "c": 88.634,
    "v": 3894
  },
  {
    "dt": "2023.03.20 02:00",
    "o": 88.635,
    "h": 88.845,
    "l": 88.583,
    "c": 88.799,
    "v": 3248
  },
  {
    "dt": "2023.03.20 03:00",
    "o": 88.799,
    "h": 89.227,
    "l": 88.769,
    "c": 89.167,
    "v": 4216
  },
  {
    "dt": "2023.03.20 04:00",
    "o": 89.161,
    "h": 89.173,
    "l": 88.569,
    "c": 88.664,
    "v": 4487
  },
  {
    "dt": "2023.03.20 05:00",
    "o": 88.665,
    "h": 88.775,
    "l": 88.508,
    "c": 88.65,
    "v": 3587
  },
  {
    "dt": "2023.03.20 06:00",
    "o": 88.649,
    "h": 88.649,
    "l": 88.25,
    "c": 88.358,
    "v": 4072
  },
  {
    "dt": "2023.03.20 07:00",
    "o": 88.357,
    "h": 88.405,
    "l": 88.014,
    "c": 88.089,
    "v": 3389
  },
  {
    "dt": "2023.03.20 08:00",
    "o": 88.086,
    "h": 88.253,
    "l": 88.032,
    "c": 88.189,
    "v": 3471
  },
  {
    "dt": "2023.03.20 09:00",
    "o": 88.189,
    "h": 88.191,
    "l": 87.476,
    "c": 87.535,
    "v": 5153
  },
  {
    "dt": "2023.03.20 10:00",
    "o": 87.533,
    "h": 87.715,
    "l": 87.322,
    "c": 87.67,
    "v": 5902
  },
  {
    "dt": "2023.03.20 11:00",
    "o": 87.685,
    "h": 87.864,
    "l": 87.122,
    "c": 87.505,
    "v": 5990
  },
  {
    "dt": "2023.03.20 12:00",
    "o": 87.513,
    "h": 87.63,
    "l": 87.225,
    "c": 87.599,
    "v": 5668
  },
  {
    "dt": "2023.03.20 13:00",
    "o": 87.6,
    "h": 87.967,
    "l": 87.511,
    "c": 87.903,
    "v": 5043
  },
  {
    "dt": "2023.03.20 14:00",
    "o": 87.901,
    "h": 87.919,
    "l": 87.579,
    "c": 87.732,
    "v": 4584
  },
  {
    "dt": "2023.03.20 15:00",
    "o": 87.732,
    "h": 88.233,
    "l": 87.647,
    "c": 88.118,
    "v": 5133
  },
  {
    "dt": "2023.03.20 16:00",
    "o": 88.117,
    "h": 88.46,
    "l": 87.924,
    "c": 88.41,
    "v": 5829
  },
  {
    "dt": "2023.03.20 17:00",
    "o": 88.412,
    "h": 88.531,
    "l": 88.285,
    "c": 88.516,
    "v": 5441
  },
  {
    "dt": "2023.03.20 18:00",
    "o": 88.515,
    "h": 88.575,
    "l": 88.262,
    "c": 88.293,
    "v": 5382
  },
  {
    "dt": "2023.03.20 19:00",
    "o": 88.294,
    "h": 88.438,
    "l": 88.042,
    "c": 88.42,
    "v": 5155
  },
  {
    "dt": "2023.03.20 20:00",
    "o": 88.42,
    "h": 88.561,
    "l": 88.352,
    "c": 88.393,
    "v": 4453
  },
  {
    "dt": "2023.03.20 21:00",
    "o": 88.394,
    "h": 88.412,
    "l": 88.148,
    "c": 88.17,
    "v": 4207
  },
  {
    "dt": "2023.03.20 22:00",
    "o": 88.175,
    "h": 88.334,
    "l": 88.17,
    "c": 88.287,
    "v": 4005
  },
  {
    "dt": "2023.03.20 23:00",
    "o": 88.286,
    "h": 88.319,
    "l": 88.197,
    "c": 88.199,
    "v": 2709
  },
  {
    "dt": "2023.03.21 00:00",
    "o": 88.21,
    "h": 88.21,
    "l": 88.104,
    "c": 88.172,
    "v": 346
  },
  {
    "dt": "2023.03.21 01:00",
    "o": 88.161,
    "h": 88.309,
    "l": 88.161,
    "c": 88.302,
    "v": 1878
  },
  {
    "dt": "2023.03.21 02:00",
    "o": 88.303,
    "h": 88.335,
    "l": 88.115,
    "c": 88.245,
    "v": 1926
  },
  {
    "dt": "2023.03.21 03:00",
    "o": 88.239,
    "h": 88.469,
    "l": 87.881,
    "c": 87.893,
    "v": 3788
  },
  {
    "dt": "2023.03.21 04:00",
    "o": 87.894,
    "h": 87.936,
    "l": 87.7,
    "c": 87.907,
    "v": 3720
  },
  {
    "dt": "2023.03.21 05:00",
    "o": 87.907,
    "h": 88.003,
    "l": 87.832,
    "c": 87.892,
    "v": 2361
  },
  {
    "dt": "2023.03.21 06:00",
    "o": 87.892,
    "h": 87.915,
    "l": 87.766,
    "c": 87.844,
    "v": 1917
  },
  {
    "dt": "2023.03.21 07:00",
    "o": 87.843,
    "h": 87.894,
    "l": 87.753,
    "c": 87.809,
    "v": 2390
  },
  {
    "dt": "2023.03.21 08:00",
    "o": 87.812,
    "h": 87.869,
    "l": 87.73,
    "c": 87.806,
    "v": 2033
  },
  {
    "dt": "2023.03.21 09:00",
    "o": 87.805,
    "h": 88.028,
    "l": 87.762,
    "c": 88.012,
    "v": 3056
  },
  {
    "dt": "2023.03.21 10:00",
    "o": 88.01,
    "h": 88.203,
    "l": 87.966,
    "c": 88.173,
    "v": 4386
  },
  {
    "dt": "2023.03.21 11:00",
    "o": 88.172,
    "h": 88.454,
    "l": 88.14,
    "c": 88.229,
    "v": 5375
  },
  {
    "dt": "2023.03.21 12:00",
    "o": 88.226,
    "h": 88.363,
    "l": 88.198,
    "c": 88.342,
    "v": 4697
  },
  {
    "dt": "2023.03.21 13:00",
    "o": 88.337,
    "h": 88.476,
    "l": 88.267,
    "c": 88.323,
    "v": 4752
  },
  {
    "dt": "2023.03.21 14:00",
    "o": 88.323,
    "h": 88.418,
    "l": 88.292,
    "c": 88.38,
    "v": 4575
  },
  {
    "dt": "2023.03.21 15:00",
    "o": 88.378,
    "h": 88.497,
    "l": 88.267,
    "c": 88.376,
    "v": 4670
  },
  {
    "dt": "2023.03.21 16:00",
    "o": 88.37,
    "h": 88.411,
    "l": 88.245,
    "c": 88.319,
    "v": 5087
  },
  {
    "dt": "2023.03.21 17:00",
    "o": 88.322,
    "h": 88.356,
    "l": 87.703,
    "c": 87.774,
    "v": 5710
  },
  {
    "dt": "2023.03.21 18:00",
    "o": 87.773,
    "h": 88.058,
    "l": 87.737,
    "c": 87.964,
    "v": 5048
  },
  {
    "dt": "2023.03.21 19:00",
    "o": 87.961,
    "h": 88.143,
    "l": 87.935,
    "c": 88.116,
    "v": 4133
  },
  {
    "dt": "2023.03.21 20:00",
    "o": 88.115,
    "h": 88.277,
    "l": 88.092,
    "c": 88.178,
    "v": 4061
  },
  {
    "dt": "2023.03.21 21:00",
    "o": 88.178,
    "h": 88.342,
    "l": 88.13,
    "c": 88.326,
    "v": 2982
  },
  {
    "dt": "2023.03.21 22:00",
    "o": 88.319,
    "h": 88.403,
    "l": 88.268,
    "c": 88.324,
    "v": 2628
  },
  {
    "dt": "2023.03.21 23:00",
    "o": 88.324,
    "h": 88.408,
    "l": 88.322,
    "c": 88.342,
    "v": 1949
  },
  {
    "dt": "2023.03.22 00:00",
    "o": 88.265,
    "h": 88.356,
    "l": 88.236,
    "c": 88.332,
    "v": 1404
  },
  {
    "dt": "2023.03.22 01:00",
    "o": 88.328,
    "h": 88.362,
    "l": 88.268,
    "c": 88.294,
    "v": 1519
  },
  {
    "dt": "2023.03.22 02:00",
    "o": 88.294,
    "h": 88.414,
    "l": 88.226,
    "c": 88.411,
    "v": 1522
  },
  {
    "dt": "2023.03.22 03:00",
    "o": 88.411,
    "h": 88.473,
    "l": 88.292,
    "c": 88.461,
    "v": 3197
  },
  {
    "dt": "2023.03.22 04:00",
    "o": 88.462,
    "h": 88.781,
    "l": 88.389,
    "c": 88.634,
    "v": 4049
  },
  {
    "dt": "2023.03.22 05:00",
    "o": 88.634,
    "h": 88.672,
    "l": 88.385,
    "c": 88.427,
    "v": 3339
  },
  {
    "dt": "2023.03.22 06:00",
    "o": 88.426,
    "h": 88.593,
    "l": 88.386,
    "c": 88.569,
    "v": 2748
  },
  {
    "dt": "2023.03.22 07:00",
    "o": 88.575,
    "h": 88.706,
    "l": 88.529,
    "c": 88.667,
    "v": 2639
  },
  {
    "dt": "2023.03.22 08:00",
    "o": 88.675,
    "h": 88.731,
    "l": 88.557,
    "c": 88.655,
    "v": 2307
  },
  {
    "dt": "2023.03.22 09:00",
    "o": 88.659,
    "h": 88.729,
    "l": 88.583,
    "c": 88.598,
    "v": 2699
  },
  {
    "dt": "2023.03.22 10:00",
    "o": 88.59,
    "h": 88.796,
    "l": 88.59,
    "c": 88.741,
    "v": 4156
  },
  {
    "dt": "2023.03.22 11:00",
    "o": 88.738,
    "h": 88.775,
    "l": 88.527,
    "c": 88.639,
    "v": 4203
  },
  {
    "dt": "2023.03.22 12:00",
    "o": 88.641,
    "h": 88.77,
    "l": 88.577,
    "c": 88.748,
    "v": 3534
  },
  {
    "dt": "2023.03.22 13:00",
    "o": 88.75,
    "h": 88.984,
    "l": 88.689,
    "c": 88.928,
    "v": 3688
  },
  {
    "dt": "2023.03.22 14:00",
    "o": 88.927,
    "h": 88.976,
    "l": 88.802,
    "c": 88.843,
    "v": 3237
  },
  {
    "dt": "2023.03.22 15:00",
    "o": 88.843,
    "h": 88.949,
    "l": 88.706,
    "c": 88.719,
    "v": 3649
  },
  {
    "dt": "2023.03.22 16:00",
    "o": 88.722,
    "h": 88.754,
    "l": 88.472,
    "c": 88.615,
    "v": 4011
  },
  {
    "dt": "2023.03.22 17:00",
    "o": 88.615,
    "h": 88.666,
    "l": 88.465,
    "c": 88.578,
    "v": 4155
  },
  {
    "dt": "2023.03.22 18:00",
    "o": 88.581,
    "h": 88.708,
    "l": 88.416,
    "c": 88.676,
    "v": 3833
  },
  {
    "dt": "2023.03.22 19:00",
    "o": 88.677,
    "h": 88.695,
    "l": 88.482,
    "c": 88.506,
    "v": 3422
  },
  {
    "dt": "2023.03.22 20:00",
    "o": 88.507,
    "h": 88.559,
    "l": 88.4,
    "c": 88.408,
    "v": 3255
  },
  {
    "dt": "2023.03.22 21:00",
    "o": 88.395,
    "h": 88.697,
    "l": 88.316,
    "c": 88.377,
    "v": 6561
  },
  {
    "dt": "2023.03.22 22:00",
    "o": 88.374,
    "h": 88.429,
    "l": 87.685,
    "c": 87.726,
    "v": 6199
  },
  {
    "dt": "2023.03.22 23:00",
    "o": 87.726,
    "h": 87.889,
    "l": 87.589,
    "c": 87.875,
    "v": 3512
  },
  {
    "dt": "2023.03.23 00:00",
    "o": 87.748,
    "h": 87.826,
    "l": 87.746,
    "c": 87.778,
    "v": 281
  },
  {
    "dt": "2023.03.23 01:00",
    "o": 87.743,
    "h": 88.022,
    "l": 87.691,
    "c": 87.944,
    "v": 3264
  },
  {
    "dt": "2023.03.23 02:00",
    "o": 87.941,
    "h": 87.956,
    "l": 87.79,
    "c": 87.837,
    "v": 2388
  },
  {
    "dt": "2023.03.23 03:00",
    "o": 87.835,
    "h": 87.998,
    "l": 87.781,
    "c": 87.864,
    "v": 4304
  },
  {
    "dt": "2023.03.23 04:00",
    "o": 87.867,
    "h": 87.916,
    "l": 87.76,
    "c": 87.868,
    "v": 4012
  },
  {
    "dt": "2023.03.23 05:00",
    "o": 87.867,
    "h": 87.994,
    "l": 87.806,
    "c": 87.922,
    "v": 3729
  },
  {
    "dt": "2023.03.23 06:00",
    "o": 87.922,
    "h": 87.946,
    "l": 87.77,
    "c": 87.899,
    "v": 3257
  },
  {
    "dt": "2023.03.23 07:00",
    "o": 87.901,
    "h": 88.131,
    "l": 87.882,
    "c": 88.122,
    "v": 2479
  },
  {
    "dt": "2023.03.23 08:00",
    "o": 88.122,
    "h": 88.195,
    "l": 88.02,
    "c": 88.073,
    "v": 3138
  },
  {
    "dt": "2023.03.23 09:00",
    "o": 88.073,
    "h": 88.133,
    "l": 87.922,
    "c": 88.111,
    "v": 3526
  },
  {
    "dt": "2023.03.23 10:00",
    "o": 88.113,
    "h": 88.291,
    "l": 88.107,
    "c": 88.19,
    "v": 4688
  },
  {
    "dt": "2023.03.23 11:00",
    "o": 88.179,
    "h": 88.366,
    "l": 88.147,
    "c": 88.333,
    "v": 4900
  },
  {
    "dt": "2023.03.23 12:00",
    "o": 88.333,
    "h": 88.339,
    "l": 88.15,
    "c": 88.192,
    "v": 4376
  },
  {
    "dt": "2023.03.23 13:00",
    "o": 88.189,
    "h": 88.226,
    "l": 88.099,
    "c": 88.16,
    "v": 3867
  },
  {
    "dt": "2023.03.23 14:00",
    "o": 88.16,
    "h": 88.277,
    "l": 88.148,
    "c": 88.22,
    "v": 3741
  },
  {
    "dt": "2023.03.23 15:00",
    "o": 88.215,
    "h": 88.267,
    "l": 88.008,
    "c": 88.019,
    "v": 4863
  },
  {
    "dt": "2023.03.23 16:00",
    "o": 88.012,
    "h": 88.047,
    "l": 87.877,
    "c": 88.028,
    "v": 5029
  },
  {
    "dt": "2023.03.23 17:00",
    "o": 88.033,
    "h": 88.218,
    "l": 87.96,
    "c": 88.165,
    "v": 4880
  },
  {
    "dt": "2023.03.23 18:00",
    "o": 88.165,
    "h": 88.231,
    "l": 87.991,
    "c": 88.002,
    "v": 4527
  },
  {
    "dt": "2023.03.23 19:00",
    "o": 88.002,
    "h": 88.03,
    "l": 87.778,
    "c": 87.81,
    "v": 4255
  },
  {
    "dt": "2023.03.23 20:00",
    "o": 87.812,
    "h": 87.886,
    "l": 87.686,
    "c": 87.716,
    "v": 4192
  },
  {
    "dt": "2023.03.23 21:00",
    "o": 87.717,
    "h": 87.752,
    "l": 87.145,
    "c": 87.233,
    "v": 4785
  },
  {
    "dt": "2023.03.23 22:00",
    "o": 87.232,
    "h": 87.708,
    "l": 86.916,
    "c": 87.274,
    "v": 5987
  },
  {
    "dt": "2023.03.23 23:00",
    "o": 87.267,
    "h": 87.524,
    "l": 87.235,
    "c": 87.469,
    "v": 3209
  },
  {
    "dt": "2023.03.24 00:00",
    "o": 87.382,
    "h": 87.483,
    "l": 87.37,
    "c": 87.473,
    "v": 371
  },
  {
    "dt": "2023.03.24 01:00",
    "o": 87.48,
    "h": 87.49,
    "l": 87.336,
    "c": 87.408,
    "v": 1690
  },
  {
    "dt": "2023.03.24 02:00",
    "o": 87.407,
    "h": 87.427,
    "l": 87.277,
    "c": 87.427,
    "v": 1976
  },
  {
    "dt": "2023.03.24 03:00",
    "o": 87.437,
    "h": 87.467,
    "l": 87.182,
    "c": 87.187,
    "v": 3388
  },
  {
    "dt": "2023.03.24 04:00",
    "o": 87.182,
    "h": 87.209,
    "l": 86.708,
    "c": 87.123,
    "v": 4813
  },
  {
    "dt": "2023.03.24 05:00",
    "o": 87.122,
    "h": 87.227,
    "l": 86.953,
    "c": 86.998,
    "v": 3486
  },
  {
    "dt": "2023.03.24 06:00",
    "o": 86.988,
    "h": 87.195,
    "l": 86.976,
    "c": 87.088,
    "v": 2929
  },
  {
    "dt": "2023.03.24 07:00",
    "o": 87.089,
    "h": 87.136,
    "l": 86.968,
    "c": 86.99,
    "v": 3021
  },
  {
    "dt": "2023.03.24 08:00",
    "o": 86.989,
    "h": 87.1,
    "l": 86.911,
    "c": 86.999,
    "v": 3028
  },
  {
    "dt": "2023.03.24 09:00",
    "o": 86.999,
    "h": 87.229,
    "l": 86.975,
    "c": 87.206,
    "v": 2856
  },
  {
    "dt": "2023.03.24 10:00",
    "o": 87.204,
    "h": 87.268,
    "l": 87.103,
    "c": 87.11,
    "v": 3852
  },
  {
    "dt": "2023.03.24 11:00",
    "o": 87.107,
    "h": 87.115,
    "l": 86.552,
    "c": 86.724,
    "v": 5586
  },
  {
    "dt": "2023.03.24 12:00",
    "o": 86.724,
    "h": 86.826,
    "l": 86.151,
    "c": 86.2,
    "v": 5217
  },
  {
    "dt": "2023.03.24 13:00",
    "o": 86.205,
    "h": 86.359,
    "l": 86.054,
    "c": 86.193,
    "v": 5410
  },
  {
    "dt": "2023.03.24 14:00",
    "o": 86.194,
    "h": 86.391,
    "l": 86.047,
    "c": 86.265,
    "v": 4766
  },
  {
    "dt": "2023.03.24 15:00",
    "o": 86.266,
    "h": 86.471,
    "l": 86.077,
    "c": 86.396,
    "v": 5095
  },
  {
    "dt": "2023.03.24 16:00",
    "o": 86.398,
    "h": 86.733,
    "l": 86.315,
    "c": 86.681,
    "v": 5669
  },
  {
    "dt": "2023.03.24 17:00",
    "o": 86.684,
    "h": 86.843,
    "l": 86.582,
    "c": 86.664,
    "v": 5711
  },
  {
    "dt": "2023.03.24 18:00",
    "o": 86.661,
    "h": 86.858,
    "l": 86.423,
    "c": 86.759,
    "v": 5086
  },
  {
    "dt": "2023.03.24 19:00",
    "o": 86.761,
    "h": 86.947,
    "l": 86.685,
    "c": 86.845,
    "v": 4544
  },
  {
    "dt": "2023.03.24 20:00",
    "o": 86.844,
    "h": 86.911,
    "l": 86.768,
    "c": 86.836,
    "v": 3846
  },
  {
    "dt": "2023.03.24 21:00",
    "o": 86.833,
    "h": 86.947,
    "l": 86.809,
    "c": 86.889,
    "v": 2698
  },
  {
    "dt": "2023.03.24 22:00",
    "o": 86.895,
    "h": 87.011,
    "l": 86.837,
    "c": 86.915,
    "v": 2599
  },
  {
    "dt": "2023.03.24 23:00",
    "o": 86.914,
    "h": 86.944,
    "l": 86.803,
    "c": 86.837,
    "v": 1638
  },
  {
    "dt": "2023.03.27 00:00",
    "o": 86.828,
    "h": 86.871,
    "l": 86.626,
    "c": 86.652,
    "v": 299
  },
  {
    "dt": "2023.03.27 01:00",
    "o": 86.663,
    "h": 87.086,
    "l": 86.663,
    "c": 86.99,
    "v": 2871
  },
  {
    "dt": "2023.03.27 02:00",
    "o": 86.996,
    "h": 87.133,
    "l": 86.92,
    "c": 87.065,
    "v": 2014
  },
  {
    "dt": "2023.03.27 03:00",
    "o": 87.066,
    "h": 87.07,
    "l": 86.708,
    "c": 86.865,
    "v": 3473
  },
  {
    "dt": "2023.03.27 04:00",
    "o": 86.871,
    "h": 87.055,
    "l": 86.804,
    "c": 86.958,
    "v": 3628
  },
  {
    "dt": "2023.03.27 05:00",
    "o": 86.958,
    "h": 87.012,
    "l": 86.858,
    "c": 86.915,
    "v": 2456
  },
  {
    "dt": "2023.03.27 06:00",
    "o": 86.917,
    "h": 86.995,
    "l": 86.874,
    "c": 86.928,
    "v": 2120
  },
  {
    "dt": "2023.03.27 07:00",
    "o": 86.93,
    "h": 86.982,
    "l": 86.828,
    "c": 86.909,
    "v": 2286
  },
  {
    "dt": "2023.03.27 08:00",
    "o": 86.912,
    "h": 87.12,
    "l": 86.891,
    "c": 87.057,
    "v": 2975
  },
  {
    "dt": "2023.03.27 09:00",
    "o": 87.056,
    "h": 87.5,
    "l": 87.042,
    "c": 87.463,
    "v": 3872
  },
  {
    "dt": "2023.03.27 10:00",
    "o": 87.46,
    "h": 87.516,
    "l": 86.841,
    "c": 86.928,
    "v": 4645
  },
  {
    "dt": "2023.03.27 11:00",
    "o": 86.928,
    "h": 87.22,
    "l": 86.915,
    "c": 87.13,
    "v": 4070
  },
  {
    "dt": "2023.03.27 12:00",
    "o": 87.126,
    "h": 87.375,
    "l": 87.116,
    "c": 87.324,
    "v": 3795
  },
  {
    "dt": "2023.03.27 13:00",
    "o": 87.324,
    "h": 87.458,
    "l": 87.233,
    "c": 87.241,
    "v": 3453
  },
  {
    "dt": "2023.03.27 14:00",
    "o": 87.244,
    "h": 87.493,
    "l": 87.229,
    "c": 87.406,
    "v": 3450
  },
  {
    "dt": "2023.03.27 15:00",
    "o": 87.409,
    "h": 87.49,
    "l": 87.363,
    "c": 87.381,
    "v": 3983
  },
  {
    "dt": "2023.03.27 16:00",
    "o": 87.382,
    "h": 87.519,
    "l": 87.33,
    "c": 87.455,
    "v": 4384
  },
  {
    "dt": "2023.03.27 17:00",
    "o": 87.452,
    "h": 87.527,
    "l": 87.238,
    "c": 87.318,
    "v": 4567
  },
  {
    "dt": "2023.03.27 18:00",
    "o": 87.319,
    "h": 87.378,
    "l": 87.219,
    "c": 87.332,
    "v": 3508
  },
  {
    "dt": "2023.03.27 19:00",
    "o": 87.33,
    "h": 87.466,
    "l": 87.295,
    "c": 87.416,
    "v": 2804
  },
  {
    "dt": "2023.03.27 20:00",
    "o": 87.416,
    "h": 87.488,
    "l": 87.363,
    "c": 87.458,
    "v": 2791
  },
  {
    "dt": "2023.03.27 21:00",
    "o": 87.455,
    "h": 87.53,
    "l": 87.385,
    "c": 87.461,
    "v": 2354
  },
  {
    "dt": "2023.03.27 22:00",
    "o": 87.463,
    "h": 87.498,
    "l": 87.416,
    "c": 87.483,
    "v": 2462
  },
  {
    "dt": "2023.03.27 23:00",
    "o": 87.486,
    "h": 87.502,
    "l": 87.444,
    "c": 87.477,
    "v": 1452
  },
  {
    "dt": "2023.03.28 00:00",
    "o": 87.4,
    "h": 87.466,
    "l": 87.393,
    "c": 87.448,
    "v": 548
  },
  {
    "dt": "2023.03.28 01:00",
    "o": 87.434,
    "h": 87.479,
    "l": 87.415,
    "c": 87.458,
    "v": 2010
  },
  {
    "dt": "2023.03.28 02:00",
    "o": 87.453,
    "h": 87.465,
    "l": 87.352,
    "c": 87.383,
    "v": 2197
  },
  {
    "dt": "2023.03.28 03:00",
    "o": 87.382,
    "h": 87.382,
    "l": 87.208,
    "c": 87.261,
    "v": 3883
  },
  {
    "dt": "2023.03.28 04:00",
    "o": 87.259,
    "h": 87.422,
    "l": 87.157,
    "c": 87.329,
    "v": 4032
  },
  {
    "dt": "2023.03.28 05:00",
    "o": 87.325,
    "h": 87.443,
    "l": 87.309,
    "c": 87.368,
    "v": 2649
  },
  {
    "dt": "2023.03.28 06:00",
    "o": 87.368,
    "h": 87.438,
    "l": 87.359,
    "c": 87.37,
    "v": 2638
  },
  {
    "dt": "2023.03.28 07:00",
    "o": 87.368,
    "h": 87.442,
    "l": 87.321,
    "c": 87.352,
    "v": 2608
  },
  {
    "dt": "2023.03.28 08:00",
    "o": 87.351,
    "h": 87.407,
    "l": 87.3,
    "c": 87.357,
    "v": 2761
  },
  {
    "dt": "2023.03.28 09:00",
    "o": 87.359,
    "h": 87.637,
    "l": 87.358,
    "c": 87.512,
    "v": 3418
  },
  {
    "dt": "2023.03.28 10:00",
    "o": 87.515,
    "h": 87.775,
    "l": 87.513,
    "c": 87.619,
    "v": 4225
  },
  {
    "dt": "2023.03.28 11:00",
    "o": 87.618,
    "h": 87.686,
    "l": 87.423,
    "c": 87.425,
    "v": 3645
  },
  {
    "dt": "2023.03.28 12:00",
    "o": 87.425,
    "h": 87.56,
    "l": 87.31,
    "c": 87.33,
    "v": 3038
  },
  {
    "dt": "2023.03.28 13:00",
    "o": 87.33,
    "h": 87.492,
    "l": 87.296,
    "c": 87.4,
    "v": 3008
  },
  {
    "dt": "2023.03.28 14:00",
    "o": 87.401,
    "h": 87.547,
    "l": 87.364,
    "c": 87.375,
    "v": 2896
  },
  {
    "dt": "2023.03.28 15:00",
    "o": 87.376,
    "h": 87.382,
    "l": 87.137,
    "c": 87.229,
    "v": 3997
  },
  {
    "dt": "2023.03.28 16:00",
    "o": 87.228,
    "h": 87.573,
    "l": 87.215,
    "c": 87.44,
    "v": 4351
  },
  {
    "dt": "2023.03.28 17:00",
    "o": 87.442,
    "h": 87.763,
    "l": 87.419,
    "c": 87.725,
    "v": 4314
  },
  {
    "dt": "2023.03.28 18:00",
    "o": 87.726,
    "h": 87.855,
    "l": 87.677,
    "c": 87.844,
    "v": 3792
  },
  {
    "dt": "2023.03.28 19:00",
    "o": 87.845,
    "h": 87.87,
    "l": 87.787,
    "c": 87.852,
    "v": 2503
  },
  {
    "dt": "2023.03.28 20:00",
    "o": 87.856,
    "h": 87.859,
    "l": 87.498,
    "c": 87.515,
    "v": 2526
  },
  {
    "dt": "2023.03.28 21:00",
    "o": 87.509,
    "h": 87.656,
    "l": 87.495,
    "c": 87.643,
    "v": 2030
  },
  {
    "dt": "2023.03.28 22:00",
    "o": 87.644,
    "h": 87.704,
    "l": 87.625,
    "c": 87.702,
    "v": 2038
  },
  {
    "dt": "2023.03.28 23:00",
    "o": 87.701,
    "h": 87.811,
    "l": 87.699,
    "c": 87.806,
    "v": 1269
  },
  {
    "dt": "2023.03.29 00:00",
    "o": 87.757,
    "h": 87.796,
    "l": 87.726,
    "c": 87.731,
    "v": 925
  },
  {
    "dt": "2023.03.29 01:00",
    "o": 87.736,
    "h": 87.769,
    "l": 87.682,
    "c": 87.725,
    "v": 1695
  },
  {
    "dt": "2023.03.29 02:00",
    "o": 87.726,
    "h": 87.898,
    "l": 87.723,
    "c": 87.869,
    "v": 1776
  },
  {
    "dt": "2023.03.29 03:00",
    "o": 87.871,
    "h": 88.115,
    "l": 87.761,
    "c": 87.953,
    "v": 3589
  },
  {
    "dt": "2023.03.29 04:00",
    "o": 87.952,
    "h": 88.198,
    "l": 87.938,
    "c": 88.043,
    "v": 3722
  },
  {
    "dt": "2023.03.29 05:00",
    "o": 88.041,
    "h": 88.285,
    "l": 88.034,
    "c": 88.246,
    "v": 2380
  },
  {
    "dt": "2023.03.29 06:00",
    "o": 88.249,
    "h": 88.272,
    "l": 88.151,
    "c": 88.178,
    "v": 1970
  },
  {
    "dt": "2023.03.29 07:00",
    "o": 88.179,
    "h": 88.26,
    "l": 88.085,
    "c": 88.26,
    "v": 2588
  },
  {
    "dt": "2023.03.29 08:00",
    "o": 88.264,
    "h": 88.286,
    "l": 88.1,
    "c": 88.177,
    "v": 2703
  },
  {
    "dt": "2023.03.29 09:00",
    "o": 88.177,
    "h": 88.183,
    "l": 87.982,
    "c": 88.085,
    "v": 3516
  },
  {
    "dt": "2023.03.29 10:00",
    "o": 88.083,
    "h": 88.16,
    "l": 87.985,
    "c": 88.043,
    "v": 4026
  },
  {
    "dt": "2023.03.29 11:00",
    "o": 88.048,
    "h": 88.087,
    "l": 87.9,
    "c": 87.984,
    "v": 3547
  },
  {
    "dt": "2023.03.29 12:00",
    "o": 87.983,
    "h": 88.005,
    "l": 87.779,
    "c": 87.933,
    "v": 3679
  },
  {
    "dt": "2023.03.29 13:00",
    "o": 87.929,
    "h": 88.076,
    "l": 87.883,
    "c": 88.063,
    "v": 3005
  },
  {
    "dt": "2023.03.29 14:00",
    "o": 88.063,
    "h": 88.334,
    "l": 88.036,
    "c": 88.243,
    "v": 3444
  },
  {
    "dt": "2023.03.29 15:00",
    "o": 88.243,
    "h": 88.506,
    "l": 88.217,
    "c": 88.46,
    "v": 4312
  },
  {
    "dt": "2023.03.29 16:00",
    "o": 88.458,
    "h": 88.518,
    "l": 88.34,
    "c": 88.514,
    "v": 4385
  },
  {
    "dt": "2023.03.29 17:00",
    "o": 88.517,
    "h": 88.694,
    "l": 88.438,
    "c": 88.543,
    "v": 4750
  },
  {
    "dt": "2023.03.29 18:00",
    "o": 88.543,
    "h": 88.665,
    "l": 88.495,
    "c": 88.618,
    "v": 3982
  },
  {
    "dt": "2023.03.29 19:00",
    "o": 88.618,
    "h": 88.661,
    "l": 88.551,
    "c": 88.583,
    "v": 2615
  },
  {
    "dt": "2023.03.29 20:00",
    "o": 88.583,
    "h": 88.672,
    "l": 88.56,
    "c": 88.6,
    "v": 2654
  },
  {
    "dt": "2023.03.29 21:00",
    "o": 88.601,
    "h": 88.633,
    "l": 88.528,
    "c": 88.592,
    "v": 2205
  },
  {
    "dt": "2023.03.29 22:00",
    "o": 88.592,
    "h": 88.744,
    "l": 88.525,
    "c": 88.714,
    "v": 2600
  },
  {
    "dt": "2023.03.29 23:00",
    "o": 88.717,
    "h": 88.82,
    "l": 88.71,
    "c": 88.795,
    "v": 1589
  },
  {
    "dt": "2023.03.30 00:00",
    "o": 88.676,
    "h": 88.752,
    "l": 88.614,
    "c": 88.693,
    "v": 499
  },
  {
    "dt": "2023.03.30 01:00",
    "o": 88.702,
    "h": 88.728,
    "l": 88.656,
    "c": 88.68,
    "v": 1751
  },
  {
    "dt": "2023.03.30 02:00",
    "o": 88.68,
    "h": 88.719,
    "l": 88.553,
    "c": 88.553,
    "v": 1470
  },
  {
    "dt": "2023.03.30 03:00",
    "o": 88.551,
    "h": 88.616,
    "l": 88.382,
    "c": 88.527,
    "v": 3483
  },
  {
    "dt": "2023.03.30 04:00",
    "o": 88.529,
    "h": 88.568,
    "l": 88.425,
    "c": 88.502,
    "v": 3495
  },
  {
    "dt": "2023.03.30 05:00",
    "o": 88.498,
    "h": 88.543,
    "l": 88.434,
    "c": 88.49,
    "v": 2589
  },
  {
    "dt": "2023.03.30 06:00",
    "o": 88.493,
    "h": 88.635,
    "l": 88.491,
    "c": 88.605,
    "v": 2340
  },
  {
    "dt": "2023.03.30 07:00",
    "o": 88.604,
    "h": 88.649,
    "l": 88.538,
    "c": 88.625,
    "v": 1812
  },
  {
    "dt": "2023.03.30 08:00",
    "o": 88.63,
    "h": 88.74,
    "l": 88.563,
    "c": 88.737,
    "v": 3015
  },
  {
    "dt": "2023.03.30 09:00",
    "o": 88.735,
    "h": 88.848,
    "l": 88.73,
    "c": 88.77,
    "v": 3943
  },
  {
    "dt": "2023.03.30 10:00",
    "o": 88.768,
    "h": 88.877,
    "l": 88.648,
    "c": 88.862,
    "v": 4573
  },
  {
    "dt": "2023.03.30 11:00",
    "o": 88.867,
    "h": 88.994,
    "l": 88.799,
    "c": 88.932,
    "v": 3951
  },
  {
    "dt": "2023.03.30 12:00",
    "o": 88.94,
    "h": 89.033,
    "l": 88.879,
    "c": 88.9,
    "v": 3419
  },
  {
    "dt": "2023.03.30 13:00",
    "o": 88.9,
    "h": 89.005,
    "l": 88.761,
    "c": 88.764,
    "v": 3647
  },
  {
    "dt": "2023.03.30 14:00",
    "o": 88.77,
    "h": 88.803,
    "l": 88.623,
    "c": 88.778,
    "v": 3134
  },
  {
    "dt": "2023.03.30 15:00",
    "o": 88.779,
    "h": 88.982,
    "l": 88.756,
    "c": 88.915,
    "v": 4258
  },
  {
    "dt": "2023.03.30 16:00",
    "o": 88.912,
    "h": 89.072,
    "l": 88.912,
    "c": 88.972,
    "v": 4583
  },
  {
    "dt": "2023.03.30 17:00",
    "o": 88.974,
    "h": 89.029,
    "l": 88.803,
    "c": 88.965,
    "v": 4298
  },
  {
    "dt": "2023.03.30 18:00",
    "o": 88.966,
    "h": 88.991,
    "l": 88.831,
    "c": 88.908,
    "v": 3406
  },
  {
    "dt": "2023.03.30 19:00",
    "o": 88.907,
    "h": 88.93,
    "l": 88.74,
    "c": 88.768,
    "v": 3037
  },
  {
    "dt": "2023.03.30 20:00",
    "o": 88.768,
    "h": 88.813,
    "l": 88.629,
    "c": 88.726,
    "v": 2338
  },
  {
    "dt": "2023.03.30 21:00",
    "o": 88.726,
    "h": 88.845,
    "l": 88.668,
    "c": 88.843,
    "v": 1995
  },
  {
    "dt": "2023.03.30 22:00",
    "o": 88.842,
    "h": 88.99,
    "l": 88.825,
    "c": 88.99,
    "v": 1943
  },
  {
    "dt": "2023.03.30 23:00",
    "o": 88.99,
    "h": 89.063,
    "l": 88.957,
    "c": 89.046,
    "v": 1561
  },
  {
    "dt": "2023.03.31 00:00",
    "o": 88.95,
    "h": 89.065,
    "l": 88.939,
    "c": 89.036,
    "v": 1168
  },
  {
    "dt": "2023.03.31 01:00",
    "o": 89.029,
    "h": 89.127,
    "l": 88.94,
    "c": 89.112,
    "v": 1339
  },
  {
    "dt": "2023.03.31 02:00",
    "o": 89.115,
    "h": 89.497,
    "l": 89.089,
    "c": 89.436,
    "v": 2252
  },
  {
    "dt": "2023.03.31 03:00",
    "o": 89.429,
    "h": 89.666,
    "l": 89.409,
    "c": 89.52,
    "v": 3858
  },
  {
    "dt": "2023.03.31 04:00",
    "o": 89.526,
    "h": 89.675,
    "l": 89.429,
    "c": 89.479,
    "v": 4103
  },
  {
    "dt": "2023.03.31 05:00",
    "o": 89.479,
    "h": 89.524,
    "l": 89.339,
    "c": 89.34,
    "v": 2981
  },
  {
    "dt": "2023.03.31 06:00",
    "o": 89.338,
    "h": 89.37,
    "l": 89.192,
    "c": 89.192,
    "v": 2281
  },
  {
    "dt": "2023.03.31 07:00",
    "o": 89.193,
    "h": 89.283,
    "l": 89.047,
    "c": 89.074,
    "v": 2191
  },
  {
    "dt": "2023.03.31 08:00",
    "o": 89.071,
    "h": 89.314,
    "l": 89.055,
    "c": 89.27,
    "v": 2710
  },
  {
    "dt": "2023.03.31 09:00",
    "o": 89.272,
    "h": 89.334,
    "l": 89.055,
    "c": 89.292,
    "v": 3138
  },
  {
    "dt": "2023.03.31 10:00",
    "o": 89.291,
    "h": 89.311,
    "l": 88.831,
    "c": 88.92,
    "v": 4156
  },
  {
    "dt": "2023.03.31 11:00",
    "o": 88.919,
    "h": 89.301,
    "l": 88.663,
    "c": 89.247,
    "v": 4571
  },
  {
    "dt": "2023.03.31 12:00",
    "o": 89.253,
    "h": 89.295,
    "l": 89.118,
    "c": 89.29,
    "v": 4025
  },
  {
    "dt": "2023.03.31 13:00",
    "o": 89.302,
    "h": 89.38,
    "l": 89.194,
    "c": 89.207,
    "v": 2822
  },
  {
    "dt": "2023.03.31 14:00",
    "o": 89.208,
    "h": 89.213,
    "l": 89.01,
    "c": 89.038,
    "v": 3372
  },
  {
    "dt": "2023.03.31 15:00",
    "o": 89.036,
    "h": 89.151,
    "l": 88.898,
    "c": 89.143,
    "v": 4465
  },
  {
    "dt": "2023.03.31 16:00",
    "o": 89.143,
    "h": 89.347,
    "l": 89.125,
    "c": 89.191,
    "v": 4591
  },
  {
    "dt": "2023.03.31 17:00",
    "o": 89.183,
    "h": 89.235,
    "l": 88.986,
    "c": 89.106,
    "v": 4610
  },
  {
    "dt": "2023.03.31 18:00",
    "o": 89.101,
    "h": 89.158,
    "l": 88.967,
    "c": 88.979,
    "v": 4206
  },
  {
    "dt": "2023.03.31 19:00",
    "o": 88.976,
    "h": 89.02,
    "l": 88.869,
    "c": 88.93,
    "v": 2527
  },
  {
    "dt": "2023.03.31 20:00",
    "o": 88.928,
    "h": 88.947,
    "l": 88.743,
    "c": 88.81,
    "v": 2047
  },
  {
    "dt": "2023.03.31 21:00",
    "o": 88.81,
    "h": 88.815,
    "l": 88.617,
    "c": 88.652,
    "v": 2103
  },
  {
    "dt": "2023.03.31 22:00",
    "o": 88.649,
    "h": 88.774,
    "l": 88.649,
    "c": 88.738,
    "v": 2255
  },
  {
    "dt": "2023.03.31 23:00",
    "o": 88.737,
    "h": 88.807,
    "l": 88.676,
    "c": 88.737,
    "v": 2024
  }
]