[
  {
    "dt": "2023.09.01 00:00",
    "o": 94.265,
    "h": 94.351,
    "l": 94.246,
    "c": 94.343,
    "v": 403
  },
  {
    "dt": "2023.09.01 01:00",
    "o": 94.343,
    "h": 94.385,
    "l": 94.31,
    "c": 94.334,
    "v": 1496
  },
  {
    "dt": "2023.09.01 02:00",
    "o": 94.333,
    "h": 94.394,
    "l": 94.31,
    "c": 94.354,
    "v": 1355
  },
  {
    "dt": "2023.09.01 03:00",
    "o": 94.355,
    "h": 94.393,
    "l": 94.223,
    "c": 94.236,
    "v": 2710
  },
  {
    "dt": "2023.09.01 04:00",
    "o": 94.232,
    "h": 94.409,
    "l": 94.163,
    "c": 94.295,
    "v": 3457
  },
  {
    "dt": "2023.09.01 05:00",
    "o": 94.296,
    "h": 94.327,
    "l": 94.089,
    "c": 94.13,
    "v": 2640
  },
  {
    "dt": "2023.09.01 06:00",
    "o": 94.128,
    "h": 94.185,
    "l": 94.057,
    "c": 94.064,
    "v": 2034
  },
  {
    "dt": "2023.09.01 07:00",
    "o": 94.067,
    "h": 94.194,
    "l": 94.06,
    "c": 94.159,
    "v": 1683
  },
  {
    "dt": "2023.09.01 08:00",
    "o": 94.161,
    "h": 94.261,
    "l": 94.145,
    "c": 94.145,
    "v": 2422
  },
  {
    "dt": "2023.09.01 09:00",
    "o": 94.139,
    "h": 94.159,
    "l": 93.847,
    "c": 93.977,
    "v": 2783
  },
  {
    "dt": "2023.09.01 10:00",
    "o": 93.968,
    "h": 94.215,
    "l": 93.906,
    "c": 94.185,
    "v": 3386
  },
  {
    "dt": "2023.09.01 11:00",
    "o": 94.186,
    "h": 94.228,
    "l": 94.104,
    "c": 94.127,
    "v": 3174
  },
  {
    "dt": "2023.09.01 12:00",
    "o": 94.127,
    "h": 94.188,
    "l": 94.083,
    "c": 94.086,
    "v": 2588
  },
  {
    "dt": "2023.09.01 13:00",
    "o": 94.088,
    "h": 94.28,
    "l": 94.086,
    "c": 94.217,
    "v": 2412
  },
  {
    "dt": "2023.09.01 14:00",
    "o": 94.211,
    "h": 94.273,
    "l": 94.095,
    "c": 94.096,
    "v": 2508
  },
  {
    "dt": "2023.09.01 15:00",
    "o": 94.097,
    "h": 94.335,
    "l": 93.993,
    "c": 94.212,
    "v": 4312
  },
  {
    "dt": "2023.09.01 16:00",
    "o": 94.214,
    "h": 94.293,
    "l": 94.065,
    "c": 94.162,
    "v": 4897
  },
  {
    "dt": "2023.09.01 17:00",
    "o": 94.23,
    "h": 94.311,
    "l": 94.077,
    "c": 94.284,
    "v": 5078
  },
  {
    "dt": "2023.09.01 18:00",
    "o": 94.27,
    "h": 94.316,
    "l": 94.193,
    "c": 94.231,
    "v": 3773
  },
  {
    "dt": "2023.09.01 19:00",
    "o": 94.23,
    "h": 94.274,
    "l": 94.164,
    "c": 94.234,
    "v": 2801
  },
  {
    "dt": "2023.09.01 20:00",
    "o": 94.237,
    "h": 94.302,
    "l": 94.21,
    "c": 94.265,
    "v": 1940
  },
  {
    "dt": "2023.09.01 21:00",
    "o": 94.267,
    "h": 94.296,
    "l": 94.204,
    "c": 94.271,
    "v": 1884
  },
  {
    "dt": "2023.09.01 22:00",
    "o": 94.27,
    "h": 94.289,
    "l": 94.241,
    "c": 94.256,
    "v": 1897
  },
  {
    "dt": "2023.09.01 23:00",
    "o": 94.259,
    "h": 94.324,
    "l": 94.227,
    "c": 94.274,
    "v": 1186
  },
  {
    "dt": "2023.09.04 00:00",
    "o": 94.138,
    "h": 94.302,
    "l": 94.138,
    "c": 94.255,
    "v": 245
  },
  {
    "dt": "2023.09.04 01:00",
    "o": 94.248,
    "h": 94.312,
    "l": 94.237,
    "c": 94.265,
    "v": 931
  },
  {
    "dt": "2023.09.04 02:00",
    "o": 94.265,
    "h": 94.278,
    "l": 94.185,
    "c": 94.233,
    "v": 932
  },
  {
    "dt": "2023.09.04 03:00",
    "o": 94.23,
    "h": 94.473,
    "l": 94.214,
    "c": 94.427,
    "v": 2123
  },
  {
    "dt": "2023.09.04 04:00",
    "o": 94.426,
    "h": 94.497,
    "l": 94.34,
    "c": 94.41,
    "v": 2742
  },
  {
    "dt": "2023.09.04 05:00",
    "o": 94.412,
    "h": 94.589,
    "l": 94.408,
    "c": 94.55,
    "v": 2409
  },
  {
    "dt": "2023.09.04 06:00",
    "o": 94.547,
    "h": 94.569,
    "l": 94.473,
    "c": 94.486,
    "v": 1649
  },
  {
    "dt": "2023.09.04 07:00",
    "o": 94.487,
    "h": 94.502,
    "l": 94.455,
    "c": 94.496,
    "v": 1138
  },
  {
    "dt": "2023.09.04 08:00",
    "o": 94.497,
    "h": 94.668,
    "l": 94.491,
    "c": 94.629,
    "v": 2144
  },
  {
    "dt": "2023.09.04 09:00",
    "o": 94.632,
    "h": 94.701,
    "l": 94.558,
    "c": 94.62,
    "v": 2283
  },
  {
    "dt": "2023.09.04 10:00",
    "o": 94.629,
    "h": 94.7,
    "l": 94.58,
    "c": 94.636,
    "v": 2998
  },
  {
    "dt": "2023.09.04 11:00",
    "o": 94.642,
    "h": 94.682,
    "l": 94.597,
    "c": 94.63,
    "v": 2261
  },
  {
    "dt": "2023.09.04 12:00",
    "o": 94.63,
    "h": 94.653,
    "l": 94.541,
    "c": 94.636,
    "v": 2121
  },
  {
    "dt": "2023.09.04 13:00",
    "o": 94.634,
    "h": 94.688,
    "l": 94.618,
    "c": 94.635,
    "v": 1786
  },
  {
    "dt": "2023.09.04 14:00",
    "o": 94.637,
    "h": 94.708,
    "l": 94.627,
    "c": 94.643,
    "v": 1672
  },
  {
    "dt": "2023.09.04 15:00",
    "o": 94.644,
    "h": 94.653,
    "l": 94.564,
    "c": 94.607,
    "v": 1736
  },
  {
    "dt": "2023.09.04 16:00",
    "o": 94.607,
    "h": 94.677,
    "l": 94.569,
    "c": 94.589,
    "v": 2012
  },
  {
    "dt": "2023.09.04 17:00",
    "o": 94.587,
    "h": 94.591,
    "l": 94.48,
    "c": 94.54,
    "v": 1992
  },
  {
    "dt": "2023.09.04 18:00",
    "o": 94.538,
    "h": 94.605,
    "l": 94.531,
    "c": 94.595,
    "v": 1420
  },
  {
    "dt": "2023.09.04 19:00",
    "o": 94.594,
    "h": 94.635,
    "l": 94.584,
    "c": 94.613,
    "v": 985
  },
  {
    "dt": "2023.09.04 20:00",
    "o": 94.614,
    "h": 94.635,
    "l": 94.613,
    "c": 94.616,
    "v": 866
  },
  {
    "dt": "2023.09.04 21:00",
    "o": 94.615,
    "h": 94.623,
    "l": 94.609,
    "c": 94.61,
    "v": 435
  },
  {
    "dt": "2023.09.04 22:00",
    "o": 94.612,
    "h": 94.627,
    "l": 94.608,
    "c": 94.621,
    "v": 529
  },
  {
    "dt": "2023.09.04 23:00",
    "o": 94.619,
    "h": 94.662,
    "l": 94.615,
    "c": 94.63,
    "v": 496
  },
  {
    "dt": "2023.09.05 00:00",
    "o": 94.531,
    "h": 94.636,
    "l": 94.517,
    "c": 94.614,
    "v": 350
  },
  {
    "dt": "2023.09.05 01:00",
    "o": 94.62,
    "h": 94.673,
    "l": 94.619,
    "c": 94.643,
    "v": 993
  },
  {
    "dt": "2023.09.05 02:00",
    "o": 94.642,
    "h": 94.694,
    "l": 94.609,
    "c": 94.619,
    "v": 1010
  },
  {
    "dt": "2023.09.05 03:00",
    "o": 94.627,
    "h": 94.645,
    "l": 94.507,
    "c": 94.513,
    "v": 2087
  },
  {
    "dt": "2023.09.05 04:00",
    "o": 94.512,
    "h": 94.562,
    "l": 94.287,
    "c": 94.352,
    "v": 2578
  },
  {
    "dt": "2023.09.05 05:00",
    "o": 94.354,
    "h": 94.387,
    "l": 94.211,
    "c": 94.287,
    "v": 2429
  },
  {
    "dt": "2023.09.05 06:00",
    "o": 94.289,
    "h": 94.345,
    "l": 94.226,
    "c": 94.288,
    "v": 1908
  },
  {
    "dt": "2023.09.05 07:00",
    "o": 94.277,
    "h": 94.323,
    "l": 94.116,
    "c": 94.233,
    "v": 1772
  },
  {
    "dt": "2023.09.05 08:00",
    "o": 94.232,
    "h": 94.289,
    "l": 93.981,
    "c": 93.984,
    "v": 2262
  },
  {
    "dt": "2023.09.05 09:00",
    "o": 93.979,
    "h": 93.988,
    "l": 93.671,
    "c": 93.751,
    "v": 3315
  },
  {
    "dt": "2023.09.05 10:00",
    "o": 93.757,
    "h": 93.759,
    "l": 93.597,
    "c": 93.672,
    "v": 3705
  },
  {
    "dt": "2023.09.05 11:00",
    "o": 93.664,
    "h": 93.777,
    "l": 93.58,
    "c": 93.738,
    "v": 3351
  },
  {
    "dt": "2023.09.05 12:00",
    "o": 93.735,
    "h": 93.886,
    "l": 93.716,
    "c": 93.857,
    "v": 2884
  },
  {
    "dt": "2023.09.05 13:00",
    "o": 93.85,
    "h": 93.882,
    "l": 93.712,
    "c": 93.728,
    "v": 2492
  },
  {
    "dt": "2023.09.05 14:00",
    "o": 93.726,
    "h": 93.837,
    "l": 93.627,
    "c": 93.775,
    "v": 2571
  },
  {
    "dt": "2023.09.05 15:00",
    "o": 93.776,
    "h": 93.941,
    "l": 93.754,
    "c": 93.908,
    "v": 3691
  },
  {
    "dt": "2023.09.05 16:00",
    "o": 93.908,
    "h": 94.055,
    "l": 93.87,
    "c": 93.957,
    "v": 4435
  },
  {
    "dt": "2023.09.05 17:00",
    "o": 93.96,
    "h": 94.122,
    "l": 93.904,
    "c": 94.117,
    "v": 4372
  },
  {
    "dt": "2023.09.05 18:00",
    "o": 94.117,
    "h": 94.236,
    "l": 94.109,
    "c": 94.2,
    "v": 3227
  },
  {
    "dt": "2023.09.05 19:00",
    "o": 94.197,
    "h": 94.252,
    "l": 94.178,
    "c": 94.239,
    "v": 2076
  },
  {
    "dt": "2023.09.05 20:00",
    "o": 94.242,
    "h": 94.293,
    "l": 94.18,
    "c": 94.276,
    "v": 1882
  },
  {
    "dt": "2023.09.05 21:00",
    "o": 94.275,
    "h": 94.309,
    "l": 94.244,
    "c": 94.292,
    "v": 1967
  },
  {
    "dt": "2023.09.05 22:00",
    "o": 94.291,
    "h": 94.309,
    "l": 94.217,
    "c": 94.218,
    "v": 2030
  },
  {
    "dt": "2023.09.05 23:00",
    "o": 94.225,
    "h": 94.227,
    "l": 94.152,
    "c": 94.205,
    "v": 969
  },
  {
    "dt": "2023.09.06 00:00",
    "o": 94.161,
    "h": 94.202,
    "l": 94.131,
    "c": 94.161,
    "v": 510
  },
  {
    "dt": "2023.09.06 01:00",
    "o": 94.159,
    "h": 94.225,
    "l": 94.129,
    "c": 94.142,
    "v": 725
  },
  {
    "dt": "2023.09.06 02:00",
    "o": 94.138,
    "h": 94.138,
    "l": 93.955,
    "c": 93.987,
    "v": 1475
  },
  {
    "dt": "2023.09.06 03:00",
    "o": 93.985,
    "h": 94.12,
    "l": 93.98,
    "c": 94.056,
    "v": 2431
  },
  {
    "dt": "2023.09.06 04:00",
    "o": 94.057,
    "h": 94.158,
    "l": 93.892,
    "c": 93.909,
    "v": 3350
  },
  {
    "dt": "2023.09.06 05:00",
    "o": 93.91,
    "h": 94.124,
    "l": 93.847,
    "c": 94.086,
    "v": 2825
  },
  {
    "dt": "2023.09.06 06:00",
    "o": 94.089,
    "h": 94.15,
    "l": 94.016,
    "c": 94.114,
    "v": 1736
  },
  {
    "dt": "2023.09.06 07:00",
    "o": 94.113,
    "h": 94.121,
    "l": 94.038,
    "c": 94.081,
    "v": 1582
  },
  {
    "dt": "2023.09.06 08:00",
    "o": 94.075,
    "h": 94.173,
    "l": 94.011,
    "c": 94.153,
    "v": 2681
  },
  {
    "dt": "2023.09.06 09:00",
    "o": 94.146,
    "h": 94.171,
    "l": 94.014,
    "c": 94.075,
    "v": 2990
  },
  {
    "dt": "2023.09.06 10:00",
    "o": 94.076,
    "h": 94.16,
    "l": 93.986,
    "c": 94.051,
    "v": 3692
  },
  {
    "dt": "2023.09.06 11:00",
    "o": 94.055,
    "h": 94.203,
    "l": 94.022,
    "c": 94.175,
    "v": 2904
  },
  {
    "dt": "2023.09.06 12:00",
    "o": 94.176,
    "h": 94.218,
    "l": 94.096,
    "c": 94.202,
    "v": 2494
  },
  {
    "dt": "2023.09.06 13:00",
    "o": 94.204,
    "h": 94.322,
    "l": 94.204,
    "c": 94.219,
    "v": 2483
  },
  {
    "dt": "2023.09.06 14:00",
    "o": 94.218,
    "h": 94.269,
    "l": 94.13,
    "c": 94.156,
    "v": 2463
  },
  {
    "dt": "2023.09.06 15:00",
    "o": 94.152,
    "h": 94.152,
    "l": 94.006,
    "c": 94.069,
    "v": 2859
  },
  {
    "dt": "2023.09.06 16:00",
    "o": 94.069,
    "h": 94.246,
    "l": 94.037,
    "c": 94.135,
    "v": 3560
  },
  {
    "dt": "2023.09.06 17:00",
    "o": 94.123,
    "h": 94.234,
    "l": 93.947,
    "c": 94.098,
    "v": 4815
  },
  {
    "dt": "2023.09.06 18:00",
    "o": 94.095,
    "h": 94.231,
    "l": 94.082,
    "c": 94.213,
    "v": 3106
  },
  {
    "dt": "2023.09.06 19:00",
    "o": 94.213,
    "h": 94.243,
    "l": 94.106,
    "c": 94.124,
    "v": 2755
  },
  {
    "dt": "2023.09.06 20:00",
    "o": 94.123,
    "h": 94.211,
    "l": 94.09,
    "c": 94.194,
    "v": 2219
  },
  {
    "dt": "2023.09.06 21:00",
    "o": 94.19,
    "h": 94.258,
    "l": 94.153,
    "c": 94.198,
    "v": 2094
  },
  {
    "dt": "2023.09.06 22:00",
    "o": 94.199,
    "h": 94.24,
    "l": 94.178,
    "c": 94.204,
    "v": 1721
  },
  {
    "dt": "2023.09.06 23:00",
    "o": 94.206,
    "h": 94.247,
    "l": 94.184,
    "c": 94.231,
    "v": 999
  },
  {
    "dt": "2023.09.07 00:00",
    "o": 94.154,
    "h": 94.211,
    "l": 94.116,
    "c": 94.188,
    "v": 603
  },
  {
    "dt": "2023.09.07 01:00",
    "o": 94.198,
    "h": 94.25,
    "l": 94.178,
    "c": 94.248,
    "v": 926
  },
  {
    "dt": "2023.09.07 02:00",
    "o": 94.225,
    "h": 94.273,
    "l": 94.21,
    "c": 94.25,
    "v": 1150
  },
  {
    "dt": "2023.09.07 03:00",
    "o": 94.245,
    "h": 94.259,
    "l": 94.176,
    "c": 94.21,
    "v": 2062
  },
  {
    "dt": "2023.09.07 04:00",
    "o": 94.208,
    "h": 94.306,
    "l": 94.073,
    "c": 94.13,
    "v": 2618
  },
  {
    "dt": "2023.09.07 05:00",
    "o": 94.129,
    "h": 94.135,
    "l": 93.996,
    "c": 93.998,
    "v": 2033
  },
  {
    "dt": "2023.09.07 06:00",
    "o": 93.998,
    "h": 94.065,
    "l": 93.911,
    "c": 94.002,
    "v": 1678
  },
  {
    "dt": "2023.09.07 07:00",
    "o": 93.998,
    "h": 94.035,
    "l": 93.857,
    "c": 93.924,
    "v": 1755
  },
  {
    "dt": "2023.09.07 08:00",
    "o": 93.925,
    "h": 94.137,
    "l": 93.919,
    "c": 94.117,
    "v": 2185
  },
  {
    "dt": "2023.09.07 09:00",
    "o": 94.119,
    "h": 94.288,
    "l": 94.069,
    "c": 94.177,
    "v": 2569
  },
  {
    "dt": "2023.09.07 10:00",
    "o": 94.181,
    "h": 94.214,
    "l": 94.051,
    "c": 94.162,
    "v": 3076
  },
  {
    "dt": "2023.09.07 11:00",
    "o": 94.16,
    "h": 94.169,
    "l": 94.061,
    "c": 94.138,
    "v": 2867
  },
  {
    "dt": "2023.09.07 12:00",
    "o": 94.139,
    "h": 94.236,
    "l": 94.064,
    "c": 94.122,
    "v": 2533
  },
  {
    "dt": "2023.09.07 13:00",
    "o": 94.126,
    "h": 94.177,
    "l": 94.061,
    "c": 94.079,
    "v": 2054
  },
  {
    "dt": "2023.09.07 14:00",
    "o": 94.076,
    "h": 94.14,
    "l": 93.968,
    "c": 93.969,
    "v": 2398
  },
  {
    "dt": "2023.09.07 15:00",
    "o": 93.968,
    "h": 94.139,
    "l": 93.93,
    "c": 94.102,
    "v": 3487
  },
  {
    "dt": "2023.09.07 16:00",
    "o": 94.103,
    "h": 94.113,
    "l": 93.921,
    "c": 93.96,
    "v": 4066
  },
  {
    "dt": "2023.09.07 17:00",
    "o": 93.961,
    "h": 94.021,
    "l": 93.698,
    "c": 93.779,
    "v": 3792
  },
  {
    "dt": "2023.09.07 18:00",
    "o": 93.789,
    "h": 93.898,
    "l": 93.755,
    "c": 93.844,
    "v": 3108
  },
  {
    "dt": "2023.09.07 19:00",
    "o": 93.845,
    "h": 93.886,
    "l": 93.769,
    "c": 93.777,
    "v": 2300
  },
  {
    "dt": "2023.09.07 20:00",
    "o": 93.786,
    "h": 93.939,
    "l": 93.779,
    "c": 93.916,
    "v": 2051
  },
  {
    "dt": "2023.09.07 21:00",
    "o": 93.92,
    "h": 93.936,
    "l": 93.795,
    "c": 93.864,
    "v": 1763
  },
  {
    "dt": "2023.09.07 22:00",
    "o": 93.865,
    "h": 93.916,
    "l": 93.854,
    "c": 93.856,
    "v": 1780
  },
  {
    "dt": "2023.09.07 23:00",
    "o": 93.855,
    "h": 93.926,
    "l": 93.847,
    "c": 93.897,
    "v": 956
  },
  {
    "dt": "2023.09.08 00:00",
    "o": 93.853,
    "h": 93.913,
    "l": 93.835,
    "c": 93.904,
    "v": 454
  },
  {
    "dt": "2023.09.08 01:00",
    "o": 93.906,
    "h": 93.91,
    "l": 93.853,
    "c": 93.89,
    "v": 604
  },
  {
    "dt": "2023.09.08 02:00",
    "o": 93.893,
    "h": 93.982,
    "l": 93.878,
    "c": 93.956,
    "v": 803
  },
  {
    "dt": "2023.09.08 03:00",
    "o": 93.955,
    "h": 93.984,
    "l": 93.583,
    "c": 93.75,
    "v": 3118
  },
  {
    "dt": "2023.09.08 04:00",
    "o": 93.76,
    "h": 94.017,
    "l": 93.683,
    "c": 93.927,
    "v": 3280
  },
  {
    "dt": "2023.09.08 05:00",
    "o": 93.928,
    "h": 94.077,
    "l": 93.881,
    "c": 94.024,
    "v": 2202
  },
  {
    "dt": "2023.09.08 06:00",
    "o": 94.026,
    "h": 94.041,
    "l": 93.957,
    "c": 93.996,
    "v": 1671
  },
  {
    "dt": "2023.09.08 07:00",
    "o": 93.997,
    "h": 94.044,
    "l": 93.958,
    "c": 94.016,
    "v": 1693
  },
  {
    "dt": "2023.09.08 08:00",
    "o": 94.016,
    "h": 94.283,
    "l": 94.013,
    "c": 94.235,
    "v": 1894
  },
  {
    "dt": "2023.09.08 09:00",
    "o": 94.246,
    "h": 94.331,
    "l": 94.119,
    "c": 94.169,
    "v": 2891
  },
  {
    "dt": "2023.09.08 10:00",
    "o": 94.167,
    "h": 94.288,
    "l": 94.16,
    "c": 94.251,
    "v": 3042
  },
  {
    "dt": "2023.09.08 11:00",
    "o": 94.249,
    "h": 94.302,
    "l": 94.165,
    "c": 94.238,
    "v": 3038
  },
  {
    "dt": "2023.09.08 12:00",
    "o": 94.232,
    "h": 94.244,
    "l": 94.1,
    "c": 94.168,
    "v": 2810
  },
  {
    "dt": "2023.09.08 13:00",
    "o": 94.165,
    "h": 94.284,
    "l": 94.15,
    "c": 94.265,
    "v": 2502
  },
  {
    "dt": "2023.09.08 14:00",
    "o": 94.27,
    "h": 94.304,
    "l": 94.203,
    "c": 94.273,
    "v": 2321
  },
  {
    "dt": "2023.09.08 15:00",
    "o": 94.275,
    "h": 94.388,
    "l": 94.214,
    "c": 94.327,
    "v": 2844
  },
  {
    "dt": "2023.09.08 16:00",
    "o": 94.33,
    "h": 94.381,
    "l": 94.263,
    "c": 94.333,
    "v": 3545
  },
  {
    "dt": "2023.09.08 17:00",
    "o": 94.334,
    "h": 94.447,
    "l": 94.307,
    "c": 94.355,
    "v": 3416
  },
  {
    "dt": "2023.09.08 18:00",
    "o": 94.35,
    "h": 94.377,
    "l": 94.261,
    "c": 94.293,
    "v": 2743
  },
  {
    "dt": "2023.09.08 19:00",
    "o": 94.294,
    "h": 94.328,
    "l": 94.196,
    "c": 94.23,
    "v": 2013
  },
  {
    "dt": "2023.09.08 20:00",
    "o": 94.228,
    "h": 94.254,
    "l": 94.198,
    "c": 94.222,
    "v": 1427
  },
  {
    "dt": "2023.09.08 21:00",
    "o": 94.221,
    "h": 94.271,
    "l": 94.149,
    "c": 94.19,
    "v": 1718
  },
  {
    "dt": "2023.09.08 22:00",
    "o": 94.189,
    "h": 94.245,
    "l": 94.176,
    "c": 94.242,
    "v": 1936
  },
  {
    "dt": "2023.09.08 23:00",
    "o": 94.245,
    "h": 94.248,
    "l": 94.221,
    "c": 94.234,
    "v": 1179
  },
  {
    "dt": "2023.09.11 00:00",
    "o": 93.851,
    "h": 93.892,
    "l": 93.591,
    "c": 93.703,
    "v": 400
  },
  {
    "dt": "2023.09.11 01:00",
    "o": 93.65,
    "h": 94.097,
    "l": 93.65,
    "c": 94.033,
    "v": 1823
  },
  {
    "dt": "2023.09.11 02:00",
    "o": 94.037,
    "h": 94.214,
    "l": 94.024,
    "c": 94.102,
    "v": 2200
  },
  {
    "dt": "2023.09.11 03:00",
    "o": 94.11,
    "h": 94.13,
    "l": 93.867,
    "c": 93.941,
    "v": 3052
  },
  {
    "dt": "2023.09.11 04:00",
    "o": 93.94,
    "h": 94.137,
    "l": 93.934,
    "c": 94.099,
    "v": 3426
  },
  {
    "dt": "2023.09.11 05:00",
    "o": 94.104,
    "h": 94.135,
    "l": 93.989,
    "c": 94.052,
    "v": 2587
  },
  {
    "dt": "2023.09.11 06:00",
    "o": 94.055,
    "h": 94.074,
    "l": 93.935,
    "c": 93.979,
    "v": 2100
  },
  {
    "dt": "2023.09.11 07:00",
    "o": 93.984,
    "h": 94.118,
    "l": 93.909,
    "c": 94.098,
    "v": 3168
  },
  {
    "dt": "2023.09.11 08:00",
    "o": 94.099,
    "h": 94.131,
    "l": 93.985,
    "c": 94.109,
    "v": 3368
  },
  {
    "dt": "2023.09.11 09:00",
    "o": 94.108,
    "h": 94.125,
    "l": 93.903,
    "c": 94.034,
    "v": 3282
  },
  {
    "dt": "2023.09.11 10:00",
    "o": 94.025,
    "h": 94.102,
    "l": 93.983,
    "c": 94.045,
    "v": 3693
  },
  {
    "dt": "2023.09.11 11:00",
    "o": 94.044,
    "h": 94.214,
    "l": 94.01,
    "c": 94.168,
    "v": 2996
  },
  {
    "dt": "2023.09.11 12:00",
    "o": 94.167,
    "h": 94.335,
    "l": 94.136,
    "c": 94.328,
    "v": 2839
  },
  {
    "dt": "2023.09.11 13:00",
    "o": 94.328,
    "h": 94.443,
    "l": 94.278,
    "c": 94.425,
    "v": 2588
  },
  {
    "dt": "2023.09.11 14:00",
    "o": 94.421,
    "h": 94.45,
    "l": 94.333,
    "c": 94.377,
    "v": 2575
  },
  {
    "dt": "2023.09.11 15:00",
    "o": 94.367,
    "h": 94.388,
    "l": 94.176,
    "c": 94.276,
    "v": 3277
  },
  {
    "dt": "2023.09.11 16:00",
    "o": 94.277,
    "h": 94.443,
    "l": 94.166,
    "c": 94.219,
    "v": 3507
  },
  {
    "dt": "2023.09.11 17:00",
    "o": 94.213,
    "h": 94.295,
    "l": 94.099,
    "c": 94.207,
    "v": 3662
  },
  {
    "dt": "2023.09.11 18:00",
    "o": 94.202,
    "h": 94.257,
    "l": 94.169,
    "c": 94.203,
    "v": 2592
  },
  {
    "dt": "2023.09.11 19:00",
    "o": 94.208,
    "h": 94.301,
    "l": 94.191,
    "c": 94.248,
    "v": 2245
  },
  {
    "dt": "2023.09.11 20:00",
    "o": 94.25,
    "h": 94.293,
    "l": 94.167,
    "c": 94.178,
    "v": 2104
  },
  {
    "dt": "2023.09.11 21:00",
    "o": 94.178,
    "h": 94.235,
    "l": 94.152,
    "c": 94.18,
    "v": 1810
  },
  {
    "dt": "2023.09.11 22:00",
    "o": 94.176,
    "h": 94.254,
    "l": 94.156,
    "c": 94.241,
    "v": 2052
  },
  {
    "dt": "2023.09.11 23:00",
    "o": 94.241,
    "h": 94.267,
    "l": 94.213,
    "c": 94.241,
    "v": 1048
  },
  {
    "dt": "2023.09.12 00:00",
    "o": 94.152,
    "h": 94.264,
    "l": 94.152,
    "c": 94.234,
    "v": 567
  },
  {
    "dt": "2023.09.12 01:00",
    "o": 94.241,
    "h": 94.261,
    "l": 94.186,
    "c": 94.194,
    "v": 865
  },
  {
    "dt": "2023.09.12 02:00",
    "o": 94.201,
    "h": 94.324,
    "l": 94.196,
    "c": 94.291,
    "v": 1013
  },
  {
    "dt": "2023.09.12 03:00",
    "o": 94.291,
    "h": 94.324,
    "l": 94.15,
    "c": 94.184,
    "v": 2240
  },
  {
    "dt": "2023.09.12 04:00",
    "o": 94.18,
    "h": 94.206,
    "l": 94.047,
    "c": 94.125,
    "v": 2859
  },
  {
    "dt": "2023.09.12 05:00",
    "o": 94.128,
    "h": 94.387,
    "l": 94.096,
    "c": 94.36,
    "v": 2496
  },
  {
    "dt": "2023.09.12 06:00",
    "o": 94.361,
    "h": 94.423,
    "l": 94.314,
    "c": 94.388,
    "v": 1855
  },
  {
    "dt": "2023.09.12 07:00",
    "o": 94.38,
    "h": 94.38,
    "l": 94.25,
    "c": 94.301,
    "v": 1738
  },
  {
    "dt": "2023.09.12 08:00",
    "o": 94.3,
    "h": 94.411,
    "l": 94.268,
    "c": 94.302,
    "v": 2110
  },
  {
    "dt": "2023.09.12 09:00",
    "o": 94.304,
    "h": 94.523,
    "l": 94.271,
    "c": 94.501,
    "v": 2357
  },
  {
    "dt": "2023.09.12 10:00",
    "o": 94.501,
    "h": 94.519,
    "l": 94.331,
    "c": 94.361,
    "v": 3124
  },
  {
    "dt": "2023.09.12 11:00",
    "o": 94.362,
    "h": 94.459,
    "l": 94.337,
    "c": 94.347,
    "v": 2666
  },
  {
    "dt": "2023.09.12 12:00",
    "o": 94.344,
    "h": 94.364,
    "l": 94.276,
    "c": 94.319,
    "v": 2085
  },
  {
    "dt": "2023.09.12 13:00",
    "o": 94.317,
    "h": 94.38,
    "l": 94.256,
    "c": 94.284,
    "v": 1796
  },
  {
    "dt": "2023.09.12 14:00",
    "o": 94.284,
    "h": 94.365,
    "l": 94.253,
    "c": 94.339,
    "v": 2192
  },
  {
    "dt": "2023.09.12 15:00",
    "o": 94.338,
    "h": 94.454,
    "l": 94.323,
    "c": 94.375,
    "v": 3041
  },
  {
    "dt": "2023.09.12 16:00",
    "o": 94.373,
    "h": 94.495,
    "l": 94.31,
    "c": 94.473,
    "v": 3667
  },
  {
    "dt": "2023.09.12 17:00",
    "o": 94.478,
    "h": 94.491,
    "l": 94.393,
    "c": 94.441,
    "v": 3686
  },
  {
    "dt": "2023.09.12 18:00",
    "o": 94.435,
    "h": 94.513,
    "l": 94.425,
    "c": 94.469,
    "v": 2560
  },
  {
    "dt": "2023.09.12 19:00",
    "o": 94.471,
    "h": 94.529,
    "l": 94.456,
    "c": 94.469,
    "v": 2205
  },
  {
    "dt": "2023.09.12 20:00",
    "o": 94.465,
    "h": 94.551,
    "l": 94.459,
    "c": 94.478,
    "v": 2278
  },
  {
    "dt": "2023.09.12 21:00",
    "o": 94.477,
    "h": 94.517,
    "l": 94.457,
    "c": 94.484,
    "v": 2196
  },
  {
    "dt": "2023.09.12 22:00",
    "o": 94.485,
    "h": 94.511,
    "l": 94.447,
    "c": 94.478,
    "v": 1690
  },
  {
    "dt": "2023.09.12 23:00",
    "o": 94.476,
    "h": 94.516,
    "l": 94.45,
    "c": 94.499,
    "v": 1115
  },
  {
    "dt": "2023.09.13 00:00",
    "o": 94.398,
    "h": 94.506,
    "l": 94.387,
    "c": 94.495,
    "v": 876
  },
  {
    "dt": "2023.09.13 01:00",
    "o": 94.497,
    "h": 94.511,
    "l": 94.456,
    "c": 94.51,
    "v": 633
  },
  {
    "dt": "2023.09.13 02:00",
    "o": 94.513,
    "h": 94.598,
    "l": 94.508,
    "c": 94.586,
    "v": 1013
  },
  {
    "dt": "2023.09.13 03:00",
    "o": 94.586,
    "h": 94.68,
    "l": 94.541,
    "c": 94.595,
    "v": 2440
  },
  {
    "dt": "2023.09.13 04:00",
    "o": 94.596,
    "h": 94.703,
    "l": 94.511,
    "c": 94.535,
    "v": 2932
  },
  {
    "dt": "2023.09.13 05:00",
    "o": 94.536,
    "h": 94.582,
    "l": 94.33,
    "c": 94.359,
    "v": 2672
  },
  {
    "dt": "2023.09.13 06:00",
    "o": 94.359,
    "h": 94.429,
    "l": 94.333,
    "c": 94.372,
    "v": 2210
  },
  {
    "dt": "2023.09.13 07:00",
    "o": 94.371,
    "h": 94.469,
    "l": 94.343,
    "c": 94.461,
    "v": 1875
  },
  {
    "dt": "2023.09.13 08:00",
    "o": 94.462,
    "h": 94.51,
    "l": 94.379,
    "c": 94.426,
    "v": 2355
  },
  {
    "dt": "2023.09.13 09:00",
    "o": 94.422,
    "h": 94.422,
    "l": 94.23,
    "c": 94.361,
    "v": 2961
  },
  {
    "dt": "2023.09.13 10:00",
    "o": 94.362,
    "h": 94.509,
    "l": 94.28,
    "c": 94.417,
    "v": 3213
  },
  {
    "dt": "2023.09.13 11:00",
    "o": 94.416,
    "h": 94.523,
    "l": 94.387,
    "c": 94.424,
    "v": 3046
  },
  {
    "dt": "2023.09.13 12:00",
    "o": 94.423,
    "h": 94.49,
    "l": 94.375,
    "c": 94.47,
    "v": 2694
  },
  {
    "dt": "2023.09.13 13:00",
    "o": 94.471,
    "h": 94.476,
    "l": 94.371,
    "c": 94.444,
    "v": 2437
  },
  {
    "dt": "2023.09.13 14:00",
    "o": 94.444,
    "h": 94.488,
    "l": 94.383,
    "c": 94.455,
    "v": 2717
  },
  {
    "dt": "2023.09.13 15:00",
    "o": 94.457,
    "h": 94.607,
    "l": 94.163,
    "c": 94.506,
    "v": 4123
  },
  {
    "dt": "2023.09.13 16:00",
    "o": 94.499,
    "h": 94.701,
    "l": 94.465,
    "c": 94.65,
    "v": 4344
  },
  {
    "dt": "2023.09.13 17:00",
    "o": 94.659,
    "h": 94.729,
    "l": 94.547,
    "c": 94.707,
    "v": 3810
  },
  {
    "dt": "2023.09.13 18:00",
    "o": 94.711,
    "h": 94.817,
    "l": 94.674,
    "c": 94.719,
    "v": 3015
  },
  {
    "dt": "2023.09.13 19:00",
    "o": 94.721,
    "h": 94.747,
    "l": 94.665,
    "c": 94.704,
    "v": 2956
  },
  {
    "dt": "2023.09.13 20:00",
    "o": 94.705,
    "h": 94.707,
    "l": 94.619,
    "c": 94.69,
    "v": 2524
  },
  {
    "dt": "2023.09.13 21:00",
    "o": 94.691,
    "h": 94.7,
    "l": 94.591,
    "c": 94.616,
    "v": 2109
  },
  {
    "dt": "2023.09.13 22:00",
    "o": 94.614,
    "h": 94.672,
    "l": 94.544,
    "c": 94.649,
    "v": 2243
  },
  {
    "dt": "2023.09.13 23:00",
    "o": 94.651,
    "h": 94.695,
    "l": 94.646,
    "c": 94.676,
    "v": 1147
  },
  {
    "dt": "2023.09.14 00:00",
    "o": 94.64,
    "h": 94.649,
    "l": 94.541,
    "c": 94.599,
    "v": 707
  },
  {
    "dt": "2023.09.14 01:00",
    "o": 94.606,
    "h": 94.628,
    "l": 94.589,
    "c": 94.6,
    "v": 862
  },
  {
    "dt": "2023.09.14 02:00",
    "o": 94.592,
    "h": 94.636,
    "l": 94.568,
    "c": 94.592,
    "v": 1086
  },
  {
    "dt": "2023.09.14 03:00",
    "o": 94.591,
    "h": 94.836,
    "l": 94.583,
    "c": 94.817,
    "v": 2916
  },
  {
    "dt": "2023.09.14 04:00",
    "o": 94.816,
    "h": 94.931,
    "l": 94.636,
    "c": 94.648,
    "v": 3319
  },
  {
    "dt": "2023.09.14 05:00",
    "o": 94.647,
    "h": 94.672,
    "l": 94.495,
    "c": 94.563,
    "v": 2613
  },
  {
    "dt": "2023.09.14 06:00",
    "o": 94.56,
    "h": 94.692,
    "l": 94.56,
    "c": 94.675,
    "v": 2162
  },
  {
    "dt": "2023.09.14 07:00",
    "o": 94.674,
    "h": 94.76,
    "l": 94.643,
    "c": 94.728,
    "v": 1845
  },
  {
    "dt": "2023.09.14 08:00",
    "o": 94.733,
    "h": 94.856,
    "l": 94.725,
    "c": 94.744,
    "v": 2762
  },
  {
    "dt": "2023.09.14 09:00",
    "o": 94.737,
    "h": 94.801,
    "l": 94.663,
    "c": 94.724,
    "v": 2378
  },
  {
    "dt": "2023.09.14 10:00",
    "o": 94.723,
    "h": 94.735,
    "l": 94.63,
    "c": 94.703,
    "v": 2909
  },
  {
    "dt": "2023.09.14 11:00",
    "o": 94.697,
    "h": 94.792,
    "l": 94.688,
    "c": 94.76,
    "v": 2993
  },
  {
    "dt": "2023.09.14 12:00",
    "o": 94.759,
    "h": 94.786,
    "l": 94.679,
    "c": 94.746,
    "v": 1659
  },
  {
    "dt": "2023.09.14 13:00",
    "o": 94.743,
    "h": 94.932,
    "l": 94.741,
    "c": 94.9,
    "v": 2287
  },
  {
    "dt": "2023.09.14 14:00",
    "o": 94.896,
    "h": 94.969,
    "l": 94.891,
    "c": 94.94,
    "v": 2709
  },
  {
    "dt": "2023.09.14 15:00",
    "o": 94.943,
    "h": 95.008,
    "l": 94.689,
    "c": 94.936,
    "v": 4696
  },
  {
    "dt": "2023.09.14 16:00",
    "o": 94.933,
    "h": 95.024,
    "l": 94.842,
    "c": 94.884,
    "v": 4999
  },
  {
    "dt": "2023.09.14 17:00",
    "o": 94.891,
    "h": 94.904,
    "l": 94.728,
    "c": 94.812,
    "v": 3848
  },
  {
    "dt": "2023.09.14 18:00",
    "o": 94.816,
    "h": 94.868,
    "l": 94.704,
    "c": 94.794,
    "v": 3006
  },
  {
    "dt": "2023.09.14 19:00",
    "o": 94.792,
    "h": 94.935,
    "l": 94.765,
    "c": 94.932,
    "v": 2798
  },
  {
    "dt": "2023.09.14 20:00",
    "o": 94.933,
    "h": 94.933,
    "l": 94.81,
    "c": 94.83,
    "v": 2725
  },
  {
    "dt": "2023.09.14 21:00",
    "o": 94.831,
    "h": 94.916,
    "l": 94.798,
    "c": 94.894,
    "v": 2085
  },
  {
    "dt": "2023.09.14 22:00",
    "o": 94.894,
    "h": 94.93,
    "l": 94.871,
    "c": 94.886,
    "v": 2333
  },
  {
    "dt": "2023.09.14 23:00",
    "o": 94.891,
    "h": 94.975,
    "l": 94.891,
    "c": 94.957,
    "v": 1171
  },
  {
    "dt": "2023.09.15 00:00",
    "o": 94.957,
    "h": 94.957,
    "l": 94.828,
    "c": 94.899,
    "v": 1031
  },
  {
    "dt": "2023.09.15 01:00",
    "o": 94.899,
    "h": 94.965,
    "l": 94.897,
    "c": 94.912,
    "v": 1038
  },
  {
    "dt": "2023.09.15 02:00",
    "o": 94.896,
    "h": 94.941,
    "l": 94.819,
    "c": 94.821,
    "v": 1324
  },
  {
    "dt": "2023.09.15 03:00",
    "o": 94.821,
    "h": 95.069,
    "l": 94.796,
    "c": 94.99,
    "v": 2876
  },
  {
    "dt": "2023.09.15 04:00",
    "o": 94.984,
    "h": 95.04,
    "l": 94.879,
    "c": 95.03,
    "v": 2772
  },
  {
    "dt": "2023.09.15 05:00",
    "o": 95.039,
    "h": 95.288,
    "l": 95.038,
    "c": 95.28,
    "v": 3047
  },
  {
    "dt": "2023.09.15 06:00",
    "o": 95.281,
    "h": 95.355,
    "l": 95.239,
    "c": 95.341,
    "v": 2143
  },
  {
    "dt": "2023.09.15 07:00",
    "o": 95.344,
    "h": 95.416,
    "l": 95.222,
    "c": 95.402,
    "v": 1753
  },
  {
    "dt": "2023.09.15 08:00",
    "o": 95.402,
    "h": 95.532,
    "l": 95.273,
    "c": 95.304,
    "v": 2723
  },
  {
    "dt": "2023.09.15 09:00",
    "o": 95.299,
    "h": 95.498,
    "l": 95.293,
    "c": 95.474,
    "v": 2980
  },
  {
    "dt": "2023.09.15 10:00",
    "o": 95.479,
    "h": 95.513,
    "l": 95.378,
    "c": 95.457,
    "v": 3358
  },
  {
    "dt": "2023.09.15 11:00",
    "o": 95.455,
    "h": 95.461,
    "l": 95.294,
    "c": 95.323,
    "v": 2752
  },
  {
    "dt": "2023.09.15 12:00",
    "o": 95.317,
    "h": 95.408,
    "l": 95.259,
    "c": 95.382,
    "v": 2484
  },
  {
    "dt": "2023.09.15 13:00",
    "o": 95.383,
    "h": 95.452,
    "l": 95.338,
    "c": 95.429,
    "v": 1998
  },
  {
    "dt": "2023.09.15 14:00",
    "o": 95.429,
    "h": 95.485,
    "l": 95.382,
    "c": 95.426,
    "v": 2381
  },
  {
    "dt": "2023.09.15 15:00",
    "o": 95.426,
    "h": 95.467,
    "l": 95.268,
    "c": 95.274,
    "v": 3232
  },
  {
    "dt": "2023.09.15 16:00",
    "o": 95.275,
    "h": 95.324,
    "l": 95.163,
    "c": 95.176,
    "v": 3891
  },
  {
    "dt": "2023.09.15 17:00",
    "o": 95.2,
    "h": 95.329,
    "l": 95.103,
    "c": 95.186,
    "v": 4387
  },
  {
    "dt": "2023.09.15 18:00",
    "o": 95.188,
    "h": 95.237,
    "l": 95.112,
    "c": 95.207,
    "v": 3172
  },
  {
    "dt": "2023.09.15 19:00",
    "o": 95.207,
    "h": 95.288,
    "l": 95.161,
    "c": 95.176,
    "v": 2473
  },
  {
    "dt": "2023.09.15 20:00",
    "o": 95.178,
    "h": 95.179,
    "l": 95.03,
    "c": 95.141,
    "v": 2294
  },
  {
    "dt": "2023.09.15 21:00",
    "o": 95.138,
    "h": 95.138,
    "l": 95.058,
    "c": 95.106,
    "v": 2046
  },
  {
    "dt": "2023.09.15 22:00",
    "o": 95.104,
    "h": 95.116,
    "l": 95.042,
    "c": 95.076,
    "v": 2351
  },
  {
    "dt": "2023.09.15 23:00",
    "o": 95.077,
    "h": 95.09,
    "l": 94.993,
    "c": 95.05,
    "v": 1173
  },
  {
    "dt": "2023.09.18 00:00",
    "o": 95.148,
    "h": 95.148,
    "l": 94.977,
    "c": 95.01,
    "v": 198
  },
  {
    "dt": "2023.09.18 01:00",
    "o": 95.016,
    "h": 95.095,
    "l": 94.984,
    "c": 95.084,
    "v": 925
  },
  {
    "dt": "2023.09.18 02:00",
    "o": 95.094,
    "h": 95.227,
    "l": 95.087,
    "c": 95.216,
    "v": 1086
  },
  {
    "dt": "2023.09.18 03:00",
    "o": 95.202,
    "h": 95.244,
    "l": 95.082,
    "c": 95.129,
    "v": 2064
  },
  {
    "dt": "2023.09.18 04:00",
    "o": 95.129,
    "h": 95.22,
    "l": 94.95,
    "c": 95.056,
    "v": 2818
  },
  {
    "dt": "2023.09.18 05:00",
    "o": 95.056,
    "h": 95.181,
    "l": 95.043,
    "c": 95.094,
    "v": 2130
  },
  {
    "dt": "2023.09.18 06:00",
    "o": 95.091,
    "h": 95.158,
    "l": 95.073,
    "c": 95.126,
    "v": 1401
  },
  {
    "dt": "2023.09.18 07:00",
    "o": 95.124,
    "h": 95.216,
    "l": 95.1,
    "c": 95.16,
    "v": 1141
  },
  {
    "dt": "2023.09.18 08:00",
    "o": 95.162,
    "h": 95.195,
    "l": 95.1,
    "c": 95.129,
    "v": 1454
  },
  {
    "dt": "2023.09.18 09:00",
    "o": 95.13,
    "h": 95.193,
    "l": 95.022,
    "c": 95.134,
    "v": 2604
  },
  {
    "dt": "2023.09.18 10:00",
    "o": 95.128,
    "h": 95.194,
    "l": 95.049,
    "c": 95.089,
    "v": 3198
  },
  {
    "dt": "2023.09.18 11:00",
    "o": 95.088,
    "h": 95.088,
    "l": 94.984,
    "c": 95.037,
    "v": 2775
  },
  {
    "dt": "2023.09.18 12:00",
    "o": 95.038,
    "h": 95.081,
    "l": 95.0,
    "c": 95.029,
    "v": 2493
  },
  {
    "dt": "2023.09.18 13:00",
    "o": 95.03,
    "h": 95.091,
    "l": 95.005,
    "c": 95.066,
    "v": 2248
  },
  {
    "dt": "2023.09.18 14:00",
    "o": 95.066,
    "h": 95.079,
    "l": 94.934,
    "c": 94.983,
    "v": 2478
  },
  {
    "dt": "2023.09.18 15:00",
    "o": 94.981,
    "h": 95.051,
    "l": 94.964,
    "c": 94.981,
    "v": 2928
  },
  {
    "dt": "2023.09.18 16:00",
    "o": 94.981,
    "h": 95.084,
    "l": 94.869,
    "c": 94.918,
    "v": 3533
  },
  {
    "dt": "2023.09.18 17:00",
    "o": 94.916,
    "h": 95.067,
    "l": 94.779,
    "c": 94.931,
    "v": 3529
  },
  {
    "dt": "2023.09.18 18:00",
    "o": 94.929,
    "h": 95.13,
    "l": 94.921,
    "c": 95.079,
    "v": 2779
  },
  {
    "dt": "2023.09.18 19:00",
    "o": 95.083,
    "h": 95.114,
    "l": 95.029,
    "c": 95.033,
    "v": 2397
  },
  {
    "dt": "2023.09.18 20:00",
    "o": 95.038,
    "h": 95.096,
    "l": 95.03,
    "c": 95.032,
    "v": 1867
  },
  {
    "dt": "2023.09.18 21:00",
    "o": 95.032,
    "h": 95.066,
    "l": 95.013,
    "c": 95.049,
    "v": 1480
  },
  {
    "dt": "2023.09.18 22:00",
    "o": 95.053,
    "h": 95.057,
    "l": 94.965,
    "c": 95.002,
    "v": 1503
  },
  {
    "dt": "2023.09.18 23:00",
    "o": 95.006,
    "h": 95.039,
    "l": 94.982,
    "c": 94.989,
    "v": 861
  },
  {
    "dt": "2023.09.19 00:00",
    "o": 94.984,
    "h": 95.009,
    "l": 94.936,
    "c": 94.993,
    "v": 807
  },
  {
    "dt": "2023.09.19 01:00",
    "o": 94.982,
    "h": 95.014,
    "l": 94.968,
    "c": 95.013,
    "v": 1062
  },
  {
    "dt": "2023.09.19 02:00",
    "o": 95.023,
    "h": 95.056,
    "l": 94.995,
    "c": 95.045,
    "v": 1131
  },
  {
    "dt": "2023.09.19 03:00",
    "o": 95.049,
    "h": 95.2,
    "l": 95.007,
    "c": 95.021,
    "v": 2064
  },
  {
    "dt": "2023.09.19 04:00",
    "o": 95.018,
    "h": 95.124,
    "l": 94.989,
    "c": 94.991,
    "v": 2272
  },
  {
    "dt": "2023.09.19 05:00",
    "o": 94.99,
    "h": 95.055,
    "l": 94.966,
    "c": 95.025,
    "v": 1789
  },
  {
    "dt": "2023.09.19 06:00",
    "o": 95.028,
    "h": 95.108,
    "l": 95.026,
    "c": 95.083,
    "v": 1454
  },
  {
    "dt": "2023.09.19 07:00",
    "o": 95.084,
    "h": 95.142,
    "l": 95.074,
    "c": 95.107,
    "v": 1587
  },
  {
    "dt": "2023.09.19 08:00",
    "o": 95.108,
    "h": 95.134,
    "l": 94.993,
    "c": 95.049,
    "v": 1596
  },
  {
    "dt": "2023.09.19 09:00",
    "o": 95.041,
    "h": 95.114,
    "l": 95.015,
    "c": 95.041,
    "v": 2015
  },
  {
    "dt": "2023.09.19 10:00",
    "o": 95.04,
    "h": 95.276,
    "l": 95.021,
    "c": 95.259,
    "v": 2908
  },
  {
    "dt": "2023.09.19 11:00",
    "o": 95.254,
    "h": 95.364,
    "l": 95.222,
    "c": 95.273,
    "v": 3029
  },
  {
    "dt": "2023.09.19 12:00",
    "o": 95.27,
    "h": 95.35,
    "l": 95.209,
    "c": 95.334,
    "v": 2613
  },
  {
    "dt": "2023.09.19 13:00",
    "o": 95.336,
    "h": 95.417,
    "l": 95.322,
    "c": 95.347,
    "v": 2704
  },
  {
    "dt": "2023.09.19 14:00",
    "o": 95.35,
    "h": 95.472,
    "l": 95.333,
    "c": 95.472,
    "v": 3098
  },
  {
    "dt": "2023.09.19 15:00",
    "o": 95.462,
    "h": 95.614,
    "l": 95.46,
    "c": 95.612,
    "v": 4326
  },
  {
    "dt": "2023.09.19 16:00",
    "o": 95.61,
    "h": 95.627,
    "l": 95.43,
    "c": 95.488,
    "v": 5043
  },
  {
    "dt": "2023.09.19 17:00",
    "o": 95.482,
    "h": 95.526,
    "l": 95.418,
    "c": 95.503,
    "v": 4363
  },
  {
    "dt": "2023.09.19 18:00",
    "o": 95.506,
    "h": 95.516,
    "l": 95.37,
    "c": 95.43,
    "v": 3696
  },
  {
    "dt": "2023.09.19 19:00",
    "o": 95.429,
    "h": 95.436,
    "l": 95.381,
    "c": 95.413,
    "v": 2664
  },
  {
    "dt": "2023.09.19 20:00",
    "o": 95.411,
    "h": 95.488,
    "l": 95.391,
    "c": 95.47,
    "v": 2754
  },
  {
    "dt": "2023.09.19 21:00",
    "o": 95.471,
    "h": 95.527,
    "l": 95.442,
    "c": 95.448,
    "v": 2753
  },
  {
    "dt": "2023.09.19 22:00",
    "o": 95.441,
    "h": 95.478,
    "l": 95.422,
    "c": 95.426,
    "v": 2283
  },
  {
    "dt": "2023.09.19 23:00",
    "o": 95.424,
    "h": 95.431,
    "l": 95.385,
    "c": 95.413,
    "v": 1071
  },
  {
    "dt": "2023.09.20 00:00",
    "o": 95.394,
    "h": 95.43,
    "l": 95.338,
    "c": 95.362,
    "v": 1129
  },
  {
    "dt": "2023.09.20 01:00",
    "o": 95.376,
    "h": 95.398,
    "l": 95.361,
    "c": 95.37,
    "v": 1046
  },
  {
    "dt": "2023.09.20 02:00",
    "o": 95.386,
    "h": 95.511,
    "l": 95.358,
    "c": 95.506,
    "v": 1525
  },
  {
    "dt": "2023.09.20 03:00",
    "o": 95.505,
    "h": 95.516,
    "l": 95.381,
    "c": 95.381,
    "v": 2911
  },
  {
    "dt": "2023.09.20 04:00",
    "o": 95.379,
    "h": 95.419,
    "l": 95.319,
    "c": 95.375,
    "v": 3824
  },
  {
    "dt": "2023.09.20 05:00",
    "o": 95.374,
    "h": 95.42,
    "l": 95.342,
    "c": 95.354,
    "v": 2238
  },
  {
    "dt": "2023.09.20 06:00",
    "o": 95.353,
    "h": 95.422,
    "l": 95.292,
    "c": 95.318,
    "v": 2258
  },
  {
    "dt": "2023.09.20 07:00",
    "o": 95.313,
    "h": 95.374,
    "l": 95.308,
    "c": 95.35,
    "v": 1902
  },
  {
    "dt": "2023.09.20 08:00",
    "o": 95.348,
    "h": 95.475,
    "l": 95.328,
    "c": 95.445,
    "v": 2566
  },
  {
    "dt": "2023.09.20 09:00",
    "o": 95.445,
    "h": 95.593,
    "l": 95.382,
    "c": 95.495,
    "v": 4458
  },
  {
    "dt": "2023.09.20 10:00",
    "o": 95.498,
    "h": 95.71,
    "l": 95.48,
    "c": 95.698,
    "v": 4802
  },
  {
    "dt": "2023.09.20 11:00",
    "o": 95.7,
    "h": 95.742,
    "l": 95.609,
    "c": 95.742,
    "v": 4129
  },
  {
    "dt": "2023.09.20 12:00",
    "o": 95.746,
    "h": 95.761,
    "l": 95.673,
    "c": 95.726,
    "v": 3123
  },
  {
    "dt": "2023.09.20 13:00",
    "o": 95.728,
    "h": 95.824,
    "l": 95.72,
    "c": 95.802,
    "v": 4141
  },
  {
    "dt": "2023.09.20 14:00",
    "o": 95.805,
    "h": 95.944,
    "l": 95.792,
    "c": 95.907,
    "v": 3181
  },
  {
    "dt": "2023.09.20 15:00",
    "o": 95.907,
    "h": 95.935,
    "l": 95.861,
    "c": 95.887,
    "v": 3865
  },
  {
    "dt": "2023.09.20 16:00",
    "o": 95.886,
    "h": 95.991,
    "l": 95.814,
    "c": 95.964,
    "v": 4592
  },
  {
    "dt": "2023.09.20 17:00",
    "o": 95.963,
    "h": 96.017,
    "l": 95.869,
    "c": 95.947,
    "v": 4757
  },
  {
    "dt": "2023.09.20 18:00",
    "o": 95.944,
    "h": 96.03,
    "l": 95.921,
    "c": 95.992,
    "v": 3608
  },
  {
    "dt": "2023.09.20 19:00",
    "o": 95.995,
    "h": 96.056,
    "l": 95.982,
    "c": 96.043,
    "v": 3735
  },
  {
    "dt": "2023.09.20 20:00",
    "o": 96.046,
    "h": 96.05,
    "l": 95.89,
    "c": 95.93,
    "v": 3614
  },
  {
    "dt": "2023.09.20 21:00",
    "o": 95.95,
    "h": 96.012,
    "l": 95.633,
    "c": 95.776,
    "v": 8569
  },
  {
    "dt": "2023.09.20 22:00",
    "o": 95.776,
    "h": 95.796,
    "l": 95.495,
    "c": 95.505,
    "v": 5444
  },
  {
    "dt": "2023.09.20 23:00",
    "o": 95.507,
    "h": 95.644,
    "l": 95.481,
    "c": 95.639,
    "v": 2123
  },
  {
    "dt": "2023.09.21 00:00",
    "o": 95.512,
    "h": 95.573,
    "l": 95.442,
    "c": 95.537,
    "v": 973
  },
  {
    "dt": "2023.09.21 01:00",
    "o": 95.538,
    "h": 95.664,
    "l": 95.52,
    "c": 95.647,
    "v": 1608
  },
  {
    "dt": "2023.09.21 02:00",
    "o": 95.602,
    "h": 95.618,
    "l": 95.431,
    "c": 95.448,
    "v": 2006
  },
  {
    "dt": "2023.09.21 03:00",
    "o": 95.442,
    "h": 95.549,
    "l": 95.279,
    "c": 95.328,
    "v": 4132
  },
  {
    "dt": "2023.09.21 04:00",
    "o": 95.327,
    "h": 95.374,
    "l": 95.21,
    "c": 95.224,
    "v": 4359
  },
  {
    "dt": "2023.09.21 05:00",
    "o": 95.217,
    "h": 95.266,
    "l": 94.934,
    "c": 94.99,
    "v": 3627
  },
  {
    "dt": "2023.09.21 06:00",
    "o": 94.988,
    "h": 95.088,
    "l": 94.984,
    "c": 95.072,
    "v": 3098
  },
  {
    "dt": "2023.09.21 07:00",
    "o": 95.074,
    "h": 95.089,
    "l": 94.988,
    "c": 95.02,
    "v": 2455
  },
  {
    "dt": "2023.09.21 08:00",
    "o": 95.028,
    "h": 95.129,
    "l": 94.974,
    "c": 94.978,
    "v": 2728
  },
  {
    "dt": "2023.09.21 09:00",
    "o": 94.975,
    "h": 95.13,
    "l": 94.958,
    "c": 95.102,
    "v": 3692
  },
  {
    "dt": "2023.09.21 10:00",
    "o": 95.103,
    "h": 95.225,
    "l": 95.035,
    "c": 95.063,
    "v": 4751
  },
  {
    "dt": "2023.09.21 11:00",
    "o": 95.066,
    "h": 95.102,
    "l": 94.904,
    "c": 94.921,
    "v": 4322
  },
  {
    "dt": "2023.09.21 12:00",
    "o": 94.921,
    "h": 94.959,
    "l": 94.845,
    "c": 94.885,
    "v": 3500
  },
  {
    "dt": "2023.09.21 13:00",
    "o": 94.887,
    "h": 94.9,
    "l": 94.671,
    "c": 94.673,
    "v": 4254
  },
  {
    "dt": "2023.09.21 14:00",
    "o": 94.671,
    "h": 94.774,
    "l": 94.605,
    "c": 94.689,
    "v": 5206
  },
  {
    "dt": "2023.09.21 15:00",
    "o": 94.689,
    "h": 94.718,
    "l": 94.473,
    "c": 94.697,
    "v": 5072
  },
  {
    "dt": "2023.09.21 16:00",
    "o": 94.707,
    "h": 94.829,
    "l": 94.586,
    "c": 94.591,
    "v": 6333
  },
  {
    "dt": "2023.09.21 17:00",
    "o": 94.585,
    "h": 94.739,
    "l": 94.569,
    "c": 94.613,
    "v": 5954
  },
  {
    "dt": "2023.09.21 18:00",
    "o": 94.614,
    "h": 94.714,
    "l": 94.584,
    "c": 94.651,
    "v": 4713
  },
  {
    "dt": "2023.09.21 19:00",
    "o": 94.65,
    "h": 94.714,
    "l": 94.606,
    "c": 94.661,
    "v": 4097
  },
  {
    "dt": "2023.09.21 20:00",
    "o": 94.661,
    "h": 94.839,
    "l": 94.652,
    "c": 94.815,
    "v": 4088
  },
  {
    "dt": "2023.09.21 21:00",
    "o": 94.816,
    "h": 94.816,
    "l": 94.668,
    "c": 94.683,
    "v": 3700
  },
  {
    "dt": "2023.09.21 22:00",
    "o": 94.682,
    "h": 94.71,
    "l": 94.626,
    "c": 94.638,
    "v": 2286
  },
  {
    "dt": "2023.09.21 23:00",
    "o": 94.638,
    "h": 94.665,
    "l": 94.597,
    "c": 94.649,
    "v": 1432
  },
  {
    "dt": "2023.09.22 00:00",
    "o": 94.662,
    "h": 94.662,
    "l": 94.575,
    "c": 94.643,
    "v": 593
  },
  {
    "dt": "2023.09.22 01:00",
    "o": 94.625,
    "h": 94.708,
    "l": 94.625,
    "c": 94.672,
    "v": 1015
  },
  {
    "dt": "2023.09.22 02:00",
    "o": 94.678,
    "h": 94.691,
    "l": 94.594,
    "c": 94.62,
    "v": 1660
  },
  {
    "dt": "2023.09.22 03:00",
    "o": 94.621,
    "h": 94.67,
    "l": 94.532,
    "c": 94.626,
    "v": 3119
  },
  {
    "dt": "2023.09.22 04:00",
    "o": 94.626,
    "h": 94.78,
    "l": 94.535,
    "c": 94.756,
    "v": 4065
  },
  {
    "dt": "2023.09.22 05:00",
    "o": 94.767,
    "h": 95.076,
    "l": 94.736,
    "c": 94.989,
    "v": 4039
  },
  {
    "dt": "2023.09.22 06:00",
    "o": 94.985,
    "h": 95.185,
    "l": 94.936,
    "c": 95.124,
    "v": 3630
  },
  {
    "dt": "2023.09.22 07:00",
    "o": 95.126,
    "h": 95.233,
    "l": 95.025,
    "c": 95.1,
    "v": 2872
  },
  {
    "dt": "2023.09.22 08:00",
    "o": 95.104,
    "h": 95.152,
    "l": 95.067,
    "c": 95.126,
    "v": 2967
  },
  {
    "dt": "2023.09.22 09:00",
    "o": 95.13,
    "h": 95.322,
    "l": 95.117,
    "c": 95.274,
    "v": 4596
  },
  {
    "dt": "2023.09.22 10:00",
    "o": 95.271,
    "h": 95.404,
    "l": 95.136,
    "c": 95.363,
    "v": 5825
  },
  {
    "dt": "2023.09.22 11:00",
    "o": 95.37,
    "h": 95.5,
    "l": 95.35,
    "c": 95.454,
    "v": 4693
  },
  {
    "dt": "2023.09.22 12:00",
    "o": 95.453,
    "h": 95.504,
    "l": 95.388,
    "c": 95.491,
    "v": 3772
  },
  {
    "dt": "2023.09.22 13:00",
    "o": 95.494,
    "h": 95.552,
    "l": 95.444,
    "c": 95.512,
    "v": 3638
  },
  {
    "dt": "2023.09.22 14:00",
    "o": 95.508,
    "h": 95.675,
    "l": 95.502,
    "c": 95.636,
    "v": 3642
  },
  {
    "dt": "2023.09.22 15:00",
    "o": 95.637,
    "h": 95.772,
    "l": 95.596,
    "c": 95.722,
    "v": 4577
  },
  {
    "dt": "2023.09.22 16:00",
    "o": 95.724,
    "h": 95.816,
    "l": 95.62,
    "c": 95.679,
    "v": 5617
  },
  {
    "dt": "2023.09.22 17:00",
    "o": 95.678,
    "h": 95.771,
    "l": 95.576,
    "c": 95.668,
    "v": 5693
  },
  {
    "dt": "2023.09.22 18:00",
    "o": 95.663,
    "h": 95.694,
    "l": 95.521,
    "c": 95.616,
    "v": 4295
  },
  {
    "dt": "2023.09.22 19:00",
    "o": 95.614,
    "h": 95.678,
    "l": 95.59,
    "c": 95.626,
    "v": 3757
  },
  {
    "dt": "2023.09.22 20:00",
    "o": 95.626,
    "h": 95.653,
    "l": 95.485,
    "c": 95.535,
    "v": 3732
  },
  {
    "dt": "2023.09.22 21:00",
    "o": 95.532,
    "h": 95.595,
    "l": 95.485,
    "c": 95.58,
    "v": 3076
  },
  {
    "dt": "2023.09.22 22:00",
    "o": 95.579,
    "h": 95.67,
    "l": 95.538,
    "c": 95.567,
    "v": 3205
  },
  {
    "dt": "2023.09.22 23:00",
    "o": 95.568,
    "h": 95.589,
    "l": 95.527,
    "c": 95.546,
    "v": 1271
  },
  {
    "dt": "2023.09.25 00:00",
    "o": 95.51,
    "h": 95.52,
    "l": 95.407,
    "c": 95.51,
    "v": 206
  },
  {
    "dt": "2023.09.25 01:00",
    "o": 95.512,
    "h": 95.599,
    "l": 95.488,
    "c": 95.56,
    "v": 1390
  },
  {
    "dt": "2023.09.25 02:00",
    "o": 95.548,
    "h": 95.622,
    "l": 95.528,
    "c": 95.589,
    "v": 1736
  },
  {
    "dt": "2023.09.25 03:00",
    "o": 95.596,
    "h": 95.672,
    "l": 95.552,
    "c": 95.569,
    "v": 3574
  },
  {
    "dt": "2023.09.25 04:00",
    "o": 95.57,
    "h": 95.612,
    "l": 95.374,
    "c": 95.374,
    "v": 2962
  },
  {
    "dt": "2023.09.25 05:00",
    "o": 95.358,
    "h": 95.39,
    "l": 95.278,
    "c": 95.358,
    "v": 2811
  },
  {
    "dt": "2023.09.25 06:00",
    "o": 95.358,
    "h": 95.368,
    "l": 95.291,
    "c": 95.31,
    "v": 2451
  },
  {
    "dt": "2023.09.25 07:00",
    "o": 95.309,
    "h": 95.388,
    "l": 95.301,
    "c": 95.341,
    "v": 1993
  },
  {
    "dt": "2023.09.25 08:00",
    "o": 95.327,
    "h": 95.363,
    "l": 95.167,
    "c": 95.191,
    "v": 2733
  },
  {
    "dt": "2023.09.25 09:00",
    "o": 95.192,
    "h": 95.339,
    "l": 95.186,
    "c": 95.332,
    "v": 2952
  },
  {
    "dt": "2023.09.25 10:00",
    "o": 95.331,
    "h": 95.38,
    "l": 95.267,
    "c": 95.317,
    "v": 2999
  },
  {
    "dt": "2023.09.25 11:00",
    "o": 95.318,
    "h": 95.37,
    "l": 95.245,
    "c": 95.297,
    "v": 3365
  },
  {
    "dt": "2023.09.25 12:00",
    "o": 95.297,
    "h": 95.475,
    "l": 95.265,
    "c": 95.463,
    "v": 2833
  },
  {
    "dt": "2023.09.25 13:00",
    "o": 95.461,
    "h": 95.618,
    "l": 95.461,
    "c": 95.61,
    "v": 2612
  },
  {
    "dt": "2023.09.25 14:00",
    "o": 95.611,
    "h": 95.637,
    "l": 95.451,
    "c": 95.476,
    "v": 3040
  },
  {
    "dt": "2023.09.25 15:00",
    "o": 95.476,
    "h": 95.564,
    "l": 95.468,
    "c": 95.544,
    "v": 3622
  },
  {
    "dt": "2023.09.25 16:00",
    "o": 95.546,
    "h": 95.646,
    "l": 95.456,
    "c": 95.638,
    "v": 4457
  },
  {
    "dt": "2023.09.25 17:00",
    "o": 95.637,
    "h": 95.702,
    "l": 95.364,
    "c": 95.378,
    "v": 4624
  },
  {
    "dt": "2023.09.25 18:00",
    "o": 95.38,
    "h": 95.536,
    "l": 95.365,
    "c": 95.468,
    "v": 3814
  },
  {
    "dt": "2023.09.25 19:00",
    "o": 95.469,
    "h": 95.565,
    "l": 95.43,
    "c": 95.533,
    "v": 3789
  },
  {
    "dt": "2023.09.25 20:00",
    "o": 95.528,
    "h": 95.591,
    "l": 95.508,
    "c": 95.57,
    "v": 3304
  },
  {
    "dt": "2023.09.25 21:00",
    "o": 95.571,
    "h": 95.614,
    "l": 95.534,
    "c": 95.547,
    "v": 3784
  },
  {
    "dt": "2023.09.25 22:00",
    "o": 95.546,
    "h": 95.592,
    "l": 95.495,
    "c": 95.589,
    "v": 3516
  },
  {
    "dt": "2023.09.25 23:00",
    "o": 95.595,
    "h": 95.635,
    "l": 95.585,
    "c": 95.623,
    "v": 1682
  },
  {
    "dt": "2023.09.26 00:00",
    "o": 95.499,
    "h": 95.591,
    "l": 95.467,
    "c": 95.58,
    "v": 779
  },
  {
    "dt": "2023.09.26 01:00",
    "o": 95.582,
    "h": 95.614,
    "l": 95.539,
    "c": 95.564,
    "v": 1331
  },
  {
    "dt": "2023.09.26 02:00",
    "o": 95.573,
    "h": 95.603,
    "l": 95.534,
    "c": 95.561,
    "v": 1669
  },
  {
    "dt": "2023.09.26 03:00",
    "o": 95.561,
    "h": 95.598,
    "l": 95.423,
    "c": 95.553,
    "v": 3322
  },
  {
    "dt": "2023.09.26 04:00",
    "o": 95.558,
    "h": 95.718,
    "l": 95.528,
    "c": 95.691,
    "v": 3382
  },
  {
    "dt": "2023.09.26 05:00",
    "o": 95.691,
    "h": 95.761,
    "l": 95.594,
    "c": 95.594,
    "v": 3001
  },
  {
    "dt": "2023.09.26 06:00",
    "o": 95.592,
    "h": 95.647,
    "l": 95.494,
    "c": 95.542,
    "v": 2787
  },
  {
    "dt": "2023.09.26 07:00",
    "o": 95.545,
    "h": 95.569,
    "l": 95.502,
    "c": 95.533,
    "v": 2334
  },
  {
    "dt": "2023.09.26 08:00",
    "o": 95.539,
    "h": 95.57,
    "l": 95.409,
    "c": 95.531,
    "v": 2886
  },
  {
    "dt": "2023.09.26 09:00",
    "o": 95.532,
    "h": 95.585,
    "l": 95.375,
    "c": 95.403,
    "v": 3492
  },
  {
    "dt": "2023.09.26 10:00",
    "o": 95.403,
    "h": 95.473,
    "l": 95.211,
    "c": 95.331,
    "v": 4923
  },
  {
    "dt": "2023.09.26 11:00",
    "o": 95.327,
    "h": 95.466,
    "l": 95.286,
    "c": 95.4,
    "v": 4704
  },
  {
    "dt": "2023.09.26 12:00",
    "o": 95.402,
    "h": 95.511,
    "l": 95.362,
    "c": 95.42,
    "v": 3858
  },
  {
    "dt": "2023.09.26 13:00",
    "o": 95.419,
    "h": 95.456,
    "l": 95.331,
    "c": 95.353,
    "v": 3084
  },
  {
    "dt": "2023.09.26 14:00",
    "o": 95.352,
    "h": 95.438,
    "l": 95.3,
    "c": 95.376,
    "v": 3354
  },
  {
    "dt": "2023.09.26 15:00",
    "o": 95.377,
    "h": 95.507,
    "l": 95.374,
    "c": 95.476,
    "v": 3906
  },
  {
    "dt": "2023.09.26 16:00",
    "o": 95.472,
    "h": 95.598,
    "l": 95.437,
    "c": 95.491,
    "v": 4930
  },
  {
    "dt": "2023.09.26 17:00",
    "o": 95.515,
    "h": 95.576,
    "l": 95.374,
    "c": 95.491,
    "v": 5317
  },
  {
    "dt": "2023.09.26 18:00",
    "o": 95.49,
    "h": 95.506,
    "l": 95.305,
    "c": 95.341,
    "v": 4318
  },
  {
    "dt": "2023.09.26 19:00",
    "o": 95.351,
    "h": 95.425,
    "l": 95.329,
    "c": 95.397,
    "v": 3976
  },
  {
    "dt": "2023.09.26 20:00",
    "o": 95.396,
    "h": 95.442,
    "l": 95.287,
    "c": 95.328,
    "v": 3537
  },
  {
    "dt": "2023.09.26 21:00",
    "o": 95.323,
    "h": 95.323,
    "l": 95.231,
    "c": 95.303,
    "v": 2861
  },
  {
    "dt": "2023.09.26 22:00",
    "o": 95.303,
    "h": 95.356,
    "l": 95.259,
    "c": 95.306,
    "v": 2888
  },
  {
    "dt": "2023.09.26 23:00",
    "o": 95.303,
    "h": 95.363,
    "l": 95.283,
    "c": 95.335,
    "v": 1562
  },
  {
    "dt": "2023.09.27 00:00",
    "o": 95.31,
    "h": 95.329,
    "l": 95.274,
    "c": 95.283,
    "v": 630
  },
  {
    "dt": "2023.09.27 01:00",
    "o": 95.277,
    "h": 95.339,
    "l": 95.268,
    "c": 95.339,
    "v": 1092
  },
  {
    "dt": "2023.09.27 02:00",
    "o": 95.326,
    "h": 95.332,
    "l": 95.23,
    "c": 95.287,
    "v": 1293
  },
  {
    "dt": "2023.09.27 03:00",
    "o": 95.289,
    "h": 95.41,
    "l": 95.173,
    "c": 95.237,
    "v": 3032
  },
  {
    "dt": "2023.09.27 04:00",
    "o": 95.238,
    "h": 95.452,
    "l": 95.218,
    "c": 95.36,
    "v": 3610
  },
  {
    "dt": "2023.09.27 05:00",
    "o": 95.36,
    "h": 95.393,
    "l": 95.169,
    "c": 95.202,
    "v": 3013
  },
  {
    "dt": "2023.09.27 06:00",
    "o": 95.199,
    "h": 95.208,
    "l": 95.077,
    "c": 95.089,
    "v": 2650
  },
  {
    "dt": "2023.09.27 07:00",
    "o": 95.087,
    "h": 95.159,
    "l": 95.036,
    "c": 95.108,
    "v": 2477
  },
  {
    "dt": "2023.09.27 08:00",
    "o": 95.107,
    "h": 95.14,
    "l": 95.05,
    "c": 95.086,
    "v": 2842
  },
  {
    "dt": "2023.09.27 09:00",
    "o": 95.084,
    "h": 95.187,
    "l": 95.004,
    "c": 95.105,
    "v": 3032
  },
  {
    "dt": "2023.09.27 10:00",
    "o": 95.103,
    "h": 95.144,
    "l": 95.05,
    "c": 95.06,
    "v": 3145
  },
  {
    "dt": "2023.09.27 11:00",
    "o": 95.062,
    "h": 95.142,
    "l": 95.03,
    "c": 95.111,
    "v": 2779
  },
  {
    "dt": "2023.09.27 12:00",
    "o": 95.109,
    "h": 95.129,
    "l": 95.031,
    "c": 95.081,
    "v": 2771
  },
  {
    "dt": "2023.09.27 13:00",
    "o": 95.082,
    "h": 95.112,
    "l": 95.02,
    "c": 95.02,
    "v": 2566
  },
  {
    "dt": "2023.09.27 14:00",
    "o": 95.016,
    "h": 95.075,
    "l": 94.906,
    "c": 94.979,
    "v": 3131
  },
  {
    "dt": "2023.09.27 15:00",
    "o": 94.975,
    "h": 95.144,
    "l": 94.968,
    "c": 95.11,
    "v": 4152
  },
  {
    "dt": "2023.09.27 16:00",
    "o": 95.112,
    "h": 95.287,
    "l": 95.077,
    "c": 95.282,
    "v": 4563
  },
  {
    "dt": "2023.09.27 17:00",
    "o": 95.283,
    "h": 95.413,
    "l": 95.173,
    "c": 95.309,
    "v": 5176
  },
  {
    "dt": "2023.09.27 18:00",
    "o": 95.308,
    "h": 95.399,
    "l": 95.155,
    "c": 95.164,
    "v": 4333
  },
  {
    "dt": "2023.09.27 19:00",
    "o": 95.163,
    "h": 95.164,
    "l": 95.047,
    "c": 95.075,
    "v": 4233
  },
  {
    "dt": "2023.09.27 20:00",
    "o": 95.07,
    "h": 95.085,
    "l": 94.71,
    "c": 94.871,
    "v": 5077
  },
  {
    "dt": "2023.09.27 21:00",
    "o": 94.87,
    "h": 95.072,
    "l": 94.806,
    "c": 95.033,
    "v": 4522
  },
  {
    "dt": "2023.09.27 22:00",
    "o": 95.032,
    "h": 95.167,
    "l": 94.964,
    "c": 95.034,
    "v": 4668
  },
  {
    "dt": "2023.09.27 23:00",
    "o": 95.028,
    "h": 95.066,
    "l": 94.976,
    "c": 95.049,
    "v": 1853
  },
  {
    "dt": "2023.09.28 00:00",
    "o": 94.965,
    "h": 94.973,
    "l": 94.807,
    "c": 94.912,
    "v": 1000
  },
  {
    "dt": "2023.09.28 01:00",
    "o": 94.895,
    "h": 94.965,
    "l": 94.869,
    "c": 94.869,
    "v": 1847
  },
  {
    "dt": "2023.09.28 02:00",
    "o": 94.867,
    "h": 94.93,
    "l": 94.808,
    "c": 94.876,
    "v": 2225
  },
  {
    "dt": "2023.09.28 03:00",
    "o": 94.877,
    "h": 95.066,
    "l": 94.857,
    "c": 95.033,
    "v": 3985
  },
  {
    "dt": "2023.09.28 04:00",
    "o": 95.033,
    "h": 95.21,
    "l": 95.026,
    "c": 95.204,
    "v": 4116
  },
  {
    "dt": "2023.09.28 05:00",
    "o": 95.214,
    "h": 95.214,
    "l": 95.082,
    "c": 95.097,
    "v": 3279
  },
  {
    "dt": "2023.09.28 06:00",
    "o": 95.093,
    "h": 95.251,
    "l": 95.082,
    "c": 95.199,
    "v": 2888
  },
  {
    "dt": "2023.09.28 07:00",
    "o": 95.195,
    "h": 95.195,
    "l": 95.043,
    "c": 95.184,
    "v": 2953
  },
  {
    "dt": "2023.09.28 08:00",
    "o": 95.189,
    "h": 95.258,
    "l": 95.162,
    "c": 95.211,
    "v": 2903
  },
  {
    "dt": "2023.09.28 09:00",
    "o": 95.22,
    "h": 95.226,
    "l": 95.088,
    "c": 95.121,
    "v": 3345
  },
  {
    "dt": "2023.09.28 10:00",
    "o": 95.13,
    "h": 95.171,
    "l": 95.04,
    "c": 95.07,
    "v": 4295
  },
  {
    "dt": "2023.09.28 11:00",
    "o": 95.065,
    "h": 95.307,
    "l": 95.017,
    "c": 95.245,
    "v": 3645
  },
  {
    "dt": "2023.09.28 12:00",
    "o": 95.245,
    "h": 95.348,
    "l": 95.102,
    "c": 95.317,
    "v": 3717
  },
  {
    "dt": "2023.09.28 13:00",
    "o": 95.318,
    "h": 95.418,
    "l": 95.245,
    "c": 95.41,
    "v": 2890
  },
  {
    "dt": "2023.09.28 14:00",
    "o": 95.418,
    "h": 95.472,
    "l": 95.347,
    "c": 95.426,
    "v": 3165
  },
  {
    "dt": "2023.09.28 15:00",
    "o": 95.411,
    "h": 95.528,
    "l": 95.374,
    "c": 95.459,
    "v": 5294
  },
  {
    "dt": "2023.09.28 16:00",
    "o": 95.462,
    "h": 95.555,
    "l": 95.421,
    "c": 95.507,
    "v": 5824
  },
  {
    "dt": "2023.09.28 17:00",
    "o": 95.509,
    "h": 95.796,
    "l": 95.49,
    "c": 95.758,
    "v": 5611
  },
  {
    "dt": "2023.09.28 18:00",
    "o": 95.759,
    "h": 95.849,
    "l": 95.682,
    "c": 95.822,
    "v": 4416
  },
  {
    "dt": "2023.09.28 19:00",
    "o": 95.82,
    "h": 95.959,
    "l": 95.798,
    "c": 95.857,
    "v": 4520
  },
  {
    "dt": "2023.09.28 20:00",
    "o": 95.855,
    "h": 95.914,
    "l": 95.82,
    "c": 95.85,
    "v": 4948
  },
  {
    "dt": "2023.09.28 21:00",
    "o": 95.851,
    "h": 95.883,
    "l": 95.759,
    "c": 95.828,
    "v": 4393
  },
  {
    "dt": "2023.09.28 22:00",
    "o": 95.82,
    "h": 95.885,
    "l": 95.777,
    "c": 95.845,
    "v": 3485
  },
  {
    "dt": "2023.09.28 23:00",
    "o": 95.847,
    "h": 95.94,
    "l": 95.827,
    "c": 95.933,
    "v": 2115
  },
  {
    "dt": "2023.09.29 00:00",
    "o": 95.8,
    "h": 95.941,
    "l": 95.8,
    "c": 95.906,
    "v": 355
  },
  {
    "dt": "2023.09.29 01:00",
    "o": 95.901,
    "h": 95.951,
    "l": 95.886,
    "c": 95.931,
    "v": 1313
  },
  {
    "dt": "2023.09.29 02:00",
    "o": 95.933,
    "h": 95.96,
    "l": 95.905,
    "c": 95.946,
    "v": 1256
  },
  {
    "dt": "2023.09.29 03:00",
    "o": 95.943,
    "h": 95.998,
    "l": 95.909,
    "c": 95.936,
    "v": 2362
  },
  {
    "dt": "2023.09.29 04:00",
    "o": 95.935,
    "h": 96.218,
    "l": 95.921,
    "c": 96.194,
    "v": 2614
  },
  {
    "dt": "2023.09.29 05:00",
    "o": 96.191,
    "h": 96.493,
    "l": 96.187,
    "c": 96.491,
    "v": 2928
  },
  {
    "dt": "2023.09.29 06:00",
    "o": 96.492,
    "h": 96.504,
    "l": 96.364,
    "c": 96.442,
    "v": 2166
  },
  {
    "dt": "2023.09.29 07:00",
    "o": 96.433,
    "h": 96.489,
    "l": 96.411,
    "c": 96.425,
    "v": 2056
  },
  {
    "dt": "2023.09.29 08:00",
    "o": 96.426,
    "h": 96.471,
    "l": 96.262,
    "c": 96.262,
    "v": 2346
  },
  {
    "dt": "2023.09.29 09:00",
    "o": 96.263,
    "h": 96.428,
    "l": 96.263,
    "c": 96.36,
    "v": 4381
  },
  {
    "dt": "2023.09.29 10:00",
    "o": 96.362,
    "h": 96.382,
    "l": 96.22,
    "c": 96.378,
    "v": 4413
  },
  {
    "dt": "2023.09.29 11:00",
    "o": 96.38,
    "h": 96.607,
    "l": 96.374,
    "c": 96.597,
    "v": 4028
  },
  {
    "dt": "2023.09.29 12:00",
    "o": 96.583,
    "h": 96.785,
    "l": 96.549,
    "c": 96.779,
    "v": 3619
  },
  {
    "dt": "2023.09.29 13:00",
    "o": 96.78,
    "h": 96.912,
    "l": 96.737,
    "c": 96.821,
    "v": 3160
  },
  {
    "dt": "2023.09.29 14:00",
    "o": 96.822,
    "h": 96.869,
    "l": 96.707,
    "c": 96.711,
    "v": 3712
  },
  {
    "dt": "2023.09.29 15:00",
    "o": 96.706,
    "h": 96.894,
    "l": 96.676,
    "c": 96.845,
    "v": 5275
  },
  {
    "dt": "2023.09.29 16:00",
    "o": 96.845,
    "h": 96.847,
    "l": 96.539,
    "c": 96.57,
    "v": 5923
  },
  {
    "dt": "2023.09.29 17:00",
    "o": 96.571,
    "h": 96.607,
    "l": 96.237,
    "c": 96.276,
    "v": 6519
  },
  {
    "dt": "2023.09.29 18:00",
    "o": 96.278,
    "h": 96.423,
    "l": 96.272,
    "c": 96.336,
    "v": 5627
  },
  {
    "dt": "2023.09.29 19:00",
    "o": 96.334,
    "h": 96.397,
    "l": 96.184,
    "c": 96.198,
    "v": 4219
  },
  {
    "dt": "2023.09.29 20:00",
    "o": 96.198,
    "h": 96.199,
    "l": 96.013,
    "c": 96.019,
    "v": 4193
  },
  {
    "dt": "2023.09.29 21:00",
    "o": 96.019,
    "h": 96.162,
    "l": 95.974,
    "c": 96.161,
    "v": 4517
  },
  {
    "dt": "2023.09.29 22:00",
    "o": 96.162,
    "h": 96.195,
    "l": 96.024,
    "c": 96.046,
    "v": 4809
  },
  {
    "dt": "2023.09.29 23:00",
    "o": 96.043,
    "h": 96.112,
    "l": 96.028,
    "c": 96.047,
    "v": 2254
  }
]