[
  {
    "dt": "2022.03.01 00:00",
    "o": 0.83534,
    "h": 0.83617,
    "l": 0.83483,
    "c": 0.83562,
    "v": 430
  },
  {
    "dt": "2022.03.01 01:00",
    "o": 0.83548,
    "h": 0.83594,
    "l": 0.83542,
    "c": 0.83542,
    "v": 871
  },
  {
    "dt": "2022.03.01 02:00",
    "o": 0.83542,
    "h": 0.83564,
    "l": 0.83514,
    "c": 0.83535,
    "v": 1289
  },
  {
    "dt": "2022.03.01 03:00",
    "o": 0.83535,
    "h": 0.83559,
    "l": 0.83476,
    "c": 0.83484,
    "v": 1357
  },
  {
    "dt": "2022.03.01 04:00",
    "o": 0.83483,
    "h": 0.83487,
    "l": 0.8344,
    "c": 0.83455,
    "v": 1192
  },
  {
    "dt": "2022.03.01 05:00",
    "o": 0.83455,
    "h": 0.83517,
    "l": 0.83454,
    "c": 0.83474,
    "v": 1053
  },
  {
    "dt": "2022.03.01 06:00",
    "o": 0.83474,
    "h": 0.83497,
    "l": 0.83462,
    "c": 0.8347,
    "v": 1188
  },
  {
    "dt": "2022.03.01 07:00",
    "o": 0.8347,
    "h": 0.83506,
    "l": 0.83427,
    "c": 0.83429,
    "v": 1714
  },
  {
    "dt": "2022.03.01 08:00",
    "o": 0.8343,
    "h": 0.83491,
    "l": 0.83422,
    "c": 0.83472,
    "v": 1807
  },
  {
    "dt": "2022.03.01 09:00",
    "o": 0.83474,
    "h": 0.83649,
    "l": 0.83451,
    "c": 0.83648,
    "v": 2513
  },
  {
    "dt": "2022.03.01 10:00",
    "o": 0.83647,
    "h": 0.83669,
    "l": 0.83516,
    "c": 0.83582,
    "v": 3274
  },
  {
    "dt": "2022.03.01 11:00",
    "o": 0.83578,
    "h": 0.83597,
    "l": 0.83362,
    "c": 0.8346,
    "v": 3523
  },
  {
    "dt": "2022.03.01 12:00",
    "o": 0.83462,
    "h": 0.83487,
    "l": 0.83341,
    "c": 0.83484,
    "v": 3799
  },
  {
    "dt": "2022.03.01 13:00",
    "o": 0.83485,
    "h": 0.83485,
    "l": 0.83265,
    "c": 0.83352,
    "v": 3676
  },
  {
    "dt": "2022.03.01 14:00",
    "o": 0.83352,
    "h": 0.8336,
    "l": 0.83253,
    "c": 0.83292,
    "v": 3089
  },
  {
    "dt": "2022.03.01 15:00",
    "o": 0.83295,
    "h": 0.83324,
    "l": 0.83206,
    "c": 0.83265,
    "v": 3736
  },
  {
    "dt": "2022.03.01 16:00",
    "o": 0.83266,
    "h": 0.83285,
    "l": 0.83154,
    "c": 0.83236,
    "v": 3804
  },
  {
    "dt": "2022.03.01 17:00",
    "o": 0.83233,
    "h": 0.83444,
    "l": 0.83211,
    "c": 0.83426,
    "v": 4641
  },
  {
    "dt": "2022.03.01 18:00",
    "o": 0.83424,
    "h": 0.83461,
    "l": 0.83304,
    "c": 0.83367,
    "v": 3990
  },
  {
    "dt": "2022.03.01 19:00",
    "o": 0.83367,
    "h": 0.8349,
    "l": 0.83319,
    "c": 0.83441,
    "v": 3732
  },
  {
    "dt": "2022.03.01 20:00",
    "o": 0.8344,
    "h": 0.83555,
    "l": 0.8341,
    "c": 0.83506,
    "v": 3393
  },
  {
    "dt": "2022.03.01 21:00",
    "o": 0.83506,
    "h": 0.83565,
    "l": 0.83475,
    "c": 0.83538,
    "v": 3062
  },
  {
    "dt": "2022.03.01 22:00",
    "o": 0.83536,
    "h": 0.83578,
    "l": 0.83512,
    "c": 0.83536,
    "v": 2559
  },
  {
    "dt": "2022.03.01 23:00",
    "o": 0.83531,
    "h": 0.8354,
    "l": 0.83455,
    "c": 0.83456,
    "v": 1383
  },
  {
    "dt": "2022.03.02 00:00",
    "o": 0.83467,
    "h": 0.83482,
    "l": 0.83401,
    "c": 0.83404,
    "v": 398
  },
  {
    "dt": "2022.03.02 01:00",
    "o": 0.83407,
    "h": 0.83504,
    "l": 0.83404,
    "c": 0.83469,
    "v": 1085
  },
  {
    "dt": "2022.03.02 02:00",
    "o": 0.83462,
    "h": 0.83515,
    "l": 0.83446,
    "c": 0.83514,
    "v": 1452
  },
  {
    "dt": "2022.03.02 03:00",
    "o": 0.83508,
    "h": 0.83508,
    "l": 0.83445,
    "c": 0.83465,
    "v": 1637
  },
  {
    "dt": "2022.03.02 04:00",
    "o": 0.83466,
    "h": 0.83485,
    "l": 0.83426,
    "c": 0.83481,
    "v": 1462
  },
  {
    "dt": "2022.03.02 05:00",
    "o": 0.83484,
    "h": 0.83513,
    "l": 0.83474,
    "c": 0.83474,
    "v": 1116
  },
  {
    "dt": "2022.03.02 06:00",
    "o": 0.83476,
    "h": 0.83546,
    "l": 0.83468,
    "c": 0.83546,
    "v": 936
  },
  {
    "dt": "2022.03.02 07:00",
    "o": 0.83546,
    "h": 0.83562,
    "l": 0.83522,
    "c": 0.83545,
    "v": 1178
  },
  {
    "dt": "2022.03.02 08:00",
    "o": 0.83545,
    "h": 0.83554,
    "l": 0.83485,
    "c": 0.83495,
    "v": 2062
  },
  {
    "dt": "2022.03.02 09:00",
    "o": 0.83496,
    "h": 0.83596,
    "l": 0.83444,
    "c": 0.83456,
    "v": 3619
  },
  {
    "dt": "2022.03.02 10:00",
    "o": 0.83459,
    "h": 0.83484,
    "l": 0.83331,
    "c": 0.83342,
    "v": 4156
  },
  {
    "dt": "2022.03.02 11:00",
    "o": 0.83339,
    "h": 0.83364,
    "l": 0.83232,
    "c": 0.83266,
    "v": 4165
  },
  {
    "dt": "2022.03.02 12:00",
    "o": 0.83266,
    "h": 0.8335,
    "l": 0.83205,
    "c": 0.8331,
    "v": 3686
  },
  {
    "dt": "2022.03.02 13:00",
    "o": 0.83313,
    "h": 0.83373,
    "l": 0.83174,
    "c": 0.83266,
    "v": 3505
  },
  {
    "dt": "2022.03.02 14:00",
    "o": 0.83256,
    "h": 0.83398,
    "l": 0.83237,
    "c": 0.8337,
    "v": 3443
  },
  {
    "dt": "2022.03.02 15:00",
    "o": 0.83371,
    "h": 0.83371,
    "l": 0.83186,
    "c": 0.83188,
    "v": 3777
  },
  {
    "dt": "2022.03.02 16:00",
    "o": 0.83189,
    "h": 0.83189,
    "l": 0.83048,
    "c": 0.83165,
    "v": 3886
  },
  {
    "dt": "2022.03.02 17:00",
    "o": 0.83163,
    "h": 0.83194,
    "l": 0.82986,
    "c": 0.83132,
    "v": 4748
  },
  {
    "dt": "2022.03.02 18:00",
    "o": 0.83126,
    "h": 0.83326,
    "l": 0.83059,
    "c": 0.83073,
    "v": 4881
  },
  {
    "dt": "2022.03.02 19:00",
    "o": 0.83072,
    "h": 0.83106,
    "l": 0.82939,
    "c": 0.83099,
    "v": 3122
  },
  {
    "dt": "2022.03.02 20:00",
    "o": 0.83098,
    "h": 0.83174,
    "l": 0.83071,
    "c": 0.8315,
    "v": 2523
  },
  {
    "dt": "2022.03.02 21:00",
    "o": 0.83149,
    "h": 0.83196,
    "l": 0.83128,
    "c": 0.8316,
    "v": 2295
  },
  {
    "dt": "2022.03.02 22:00",
    "o": 0.8316,
    "h": 0.83168,
    "l": 0.83021,
    "c": 0.83029,
    "v": 2031
  },
  {
    "dt": "2022.03.02 23:00",
    "o": 0.8303,
    "h": 0.83036,
    "l": 0.82941,
    "c": 0.82941,
    "v": 1145
  },
  {
    "dt": "2022.03.03 00:00",
    "o": 0.82907,
    "h": 0.82947,
    "l": 0.8289,
    "c": 0.82938,
    "v": 545
  },
  {
    "dt": "2022.03.03 01:00",
    "o": 0.82946,
    "h": 0.82968,
    "l": 0.82921,
    "c": 0.82945,
    "v": 1713
  },
  {
    "dt": "2022.03.03 02:00",
    "o": 0.82942,
    "h": 0.82952,
    "l": 0.82913,
    "c": 0.82947,
    "v": 1264
  },
  {
    "dt": "2022.03.03 03:00",
    "o": 0.8295,
    "h": 0.82958,
    "l": 0.8289,
    "c": 0.8291,
    "v": 1630
  },
  {
    "dt": "2022.03.03 04:00",
    "o": 0.82911,
    "h": 0.82927,
    "l": 0.82867,
    "c": 0.82899,
    "v": 1539
  },
  {
    "dt": "2022.03.03 05:00",
    "o": 0.82898,
    "h": 0.82911,
    "l": 0.82854,
    "c": 0.82868,
    "v": 935
  },
  {
    "dt": "2022.03.03 06:00",
    "o": 0.8287,
    "h": 0.82879,
    "l": 0.82783,
    "c": 0.82786,
    "v": 1011
  },
  {
    "dt": "2022.03.03 07:00",
    "o": 0.82787,
    "h": 0.82814,
    "l": 0.82772,
    "c": 0.8279,
    "v": 962
  },
  {
    "dt": "2022.03.03 08:00",
    "o": 0.82789,
    "h": 0.82814,
    "l": 0.82753,
    "c": 0.8277,
    "v": 1467
  },
  {
    "dt": "2022.03.03 09:00",
    "o": 0.82768,
    "h": 0.82862,
    "l": 0.82751,
    "c": 0.82861,
    "v": 2067
  },
  {
    "dt": "2022.03.03 10:00",
    "o": 0.82861,
    "h": 0.82887,
    "l": 0.82779,
    "c": 0.82841,
    "v": 3334
  },
  {
    "dt": "2022.03.03 11:00",
    "o": 0.8284,
    "h": 0.82892,
    "l": 0.82764,
    "c": 0.82794,
    "v": 3096
  },
  {
    "dt": "2022.03.03 12:00",
    "o": 0.82794,
    "h": 0.8288,
    "l": 0.82757,
    "c": 0.82846,
    "v": 2390
  },
  {
    "dt": "2022.03.03 13:00",
    "o": 0.82847,
    "h": 0.82959,
    "l": 0.82806,
    "c": 0.82913,
    "v": 2631
  },
  {
    "dt": "2022.03.03 14:00",
    "o": 0.82914,
    "h": 0.82918,
    "l": 0.82782,
    "c": 0.82789,
    "v": 2809
  },
  {
    "dt": "2022.03.03 15:00",
    "o": 0.82787,
    "h": 0.82867,
    "l": 0.82741,
    "c": 0.82853,
    "v": 3164
  },
  {
    "dt": "2022.03.03 16:00",
    "o": 0.82852,
    "h": 0.82934,
    "l": 0.82788,
    "c": 0.82906,
    "v": 3883
  },
  {
    "dt": "2022.03.03 17:00",
    "o": 0.82911,
    "h": 0.82935,
    "l": 0.8281,
    "c": 0.82918,
    "v": 3769
  },
  {
    "dt": "2022.03.03 18:00",
    "o": 0.82916,
    "h": 0.82989,
    "l": 0.82772,
    "c": 0.82952,
    "v": 3553
  },
  {
    "dt": "2022.03.03 19:00",
    "o": 0.82951,
    "h": 0.82951,
    "l": 0.82828,
    "c": 0.82873,
    "v": 3593
  },
  {
    "dt": "2022.03.03 20:00",
    "o": 0.82875,
    "h": 0.8294,
    "l": 0.82846,
    "c": 0.82849,
    "v": 2605
  },
  {
    "dt": "2022.03.03 21:00",
    "o": 0.82849,
    "h": 0.8292,
    "l": 0.82827,
    "c": 0.82916,
    "v": 1934
  },
  {
    "dt": "2022.03.03 22:00",
    "o": 0.82916,
    "h": 0.82935,
    "l": 0.82888,
    "c": 0.82933,
    "v": 2097
  },
  {
    "dt": "2022.03.03 23:00",
    "o": 0.8293,
    "h": 0.82934,
    "l": 0.82877,
    "c": 0.82879,
    "v": 1015
  },
  {
    "dt": "2022.03.04 00:00",
    "o": 0.82833,
    "h": 0.82898,
    "l": 0.82824,
    "c": 0.82891,
    "v": 222
  },
  {
    "dt": "2022.03.04 01:00",
    "o": 0.82895,
    "h": 0.82922,
    "l": 0.82876,
    "c": 0.82877,
    "v": 774
  },
  {
    "dt": "2022.03.04 02:00",
    "o": 0.82877,
    "h": 0.82896,
    "l": 0.82631,
    "c": 0.82644,
    "v": 3358
  },
  {
    "dt": "2022.03.04 03:00",
    "o": 0.82648,
    "h": 0.8279,
    "l": 0.82627,
    "c": 0.82779,
    "v": 3660
  },
  {
    "dt": "2022.03.04 04:00",
    "o": 0.82781,
    "h": 0.82783,
    "l": 0.82664,
    "c": 0.82683,
    "v": 2137
  },
  {
    "dt": "2022.03.04 05:00",
    "o": 0.82683,
    "h": 0.82683,
    "l": 0.82628,
    "c": 0.8267,
    "v": 1812
  },
  {
    "dt": "2022.03.04 06:00",
    "o": 0.82667,
    "h": 0.82701,
    "l": 0.82661,
    "c": 0.82697,
    "v": 1588
  },
  {
    "dt": "2022.03.04 07:00",
    "o": 0.82698,
    "h": 0.82705,
    "l": 0.82657,
    "c": 0.82675,
    "v": 1320
  },
  {
    "dt": "2022.03.04 08:00",
    "o": 0.82674,
    "h": 0.82678,
    "l": 0.82604,
    "c": 0.82605,
    "v": 1209
  },
  {
    "dt": "2022.03.04 09:00",
    "o": 0.82605,
    "h": 0.82663,
    "l": 0.82603,
    "c": 0.82643,
    "v": 2114
  },
  {
    "dt": "2022.03.04 10:00",
    "o": 0.82646,
    "h": 0.82752,
    "l": 0.82643,
    "c": 0.82723,
    "v": 3024
  },
  {
    "dt": "2022.03.04 11:00",
    "o": 0.82723,
    "h": 0.8284,
    "l": 0.82708,
    "c": 0.82776,
    "v": 2608
  },
  {
    "dt": "2022.03.04 12:00",
    "o": 0.82775,
    "h": 0.82812,
    "l": 0.82622,
    "c": 0.82631,
    "v": 2846
  },
  {
    "dt": "2022.03.04 13:00",
    "o": 0.82631,
    "h": 0.82662,
    "l": 0.82595,
    "c": 0.82601,
    "v": 2837
  },
  {
    "dt": "2022.03.04 14:00",
    "o": 0.82598,
    "h": 0.82628,
    "l": 0.82422,
    "c": 0.8244,
    "v": 2919
  },
  {
    "dt": "2022.03.04 15:00",
    "o": 0.82435,
    "h": 0.8246,
    "l": 0.82296,
    "c": 0.82441,
    "v": 4403
  },
  {
    "dt": "2022.03.04 16:00",
    "o": 0.82439,
    "h": 0.8256,
    "l": 0.82374,
    "c": 0.82504,
    "v": 4271
  },
  {
    "dt": "2022.03.04 17:00",
    "o": 0.82501,
    "h": 0.82634,
    "l": 0.82474,
    "c": 0.82591,
    "v": 4100
  },
  {
    "dt": "2022.03.04 18:00",
    "o": 0.8259,
    "h": 0.82634,
    "l": 0.82522,
    "c": 0.82557,
    "v": 3719
  },
  {
    "dt": "2022.03.04 19:00",
    "o": 0.82557,
    "h": 0.82628,
    "l": 0.82526,
    "c": 0.82587,
    "v": 3238
  },
  {
    "dt": "2022.03.04 20:00",
    "o": 0.82587,
    "h": 0.82611,
    "l": 0.82518,
    "c": 0.82579,
    "v": 2305
  },
  {
    "dt": "2022.03.04 21:00",
    "o": 0.82579,
    "h": 0.8259,
    "l": 0.82522,
    "c": 0.82543,
    "v": 2301
  },
  {
    "dt": "2022.03.04 22:00",
    "o": 0.82543,
    "h": 0.82559,
    "l": 0.82497,
    "c": 0.82523,
    "v": 2429
  },
  {
    "dt": "2022.03.04 23:00",
    "o": 0.82522,
    "h": 0.8261,
    "l": 0.82503,
    "c": 0.82562,
    "v": 1789
  },
  {
    "dt": "2022.03.07 00:00",
    "o": 0.82499,
    "h": 0.82619,
    "l": 0.82484,
    "c": 0.82532,
    "v": 570
  },
  {
    "dt": "2022.03.07 01:00",
    "o": 0.82466,
    "h": 0.82486,
    "l": 0.8224,
    "c": 0.82293,
    "v": 3015
  },
  {
    "dt": "2022.03.07 02:00",
    "o": 0.82291,
    "h": 0.82331,
    "l": 0.82263,
    "c": 0.82276,
    "v": 2232
  },
  {
    "dt": "2022.03.07 03:00",
    "o": 0.82272,
    "h": 0.8229,
    "l": 0.82018,
    "c": 0.82125,
    "v": 3700
  },
  {
    "dt": "2022.03.07 04:00",
    "o": 0.82124,
    "h": 0.82193,
    "l": 0.82108,
    "c": 0.82161,
    "v": 2579
  },
  {
    "dt": "2022.03.07 05:00",
    "o": 0.82162,
    "h": 0.82339,
    "l": 0.82149,
    "c": 0.82293,
    "v": 2707
  },
  {
    "dt": "2022.03.07 06:00",
    "o": 0.82293,
    "h": 0.82311,
    "l": 0.8224,
    "c": 0.82309,
    "v": 1662
  },
  {
    "dt": "2022.03.07 07:00",
    "o": 0.82308,
    "h": 0.82326,
    "l": 0.82259,
    "c": 0.82304,
    "v": 1729
  },
  {
    "dt": "2022.03.07 08:00",
    "o": 0.82305,
    "h": 0.8239,
    "l": 0.82256,
    "c": 0.82258,
    "v": 2242
  },
  {
    "dt": "2022.03.07 09:00",
    "o": 0.8226,
    "h": 0.82391,
    "l": 0.82259,
    "c": 0.82333,
    "v": 3644
  },
  {
    "dt": "2022.03.07 10:00",
    "o": 0.82336,
    "h": 0.82551,
    "l": 0.82336,
    "c": 0.82479,
    "v": 4471
  },
  {
    "dt": "2022.03.07 11:00",
    "o": 0.82481,
    "h": 0.82525,
    "l": 0.82401,
    "c": 0.82445,
    "v": 3720
  },
  {
    "dt": "2022.03.07 12:00",
    "o": 0.82446,
    "h": 0.82448,
    "l": 0.82208,
    "c": 0.82339,
    "v": 3507
  },
  {
    "dt": "2022.03.07 13:00",
    "o": 0.82339,
    "h": 0.82482,
    "l": 0.82304,
    "c": 0.82451,
    "v": 3724
  },
  {
    "dt": "2022.03.07 14:00",
    "o": 0.8245,
    "h": 0.82701,
    "l": 0.82383,
    "c": 0.8256,
    "v": 5122
  },
  {
    "dt": "2022.03.07 15:00",
    "o": 0.82562,
    "h": 0.82732,
    "l": 0.8256,
    "c": 0.82717,
    "v": 4935
  },
  {
    "dt": "2022.03.07 16:00",
    "o": 0.82717,
    "h": 0.82836,
    "l": 0.827,
    "c": 0.82784,
    "v": 4908
  },
  {
    "dt": "2022.03.07 17:00",
    "o": 0.82783,
    "h": 0.8281,
    "l": 0.82702,
    "c": 0.82791,
    "v": 4732
  },
  {
    "dt": "2022.03.07 18:00",
    "o": 0.82792,
    "h": 0.82869,
    "l": 0.82705,
    "c": 0.82807,
    "v": 4156
  },
  {
    "dt": "2022.03.07 19:00",
    "o": 0.82806,
    "h": 0.82979,
    "l": 0.82793,
    "c": 0.82931,
    "v": 3634
  },
  {
    "dt": "2022.03.07 20:00",
    "o": 0.82931,
    "h": 0.83042,
    "l": 0.82871,
    "c": 0.82901,
    "v": 3271
  },
  {
    "dt": "2022.03.07 21:00",
    "o": 0.82901,
    "h": 0.82975,
    "l": 0.82756,
    "c": 0.8277,
    "v": 2993
  },
  {
    "dt": "2022.03.07 22:00",
    "o": 0.82772,
    "h": 0.82919,
    "l": 0.82759,
    "c": 0.82918,
    "v": 2790
  },
  {
    "dt": "2022.03.07 23:00",
    "o": 0.82914,
    "h": 0.82914,
    "l": 0.82805,
    "c": 0.82817,
    "v": 1330
  },
  {
    "dt": "2022.03.08 00:00",
    "o": 0.82802,
    "h": 0.82802,
    "l": 0.82752,
    "c": 0.82788,
    "v": 552
  },
  {
    "dt": "2022.03.08 01:00",
    "o": 0.82786,
    "h": 0.82855,
    "l": 0.82785,
    "c": 0.8285,
    "v": 1241
  },
  {
    "dt": "2022.03.08 02:00",
    "o": 0.82851,
    "h": 0.8287,
    "l": 0.82786,
    "c": 0.82824,
    "v": 1454
  },
  {
    "dt": "2022.03.08 03:00",
    "o": 0.8282,
    "h": 0.82869,
    "l": 0.82782,
    "c": 0.82859,
    "v": 1736
  },
  {
    "dt": "2022.03.08 04:00",
    "o": 0.8286,
    "h": 0.82898,
    "l": 0.82856,
    "c": 0.82874,
    "v": 1532
  },
  {
    "dt": "2022.03.08 05:00",
    "o": 0.82873,
    "h": 0.82881,
    "l": 0.82792,
    "c": 0.82794,
    "v": 1018
  },
  {
    "dt": "2022.03.08 06:00",
    "o": 0.82793,
    "h": 0.82815,
    "l": 0.82775,
    "c": 0.82815,
    "v": 1027
  },
  {
    "dt": "2022.03.08 07:00",
    "o": 0.82816,
    "h": 0.82841,
    "l": 0.82796,
    "c": 0.82817,
    "v": 1570
  },
  {
    "dt": "2022.03.08 08:00",
    "o": 0.82816,
    "h": 0.82879,
    "l": 0.82797,
    "c": 0.82874,
    "v": 1958
  },
  {
    "dt": "2022.03.08 09:00",
    "o": 0.82878,
    "h": 0.83026,
    "l": 0.82854,
    "c": 0.82956,
    "v": 3658
  },
  {
    "dt": "2022.03.08 10:00",
    "o": 0.82958,
    "h": 0.83243,
    "l": 0.82927,
    "c": 0.83084,
    "v": 5412
  },
  {
    "dt": "2022.03.08 11:00",
    "o": 0.83083,
    "h": 0.83122,
    "l": 0.82924,
    "c": 0.82972,
    "v": 4398
  },
  {
    "dt": "2022.03.08 12:00",
    "o": 0.82973,
    "h": 0.83066,
    "l": 0.82805,
    "c": 0.83051,
    "v": 3819
  },
  {
    "dt": "2022.03.08 13:00",
    "o": 0.83052,
    "h": 0.83126,
    "l": 0.82989,
    "c": 0.83013,
    "v": 3281
  },
  {
    "dt": "2022.03.08 14:00",
    "o": 0.83016,
    "h": 0.83239,
    "l": 0.83016,
    "c": 0.83235,
    "v": 3890
  },
  {
    "dt": "2022.03.08 15:00",
    "o": 0.83234,
    "h": 0.8328,
    "l": 0.83133,
    "c": 0.83269,
    "v": 4134
  },
  {
    "dt": "2022.03.08 16:00",
    "o": 0.83269,
    "h": 0.83304,
    "l": 0.83063,
    "c": 0.83068,
    "v": 4408
  },
  {
    "dt": "2022.03.08 17:00",
    "o": 0.83069,
    "h": 0.83081,
    "l": 0.82824,
    "c": 0.82939,
    "v": 5105
  },
  {
    "dt": "2022.03.08 18:00",
    "o": 0.82938,
    "h": 0.83121,
    "l": 0.82936,
    "c": 0.83051,
    "v": 4228
  },
  {
    "dt": "2022.03.08 19:00",
    "o": 0.83052,
    "h": 0.8346,
    "l": 0.83034,
    "c": 0.83305,
    "v": 5033
  },
  {
    "dt": "2022.03.08 20:00",
    "o": 0.83302,
    "h": 0.83391,
    "l": 0.8318,
    "c": 0.83253,
    "v": 4389
  },
  {
    "dt": "2022.03.08 21:00",
    "o": 0.8324,
    "h": 0.83263,
    "l": 0.83153,
    "c": 0.832,
    "v": 3866
  },
  {
    "dt": "2022.03.08 22:00",
    "o": 0.832,
    "h": 0.83258,
    "l": 0.83174,
    "c": 0.8325,
    "v": 2732
  },
  {
    "dt": "2022.03.08 23:00",
    "o": 0.83251,
    "h": 0.83265,
    "l": 0.83144,
    "c": 0.83165,
    "v": 1278
  },
  {
    "dt": "2022.03.09 00:00",
    "o": 0.83158,
    "h": 0.83191,
    "l": 0.83141,
    "c": 0.8318,
    "v": 295
  },
  {
    "dt": "2022.03.09 01:00",
    "o": 0.83193,
    "h": 0.83203,
    "l": 0.83165,
    "c": 0.83191,
    "v": 1411
  },
  {
    "dt": "2022.03.09 02:00",
    "o": 0.83188,
    "h": 0.83236,
    "l": 0.83168,
    "c": 0.8323,
    "v": 1500
  },
  {
    "dt": "2022.03.09 03:00",
    "o": 0.83234,
    "h": 0.83262,
    "l": 0.8322,
    "c": 0.83225,
    "v": 1871
  },
  {
    "dt": "2022.03.09 04:00",
    "o": 0.83226,
    "h": 0.83258,
    "l": 0.83209,
    "c": 0.8323,
    "v": 1387
  },
  {
    "dt": "2022.03.09 05:00",
    "o": 0.8323,
    "h": 0.83241,
    "l": 0.83193,
    "c": 0.83206,
    "v": 997
  },
  {
    "dt": "2022.03.09 06:00",
    "o": 0.83204,
    "h": 0.83215,
    "l": 0.8317,
    "c": 0.83204,
    "v": 954
  },
  {
    "dt": "2022.03.09 07:00",
    "o": 0.83202,
    "h": 0.83255,
    "l": 0.83196,
    "c": 0.83236,
    "v": 1265
  },
  {
    "dt": "2022.03.09 08:00",
    "o": 0.83237,
    "h": 0.83267,
    "l": 0.83199,
    "c": 0.83219,
    "v": 1538
  },
  {
    "dt": "2022.03.09 09:00",
    "o": 0.83218,
    "h": 0.83264,
    "l": 0.83175,
    "c": 0.83254,
    "v": 2744
  },
  {
    "dt": "2022.03.09 10:00",
    "o": 0.83254,
    "h": 0.83387,
    "l": 0.83223,
    "c": 0.83341,
    "v": 3584
  },
  {
    "dt": "2022.03.09 11:00",
    "o": 0.83336,
    "h": 0.83467,
    "l": 0.83297,
    "c": 0.83407,
    "v": 3535
  },
  {
    "dt": "2022.03.09 12:00",
    "o": 0.83405,
    "h": 0.83477,
    "l": 0.8329,
    "c": 0.83315,
    "v": 3431
  },
  {
    "dt": "2022.03.09 13:00",
    "o": 0.83316,
    "h": 0.83446,
    "l": 0.83158,
    "c": 0.83412,
    "v": 3377
  },
  {
    "dt": "2022.03.09 14:00",
    "o": 0.83413,
    "h": 0.83534,
    "l": 0.83337,
    "c": 0.83524,
    "v": 3141
  },
  {
    "dt": "2022.03.09 15:00",
    "o": 0.83528,
    "h": 0.83686,
    "l": 0.83498,
    "c": 0.83678,
    "v": 3521
  },
  {
    "dt": "2022.03.09 16:00",
    "o": 0.83679,
    "h": 0.8389,
    "l": 0.83663,
    "c": 0.83775,
    "v": 4966
  },
  {
    "dt": "2022.03.09 17:00",
    "o": 0.83773,
    "h": 0.83951,
    "l": 0.83632,
    "c": 0.83926,
    "v": 4473
  },
  {
    "dt": "2022.03.09 18:00",
    "o": 0.83925,
    "h": 0.84166,
    "l": 0.83923,
    "c": 0.84111,
    "v": 4268
  },
  {
    "dt": "2022.03.09 19:00",
    "o": 0.8411,
    "h": 0.8416,
    "l": 0.84029,
    "c": 0.84132,
    "v": 3445
  },
  {
    "dt": "2022.03.09 20:00",
    "o": 0.84132,
    "h": 0.84156,
    "l": 0.83991,
    "c": 0.84049,
    "v": 2709
  },
  {
    "dt": "2022.03.09 21:00",
    "o": 0.84049,
    "h": 0.84101,
    "l": 0.84018,
    "c": 0.84027,
    "v": 2359
  },
  {
    "dt": "2022.03.09 22:00",
    "o": 0.84025,
    "h": 0.84052,
    "l": 0.8392,
    "c": 0.8395,
    "v": 2346
  },
  {
    "dt": "2022.03.09 23:00",
    "o": 0.83946,
    "h": 0.84002,
    "l": 0.83925,
    "c": 0.83966,
    "v": 1326
  },
  {
    "dt": "2022.03.10 00:00",
    "o": 0.83879,
    "h": 0.83972,
    "l": 0.83879,
    "c": 0.83918,
    "v": 713
  },
  {
    "dt": "2022.03.10 01:00",
    "o": 0.83903,
    "h": 0.84042,
    "l": 0.83903,
    "c": 0.83976,
    "v": 1293
  },
  {
    "dt": "2022.03.10 02:00",
    "o": 0.83974,
    "h": 0.83976,
    "l": 0.83893,
    "c": 0.8392,
    "v": 1484
  },
  {
    "dt": "2022.03.10 03:00",
    "o": 0.83921,
    "h": 0.84008,
    "l": 0.83886,
    "c": 0.83974,
    "v": 1950
  },
  {
    "dt": "2022.03.10 04:00",
    "o": 0.83977,
    "h": 0.84026,
    "l": 0.83964,
    "c": 0.83973,
    "v": 1302
  },
  {
    "dt": "2022.03.10 05:00",
    "o": 0.83973,
    "h": 0.83996,
    "l": 0.83946,
    "c": 0.83979,
    "v": 1142
  },
  {
    "dt": "2022.03.10 06:00",
    "o": 0.83979,
    "h": 0.83987,
    "l": 0.8391,
    "c": 0.83913,
    "v": 835
  },
  {
    "dt": "2022.03.10 07:00",
    "o": 0.83914,
    "h": 0.83944,
    "l": 0.83906,
    "c": 0.83922,
    "v": 929
  },
  {
    "dt": "2022.03.10 08:00",
    "o": 0.83922,
    "h": 0.83938,
    "l": 0.83862,
    "c": 0.83865,
    "v": 1420
  },
  {
    "dt": "2022.03.10 09:00",
    "o": 0.83865,
    "h": 0.8393,
    "l": 0.83848,
    "c": 0.83854,
    "v": 2383
  },
  {
    "dt": "2022.03.10 10:00",
    "o": 0.83851,
    "h": 0.83975,
    "l": 0.838,
    "c": 0.83836,
    "v": 3933
  },
  {
    "dt": "2022.03.10 11:00",
    "o": 0.83835,
    "h": 0.84048,
    "l": 0.83825,
    "c": 0.83837,
    "v": 4502
  },
  {
    "dt": "2022.03.10 12:00",
    "o": 0.83837,
    "h": 0.8397,
    "l": 0.83813,
    "c": 0.83842,
    "v": 3909
  },
  {
    "dt": "2022.03.10 13:00",
    "o": 0.83842,
    "h": 0.83941,
    "l": 0.83807,
    "c": 0.83889,
    "v": 3536
  },
  {
    "dt": "2022.03.10 14:00",
    "o": 0.83888,
    "h": 0.84348,
    "l": 0.83768,
    "c": 0.84217,
    "v": 4129
  },
  {
    "dt": "2022.03.10 15:00",
    "o": 0.8422,
    "h": 0.84257,
    "l": 0.83888,
    "c": 0.83953,
    "v": 5049
  },
  {
    "dt": "2022.03.10 16:00",
    "o": 0.83955,
    "h": 0.84001,
    "l": 0.83785,
    "c": 0.83879,
    "v": 4780
  },
  {
    "dt": "2022.03.10 17:00",
    "o": 0.83876,
    "h": 0.8396,
    "l": 0.83668,
    "c": 0.83913,
    "v": 4506
  },
  {
    "dt": "2022.03.10 18:00",
    "o": 0.83912,
    "h": 0.83973,
    "l": 0.83855,
    "c": 0.83964,
    "v": 3484
  },
  {
    "dt": "2022.03.10 19:00",
    "o": 0.83961,
    "h": 0.83973,
    "l": 0.83827,
    "c": 0.839,
    "v": 2736
  },
  {
    "dt": "2022.03.10 20:00",
    "o": 0.83902,
    "h": 0.83917,
    "l": 0.838,
    "c": 0.83821,
    "v": 2369
  },
  {
    "dt": "2022.03.10 21:00",
    "o": 0.83819,
    "h": 0.8388,
    "l": 0.83792,
    "c": 0.83861,
    "v": 2046
  },
  {
    "dt": "2022.03.10 22:00",
    "o": 0.83861,
    "h": 0.83924,
    "l": 0.83855,
    "c": 0.83888,
    "v": 1757
  },
  {
    "dt": "2022.03.10 23:00",
    "o": 0.83887,
    "h": 0.83985,
    "l": 0.83883,
    "c": 0.83978,
    "v": 1017
  },
  {
    "dt": "2022.03.11 00:00",
    "o": 0.8389,
    "h": 0.8397,
    "l": 0.8389,
    "c": 0.83944,
    "v": 593
  },
  {
    "dt": "2022.03.11 01:00",
    "o": 0.83939,
    "h": 0.84048,
    "l": 0.8393,
    "c": 0.84045,
    "v": 1218
  },
  {
    "dt": "2022.03.11 02:00",
    "o": 0.84041,
    "h": 0.84087,
    "l": 0.84009,
    "c": 0.84013,
    "v": 1598
  },
  {
    "dt": "2022.03.11 03:00",
    "o": 0.84014,
    "h": 0.8404,
    "l": 0.83919,
    "c": 0.83991,
    "v": 1997
  },
  {
    "dt": "2022.03.11 04:00",
    "o": 0.83991,
    "h": 0.84041,
    "l": 0.83974,
    "c": 0.83979,
    "v": 1678
  },
  {
    "dt": "2022.03.11 05:00",
    "o": 0.83978,
    "h": 0.84056,
    "l": 0.83972,
    "c": 0.84052,
    "v": 1456
  },
  {
    "dt": "2022.03.11 06:00",
    "o": 0.84051,
    "h": 0.84105,
    "l": 0.84034,
    "c": 0.84065,
    "v": 1258
  },
  {
    "dt": "2022.03.11 07:00",
    "o": 0.84066,
    "h": 0.84141,
    "l": 0.8406,
    "c": 0.84122,
    "v": 1632
  },
  {
    "dt": "2022.03.11 08:00",
    "o": 0.84123,
    "h": 0.84139,
    "l": 0.83988,
    "c": 0.84022,
    "v": 1958
  },
  {
    "dt": "2022.03.11 09:00",
    "o": 0.84029,
    "h": 0.8404,
    "l": 0.83976,
    "c": 0.84013,
    "v": 3057
  },
  {
    "dt": "2022.03.11 10:00",
    "o": 0.84017,
    "h": 0.84101,
    "l": 0.83875,
    "c": 0.84051,
    "v": 4088
  },
  {
    "dt": "2022.03.11 11:00",
    "o": 0.84049,
    "h": 0.84055,
    "l": 0.83843,
    "c": 0.83876,
    "v": 3230
  },
  {
    "dt": "2022.03.11 12:00",
    "o": 0.83875,
    "h": 0.83959,
    "l": 0.83869,
    "c": 0.83897,
    "v": 2883
  },
  {
    "dt": "2022.03.11 13:00",
    "o": 0.83901,
    "h": 0.84182,
    "l": 0.8385,
    "c": 0.83991,
    "v": 4483
  },
  {
    "dt": "2022.03.11 14:00",
    "o": 0.83992,
    "h": 0.84099,
    "l": 0.83887,
    "c": 0.83907,
    "v": 4236
  },
  {
    "dt": "2022.03.11 15:00",
    "o": 0.83908,
    "h": 0.84049,
    "l": 0.83908,
    "c": 0.83981,
    "v": 3942
  },
  {
    "dt": "2022.03.11 16:00",
    "o": 0.83979,
    "h": 0.84005,
    "l": 0.83904,
    "c": 0.83928,
    "v": 3686
  },
  {
    "dt": "2022.03.11 17:00",
    "o": 0.83931,
    "h": 0.83935,
    "l": 0.83671,
    "c": 0.83788,
    "v": 4185
  },
  {
    "dt": "2022.03.11 18:00",
    "o": 0.83787,
    "h": 0.8382,
    "l": 0.83693,
    "c": 0.83711,
    "v": 3504
  },
  {
    "dt": "2022.03.11 19:00",
    "o": 0.83709,
    "h": 0.83755,
    "l": 0.83649,
    "c": 0.83684,
    "v": 2684
  },
  {
    "dt": "2022.03.11 20:00",
    "o": 0.83684,
    "h": 0.83701,
    "l": 0.83595,
    "c": 0.83614,
    "v": 2141
  },
  {
    "dt": "2022.03.11 21:00",
    "o": 0.83613,
    "h": 0.83684,
    "l": 0.83601,
    "c": 0.8366,
    "v": 2229
  },
  {
    "dt": "2022.03.11 22:00",
    "o": 0.83658,
    "h": 0.83717,
    "l": 0.83653,
    "c": 0.83691,
    "v": 1764
  },
  {
    "dt": "2022.03.11 23:00",
    "o": 0.83689,
    "h": 0.83751,
    "l": 0.83637,
    "c": 0.83667,
    "v": 1839
  },
  {
    "dt": "2022.03.14 00:00",
    "o": 0.83671,
    "h": 0.83733,
    "l": 0.83647,
    "c": 0.83681,
    "v": 258
  },
  {
    "dt": "2022.03.14 01:00",
    "o": 0.83647,
    "h": 0.83838,
    "l": 0.83612,
    "c": 0.83789,
    "v": 1385
  },
  {
    "dt": "2022.03.14 02:00",
    "o": 0.83789,
    "h": 0.838,
    "l": 0.83752,
    "c": 0.83764,
    "v": 1195
  },
  {
    "dt": "2022.03.14 03:00",
    "o": 0.83764,
    "h": 0.83812,
    "l": 0.83734,
    "c": 0.83767,
    "v": 1936
  },
  {
    "dt": "2022.03.14 04:00",
    "o": 0.83766,
    "h": 0.83817,
    "l": 0.83744,
    "c": 0.83777,
    "v": 2050
  },
  {
    "dt": "2022.03.14 05:00",
    "o": 0.83778,
    "h": 0.83845,
    "l": 0.83753,
    "c": 0.83825,
    "v": 1734
  },
  {
    "dt": "2022.03.14 06:00",
    "o": 0.83824,
    "h": 0.83842,
    "l": 0.83781,
    "c": 0.83783,
    "v": 1092
  },
  {
    "dt": "2022.03.14 07:00",
    "o": 0.83784,
    "h": 0.83824,
    "l": 0.83772,
    "c": 0.83824,
    "v": 771
  },
  {
    "dt": "2022.03.14 08:00",
    "o": 0.83824,
    "h": 0.83861,
    "l": 0.83791,
    "c": 0.83807,
    "v": 834
  },
  {
    "dt": "2022.03.14 09:00",
    "o": 0.83809,
    "h": 0.83877,
    "l": 0.83797,
    "c": 0.83843,
    "v": 1463
  },
  {
    "dt": "2022.03.14 10:00",
    "o": 0.83844,
    "h": 0.83882,
    "l": 0.83766,
    "c": 0.83828,
    "v": 2805
  },
  {
    "dt": "2022.03.14 11:00",
    "o": 0.83829,
    "h": 0.8401,
    "l": 0.83804,
    "c": 0.83984,
    "v": 3727
  },
  {
    "dt": "2022.03.14 12:00",
    "o": 0.83982,
    "h": 0.84237,
    "l": 0.83939,
    "c": 0.84187,
    "v": 3521
  },
  {
    "dt": "2022.03.14 13:00",
    "o": 0.84183,
    "h": 0.84205,
    "l": 0.84033,
    "c": 0.84051,
    "v": 3085
  },
  {
    "dt": "2022.03.14 14:00",
    "o": 0.84051,
    "h": 0.84125,
    "l": 0.84004,
    "c": 0.84023,
    "v": 3082
  },
  {
    "dt": "2022.03.14 15:00",
    "o": 0.84025,
    "h": 0.84028,
    "l": 0.83759,
    "c": 0.83852,
    "v": 3542
  },
  {
    "dt": "2022.03.14 16:00",
    "o": 0.83851,
    "h": 0.83919,
    "l": 0.83804,
    "c": 0.83853,
    "v": 3688
  },
  {
    "dt": "2022.03.14 17:00",
    "o": 0.83852,
    "h": 0.84043,
    "l": 0.83837,
    "c": 0.83908,
    "v": 3749
  },
  {
    "dt": "2022.03.14 18:00",
    "o": 0.83906,
    "h": 0.84167,
    "l": 0.83899,
    "c": 0.84143,
    "v": 3620
  },
  {
    "dt": "2022.03.14 19:00",
    "o": 0.84139,
    "h": 0.84195,
    "l": 0.84099,
    "c": 0.84193,
    "v": 3403
  },
  {
    "dt": "2022.03.14 20:00",
    "o": 0.84192,
    "h": 0.84245,
    "l": 0.84135,
    "c": 0.84238,
    "v": 2806
  },
  {
    "dt": "2022.03.14 21:00",
    "o": 0.84239,
    "h": 0.8429,
    "l": 0.84162,
    "c": 0.84176,
    "v": 2229
  },
  {
    "dt": "2022.03.14 22:00",
    "o": 0.84174,
    "h": 0.84246,
    "l": 0.84157,
    "c": 0.84207,
    "v": 2290
  },
  {
    "dt": "2022.03.14 23:00",
    "o": 0.84205,
    "h": 0.84206,
    "l": 0.84128,
    "c": 0.84144,
    "v": 1246
  },
  {
    "dt": "2022.03.15 00:00",
    "o": 0.84136,
    "h": 0.84175,
    "l": 0.84089,
    "c": 0.84139,
    "v": 261
  },
  {
    "dt": "2022.03.15 01:00",
    "o": 0.84139,
    "h": 0.84174,
    "l": 0.8405,
    "c": 0.84061,
    "v": 937
  },
  {
    "dt": "2022.03.15 02:00",
    "o": 0.84064,
    "h": 0.8412,
    "l": 0.84033,
    "c": 0.841,
    "v": 1325
  },
  {
    "dt": "2022.03.15 03:00",
    "o": 0.84102,
    "h": 0.8417,
    "l": 0.841,
    "c": 0.84157,
    "v": 1209
  },
  {
    "dt": "2022.03.15 04:00",
    "o": 0.84158,
    "h": 0.84217,
    "l": 0.84125,
    "c": 0.84207,
    "v": 2046
  },
  {
    "dt": "2022.03.15 05:00",
    "o": 0.84209,
    "h": 0.84259,
    "l": 0.84197,
    "c": 0.84232,
    "v": 2096
  },
  {
    "dt": "2022.03.15 06:00",
    "o": 0.84232,
    "h": 0.84236,
    "l": 0.8414,
    "c": 0.84141,
    "v": 1642
  },
  {
    "dt": "2022.03.15 07:00",
    "o": 0.8414,
    "h": 0.84212,
    "l": 0.84135,
    "c": 0.84208,
    "v": 1016
  },
  {
    "dt": "2022.03.15 08:00",
    "o": 0.84209,
    "h": 0.84218,
    "l": 0.84142,
    "c": 0.84169,
    "v": 1495
  },
  {
    "dt": "2022.03.15 09:00",
    "o": 0.84171,
    "h": 0.8423,
    "l": 0.84154,
    "c": 0.84182,
    "v": 1856
  },
  {
    "dt": "2022.03.15 10:00",
    "o": 0.84182,
    "h": 0.84459,
    "l": 0.84164,
    "c": 0.84432,
    "v": 3863
  },
  {
    "dt": "2022.03.15 11:00",
    "o": 0.84433,
    "h": 0.84549,
    "l": 0.84346,
    "c": 0.84434,
    "v": 4052
  },
  {
    "dt": "2022.03.15 12:00",
    "o": 0.84433,
    "h": 0.84461,
    "l": 0.84293,
    "c": 0.84374,
    "v": 3270
  },
  {
    "dt": "2022.03.15 13:00",
    "o": 0.84374,
    "h": 0.84393,
    "l": 0.84292,
    "c": 0.8435,
    "v": 3003
  },
  {
    "dt": "2022.03.15 14:00",
    "o": 0.84348,
    "h": 0.84351,
    "l": 0.84103,
    "c": 0.84153,
    "v": 3090
  },
  {
    "dt": "2022.03.15 15:00",
    "o": 0.84152,
    "h": 0.8419,
    "l": 0.84067,
    "c": 0.84081,
    "v": 3582
  },
  {
    "dt": "2022.03.15 16:00",
    "o": 0.84083,
    "h": 0.84141,
    "l": 0.83989,
    "c": 0.8411,
    "v": 3781
  },
  {
    "dt": "2022.03.15 17:00",
    "o": 0.84109,
    "h": 0.84129,
    "l": 0.84007,
    "c": 0.84018,
    "v": 3509
  },
  {
    "dt": "2022.03.15 18:00",
    "o": 0.84018,
    "h": 0.84064,
    "l": 0.83859,
    "c": 0.83967,
    "v": 3613
  },
  {
    "dt": "2022.03.15 19:00",
    "o": 0.83966,
    "h": 0.83997,
    "l": 0.83853,
    "c": 0.83913,
    "v": 3818
  },
  {
    "dt": "2022.03.15 20:00",
    "o": 0.83912,
    "h": 0.83923,
    "l": 0.83855,
    "c": 0.83866,
    "v": 2607
  },
  {
    "dt": "2022.03.15 21:00",
    "o": 0.83866,
    "h": 0.83944,
    "l": 0.83857,
    "c": 0.83941,
    "v": 2502
  },
  {
    "dt": "2022.03.15 22:00",
    "o": 0.83941,
    "h": 0.8398,
    "l": 0.83928,
    "c": 0.83938,
    "v": 1936
  },
  {
    "dt": "2022.03.15 23:00",
    "o": 0.83937,
    "h": 0.83983,
    "l": 0.83905,
    "c": 0.83976,
    "v": 1170
  },
  {
    "dt": "2022.03.16 00:00",
    "o": 0.83932,
    "h": 0.83998,
    "l": 0.83893,
    "c": 0.83957,
    "v": 428
  },
  {
    "dt": "2022.03.16 01:00",
    "o": 0.83957,
    "h": 0.84057,
    "l": 0.83953,
    "c": 0.84057,
    "v": 845
  },
  {
    "dt": "2022.03.16 02:00",
    "o": 0.84055,
    "h": 0.84094,
    "l": 0.8401,
    "c": 0.84062,
    "v": 1453
  },
  {
    "dt": "2022.03.16 03:00",
    "o": 0.84065,
    "h": 0.84082,
    "l": 0.84008,
    "c": 0.84029,
    "v": 1755
  },
  {
    "dt": "2022.03.16 04:00",
    "o": 0.84027,
    "h": 0.84053,
    "l": 0.83988,
    "c": 0.8401,
    "v": 1756
  },
  {
    "dt": "2022.03.16 05:00",
    "o": 0.84008,
    "h": 0.84073,
    "l": 0.83997,
    "c": 0.84063,
    "v": 1434
  },
  {
    "dt": "2022.03.16 06:00",
    "o": 0.84063,
    "h": 0.84066,
    "l": 0.84009,
    "c": 0.84015,
    "v": 921
  },
  {
    "dt": "2022.03.16 07:00",
    "o": 0.84015,
    "h": 0.84034,
    "l": 0.84001,
    "c": 0.84033,
    "v": 731
  },
  {
    "dt": "2022.03.16 08:00",
    "o": 0.84033,
    "h": 0.84049,
    "l": 0.84001,
    "c": 0.84029,
    "v": 1125
  },
  {
    "dt": "2022.03.16 09:00",
    "o": 0.84029,
    "h": 0.84112,
    "l": 0.84023,
    "c": 0.84056,
    "v": 1761
  },
  {
    "dt": "2022.03.16 10:00",
    "o": 0.84056,
    "h": 0.84108,
    "l": 0.84002,
    "c": 0.84033,
    "v": 2587
  },
  {
    "dt": "2022.03.16 11:00",
    "o": 0.84031,
    "h": 0.8423,
    "l": 0.84014,
    "c": 0.84154,
    "v": 4006
  },
  {
    "dt": "2022.03.16 12:00",
    "o": 0.84152,
    "h": 0.84196,
    "l": 0.84024,
    "c": 0.84116,
    "v": 3022
  },
  {
    "dt": "2022.03.16 13:00",
    "o": 0.84115,
    "h": 0.84283,
    "l": 0.84114,
    "c": 0.84227,
    "v": 3349
  },
  {
    "dt": "2022.03.16 14:00",
    "o": 0.8423,
    "h": 0.84253,
    "l": 0.84054,
    "c": 0.84097,
    "v": 3008
  },
  {
    "dt": "2022.03.16 15:00",
    "o": 0.84095,
    "h": 0.84122,
    "l": 0.83928,
    "c": 0.83931,
    "v": 3103
  },
  {
    "dt": "2022.03.16 16:00",
    "o": 0.8393,
    "h": 0.84069,
    "l": 0.83923,
    "c": 0.84067,
    "v": 3314
  },
  {
    "dt": "2022.03.16 17:00",
    "o": 0.84066,
    "h": 0.84175,
    "l": 0.83994,
    "c": 0.84081,
    "v": 4888
  },
  {
    "dt": "2022.03.16 18:00",
    "o": 0.8408,
    "h": 0.8409,
    "l": 0.83867,
    "c": 0.8393,
    "v": 3984
  },
  {
    "dt": "2022.03.16 19:00",
    "o": 0.83932,
    "h": 0.84019,
    "l": 0.83888,
    "c": 0.83891,
    "v": 3057
  },
  {
    "dt": "2022.03.16 20:00",
    "o": 0.8389,
    "h": 0.83964,
    "l": 0.83865,
    "c": 0.8388,
    "v": 2767
  },
  {
    "dt": "2022.03.16 21:00",
    "o": 0.83879,
    "h": 0.83988,
    "l": 0.83826,
    "c": 0.83874,
    "v": 5643
  },
  {
    "dt": "2022.03.16 22:00",
    "o": 0.83878,
    "h": 0.83983,
    "l": 0.83836,
    "c": 0.83957,
    "v": 4263
  },
  {
    "dt": "2022.03.16 23:00",
    "o": 0.83958,
    "h": 0.8399,
    "l": 0.8391,
    "c": 0.83914,
    "v": 1756
  },
  {
    "dt": "2022.03.17 00:00",
    "o": 0.839,
    "h": 0.83915,
    "l": 0.83872,
    "c": 0.83909,
    "v": 533
  },
  {
    "dt": "2022.03.17 01:00",
    "o": 0.83909,
    "h": 0.83909,
    "l": 0.83827,
    "c": 0.83901,
    "v": 1425
  },
  {
    "dt": "2022.03.17 02:00",
    "o": 0.83903,
    "h": 0.83913,
    "l": 0.83849,
    "c": 0.83865,
    "v": 1319
  },
  {
    "dt": "2022.03.17 03:00",
    "o": 0.83865,
    "h": 0.83982,
    "l": 0.83858,
    "c": 0.83977,
    "v": 2097
  },
  {
    "dt": "2022.03.17 04:00",
    "o": 0.83976,
    "h": 0.84019,
    "l": 0.83954,
    "c": 0.83961,
    "v": 2454
  },
  {
    "dt": "2022.03.17 05:00",
    "o": 0.83961,
    "h": 0.83971,
    "l": 0.83849,
    "c": 0.83882,
    "v": 1913
  },
  {
    "dt": "2022.03.17 06:00",
    "o": 0.83884,
    "h": 0.83902,
    "l": 0.83846,
    "c": 0.83881,
    "v": 1675
  },
  {
    "dt": "2022.03.17 07:00",
    "o": 0.83881,
    "h": 0.83891,
    "l": 0.83836,
    "c": 0.83856,
    "v": 1159
  },
  {
    "dt": "2022.03.17 08:00",
    "o": 0.83856,
    "h": 0.83863,
    "l": 0.83778,
    "c": 0.83788,
    "v": 1321
  },
  {
    "dt": "2022.03.17 09:00",
    "o": 0.83789,
    "h": 0.83855,
    "l": 0.83766,
    "c": 0.83809,
    "v": 1816
  },
  {
    "dt": "2022.03.17 10:00",
    "o": 0.83812,
    "h": 0.83843,
    "l": 0.83743,
    "c": 0.83784,
    "v": 2378
  },
  {
    "dt": "2022.03.17 11:00",
    "o": 0.83788,
    "h": 0.83943,
    "l": 0.8378,
    "c": 0.83847,
    "v": 3349
  },
  {
    "dt": "2022.03.17 12:00",
    "o": 0.83845,
    "h": 0.83908,
    "l": 0.83787,
    "c": 0.83902,
    "v": 2957
  },
  {
    "dt": "2022.03.17 13:00",
    "o": 0.83903,
    "h": 0.83908,
    "l": 0.83713,
    "c": 0.83776,
    "v": 3396
  },
  {
    "dt": "2022.03.17 14:00",
    "o": 0.83776,
    "h": 0.83804,
    "l": 0.83665,
    "c": 0.83672,
    "v": 2602
  },
  {
    "dt": "2022.03.17 15:00",
    "o": 0.83668,
    "h": 0.84379,
    "l": 0.83668,
    "c": 0.84314,
    "v": 4395
  },
  {
    "dt": "2022.03.17 16:00",
    "o": 0.84313,
    "h": 0.84458,
    "l": 0.84268,
    "c": 0.84387,
    "v": 3381
  },
  {
    "dt": "2022.03.17 17:00",
    "o": 0.84383,
    "h": 0.84532,
    "l": 0.84373,
    "c": 0.84445,
    "v": 3378
  },
  {
    "dt": "2022.03.17 18:00",
    "o": 0.84448,
    "h": 0.84508,
    "l": 0.84395,
    "c": 0.84428,
    "v": 3229
  },
  {
    "dt": "2022.03.17 19:00",
    "o": 0.84425,
    "h": 0.84514,
    "l": 0.84408,
    "c": 0.84505,
    "v": 2749
  },
  {
    "dt": "2022.03.17 20:00",
    "o": 0.84505,
    "h": 0.84572,
    "l": 0.84473,
    "c": 0.84489,
    "v": 2217
  },
  {
    "dt": "2022.03.17 21:00",
    "o": 0.84488,
    "h": 0.84491,
    "l": 0.84365,
    "c": 0.84381,
    "v": 2113
  },
  {
    "dt": "2022.03.17 22:00",
    "o": 0.84381,
    "h": 0.84396,
    "l": 0.84363,
    "c": 0.84364,
    "v": 1517
  },
  {
    "dt": "2022.03.17 23:00",
    "o": 0.84365,
    "h": 0.84376,
    "l": 0.84319,
    "c": 0.8433,
    "v": 998
  },
  {
    "dt": "2022.03.18 00:00",
    "o": 0.84317,
    "h": 0.8434,
    "l": 0.84309,
    "c": 0.84324,
    "v": 156
  },
  {
    "dt": "2022.03.18 01:00",
    "o": 0.84319,
    "h": 0.84362,
    "l": 0.84302,
    "c": 0.84344,
    "v": 846
  },
  {
    "dt": "2022.03.18 02:00",
    "o": 0.84345,
    "h": 0.84352,
    "l": 0.8429,
    "c": 0.84336,
    "v": 1215
  },
  {
    "dt": "2022.03.18 03:00",
    "o": 0.84331,
    "h": 0.84369,
    "l": 0.84274,
    "c": 0.8433,
    "v": 1923
  },
  {
    "dt": "2022.03.18 04:00",
    "o": 0.84329,
    "h": 0.84347,
    "l": 0.84225,
    "c": 0.84234,
    "v": 1923
  },
  {
    "dt": "2022.03.18 05:00",
    "o": 0.84235,
    "h": 0.84262,
    "l": 0.84215,
    "c": 0.84242,
    "v": 1372
  },
  {
    "dt": "2022.03.18 06:00",
    "o": 0.8424,
    "h": 0.84252,
    "l": 0.8421,
    "c": 0.84219,
    "v": 1043
  },
  {
    "dt": "2022.03.18 07:00",
    "o": 0.84218,
    "h": 0.84244,
    "l": 0.84194,
    "c": 0.84198,
    "v": 1008
  },
  {
    "dt": "2022.03.18 08:00",
    "o": 0.84199,
    "h": 0.84211,
    "l": 0.84181,
    "c": 0.84189,
    "v": 958
  },
  {
    "dt": "2022.03.18 09:00",
    "o": 0.84188,
    "h": 0.84257,
    "l": 0.84161,
    "c": 0.84212,
    "v": 1595
  },
  {
    "dt": "2022.03.18 10:00",
    "o": 0.84214,
    "h": 0.84272,
    "l": 0.84185,
    "c": 0.84206,
    "v": 2665
  },
  {
    "dt": "2022.03.18 11:00",
    "o": 0.84204,
    "h": 0.84232,
    "l": 0.84133,
    "c": 0.84172,
    "v": 2987
  },
  {
    "dt": "2022.03.18 12:00",
    "o": 0.84173,
    "h": 0.84253,
    "l": 0.84145,
    "c": 0.84147,
    "v": 2669
  },
  {
    "dt": "2022.03.18 13:00",
    "o": 0.84148,
    "h": 0.84149,
    "l": 0.84003,
    "c": 0.84068,
    "v": 2993
  },
  {
    "dt": "2022.03.18 14:00",
    "o": 0.84069,
    "h": 0.8412,
    "l": 0.83943,
    "c": 0.83947,
    "v": 2433
  },
  {
    "dt": "2022.03.18 15:00",
    "o": 0.83948,
    "h": 0.84002,
    "l": 0.839,
    "c": 0.83956,
    "v": 2812
  },
  {
    "dt": "2022.03.18 16:00",
    "o": 0.83955,
    "h": 0.83992,
    "l": 0.83884,
    "c": 0.83953,
    "v": 3569
  },
  {
    "dt": "2022.03.18 17:00",
    "o": 0.83953,
    "h": 0.83971,
    "l": 0.83856,
    "c": 0.83871,
    "v": 3631
  },
  {
    "dt": "2022.03.18 18:00",
    "o": 0.83869,
    "h": 0.83911,
    "l": 0.83822,
    "c": 0.83881,
    "v": 3495
  },
  {
    "dt": "2022.03.18 19:00",
    "o": 0.8388,
    "h": 0.84013,
    "l": 0.8384,
    "c": 0.83861,
    "v": 3231
  },
  {
    "dt": "2022.03.18 20:00",
    "o": 0.83861,
    "h": 0.83902,
    "l": 0.83819,
    "c": 0.8384,
    "v": 2091
  },
  {
    "dt": "2022.03.18 21:00",
    "o": 0.83842,
    "h": 0.83859,
    "l": 0.83766,
    "c": 0.83774,
    "v": 2064
  },
  {
    "dt": "2022.03.18 22:00",
    "o": 0.83772,
    "h": 0.83856,
    "l": 0.83772,
    "c": 0.83837,
    "v": 1973
  },
  {
    "dt": "2022.03.18 23:00",
    "o": 0.83835,
    "h": 0.83862,
    "l": 0.838,
    "c": 0.83849,
    "v": 1589
  },
  {
    "dt": "2022.03.21 00:00",
    "o": 0.83883,
    "h": 0.83898,
    "l": 0.83839,
    "c": 0.83842,
    "v": 344
  },
  {
    "dt": "2022.03.21 01:00",
    "o": 0.83878,
    "h": 0.83911,
    "l": 0.83819,
    "c": 0.83857,
    "v": 1188
  },
  {
    "dt": "2022.03.21 02:00",
    "o": 0.83855,
    "h": 0.83909,
    "l": 0.83849,
    "c": 0.83904,
    "v": 1210
  },
  {
    "dt": "2022.03.21 03:00",
    "o": 0.83903,
    "h": 0.83941,
    "l": 0.8389,
    "c": 0.83901,
    "v": 1116
  },
  {
    "dt": "2022.03.21 04:00",
    "o": 0.83898,
    "h": 0.8393,
    "l": 0.83869,
    "c": 0.83881,
    "v": 1025
  },
  {
    "dt": "2022.03.21 05:00",
    "o": 0.83882,
    "h": 0.8394,
    "l": 0.83881,
    "c": 0.83916,
    "v": 869
  },
  {
    "dt": "2022.03.21 06:00",
    "o": 0.83915,
    "h": 0.83945,
    "l": 0.83915,
    "c": 0.83934,
    "v": 779
  },
  {
    "dt": "2022.03.21 07:00",
    "o": 0.83936,
    "h": 0.83943,
    "l": 0.83917,
    "c": 0.83929,
    "v": 860
  },
  {
    "dt": "2022.03.21 08:00",
    "o": 0.83929,
    "h": 0.83947,
    "l": 0.83899,
    "c": 0.8393,
    "v": 1066
  },
  {
    "dt": "2022.03.21 09:00",
    "o": 0.83931,
    "h": 0.83943,
    "l": 0.83893,
    "c": 0.8393,
    "v": 1109
  },
  {
    "dt": "2022.03.21 10:00",
    "o": 0.83931,
    "h": 0.84032,
    "l": 0.8391,
    "c": 0.84008,
    "v": 2297
  },
  {
    "dt": "2022.03.21 11:00",
    "o": 0.84002,
    "h": 0.84079,
    "l": 0.83948,
    "c": 0.84074,
    "v": 2890
  },
  {
    "dt": "2022.03.21 12:00",
    "o": 0.84074,
    "h": 0.84154,
    "l": 0.84054,
    "c": 0.8407,
    "v": 2437
  },
  {
    "dt": "2022.03.21 13:00",
    "o": 0.84074,
    "h": 0.84105,
    "l": 0.84026,
    "c": 0.84081,
    "v": 2057
  },
  {
    "dt": "2022.03.21 14:00",
    "o": 0.8408,
    "h": 0.84081,
    "l": 0.83919,
    "c": 0.83934,
    "v": 2880
  },
  {
    "dt": "2022.03.21 15:00",
    "o": 0.83937,
    "h": 0.84017,
    "l": 0.83861,
    "c": 0.8388,
    "v": 2732
  },
  {
    "dt": "2022.03.21 16:00",
    "o": 0.83879,
    "h": 0.83888,
    "l": 0.83701,
    "c": 0.83746,
    "v": 3059
  },
  {
    "dt": "2022.03.21 17:00",
    "o": 0.83745,
    "h": 0.83747,
    "l": 0.83646,
    "c": 0.83658,
    "v": 2926
  },
  {
    "dt": "2022.03.21 18:00",
    "o": 0.83658,
    "h": 0.8371,
    "l": 0.83622,
    "c": 0.83667,
    "v": 2836
  },
  {
    "dt": "2022.03.21 19:00",
    "o": 0.83669,
    "h": 0.83706,
    "l": 0.83601,
    "c": 0.83652,
    "v": 3503
  },
  {
    "dt": "2022.03.21 20:00",
    "o": 0.83655,
    "h": 0.83717,
    "l": 0.83615,
    "c": 0.83704,
    "v": 2918
  },
  {
    "dt": "2022.03.21 21:00",
    "o": 0.83703,
    "h": 0.83712,
    "l": 0.83662,
    "c": 0.83697,
    "v": 2282
  },
  {
    "dt": "2022.03.21 22:00",
    "o": 0.83698,
    "h": 0.83717,
    "l": 0.83651,
    "c": 0.8366,
    "v": 1918
  },
  {
    "dt": "2022.03.21 23:00",
    "o": 0.83658,
    "h": 0.83693,
    "l": 0.83638,
    "c": 0.83647,
    "v": 1057
  },
  {
    "dt": "2022.03.22 00:00",
    "o": 0.83582,
    "h": 0.83666,
    "l": 0.83582,
    "c": 0.83665,
    "v": 287
  },
  {
    "dt": "2022.03.22 01:00",
    "o": 0.83664,
    "h": 0.83723,
    "l": 0.83645,
    "c": 0.83688,
    "v": 781
  },
  {
    "dt": "2022.03.22 02:00",
    "o": 0.83688,
    "h": 0.83693,
    "l": 0.83649,
    "c": 0.83649,
    "v": 864
  },
  {
    "dt": "2022.03.22 03:00",
    "o": 0.8365,
    "h": 0.83662,
    "l": 0.83594,
    "c": 0.83617,
    "v": 1947
  },
  {
    "dt": "2022.03.22 04:00",
    "o": 0.83616,
    "h": 0.83648,
    "l": 0.83595,
    "c": 0.83648,
    "v": 1777
  },
  {
    "dt": "2022.03.22 05:00",
    "o": 0.8365,
    "h": 0.83654,
    "l": 0.8362,
    "c": 0.83643,
    "v": 1157
  },
  {
    "dt": "2022.03.22 06:00",
    "o": 0.83643,
    "h": 0.83664,
    "l": 0.83637,
    "c": 0.83646,
    "v": 1052
  },
  {
    "dt": "2022.03.22 07:00",
    "o": 0.83648,
    "h": 0.83701,
    "l": 0.83599,
    "c": 0.83624,
    "v": 1644
  },
  {
    "dt": "2022.03.22 08:00",
    "o": 0.83625,
    "h": 0.83711,
    "l": 0.8362,
    "c": 0.83649,
    "v": 1705
  },
  {
    "dt": "2022.03.22 09:00",
    "o": 0.83649,
    "h": 0.83676,
    "l": 0.83566,
    "c": 0.83567,
    "v": 1966
  },
  {
    "dt": "2022.03.22 10:00",
    "o": 0.8357,
    "h": 0.83577,
    "l": 0.83492,
    "c": 0.83574,
    "v": 2585
  },
  {
    "dt": "2022.03.22 11:00",
    "o": 0.83579,
    "h": 0.83637,
    "l": 0.83443,
    "c": 0.83524,
    "v": 3719
  },
  {
    "dt": "2022.03.22 12:00",
    "o": 0.83523,
    "h": 0.83549,
    "l": 0.83353,
    "c": 0.83389,
    "v": 3302
  },
  {
    "dt": "2022.03.22 13:00",
    "o": 0.83394,
    "h": 0.83404,
    "l": 0.83252,
    "c": 0.8328,
    "v": 3187
  },
  {
    "dt": "2022.03.22 14:00",
    "o": 0.8328,
    "h": 0.83293,
    "l": 0.83127,
    "c": 0.83186,
    "v": 3501
  },
  {
    "dt": "2022.03.22 15:00",
    "o": 0.8319,
    "h": 0.83327,
    "l": 0.83174,
    "c": 0.83229,
    "v": 3858
  },
  {
    "dt": "2022.03.22 16:00",
    "o": 0.83226,
    "h": 0.83266,
    "l": 0.83088,
    "c": 0.83213,
    "v": 3695
  },
  {
    "dt": "2022.03.22 17:00",
    "o": 0.83213,
    "h": 0.83281,
    "l": 0.8319,
    "c": 0.83259,
    "v": 3396
  },
  {
    "dt": "2022.03.22 18:00",
    "o": 0.83257,
    "h": 0.8332,
    "l": 0.83099,
    "c": 0.83121,
    "v": 3353
  },
  {
    "dt": "2022.03.22 19:00",
    "o": 0.83121,
    "h": 0.83155,
    "l": 0.83076,
    "c": 0.83123,
    "v": 2835
  },
  {
    "dt": "2022.03.22 20:00",
    "o": 0.83121,
    "h": 0.83196,
    "l": 0.83107,
    "c": 0.83177,
    "v": 2238
  },
  {
    "dt": "2022.03.22 21:00",
    "o": 0.83176,
    "h": 0.83183,
    "l": 0.8314,
    "c": 0.83153,
    "v": 1745
  },
  {
    "dt": "2022.03.22 22:00",
    "o": 0.83155,
    "h": 0.83186,
    "l": 0.83139,
    "c": 0.83175,
    "v": 1814
  },
  {
    "dt": "2022.03.22 23:00",
    "o": 0.83175,
    "h": 0.83193,
    "l": 0.83117,
    "c": 0.83117,
    "v": 933
  },
  {
    "dt": "2022.03.23 00:00",
    "o": 0.83089,
    "h": 0.83164,
    "l": 0.83076,
    "c": 0.83145,
    "v": 255
  },
  {
    "dt": "2022.03.23 01:00",
    "o": 0.83145,
    "h": 0.83218,
    "l": 0.83119,
    "c": 0.8312,
    "v": 1195
  },
  {
    "dt": "2022.03.23 02:00",
    "o": 0.83119,
    "h": 0.83152,
    "l": 0.83116,
    "c": 0.83126,
    "v": 1204
  },
  {
    "dt": "2022.03.23 03:00",
    "o": 0.83127,
    "h": 0.83132,
    "l": 0.83042,
    "c": 0.8307,
    "v": 1698
  },
  {
    "dt": "2022.03.23 04:00",
    "o": 0.83069,
    "h": 0.83079,
    "l": 0.82999,
    "c": 0.83013,
    "v": 1619
  },
  {
    "dt": "2022.03.23 05:00",
    "o": 0.83013,
    "h": 0.8304,
    "l": 0.82948,
    "c": 0.83012,
    "v": 1827
  },
  {
    "dt": "2022.03.23 06:00",
    "o": 0.83009,
    "h": 0.83031,
    "l": 0.82987,
    "c": 0.8299,
    "v": 1359
  },
  {
    "dt": "2022.03.23 07:00",
    "o": 0.8299,
    "h": 0.83038,
    "l": 0.8298,
    "c": 0.83032,
    "v": 1263
  },
  {
    "dt": "2022.03.23 08:00",
    "o": 0.83032,
    "h": 0.83069,
    "l": 0.83006,
    "c": 0.83062,
    "v": 1275
  },
  {
    "dt": "2022.03.23 09:00",
    "o": 0.83059,
    "h": 0.83119,
    "l": 0.83058,
    "c": 0.83065,
    "v": 1396
  },
  {
    "dt": "2022.03.23 10:00",
    "o": 0.83067,
    "h": 0.83157,
    "l": 0.83033,
    "c": 0.83067,
    "v": 2458
  },
  {
    "dt": "2022.03.23 11:00",
    "o": 0.83074,
    "h": 0.83331,
    "l": 0.83068,
    "c": 0.83304,
    "v": 3112
  },
  {
    "dt": "2022.03.23 12:00",
    "o": 0.83303,
    "h": 0.83319,
    "l": 0.83106,
    "c": 0.8313,
    "v": 3084
  },
  {
    "dt": "2022.03.23 13:00",
    "o": 0.83129,
    "h": 0.83243,
    "l": 0.83123,
    "c": 0.83223,
    "v": 2605
  },
  {
    "dt": "2022.03.23 14:00",
    "o": 0.83224,
    "h": 0.8327,
    "l": 0.83118,
    "c": 0.83144,
    "v": 3337
  },
  {
    "dt": "2022.03.23 15:00",
    "o": 0.83143,
    "h": 0.83365,
    "l": 0.83143,
    "c": 0.8326,
    "v": 3246
  },
  {
    "dt": "2022.03.23 16:00",
    "o": 0.83259,
    "h": 0.83298,
    "l": 0.83134,
    "c": 0.8322,
    "v": 3669
  },
  {
    "dt": "2022.03.23 17:00",
    "o": 0.83222,
    "h": 0.83301,
    "l": 0.8314,
    "c": 0.83183,
    "v": 3523
  },
  {
    "dt": "2022.03.23 18:00",
    "o": 0.83185,
    "h": 0.83297,
    "l": 0.83162,
    "c": 0.83265,
    "v": 3185
  },
  {
    "dt": "2022.03.23 19:00",
    "o": 0.83265,
    "h": 0.83372,
    "l": 0.83252,
    "c": 0.83324,
    "v": 2578
  },
  {
    "dt": "2022.03.23 20:00",
    "o": 0.83325,
    "h": 0.83357,
    "l": 0.8327,
    "c": 0.83322,
    "v": 1888
  },
  {
    "dt": "2022.03.23 21:00",
    "o": 0.8332,
    "h": 0.83362,
    "l": 0.83301,
    "c": 0.8336,
    "v": 1685
  },
  {
    "dt": "2022.03.23 22:00",
    "o": 0.83355,
    "h": 0.83368,
    "l": 0.83298,
    "c": 0.83299,
    "v": 1724
  },
  {
    "dt": "2022.03.23 23:00",
    "o": 0.83299,
    "h": 0.83359,
    "l": 0.83299,
    "c": 0.83304,
    "v": 1056
  },
  {
    "dt": "2022.03.24 00:00",
    "o": 0.83316,
    "h": 0.83404,
    "l": 0.83262,
    "c": 0.8336,
    "v": 332
  },
  {
    "dt": "2022.03.24 01:00",
    "o": 0.83346,
    "h": 0.8337,
    "l": 0.83293,
    "c": 0.83352,
    "v": 962
  },
  {
    "dt": "2022.03.24 02:00",
    "o": 0.83358,
    "h": 0.83359,
    "l": 0.83325,
    "c": 0.83338,
    "v": 1023
  },
  {
    "dt": "2022.03.24 03:00",
    "o": 0.83334,
    "h": 0.83366,
    "l": 0.83323,
    "c": 0.83348,
    "v": 1665
  },
  {
    "dt": "2022.03.24 04:00",
    "o": 0.83348,
    "h": 0.83357,
    "l": 0.83275,
    "c": 0.83287,
    "v": 1935
  },
  {
    "dt": "2022.03.24 05:00",
    "o": 0.83288,
    "h": 0.83297,
    "l": 0.83251,
    "c": 0.83263,
    "v": 1125
  },
  {
    "dt": "2022.03.24 06:00",
    "o": 0.83263,
    "h": 0.83289,
    "l": 0.83246,
    "c": 0.83256,
    "v": 1048
  },
  {
    "dt": "2022.03.24 07:00",
    "o": 0.83258,
    "h": 0.8329,
    "l": 0.83254,
    "c": 0.83274,
    "v": 1053
  },
  {
    "dt": "2022.03.24 08:00",
    "o": 0.83275,
    "h": 0.83303,
    "l": 0.83241,
    "c": 0.83254,
    "v": 1501
  },
  {
    "dt": "2022.03.24 09:00",
    "o": 0.83253,
    "h": 0.83293,
    "l": 0.83194,
    "c": 0.8328,
    "v": 1806
  },
  {
    "dt": "2022.03.24 10:00",
    "o": 0.83278,
    "h": 0.83279,
    "l": 0.83158,
    "c": 0.83269,
    "v": 2515
  },
  {
    "dt": "2022.03.24 11:00",
    "o": 0.83267,
    "h": 0.83413,
    "l": 0.83222,
    "c": 0.834,
    "v": 3954
  },
  {
    "dt": "2022.03.24 12:00",
    "o": 0.83399,
    "h": 0.83484,
    "l": 0.83389,
    "c": 0.8339,
    "v": 2841
  },
  {
    "dt": "2022.03.24 13:00",
    "o": 0.83392,
    "h": 0.83431,
    "l": 0.83239,
    "c": 0.8326,
    "v": 2822
  },
  {
    "dt": "2022.03.24 14:00",
    "o": 0.8326,
    "h": 0.83316,
    "l": 0.83191,
    "c": 0.83217,
    "v": 3081
  },
  {
    "dt": "2022.03.24 15:00",
    "o": 0.83217,
    "h": 0.83248,
    "l": 0.83177,
    "c": 0.83207,
    "v": 3103
  },
  {
    "dt": "2022.03.24 16:00",
    "o": 0.83208,
    "h": 0.83308,
    "l": 0.83196,
    "c": 0.83249,
    "v": 3639
  },
  {
    "dt": "2022.03.24 17:00",
    "o": 0.83247,
    "h": 0.8338,
    "l": 0.83242,
    "c": 0.8334,
    "v": 3450
  },
  {
    "dt": "2022.03.24 18:00",
    "o": 0.8334,
    "h": 0.83495,
    "l": 0.83327,
    "c": 0.83471,
    "v": 3806
  },
  {
    "dt": "2022.03.24 19:00",
    "o": 0.83471,
    "h": 0.83494,
    "l": 0.83332,
    "c": 0.83349,
    "v": 2627
  },
  {
    "dt": "2022.03.24 20:00",
    "o": 0.8335,
    "h": 0.83487,
    "l": 0.83327,
    "c": 0.83461,
    "v": 2363
  },
  {
    "dt": "2022.03.24 21:00",
    "o": 0.83462,
    "h": 0.83476,
    "l": 0.83415,
    "c": 0.83419,
    "v": 2148
  },
  {
    "dt": "2022.03.24 22:00",
    "o": 0.83421,
    "h": 0.83454,
    "l": 0.83372,
    "c": 0.83376,
    "v": 1544
  },
  {
    "dt": "2022.03.24 23:00",
    "o": 0.83378,
    "h": 0.8342,
    "l": 0.83365,
    "c": 0.83372,
    "v": 1131
  },
  {
    "dt": "2022.03.25 00:00",
    "o": 0.83334,
    "h": 0.83394,
    "l": 0.83328,
    "c": 0.83386,
    "v": 215
  },
  {
    "dt": "2022.03.25 01:00",
    "o": 0.83388,
    "h": 0.83424,
    "l": 0.83381,
    "c": 0.83417,
    "v": 691
  },
  {
    "dt": "2022.03.25 02:00",
    "o": 0.83419,
    "h": 0.83433,
    "l": 0.83405,
    "c": 0.83423,
    "v": 1058
  },
  {
    "dt": "2022.03.25 03:00",
    "o": 0.83423,
    "h": 0.83477,
    "l": 0.83411,
    "c": 0.83461,
    "v": 1711
  },
  {
    "dt": "2022.03.25 04:00",
    "o": 0.8346,
    "h": 0.83529,
    "l": 0.83442,
    "c": 0.83488,
    "v": 2192
  },
  {
    "dt": "2022.03.25 05:00",
    "o": 0.83488,
    "h": 0.83523,
    "l": 0.83484,
    "c": 0.83494,
    "v": 1527
  },
  {
    "dt": "2022.03.25 06:00",
    "o": 0.83495,
    "h": 0.8351,
    "l": 0.8347,
    "c": 0.83493,
    "v": 1468
  },
  {
    "dt": "2022.03.25 07:00",
    "o": 0.83492,
    "h": 0.83504,
    "l": 0.83424,
    "c": 0.83426,
    "v": 1785
  },
  {
    "dt": "2022.03.25 08:00",
    "o": 0.83427,
    "h": 0.83445,
    "l": 0.83414,
    "c": 0.83425,
    "v": 1174
  },
  {
    "dt": "2022.03.25 09:00",
    "o": 0.83424,
    "h": 0.83459,
    "l": 0.83403,
    "c": 0.83457,
    "v": 1343
  },
  {
    "dt": "2022.03.25 10:00",
    "o": 0.83456,
    "h": 0.83596,
    "l": 0.83453,
    "c": 0.83565,
    "v": 2271
  },
  {
    "dt": "2022.03.25 11:00",
    "o": 0.83563,
    "h": 0.8369,
    "l": 0.83541,
    "c": 0.83681,
    "v": 3245
  },
  {
    "dt": "2022.03.25 12:00",
    "o": 0.8368,
    "h": 0.83683,
    "l": 0.83524,
    "c": 0.8359,
    "v": 2996
  },
  {
    "dt": "2022.03.25 13:00",
    "o": 0.83592,
    "h": 0.83593,
    "l": 0.83484,
    "c": 0.83502,
    "v": 2257
  },
  {
    "dt": "2022.03.25 14:00",
    "o": 0.835,
    "h": 0.83554,
    "l": 0.83449,
    "c": 0.83479,
    "v": 2347
  },
  {
    "dt": "2022.03.25 15:00",
    "o": 0.83478,
    "h": 0.8348,
    "l": 0.83354,
    "c": 0.83376,
    "v": 2602
  },
  {
    "dt": "2022.03.25 16:00",
    "o": 0.83375,
    "h": 0.83532,
    "l": 0.83353,
    "c": 0.83493,
    "v": 3886
  },
  {
    "dt": "2022.03.25 17:00",
    "o": 0.83492,
    "h": 0.83548,
    "l": 0.83322,
    "c": 0.83403,
    "v": 3766
  },
  {
    "dt": "2022.03.25 18:00",
    "o": 0.83403,
    "h": 0.83479,
    "l": 0.83244,
    "c": 0.83249,
    "v": 3941
  },
  {
    "dt": "2022.03.25 19:00",
    "o": 0.83249,
    "h": 0.8333,
    "l": 0.83231,
    "c": 0.83295,
    "v": 3105
  },
  {
    "dt": "2022.03.25 20:00",
    "o": 0.83296,
    "h": 0.83338,
    "l": 0.83264,
    "c": 0.83289,
    "v": 2408
  },
  {
    "dt": "2022.03.25 21:00",
    "o": 0.83287,
    "h": 0.8333,
    "l": 0.83258,
    "c": 0.83326,
    "v": 2055
  },
  {
    "dt": "2022.03.25 22:00",
    "o": 0.83327,
    "h": 0.83345,
    "l": 0.83253,
    "c": 0.83261,
    "v": 1693
  },
  {
    "dt": "2022.03.25 23:00",
    "o": 0.83261,
    "h": 0.83322,
    "l": 0.83261,
    "c": 0.83302,
    "v": 1320
  },
  {
    "dt": "2022.03.28 00:00",
    "o": 0.83183,
    "h": 0.8332,
    "l": 0.83183,
    "c": 0.83274,
    "v": 323
  },
  {
    "dt": "2022.03.28 01:00",
    "o": 0.83301,
    "h": 0.83367,
    "l": 0.83281,
    "c": 0.83357,
    "v": 848
  },
  {
    "dt": "2022.03.28 02:00",
    "o": 0.83355,
    "h": 0.83388,
    "l": 0.83327,
    "c": 0.83356,
    "v": 1051
  },
  {
    "dt": "2022.03.28 03:00",
    "o": 0.83357,
    "h": 0.83385,
    "l": 0.83338,
    "c": 0.83366,
    "v": 1432
  },
  {
    "dt": "2022.03.28 04:00",
    "o": 0.83367,
    "h": 0.83378,
    "l": 0.83226,
    "c": 0.83226,
    "v": 2345
  },
  {
    "dt": "2022.03.28 05:00",
    "o": 0.83227,
    "h": 0.8331,
    "l": 0.83221,
    "c": 0.83265,
    "v": 2040
  },
  {
    "dt": "2022.03.28 06:00",
    "o": 0.83266,
    "h": 0.83284,
    "l": 0.83238,
    "c": 0.83276,
    "v": 1345
  },
  {
    "dt": "2022.03.28 07:00",
    "o": 0.83274,
    "h": 0.83316,
    "l": 0.83235,
    "c": 0.83314,
    "v": 1101
  },
  {
    "dt": "2022.03.28 08:00",
    "o": 0.83317,
    "h": 0.83348,
    "l": 0.83279,
    "c": 0.83348,
    "v": 1420
  },
  {
    "dt": "2022.03.28 09:00",
    "o": 0.83349,
    "h": 0.83419,
    "l": 0.83264,
    "c": 0.83265,
    "v": 2604
  },
  {
    "dt": "2022.03.28 10:00",
    "o": 0.83261,
    "h": 0.83319,
    "l": 0.8321,
    "c": 0.83296,
    "v": 3558
  },
  {
    "dt": "2022.03.28 11:00",
    "o": 0.83297,
    "h": 0.8355,
    "l": 0.83277,
    "c": 0.8349,
    "v": 4213
  },
  {
    "dt": "2022.03.28 12:00",
    "o": 0.83489,
    "h": 0.83672,
    "l": 0.83462,
    "c": 0.83603,
    "v": 3659
  },
  {
    "dt": "2022.03.28 13:00",
    "o": 0.83603,
    "h": 0.83603,
    "l": 0.83455,
    "c": 0.83516,
    "v": 3199
  },
  {
    "dt": "2022.03.28 14:00",
    "o": 0.83517,
    "h": 0.83674,
    "l": 0.83517,
    "c": 0.83588,
    "v": 3397
  },
  {
    "dt": "2022.03.28 15:00",
    "o": 0.83587,
    "h": 0.83673,
    "l": 0.83558,
    "c": 0.83624,
    "v": 3866
  },
  {
    "dt": "2022.03.28 16:00",
    "o": 0.83625,
    "h": 0.83859,
    "l": 0.83576,
    "c": 0.83838,
    "v": 3952
  },
  {
    "dt": "2022.03.28 17:00",
    "o": 0.83841,
    "h": 0.83962,
    "l": 0.83797,
    "c": 0.8384,
    "v": 3741
  },
  {
    "dt": "2022.03.28 18:00",
    "o": 0.83841,
    "h": 0.83854,
    "l": 0.83792,
    "c": 0.83837,
    "v": 2993
  },
  {
    "dt": "2022.03.28 19:00",
    "o": 0.83836,
    "h": 0.83989,
    "l": 0.83827,
    "c": 0.8398,
    "v": 2454
  },
  {
    "dt": "2022.03.28 20:00",
    "o": 0.83978,
    "h": 0.83992,
    "l": 0.83907,
    "c": 0.8392,
    "v": 2007
  },
  {
    "dt": "2022.03.28 21:00",
    "o": 0.83919,
    "h": 0.83928,
    "l": 0.83863,
    "c": 0.8391,
    "v": 2097
  },
  {
    "dt": "2022.03.28 22:00",
    "o": 0.83909,
    "h": 0.83917,
    "l": 0.83861,
    "c": 0.83905,
    "v": 1891
  },
  {
    "dt": "2022.03.28 23:00",
    "o": 0.83907,
    "h": 0.83926,
    "l": 0.83875,
    "c": 0.83888,
    "v": 921
  },
  {
    "dt": "2022.03.29 00:00",
    "o": 0.83871,
    "h": 0.83891,
    "l": 0.83834,
    "c": 0.83872,
    "v": 268
  },
  {
    "dt": "2022.03.29 01:00",
    "o": 0.83849,
    "h": 0.83909,
    "l": 0.83849,
    "c": 0.83875,
    "v": 944
  },
  {
    "dt": "2022.03.29 02:00",
    "o": 0.83877,
    "h": 0.83913,
    "l": 0.83877,
    "c": 0.83898,
    "v": 1474
  },
  {
    "dt": "2022.03.29 03:00",
    "o": 0.83899,
    "h": 0.83921,
    "l": 0.83847,
    "c": 0.83887,
    "v": 2377
  },
  {
    "dt": "2022.03.29 04:00",
    "o": 0.83886,
    "h": 0.83889,
    "l": 0.8385,
    "c": 0.83879,
    "v": 1810
  },
  {
    "dt": "2022.03.29 05:00",
    "o": 0.83882,
    "h": 0.83917,
    "l": 0.83873,
    "c": 0.83901,
    "v": 1356
  },
  {
    "dt": "2022.03.29 06:00",
    "o": 0.83902,
    "h": 0.8393,
    "l": 0.83885,
    "c": 0.83929,
    "v": 1469
  },
  {
    "dt": "2022.03.29 07:00",
    "o": 0.8393,
    "h": 0.83932,
    "l": 0.83894,
    "c": 0.83894,
    "v": 1316
  },
  {
    "dt": "2022.03.29 08:00",
    "o": 0.83895,
    "h": 0.83905,
    "l": 0.8386,
    "c": 0.83862,
    "v": 1642
  },
  {
    "dt": "2022.03.29 09:00",
    "o": 0.8386,
    "h": 0.84017,
    "l": 0.83849,
    "c": 0.83931,
    "v": 2484
  },
  {
    "dt": "2022.03.29 10:00",
    "o": 0.83934,
    "h": 0.84053,
    "l": 0.83934,
    "c": 0.84015,
    "v": 3527
  },
  {
    "dt": "2022.03.29 11:00",
    "o": 0.84015,
    "h": 0.84114,
    "l": 0.83916,
    "c": 0.84103,
    "v": 3375
  },
  {
    "dt": "2022.03.29 12:00",
    "o": 0.84102,
    "h": 0.84371,
    "l": 0.84051,
    "c": 0.84343,
    "v": 4093
  },
  {
    "dt": "2022.03.29 13:00",
    "o": 0.84343,
    "h": 0.84408,
    "l": 0.84271,
    "c": 0.84345,
    "v": 3148
  },
  {
    "dt": "2022.03.29 14:00",
    "o": 0.84343,
    "h": 0.84507,
    "l": 0.84309,
    "c": 0.84421,
    "v": 4144
  },
  {
    "dt": "2022.03.29 15:00",
    "o": 0.84417,
    "h": 0.84575,
    "l": 0.84363,
    "c": 0.84529,
    "v": 4940
  },
  {
    "dt": "2022.03.29 16:00",
    "o": 0.84523,
    "h": 0.84757,
    "l": 0.84467,
    "c": 0.84736,
    "v": 4396
  },
  {
    "dt": "2022.03.29 17:00",
    "o": 0.84734,
    "h": 0.84739,
    "l": 0.84376,
    "c": 0.84491,
    "v": 4754
  },
  {
    "dt": "2022.03.29 18:00",
    "o": 0.84493,
    "h": 0.84616,
    "l": 0.84476,
    "c": 0.84584,
    "v": 3556
  },
  {
    "dt": "2022.03.29 19:00",
    "o": 0.84584,
    "h": 0.84709,
    "l": 0.84548,
    "c": 0.84665,
    "v": 2835
  },
  {
    "dt": "2022.03.29 20:00",
    "o": 0.84666,
    "h": 0.84813,
    "l": 0.84666,
    "c": 0.84725,
    "v": 2486
  },
  {
    "dt": "2022.03.29 21:00",
    "o": 0.84724,
    "h": 0.84743,
    "l": 0.84674,
    "c": 0.84676,
    "v": 2273
  },
  {
    "dt": "2022.03.29 22:00",
    "o": 0.84677,
    "h": 0.84694,
    "l": 0.8462,
    "c": 0.84643,
    "v": 1817
  },
  {
    "dt": "2022.03.29 23:00",
    "o": 0.84642,
    "h": 0.84682,
    "l": 0.8463,
    "c": 0.84652,
    "v": 893
  },
  {
    "dt": "2022.03.30 00:00",
    "o": 0.84658,
    "h": 0.84659,
    "l": 0.8458,
    "c": 0.84639,
    "v": 481
  },
  {
    "dt": "2022.03.30 01:00",
    "o": 0.84641,
    "h": 0.84698,
    "l": 0.84621,
    "c": 0.84672,
    "v": 1000
  },
  {
    "dt": "2022.03.30 02:00",
    "o": 0.84673,
    "h": 0.84702,
    "l": 0.84653,
    "c": 0.84702,
    "v": 1103
  },
  {
    "dt": "2022.03.30 03:00",
    "o": 0.84702,
    "h": 0.84718,
    "l": 0.84667,
    "c": 0.84716,
    "v": 2124
  },
  {
    "dt": "2022.03.30 04:00",
    "o": 0.84717,
    "h": 0.848,
    "l": 0.84713,
    "c": 0.8479,
    "v": 2508
  },
  {
    "dt": "2022.03.30 05:00",
    "o": 0.8479,
    "h": 0.84807,
    "l": 0.84774,
    "c": 0.84781,
    "v": 2014
  },
  {
    "dt": "2022.03.30 06:00",
    "o": 0.8478,
    "h": 0.84813,
    "l": 0.84759,
    "c": 0.84792,
    "v": 1844
  },
  {
    "dt": "2022.03.30 07:00",
    "o": 0.84792,
    "h": 0.84834,
    "l": 0.84786,
    "c": 0.84801,
    "v": 1349
  },
  {
    "dt": "2022.03.30 08:00",
    "o": 0.84799,
    "h": 0.84805,
    "l": 0.84654,
    "c": 0.84686,
    "v": 1496
  },
  {
    "dt": "2022.03.30 09:00",
    "o": 0.84683,
    "h": 0.84718,
    "l": 0.84645,
    "c": 0.84668,
    "v": 2782
  },
  {
    "dt": "2022.03.30 10:00",
    "o": 0.84675,
    "h": 0.8484,
    "l": 0.84675,
    "c": 0.84771,
    "v": 3946
  },
  {
    "dt": "2022.03.30 11:00",
    "o": 0.84771,
    "h": 0.84895,
    "l": 0.84699,
    "c": 0.84892,
    "v": 3802
  },
  {
    "dt": "2022.03.30 12:00",
    "o": 0.84891,
    "h": 0.8492,
    "l": 0.84742,
    "c": 0.84744,
    "v": 3263
  },
  {
    "dt": "2022.03.30 13:00",
    "o": 0.84744,
    "h": 0.84752,
    "l": 0.84613,
    "c": 0.84681,
    "v": 3411
  },
  {
    "dt": "2022.03.30 14:00",
    "o": 0.84683,
    "h": 0.84721,
    "l": 0.8462,
    "c": 0.84642,
    "v": 2929
  },
  {
    "dt": "2022.03.30 15:00",
    "o": 0.84639,
    "h": 0.84639,
    "l": 0.84499,
    "c": 0.84534,
    "v": 3994
  },
  {
    "dt": "2022.03.30 16:00",
    "o": 0.84536,
    "h": 0.84743,
    "l": 0.84531,
    "c": 0.84736,
    "v": 3999
  },
  {
    "dt": "2022.03.30 17:00",
    "o": 0.84736,
    "h": 0.84774,
    "l": 0.84686,
    "c": 0.84735,
    "v": 3914
  },
  {
    "dt": "2022.03.30 18:00",
    "o": 0.84735,
    "h": 0.84895,
    "l": 0.84718,
    "c": 0.84883,
    "v": 3178
  },
  {
    "dt": "2022.03.30 19:00",
    "o": 0.84881,
    "h": 0.84919,
    "l": 0.84805,
    "c": 0.84876,
    "v": 2305
  },
  {
    "dt": "2022.03.30 20:00",
    "o": 0.84876,
    "h": 0.84933,
    "l": 0.84856,
    "c": 0.84909,
    "v": 1896
  },
  {
    "dt": "2022.03.30 21:00",
    "o": 0.84909,
    "h": 0.8497,
    "l": 0.84897,
    "c": 0.84945,
    "v": 1516
  },
  {
    "dt": "2022.03.30 22:00",
    "o": 0.84945,
    "h": 0.84959,
    "l": 0.84902,
    "c": 0.84902,
    "v": 1649
  },
  {
    "dt": "2022.03.30 23:00",
    "o": 0.84902,
    "h": 0.84954,
    "l": 0.84896,
    "c": 0.84936,
    "v": 817
  },
  {
    "dt": "2022.03.31 00:00",
    "o": 0.84939,
    "h": 0.84947,
    "l": 0.84916,
    "c": 0.8492,
    "v": 390
  },
  {
    "dt": "2022.03.31 01:00",
    "o": 0.84915,
    "h": 0.84971,
    "l": 0.84913,
    "c": 0.84922,
    "v": 817
  },
  {
    "dt": "2022.03.31 02:00",
    "o": 0.84922,
    "h": 0.84963,
    "l": 0.84915,
    "c": 0.84945,
    "v": 1232
  },
  {
    "dt": "2022.03.31 03:00",
    "o": 0.84946,
    "h": 0.85047,
    "l": 0.84939,
    "c": 0.85019,
    "v": 2557
  },
  {
    "dt": "2022.03.31 04:00",
    "o": 0.85017,
    "h": 0.85101,
    "l": 0.8501,
    "c": 0.85076,
    "v": 1991
  },
  {
    "dt": "2022.03.31 05:00",
    "o": 0.85076,
    "h": 0.85102,
    "l": 0.85064,
    "c": 0.85096,
    "v": 1530
  },
  {
    "dt": "2022.03.31 06:00",
    "o": 0.85097,
    "h": 0.85116,
    "l": 0.85087,
    "c": 0.85104,
    "v": 1419
  },
  {
    "dt": "2022.03.31 07:00",
    "o": 0.85105,
    "h": 0.85107,
    "l": 0.85082,
    "c": 0.85085,
    "v": 1179
  },
  {
    "dt": "2022.03.31 08:00",
    "o": 0.85088,
    "h": 0.85103,
    "l": 0.85041,
    "c": 0.85041,
    "v": 1532
  },
  {
    "dt": "2022.03.31 09:00",
    "o": 0.85043,
    "h": 0.85065,
    "l": 0.84921,
    "c": 0.8502,
    "v": 3024
  },
  {
    "dt": "2022.03.31 10:00",
    "o": 0.85027,
    "h": 0.85063,
    "l": 0.84877,
    "c": 0.84881,
    "v": 3532
  },
  {
    "dt": "2022.03.31 11:00",
    "o": 0.84881,
    "h": 0.84885,
    "l": 0.84731,
    "c": 0.84811,
    "v": 3531
  },
  {
    "dt": "2022.03.31 12:00",
    "o": 0.84813,
    "h": 0.8482,
    "l": 0.84672,
    "c": 0.84673,
    "v": 3278
  },
  {
    "dt": "2022.03.31 13:00",
    "o": 0.84673,
    "h": 0.84682,
    "l": 0.84488,
    "c": 0.84549,
    "v": 3229
  },
  {
    "dt": "2022.03.31 14:00",
    "o": 0.84549,
    "h": 0.84634,
    "l": 0.84476,
    "c": 0.84579,
    "v": 3036
  },
  {
    "dt": "2022.03.31 15:00",
    "o": 0.8458,
    "h": 0.84626,
    "l": 0.8448,
    "c": 0.84491,
    "v": 3222
  },
  {
    "dt": "2022.03.31 16:00",
    "o": 0.8449,
    "h": 0.84543,
    "l": 0.84344,
    "c": 0.84454,
    "v": 4211
  },
  {
    "dt": "2022.03.31 17:00",
    "o": 0.84453,
    "h": 0.84533,
    "l": 0.84322,
    "c": 0.84475,
    "v": 4525
  },
  {
    "dt": "2022.03.31 18:00",
    "o": 0.84475,
    "h": 0.84507,
    "l": 0.84338,
    "c": 0.84347,
    "v": 3879
  },
  {
    "dt": "2022.03.31 19:00",
    "o": 0.84346,
    "h": 0.84354,
    "l": 0.84295,
    "c": 0.84337,
    "v": 2568
  },
  {
    "dt": "2022.03.31 20:00",
    "o": 0.84335,
    "h": 0.84367,
    "l": 0.84304,
    "c": 0.84307,
    "v": 2043
  },
  {
    "dt": "2022.03.31 21:00",
    "o": 0.84306,
    "h": 0.84306,
    "l": 0.84246,
    "c": 0.84271,
    "v": 2077
  },
  {
    "dt": "2022.03.31 22:00",
    "o": 0.8427,
    "h": 0.84275,
    "l": 0.84189,
    "c": 0.84212,
    "v": 2064
  },
  {
    "dt": "2022.03.31 23:00",
    "o": 0.84216,
    "h": 0.84234,
    "l": 0.84185,
    "c": 0.84187,
    "v": 1221
  }
]