[
  {
    "dt": "2022.08.01 00:00",
    "o": 0.83939,
    "h": 0.83939,
    "l": 0.83824,
    "c": 0.83885,
    "v": 367
  },
  {
    "dt": "2022.08.01 01:00",
    "o": 0.83906,
    "h": 0.83989,
    "l": 0.83894,
    "c": 0.83914,
    "v": 1345
  },
  {
    "dt": "2022.08.01 02:00",
    "o": 0.83912,
    "h": 0.83946,
    "l": 0.83873,
    "c": 0.83902,
    "v": 1424
  },
  {
    "dt": "2022.08.01 03:00",
    "o": 0.83902,
    "h": 0.83948,
    "l": 0.83888,
    "c": 0.83948,
    "v": 2144
  },
  {
    "dt": "2022.08.01 04:00",
    "o": 0.83948,
    "h": 0.83977,
    "l": 0.83902,
    "c": 0.83949,
    "v": 2100
  },
  {
    "dt": "2022.08.01 05:00",
    "o": 0.8395,
    "h": 0.8398,
    "l": 0.8394,
    "c": 0.83952,
    "v": 1394
  },
  {
    "dt": "2022.08.01 06:00",
    "o": 0.83949,
    "h": 0.83953,
    "l": 0.83917,
    "c": 0.83928,
    "v": 1348
  },
  {
    "dt": "2022.08.01 07:00",
    "o": 0.83928,
    "h": 0.83937,
    "l": 0.83912,
    "c": 0.83916,
    "v": 974
  },
  {
    "dt": "2022.08.01 08:00",
    "o": 0.83914,
    "h": 0.83925,
    "l": 0.83864,
    "c": 0.83868,
    "v": 1020
  },
  {
    "dt": "2022.08.01 09:00",
    "o": 0.83864,
    "h": 0.83964,
    "l": 0.83817,
    "c": 0.83919,
    "v": 2502
  },
  {
    "dt": "2022.08.01 10:00",
    "o": 0.8392,
    "h": 0.83967,
    "l": 0.83853,
    "c": 0.83865,
    "v": 2990
  },
  {
    "dt": "2022.08.01 11:00",
    "o": 0.83864,
    "h": 0.83987,
    "l": 0.83829,
    "c": 0.83847,
    "v": 2945
  },
  {
    "dt": "2022.08.01 12:00",
    "o": 0.83848,
    "h": 0.83858,
    "l": 0.83741,
    "c": 0.8381,
    "v": 2849
  },
  {
    "dt": "2022.08.01 13:00",
    "o": 0.8381,
    "h": 0.83815,
    "l": 0.83658,
    "c": 0.83728,
    "v": 2568
  },
  {
    "dt": "2022.08.01 14:00",
    "o": 0.83728,
    "h": 0.838,
    "l": 0.83673,
    "c": 0.83688,
    "v": 2751
  },
  {
    "dt": "2022.08.01 15:00",
    "o": 0.83689,
    "h": 0.83711,
    "l": 0.83544,
    "c": 0.83567,
    "v": 2913
  },
  {
    "dt": "2022.08.01 16:00",
    "o": 0.83566,
    "h": 0.83691,
    "l": 0.83542,
    "c": 0.83622,
    "v": 3588
  },
  {
    "dt": "2022.08.01 17:00",
    "o": 0.83601,
    "h": 0.83772,
    "l": 0.8351,
    "c": 0.83632,
    "v": 4231
  },
  {
    "dt": "2022.08.01 18:00",
    "o": 0.83634,
    "h": 0.8374,
    "l": 0.8363,
    "c": 0.83642,
    "v": 3004
  },
  {
    "dt": "2022.08.01 19:00",
    "o": 0.83641,
    "h": 0.83678,
    "l": 0.83597,
    "c": 0.83677,
    "v": 2337
  },
  {
    "dt": "2022.08.01 20:00",
    "o": 0.83679,
    "h": 0.83717,
    "l": 0.83658,
    "c": 0.83686,
    "v": 2181
  },
  {
    "dt": "2022.08.01 21:00",
    "o": 0.83686,
    "h": 0.83713,
    "l": 0.83672,
    "c": 0.83673,
    "v": 2162
  },
  {
    "dt": "2022.08.01 22:00",
    "o": 0.83675,
    "h": 0.83703,
    "l": 0.83672,
    "c": 0.83692,
    "v": 2162
  },
  {
    "dt": "2022.08.01 23:00",
    "o": 0.83692,
    "h": 0.83725,
    "l": 0.83685,
    "c": 0.83693,
    "v": 1257
  },
  {
    "dt": "2022.08.02 00:00",
    "o": 0.83719,
    "h": 0.83728,
    "l": 0.83622,
    "c": 0.83719,
    "v": 303
  },
  {
    "dt": "2022.08.02 01:00",
    "o": 0.83719,
    "h": 0.83734,
    "l": 0.83689,
    "c": 0.83708,
    "v": 1167
  },
  {
    "dt": "2022.08.02 02:00",
    "o": 0.83712,
    "h": 0.83756,
    "l": 0.83707,
    "c": 0.83717,
    "v": 1610
  },
  {
    "dt": "2022.08.02 03:00",
    "o": 0.83724,
    "h": 0.83854,
    "l": 0.83707,
    "c": 0.83829,
    "v": 2709
  },
  {
    "dt": "2022.08.02 04:00",
    "o": 0.83826,
    "h": 0.8383,
    "l": 0.83732,
    "c": 0.83763,
    "v": 2950
  },
  {
    "dt": "2022.08.02 05:00",
    "o": 0.83763,
    "h": 0.83808,
    "l": 0.83733,
    "c": 0.83803,
    "v": 2169
  },
  {
    "dt": "2022.08.02 06:00",
    "o": 0.83803,
    "h": 0.83834,
    "l": 0.83783,
    "c": 0.83804,
    "v": 1780
  },
  {
    "dt": "2022.08.02 07:00",
    "o": 0.83803,
    "h": 0.8386,
    "l": 0.83781,
    "c": 0.83844,
    "v": 1795
  },
  {
    "dt": "2022.08.02 08:00",
    "o": 0.83845,
    "h": 0.83904,
    "l": 0.83822,
    "c": 0.83847,
    "v": 1827
  },
  {
    "dt": "2022.08.02 09:00",
    "o": 0.8385,
    "h": 0.83876,
    "l": 0.83711,
    "c": 0.83796,
    "v": 2921
  },
  {
    "dt": "2022.08.02 10:00",
    "o": 0.83805,
    "h": 0.83919,
    "l": 0.83762,
    "c": 0.8379,
    "v": 3740
  },
  {
    "dt": "2022.08.02 11:00",
    "o": 0.83792,
    "h": 0.83992,
    "l": 0.83787,
    "c": 0.83988,
    "v": 3629
  },
  {
    "dt": "2022.08.02 12:00",
    "o": 0.83987,
    "h": 0.83987,
    "l": 0.83765,
    "c": 0.83784,
    "v": 3144
  },
  {
    "dt": "2022.08.02 13:00",
    "o": 0.83786,
    "h": 0.8384,
    "l": 0.83747,
    "c": 0.83792,
    "v": 2619
  },
  {
    "dt": "2022.08.02 14:00",
    "o": 0.83795,
    "h": 0.83816,
    "l": 0.83664,
    "c": 0.83671,
    "v": 2838
  },
  {
    "dt": "2022.08.02 15:00",
    "o": 0.83677,
    "h": 0.83712,
    "l": 0.83529,
    "c": 0.83551,
    "v": 3208
  },
  {
    "dt": "2022.08.02 16:00",
    "o": 0.8355,
    "h": 0.83682,
    "l": 0.8354,
    "c": 0.83572,
    "v": 3804
  },
  {
    "dt": "2022.08.02 17:00",
    "o": 0.83574,
    "h": 0.8363,
    "l": 0.83457,
    "c": 0.83475,
    "v": 4093
  },
  {
    "dt": "2022.08.02 18:00",
    "o": 0.83474,
    "h": 0.8352,
    "l": 0.83391,
    "c": 0.83431,
    "v": 3336
  },
  {
    "dt": "2022.08.02 19:00",
    "o": 0.83427,
    "h": 0.83522,
    "l": 0.8342,
    "c": 0.8346,
    "v": 2570
  },
  {
    "dt": "2022.08.02 20:00",
    "o": 0.83458,
    "h": 0.83541,
    "l": 0.8344,
    "c": 0.83528,
    "v": 2387
  },
  {
    "dt": "2022.08.02 21:00",
    "o": 0.83526,
    "h": 0.83638,
    "l": 0.83507,
    "c": 0.83589,
    "v": 2450
  },
  {
    "dt": "2022.08.02 22:00",
    "o": 0.83585,
    "h": 0.83594,
    "l": 0.83551,
    "c": 0.83564,
    "v": 2302
  },
  {
    "dt": "2022.08.02 23:00",
    "o": 0.83561,
    "h": 0.83596,
    "l": 0.83452,
    "c": 0.83452,
    "v": 1065
  },
  {
    "dt": "2022.08.03 00:00",
    "o": 0.83409,
    "h": 0.8355,
    "l": 0.83409,
    "c": 0.83537,
    "v": 1840
  },
  {
    "dt": "2022.08.03 01:00",
    "o": 0.83539,
    "h": 0.83602,
    "l": 0.83534,
    "c": 0.83578,
    "v": 1597
  },
  {
    "dt": "2022.08.03 02:00",
    "o": 0.83577,
    "h": 0.83632,
    "l": 0.83556,
    "c": 0.83627,
    "v": 1627
  },
  {
    "dt": "2022.08.03 03:00",
    "o": 0.83626,
    "h": 0.83649,
    "l": 0.83592,
    "c": 0.83617,
    "v": 2289
  },
  {
    "dt": "2022.08.03 04:00",
    "o": 0.83616,
    "h": 0.83634,
    "l": 0.83578,
    "c": 0.8362,
    "v": 2024
  },
  {
    "dt": "2022.08.03 05:00",
    "o": 0.83618,
    "h": 0.83638,
    "l": 0.83593,
    "c": 0.83608,
    "v": 1985
  },
  {
    "dt": "2022.08.03 06:00",
    "o": 0.83608,
    "h": 0.83637,
    "l": 0.83593,
    "c": 0.83617,
    "v": 1603
  },
  {
    "dt": "2022.08.03 07:00",
    "o": 0.83618,
    "h": 0.83644,
    "l": 0.83577,
    "c": 0.83617,
    "v": 1735
  },
  {
    "dt": "2022.08.03 08:00",
    "o": 0.83617,
    "h": 0.83636,
    "l": 0.83587,
    "c": 0.83614,
    "v": 1476
  },
  {
    "dt": "2022.08.03 09:00",
    "o": 0.8361,
    "h": 0.83623,
    "l": 0.83465,
    "c": 0.83484,
    "v": 2637
  },
  {
    "dt": "2022.08.03 10:00",
    "o": 0.83483,
    "h": 0.83553,
    "l": 0.83415,
    "c": 0.83477,
    "v": 3491
  },
  {
    "dt": "2022.08.03 11:00",
    "o": 0.83485,
    "h": 0.83677,
    "l": 0.83413,
    "c": 0.83646,
    "v": 3057
  },
  {
    "dt": "2022.08.03 12:00",
    "o": 0.83645,
    "h": 0.83706,
    "l": 0.836,
    "c": 0.83684,
    "v": 2684
  },
  {
    "dt": "2022.08.03 13:00",
    "o": 0.83685,
    "h": 0.83698,
    "l": 0.83541,
    "c": 0.83622,
    "v": 2901
  },
  {
    "dt": "2022.08.03 14:00",
    "o": 0.83626,
    "h": 0.83656,
    "l": 0.83515,
    "c": 0.83534,
    "v": 2871
  },
  {
    "dt": "2022.08.03 15:00",
    "o": 0.83533,
    "h": 0.83686,
    "l": 0.83531,
    "c": 0.83656,
    "v": 3111
  },
  {
    "dt": "2022.08.03 16:00",
    "o": 0.83654,
    "h": 0.83722,
    "l": 0.83629,
    "c": 0.83696,
    "v": 3148
  },
  {
    "dt": "2022.08.03 17:00",
    "o": 0.83677,
    "h": 0.83721,
    "l": 0.83568,
    "c": 0.83649,
    "v": 4266
  },
  {
    "dt": "2022.08.03 18:00",
    "o": 0.83648,
    "h": 0.83679,
    "l": 0.83586,
    "c": 0.83613,
    "v": 3137
  },
  {
    "dt": "2022.08.03 19:00",
    "o": 0.83613,
    "h": 0.83664,
    "l": 0.83571,
    "c": 0.83582,
    "v": 2488
  },
  {
    "dt": "2022.08.03 20:00",
    "o": 0.83582,
    "h": 0.83625,
    "l": 0.83563,
    "c": 0.83606,
    "v": 1876
  },
  {
    "dt": "2022.08.03 21:00",
    "o": 0.83605,
    "h": 0.83614,
    "l": 0.83565,
    "c": 0.83602,
    "v": 1999
  },
  {
    "dt": "2022.08.03 22:00",
    "o": 0.83599,
    "h": 0.83712,
    "l": 0.83593,
    "c": 0.83704,
    "v": 2085
  },
  {
    "dt": "2022.08.03 23:00",
    "o": 0.83704,
    "h": 0.83728,
    "l": 0.83594,
    "c": 0.83602,
    "v": 1197
  },
  {
    "dt": "2022.08.04 00:00",
    "o": 0.83641,
    "h": 0.83716,
    "l": 0.83609,
    "c": 0.83693,
    "v": 433
  },
  {
    "dt": "2022.08.04 01:00",
    "o": 0.83691,
    "h": 0.83722,
    "l": 0.83638,
    "c": 0.83691,
    "v": 1111
  },
  {
    "dt": "2022.08.04 02:00",
    "o": 0.83693,
    "h": 0.83694,
    "l": 0.83652,
    "c": 0.83668,
    "v": 1007
  },
  {
    "dt": "2022.08.04 03:00",
    "o": 0.83668,
    "h": 0.83669,
    "l": 0.83588,
    "c": 0.83595,
    "v": 1821
  },
  {
    "dt": "2022.08.04 04:00",
    "o": 0.83596,
    "h": 0.83692,
    "l": 0.83564,
    "c": 0.83682,
    "v": 1759
  },
  {
    "dt": "2022.08.04 05:00",
    "o": 0.83683,
    "h": 0.83683,
    "l": 0.83641,
    "c": 0.83649,
    "v": 1148
  },
  {
    "dt": "2022.08.04 06:00",
    "o": 0.83647,
    "h": 0.83655,
    "l": 0.83621,
    "c": 0.83629,
    "v": 998
  },
  {
    "dt": "2022.08.04 07:00",
    "o": 0.8363,
    "h": 0.83635,
    "l": 0.83597,
    "c": 0.83608,
    "v": 971
  },
  {
    "dt": "2022.08.04 08:00",
    "o": 0.83606,
    "h": 0.83675,
    "l": 0.83603,
    "c": 0.83672,
    "v": 1255
  },
  {
    "dt": "2022.08.04 09:00",
    "o": 0.83677,
    "h": 0.83767,
    "l": 0.8364,
    "c": 0.83692,
    "v": 2279
  },
  {
    "dt": "2022.08.04 10:00",
    "o": 0.83694,
    "h": 0.83754,
    "l": 0.83605,
    "c": 0.83656,
    "v": 2782
  },
  {
    "dt": "2022.08.04 11:00",
    "o": 0.83659,
    "h": 0.83796,
    "l": 0.8362,
    "c": 0.8377,
    "v": 2586
  },
  {
    "dt": "2022.08.04 12:00",
    "o": 0.83769,
    "h": 0.83769,
    "l": 0.83642,
    "c": 0.83642,
    "v": 2481
  },
  {
    "dt": "2022.08.04 13:00",
    "o": 0.83644,
    "h": 0.83664,
    "l": 0.83586,
    "c": 0.83612,
    "v": 2621
  },
  {
    "dt": "2022.08.04 14:00",
    "o": 0.83609,
    "h": 0.84248,
    "l": 0.83418,
    "c": 0.84187,
    "v": 4584
  },
  {
    "dt": "2022.08.04 15:00",
    "o": 0.84182,
    "h": 0.84284,
    "l": 0.84092,
    "c": 0.84103,
    "v": 3862
  },
  {
    "dt": "2022.08.04 16:00",
    "o": 0.84103,
    "h": 0.84196,
    "l": 0.84034,
    "c": 0.84181,
    "v": 3721
  },
  {
    "dt": "2022.08.04 17:00",
    "o": 0.84179,
    "h": 0.84321,
    "l": 0.84113,
    "c": 0.84316,
    "v": 3550
  },
  {
    "dt": "2022.08.04 18:00",
    "o": 0.84301,
    "h": 0.84367,
    "l": 0.84155,
    "c": 0.84195,
    "v": 3283
  },
  {
    "dt": "2022.08.04 19:00",
    "o": 0.84192,
    "h": 0.84276,
    "l": 0.8414,
    "c": 0.84272,
    "v": 2415
  },
  {
    "dt": "2022.08.04 20:00",
    "o": 0.84272,
    "h": 0.84274,
    "l": 0.84177,
    "c": 0.84179,
    "v": 1866
  },
  {
    "dt": "2022.08.04 21:00",
    "o": 0.8418,
    "h": 0.84216,
    "l": 0.84159,
    "c": 0.84178,
    "v": 1901
  },
  {
    "dt": "2022.08.04 22:00",
    "o": 0.84175,
    "h": 0.84228,
    "l": 0.84166,
    "c": 0.84184,
    "v": 1699
  },
  {
    "dt": "2022.08.04 23:00",
    "o": 0.84182,
    "h": 0.84278,
    "l": 0.84179,
    "c": 0.84233,
    "v": 1093
  },
  {
    "dt": "2022.08.05 00:00",
    "o": 0.84188,
    "h": 0.84284,
    "l": 0.84176,
    "c": 0.84259,
    "v": 457
  },
  {
    "dt": "2022.08.05 01:00",
    "o": 0.84272,
    "h": 0.84279,
    "l": 0.84234,
    "c": 0.84271,
    "v": 1292
  },
  {
    "dt": "2022.08.05 02:00",
    "o": 0.84272,
    "h": 0.84291,
    "l": 0.84252,
    "c": 0.84271,
    "v": 1167
  },
  {
    "dt": "2022.08.05 03:00",
    "o": 0.84278,
    "h": 0.84316,
    "l": 0.84267,
    "c": 0.84291,
    "v": 1458
  },
  {
    "dt": "2022.08.05 04:00",
    "o": 0.84291,
    "h": 0.84332,
    "l": 0.84269,
    "c": 0.84279,
    "v": 1850
  },
  {
    "dt": "2022.08.05 05:00",
    "o": 0.84279,
    "h": 0.84301,
    "l": 0.84251,
    "c": 0.84298,
    "v": 1324
  },
  {
    "dt": "2022.08.05 06:00",
    "o": 0.84298,
    "h": 0.84313,
    "l": 0.84278,
    "c": 0.84288,
    "v": 1080
  },
  {
    "dt": "2022.08.05 07:00",
    "o": 0.84287,
    "h": 0.84315,
    "l": 0.84284,
    "c": 0.84295,
    "v": 947
  },
  {
    "dt": "2022.08.05 08:00",
    "o": 0.84294,
    "h": 0.84301,
    "l": 0.84222,
    "c": 0.84238,
    "v": 1343
  },
  {
    "dt": "2022.08.05 09:00",
    "o": 0.84237,
    "h": 0.84242,
    "l": 0.84122,
    "c": 0.84149,
    "v": 1995
  },
  {
    "dt": "2022.08.05 10:00",
    "o": 0.84149,
    "h": 0.84186,
    "l": 0.84097,
    "c": 0.8418,
    "v": 2543
  },
  {
    "dt": "2022.08.05 11:00",
    "o": 0.84177,
    "h": 0.84268,
    "l": 0.84152,
    "c": 0.84174,
    "v": 2491
  },
  {
    "dt": "2022.08.05 12:00",
    "o": 0.84174,
    "h": 0.84332,
    "l": 0.84165,
    "c": 0.8429,
    "v": 2229
  },
  {
    "dt": "2022.08.05 13:00",
    "o": 0.84291,
    "h": 0.84359,
    "l": 0.84263,
    "c": 0.84298,
    "v": 2127
  },
  {
    "dt": "2022.08.05 14:00",
    "o": 0.84296,
    "h": 0.84308,
    "l": 0.84256,
    "c": 0.84272,
    "v": 2179
  },
  {
    "dt": "2022.08.05 15:00",
    "o": 0.84269,
    "h": 0.8445,
    "l": 0.84149,
    "c": 0.84449,
    "v": 3937
  },
  {
    "dt": "2022.08.05 16:00",
    "o": 0.84447,
    "h": 0.84524,
    "l": 0.84359,
    "c": 0.84437,
    "v": 4175
  },
  {
    "dt": "2022.08.05 17:00",
    "o": 0.84438,
    "h": 0.84454,
    "l": 0.84273,
    "c": 0.84278,
    "v": 3894
  },
  {
    "dt": "2022.08.05 18:00",
    "o": 0.8428,
    "h": 0.84342,
    "l": 0.8425,
    "c": 0.84307,
    "v": 3006
  },
  {
    "dt": "2022.08.05 19:00",
    "o": 0.84306,
    "h": 0.84352,
    "l": 0.84267,
    "c": 0.84304,
    "v": 2682
  },
  {
    "dt": "2022.08.05 20:00",
    "o": 0.84303,
    "h": 0.84329,
    "l": 0.84238,
    "c": 0.8432,
    "v": 2190
  },
  {
    "dt": "2022.08.05 21:00",
    "o": 0.84322,
    "h": 0.8435,
    "l": 0.84299,
    "c": 0.84345,
    "v": 2235
  },
  {
    "dt": "2022.08.05 22:00",
    "o": 0.84344,
    "h": 0.84364,
    "l": 0.84306,
    "c": 0.84322,
    "v": 2038
  },
  {
    "dt": "2022.08.05 23:00",
    "o": 0.8432,
    "h": 0.84334,
    "l": 0.84251,
    "c": 0.84287,
    "v": 1461
  },
  {
    "dt": "2022.08.08 00:00",
    "o": 0.84241,
    "h": 0.84313,
    "l": 0.84217,
    "c": 0.8429,
    "v": 247
  },
  {
    "dt": "2022.08.08 01:00",
    "o": 0.84273,
    "h": 0.84366,
    "l": 0.84257,
    "c": 0.84344,
    "v": 1326
  },
  {
    "dt": "2022.08.08 02:00",
    "o": 0.84346,
    "h": 0.84365,
    "l": 0.84322,
    "c": 0.84328,
    "v": 1214
  },
  {
    "dt": "2022.08.08 03:00",
    "o": 0.8433,
    "h": 0.84332,
    "l": 0.84281,
    "c": 0.84312,
    "v": 1621
  },
  {
    "dt": "2022.08.08 04:00",
    "o": 0.84312,
    "h": 0.84319,
    "l": 0.84268,
    "c": 0.84291,
    "v": 1395
  },
  {
    "dt": "2022.08.08 05:00",
    "o": 0.8429,
    "h": 0.84349,
    "l": 0.8429,
    "c": 0.843,
    "v": 1281
  },
  {
    "dt": "2022.08.08 06:00",
    "o": 0.843,
    "h": 0.8433,
    "l": 0.84295,
    "c": 0.84316,
    "v": 1046
  },
  {
    "dt": "2022.08.08 07:00",
    "o": 0.84316,
    "h": 0.84339,
    "l": 0.84312,
    "c": 0.84333,
    "v": 634
  },
  {
    "dt": "2022.08.08 08:00",
    "o": 0.84331,
    "h": 0.84352,
    "l": 0.8429,
    "c": 0.84342,
    "v": 1156
  },
  {
    "dt": "2022.08.08 09:00",
    "o": 0.84346,
    "h": 0.84353,
    "l": 0.84226,
    "c": 0.84226,
    "v": 2203
  },
  {
    "dt": "2022.08.08 10:00",
    "o": 0.84226,
    "h": 0.84279,
    "l": 0.84125,
    "c": 0.84245,
    "v": 2972
  },
  {
    "dt": "2022.08.08 11:00",
    "o": 0.84242,
    "h": 0.84352,
    "l": 0.8423,
    "c": 0.84324,
    "v": 2617
  },
  {
    "dt": "2022.08.08 12:00",
    "o": 0.84317,
    "h": 0.8433,
    "l": 0.84206,
    "c": 0.84272,
    "v": 2396
  },
  {
    "dt": "2022.08.08 13:00",
    "o": 0.84271,
    "h": 0.84328,
    "l": 0.84183,
    "c": 0.84192,
    "v": 2268
  },
  {
    "dt": "2022.08.08 14:00",
    "o": 0.84189,
    "h": 0.84276,
    "l": 0.84156,
    "c": 0.84175,
    "v": 2370
  },
  {
    "dt": "2022.08.08 15:00",
    "o": 0.8418,
    "h": 0.8419,
    "l": 0.84103,
    "c": 0.84131,
    "v": 2538
  },
  {
    "dt": "2022.08.08 16:00",
    "o": 0.84134,
    "h": 0.84199,
    "l": 0.84109,
    "c": 0.84141,
    "v": 2967
  },
  {
    "dt": "2022.08.08 17:00",
    "o": 0.84141,
    "h": 0.84327,
    "l": 0.84093,
    "c": 0.84292,
    "v": 3018
  },
  {
    "dt": "2022.08.08 18:00",
    "o": 0.8429,
    "h": 0.84415,
    "l": 0.84273,
    "c": 0.84371,
    "v": 2305
  },
  {
    "dt": "2022.08.08 19:00",
    "o": 0.84372,
    "h": 0.84442,
    "l": 0.84368,
    "c": 0.84416,
    "v": 2141
  },
  {
    "dt": "2022.08.08 20:00",
    "o": 0.84416,
    "h": 0.84443,
    "l": 0.84365,
    "c": 0.84381,
    "v": 2104
  },
  {
    "dt": "2022.08.08 21:00",
    "o": 0.8438,
    "h": 0.8439,
    "l": 0.84361,
    "c": 0.84382,
    "v": 2063
  },
  {
    "dt": "2022.08.08 22:00",
    "o": 0.8438,
    "h": 0.84391,
    "l": 0.84361,
    "c": 0.84367,
    "v": 1857
  },
  {
    "dt": "2022.08.08 23:00",
    "o": 0.84366,
    "h": 0.84407,
    "l": 0.84302,
    "c": 0.84302,
    "v": 1091
  },
  {
    "dt": "2022.08.09 00:00",
    "o": 0.84254,
    "h": 0.84383,
    "l": 0.84223,
    "c": 0.84364,
    "v": 690
  },
  {
    "dt": "2022.08.09 01:00",
    "o": 0.84364,
    "h": 0.84396,
    "l": 0.84346,
    "c": 0.84396,
    "v": 992
  },
  {
    "dt": "2022.08.09 02:00",
    "o": 0.84396,
    "h": 0.84396,
    "l": 0.84365,
    "c": 0.84376,
    "v": 934
  },
  {
    "dt": "2022.08.09 03:00",
    "o": 0.84377,
    "h": 0.84378,
    "l": 0.8435,
    "c": 0.8437,
    "v": 1528
  },
  {
    "dt": "2022.08.09 04:00",
    "o": 0.84369,
    "h": 0.84424,
    "l": 0.8436,
    "c": 0.84413,
    "v": 1322
  },
  {
    "dt": "2022.08.09 05:00",
    "o": 0.84413,
    "h": 0.84417,
    "l": 0.84368,
    "c": 0.8438,
    "v": 1037
  },
  {
    "dt": "2022.08.09 06:00",
    "o": 0.84378,
    "h": 0.8439,
    "l": 0.84359,
    "c": 0.84375,
    "v": 713
  },
  {
    "dt": "2022.08.09 07:00",
    "o": 0.84373,
    "h": 0.84379,
    "l": 0.84343,
    "c": 0.84349,
    "v": 685
  },
  {
    "dt": "2022.08.09 08:00",
    "o": 0.84346,
    "h": 0.84383,
    "l": 0.8433,
    "c": 0.84347,
    "v": 884
  },
  {
    "dt": "2022.08.09 09:00",
    "o": 0.84346,
    "h": 0.84517,
    "l": 0.84346,
    "c": 0.84451,
    "v": 1823
  },
  {
    "dt": "2022.08.09 10:00",
    "o": 0.84453,
    "h": 0.84521,
    "l": 0.84418,
    "c": 0.84492,
    "v": 2261
  },
  {
    "dt": "2022.08.09 11:00",
    "o": 0.84492,
    "h": 0.84547,
    "l": 0.84451,
    "c": 0.84488,
    "v": 2580
  },
  {
    "dt": "2022.08.09 12:00",
    "o": 0.84486,
    "h": 0.84521,
    "l": 0.84419,
    "c": 0.84423,
    "v": 2354
  },
  {
    "dt": "2022.08.09 13:00",
    "o": 0.84422,
    "h": 0.84518,
    "l": 0.84419,
    "c": 0.8445,
    "v": 2221
  },
  {
    "dt": "2022.08.09 14:00",
    "o": 0.84452,
    "h": 0.84507,
    "l": 0.84436,
    "c": 0.84469,
    "v": 2259
  },
  {
    "dt": "2022.08.09 15:00",
    "o": 0.8447,
    "h": 0.84569,
    "l": 0.84452,
    "c": 0.84548,
    "v": 2510
  },
  {
    "dt": "2022.08.09 16:00",
    "o": 0.8455,
    "h": 0.84586,
    "l": 0.84517,
    "c": 0.84525,
    "v": 3114
  },
  {
    "dt": "2022.08.09 17:00",
    "o": 0.84523,
    "h": 0.84571,
    "l": 0.84394,
    "c": 0.84559,
    "v": 3232
  },
  {
    "dt": "2022.08.09 18:00",
    "o": 0.84557,
    "h": 0.84607,
    "l": 0.8454,
    "c": 0.84587,
    "v": 2502
  },
  {
    "dt": "2022.08.09 19:00",
    "o": 0.84588,
    "h": 0.84612,
    "l": 0.84555,
    "c": 0.84563,
    "v": 1785
  },
  {
    "dt": "2022.08.09 20:00",
    "o": 0.84562,
    "h": 0.84597,
    "l": 0.84532,
    "c": 0.84567,
    "v": 1713
  },
  {
    "dt": "2022.08.09 21:00",
    "o": 0.84568,
    "h": 0.84604,
    "l": 0.8455,
    "c": 0.84553,
    "v": 1861
  },
  {
    "dt": "2022.08.09 22:00",
    "o": 0.84551,
    "h": 0.84572,
    "l": 0.84537,
    "c": 0.84545,
    "v": 1765
  },
  {
    "dt": "2022.08.09 23:00",
    "o": 0.84547,
    "h": 0.84595,
    "l": 0.84458,
    "c": 0.84476,
    "v": 1021
  },
  {
    "dt": "2022.08.10 00:00",
    "o": 0.84456,
    "h": 0.8457,
    "l": 0.84416,
    "c": 0.84554,
    "v": 318
  },
  {
    "dt": "2022.08.10 01:00",
    "o": 0.84545,
    "h": 0.84582,
    "l": 0.84517,
    "c": 0.84526,
    "v": 1015
  },
  {
    "dt": "2022.08.10 02:00",
    "o": 0.84519,
    "h": 0.84556,
    "l": 0.84517,
    "c": 0.84551,
    "v": 977
  },
  {
    "dt": "2022.08.10 03:00",
    "o": 0.84553,
    "h": 0.8458,
    "l": 0.84499,
    "c": 0.84571,
    "v": 1194
  },
  {
    "dt": "2022.08.10 04:00",
    "o": 0.84572,
    "h": 0.84578,
    "l": 0.84556,
    "c": 0.84561,
    "v": 1455
  },
  {
    "dt": "2022.08.10 05:00",
    "o": 0.84559,
    "h": 0.84574,
    "l": 0.8453,
    "c": 0.84572,
    "v": 1088
  },
  {
    "dt": "2022.08.10 06:00",
    "o": 0.84572,
    "h": 0.84576,
    "l": 0.84523,
    "c": 0.84525,
    "v": 715
  },
  {
    "dt": "2022.08.10 07:00",
    "o": 0.84526,
    "h": 0.84539,
    "l": 0.84517,
    "c": 0.84517,
    "v": 707
  },
  {
    "dt": "2022.08.10 08:00",
    "o": 0.84517,
    "h": 0.84568,
    "l": 0.84517,
    "c": 0.8453,
    "v": 814
  },
  {
    "dt": "2022.08.10 09:00",
    "o": 0.84534,
    "h": 0.84595,
    "l": 0.84518,
    "c": 0.84553,
    "v": 1621
  },
  {
    "dt": "2022.08.10 10:00",
    "o": 0.84548,
    "h": 0.84552,
    "l": 0.84445,
    "c": 0.84465,
    "v": 2517
  },
  {
    "dt": "2022.08.10 11:00",
    "o": 0.84461,
    "h": 0.84513,
    "l": 0.84416,
    "c": 0.84506,
    "v": 2389
  },
  {
    "dt": "2022.08.10 12:00",
    "o": 0.84506,
    "h": 0.84598,
    "l": 0.84487,
    "c": 0.84587,
    "v": 2027
  },
  {
    "dt": "2022.08.10 13:00",
    "o": 0.84588,
    "h": 0.84672,
    "l": 0.84567,
    "c": 0.84659,
    "v": 2027
  },
  {
    "dt": "2022.08.10 14:00",
    "o": 0.84654,
    "h": 0.84697,
    "l": 0.84597,
    "c": 0.84602,
    "v": 2440
  },
  {
    "dt": "2022.08.10 15:00",
    "o": 0.84601,
    "h": 0.84666,
    "l": 0.84391,
    "c": 0.84484,
    "v": 3973
  },
  {
    "dt": "2022.08.10 16:00",
    "o": 0.84484,
    "h": 0.84551,
    "l": 0.84378,
    "c": 0.84422,
    "v": 4037
  },
  {
    "dt": "2022.08.10 17:00",
    "o": 0.8442,
    "h": 0.84524,
    "l": 0.84385,
    "c": 0.8446,
    "v": 3944
  },
  {
    "dt": "2022.08.10 18:00",
    "o": 0.8446,
    "h": 0.84478,
    "l": 0.84361,
    "c": 0.84394,
    "v": 3267
  },
  {
    "dt": "2022.08.10 19:00",
    "o": 0.84393,
    "h": 0.84393,
    "l": 0.84278,
    "c": 0.84293,
    "v": 2550
  },
  {
    "dt": "2022.08.10 20:00",
    "o": 0.84294,
    "h": 0.84311,
    "l": 0.84175,
    "c": 0.84201,
    "v": 2222
  },
  {
    "dt": "2022.08.10 21:00",
    "o": 0.842,
    "h": 0.84298,
    "l": 0.84194,
    "c": 0.84277,
    "v": 2456
  },
  {
    "dt": "2022.08.10 22:00",
    "o": 0.84278,
    "h": 0.84324,
    "l": 0.8426,
    "c": 0.84318,
    "v": 1986
  },
  {
    "dt": "2022.08.10 23:00",
    "o": 0.84314,
    "h": 0.84342,
    "l": 0.84249,
    "c": 0.84249,
    "v": 1282
  },
  {
    "dt": "2022.08.11 00:00",
    "o": 0.84206,
    "h": 0.84302,
    "l": 0.84149,
    "c": 0.84297,
    "v": 646
  },
  {
    "dt": "2022.08.11 01:00",
    "o": 0.84302,
    "h": 0.84329,
    "l": 0.84283,
    "c": 0.84301,
    "v": 1253
  },
  {
    "dt": "2022.08.11 02:00",
    "o": 0.84302,
    "h": 0.8437,
    "l": 0.84298,
    "c": 0.84334,
    "v": 1025
  },
  {
    "dt": "2022.08.11 03:00",
    "o": 0.84335,
    "h": 0.84376,
    "l": 0.843,
    "c": 0.84342,
    "v": 1352
  },
  {
    "dt": "2022.08.11 04:00",
    "o": 0.84343,
    "h": 0.84378,
    "l": 0.84322,
    "c": 0.84359,
    "v": 1820
  },
  {
    "dt": "2022.08.11 05:00",
    "o": 0.84358,
    "h": 0.84403,
    "l": 0.84354,
    "c": 0.84379,
    "v": 1453
  },
  {
    "dt": "2022.08.11 06:00",
    "o": 0.8438,
    "h": 0.84393,
    "l": 0.84339,
    "c": 0.84371,
    "v": 942
  },
  {
    "dt": "2022.08.11 07:00",
    "o": 0.84373,
    "h": 0.84373,
    "l": 0.84335,
    "c": 0.84345,
    "v": 857
  },
  {
    "dt": "2022.08.11 08:00",
    "o": 0.84343,
    "h": 0.84353,
    "l": 0.84309,
    "c": 0.84309,
    "v": 1240
  },
  {
    "dt": "2022.08.11 09:00",
    "o": 0.84311,
    "h": 0.84369,
    "l": 0.84293,
    "c": 0.84356,
    "v": 2670
  },
  {
    "dt": "2022.08.11 10:00",
    "o": 0.84351,
    "h": 0.84518,
    "l": 0.84321,
    "c": 0.84455,
    "v": 2875
  },
  {
    "dt": "2022.08.11 11:00",
    "o": 0.84454,
    "h": 0.84512,
    "l": 0.84382,
    "c": 0.84464,
    "v": 2902
  },
  {
    "dt": "2022.08.11 12:00",
    "o": 0.84463,
    "h": 0.84598,
    "l": 0.84456,
    "c": 0.84563,
    "v": 2709
  },
  {
    "dt": "2022.08.11 13:00",
    "o": 0.84563,
    "h": 0.84695,
    "l": 0.84539,
    "c": 0.84679,
    "v": 2617
  },
  {
    "dt": "2022.08.11 14:00",
    "o": 0.84679,
    "h": 0.84693,
    "l": 0.84543,
    "c": 0.84554,
    "v": 2836
  },
  {
    "dt": "2022.08.11 15:00",
    "o": 0.84556,
    "h": 0.84587,
    "l": 0.84497,
    "c": 0.8456,
    "v": 3617
  },
  {
    "dt": "2022.08.11 16:00",
    "o": 0.84559,
    "h": 0.8465,
    "l": 0.84556,
    "c": 0.84606,
    "v": 3520
  },
  {
    "dt": "2022.08.11 17:00",
    "o": 0.84603,
    "h": 0.84629,
    "l": 0.84486,
    "c": 0.84618,
    "v": 3383
  },
  {
    "dt": "2022.08.11 18:00",
    "o": 0.84621,
    "h": 0.8464,
    "l": 0.84524,
    "c": 0.84531,
    "v": 3188
  },
  {
    "dt": "2022.08.11 19:00",
    "o": 0.84531,
    "h": 0.8459,
    "l": 0.84474,
    "c": 0.84498,
    "v": 2337
  },
  {
    "dt": "2022.08.11 20:00",
    "o": 0.84498,
    "h": 0.84563,
    "l": 0.84477,
    "c": 0.84562,
    "v": 2287
  },
  {
    "dt": "2022.08.11 21:00",
    "o": 0.84562,
    "h": 0.84634,
    "l": 0.84529,
    "c": 0.84619,
    "v": 2408
  },
  {
    "dt": "2022.08.11 22:00",
    "o": 0.84619,
    "h": 0.84646,
    "l": 0.84596,
    "c": 0.8462,
    "v": 1977
  },
  {
    "dt": "2022.08.11 23:00",
    "o": 0.84623,
    "h": 0.84651,
    "l": 0.84521,
    "c": 0.84524,
    "v": 1406
  },
  {
    "dt": "2022.08.12 00:00",
    "o": 0.84506,
    "h": 0.84598,
    "l": 0.84506,
    "c": 0.8457,
    "v": 300
  },
  {
    "dt": "2022.08.12 01:00",
    "o": 0.84585,
    "h": 0.84627,
    "l": 0.8458,
    "c": 0.84599,
    "v": 1043
  },
  {
    "dt": "2022.08.12 02:00",
    "o": 0.84601,
    "h": 0.8464,
    "l": 0.84601,
    "c": 0.84616,
    "v": 805
  },
  {
    "dt": "2022.08.12 03:00",
    "o": 0.84618,
    "h": 0.84648,
    "l": 0.84586,
    "c": 0.84628,
    "v": 1817
  },
  {
    "dt": "2022.08.12 04:00",
    "o": 0.84635,
    "h": 0.84637,
    "l": 0.84584,
    "c": 0.84604,
    "v": 1662
  },
  {
    "dt": "2022.08.12 05:00",
    "o": 0.84605,
    "h": 0.84633,
    "l": 0.84589,
    "c": 0.84623,
    "v": 1221
  },
  {
    "dt": "2022.08.12 06:00",
    "o": 0.8462,
    "h": 0.84634,
    "l": 0.84591,
    "c": 0.8463,
    "v": 1018
  },
  {
    "dt": "2022.08.12 07:00",
    "o": 0.84632,
    "h": 0.84633,
    "l": 0.84606,
    "c": 0.84633,
    "v": 1012
  },
  {
    "dt": "2022.08.12 08:00",
    "o": 0.84636,
    "h": 0.84653,
    "l": 0.84563,
    "c": 0.84624,
    "v": 1291
  },
  {
    "dt": "2022.08.12 09:00",
    "o": 0.84628,
    "h": 0.84653,
    "l": 0.84455,
    "c": 0.8451,
    "v": 2326
  },
  {
    "dt": "2022.08.12 10:00",
    "o": 0.84512,
    "h": 0.84589,
    "l": 0.84454,
    "c": 0.84523,
    "v": 2755
  },
  {
    "dt": "2022.08.12 11:00",
    "o": 0.84523,
    "h": 0.84612,
    "l": 0.84488,
    "c": 0.84583,
    "v": 2270
  },
  {
    "dt": "2022.08.12 12:00",
    "o": 0.84585,
    "h": 0.8487,
    "l": 0.84584,
    "c": 0.84771,
    "v": 2555
  },
  {
    "dt": "2022.08.12 13:00",
    "o": 0.8477,
    "h": 0.84918,
    "l": 0.84757,
    "c": 0.84833,
    "v": 2544
  },
  {
    "dt": "2022.08.12 14:00",
    "o": 0.84837,
    "h": 0.84842,
    "l": 0.84719,
    "c": 0.84722,
    "v": 2544
  },
  {
    "dt": "2022.08.12 15:00",
    "o": 0.84723,
    "h": 0.84819,
    "l": 0.84694,
    "c": 0.84797,
    "v": 3006
  },
  {
    "dt": "2022.08.12 16:00",
    "o": 0.84791,
    "h": 0.84794,
    "l": 0.8467,
    "c": 0.84684,
    "v": 2317
  },
  {
    "dt": "2022.08.12 17:00",
    "o": 0.84685,
    "h": 0.84767,
    "l": 0.8452,
    "c": 0.84537,
    "v": 3782
  },
  {
    "dt": "2022.08.12 18:00",
    "o": 0.84536,
    "h": 0.84577,
    "l": 0.84514,
    "c": 0.84532,
    "v": 2875
  },
  {
    "dt": "2022.08.12 19:00",
    "o": 0.84529,
    "h": 0.84578,
    "l": 0.84492,
    "c": 0.84552,
    "v": 1947
  },
  {
    "dt": "2022.08.12 20:00",
    "o": 0.84553,
    "h": 0.84559,
    "l": 0.84502,
    "c": 0.84509,
    "v": 1512
  },
  {
    "dt": "2022.08.12 21:00",
    "o": 0.84509,
    "h": 0.8455,
    "l": 0.84505,
    "c": 0.84544,
    "v": 1258
  },
  {
    "dt": "2022.08.12 22:00",
    "o": 0.84543,
    "h": 0.84593,
    "l": 0.84527,
    "c": 0.84529,
    "v": 1504
  },
  {
    "dt": "2022.08.12 23:00",
    "o": 0.84528,
    "h": 0.84547,
    "l": 0.84478,
    "c": 0.84481,
    "v": 1270
  },
  {
    "dt": "2022.08.15 00:00",
    "o": 0.84471,
    "h": 0.84528,
    "l": 0.84449,
    "c": 0.84483,
    "v": 243
  },
  {
    "dt": "2022.08.15 01:00",
    "o": 0.84503,
    "h": 0.84579,
    "l": 0.8448,
    "c": 0.84558,
    "v": 881
  },
  {
    "dt": "2022.08.15 02:00",
    "o": 0.84558,
    "h": 0.84567,
    "l": 0.8452,
    "c": 0.8454,
    "v": 945
  },
  {
    "dt": "2022.08.15 03:00",
    "o": 0.84541,
    "h": 0.84552,
    "l": 0.84504,
    "c": 0.84535,
    "v": 1319
  },
  {
    "dt": "2022.08.15 04:00",
    "o": 0.84534,
    "h": 0.84586,
    "l": 0.84521,
    "c": 0.84559,
    "v": 1390
  },
  {
    "dt": "2022.08.15 05:00",
    "o": 0.8456,
    "h": 0.84601,
    "l": 0.84545,
    "c": 0.8457,
    "v": 1380
  },
  {
    "dt": "2022.08.15 06:00",
    "o": 0.84571,
    "h": 0.84588,
    "l": 0.8455,
    "c": 0.84563,
    "v": 1066
  },
  {
    "dt": "2022.08.15 07:00",
    "o": 0.84562,
    "h": 0.84598,
    "l": 0.8456,
    "c": 0.84596,
    "v": 937
  },
  {
    "dt": "2022.08.15 08:00",
    "o": 0.84592,
    "h": 0.84592,
    "l": 0.84543,
    "c": 0.84572,
    "v": 969
  },
  {
    "dt": "2022.08.15 09:00",
    "o": 0.8457,
    "h": 0.84593,
    "l": 0.84514,
    "c": 0.84552,
    "v": 2081
  },
  {
    "dt": "2022.08.15 10:00",
    "o": 0.84554,
    "h": 0.84701,
    "l": 0.84524,
    "c": 0.84539,
    "v": 2493
  },
  {
    "dt": "2022.08.15 11:00",
    "o": 0.84537,
    "h": 0.84591,
    "l": 0.84498,
    "c": 0.84525,
    "v": 2397
  },
  {
    "dt": "2022.08.15 12:00",
    "o": 0.84524,
    "h": 0.84596,
    "l": 0.84475,
    "c": 0.84521,
    "v": 2313
  },
  {
    "dt": "2022.08.15 13:00",
    "o": 0.84523,
    "h": 0.84554,
    "l": 0.84378,
    "c": 0.84379,
    "v": 2215
  },
  {
    "dt": "2022.08.15 14:00",
    "o": 0.84377,
    "h": 0.84409,
    "l": 0.84327,
    "c": 0.84363,
    "v": 2330
  },
  {
    "dt": "2022.08.15 15:00",
    "o": 0.84363,
    "h": 0.844,
    "l": 0.84297,
    "c": 0.84369,
    "v": 2993
  },
  {
    "dt": "2022.08.15 16:00",
    "o": 0.84367,
    "h": 0.84438,
    "l": 0.84344,
    "c": 0.84358,
    "v": 2826
  },
  {
    "dt": "2022.08.15 17:00",
    "o": 0.84358,
    "h": 0.84416,
    "l": 0.843,
    "c": 0.84384,
    "v": 2878
  },
  {
    "dt": "2022.08.15 18:00",
    "o": 0.84383,
    "h": 0.84393,
    "l": 0.84248,
    "c": 0.84251,
    "v": 2386
  },
  {
    "dt": "2022.08.15 19:00",
    "o": 0.84252,
    "h": 0.84289,
    "l": 0.84188,
    "c": 0.84195,
    "v": 1893
  },
  {
    "dt": "2022.08.15 20:00",
    "o": 0.84195,
    "h": 0.84234,
    "l": 0.84182,
    "c": 0.84225,
    "v": 1734
  },
  {
    "dt": "2022.08.15 21:00",
    "o": 0.84225,
    "h": 0.84265,
    "l": 0.84207,
    "c": 0.84242,
    "v": 1627
  },
  {
    "dt": "2022.08.15 22:00",
    "o": 0.84243,
    "h": 0.84287,
    "l": 0.84238,
    "c": 0.84277,
    "v": 1510
  },
  {
    "dt": "2022.08.15 23:00",
    "o": 0.84276,
    "h": 0.84305,
    "l": 0.84196,
    "c": 0.84196,
    "v": 1027
  },
  {
    "dt": "2022.08.16 00:00",
    "o": 0.84197,
    "h": 0.84287,
    "l": 0.84197,
    "c": 0.84215,
    "v": 1243
  },
  {
    "dt": "2022.08.16 01:00",
    "o": 0.84229,
    "h": 0.84312,
    "l": 0.8421,
    "c": 0.84302,
    "v": 1206
  },
  {
    "dt": "2022.08.16 02:00",
    "o": 0.84301,
    "h": 0.84305,
    "l": 0.84262,
    "c": 0.84273,
    "v": 935
  },
  {
    "dt": "2022.08.16 03:00",
    "o": 0.84274,
    "h": 0.84341,
    "l": 0.84269,
    "c": 0.84324,
    "v": 1498
  },
  {
    "dt": "2022.08.16 04:00",
    "o": 0.84323,
    "h": 0.84335,
    "l": 0.84288,
    "c": 0.84309,
    "v": 1516
  },
  {
    "dt": "2022.08.16 05:00",
    "o": 0.8431,
    "h": 0.84335,
    "l": 0.84295,
    "c": 0.84331,
    "v": 1177
  },
  {
    "dt": "2022.08.16 06:00",
    "o": 0.84332,
    "h": 0.84338,
    "l": 0.8429,
    "c": 0.84332,
    "v": 916
  },
  {
    "dt": "2022.08.16 07:00",
    "o": 0.84331,
    "h": 0.84338,
    "l": 0.84284,
    "c": 0.84284,
    "v": 597
  },
  {
    "dt": "2022.08.16 08:00",
    "o": 0.84284,
    "h": 0.84327,
    "l": 0.84284,
    "c": 0.84318,
    "v": 1025
  },
  {
    "dt": "2022.08.16 09:00",
    "o": 0.84313,
    "h": 0.84387,
    "l": 0.84275,
    "c": 0.84345,
    "v": 2365
  },
  {
    "dt": "2022.08.16 10:00",
    "o": 0.84343,
    "h": 0.8439,
    "l": 0.8426,
    "c": 0.84266,
    "v": 2951
  },
  {
    "dt": "2022.08.16 11:00",
    "o": 0.84268,
    "h": 0.84292,
    "l": 0.8421,
    "c": 0.84217,
    "v": 2620
  },
  {
    "dt": "2022.08.16 12:00",
    "o": 0.84214,
    "h": 0.84304,
    "l": 0.84118,
    "c": 0.84282,
    "v": 2723
  },
  {
    "dt": "2022.08.16 13:00",
    "o": 0.84281,
    "h": 0.84361,
    "l": 0.84215,
    "c": 0.84276,
    "v": 2425
  },
  {
    "dt": "2022.08.16 14:00",
    "o": 0.84276,
    "h": 0.84301,
    "l": 0.84199,
    "c": 0.84239,
    "v": 2312
  },
  {
    "dt": "2022.08.16 15:00",
    "o": 0.84239,
    "h": 0.84269,
    "l": 0.84125,
    "c": 0.84138,
    "v": 2822
  },
  {
    "dt": "2022.08.16 16:00",
    "o": 0.84142,
    "h": 0.8428,
    "l": 0.8412,
    "c": 0.84144,
    "v": 3227
  },
  {
    "dt": "2022.08.16 17:00",
    "o": 0.84143,
    "h": 0.84178,
    "l": 0.84096,
    "c": 0.8415,
    "v": 3257
  },
  {
    "dt": "2022.08.16 18:00",
    "o": 0.84155,
    "h": 0.84183,
    "l": 0.84047,
    "c": 0.84142,
    "v": 2299
  },
  {
    "dt": "2022.08.16 19:00",
    "o": 0.84143,
    "h": 0.84174,
    "l": 0.84134,
    "c": 0.84137,
    "v": 1567
  },
  {
    "dt": "2022.08.16 20:00",
    "o": 0.84135,
    "h": 0.8419,
    "l": 0.84111,
    "c": 0.8412,
    "v": 1478
  },
  {
    "dt": "2022.08.16 21:00",
    "o": 0.8412,
    "h": 0.84136,
    "l": 0.84092,
    "c": 0.84104,
    "v": 1915
  },
  {
    "dt": "2022.08.16 22:00",
    "o": 0.84104,
    "h": 0.8412,
    "l": 0.84057,
    "c": 0.84082,
    "v": 1569
  },
  {
    "dt": "2022.08.16 23:00",
    "o": 0.84081,
    "h": 0.84103,
    "l": 0.8404,
    "c": 0.84044,
    "v": 854
  },
  {
    "dt": "2022.08.17 00:00",
    "o": 0.84009,
    "h": 0.84069,
    "l": 0.84009,
    "c": 0.84051,
    "v": 1215
  },
  {
    "dt": "2022.08.17 01:00",
    "o": 0.84049,
    "h": 0.84086,
    "l": 0.84039,
    "c": 0.84069,
    "v": 1042
  },
  {
    "dt": "2022.08.17 02:00",
    "o": 0.84067,
    "h": 0.8408,
    "l": 0.84051,
    "c": 0.84075,
    "v": 929
  },
  {
    "dt": "2022.08.17 03:00",
    "o": 0.84074,
    "h": 0.84075,
    "l": 0.83972,
    "c": 0.8399,
    "v": 1470
  },
  {
    "dt": "2022.08.17 04:00",
    "o": 0.83996,
    "h": 0.84018,
    "l": 0.83983,
    "c": 0.83992,
    "v": 1655
  },
  {
    "dt": "2022.08.17 05:00",
    "o": 0.8399,
    "h": 0.84034,
    "l": 0.83984,
    "c": 0.84032,
    "v": 1636
  },
  {
    "dt": "2022.08.17 06:00",
    "o": 0.84032,
    "h": 0.84037,
    "l": 0.84009,
    "c": 0.84018,
    "v": 1283
  },
  {
    "dt": "2022.08.17 07:00",
    "o": 0.84024,
    "h": 0.84056,
    "l": 0.84,
    "c": 0.84003,
    "v": 1224
  },
  {
    "dt": "2022.08.17 08:00",
    "o": 0.84003,
    "h": 0.84011,
    "l": 0.83959,
    "c": 0.83981,
    "v": 1051
  },
  {
    "dt": "2022.08.17 09:00",
    "o": 0.83983,
    "h": 0.84038,
    "l": 0.83867,
    "c": 0.83932,
    "v": 2740
  },
  {
    "dt": "2022.08.17 10:00",
    "o": 0.83931,
    "h": 0.8403,
    "l": 0.83927,
    "c": 0.84024,
    "v": 2978
  },
  {
    "dt": "2022.08.17 11:00",
    "o": 0.84025,
    "h": 0.8409,
    "l": 0.83975,
    "c": 0.84046,
    "v": 2802
  },
  {
    "dt": "2022.08.17 12:00",
    "o": 0.84047,
    "h": 0.84115,
    "l": 0.84024,
    "c": 0.84071,
    "v": 2312
  },
  {
    "dt": "2022.08.17 13:00",
    "o": 0.84069,
    "h": 0.84151,
    "l": 0.84001,
    "c": 0.84061,
    "v": 2296
  },
  {
    "dt": "2022.08.17 14:00",
    "o": 0.84062,
    "h": 0.84204,
    "l": 0.84053,
    "c": 0.84166,
    "v": 2579
  },
  {
    "dt": "2022.08.17 15:00",
    "o": 0.84174,
    "h": 0.84222,
    "l": 0.84127,
    "c": 0.84204,
    "v": 3175
  },
  {
    "dt": "2022.08.17 16:00",
    "o": 0.84201,
    "h": 0.84277,
    "l": 0.84194,
    "c": 0.84247,
    "v": 3147
  },
  {
    "dt": "2022.08.17 17:00",
    "o": 0.84249,
    "h": 0.84435,
    "l": 0.84247,
    "c": 0.84365,
    "v": 3386
  },
  {
    "dt": "2022.08.17 18:00",
    "o": 0.84367,
    "h": 0.84472,
    "l": 0.8435,
    "c": 0.84471,
    "v": 2558
  },
  {
    "dt": "2022.08.17 19:00",
    "o": 0.84472,
    "h": 0.84495,
    "l": 0.84372,
    "c": 0.84422,
    "v": 2180
  },
  {
    "dt": "2022.08.17 20:00",
    "o": 0.84422,
    "h": 0.84439,
    "l": 0.84383,
    "c": 0.84427,
    "v": 1940
  },
  {
    "dt": "2022.08.17 21:00",
    "o": 0.84425,
    "h": 0.84464,
    "l": 0.84386,
    "c": 0.84412,
    "v": 3407
  },
  {
    "dt": "2022.08.17 22:00",
    "o": 0.84409,
    "h": 0.84493,
    "l": 0.84399,
    "c": 0.84467,
    "v": 1932
  },
  {
    "dt": "2022.08.17 23:00",
    "o": 0.84468,
    "h": 0.84483,
    "l": 0.84424,
    "c": 0.84447,
    "v": 959
  },
  {
    "dt": "2022.08.18 00:00",
    "o": 0.8444,
    "h": 0.84455,
    "l": 0.84372,
    "c": 0.84435,
    "v": 1062
  },
  {
    "dt": "2022.08.18 01:00",
    "o": 0.84436,
    "h": 0.84469,
    "l": 0.84436,
    "c": 0.84469,
    "v": 1206
  },
  {
    "dt": "2022.08.18 02:00",
    "o": 0.84469,
    "h": 0.84494,
    "l": 0.84444,
    "c": 0.84485,
    "v": 942
  },
  {
    "dt": "2022.08.18 03:00",
    "o": 0.84481,
    "h": 0.84552,
    "l": 0.84475,
    "c": 0.84531,
    "v": 1501
  },
  {
    "dt": "2022.08.18 04:00",
    "o": 0.84531,
    "h": 0.84565,
    "l": 0.84493,
    "c": 0.84565,
    "v": 1776
  },
  {
    "dt": "2022.08.18 05:00",
    "o": 0.84564,
    "h": 0.84583,
    "l": 0.84483,
    "c": 0.84485,
    "v": 1245
  },
  {
    "dt": "2022.08.18 06:00",
    "o": 0.84485,
    "h": 0.84506,
    "l": 0.84443,
    "c": 0.84497,
    "v": 1225
  },
  {
    "dt": "2022.08.18 07:00",
    "o": 0.84498,
    "h": 0.84501,
    "l": 0.84427,
    "c": 0.84434,
    "v": 1037
  },
  {
    "dt": "2022.08.18 08:00",
    "o": 0.84435,
    "h": 0.84518,
    "l": 0.84426,
    "c": 0.84504,
    "v": 1549
  },
  {
    "dt": "2022.08.18 09:00",
    "o": 0.84501,
    "h": 0.84655,
    "l": 0.84469,
    "c": 0.84558,
    "v": 2671
  },
  {
    "dt": "2022.08.18 10:00",
    "o": 0.84561,
    "h": 0.84574,
    "l": 0.84448,
    "c": 0.84479,
    "v": 2927
  },
  {
    "dt": "2022.08.18 11:00",
    "o": 0.84477,
    "h": 0.84518,
    "l": 0.84362,
    "c": 0.84381,
    "v": 2810
  },
  {
    "dt": "2022.08.18 12:00",
    "o": 0.84381,
    "h": 0.84389,
    "l": 0.84238,
    "c": 0.84252,
    "v": 2276
  },
  {
    "dt": "2022.08.18 13:00",
    "o": 0.84256,
    "h": 0.84398,
    "l": 0.84244,
    "c": 0.84396,
    "v": 2288
  },
  {
    "dt": "2022.08.18 14:00",
    "o": 0.84396,
    "h": 0.84427,
    "l": 0.84339,
    "c": 0.84356,
    "v": 2496
  },
  {
    "dt": "2022.08.18 15:00",
    "o": 0.84355,
    "h": 0.84435,
    "l": 0.84332,
    "c": 0.84393,
    "v": 3129
  },
  {
    "dt": "2022.08.18 16:00",
    "o": 0.84396,
    "h": 0.84405,
    "l": 0.84248,
    "c": 0.84299,
    "v": 3334
  },
  {
    "dt": "2022.08.18 17:00",
    "o": 0.84298,
    "h": 0.84411,
    "l": 0.84288,
    "c": 0.84378,
    "v": 3231
  },
  {
    "dt": "2022.08.18 18:00",
    "o": 0.84378,
    "h": 0.84489,
    "l": 0.84372,
    "c": 0.84482,
    "v": 2579
  },
  {
    "dt": "2022.08.18 19:00",
    "o": 0.84484,
    "h": 0.84527,
    "l": 0.84422,
    "c": 0.84519,
    "v": 2210
  },
  {
    "dt": "2022.08.18 20:00",
    "o": 0.8452,
    "h": 0.84554,
    "l": 0.84489,
    "c": 0.84538,
    "v": 2398
  },
  {
    "dt": "2022.08.18 21:00",
    "o": 0.84534,
    "h": 0.84557,
    "l": 0.84512,
    "c": 0.84557,
    "v": 1846
  },
  {
    "dt": "2022.08.18 22:00",
    "o": 0.84554,
    "h": 0.84564,
    "l": 0.8453,
    "c": 0.84553,
    "v": 1468
  },
  {
    "dt": "2022.08.18 23:00",
    "o": 0.8455,
    "h": 0.84564,
    "l": 0.845,
    "c": 0.84509,
    "v": 1206
  },
  {
    "dt": "2022.08.19 00:00",
    "o": 0.84542,
    "h": 0.84544,
    "l": 0.84499,
    "c": 0.84525,
    "v": 774
  },
  {
    "dt": "2022.08.19 01:00",
    "o": 0.84529,
    "h": 0.84564,
    "l": 0.84518,
    "c": 0.84538,
    "v": 1043
  },
  {
    "dt": "2022.08.19 02:00",
    "o": 0.84539,
    "h": 0.84559,
    "l": 0.84517,
    "c": 0.84556,
    "v": 1026
  },
  {
    "dt": "2022.08.19 03:00",
    "o": 0.84558,
    "h": 0.84649,
    "l": 0.84544,
    "c": 0.84647,
    "v": 1786
  },
  {
    "dt": "2022.08.19 04:00",
    "o": 0.84647,
    "h": 0.84649,
    "l": 0.84558,
    "c": 0.84574,
    "v": 1420
  },
  {
    "dt": "2022.08.19 05:00",
    "o": 0.84573,
    "h": 0.84597,
    "l": 0.8454,
    "c": 0.84572,
    "v": 1253
  },
  {
    "dt": "2022.08.19 06:00",
    "o": 0.8457,
    "h": 0.8461,
    "l": 0.84569,
    "c": 0.84585,
    "v": 1120
  },
  {
    "dt": "2022.08.19 07:00",
    "o": 0.84585,
    "h": 0.84688,
    "l": 0.84565,
    "c": 0.84644,
    "v": 1058
  },
  {
    "dt": "2022.08.19 08:00",
    "o": 0.84645,
    "h": 0.84649,
    "l": 0.8457,
    "c": 0.84607,
    "v": 1213
  },
  {
    "dt": "2022.08.19 09:00",
    "o": 0.84606,
    "h": 0.84688,
    "l": 0.84524,
    "c": 0.84667,
    "v": 2627
  },
  {
    "dt": "2022.08.19 10:00",
    "o": 0.84666,
    "h": 0.84722,
    "l": 0.84573,
    "c": 0.84696,
    "v": 2734
  },
  {
    "dt": "2022.08.19 11:00",
    "o": 0.84699,
    "h": 0.84846,
    "l": 0.84682,
    "c": 0.848,
    "v": 2769
  },
  {
    "dt": "2022.08.19 12:00",
    "o": 0.84802,
    "h": 0.84923,
    "l": 0.84779,
    "c": 0.84846,
    "v": 2399
  },
  {
    "dt": "2022.08.19 13:00",
    "o": 0.84848,
    "h": 0.84964,
    "l": 0.84794,
    "c": 0.8493,
    "v": 2564
  },
  {
    "dt": "2022.08.19 14:00",
    "o": 0.84929,
    "h": 0.85027,
    "l": 0.84881,
    "c": 0.84905,
    "v": 2691
  },
  {
    "dt": "2022.08.19 15:00",
    "o": 0.84906,
    "h": 0.85,
    "l": 0.84887,
    "c": 0.84944,
    "v": 2886
  },
  {
    "dt": "2022.08.19 16:00",
    "o": 0.84946,
    "h": 0.85043,
    "l": 0.84891,
    "c": 0.84999,
    "v": 3028
  },
  {
    "dt": "2022.08.19 17:00",
    "o": 0.84998,
    "h": 0.85108,
    "l": 0.84952,
    "c": 0.85063,
    "v": 3096
  },
  {
    "dt": "2022.08.19 18:00",
    "o": 0.85064,
    "h": 0.851,
    "l": 0.8499,
    "c": 0.85,
    "v": 2495
  },
  {
    "dt": "2022.08.19 19:00",
    "o": 0.85,
    "h": 0.85003,
    "l": 0.84845,
    "c": 0.84858,
    "v": 2224
  },
  {
    "dt": "2022.08.19 20:00",
    "o": 0.84858,
    "h": 0.84918,
    "l": 0.84838,
    "c": 0.84907,
    "v": 1728
  },
  {
    "dt": "2022.08.19 21:00",
    "o": 0.8491,
    "h": 0.84944,
    "l": 0.84891,
    "c": 0.84936,
    "v": 1663
  },
  {
    "dt": "2022.08.19 22:00",
    "o": 0.84935,
    "h": 0.84937,
    "l": 0.84844,
    "c": 0.8486,
    "v": 1637
  },
  {
    "dt": "2022.08.19 23:00",
    "o": 0.84866,
    "h": 0.84907,
    "l": 0.84772,
    "c": 0.84819,
    "v": 1037
  },
  {
    "dt": "2022.08.22 00:00",
    "o": 0.84861,
    "h": 0.84878,
    "l": 0.84684,
    "c": 0.84826,
    "v": 136
  },
  {
    "dt": "2022.08.22 01:00",
    "o": 0.84819,
    "h": 0.84903,
    "l": 0.84785,
    "c": 0.84878,
    "v": 1405
  },
  {
    "dt": "2022.08.22 02:00",
    "o": 0.84879,
    "h": 0.84927,
    "l": 0.84859,
    "c": 0.84908,
    "v": 1534
  },
  {
    "dt": "2022.08.22 03:00",
    "o": 0.84906,
    "h": 0.84913,
    "l": 0.84855,
    "c": 0.84903,
    "v": 1479
  },
  {
    "dt": "2022.08.22 04:00",
    "o": 0.849,
    "h": 0.84903,
    "l": 0.84843,
    "c": 0.84848,
    "v": 1325
  },
  {
    "dt": "2022.08.22 05:00",
    "o": 0.84848,
    "h": 0.84902,
    "l": 0.84809,
    "c": 0.84901,
    "v": 1168
  },
  {
    "dt": "2022.08.22 06:00",
    "o": 0.84901,
    "h": 0.84904,
    "l": 0.84845,
    "c": 0.84885,
    "v": 1076
  },
  {
    "dt": "2022.08.22 07:00",
    "o": 0.84882,
    "h": 0.84886,
    "l": 0.8484,
    "c": 0.84842,
    "v": 1091
  },
  {
    "dt": "2022.08.22 08:00",
    "o": 0.84842,
    "h": 0.84852,
    "l": 0.84804,
    "c": 0.84827,
    "v": 1244
  },
  {
    "dt": "2022.08.22 09:00",
    "o": 0.84826,
    "h": 0.84874,
    "l": 0.84755,
    "c": 0.8484,
    "v": 2314
  },
  {
    "dt": "2022.08.22 10:00",
    "o": 0.84837,
    "h": 0.84873,
    "l": 0.84769,
    "c": 0.84811,
    "v": 2907
  },
  {
    "dt": "2022.08.22 11:00",
    "o": 0.84807,
    "h": 0.84857,
    "l": 0.84743,
    "c": 0.84765,
    "v": 3073
  },
  {
    "dt": "2022.08.22 12:00",
    "o": 0.84766,
    "h": 0.84793,
    "l": 0.84689,
    "c": 0.84752,
    "v": 2403
  },
  {
    "dt": "2022.08.22 13:00",
    "o": 0.84752,
    "h": 0.84791,
    "l": 0.84722,
    "c": 0.8479,
    "v": 2386
  },
  {
    "dt": "2022.08.22 14:00",
    "o": 0.84791,
    "h": 0.84854,
    "l": 0.84676,
    "c": 0.84707,
    "v": 2504
  },
  {
    "dt": "2022.08.22 15:00",
    "o": 0.84709,
    "h": 0.84716,
    "l": 0.84608,
    "c": 0.84657,
    "v": 2708
  },
  {
    "dt": "2022.08.22 16:00",
    "o": 0.84656,
    "h": 0.84688,
    "l": 0.84609,
    "c": 0.84631,
    "v": 2932
  },
  {
    "dt": "2022.08.22 17:00",
    "o": 0.84633,
    "h": 0.84658,
    "l": 0.84515,
    "c": 0.84534,
    "v": 3158
  },
  {
    "dt": "2022.08.22 18:00",
    "o": 0.84534,
    "h": 0.84578,
    "l": 0.84459,
    "c": 0.84547,
    "v": 2857
  },
  {
    "dt": "2022.08.22 19:00",
    "o": 0.84544,
    "h": 0.84546,
    "l": 0.84338,
    "c": 0.84339,
    "v": 2288
  },
  {
    "dt": "2022.08.22 20:00",
    "o": 0.84339,
    "h": 0.84442,
    "l": 0.84339,
    "c": 0.84442,
    "v": 1795
  },
  {
    "dt": "2022.08.22 21:00",
    "o": 0.84446,
    "h": 0.84528,
    "l": 0.84436,
    "c": 0.84512,
    "v": 1439
  },
  {
    "dt": "2022.08.22 22:00",
    "o": 0.84511,
    "h": 0.84542,
    "l": 0.84476,
    "c": 0.84504,
    "v": 1341
  },
  {
    "dt": "2022.08.22 23:00",
    "o": 0.84508,
    "h": 0.84515,
    "l": 0.84426,
    "c": 0.84426,
    "v": 852
  },
  {
    "dt": "2022.08.23 00:00",
    "o": 0.84401,
    "h": 0.84519,
    "l": 0.84401,
    "c": 0.84509,
    "v": 488
  },
  {
    "dt": "2022.08.23 01:00",
    "o": 0.84503,
    "h": 0.84512,
    "l": 0.84473,
    "c": 0.84476,
    "v": 1133
  },
  {
    "dt": "2022.08.23 02:00",
    "o": 0.84476,
    "h": 0.84477,
    "l": 0.84432,
    "c": 0.84461,
    "v": 916
  },
  {
    "dt": "2022.08.23 03:00",
    "o": 0.84462,
    "h": 0.84473,
    "l": 0.84405,
    "c": 0.84411,
    "v": 1774
  },
  {
    "dt": "2022.08.23 04:00",
    "o": 0.8441,
    "h": 0.84461,
    "l": 0.84405,
    "c": 0.84423,
    "v": 1449
  },
  {
    "dt": "2022.08.23 05:00",
    "o": 0.84422,
    "h": 0.8447,
    "l": 0.84408,
    "c": 0.84467,
    "v": 1300
  },
  {
    "dt": "2022.08.23 06:00",
    "o": 0.84468,
    "h": 0.84474,
    "l": 0.84436,
    "c": 0.8445,
    "v": 958
  },
  {
    "dt": "2022.08.23 07:00",
    "o": 0.84451,
    "h": 0.84451,
    "l": 0.84421,
    "c": 0.84444,
    "v": 691
  },
  {
    "dt": "2022.08.23 08:00",
    "o": 0.84444,
    "h": 0.84464,
    "l": 0.84392,
    "c": 0.84441,
    "v": 1564
  },
  {
    "dt": "2022.08.23 09:00",
    "o": 0.84444,
    "h": 0.84515,
    "l": 0.84437,
    "c": 0.84459,
    "v": 2661
  },
  {
    "dt": "2022.08.23 10:00",
    "o": 0.84457,
    "h": 0.84477,
    "l": 0.8433,
    "c": 0.84421,
    "v": 3348
  },
  {
    "dt": "2022.08.23 11:00",
    "o": 0.84419,
    "h": 0.84514,
    "l": 0.84324,
    "c": 0.84326,
    "v": 3150
  },
  {
    "dt": "2022.08.23 12:00",
    "o": 0.84326,
    "h": 0.8448,
    "l": 0.84275,
    "c": 0.84305,
    "v": 2596
  },
  {
    "dt": "2022.08.23 13:00",
    "o": 0.84306,
    "h": 0.8445,
    "l": 0.84301,
    "c": 0.84357,
    "v": 2548
  },
  {
    "dt": "2022.08.23 14:00",
    "o": 0.84358,
    "h": 0.84372,
    "l": 0.84275,
    "c": 0.8433,
    "v": 2293
  },
  {
    "dt": "2022.08.23 15:00",
    "o": 0.84331,
    "h": 0.84413,
    "l": 0.84303,
    "c": 0.84346,
    "v": 2785
  },
  {
    "dt": "2022.08.23 16:00",
    "o": 0.84343,
    "h": 0.84465,
    "l": 0.84317,
    "c": 0.84415,
    "v": 3746
  },
  {
    "dt": "2022.08.23 17:00",
    "o": 0.84411,
    "h": 0.84429,
    "l": 0.84223,
    "c": 0.84256,
    "v": 4192
  },
  {
    "dt": "2022.08.23 18:00",
    "o": 0.84256,
    "h": 0.84294,
    "l": 0.84153,
    "c": 0.84198,
    "v": 3096
  },
  {
    "dt": "2022.08.23 19:00",
    "o": 0.84197,
    "h": 0.84239,
    "l": 0.84174,
    "c": 0.84214,
    "v": 2144
  },
  {
    "dt": "2022.08.23 20:00",
    "o": 0.84212,
    "h": 0.84299,
    "l": 0.84204,
    "c": 0.84274,
    "v": 2054
  },
  {
    "dt": "2022.08.23 21:00",
    "o": 0.84274,
    "h": 0.84294,
    "l": 0.84253,
    "c": 0.84283,
    "v": 1723
  },
  {
    "dt": "2022.08.23 22:00",
    "o": 0.84279,
    "h": 0.84279,
    "l": 0.84229,
    "c": 0.84264,
    "v": 1504
  },
  {
    "dt": "2022.08.23 23:00",
    "o": 0.84264,
    "h": 0.84264,
    "l": 0.84154,
    "c": 0.84154,
    "v": 876
  },
  {
    "dt": "2022.08.24 00:00",
    "o": 0.84105,
    "h": 0.84261,
    "l": 0.84105,
    "c": 0.84214,
    "v": 720
  },
  {
    "dt": "2022.08.24 01:00",
    "o": 0.84184,
    "h": 0.84253,
    "l": 0.84184,
    "c": 0.84236,
    "v": 907
  },
  {
    "dt": "2022.08.24 02:00",
    "o": 0.84236,
    "h": 0.84257,
    "l": 0.84216,
    "c": 0.84238,
    "v": 1128
  },
  {
    "dt": "2022.08.24 03:00",
    "o": 0.84239,
    "h": 0.84269,
    "l": 0.84215,
    "c": 0.84242,
    "v": 1578
  },
  {
    "dt": "2022.08.24 04:00",
    "o": 0.84241,
    "h": 0.84242,
    "l": 0.84181,
    "c": 0.84228,
    "v": 1641
  },
  {
    "dt": "2022.08.24 05:00",
    "o": 0.84227,
    "h": 0.8429,
    "l": 0.84222,
    "c": 0.84279,
    "v": 1459
  },
  {
    "dt": "2022.08.24 06:00",
    "o": 0.84278,
    "h": 0.84279,
    "l": 0.84235,
    "c": 0.84235,
    "v": 976
  },
  {
    "dt": "2022.08.24 07:00",
    "o": 0.84234,
    "h": 0.84253,
    "l": 0.84196,
    "c": 0.84199,
    "v": 1072
  },
  {
    "dt": "2022.08.24 08:00",
    "o": 0.84199,
    "h": 0.84241,
    "l": 0.84185,
    "c": 0.84186,
    "v": 1015
  },
  {
    "dt": "2022.08.24 09:00",
    "o": 0.84185,
    "h": 0.84222,
    "l": 0.84144,
    "c": 0.84186,
    "v": 2042
  },
  {
    "dt": "2022.08.24 10:00",
    "o": 0.84189,
    "h": 0.84229,
    "l": 0.84113,
    "c": 0.84148,
    "v": 2736
  },
  {
    "dt": "2022.08.24 11:00",
    "o": 0.84146,
    "h": 0.84195,
    "l": 0.84073,
    "c": 0.8412,
    "v": 2523
  },
  {
    "dt": "2022.08.24 12:00",
    "o": 0.8412,
    "h": 0.84293,
    "l": 0.84107,
    "c": 0.84267,
    "v": 2426
  },
  {
    "dt": "2022.08.24 13:00",
    "o": 0.8427,
    "h": 0.84349,
    "l": 0.84219,
    "c": 0.84247,
    "v": 2574
  },
  {
    "dt": "2022.08.24 14:00",
    "o": 0.84244,
    "h": 0.84339,
    "l": 0.84224,
    "c": 0.84285,
    "v": 2625
  },
  {
    "dt": "2022.08.24 15:00",
    "o": 0.84288,
    "h": 0.84356,
    "l": 0.84251,
    "c": 0.84329,
    "v": 2971
  },
  {
    "dt": "2022.08.24 16:00",
    "o": 0.84328,
    "h": 0.84388,
    "l": 0.84267,
    "c": 0.84282,
    "v": 3123
  },
  {
    "dt": "2022.08.24 17:00",
    "o": 0.84288,
    "h": 0.84537,
    "l": 0.84244,
    "c": 0.84523,
    "v": 3927
  },
  {
    "dt": "2022.08.24 18:00",
    "o": 0.84522,
    "h": 0.84557,
    "l": 0.8443,
    "c": 0.84452,
    "v": 3007
  },
  {
    "dt": "2022.08.24 19:00",
    "o": 0.84453,
    "h": 0.84476,
    "l": 0.84379,
    "c": 0.84447,
    "v": 2095
  },
  {
    "dt": "2022.08.24 20:00",
    "o": 0.84447,
    "h": 0.84537,
    "l": 0.84439,
    "c": 0.84506,
    "v": 1870
  },
  {
    "dt": "2022.08.24 21:00",
    "o": 0.84507,
    "h": 0.84518,
    "l": 0.84463,
    "c": 0.84517,
    "v": 1498
  },
  {
    "dt": "2022.08.24 22:00",
    "o": 0.84516,
    "h": 0.84529,
    "l": 0.84469,
    "c": 0.84498,
    "v": 1399
  },
  {
    "dt": "2022.08.24 23:00",
    "o": 0.84501,
    "h": 0.84526,
    "l": 0.84403,
    "c": 0.84404,
    "v": 1056
  },
  {
    "dt": "2022.08.25 00:00",
    "o": 0.84394,
    "h": 0.84511,
    "l": 0.84374,
    "c": 0.84494,
    "v": 838
  },
  {
    "dt": "2022.08.25 01:00",
    "o": 0.84492,
    "h": 0.84525,
    "l": 0.84483,
    "c": 0.84522,
    "v": 1000
  },
  {
    "dt": "2022.08.25 02:00",
    "o": 0.84523,
    "h": 0.84548,
    "l": 0.8451,
    "c": 0.84538,
    "v": 886
  },
  {
    "dt": "2022.08.25 03:00",
    "o": 0.84537,
    "h": 0.84551,
    "l": 0.84505,
    "c": 0.84506,
    "v": 1885
  },
  {
    "dt": "2022.08.25 04:00",
    "o": 0.84508,
    "h": 0.84532,
    "l": 0.84479,
    "c": 0.84496,
    "v": 1680
  },
  {
    "dt": "2022.08.25 05:00",
    "o": 0.84495,
    "h": 0.8451,
    "l": 0.84482,
    "c": 0.84495,
    "v": 1125
  },
  {
    "dt": "2022.08.25 06:00",
    "o": 0.84492,
    "h": 0.84517,
    "l": 0.84478,
    "c": 0.845,
    "v": 882
  },
  {
    "dt": "2022.08.25 07:00",
    "o": 0.845,
    "h": 0.84506,
    "l": 0.8446,
    "c": 0.84484,
    "v": 1074
  },
  {
    "dt": "2022.08.25 08:00",
    "o": 0.84483,
    "h": 0.84483,
    "l": 0.8443,
    "c": 0.84462,
    "v": 1581
  },
  {
    "dt": "2022.08.25 09:00",
    "o": 0.84455,
    "h": 0.84607,
    "l": 0.8445,
    "c": 0.8448,
    "v": 2949
  },
  {
    "dt": "2022.08.25 10:00",
    "o": 0.84481,
    "h": 0.84584,
    "l": 0.84389,
    "c": 0.8444,
    "v": 3002
  },
  {
    "dt": "2022.08.25 11:00",
    "o": 0.84439,
    "h": 0.84502,
    "l": 0.84394,
    "c": 0.84487,
    "v": 2832
  },
  {
    "dt": "2022.08.25 12:00",
    "o": 0.84489,
    "h": 0.84489,
    "l": 0.84384,
    "c": 0.84469,
    "v": 2497
  },
  {
    "dt": "2022.08.25 13:00",
    "o": 0.84469,
    "h": 0.84476,
    "l": 0.84341,
    "c": 0.84396,
    "v": 2395
  },
  {
    "dt": "2022.08.25 14:00",
    "o": 0.8439,
    "h": 0.84401,
    "l": 0.84273,
    "c": 0.84291,
    "v": 2622
  },
  {
    "dt": "2022.08.25 15:00",
    "o": 0.84292,
    "h": 0.8439,
    "l": 0.84265,
    "c": 0.84341,
    "v": 3001
  },
  {
    "dt": "2022.08.25 16:00",
    "o": 0.84342,
    "h": 0.84479,
    "l": 0.8434,
    "c": 0.84382,
    "v": 3227
  },
  {
    "dt": "2022.08.25 17:00",
    "o": 0.84379,
    "h": 0.84454,
    "l": 0.84368,
    "c": 0.844,
    "v": 3099
  },
  {
    "dt": "2022.08.25 18:00",
    "o": 0.84399,
    "h": 0.84459,
    "l": 0.84347,
    "c": 0.84362,
    "v": 2847
  },
  {
    "dt": "2022.08.25 19:00",
    "o": 0.84367,
    "h": 0.84381,
    "l": 0.8423,
    "c": 0.84261,
    "v": 2206
  },
  {
    "dt": "2022.08.25 20:00",
    "o": 0.8426,
    "h": 0.84288,
    "l": 0.84239,
    "c": 0.84267,
    "v": 1960
  },
  {
    "dt": "2022.08.25 21:00",
    "o": 0.84265,
    "h": 0.84304,
    "l": 0.84238,
    "c": 0.84286,
    "v": 1885
  },
  {
    "dt": "2022.08.25 22:00",
    "o": 0.84286,
    "h": 0.84316,
    "l": 0.84263,
    "c": 0.84293,
    "v": 1629
  },
  {
    "dt": "2022.08.25 23:00",
    "o": 0.8429,
    "h": 0.84319,
    "l": 0.84248,
    "c": 0.84248,
    "v": 1095
  },
  {
    "dt": "2022.08.26 00:00",
    "o": 0.84234,
    "h": 0.84299,
    "l": 0.84221,
    "c": 0.84271,
    "v": 994
  },
  {
    "dt": "2022.08.26 01:00",
    "o": 0.84258,
    "h": 0.84287,
    "l": 0.84256,
    "c": 0.8428,
    "v": 617
  },
  {
    "dt": "2022.08.26 02:00",
    "o": 0.84274,
    "h": 0.8433,
    "l": 0.84261,
    "c": 0.8433,
    "v": 891
  },
  {
    "dt": "2022.08.26 03:00",
    "o": 0.8433,
    "h": 0.8441,
    "l": 0.84296,
    "c": 0.84348,
    "v": 1298
  },
  {
    "dt": "2022.08.26 04:00",
    "o": 0.84349,
    "h": 0.84354,
    "l": 0.84304,
    "c": 0.84334,
    "v": 1345
  },
  {
    "dt": "2022.08.26 05:00",
    "o": 0.84333,
    "h": 0.84341,
    "l": 0.84298,
    "c": 0.84306,
    "v": 872
  },
  {
    "dt": "2022.08.26 06:00",
    "o": 0.84307,
    "h": 0.84322,
    "l": 0.84296,
    "c": 0.84305,
    "v": 874
  },
  {
    "dt": "2022.08.26 07:00",
    "o": 0.84303,
    "h": 0.84371,
    "l": 0.84298,
    "c": 0.84361,
    "v": 1050
  },
  {
    "dt": "2022.08.26 08:00",
    "o": 0.84358,
    "h": 0.84401,
    "l": 0.84356,
    "c": 0.84367,
    "v": 1134
  },
  {
    "dt": "2022.08.26 09:00",
    "o": 0.84373,
    "h": 0.84473,
    "l": 0.84369,
    "c": 0.84402,
    "v": 2141
  },
  {
    "dt": "2022.08.26 10:00",
    "o": 0.84416,
    "h": 0.84626,
    "l": 0.84416,
    "c": 0.84571,
    "v": 2789
  },
  {
    "dt": "2022.08.26 11:00",
    "o": 0.84572,
    "h": 0.84707,
    "l": 0.84572,
    "c": 0.84644,
    "v": 2552
  },
  {
    "dt": "2022.08.26 12:00",
    "o": 0.84637,
    "h": 0.84649,
    "l": 0.84515,
    "c": 0.84532,
    "v": 2623
  },
  {
    "dt": "2022.08.26 13:00",
    "o": 0.84532,
    "h": 0.84628,
    "l": 0.84523,
    "c": 0.84612,
    "v": 2224
  },
  {
    "dt": "2022.08.26 14:00",
    "o": 0.84619,
    "h": 0.84628,
    "l": 0.84508,
    "c": 0.84593,
    "v": 2346
  },
  {
    "dt": "2022.08.26 15:00",
    "o": 0.84593,
    "h": 0.84654,
    "l": 0.84546,
    "c": 0.84634,
    "v": 3351
  },
  {
    "dt": "2022.08.26 16:00",
    "o": 0.84635,
    "h": 0.84843,
    "l": 0.84578,
    "c": 0.84774,
    "v": 3852
  },
  {
    "dt": "2022.08.26 17:00",
    "o": 0.84773,
    "h": 0.85018,
    "l": 0.84701,
    "c": 0.84928,
    "v": 5046
  },
  {
    "dt": "2022.08.26 18:00",
    "o": 0.84929,
    "h": 0.85003,
    "l": 0.84854,
    "c": 0.849,
    "v": 3594
  },
  {
    "dt": "2022.08.26 19:00",
    "o": 0.84901,
    "h": 0.84972,
    "l": 0.84851,
    "c": 0.84905,
    "v": 2599
  },
  {
    "dt": "2022.08.26 20:00",
    "o": 0.84906,
    "h": 0.84925,
    "l": 0.84749,
    "c": 0.84809,
    "v": 2076
  },
  {
    "dt": "2022.08.26 21:00",
    "o": 0.84809,
    "h": 0.84871,
    "l": 0.84797,
    "c": 0.84848,
    "v": 1911
  },
  {
    "dt": "2022.08.26 22:00",
    "o": 0.84849,
    "h": 0.8491,
    "l": 0.84825,
    "c": 0.84908,
    "v": 1932
  },
  {
    "dt": "2022.08.26 23:00",
    "o": 0.84904,
    "h": 0.84929,
    "l": 0.84779,
    "c": 0.84805,
    "v": 1340
  },
  {
    "dt": "2022.08.29 00:00",
    "o": 0.84887,
    "h": 0.84901,
    "l": 0.84828,
    "c": 0.84876,
    "v": 426
  },
  {
    "dt": "2022.08.29 01:00",
    "o": 0.84874,
    "h": 0.8496,
    "l": 0.84849,
    "c": 0.8493,
    "v": 1701
  },
  {
    "dt": "2022.08.29 02:00",
    "o": 0.84931,
    "h": 0.85037,
    "l": 0.84916,
    "c": 0.84993,
    "v": 2021
  },
  {
    "dt": "2022.08.29 03:00",
    "o": 0.84992,
    "h": 0.85037,
    "l": 0.84959,
    "c": 0.85023,
    "v": 2367
  },
  {
    "dt": "2022.08.29 04:00",
    "o": 0.85023,
    "h": 0.85101,
    "l": 0.85004,
    "c": 0.85077,
    "v": 2245
  },
  {
    "dt": "2022.08.29 05:00",
    "o": 0.85075,
    "h": 0.85084,
    "l": 0.85027,
    "c": 0.85028,
    "v": 1397
  },
  {
    "dt": "2022.08.29 06:00",
    "o": 0.85029,
    "h": 0.85067,
    "l": 0.85015,
    "c": 0.85044,
    "v": 1302
  },
  {
    "dt": "2022.08.29 07:00",
    "o": 0.85044,
    "h": 0.85087,
    "l": 0.85041,
    "c": 0.85076,
    "v": 1213
  },
  {
    "dt": "2022.08.29 08:00",
    "o": 0.85074,
    "h": 0.85111,
    "l": 0.85049,
    "c": 0.85066,
    "v": 1546
  },
  {
    "dt": "2022.08.29 09:00",
    "o": 0.8507,
    "h": 0.85183,
    "l": 0.85054,
    "c": 0.85157,
    "v": 2240
  },
  {
    "dt": "2022.08.29 10:00",
    "o": 0.85154,
    "h": 0.85189,
    "l": 0.85109,
    "c": 0.85172,
    "v": 2837
  },
  {
    "dt": "2022.08.29 11:00",
    "o": 0.85172,
    "h": 0.85238,
    "l": 0.85077,
    "c": 0.85238,
    "v": 2308
  },
  {
    "dt": "2022.08.29 12:00",
    "o": 0.85237,
    "h": 0.85339,
    "l": 0.85182,
    "c": 0.85235,
    "v": 2422
  },
  {
    "dt": "2022.08.29 13:00",
    "o": 0.85236,
    "h": 0.85404,
    "l": 0.85232,
    "c": 0.85374,
    "v": 2733
  },
  {
    "dt": "2022.08.29 14:00",
    "o": 0.85373,
    "h": 0.85453,
    "l": 0.85317,
    "c": 0.85441,
    "v": 2562
  },
  {
    "dt": "2022.08.29 15:00",
    "o": 0.85441,
    "h": 0.85489,
    "l": 0.85339,
    "c": 0.85412,
    "v": 3132
  },
  {
    "dt": "2022.08.29 16:00",
    "o": 0.85414,
    "h": 0.85481,
    "l": 0.85353,
    "c": 0.85405,
    "v": 3163
  },
  {
    "dt": "2022.08.29 17:00",
    "o": 0.85405,
    "h": 0.85438,
    "l": 0.85309,
    "c": 0.85372,
    "v": 3227
  },
  {
    "dt": "2022.08.29 18:00",
    "o": 0.8537,
    "h": 0.85402,
    "l": 0.85302,
    "c": 0.85332,
    "v": 2472
  },
  {
    "dt": "2022.08.29 19:00",
    "o": 0.85327,
    "h": 0.85429,
    "l": 0.85319,
    "c": 0.85424,
    "v": 1863
  },
  {
    "dt": "2022.08.29 20:00",
    "o": 0.85425,
    "h": 0.85444,
    "l": 0.85379,
    "c": 0.85396,
    "v": 1556
  },
  {
    "dt": "2022.08.29 21:00",
    "o": 0.85395,
    "h": 0.85441,
    "l": 0.8537,
    "c": 0.85371,
    "v": 1959
  },
  {
    "dt": "2022.08.29 22:00",
    "o": 0.85372,
    "h": 0.85405,
    "l": 0.85372,
    "c": 0.85391,
    "v": 1481
  },
  {
    "dt": "2022.08.29 23:00",
    "o": 0.85393,
    "h": 0.85423,
    "l": 0.85297,
    "c": 0.85297,
    "v": 780
  },
  {
    "dt": "2022.08.30 00:00",
    "o": 0.85346,
    "h": 0.85409,
    "l": 0.8527,
    "c": 0.85402,
    "v": 1300
  },
  {
    "dt": "2022.08.30 01:00",
    "o": 0.85401,
    "h": 0.85423,
    "l": 0.8539,
    "c": 0.85404,
    "v": 740
  },
  {
    "dt": "2022.08.30 02:00",
    "o": 0.85403,
    "h": 0.85422,
    "l": 0.85372,
    "c": 0.85396,
    "v": 1196
  },
  {
    "dt": "2022.08.30 03:00",
    "o": 0.85395,
    "h": 0.85439,
    "l": 0.85378,
    "c": 0.8539,
    "v": 1523
  },
  {
    "dt": "2022.08.30 04:00",
    "o": 0.85387,
    "h": 0.85408,
    "l": 0.8535,
    "c": 0.8539,
    "v": 1687
  },
  {
    "dt": "2022.08.30 05:00",
    "o": 0.85389,
    "h": 0.85444,
    "l": 0.85381,
    "c": 0.85436,
    "v": 1762
  },
  {
    "dt": "2022.08.30 06:00",
    "o": 0.85436,
    "h": 0.85469,
    "l": 0.85433,
    "c": 0.85437,
    "v": 1165
  },
  {
    "dt": "2022.08.30 07:00",
    "o": 0.85435,
    "h": 0.85471,
    "l": 0.85408,
    "c": 0.85417,
    "v": 1325
  },
  {
    "dt": "2022.08.30 08:00",
    "o": 0.85419,
    "h": 0.85472,
    "l": 0.85407,
    "c": 0.85425,
    "v": 1371
  },
  {
    "dt": "2022.08.30 09:00",
    "o": 0.85429,
    "h": 0.85453,
    "l": 0.85263,
    "c": 0.85263,
    "v": 2521
  },
  {
    "dt": "2022.08.30 10:00",
    "o": 0.85261,
    "h": 0.85499,
    "l": 0.85211,
    "c": 0.8545,
    "v": 3373
  },
  {
    "dt": "2022.08.30 11:00",
    "o": 0.8545,
    "h": 0.85467,
    "l": 0.85329,
    "c": 0.85392,
    "v": 2920
  },
  {
    "dt": "2022.08.30 12:00",
    "o": 0.85393,
    "h": 0.85522,
    "l": 0.85386,
    "c": 0.85492,
    "v": 2916
  },
  {
    "dt": "2022.08.30 13:00",
    "o": 0.85492,
    "h": 0.85656,
    "l": 0.85492,
    "c": 0.85608,
    "v": 2517
  },
  {
    "dt": "2022.08.30 14:00",
    "o": 0.85607,
    "h": 0.85625,
    "l": 0.85509,
    "c": 0.85553,
    "v": 2781
  },
  {
    "dt": "2022.08.30 15:00",
    "o": 0.85556,
    "h": 0.85687,
    "l": 0.85543,
    "c": 0.85561,
    "v": 3182
  },
  {
    "dt": "2022.08.30 16:00",
    "o": 0.85564,
    "h": 0.85736,
    "l": 0.85564,
    "c": 0.85736,
    "v": 3382
  },
  {
    "dt": "2022.08.30 17:00",
    "o": 0.85734,
    "h": 0.85933,
    "l": 0.85698,
    "c": 0.85876,
    "v": 3955
  },
  {
    "dt": "2022.08.30 18:00",
    "o": 0.85874,
    "h": 0.86011,
    "l": 0.85823,
    "c": 0.85979,
    "v": 3489
  },
  {
    "dt": "2022.08.30 19:00",
    "o": 0.85981,
    "h": 0.86027,
    "l": 0.85951,
    "c": 0.86025,
    "v": 2900
  },
  {
    "dt": "2022.08.30 20:00",
    "o": 0.86025,
    "h": 0.8603,
    "l": 0.85923,
    "c": 0.85945,
    "v": 2348
  },
  {
    "dt": "2022.08.30 21:00",
    "o": 0.85943,
    "h": 0.86004,
    "l": 0.8592,
    "c": 0.8595,
    "v": 2367
  },
  {
    "dt": "2022.08.30 22:00",
    "o": 0.85949,
    "h": 0.85973,
    "l": 0.85925,
    "c": 0.8594,
    "v": 2094
  },
  {
    "dt": "2022.08.30 23:00",
    "o": 0.85942,
    "h": 0.85973,
    "l": 0.85886,
    "c": 0.85886,
    "v": 1132
  },
  {
    "dt": "2022.08.31 00:00",
    "o": 0.85939,
    "h": 0.8595,
    "l": 0.85856,
    "c": 0.85914,
    "v": 1472
  },
  {
    "dt": "2022.08.31 01:00",
    "o": 0.85916,
    "h": 0.85953,
    "l": 0.85916,
    "c": 0.85941,
    "v": 894
  },
  {
    "dt": "2022.08.31 02:00",
    "o": 0.85944,
    "h": 0.85979,
    "l": 0.85934,
    "c": 0.85968,
    "v": 1091
  },
  {
    "dt": "2022.08.31 03:00",
    "o": 0.85969,
    "h": 0.85972,
    "l": 0.85925,
    "c": 0.85939,
    "v": 1492
  },
  {
    "dt": "2022.08.31 04:00",
    "o": 0.85939,
    "h": 0.85974,
    "l": 0.85895,
    "c": 0.85904,
    "v": 1591
  },
  {
    "dt": "2022.08.31 05:00",
    "o": 0.85903,
    "h": 0.85913,
    "l": 0.85896,
    "c": 0.85903,
    "v": 1449
  },
  {
    "dt": "2022.08.31 06:00",
    "o": 0.85902,
    "h": 0.85913,
    "l": 0.85895,
    "c": 0.859,
    "v": 976
  },
  {
    "dt": "2022.08.31 07:00",
    "o": 0.85897,
    "h": 0.85918,
    "l": 0.85886,
    "c": 0.85915,
    "v": 1087
  },
  {
    "dt": "2022.08.31 08:00",
    "o": 0.85916,
    "h": 0.8592,
    "l": 0.85875,
    "c": 0.85882,
    "v": 1364
  },
  {
    "dt": "2022.08.31 09:00",
    "o": 0.85882,
    "h": 0.85913,
    "l": 0.85731,
    "c": 0.85747,
    "v": 2481
  },
  {
    "dt": "2022.08.31 10:00",
    "o": 0.85756,
    "h": 0.85907,
    "l": 0.85736,
    "c": 0.85907,
    "v": 2966
  },
  {
    "dt": "2022.08.31 11:00",
    "o": 0.85911,
    "h": 0.86041,
    "l": 0.85709,
    "c": 0.85724,
    "v": 3210
  },
  {
    "dt": "2022.08.31 12:00",
    "o": 0.85732,
    "h": 0.85903,
    "l": 0.85713,
    "c": 0.85854,
    "v": 3081
  },
  {
    "dt": "2022.08.31 13:00",
    "o": 0.85852,
    "h": 0.85916,
    "l": 0.85796,
    "c": 0.85905,
    "v": 2550
  },
  {
    "dt": "2022.08.31 14:00",
    "o": 0.85906,
    "h": 0.86058,
    "l": 0.85857,
    "c": 0.86038,
    "v": 2580
  },
  {
    "dt": "2022.08.31 15:00",
    "o": 0.86039,
    "h": 0.86096,
    "l": 0.85975,
    "c": 0.85989,
    "v": 3344
  },
  {
    "dt": "2022.08.31 16:00",
    "o": 0.85991,
    "h": 0.86176,
    "l": 0.85978,
    "c": 0.86173,
    "v": 3550
  },
  {
    "dt": "2022.08.31 17:00",
    "o": 0.86173,
    "h": 0.86409,
    "l": 0.86163,
    "c": 0.86375,
    "v": 4165
  },
  {
    "dt": "2022.08.31 18:00",
    "o": 0.86376,
    "h": 0.86521,
    "l": 0.86318,
    "c": 0.86418,
    "v": 3595
  },
  {
    "dt": "2022.08.31 19:00",
    "o": 0.86417,
    "h": 0.86496,
    "l": 0.8638,
    "c": 0.86468,
    "v": 2433
  },
  {
    "dt": "2022.08.31 20:00",
    "o": 0.8647,
    "h": 0.8649,
    "l": 0.8642,
    "c": 0.86487,
    "v": 2357
  },
  {
    "dt": "2022.08.31 21:00",
    "o": 0.86487,
    "h": 0.86503,
    "l": 0.86447,
    "c": 0.86462,
    "v": 2359
  },
  {
    "dt": "2022.08.31 22:00",
    "o": 0.86463,
    "h": 0.86524,
    "l": 0.86438,
    "c": 0.8651,
    "v": 2340
  },
  {
    "dt": "2022.08.31 23:00",
    "o": 0.86508,
    "h": 0.86517,
    "l": 0.86444,
    "c": 0.86444,
    "v": 1507
  }
]