[
  {
    "dt": "2019.11.27 13:00",
    "o": 109.332,
    "h": 109.387,
    "l": 109.332,
    "c": 109.355,
    "v": 1886
  },
  {
    "dt": "2019.11.27 14:00",
    "o": 109.355,
    "h": 109.388,
    "l": 109.329,
    "c": 109.379,
    "v": 1992
  },
  {
    "dt": "2019.11.27 15:00",
    "o": 109.38,
    "h": 109.407,
    "l": 109.294,
    "c": 109.346,
    "v": 3031
  },
  {
    "dt": "2019.11.27 16:00",
    "o": 109.348,
    "h": 109.408,
    "l": 109.292,
    "c": 109.336,
    "v": 3194
  },
  {
    "dt": "2019.11.27 17:00",
    "o": 109.337,
    "h": 109.489,
    "l": 109.302,
    "c": 109.481,
    "v": 3245
  },
  {
    "dt": "2019.11.27 18:00",
    "o": 109.479,
    "h": 109.494,
    "l": 109.365,
    "c": 109.41,
    "v": 2688
  },
  {
    "dt": "2019.11.27 19:00",
    "o": 109.409,
    "h": 109.467,
    "l": 109.384,
    "c": 109.449,
    "v": 1696
  },
  {
    "dt": "2019.11.27 20:00",
    "o": 109.448,
    "h": 109.549,
    "l": 109.447,
    "c": 109.542,
    "v": 1931
  },
  {
    "dt": "2019.11.27 21:00",
    "o": 109.541,
    "h": 109.634,
    "l": 109.527,
    "c": 109.625,
    "v": 1696
  },
  {
    "dt": "2019.11.27 22:00",
    "o": 109.622,
    "h": 109.628,
    "l": 109.587,
    "c": 109.605,
    "v": 1695
  },
  {
    "dt": "2019.11.27 23:00",
    "o": 109.611,
    "h": 109.625,
    "l": 109.555,
    "c": 109.561,
    "v": 1121
  },
  {
    "dt": "2019.11.28 00:00",
    "o": 109.562,
    "h": 109.646,
    "l": 109.519,
    "c": 109.629,
    "v": 2224
  },
  {
    "dt": "2019.11.28 01:00",
    "o": 109.622,
    "h": 109.634,
    "l": 109.489,
    "c": 109.509,
    "v": 1487
  },
  {
    "dt": "2019.11.28 02:00",
    "o": 109.514,
    "h": 109.572,
    "l": 109.491,
    "c": 109.53,
    "v": 1952
  },
  {
    "dt": "2019.11.28 03:00",
    "o": 109.53,
    "h": 109.586,
    "l": 109.518,
    "c": 109.582,
    "v": 1520
  },
  {
    "dt": "2019.11.28 04:00",
    "o": 109.578,
    "h": 109.607,
    "l": 109.547,
    "c": 109.587,
    "v": 1095
  },
  {
    "dt": "2019.11.28 05:00",
    "o": 109.588,
    "h": 109.594,
    "l": 109.552,
    "c": 109.559,
    "v": 764
  },
  {
    "dt": "2019.11.28 06:00",
    "o": 109.559,
    "h": 109.563,
    "l": 109.539,
    "c": 109.547,
    "v": 715
  },
  {
    "dt": "2019.11.28 07:00",
    "o": 109.549,
    "h": 109.551,
    "l": 109.522,
    "c": 109.526,
    "v": 827
  },
  {
    "dt": "2019.11.28 08:00",
    "o": 109.525,
    "h": 109.583,
    "l": 109.525,
    "c": 109.544,
    "v": 984
  },
  {
    "dt": "2019.11.28 09:00",
    "o": 109.545,
    "h": 109.548,
    "l": 109.484,
    "c": 109.505,
    "v": 1430
  },
  {
    "dt": "2019.11.28 10:00",
    "o": 109.499,
    "h": 109.591,
    "l": 109.474,
    "c": 109.566,
    "v": 1975
  },
  {
    "dt": "2019.11.28 11:00",
    "o": 109.566,
    "h": 109.575,
    "l": 109.522,
    "c": 109.559,
    "v": 1256
  },
  {
    "dt": "2019.11.28 12:00",
    "o": 109.558,
    "h": 109.622,
    "l": 109.558,
    "c": 109.587,
    "v": 1121
  },
  {
    "dt": "2019.11.28 13:00",
    "o": 109.588,
    "h": 109.601,
    "l": 109.532,
    "c": 109.57,
    "v": 1499
  },
  {
    "dt": "2019.11.28 14:00",
    "o": 109.568,
    "h": 109.648,
    "l": 109.567,
    "c": 109.646,
    "v": 1335
  },
  {
    "dt": "2019.11.28 15:00",
    "o": 109.647,
    "h": 109.665,
    "l": 109.614,
    "c": 109.631,
    "v": 1555
  },
  {
    "dt": "2019.11.28 16:00",
    "o": 109.633,
    "h": 109.644,
    "l": 109.608,
    "c": 109.623,
    "v": 825
  },
  {
    "dt": "2019.11.28 17:00",
    "o": 109.624,
    "h": 109.67,
    "l": 109.598,
    "c": 109.662,
    "v": 953
  },
  {
    "dt": "2019.11.28 18:00",
    "o": 109.662,
    "h": 109.669,
    "l": 109.605,
    "c": 109.624,
    "v": 849
  },
  {
    "dt": "2019.11.28 19:00",
    "o": 109.624,
    "h": 109.652,
    "l": 109.598,
    "c": 109.62,
    "v": 695
  },
  {
    "dt": "2019.11.28 20:00",
    "o": 109.621,
    "h": 109.631,
    "l": 109.603,
    "c": 109.605,
    "v": 1856
  },
  {
    "dt": "2019.11.28 21:00",
    "o": 109.605,
    "h": 109.625,
    "l": 109.594,
    "c": 109.615,
    "v": 953
  },
  {
    "dt": "2019.11.28 22:00",
    "o": 109.614,
    "h": 109.624,
    "l": 109.604,
    "c": 109.608,
    "v": 914
  },
  {
    "dt": "2019.11.28 23:00",
    "o": 109.609,
    "h": 109.692,
    "l": 109.589,
    "c": 109.589,
    "v": 1581
  },
  {
    "dt": "2019.11.29 00:00",
    "o": 109.624,
    "h": 109.701,
    "l": 109.592,
    "c": 109.658,
    "v": 1186
  },
  {
    "dt": "2019.11.29 01:00",
    "o": 109.656,
    "h": 109.672,
    "l": 109.637,
    "c": 109.668,
    "v": 986
  },
  {
    "dt": "2019.11.29 02:00",
    "o": 109.663,
    "h": 109.709,
    "l": 109.652,
    "c": 109.666,
    "v": 1562
  },
  {
    "dt": "2019.11.29 03:00",
    "o": 109.665,
    "h": 109.68,
    "l": 109.606,
    "c": 109.622,
    "v": 1323
  },
  {
    "dt": "2019.11.29 04:00",
    "o": 109.623,
    "h": 109.656,
    "l": 109.607,
    "c": 109.621,
    "v": 1041
  },
  {
    "dt": "2019.11.29 05:00",
    "o": 109.62,
    "h": 109.662,
    "l": 109.603,
    "c": 109.656,
    "v": 1135
  },
  {
    "dt": "2019.11.29 06:00",
    "o": 109.658,
    "h": 109.671,
    "l": 109.608,
    "c": 109.627,
    "v": 986
  },
  {
    "dt": "2019.11.29 07:00",
    "o": 109.626,
    "h": 109.651,
    "l": 109.616,
    "c": 109.647,
    "v": 1166
  },
  {
    "dt": "2019.11.29 08:00",
    "o": 109.645,
    "h": 109.662,
    "l": 109.621,
    "c": 109.623,
    "v": 1158
  },
  {
    "dt": "2019.11.29 09:00",
    "o": 109.624,
    "h": 109.663,
    "l": 109.599,
    "c": 109.625,
    "v": 1319
  },
  {
    "dt": "2019.11.29 10:00",
    "o": 109.625,
    "h": 109.708,
    "l": 109.601,
    "c": 109.628,
    "v": 1799
  },
  {
    "dt": "2019.11.29 11:00",
    "o": 109.626,
    "h": 109.652,
    "l": 109.561,
    "c": 109.594,
    "v": 1727
  },
  {
    "dt": "2019.11.29 12:00",
    "o": 109.594,
    "h": 109.613,
    "l": 109.571,
    "c": 109.592,
    "v": 1390
  },
  {
    "dt": "2019.11.29 13:00",
    "o": 109.591,
    "h": 109.594,
    "l": 109.519,
    "c": 109.541,
    "v": 1343
  },
  {
    "dt": "2019.11.29 14:00",
    "o": 109.54,
    "h": 109.575,
    "l": 109.498,
    "c": 109.522,
    "v": 1448
  },
  {
    "dt": "2019.11.29 15:00",
    "o": 109.519,
    "h": 109.528,
    "l": 109.409,
    "c": 109.443,
    "v": 2227
  },
  {
    "dt": "2019.11.29 16:00",
    "o": 109.443,
    "h": 109.472,
    "l": 109.362,
    "c": 109.434,
    "v": 2607
  },
  {
    "dt": "2019.11.29 17:00",
    "o": 109.432,
    "h": 109.578,
    "l": 109.397,
    "c": 109.537,
    "v": 3087
  },
  {
    "dt": "2019.11.29 18:00",
    "o": 109.54,
    "h": 109.583,
    "l": 109.443,
    "c": 109.449,
    "v": 2863
  },
  {
    "dt": "2019.11.29 19:00",
    "o": 109.45,
    "h": 109.472,
    "l": 109.401,
    "c": 109.427,
    "v": 2348
  },
  {
    "dt": "2019.11.29 20:00",
    "o": 109.428,
    "h": 109.493,
    "l": 109.415,
    "c": 109.445,
    "v": 1948
  },
  {
    "dt": "2019.11.29 21:00",
    "o": 109.444,
    "h": 109.48,
    "l": 109.428,
    "c": 109.455,
    "v": 2592
  },
  {
    "dt": "2019.11.29 22:00",
    "o": 109.455,
    "h": 109.46,
    "l": 109.427,
    "c": 109.435,
    "v": 981
  },
  {
    "dt": "2019.11.29 23:00",
    "o": 109.436,
    "h": 109.489,
    "l": 109.403,
    "c": 109.427,
    "v": 1358
  }
]