[
  {
    "dt": "2022.02.01 00:00",
    "o": 1.58944,
    "h": 1.58944,
    "l": 1.5881,
    "c": 1.58914,
    "v": 462
  },
  {
    "dt": "2022.02.01 01:00",
    "o": 1.58919,
    "h": 1.58948,
    "l": 1.58814,
    "c": 1.58854,
    "v": 1577
  },
  {
    "dt": "2022.02.01 02:00",
    "o": 1.58859,
    "h": 1.58933,
    "l": 1.58776,
    "c": 1.5881,
    "v": 2119
  },
  {
    "dt": "2022.02.01 03:00",
    "o": 1.5881,
    "h": 1.58961,
    "l": 1.58714,
    "c": 1.58929,
    "v": 2114
  },
  {
    "dt": "2022.02.01 04:00",
    "o": 1.58931,
    "h": 1.58973,
    "l": 1.58746,
    "c": 1.58802,
    "v": 1566
  },
  {
    "dt": "2022.02.01 05:00",
    "o": 1.58801,
    "h": 1.59639,
    "l": 1.58776,
    "c": 1.59599,
    "v": 2915
  },
  {
    "dt": "2022.02.01 06:00",
    "o": 1.59589,
    "h": 1.59612,
    "l": 1.59092,
    "c": 1.59105,
    "v": 2291
  },
  {
    "dt": "2022.02.01 07:00",
    "o": 1.59107,
    "h": 1.59192,
    "l": 1.59025,
    "c": 1.59054,
    "v": 1969
  },
  {
    "dt": "2022.02.01 08:00",
    "o": 1.59057,
    "h": 1.59283,
    "l": 1.59026,
    "c": 1.59082,
    "v": 1898
  },
  {
    "dt": "2022.02.01 09:00",
    "o": 1.5908,
    "h": 1.59106,
    "l": 1.58856,
    "c": 1.59044,
    "v": 4168
  },
  {
    "dt": "2022.02.01 10:00",
    "o": 1.59047,
    "h": 1.59053,
    "l": 1.58726,
    "c": 1.58888,
    "v": 4554
  },
  {
    "dt": "2022.02.01 11:00",
    "o": 1.58899,
    "h": 1.59061,
    "l": 1.58713,
    "c": 1.59023,
    "v": 4720
  },
  {
    "dt": "2022.02.01 12:00",
    "o": 1.59015,
    "h": 1.59022,
    "l": 1.58816,
    "c": 1.58902,
    "v": 3864
  },
  {
    "dt": "2022.02.01 13:00",
    "o": 1.58901,
    "h": 1.58904,
    "l": 1.58693,
    "c": 1.58794,
    "v": 4162
  },
  {
    "dt": "2022.02.01 14:00",
    "o": 1.58794,
    "h": 1.588,
    "l": 1.58496,
    "c": 1.58682,
    "v": 3959
  },
  {
    "dt": "2022.02.01 15:00",
    "o": 1.58684,
    "h": 1.58732,
    "l": 1.58553,
    "c": 1.5859,
    "v": 4309
  },
  {
    "dt": "2022.02.01 16:00",
    "o": 1.58592,
    "h": 1.58881,
    "l": 1.58548,
    "c": 1.58745,
    "v": 5218
  },
  {
    "dt": "2022.02.01 17:00",
    "o": 1.58735,
    "h": 1.58984,
    "l": 1.58097,
    "c": 1.58155,
    "v": 6061
  },
  {
    "dt": "2022.02.01 18:00",
    "o": 1.58157,
    "h": 1.58214,
    "l": 1.58017,
    "c": 1.58066,
    "v": 4939
  },
  {
    "dt": "2022.02.01 19:00",
    "o": 1.58067,
    "h": 1.5817,
    "l": 1.58026,
    "c": 1.581,
    "v": 4136
  },
  {
    "dt": "2022.02.01 20:00",
    "o": 1.58105,
    "h": 1.58149,
    "l": 1.58024,
    "c": 1.58095,
    "v": 3248
  },
  {
    "dt": "2022.02.01 21:00",
    "o": 1.58092,
    "h": 1.58203,
    "l": 1.5804,
    "c": 1.58124,
    "v": 3706
  },
  {
    "dt": "2022.02.01 22:00",
    "o": 1.58131,
    "h": 1.58199,
    "l": 1.58071,
    "c": 1.58084,
    "v": 3806
  },
  {
    "dt": "2022.02.01 23:00",
    "o": 1.58086,
    "h": 1.58171,
    "l": 1.58042,
    "c": 1.58051,
    "v": 2092
  },
  {
    "dt": "2022.02.02 00:00",
    "o": 1.58091,
    "h": 1.58101,
    "l": 1.57844,
    "c": 1.58055,
    "v": 341
  },
  {
    "dt": "2022.02.02 01:00",
    "o": 1.58052,
    "h": 1.58073,
    "l": 1.57871,
    "c": 1.58006,
    "v": 1306
  },
  {
    "dt": "2022.02.02 02:00",
    "o": 1.58008,
    "h": 1.58034,
    "l": 1.57782,
    "c": 1.57849,
    "v": 1707
  },
  {
    "dt": "2022.02.02 03:00",
    "o": 1.57849,
    "h": 1.58103,
    "l": 1.57773,
    "c": 1.5803,
    "v": 2014
  },
  {
    "dt": "2022.02.02 04:00",
    "o": 1.58035,
    "h": 1.58105,
    "l": 1.57771,
    "c": 1.58023,
    "v": 1724
  },
  {
    "dt": "2022.02.02 05:00",
    "o": 1.58021,
    "h": 1.58149,
    "l": 1.5796,
    "c": 1.58087,
    "v": 1378
  },
  {
    "dt": "2022.02.02 06:00",
    "o": 1.58088,
    "h": 1.58088,
    "l": 1.57979,
    "c": 1.58044,
    "v": 1097
  },
  {
    "dt": "2022.02.02 07:00",
    "o": 1.58044,
    "h": 1.5811,
    "l": 1.57936,
    "c": 1.58007,
    "v": 1251
  },
  {
    "dt": "2022.02.02 08:00",
    "o": 1.58008,
    "h": 1.58061,
    "l": 1.5786,
    "c": 1.5793,
    "v": 1675
  },
  {
    "dt": "2022.02.02 09:00",
    "o": 1.57931,
    "h": 1.5806,
    "l": 1.57903,
    "c": 1.58038,
    "v": 3174
  },
  {
    "dt": "2022.02.02 10:00",
    "o": 1.58036,
    "h": 1.58458,
    "l": 1.57973,
    "c": 1.58435,
    "v": 4407
  },
  {
    "dt": "2022.02.02 11:00",
    "o": 1.58431,
    "h": 1.58433,
    "l": 1.58038,
    "c": 1.58112,
    "v": 3844
  },
  {
    "dt": "2022.02.02 12:00",
    "o": 1.58134,
    "h": 1.58229,
    "l": 1.58042,
    "c": 1.58109,
    "v": 4045
  },
  {
    "dt": "2022.02.02 13:00",
    "o": 1.58109,
    "h": 1.58321,
    "l": 1.58103,
    "c": 1.58289,
    "v": 3457
  },
  {
    "dt": "2022.02.02 14:00",
    "o": 1.58289,
    "h": 1.58367,
    "l": 1.58194,
    "c": 1.58217,
    "v": 3606
  },
  {
    "dt": "2022.02.02 15:00",
    "o": 1.58214,
    "h": 1.58515,
    "l": 1.58197,
    "c": 1.58504,
    "v": 4674
  },
  {
    "dt": "2022.02.02 16:00",
    "o": 1.58502,
    "h": 1.58638,
    "l": 1.58371,
    "c": 1.58565,
    "v": 5356
  },
  {
    "dt": "2022.02.02 17:00",
    "o": 1.58566,
    "h": 1.58679,
    "l": 1.58468,
    "c": 1.58564,
    "v": 5521
  },
  {
    "dt": "2022.02.02 18:00",
    "o": 1.58569,
    "h": 1.58642,
    "l": 1.58513,
    "c": 1.58562,
    "v": 4734
  },
  {
    "dt": "2022.02.02 19:00",
    "o": 1.58564,
    "h": 1.58603,
    "l": 1.58455,
    "c": 1.58465,
    "v": 3331
  },
  {
    "dt": "2022.02.02 20:00",
    "o": 1.58461,
    "h": 1.58546,
    "l": 1.58399,
    "c": 1.58408,
    "v": 2917
  },
  {
    "dt": "2022.02.02 21:00",
    "o": 1.58406,
    "h": 1.58448,
    "l": 1.58271,
    "c": 1.58282,
    "v": 2784
  },
  {
    "dt": "2022.02.02 22:00",
    "o": 1.58277,
    "h": 1.58352,
    "l": 1.58225,
    "c": 1.58338,
    "v": 3448
  },
  {
    "dt": "2022.02.02 23:00",
    "o": 1.58338,
    "h": 1.58479,
    "l": 1.58318,
    "c": 1.58322,
    "v": 2380
  },
  {
    "dt": "2022.02.03 00:00",
    "o": 1.58351,
    "h": 1.58442,
    "l": 1.58316,
    "c": 1.58392,
    "v": 486
  },
  {
    "dt": "2022.02.03 01:00",
    "o": 1.58392,
    "h": 1.58703,
    "l": 1.58392,
    "c": 1.58667,
    "v": 1790
  },
  {
    "dt": "2022.02.03 02:00",
    "o": 1.5866,
    "h": 1.58714,
    "l": 1.58589,
    "c": 1.5866,
    "v": 2202
  },
  {
    "dt": "2022.02.03 03:00",
    "o": 1.58657,
    "h": 1.58717,
    "l": 1.58583,
    "c": 1.58638,
    "v": 2215
  },
  {
    "dt": "2022.02.03 04:00",
    "o": 1.5864,
    "h": 1.58754,
    "l": 1.58532,
    "c": 1.5864,
    "v": 1805
  },
  {
    "dt": "2022.02.03 05:00",
    "o": 1.58624,
    "h": 1.58683,
    "l": 1.58534,
    "c": 1.58576,
    "v": 1726
  },
  {
    "dt": "2022.02.03 06:00",
    "o": 1.58575,
    "h": 1.58683,
    "l": 1.58552,
    "c": 1.58674,
    "v": 1630
  },
  {
    "dt": "2022.02.03 07:00",
    "o": 1.58675,
    "h": 1.58709,
    "l": 1.58535,
    "c": 1.58595,
    "v": 1703
  },
  {
    "dt": "2022.02.03 08:00",
    "o": 1.58597,
    "h": 1.58664,
    "l": 1.58534,
    "c": 1.58578,
    "v": 2043
  },
  {
    "dt": "2022.02.03 09:00",
    "o": 1.5857,
    "h": 1.58604,
    "l": 1.58406,
    "c": 1.58429,
    "v": 3110
  },
  {
    "dt": "2022.02.03 10:00",
    "o": 1.58439,
    "h": 1.58691,
    "l": 1.5837,
    "c": 1.58479,
    "v": 4285
  },
  {
    "dt": "2022.02.03 11:00",
    "o": 1.5848,
    "h": 1.58594,
    "l": 1.58317,
    "c": 1.58568,
    "v": 3511
  },
  {
    "dt": "2022.02.03 12:00",
    "o": 1.58567,
    "h": 1.58585,
    "l": 1.58411,
    "c": 1.58536,
    "v": 3325
  },
  {
    "dt": "2022.02.03 13:00",
    "o": 1.58526,
    "h": 1.58631,
    "l": 1.58413,
    "c": 1.58539,
    "v": 3236
  },
  {
    "dt": "2022.02.03 14:00",
    "o": 1.5854,
    "h": 1.58738,
    "l": 1.58355,
    "c": 1.5844,
    "v": 5367
  },
  {
    "dt": "2022.02.03 15:00",
    "o": 1.58443,
    "h": 1.59322,
    "l": 1.58331,
    "c": 1.59322,
    "v": 5739
  },
  {
    "dt": "2022.02.03 16:00",
    "o": 1.59322,
    "h": 1.59606,
    "l": 1.59077,
    "c": 1.59559,
    "v": 6335
  },
  {
    "dt": "2022.02.03 17:00",
    "o": 1.59567,
    "h": 1.59841,
    "l": 1.59368,
    "c": 1.59699,
    "v": 6124
  },
  {
    "dt": "2022.02.03 18:00",
    "o": 1.59698,
    "h": 1.60041,
    "l": 1.59643,
    "c": 1.59979,
    "v": 5395
  },
  {
    "dt": "2022.02.03 19:00",
    "o": 1.59973,
    "h": 1.6031,
    "l": 1.59935,
    "c": 1.60241,
    "v": 4750
  },
  {
    "dt": "2022.02.03 20:00",
    "o": 1.60233,
    "h": 1.60261,
    "l": 1.60065,
    "c": 1.6022,
    "v": 3802
  },
  {
    "dt": "2022.02.03 21:00",
    "o": 1.60223,
    "h": 1.60345,
    "l": 1.6016,
    "c": 1.60274,
    "v": 3539
  },
  {
    "dt": "2022.02.03 22:00",
    "o": 1.60272,
    "h": 1.60384,
    "l": 1.60146,
    "c": 1.60305,
    "v": 3570
  },
  {
    "dt": "2022.02.03 23:00",
    "o": 1.60295,
    "h": 1.60304,
    "l": 1.60109,
    "c": 1.60109,
    "v": 2719
  },
  {
    "dt": "2022.02.04 00:00",
    "o": 1.60094,
    "h": 1.60235,
    "l": 1.60086,
    "c": 1.60201,
    "v": 198
  },
  {
    "dt": "2022.02.04 01:00",
    "o": 1.60211,
    "h": 1.60217,
    "l": 1.60032,
    "c": 1.60091,
    "v": 1221
  },
  {
    "dt": "2022.02.04 02:00",
    "o": 1.60083,
    "h": 1.60263,
    "l": 1.59985,
    "c": 1.60214,
    "v": 2426
  },
  {
    "dt": "2022.02.04 03:00",
    "o": 1.60211,
    "h": 1.60545,
    "l": 1.6017,
    "c": 1.60497,
    "v": 2903
  },
  {
    "dt": "2022.02.04 04:00",
    "o": 1.60493,
    "h": 1.60555,
    "l": 1.60296,
    "c": 1.60548,
    "v": 2363
  },
  {
    "dt": "2022.02.04 05:00",
    "o": 1.60533,
    "h": 1.60548,
    "l": 1.60418,
    "c": 1.60418,
    "v": 1832
  },
  {
    "dt": "2022.02.04 06:00",
    "o": 1.60417,
    "h": 1.60447,
    "l": 1.60353,
    "c": 1.60373,
    "v": 1928
  },
  {
    "dt": "2022.02.04 07:00",
    "o": 1.60374,
    "h": 1.60474,
    "l": 1.60333,
    "c": 1.60442,
    "v": 1907
  },
  {
    "dt": "2022.02.04 08:00",
    "o": 1.60442,
    "h": 1.60771,
    "l": 1.60423,
    "c": 1.60692,
    "v": 2299
  },
  {
    "dt": "2022.02.04 09:00",
    "o": 1.60675,
    "h": 1.61169,
    "l": 1.60662,
    "c": 1.61148,
    "v": 4132
  },
  {
    "dt": "2022.02.04 10:00",
    "o": 1.61153,
    "h": 1.61192,
    "l": 1.60842,
    "c": 1.61154,
    "v": 5068
  },
  {
    "dt": "2022.02.04 11:00",
    "o": 1.6116,
    "h": 1.61269,
    "l": 1.60975,
    "c": 1.61187,
    "v": 4563
  },
  {
    "dt": "2022.02.04 12:00",
    "o": 1.6119,
    "h": 1.61638,
    "l": 1.61176,
    "c": 1.61532,
    "v": 4729
  },
  {
    "dt": "2022.02.04 13:00",
    "o": 1.61534,
    "h": 1.6201,
    "l": 1.61487,
    "c": 1.61885,
    "v": 4667
  },
  {
    "dt": "2022.02.04 14:00",
    "o": 1.61876,
    "h": 1.61915,
    "l": 1.6163,
    "c": 1.6166,
    "v": 4086
  },
  {
    "dt": "2022.02.04 15:00",
    "o": 1.6166,
    "h": 1.62103,
    "l": 1.6157,
    "c": 1.62074,
    "v": 5656
  },
  {
    "dt": "2022.02.04 16:00",
    "o": 1.62075,
    "h": 1.62165,
    "l": 1.61533,
    "c": 1.61538,
    "v": 6342
  },
  {
    "dt": "2022.02.04 17:00",
    "o": 1.61534,
    "h": 1.62155,
    "l": 1.61503,
    "c": 1.62091,
    "v": 6093
  },
  {
    "dt": "2022.02.04 18:00",
    "o": 1.62093,
    "h": 1.62242,
    "l": 1.61909,
    "c": 1.62053,
    "v": 5083
  },
  {
    "dt": "2022.02.04 19:00",
    "o": 1.62046,
    "h": 1.62121,
    "l": 1.61975,
    "c": 1.62043,
    "v": 3278
  },
  {
    "dt": "2022.02.04 20:00",
    "o": 1.62044,
    "h": 1.62084,
    "l": 1.61786,
    "c": 1.61803,
    "v": 2905
  },
  {
    "dt": "2022.02.04 21:00",
    "o": 1.61794,
    "h": 1.61873,
    "l": 1.61752,
    "c": 1.61789,
    "v": 3106
  },
  {
    "dt": "2022.02.04 22:00",
    "o": 1.61788,
    "h": 1.61908,
    "l": 1.61715,
    "c": 1.61896,
    "v": 3261
  },
  {
    "dt": "2022.02.04 23:00",
    "o": 1.61895,
    "h": 1.61919,
    "l": 1.61687,
    "c": 1.61728,
    "v": 1563
  },
  {
    "dt": "2022.02.07 00:00",
    "o": 1.61904,
    "h": 1.61904,
    "l": 1.61642,
    "c": 1.6171,
    "v": 526
  },
  {
    "dt": "2022.02.07 01:00",
    "o": 1.61707,
    "h": 1.61833,
    "l": 1.61655,
    "c": 1.61778,
    "v": 1883
  },
  {
    "dt": "2022.02.07 02:00",
    "o": 1.61774,
    "h": 1.61989,
    "l": 1.61767,
    "c": 1.61876,
    "v": 2465
  },
  {
    "dt": "2022.02.07 03:00",
    "o": 1.61875,
    "h": 1.61894,
    "l": 1.61537,
    "c": 1.61627,
    "v": 3403
  },
  {
    "dt": "2022.02.07 04:00",
    "o": 1.61626,
    "h": 1.61634,
    "l": 1.61495,
    "c": 1.61543,
    "v": 3001
  },
  {
    "dt": "2022.02.07 05:00",
    "o": 1.61542,
    "h": 1.61706,
    "l": 1.6147,
    "c": 1.61562,
    "v": 2065
  },
  {
    "dt": "2022.02.07 06:00",
    "o": 1.61566,
    "h": 1.61571,
    "l": 1.61301,
    "c": 1.61317,
    "v": 1875
  },
  {
    "dt": "2022.02.07 07:00",
    "o": 1.61317,
    "h": 1.61408,
    "l": 1.61301,
    "c": 1.61332,
    "v": 2292
  },
  {
    "dt": "2022.02.07 08:00",
    "o": 1.61332,
    "h": 1.61397,
    "l": 1.61201,
    "c": 1.61267,
    "v": 2143
  },
  {
    "dt": "2022.02.07 09:00",
    "o": 1.61261,
    "h": 1.61281,
    "l": 1.60896,
    "c": 1.60907,
    "v": 3855
  },
  {
    "dt": "2022.02.07 10:00",
    "o": 1.60911,
    "h": 1.61353,
    "l": 1.60898,
    "c": 1.61012,
    "v": 5162
  },
  {
    "dt": "2022.02.07 11:00",
    "o": 1.61012,
    "h": 1.61098,
    "l": 1.60847,
    "c": 1.60961,
    "v": 4477
  },
  {
    "dt": "2022.02.07 12:00",
    "o": 1.6096,
    "h": 1.61139,
    "l": 1.60911,
    "c": 1.6108,
    "v": 3814
  },
  {
    "dt": "2022.02.07 13:00",
    "o": 1.61082,
    "h": 1.61237,
    "l": 1.61055,
    "c": 1.6121,
    "v": 3792
  },
  {
    "dt": "2022.02.07 14:00",
    "o": 1.61212,
    "h": 1.61228,
    "l": 1.61064,
    "c": 1.61158,
    "v": 4172
  },
  {
    "dt": "2022.02.07 15:00",
    "o": 1.61161,
    "h": 1.61172,
    "l": 1.60805,
    "c": 1.60888,
    "v": 4780
  },
  {
    "dt": "2022.02.07 16:00",
    "o": 1.60887,
    "h": 1.60967,
    "l": 1.60503,
    "c": 1.60586,
    "v": 5306
  },
  {
    "dt": "2022.02.07 17:00",
    "o": 1.60583,
    "h": 1.60919,
    "l": 1.60559,
    "c": 1.60777,
    "v": 5154
  },
  {
    "dt": "2022.02.07 18:00",
    "o": 1.60773,
    "h": 1.60923,
    "l": 1.60503,
    "c": 1.6077,
    "v": 4901
  },
  {
    "dt": "2022.02.07 19:00",
    "o": 1.60775,
    "h": 1.60848,
    "l": 1.60624,
    "c": 1.60635,
    "v": 3711
  },
  {
    "dt": "2022.02.07 20:00",
    "o": 1.60637,
    "h": 1.60638,
    "l": 1.60523,
    "c": 1.60559,
    "v": 2970
  },
  {
    "dt": "2022.02.07 21:00",
    "o": 1.6056,
    "h": 1.60593,
    "l": 1.60423,
    "c": 1.60506,
    "v": 2968
  },
  {
    "dt": "2022.02.07 22:00",
    "o": 1.60501,
    "h": 1.60651,
    "l": 1.60423,
    "c": 1.6062,
    "v": 3450
  },
  {
    "dt": "2022.02.07 23:00",
    "o": 1.60617,
    "h": 1.60619,
    "l": 1.60508,
    "c": 1.60527,
    "v": 1717
  },
  {
    "dt": "2022.02.08 00:00",
    "o": 1.60502,
    "h": 1.60711,
    "l": 1.60451,
    "c": 1.60604,
    "v": 392
  },
  {
    "dt": "2022.02.08 01:00",
    "o": 1.60542,
    "h": 1.60634,
    "l": 1.60458,
    "c": 1.60509,
    "v": 1391
  },
  {
    "dt": "2022.02.08 02:00",
    "o": 1.60519,
    "h": 1.60554,
    "l": 1.60393,
    "c": 1.60406,
    "v": 1983
  },
  {
    "dt": "2022.02.08 03:00",
    "o": 1.60413,
    "h": 1.60548,
    "l": 1.60212,
    "c": 1.60217,
    "v": 2596
  },
  {
    "dt": "2022.02.08 04:00",
    "o": 1.60215,
    "h": 1.60359,
    "l": 1.60172,
    "c": 1.60275,
    "v": 2200
  },
  {
    "dt": "2022.02.08 05:00",
    "o": 1.60276,
    "h": 1.60314,
    "l": 1.60115,
    "c": 1.60216,
    "v": 1764
  },
  {
    "dt": "2022.02.08 06:00",
    "o": 1.60213,
    "h": 1.60468,
    "l": 1.60136,
    "c": 1.60414,
    "v": 1818
  },
  {
    "dt": "2022.02.08 07:00",
    "o": 1.60411,
    "h": 1.60678,
    "l": 1.60406,
    "c": 1.60491,
    "v": 2125
  },
  {
    "dt": "2022.02.08 08:00",
    "o": 1.60492,
    "h": 1.60526,
    "l": 1.60293,
    "c": 1.60326,
    "v": 2148
  },
  {
    "dt": "2022.02.08 09:00",
    "o": 1.60337,
    "h": 1.60353,
    "l": 1.60115,
    "c": 1.60153,
    "v": 4185
  },
  {
    "dt": "2022.02.08 10:00",
    "o": 1.60148,
    "h": 1.60186,
    "l": 1.59844,
    "c": 1.59999,
    "v": 4782
  },
  {
    "dt": "2022.02.08 11:00",
    "o": 1.6,
    "h": 1.60018,
    "l": 1.59744,
    "c": 1.59838,
    "v": 3840
  },
  {
    "dt": "2022.02.08 12:00",
    "o": 1.59835,
    "h": 1.60385,
    "l": 1.5983,
    "c": 1.60384,
    "v": 3741
  },
  {
    "dt": "2022.02.08 13:00",
    "o": 1.60383,
    "h": 1.60579,
    "l": 1.60304,
    "c": 1.60408,
    "v": 3854
  },
  {
    "dt": "2022.02.08 14:00",
    "o": 1.6041,
    "h": 1.60544,
    "l": 1.60355,
    "c": 1.60439,
    "v": 3894
  },
  {
    "dt": "2022.02.08 15:00",
    "o": 1.60437,
    "h": 1.60464,
    "l": 1.60069,
    "c": 1.60109,
    "v": 4359
  },
  {
    "dt": "2022.02.08 16:00",
    "o": 1.60108,
    "h": 1.60262,
    "l": 1.60004,
    "c": 1.60068,
    "v": 4903
  },
  {
    "dt": "2022.02.08 17:00",
    "o": 1.6008,
    "h": 1.60281,
    "l": 1.59961,
    "c": 1.60184,
    "v": 5207
  },
  {
    "dt": "2022.02.08 18:00",
    "o": 1.60179,
    "h": 1.60219,
    "l": 1.60014,
    "c": 1.60035,
    "v": 4161
  },
  {
    "dt": "2022.02.08 19:00",
    "o": 1.60031,
    "h": 1.60135,
    "l": 1.60005,
    "c": 1.60075,
    "v": 2783
  },
  {
    "dt": "2022.02.08 20:00",
    "o": 1.60072,
    "h": 1.60081,
    "l": 1.59919,
    "c": 1.5995,
    "v": 2387
  },
  {
    "dt": "2022.02.08 21:00",
    "o": 1.59954,
    "h": 1.6,
    "l": 1.59894,
    "c": 1.59954,
    "v": 2743
  },
  {
    "dt": "2022.02.08 22:00",
    "o": 1.59953,
    "h": 1.59985,
    "l": 1.59758,
    "c": 1.59806,
    "v": 2753
  },
  {
    "dt": "2022.02.08 23:00",
    "o": 1.59809,
    "h": 1.59855,
    "l": 1.59708,
    "c": 1.59723,
    "v": 1211
  },
  {
    "dt": "2022.02.09 00:00",
    "o": 1.5966,
    "h": 1.59791,
    "l": 1.5966,
    "c": 1.59755,
    "v": 476
  },
  {
    "dt": "2022.02.09 01:00",
    "o": 1.59756,
    "h": 1.59838,
    "l": 1.59721,
    "c": 1.59821,
    "v": 1199
  },
  {
    "dt": "2022.02.09 02:00",
    "o": 1.59819,
    "h": 1.59857,
    "l": 1.59705,
    "c": 1.59755,
    "v": 1619
  },
  {
    "dt": "2022.02.09 03:00",
    "o": 1.5976,
    "h": 1.5979,
    "l": 1.59534,
    "c": 1.596,
    "v": 2100
  },
  {
    "dt": "2022.02.09 04:00",
    "o": 1.59597,
    "h": 1.59724,
    "l": 1.59566,
    "c": 1.59692,
    "v": 1865
  },
  {
    "dt": "2022.02.09 05:00",
    "o": 1.5969,
    "h": 1.59704,
    "l": 1.5952,
    "c": 1.596,
    "v": 1442
  },
  {
    "dt": "2022.02.09 06:00",
    "o": 1.59596,
    "h": 1.59611,
    "l": 1.59398,
    "c": 1.59424,
    "v": 1402
  },
  {
    "dt": "2022.02.09 07:00",
    "o": 1.59424,
    "h": 1.59556,
    "l": 1.59408,
    "c": 1.59542,
    "v": 1429
  },
  {
    "dt": "2022.02.09 08:00",
    "o": 1.59542,
    "h": 1.59621,
    "l": 1.59507,
    "c": 1.59525,
    "v": 1614
  },
  {
    "dt": "2022.02.09 09:00",
    "o": 1.59526,
    "h": 1.5964,
    "l": 1.59373,
    "c": 1.59455,
    "v": 3171
  },
  {
    "dt": "2022.02.09 10:00",
    "o": 1.59455,
    "h": 1.59657,
    "l": 1.59331,
    "c": 1.5942,
    "v": 4111
  },
  {
    "dt": "2022.02.09 11:00",
    "o": 1.59416,
    "h": 1.59549,
    "l": 1.593,
    "c": 1.59497,
    "v": 3289
  },
  {
    "dt": "2022.02.09 12:00",
    "o": 1.59494,
    "h": 1.59505,
    "l": 1.59275,
    "c": 1.59424,
    "v": 3462
  },
  {
    "dt": "2022.02.09 13:00",
    "o": 1.59426,
    "h": 1.59426,
    "l": 1.59176,
    "c": 1.59208,
    "v": 3164
  },
  {
    "dt": "2022.02.09 14:00",
    "o": 1.59212,
    "h": 1.59367,
    "l": 1.59158,
    "c": 1.59354,
    "v": 3473
  },
  {
    "dt": "2022.02.09 15:00",
    "o": 1.59354,
    "h": 1.59378,
    "l": 1.59214,
    "c": 1.59276,
    "v": 4266
  },
  {
    "dt": "2022.02.09 16:00",
    "o": 1.59275,
    "h": 1.59282,
    "l": 1.59021,
    "c": 1.59114,
    "v": 4665
  },
  {
    "dt": "2022.02.09 17:00",
    "o": 1.5912,
    "h": 1.59172,
    "l": 1.58991,
    "c": 1.59109,
    "v": 4893
  },
  {
    "dt": "2022.02.09 18:00",
    "o": 1.59115,
    "h": 1.59243,
    "l": 1.59099,
    "c": 1.59208,
    "v": 3886
  },
  {
    "dt": "2022.02.09 19:00",
    "o": 1.5921,
    "h": 1.59211,
    "l": 1.59062,
    "c": 1.59195,
    "v": 3863
  },
  {
    "dt": "2022.02.09 20:00",
    "o": 1.59195,
    "h": 1.59247,
    "l": 1.59137,
    "c": 1.59153,
    "v": 3050
  },
  {
    "dt": "2022.02.09 21:00",
    "o": 1.59155,
    "h": 1.59155,
    "l": 1.59064,
    "c": 1.59098,
    "v": 2193
  },
  {
    "dt": "2022.02.09 22:00",
    "o": 1.59098,
    "h": 1.59149,
    "l": 1.59014,
    "c": 1.5906,
    "v": 3158
  },
  {
    "dt": "2022.02.09 23:00",
    "o": 1.59061,
    "h": 1.59096,
    "l": 1.59016,
    "c": 1.59072,
    "v": 1627
  },
  {
    "dt": "2022.02.10 00:00",
    "o": 1.59121,
    "h": 1.59128,
    "l": 1.59001,
    "c": 1.59084,
    "v": 357
  },
  {
    "dt": "2022.02.10 01:00",
    "o": 1.59079,
    "h": 1.59144,
    "l": 1.59055,
    "c": 1.59113,
    "v": 1074
  },
  {
    "dt": "2022.02.10 02:00",
    "o": 1.59115,
    "h": 1.5921,
    "l": 1.59026,
    "c": 1.59152,
    "v": 1640
  },
  {
    "dt": "2022.02.10 03:00",
    "o": 1.59157,
    "h": 1.59325,
    "l": 1.59147,
    "c": 1.59312,
    "v": 2307
  },
  {
    "dt": "2022.02.10 04:00",
    "o": 1.5931,
    "h": 1.59453,
    "l": 1.59309,
    "c": 1.59435,
    "v": 2094
  },
  {
    "dt": "2022.02.10 05:00",
    "o": 1.59438,
    "h": 1.59501,
    "l": 1.59384,
    "c": 1.59417,
    "v": 1456
  },
  {
    "dt": "2022.02.10 06:00",
    "o": 1.59419,
    "h": 1.59419,
    "l": 1.59191,
    "c": 1.59244,
    "v": 1579
  },
  {
    "dt": "2022.02.10 07:00",
    "o": 1.59244,
    "h": 1.5931,
    "l": 1.59206,
    "c": 1.5928,
    "v": 1311
  },
  {
    "dt": "2022.02.10 08:00",
    "o": 1.59279,
    "h": 1.59332,
    "l": 1.59223,
    "c": 1.59233,
    "v": 1682
  },
  {
    "dt": "2022.02.10 09:00",
    "o": 1.59231,
    "h": 1.59252,
    "l": 1.58992,
    "c": 1.59016,
    "v": 3209
  },
  {
    "dt": "2022.02.10 10:00",
    "o": 1.59021,
    "h": 1.59122,
    "l": 1.58854,
    "c": 1.59122,
    "v": 4126
  },
  {
    "dt": "2022.02.10 11:00",
    "o": 1.59123,
    "h": 1.5923,
    "l": 1.5905,
    "c": 1.59182,
    "v": 3921
  },
  {
    "dt": "2022.02.10 12:00",
    "o": 1.59182,
    "h": 1.59207,
    "l": 1.58896,
    "c": 1.589,
    "v": 3031
  },
  {
    "dt": "2022.02.10 13:00",
    "o": 1.589,
    "h": 1.58945,
    "l": 1.588,
    "c": 1.58807,
    "v": 2845
  },
  {
    "dt": "2022.02.10 14:00",
    "o": 1.58808,
    "h": 1.58897,
    "l": 1.58701,
    "c": 1.58884,
    "v": 3251
  },
  {
    "dt": "2022.02.10 15:00",
    "o": 1.5888,
    "h": 1.59452,
    "l": 1.58854,
    "c": 1.59219,
    "v": 5132
  },
  {
    "dt": "2022.02.10 16:00",
    "o": 1.59234,
    "h": 1.59285,
    "l": 1.58546,
    "c": 1.58653,
    "v": 6057
  },
  {
    "dt": "2022.02.10 17:00",
    "o": 1.58654,
    "h": 1.58907,
    "l": 1.5838,
    "c": 1.58434,
    "v": 6162
  },
  {
    "dt": "2022.02.10 18:00",
    "o": 1.5844,
    "h": 1.58723,
    "l": 1.58392,
    "c": 1.58527,
    "v": 5602
  },
  {
    "dt": "2022.02.10 19:00",
    "o": 1.58527,
    "h": 1.58972,
    "l": 1.58471,
    "c": 1.58884,
    "v": 4874
  },
  {
    "dt": "2022.02.10 20:00",
    "o": 1.58881,
    "h": 1.59419,
    "l": 1.58817,
    "c": 1.59261,
    "v": 5715
  },
  {
    "dt": "2022.02.10 21:00",
    "o": 1.59268,
    "h": 1.59698,
    "l": 1.59255,
    "c": 1.59681,
    "v": 4990
  },
  {
    "dt": "2022.02.10 22:00",
    "o": 1.59678,
    "h": 1.59851,
    "l": 1.59439,
    "c": 1.59554,
    "v": 5186
  },
  {
    "dt": "2022.02.10 23:00",
    "o": 1.59557,
    "h": 1.59674,
    "l": 1.59387,
    "c": 1.59413,
    "v": 3188
  },
  {
    "dt": "2022.02.11 00:00",
    "o": 1.5937,
    "h": 1.59527,
    "l": 1.59336,
    "c": 1.59465,
    "v": 513
  },
  {
    "dt": "2022.02.11 01:00",
    "o": 1.59465,
    "h": 1.59494,
    "l": 1.59243,
    "c": 1.59325,
    "v": 2091
  },
  {
    "dt": "2022.02.11 02:00",
    "o": 1.59324,
    "h": 1.59656,
    "l": 1.59322,
    "c": 1.59586,
    "v": 2935
  },
  {
    "dt": "2022.02.11 03:00",
    "o": 1.59585,
    "h": 1.59768,
    "l": 1.59379,
    "c": 1.59457,
    "v": 3128
  },
  {
    "dt": "2022.02.11 04:00",
    "o": 1.59457,
    "h": 1.59596,
    "l": 1.5945,
    "c": 1.59494,
    "v": 2533
  },
  {
    "dt": "2022.02.11 05:00",
    "o": 1.59491,
    "h": 1.59606,
    "l": 1.59484,
    "c": 1.59548,
    "v": 1888
  },
  {
    "dt": "2022.02.11 06:00",
    "o": 1.59547,
    "h": 1.5996,
    "l": 1.5948,
    "c": 1.59876,
    "v": 2937
  },
  {
    "dt": "2022.02.11 07:00",
    "o": 1.59873,
    "h": 1.59993,
    "l": 1.59788,
    "c": 1.59941,
    "v": 2338
  },
  {
    "dt": "2022.02.11 08:00",
    "o": 1.5994,
    "h": 1.60028,
    "l": 1.59801,
    "c": 1.5983,
    "v": 2449
  },
  {
    "dt": "2022.02.11 09:00",
    "o": 1.59838,
    "h": 1.5992,
    "l": 1.59654,
    "c": 1.59799,
    "v": 4456
  },
  {
    "dt": "2022.02.11 10:00",
    "o": 1.598,
    "h": 1.59877,
    "l": 1.59525,
    "c": 1.59735,
    "v": 5126
  },
  {
    "dt": "2022.02.11 11:00",
    "o": 1.59736,
    "h": 1.59858,
    "l": 1.59574,
    "c": 1.59785,
    "v": 4307
  },
  {
    "dt": "2022.02.11 12:00",
    "o": 1.59785,
    "h": 1.59919,
    "l": 1.59671,
    "c": 1.59702,
    "v": 3430
  },
  {
    "dt": "2022.02.11 13:00",
    "o": 1.59699,
    "h": 1.5981,
    "l": 1.59591,
    "c": 1.59634,
    "v": 3161
  },
  {
    "dt": "2022.02.11 14:00",
    "o": 1.59634,
    "h": 1.59693,
    "l": 1.59297,
    "c": 1.59423,
    "v": 4259
  },
  {
    "dt": "2022.02.11 15:00",
    "o": 1.5943,
    "h": 1.59446,
    "l": 1.59042,
    "c": 1.59088,
    "v": 4670
  },
  {
    "dt": "2022.02.11 16:00",
    "o": 1.59086,
    "h": 1.59156,
    "l": 1.58608,
    "c": 1.58838,
    "v": 5336
  },
  {
    "dt": "2022.02.11 17:00",
    "o": 1.58835,
    "h": 1.58924,
    "l": 1.58607,
    "c": 1.58867,
    "v": 5837
  },
  {
    "dt": "2022.02.11 18:00",
    "o": 1.58869,
    "h": 1.59045,
    "l": 1.5876,
    "c": 1.58863,
    "v": 5140
  },
  {
    "dt": "2022.02.11 19:00",
    "o": 1.58864,
    "h": 1.58906,
    "l": 1.58706,
    "c": 1.58719,
    "v": 3637
  },
  {
    "dt": "2022.02.11 20:00",
    "o": 1.58721,
    "h": 1.59028,
    "l": 1.5863,
    "c": 1.58816,
    "v": 4773
  },
  {
    "dt": "2022.02.11 21:00",
    "o": 1.58822,
    "h": 1.59132,
    "l": 1.58728,
    "c": 1.59055,
    "v": 6447
  },
  {
    "dt": "2022.02.11 22:00",
    "o": 1.59057,
    "h": 1.59108,
    "l": 1.58826,
    "c": 1.59005,
    "v": 5701
  },
  {
    "dt": "2022.02.11 23:00",
    "o": 1.5901,
    "h": 1.59125,
    "l": 1.58913,
    "c": 1.59004,
    "v": 2436
  },
  {
    "dt": "2022.02.14 00:00",
    "o": 1.58983,
    "h": 1.59088,
    "l": 1.58953,
    "c": 1.59026,
    "v": 1301
  },
  {
    "dt": "2022.02.14 01:00",
    "o": 1.59049,
    "h": 1.59094,
    "l": 1.58847,
    "c": 1.59052,
    "v": 2551
  },
  {
    "dt": "2022.02.14 02:00",
    "o": 1.59063,
    "h": 1.59248,
    "l": 1.59014,
    "c": 1.59208,
    "v": 2445
  },
  {
    "dt": "2022.02.14 03:00",
    "o": 1.59205,
    "h": 1.59339,
    "l": 1.59134,
    "c": 1.59308,
    "v": 3481
  },
  {
    "dt": "2022.02.14 04:00",
    "o": 1.59304,
    "h": 1.59354,
    "l": 1.5916,
    "c": 1.59292,
    "v": 2752
  },
  {
    "dt": "2022.02.14 05:00",
    "o": 1.59292,
    "h": 1.59368,
    "l": 1.59202,
    "c": 1.59351,
    "v": 2266
  },
  {
    "dt": "2022.02.14 06:00",
    "o": 1.59353,
    "h": 1.59395,
    "l": 1.59316,
    "c": 1.59381,
    "v": 1902
  },
  {
    "dt": "2022.02.14 07:00",
    "o": 1.59385,
    "h": 1.59385,
    "l": 1.59258,
    "c": 1.59329,
    "v": 2036
  },
  {
    "dt": "2022.02.14 08:00",
    "o": 1.59325,
    "h": 1.59405,
    "l": 1.59179,
    "c": 1.59199,
    "v": 2314
  },
  {
    "dt": "2022.02.14 09:00",
    "o": 1.59201,
    "h": 1.59427,
    "l": 1.59059,
    "c": 1.59175,
    "v": 4402
  },
  {
    "dt": "2022.02.14 10:00",
    "o": 1.59177,
    "h": 1.59573,
    "l": 1.59165,
    "c": 1.59491,
    "v": 5921
  },
  {
    "dt": "2022.02.14 11:00",
    "o": 1.59491,
    "h": 1.59589,
    "l": 1.5925,
    "c": 1.59394,
    "v": 4762
  },
  {
    "dt": "2022.02.14 12:00",
    "o": 1.59392,
    "h": 1.59459,
    "l": 1.59235,
    "c": 1.59329,
    "v": 4260
  },
  {
    "dt": "2022.02.14 13:00",
    "o": 1.59328,
    "h": 1.59366,
    "l": 1.592,
    "c": 1.5936,
    "v": 3661
  },
  {
    "dt": "2022.02.14 14:00",
    "o": 1.59357,
    "h": 1.59404,
    "l": 1.58907,
    "c": 1.58988,
    "v": 5064
  },
  {
    "dt": "2022.02.14 15:00",
    "o": 1.58995,
    "h": 1.59098,
    "l": 1.58858,
    "c": 1.59035,
    "v": 5797
  },
  {
    "dt": "2022.02.14 16:00",
    "o": 1.59034,
    "h": 1.59042,
    "l": 1.58708,
    "c": 1.58805,
    "v": 5743
  },
  {
    "dt": "2022.02.14 17:00",
    "o": 1.58803,
    "h": 1.58938,
    "l": 1.58594,
    "c": 1.58793,
    "v": 5946
  },
  {
    "dt": "2022.02.14 18:00",
    "o": 1.58797,
    "h": 1.58907,
    "l": 1.58601,
    "c": 1.58609,
    "v": 5465
  },
  {
    "dt": "2022.02.14 19:00",
    "o": 1.58608,
    "h": 1.58653,
    "l": 1.58399,
    "c": 1.58425,
    "v": 4213
  },
  {
    "dt": "2022.02.14 20:00",
    "o": 1.58425,
    "h": 1.5874,
    "l": 1.58353,
    "c": 1.58691,
    "v": 4377
  },
  {
    "dt": "2022.02.14 21:00",
    "o": 1.58689,
    "h": 1.58816,
    "l": 1.5842,
    "c": 1.58601,
    "v": 5887
  },
  {
    "dt": "2022.02.14 22:00",
    "o": 1.58609,
    "h": 1.58679,
    "l": 1.58514,
    "c": 1.58567,
    "v": 5035
  },
  {
    "dt": "2022.02.14 23:00",
    "o": 1.58564,
    "h": 1.58634,
    "l": 1.58526,
    "c": 1.58606,
    "v": 1980
  },
  {
    "dt": "2022.02.15 00:00",
    "o": 1.58621,
    "h": 1.58627,
    "l": 1.58513,
    "c": 1.58593,
    "v": 246
  },
  {
    "dt": "2022.02.15 01:00",
    "o": 1.58604,
    "h": 1.58677,
    "l": 1.58498,
    "c": 1.58503,
    "v": 1275
  },
  {
    "dt": "2022.02.15 02:00",
    "o": 1.58506,
    "h": 1.58679,
    "l": 1.58439,
    "c": 1.58594,
    "v": 2115
  },
  {
    "dt": "2022.02.15 03:00",
    "o": 1.58591,
    "h": 1.5882,
    "l": 1.58537,
    "c": 1.5864,
    "v": 2965
  },
  {
    "dt": "2022.02.15 04:00",
    "o": 1.58637,
    "h": 1.58652,
    "l": 1.58461,
    "c": 1.58509,
    "v": 2479
  },
  {
    "dt": "2022.02.15 05:00",
    "o": 1.58508,
    "h": 1.58818,
    "l": 1.58503,
    "c": 1.58797,
    "v": 2425
  },
  {
    "dt": "2022.02.15 06:00",
    "o": 1.58793,
    "h": 1.58862,
    "l": 1.58683,
    "c": 1.58812,
    "v": 1961
  },
  {
    "dt": "2022.02.15 07:00",
    "o": 1.58818,
    "h": 1.59307,
    "l": 1.58815,
    "c": 1.59286,
    "v": 3136
  },
  {
    "dt": "2022.02.15 08:00",
    "o": 1.59288,
    "h": 1.59315,
    "l": 1.59096,
    "c": 1.59152,
    "v": 2587
  },
  {
    "dt": "2022.02.15 09:00",
    "o": 1.59152,
    "h": 1.59193,
    "l": 1.58967,
    "c": 1.59023,
    "v": 3772
  },
  {
    "dt": "2022.02.15 10:00",
    "o": 1.59024,
    "h": 1.59045,
    "l": 1.58446,
    "c": 1.58549,
    "v": 5766
  },
  {
    "dt": "2022.02.15 11:00",
    "o": 1.58553,
    "h": 1.58871,
    "l": 1.58549,
    "c": 1.58814,
    "v": 4443
  },
  {
    "dt": "2022.02.15 12:00",
    "o": 1.58813,
    "h": 1.59064,
    "l": 1.58735,
    "c": 1.58972,
    "v": 4369
  },
  {
    "dt": "2022.02.15 13:00",
    "o": 1.58973,
    "h": 1.59045,
    "l": 1.58879,
    "c": 1.58944,
    "v": 3754
  },
  {
    "dt": "2022.02.15 14:00",
    "o": 1.58947,
    "h": 1.59053,
    "l": 1.58854,
    "c": 1.58877,
    "v": 4057
  },
  {
    "dt": "2022.02.15 15:00",
    "o": 1.5888,
    "h": 1.59066,
    "l": 1.58825,
    "c": 1.58923,
    "v": 4483
  },
  {
    "dt": "2022.02.15 16:00",
    "o": 1.58925,
    "h": 1.59184,
    "l": 1.58753,
    "c": 1.59109,
    "v": 5396
  },
  {
    "dt": "2022.02.15 17:00",
    "o": 1.59108,
    "h": 1.59143,
    "l": 1.58795,
    "c": 1.59015,
    "v": 5375
  },
  {
    "dt": "2022.02.15 18:00",
    "o": 1.59009,
    "h": 1.5914,
    "l": 1.58889,
    "c": 1.58892,
    "v": 4435
  },
  {
    "dt": "2022.02.15 19:00",
    "o": 1.58888,
    "h": 1.59018,
    "l": 1.58861,
    "c": 1.58953,
    "v": 3567
  },
  {
    "dt": "2022.02.15 20:00",
    "o": 1.58947,
    "h": 1.58978,
    "l": 1.58785,
    "c": 1.58808,
    "v": 2732
  },
  {
    "dt": "2022.02.15 21:00",
    "o": 1.58801,
    "h": 1.58924,
    "l": 1.58801,
    "c": 1.5881,
    "v": 2798
  },
  {
    "dt": "2022.02.15 22:00",
    "o": 1.58818,
    "h": 1.59018,
    "l": 1.58785,
    "c": 1.58809,
    "v": 3563
  },
  {
    "dt": "2022.02.15 23:00",
    "o": 1.58815,
    "h": 1.5889,
    "l": 1.58767,
    "c": 1.58804,
    "v": 1777
  },
  {
    "dt": "2022.02.16 00:00",
    "o": 1.58824,
    "h": 1.58824,
    "l": 1.58735,
    "c": 1.58764,
    "v": 275
  },
  {
    "dt": "2022.02.16 01:00",
    "o": 1.58764,
    "h": 1.58872,
    "l": 1.58707,
    "c": 1.5884,
    "v": 1222
  },
  {
    "dt": "2022.02.16 02:00",
    "o": 1.58835,
    "h": 1.58862,
    "l": 1.58749,
    "c": 1.58858,
    "v": 1561
  },
  {
    "dt": "2022.02.16 03:00",
    "o": 1.58857,
    "h": 1.58863,
    "l": 1.58735,
    "c": 1.58746,
    "v": 2304
  },
  {
    "dt": "2022.02.16 04:00",
    "o": 1.5875,
    "h": 1.5875,
    "l": 1.58492,
    "c": 1.58624,
    "v": 2249
  },
  {
    "dt": "2022.02.16 05:00",
    "o": 1.58627,
    "h": 1.58679,
    "l": 1.58569,
    "c": 1.58617,
    "v": 1267
  },
  {
    "dt": "2022.02.16 06:00",
    "o": 1.58617,
    "h": 1.58707,
    "l": 1.58568,
    "c": 1.58605,
    "v": 1077
  },
  {
    "dt": "2022.02.16 07:00",
    "o": 1.58603,
    "h": 1.58632,
    "l": 1.58539,
    "c": 1.58603,
    "v": 1450
  },
  {
    "dt": "2022.02.16 08:00",
    "o": 1.58604,
    "h": 1.58627,
    "l": 1.58436,
    "c": 1.58468,
    "v": 1988
  },
  {
    "dt": "2022.02.16 09:00",
    "o": 1.58477,
    "h": 1.58637,
    "l": 1.58379,
    "c": 1.58533,
    "v": 3770
  },
  {
    "dt": "2022.02.16 10:00",
    "o": 1.58514,
    "h": 1.5872,
    "l": 1.58469,
    "c": 1.58593,
    "v": 4670
  },
  {
    "dt": "2022.02.16 11:00",
    "o": 1.58588,
    "h": 1.58665,
    "l": 1.5846,
    "c": 1.58592,
    "v": 4379
  },
  {
    "dt": "2022.02.16 12:00",
    "o": 1.58588,
    "h": 1.5877,
    "l": 1.58557,
    "c": 1.58684,
    "v": 3619
  },
  {
    "dt": "2022.02.16 13:00",
    "o": 1.58677,
    "h": 1.58734,
    "l": 1.58592,
    "c": 1.58606,
    "v": 3243
  },
  {
    "dt": "2022.02.16 14:00",
    "o": 1.58607,
    "h": 1.58614,
    "l": 1.58425,
    "c": 1.58465,
    "v": 3857
  },
  {
    "dt": "2022.02.16 15:00",
    "o": 1.58465,
    "h": 1.58643,
    "l": 1.5843,
    "c": 1.58618,
    "v": 4599
  },
  {
    "dt": "2022.02.16 16:00",
    "o": 1.5862,
    "h": 1.58695,
    "l": 1.58378,
    "c": 1.58527,
    "v": 5112
  },
  {
    "dt": "2022.02.16 17:00",
    "o": 1.58533,
    "h": 1.58651,
    "l": 1.58427,
    "c": 1.58501,
    "v": 5188
  },
  {
    "dt": "2022.02.16 18:00",
    "o": 1.58498,
    "h": 1.58547,
    "l": 1.58394,
    "c": 1.58448,
    "v": 4213
  },
  {
    "dt": "2022.02.16 19:00",
    "o": 1.58448,
    "h": 1.58524,
    "l": 1.5834,
    "c": 1.58362,
    "v": 3578
  },
  {
    "dt": "2022.02.16 20:00",
    "o": 1.58365,
    "h": 1.58426,
    "l": 1.58196,
    "c": 1.58403,
    "v": 3414
  },
  {
    "dt": "2022.02.16 21:00",
    "o": 1.58395,
    "h": 1.58535,
    "l": 1.58105,
    "c": 1.58121,
    "v": 5419
  },
  {
    "dt": "2022.02.16 22:00",
    "o": 1.58121,
    "h": 1.58188,
    "l": 1.58023,
    "c": 1.58051,
    "v": 4379
  },
  {
    "dt": "2022.02.16 23:00",
    "o": 1.58052,
    "h": 1.58099,
    "l": 1.58007,
    "c": 1.58064,
    "v": 2166
  },
  {
    "dt": "2022.02.17 00:00",
    "o": 1.58079,
    "h": 1.58117,
    "l": 1.5801,
    "c": 1.58074,
    "v": 661
  },
  {
    "dt": "2022.02.17 01:00",
    "o": 1.58082,
    "h": 1.58106,
    "l": 1.57915,
    "c": 1.58104,
    "v": 1990
  },
  {
    "dt": "2022.02.17 02:00",
    "o": 1.58115,
    "h": 1.58147,
    "l": 1.57795,
    "c": 1.58147,
    "v": 2430
  },
  {
    "dt": "2022.02.17 03:00",
    "o": 1.58154,
    "h": 1.58167,
    "l": 1.57901,
    "c": 1.57916,
    "v": 2679
  },
  {
    "dt": "2022.02.17 04:00",
    "o": 1.57916,
    "h": 1.57924,
    "l": 1.57722,
    "c": 1.57892,
    "v": 2139
  },
  {
    "dt": "2022.02.17 05:00",
    "o": 1.5789,
    "h": 1.58397,
    "l": 1.57759,
    "c": 1.58369,
    "v": 2549
  },
  {
    "dt": "2022.02.17 06:00",
    "o": 1.58367,
    "h": 1.58462,
    "l": 1.57878,
    "c": 1.58166,
    "v": 4939
  },
  {
    "dt": "2022.02.17 07:00",
    "o": 1.58165,
    "h": 1.58183,
    "l": 1.58001,
    "c": 1.58001,
    "v": 3604
  },
  {
    "dt": "2022.02.17 08:00",
    "o": 1.58001,
    "h": 1.58123,
    "l": 1.57865,
    "c": 1.58048,
    "v": 3333
  },
  {
    "dt": "2022.02.17 09:00",
    "o": 1.58036,
    "h": 1.58072,
    "l": 1.57826,
    "c": 1.57849,
    "v": 4059
  },
  {
    "dt": "2022.02.17 10:00",
    "o": 1.57841,
    "h": 1.5819,
    "l": 1.57739,
    "c": 1.57877,
    "v": 5625
  },
  {
    "dt": "2022.02.17 11:00",
    "o": 1.57877,
    "h": 1.57958,
    "l": 1.57748,
    "c": 1.57886,
    "v": 4977
  },
  {
    "dt": "2022.02.17 12:00",
    "o": 1.57893,
    "h": 1.5791,
    "l": 1.57715,
    "c": 1.57781,
    "v": 3696
  },
  {
    "dt": "2022.02.17 13:00",
    "o": 1.57781,
    "h": 1.57854,
    "l": 1.57717,
    "c": 1.57749,
    "v": 3270
  },
  {
    "dt": "2022.02.17 14:00",
    "o": 1.57748,
    "h": 1.57819,
    "l": 1.57608,
    "c": 1.57703,
    "v": 3593
  },
  {
    "dt": "2022.02.17 15:00",
    "o": 1.57703,
    "h": 1.57867,
    "l": 1.57636,
    "c": 1.57706,
    "v": 4985
  },
  {
    "dt": "2022.02.17 16:00",
    "o": 1.57706,
    "h": 1.57839,
    "l": 1.57553,
    "c": 1.57831,
    "v": 5765
  },
  {
    "dt": "2022.02.17 17:00",
    "o": 1.57826,
    "h": 1.58011,
    "l": 1.57701,
    "c": 1.57913,
    "v": 5743
  },
  {
    "dt": "2022.02.17 18:00",
    "o": 1.5792,
    "h": 1.57989,
    "l": 1.57816,
    "c": 1.57922,
    "v": 4634
  },
  {
    "dt": "2022.02.17 19:00",
    "o": 1.57924,
    "h": 1.5796,
    "l": 1.57792,
    "c": 1.57818,
    "v": 3960
  },
  {
    "dt": "2022.02.17 20:00",
    "o": 1.57817,
    "h": 1.57867,
    "l": 1.57744,
    "c": 1.57759,
    "v": 3481
  },
  {
    "dt": "2022.02.17 21:00",
    "o": 1.57759,
    "h": 1.57973,
    "l": 1.57755,
    "c": 1.57967,
    "v": 3342
  },
  {
    "dt": "2022.02.17 22:00",
    "o": 1.57966,
    "h": 1.58127,
    "l": 1.5793,
    "c": 1.57962,
    "v": 4059
  },
  {
    "dt": "2022.02.17 23:00",
    "o": 1.57958,
    "h": 1.58068,
    "l": 1.57948,
    "c": 1.58053,
    "v": 2136
  },
  {
    "dt": "2022.02.18 00:00",
    "o": 1.58036,
    "h": 1.58104,
    "l": 1.57965,
    "c": 1.58093,
    "v": 468
  },
  {
    "dt": "2022.02.18 01:00",
    "o": 1.58092,
    "h": 1.58192,
    "l": 1.58051,
    "c": 1.58094,
    "v": 1576
  },
  {
    "dt": "2022.02.18 02:00",
    "o": 1.58104,
    "h": 1.58263,
    "l": 1.58046,
    "c": 1.58245,
    "v": 2109
  },
  {
    "dt": "2022.02.18 03:00",
    "o": 1.58244,
    "h": 1.58244,
    "l": 1.5787,
    "c": 1.57997,
    "v": 3601
  },
  {
    "dt": "2022.02.18 04:00",
    "o": 1.57997,
    "h": 1.58046,
    "l": 1.57893,
    "c": 1.5794,
    "v": 2953
  },
  {
    "dt": "2022.02.18 05:00",
    "o": 1.57939,
    "h": 1.57969,
    "l": 1.5777,
    "c": 1.57787,
    "v": 2527
  },
  {
    "dt": "2022.02.18 06:00",
    "o": 1.5779,
    "h": 1.57841,
    "l": 1.57663,
    "c": 1.5771,
    "v": 1930
  },
  {
    "dt": "2022.02.18 07:00",
    "o": 1.57706,
    "h": 1.5784,
    "l": 1.57675,
    "c": 1.57792,
    "v": 1907
  },
  {
    "dt": "2022.02.18 08:00",
    "o": 1.57792,
    "h": 1.57911,
    "l": 1.57626,
    "c": 1.57677,
    "v": 2091
  },
  {
    "dt": "2022.02.18 09:00",
    "o": 1.57673,
    "h": 1.57713,
    "l": 1.57545,
    "c": 1.57568,
    "v": 3271
  },
  {
    "dt": "2022.02.18 10:00",
    "o": 1.57584,
    "h": 1.5761,
    "l": 1.57325,
    "c": 1.57556,
    "v": 4484
  },
  {
    "dt": "2022.02.18 11:00",
    "o": 1.57561,
    "h": 1.57734,
    "l": 1.57509,
    "c": 1.57585,
    "v": 3894
  },
  {
    "dt": "2022.02.18 12:00",
    "o": 1.57584,
    "h": 1.57724,
    "l": 1.57541,
    "c": 1.57694,
    "v": 3853
  },
  {
    "dt": "2022.02.18 13:00",
    "o": 1.57692,
    "h": 1.57767,
    "l": 1.57578,
    "c": 1.57682,
    "v": 3610
  },
  {
    "dt": "2022.02.18 14:00",
    "o": 1.57677,
    "h": 1.57697,
    "l": 1.57431,
    "c": 1.57454,
    "v": 3748
  },
  {
    "dt": "2022.02.18 15:00",
    "o": 1.57445,
    "h": 1.57634,
    "l": 1.57397,
    "c": 1.57462,
    "v": 5175
  },
  {
    "dt": "2022.02.18 16:00",
    "o": 1.5746,
    "h": 1.57686,
    "l": 1.57365,
    "c": 1.57493,
    "v": 5557
  },
  {
    "dt": "2022.02.18 17:00",
    "o": 1.57485,
    "h": 1.58035,
    "l": 1.57485,
    "c": 1.58006,
    "v": 5529
  },
  {
    "dt": "2022.02.18 18:00",
    "o": 1.58005,
    "h": 1.58077,
    "l": 1.57808,
    "c": 1.57871,
    "v": 5483
  },
  {
    "dt": "2022.02.18 19:00",
    "o": 1.57876,
    "h": 1.58012,
    "l": 1.57703,
    "c": 1.57927,
    "v": 4450
  },
  {
    "dt": "2022.02.18 20:00",
    "o": 1.57925,
    "h": 1.57973,
    "l": 1.57763,
    "c": 1.57779,
    "v": 3163
  },
  {
    "dt": "2022.02.18 21:00",
    "o": 1.57781,
    "h": 1.57813,
    "l": 1.57608,
    "c": 1.5769,
    "v": 3221
  },
  {
    "dt": "2022.02.18 22:00",
    "o": 1.57686,
    "h": 1.57793,
    "l": 1.57634,
    "c": 1.57722,
    "v": 3798
  },
  {
    "dt": "2022.02.18 23:00",
    "o": 1.57725,
    "h": 1.57788,
    "l": 1.57649,
    "c": 1.57681,
    "v": 1768
  },
  {
    "dt": "2022.02.21 00:00",
    "o": 1.57756,
    "h": 1.57799,
    "l": 1.576,
    "c": 1.57765,
    "v": 632
  },
  {
    "dt": "2022.02.21 01:00",
    "o": 1.57797,
    "h": 1.57888,
    "l": 1.5774,
    "c": 1.57776,
    "v": 2360
  },
  {
    "dt": "2022.02.21 02:00",
    "o": 1.57773,
    "h": 1.57844,
    "l": 1.57572,
    "c": 1.57638,
    "v": 2412
  },
  {
    "dt": "2022.02.21 03:00",
    "o": 1.57635,
    "h": 1.57753,
    "l": 1.57512,
    "c": 1.57721,
    "v": 4355
  },
  {
    "dt": "2022.02.21 04:00",
    "o": 1.57721,
    "h": 1.57818,
    "l": 1.57604,
    "c": 1.57605,
    "v": 2855
  },
  {
    "dt": "2022.02.21 05:00",
    "o": 1.57604,
    "h": 1.57743,
    "l": 1.57545,
    "c": 1.57623,
    "v": 2325
  },
  {
    "dt": "2022.02.21 06:00",
    "o": 1.57622,
    "h": 1.5767,
    "l": 1.57476,
    "c": 1.575,
    "v": 1946
  },
  {
    "dt": "2022.02.21 07:00",
    "o": 1.57501,
    "h": 1.57569,
    "l": 1.5736,
    "c": 1.57515,
    "v": 2325
  },
  {
    "dt": "2022.02.21 08:00",
    "o": 1.57514,
    "h": 1.57574,
    "l": 1.57406,
    "c": 1.57481,
    "v": 2004
  },
  {
    "dt": "2022.02.21 09:00",
    "o": 1.57483,
    "h": 1.5766,
    "l": 1.57444,
    "c": 1.57606,
    "v": 3358
  },
  {
    "dt": "2022.02.21 10:00",
    "o": 1.57607,
    "h": 1.57712,
    "l": 1.57394,
    "c": 1.57394,
    "v": 4601
  },
  {
    "dt": "2022.02.21 11:00",
    "o": 1.57382,
    "h": 1.5763,
    "l": 1.57361,
    "c": 1.57475,
    "v": 3922
  },
  {
    "dt": "2022.02.21 12:00",
    "o": 1.57473,
    "h": 1.57693,
    "l": 1.57449,
    "c": 1.5759,
    "v": 3271
  },
  {
    "dt": "2022.02.21 13:00",
    "o": 1.57588,
    "h": 1.57758,
    "l": 1.57565,
    "c": 1.57635,
    "v": 3873
  },
  {
    "dt": "2022.02.21 14:00",
    "o": 1.57634,
    "h": 1.57692,
    "l": 1.57383,
    "c": 1.57383,
    "v": 4316
  },
  {
    "dt": "2022.02.21 15:00",
    "o": 1.57396,
    "h": 1.57512,
    "l": 1.57149,
    "c": 1.57235,
    "v": 4661
  },
  {
    "dt": "2022.02.21 16:00",
    "o": 1.57235,
    "h": 1.57333,
    "l": 1.57065,
    "c": 1.57239,
    "v": 4942
  },
  {
    "dt": "2022.02.21 17:00",
    "o": 1.57243,
    "h": 1.57278,
    "l": 1.57071,
    "c": 1.57115,
    "v": 4343
  },
  {
    "dt": "2022.02.21 18:00",
    "o": 1.57125,
    "h": 1.5733,
    "l": 1.57089,
    "c": 1.57322,
    "v": 3446
  },
  {
    "dt": "2022.02.21 19:00",
    "o": 1.57322,
    "h": 1.57348,
    "l": 1.57193,
    "c": 1.57284,
    "v": 2702
  },
  {
    "dt": "2022.02.21 20:00",
    "o": 1.57301,
    "h": 1.57406,
    "l": 1.57211,
    "c": 1.57219,
    "v": 1586
  },
  {
    "dt": "2022.02.21 21:00",
    "o": 1.57219,
    "h": 1.57345,
    "l": 1.572,
    "c": 1.57294,
    "v": 1984
  },
  {
    "dt": "2022.02.21 22:00",
    "o": 1.57305,
    "h": 1.57359,
    "l": 1.57249,
    "c": 1.57277,
    "v": 866
  },
  {
    "dt": "2022.02.21 23:00",
    "o": 1.57277,
    "h": 1.57323,
    "l": 1.57239,
    "c": 1.57305,
    "v": 1144
  },
  {
    "dt": "2022.02.22 00:00",
    "o": 1.57315,
    "h": 1.57371,
    "l": 1.57169,
    "c": 1.57333,
    "v": 718
  },
  {
    "dt": "2022.02.22 01:00",
    "o": 1.57333,
    "h": 1.57504,
    "l": 1.57269,
    "c": 1.57401,
    "v": 2805
  },
  {
    "dt": "2022.02.22 02:00",
    "o": 1.57392,
    "h": 1.57513,
    "l": 1.57159,
    "c": 1.57173,
    "v": 3060
  },
  {
    "dt": "2022.02.22 03:00",
    "o": 1.57179,
    "h": 1.57293,
    "l": 1.57113,
    "c": 1.57172,
    "v": 4011
  },
  {
    "dt": "2022.02.22 04:00",
    "o": 1.57173,
    "h": 1.57182,
    "l": 1.57005,
    "c": 1.57042,
    "v": 3242
  },
  {
    "dt": "2022.02.22 05:00",
    "o": 1.57036,
    "h": 1.57157,
    "l": 1.57008,
    "c": 1.57071,
    "v": 2852
  },
  {
    "dt": "2022.02.22 06:00",
    "o": 1.57071,
    "h": 1.57075,
    "l": 1.5687,
    "c": 1.56902,
    "v": 2630
  },
  {
    "dt": "2022.02.22 07:00",
    "o": 1.56901,
    "h": 1.56981,
    "l": 1.56775,
    "c": 1.56897,
    "v": 2820
  },
  {
    "dt": "2022.02.22 08:00",
    "o": 1.56894,
    "h": 1.57044,
    "l": 1.56834,
    "c": 1.56986,
    "v": 3280
  },
  {
    "dt": "2022.02.22 09:00",
    "o": 1.57006,
    "h": 1.57036,
    "l": 1.56895,
    "c": 1.56996,
    "v": 4841
  },
  {
    "dt": "2022.02.22 10:00",
    "o": 1.56996,
    "h": 1.57209,
    "l": 1.56921,
    "c": 1.57167,
    "v": 5591
  },
  {
    "dt": "2022.02.22 11:00",
    "o": 1.57158,
    "h": 1.57209,
    "l": 1.56978,
    "c": 1.57029,
    "v": 4925
  },
  {
    "dt": "2022.02.22 12:00",
    "o": 1.5703,
    "h": 1.57165,
    "l": 1.56962,
    "c": 1.5711,
    "v": 5160
  },
  {
    "dt": "2022.02.22 13:00",
    "o": 1.57112,
    "h": 1.57162,
    "l": 1.56971,
    "c": 1.57076,
    "v": 4934
  },
  {
    "dt": "2022.02.22 14:00",
    "o": 1.57082,
    "h": 1.57396,
    "l": 1.57079,
    "c": 1.57372,
    "v": 4745
  },
  {
    "dt": "2022.02.22 15:00",
    "o": 1.57375,
    "h": 1.57454,
    "l": 1.571,
    "c": 1.57165,
    "v": 4831
  },
  {
    "dt": "2022.02.22 16:00",
    "o": 1.57167,
    "h": 1.57373,
    "l": 1.57057,
    "c": 1.57358,
    "v": 4865
  },
  {
    "dt": "2022.02.22 17:00",
    "o": 1.57365,
    "h": 1.57377,
    "l": 1.56786,
    "c": 1.56893,
    "v": 5808
  },
  {
    "dt": "2022.02.22 18:00",
    "o": 1.56897,
    "h": 1.57044,
    "l": 1.56777,
    "c": 1.56963,
    "v": 5287
  },
  {
    "dt": "2022.02.22 19:00",
    "o": 1.56966,
    "h": 1.57006,
    "l": 1.56853,
    "c": 1.56994,
    "v": 4097
  },
  {
    "dt": "2022.02.22 20:00",
    "o": 1.56992,
    "h": 1.57212,
    "l": 1.56992,
    "c": 1.57154,
    "v": 4111
  },
  {
    "dt": "2022.02.22 21:00",
    "o": 1.57156,
    "h": 1.57199,
    "l": 1.56901,
    "c": 1.56956,
    "v": 4919
  },
  {
    "dt": "2022.02.22 22:00",
    "o": 1.56955,
    "h": 1.57018,
    "l": 1.56879,
    "c": 1.56886,
    "v": 4997
  },
  {
    "dt": "2022.02.22 23:00",
    "o": 1.56889,
    "h": 1.5691,
    "l": 1.56837,
    "c": 1.56858,
    "v": 1965
  },
  {
    "dt": "2022.02.23 00:00",
    "o": 1.56888,
    "h": 1.56888,
    "l": 1.56795,
    "c": 1.56849,
    "v": 929
  },
  {
    "dt": "2022.02.23 01:00",
    "o": 1.5685,
    "h": 1.56878,
    "l": 1.56718,
    "c": 1.56747,
    "v": 1271
  },
  {
    "dt": "2022.02.23 02:00",
    "o": 1.56741,
    "h": 1.56969,
    "l": 1.56688,
    "c": 1.56785,
    "v": 2199
  },
  {
    "dt": "2022.02.23 03:00",
    "o": 1.56785,
    "h": 1.56882,
    "l": 1.56626,
    "c": 1.56669,
    "v": 3295
  },
  {
    "dt": "2022.02.23 04:00",
    "o": 1.56666,
    "h": 1.56757,
    "l": 1.56566,
    "c": 1.56672,
    "v": 2723
  },
  {
    "dt": "2022.02.23 05:00",
    "o": 1.56671,
    "h": 1.56786,
    "l": 1.56659,
    "c": 1.56699,
    "v": 2042
  },
  {
    "dt": "2022.02.23 06:00",
    "o": 1.56699,
    "h": 1.56789,
    "l": 1.56534,
    "c": 1.56565,
    "v": 1668
  },
  {
    "dt": "2022.02.23 07:00",
    "o": 1.56564,
    "h": 1.56687,
    "l": 1.56525,
    "c": 1.56596,
    "v": 2068
  },
  {
    "dt": "2022.02.23 08:00",
    "o": 1.56597,
    "h": 1.56663,
    "l": 1.5649,
    "c": 1.56501,
    "v": 1998
  },
  {
    "dt": "2022.02.23 09:00",
    "o": 1.56499,
    "h": 1.56602,
    "l": 1.56401,
    "c": 1.56523,
    "v": 3878
  },
  {
    "dt": "2022.02.23 10:00",
    "o": 1.56522,
    "h": 1.56577,
    "l": 1.56304,
    "c": 1.56373,
    "v": 4532
  },
  {
    "dt": "2022.02.23 11:00",
    "o": 1.56372,
    "h": 1.56374,
    "l": 1.56089,
    "c": 1.56294,
    "v": 4178
  },
  {
    "dt": "2022.02.23 12:00",
    "o": 1.56292,
    "h": 1.56409,
    "l": 1.56229,
    "c": 1.56257,
    "v": 4015
  },
  {
    "dt": "2022.02.23 13:00",
    "o": 1.56257,
    "h": 1.56317,
    "l": 1.56146,
    "c": 1.56227,
    "v": 3617
  },
  {
    "dt": "2022.02.23 14:00",
    "o": 1.56231,
    "h": 1.56248,
    "l": 1.55977,
    "c": 1.5598,
    "v": 3637
  },
  {
    "dt": "2022.02.23 15:00",
    "o": 1.55972,
    "h": 1.55999,
    "l": 1.55782,
    "c": 1.55846,
    "v": 4196
  },
  {
    "dt": "2022.02.23 16:00",
    "o": 1.55845,
    "h": 1.56002,
    "l": 1.55785,
    "c": 1.55993,
    "v": 5009
  },
  {
    "dt": "2022.02.23 17:00",
    "o": 1.55992,
    "h": 1.56378,
    "l": 1.55978,
    "c": 1.56324,
    "v": 5815
  },
  {
    "dt": "2022.02.23 18:00",
    "o": 1.56322,
    "h": 1.56379,
    "l": 1.56129,
    "c": 1.56173,
    "v": 5026
  },
  {
    "dt": "2022.02.23 19:00",
    "o": 1.56176,
    "h": 1.56195,
    "l": 1.55958,
    "c": 1.56143,
    "v": 4058
  },
  {
    "dt": "2022.02.23 20:00",
    "o": 1.56143,
    "h": 1.56261,
    "l": 1.56107,
    "c": 1.56191,
    "v": 3828
  },
  {
    "dt": "2022.02.23 21:00",
    "o": 1.56193,
    "h": 1.56369,
    "l": 1.56163,
    "c": 1.56275,
    "v": 4360
  },
  {
    "dt": "2022.02.23 22:00",
    "o": 1.56277,
    "h": 1.56386,
    "l": 1.56212,
    "c": 1.56373,
    "v": 4220
  },
  {
    "dt": "2022.02.23 23:00",
    "o": 1.56365,
    "h": 1.56369,
    "l": 1.56261,
    "c": 1.56279,
    "v": 2201
  },
  {
    "dt": "2022.02.24 00:00",
    "o": 1.56276,
    "h": 1.56371,
    "l": 1.56253,
    "c": 1.56371,
    "v": 652
  },
  {
    "dt": "2022.02.24 01:00",
    "o": 1.56324,
    "h": 1.56487,
    "l": 1.56301,
    "c": 1.56406,
    "v": 1717
  },
  {
    "dt": "2022.02.24 02:00",
    "o": 1.56406,
    "h": 1.5658,
    "l": 1.56375,
    "c": 1.56537,
    "v": 3370
  },
  {
    "dt": "2022.02.24 03:00",
    "o": 1.56526,
    "h": 1.56605,
    "l": 1.56458,
    "c": 1.56516,
    "v": 4363
  },
  {
    "dt": "2022.02.24 04:00",
    "o": 1.56511,
    "h": 1.5675,
    "l": 1.56477,
    "c": 1.5662,
    "v": 4214
  },
  {
    "dt": "2022.02.24 05:00",
    "o": 1.56614,
    "h": 1.56709,
    "l": 1.56339,
    "c": 1.56387,
    "v": 5858
  },
  {
    "dt": "2022.02.24 06:00",
    "o": 1.56401,
    "h": 1.56483,
    "l": 1.56049,
    "c": 1.56212,
    "v": 5518
  },
  {
    "dt": "2022.02.24 07:00",
    "o": 1.56208,
    "h": 1.56272,
    "l": 1.56025,
    "c": 1.56187,
    "v": 4974
  },
  {
    "dt": "2022.02.24 08:00",
    "o": 1.56184,
    "h": 1.5645,
    "l": 1.56166,
    "c": 1.56435,
    "v": 4632
  },
  {
    "dt": "2022.02.24 09:00",
    "o": 1.56421,
    "h": 1.56734,
    "l": 1.5639,
    "c": 1.56656,
    "v": 6003
  },
  {
    "dt": "2022.02.24 10:00",
    "o": 1.56641,
    "h": 1.56782,
    "l": 1.56371,
    "c": 1.56381,
    "v": 6247
  },
  {
    "dt": "2022.02.24 11:00",
    "o": 1.56385,
    "h": 1.56549,
    "l": 1.56148,
    "c": 1.56255,
    "v": 5944
  },
  {
    "dt": "2022.02.24 12:00",
    "o": 1.56257,
    "h": 1.56257,
    "l": 1.55534,
    "c": 1.55779,
    "v": 5937
  },
  {
    "dt": "2022.02.24 13:00",
    "o": 1.55778,
    "h": 1.56019,
    "l": 1.55669,
    "c": 1.55774,
    "v": 5887
  },
  {
    "dt": "2022.02.24 14:00",
    "o": 1.55766,
    "h": 1.55954,
    "l": 1.55666,
    "c": 1.55909,
    "v": 5648
  },
  {
    "dt": "2022.02.24 15:00",
    "o": 1.55912,
    "h": 1.5611,
    "l": 1.55822,
    "c": 1.56046,
    "v": 5752
  },
  {
    "dt": "2022.02.24 16:00",
    "o": 1.56044,
    "h": 1.56107,
    "l": 1.55743,
    "c": 1.56041,
    "v": 6104
  },
  {
    "dt": "2022.02.24 17:00",
    "o": 1.56046,
    "h": 1.56632,
    "l": 1.56008,
    "c": 1.56561,
    "v": 6225
  },
  {
    "dt": "2022.02.24 18:00",
    "o": 1.56557,
    "h": 1.56631,
    "l": 1.56146,
    "c": 1.56334,
    "v": 6019
  },
  {
    "dt": "2022.02.24 19:00",
    "o": 1.56328,
    "h": 1.56529,
    "l": 1.56263,
    "c": 1.56387,
    "v": 5327
  },
  {
    "dt": "2022.02.24 20:00",
    "o": 1.56387,
    "h": 1.5654,
    "l": 1.56254,
    "c": 1.56445,
    "v": 5270
  },
  {
    "dt": "2022.02.24 21:00",
    "o": 1.56445,
    "h": 1.56547,
    "l": 1.56207,
    "c": 1.56282,
    "v": 5915
  },
  {
    "dt": "2022.02.24 22:00",
    "o": 1.5628,
    "h": 1.56482,
    "l": 1.56046,
    "c": 1.56114,
    "v": 5236
  },
  {
    "dt": "2022.02.24 23:00",
    "o": 1.56111,
    "h": 1.56289,
    "l": 1.56089,
    "c": 1.56234,
    "v": 2347
  },
  {
    "dt": "2022.02.25 00:00",
    "o": 1.56205,
    "h": 1.56304,
    "l": 1.56084,
    "c": 1.56285,
    "v": 622
  },
  {
    "dt": "2022.02.25 01:00",
    "o": 1.56285,
    "h": 1.56304,
    "l": 1.56153,
    "c": 1.56274,
    "v": 1800
  },
  {
    "dt": "2022.02.25 02:00",
    "o": 1.56277,
    "h": 1.56785,
    "l": 1.56089,
    "c": 1.56509,
    "v": 3267
  },
  {
    "dt": "2022.02.25 03:00",
    "o": 1.56501,
    "h": 1.56501,
    "l": 1.56181,
    "c": 1.56183,
    "v": 4938
  },
  {
    "dt": "2022.02.25 04:00",
    "o": 1.5619,
    "h": 1.56327,
    "l": 1.56146,
    "c": 1.56287,
    "v": 3803
  },
  {
    "dt": "2022.02.25 05:00",
    "o": 1.56291,
    "h": 1.56291,
    "l": 1.56102,
    "c": 1.56104,
    "v": 3527
  },
  {
    "dt": "2022.02.25 06:00",
    "o": 1.56106,
    "h": 1.56162,
    "l": 1.55846,
    "c": 1.55866,
    "v": 3351
  },
  {
    "dt": "2022.02.25 07:00",
    "o": 1.55865,
    "h": 1.55963,
    "l": 1.55765,
    "c": 1.55921,
    "v": 3447
  },
  {
    "dt": "2022.02.25 08:00",
    "o": 1.55923,
    "h": 1.55991,
    "l": 1.55581,
    "c": 1.55582,
    "v": 3024
  },
  {
    "dt": "2022.02.25 09:00",
    "o": 1.55598,
    "h": 1.55655,
    "l": 1.55468,
    "c": 1.55524,
    "v": 4740
  },
  {
    "dt": "2022.02.25 10:00",
    "o": 1.55532,
    "h": 1.55604,
    "l": 1.55338,
    "c": 1.55437,
    "v": 6016
  },
  {
    "dt": "2022.02.25 11:00",
    "o": 1.55436,
    "h": 1.5562,
    "l": 1.55145,
    "c": 1.55286,
    "v": 5371
  },
  {
    "dt": "2022.02.25 12:00",
    "o": 1.55286,
    "h": 1.55369,
    "l": 1.55135,
    "c": 1.55247,
    "v": 4768
  },
  {
    "dt": "2022.02.25 13:00",
    "o": 1.55248,
    "h": 1.5543,
    "l": 1.55216,
    "c": 1.55316,
    "v": 4938
  },
  {
    "dt": "2022.02.25 14:00",
    "o": 1.55313,
    "h": 1.55707,
    "l": 1.55269,
    "c": 1.55532,
    "v": 5211
  },
  {
    "dt": "2022.02.25 15:00",
    "o": 1.55535,
    "h": 1.55541,
    "l": 1.55269,
    "c": 1.55417,
    "v": 5795
  },
  {
    "dt": "2022.02.25 16:00",
    "o": 1.55418,
    "h": 1.55745,
    "l": 1.55197,
    "c": 1.55699,
    "v": 5765
  },
  {
    "dt": "2022.02.25 17:00",
    "o": 1.55709,
    "h": 1.55801,
    "l": 1.55441,
    "c": 1.55625,
    "v": 5947
  },
  {
    "dt": "2022.02.25 18:00",
    "o": 1.55618,
    "h": 1.56017,
    "l": 1.55545,
    "c": 1.55996,
    "v": 5171
  },
  {
    "dt": "2022.02.25 19:00",
    "o": 1.55997,
    "h": 1.56019,
    "l": 1.5585,
    "c": 1.55886,
    "v": 3721
  },
  {
    "dt": "2022.02.25 20:00",
    "o": 1.5588,
    "h": 1.55988,
    "l": 1.55804,
    "c": 1.55954,
    "v": 3489
  },
  {
    "dt": "2022.02.25 21:00",
    "o": 1.55955,
    "h": 1.55999,
    "l": 1.55713,
    "c": 1.55716,
    "v": 3578
  },
  {
    "dt": "2022.02.25 22:00",
    "o": 1.55729,
    "h": 1.55853,
    "l": 1.55672,
    "c": 1.55779,
    "v": 3899
  },
  {
    "dt": "2022.02.25 23:00",
    "o": 1.55778,
    "h": 1.55913,
    "l": 1.55737,
    "c": 1.55811,
    "v": 2206
  },
  {
    "dt": "2022.02.28 00:00",
    "o": 1.55165,
    "h": 1.55455,
    "l": 1.54836,
    "c": 1.55266,
    "v": 1995
  },
  {
    "dt": "2022.02.28 01:00",
    "o": 1.55357,
    "h": 1.55718,
    "l": 1.55193,
    "c": 1.55567,
    "v": 4608
  },
  {
    "dt": "2022.02.28 02:00",
    "o": 1.5557,
    "h": 1.55816,
    "l": 1.5557,
    "c": 1.5566,
    "v": 4321
  },
  {
    "dt": "2022.02.28 03:00",
    "o": 1.55665,
    "h": 1.55687,
    "l": 1.55334,
    "c": 1.55539,
    "v": 5356
  },
  {
    "dt": "2022.02.28 04:00",
    "o": 1.55539,
    "h": 1.55573,
    "l": 1.55397,
    "c": 1.55523,
    "v": 4454
  },
  {
    "dt": "2022.02.28 05:00",
    "o": 1.55522,
    "h": 1.55549,
    "l": 1.55347,
    "c": 1.55389,
    "v": 3758
  },
  {
    "dt": "2022.02.28 06:00",
    "o": 1.55392,
    "h": 1.55392,
    "l": 1.55192,
    "c": 1.55207,
    "v": 3555
  },
  {
    "dt": "2022.02.28 07:00",
    "o": 1.55207,
    "h": 1.5533,
    "l": 1.55151,
    "c": 1.55307,
    "v": 3407
  },
  {
    "dt": "2022.02.28 08:00",
    "o": 1.55308,
    "h": 1.55336,
    "l": 1.55199,
    "c": 1.55251,
    "v": 3875
  },
  {
    "dt": "2022.02.28 09:00",
    "o": 1.55253,
    "h": 1.55493,
    "l": 1.55087,
    "c": 1.55325,
    "v": 5665
  },
  {
    "dt": "2022.02.28 10:00",
    "o": 1.55326,
    "h": 1.55392,
    "l": 1.55112,
    "c": 1.55305,
    "v": 5649
  },
  {
    "dt": "2022.02.28 11:00",
    "o": 1.55308,
    "h": 1.55341,
    "l": 1.55091,
    "c": 1.55234,
    "v": 5370
  },
  {
    "dt": "2022.02.28 12:00",
    "o": 1.5523,
    "h": 1.55531,
    "l": 1.55118,
    "c": 1.55496,
    "v": 5104
  },
  {
    "dt": "2022.02.28 13:00",
    "o": 1.55498,
    "h": 1.55498,
    "l": 1.55109,
    "c": 1.55199,
    "v": 4920
  },
  {
    "dt": "2022.02.28 14:00",
    "o": 1.55199,
    "h": 1.55208,
    "l": 1.54959,
    "c": 1.54979,
    "v": 4822
  },
  {
    "dt": "2022.02.28 15:00",
    "o": 1.54982,
    "h": 1.5511,
    "l": 1.54855,
    "c": 1.55029,
    "v": 5413
  },
  {
    "dt": "2022.02.28 16:00",
    "o": 1.55037,
    "h": 1.55099,
    "l": 1.54856,
    "c": 1.55014,
    "v": 5392
  },
  {
    "dt": "2022.02.28 17:00",
    "o": 1.55013,
    "h": 1.5513,
    "l": 1.54642,
    "c": 1.54764,
    "v": 5969
  },
  {
    "dt": "2022.02.28 18:00",
    "o": 1.54761,
    "h": 1.54961,
    "l": 1.54532,
    "c": 1.54578,
    "v": 5722
  },
  {
    "dt": "2022.02.28 19:00",
    "o": 1.54577,
    "h": 1.54672,
    "l": 1.5442,
    "c": 1.54496,
    "v": 4926
  },
  {
    "dt": "2022.02.28 20:00",
    "o": 1.54497,
    "h": 1.54584,
    "l": 1.54419,
    "c": 1.54528,
    "v": 4215
  },
  {
    "dt": "2022.02.28 21:00",
    "o": 1.54528,
    "h": 1.54685,
    "l": 1.54442,
    "c": 1.54485,
    "v": 4774
  },
  {
    "dt": "2022.02.28 22:00",
    "o": 1.54489,
    "h": 1.54517,
    "l": 1.54349,
    "c": 1.54374,
    "v": 4729
  },
  {
    "dt": "2022.02.28 23:00",
    "o": 1.54374,
    "h": 1.54475,
    "l": 1.54324,
    "c": 1.54441,
    "v": 2337
  }
]