[
  {
    "dt": "2022.03.01 00:00",
    "o": 1.54423,
    "h": 1.54522,
    "l": 1.54403,
    "c": 1.54516,
    "v": 442
  },
  {
    "dt": "2022.03.01 01:00",
    "o": 1.54497,
    "h": 1.54501,
    "l": 1.54342,
    "c": 1.54481,
    "v": 2102
  },
  {
    "dt": "2022.03.01 02:00",
    "o": 1.54481,
    "h": 1.54565,
    "l": 1.54375,
    "c": 1.54468,
    "v": 2612
  },
  {
    "dt": "2022.03.01 03:00",
    "o": 1.5447,
    "h": 1.54507,
    "l": 1.54239,
    "c": 1.54277,
    "v": 2925
  },
  {
    "dt": "2022.03.01 04:00",
    "o": 1.54277,
    "h": 1.54296,
    "l": 1.54049,
    "c": 1.54119,
    "v": 2783
  },
  {
    "dt": "2022.03.01 05:00",
    "o": 1.54119,
    "h": 1.54481,
    "l": 1.54119,
    "c": 1.54318,
    "v": 2853
  },
  {
    "dt": "2022.03.01 06:00",
    "o": 1.54317,
    "h": 1.54331,
    "l": 1.5419,
    "c": 1.54202,
    "v": 2253
  },
  {
    "dt": "2022.03.01 07:00",
    "o": 1.54202,
    "h": 1.54296,
    "l": 1.54084,
    "c": 1.54112,
    "v": 2507
  },
  {
    "dt": "2022.03.01 08:00",
    "o": 1.54112,
    "h": 1.54152,
    "l": 1.53952,
    "c": 1.53952,
    "v": 2806
  },
  {
    "dt": "2022.03.01 09:00",
    "o": 1.53956,
    "h": 1.54213,
    "l": 1.53836,
    "c": 1.54151,
    "v": 4504
  },
  {
    "dt": "2022.03.01 10:00",
    "o": 1.54146,
    "h": 1.54231,
    "l": 1.53975,
    "c": 1.54097,
    "v": 5333
  },
  {
    "dt": "2022.03.01 11:00",
    "o": 1.54098,
    "h": 1.54259,
    "l": 1.5383,
    "c": 1.53907,
    "v": 5280
  },
  {
    "dt": "2022.03.01 12:00",
    "o": 1.53912,
    "h": 1.53954,
    "l": 1.53692,
    "c": 1.53725,
    "v": 5427
  },
  {
    "dt": "2022.03.01 13:00",
    "o": 1.53723,
    "h": 1.53781,
    "l": 1.53539,
    "c": 1.5364,
    "v": 5152
  },
  {
    "dt": "2022.03.01 14:00",
    "o": 1.53641,
    "h": 1.53726,
    "l": 1.53556,
    "c": 1.53596,
    "v": 4994
  },
  {
    "dt": "2022.03.01 15:00",
    "o": 1.53603,
    "h": 1.53727,
    "l": 1.53371,
    "c": 1.53434,
    "v": 5542
  },
  {
    "dt": "2022.03.01 16:00",
    "o": 1.53436,
    "h": 1.53469,
    "l": 1.53197,
    "c": 1.53324,
    "v": 5548
  },
  {
    "dt": "2022.03.01 17:00",
    "o": 1.53333,
    "h": 1.53499,
    "l": 1.53222,
    "c": 1.53429,
    "v": 6107
  },
  {
    "dt": "2022.03.01 18:00",
    "o": 1.53423,
    "h": 1.53488,
    "l": 1.53019,
    "c": 1.5321,
    "v": 5711
  },
  {
    "dt": "2022.03.01 19:00",
    "o": 1.53214,
    "h": 1.53333,
    "l": 1.53072,
    "c": 1.53163,
    "v": 5503
  },
  {
    "dt": "2022.03.01 20:00",
    "o": 1.53162,
    "h": 1.53396,
    "l": 1.53119,
    "c": 1.53329,
    "v": 5143
  },
  {
    "dt": "2022.03.01 21:00",
    "o": 1.53328,
    "h": 1.53527,
    "l": 1.53319,
    "c": 1.53451,
    "v": 4927
  },
  {
    "dt": "2022.03.01 22:00",
    "o": 1.53454,
    "h": 1.53597,
    "l": 1.53315,
    "c": 1.53454,
    "v": 4816
  },
  {
    "dt": "2022.03.01 23:00",
    "o": 1.53453,
    "h": 1.53492,
    "l": 1.53241,
    "c": 1.53333,
    "v": 2767
  },
  {
    "dt": "2022.03.02 00:00",
    "o": 1.53384,
    "h": 1.53384,
    "l": 1.53257,
    "c": 1.53323,
    "v": 548
  },
  {
    "dt": "2022.03.02 01:00",
    "o": 1.53329,
    "h": 1.53412,
    "l": 1.53282,
    "c": 1.53298,
    "v": 2112
  },
  {
    "dt": "2022.03.02 02:00",
    "o": 1.53285,
    "h": 1.53313,
    "l": 1.53126,
    "c": 1.53162,
    "v": 3076
  },
  {
    "dt": "2022.03.02 03:00",
    "o": 1.53162,
    "h": 1.53219,
    "l": 1.52937,
    "c": 1.52965,
    "v": 3384
  },
  {
    "dt": "2022.03.02 04:00",
    "o": 1.52966,
    "h": 1.53002,
    "l": 1.5281,
    "c": 1.52856,
    "v": 3148
  },
  {
    "dt": "2022.03.02 05:00",
    "o": 1.52857,
    "h": 1.52974,
    "l": 1.52759,
    "c": 1.52909,
    "v": 2185
  },
  {
    "dt": "2022.03.02 06:00",
    "o": 1.52907,
    "h": 1.53022,
    "l": 1.52875,
    "c": 1.5302,
    "v": 2369
  },
  {
    "dt": "2022.03.02 07:00",
    "o": 1.53021,
    "h": 1.53082,
    "l": 1.52851,
    "c": 1.52902,
    "v": 2820
  },
  {
    "dt": "2022.03.02 08:00",
    "o": 1.52898,
    "h": 1.53064,
    "l": 1.52865,
    "c": 1.52974,
    "v": 3595
  },
  {
    "dt": "2022.03.02 09:00",
    "o": 1.52977,
    "h": 1.53155,
    "l": 1.52867,
    "c": 1.52936,
    "v": 5414
  },
  {
    "dt": "2022.03.02 10:00",
    "o": 1.52929,
    "h": 1.53088,
    "l": 1.52734,
    "c": 1.52921,
    "v": 5926
  },
  {
    "dt": "2022.03.02 11:00",
    "o": 1.52917,
    "h": 1.52969,
    "l": 1.52509,
    "c": 1.52683,
    "v": 5586
  },
  {
    "dt": "2022.03.02 12:00",
    "o": 1.52682,
    "h": 1.5292,
    "l": 1.52638,
    "c": 1.52823,
    "v": 5096
  },
  {
    "dt": "2022.03.02 13:00",
    "o": 1.52817,
    "h": 1.52869,
    "l": 1.52666,
    "c": 1.52768,
    "v": 4889
  },
  {
    "dt": "2022.03.02 14:00",
    "o": 1.5276,
    "h": 1.52958,
    "l": 1.52654,
    "c": 1.52813,
    "v": 5126
  },
  {
    "dt": "2022.03.02 15:00",
    "o": 1.52812,
    "h": 1.52812,
    "l": 1.52523,
    "c": 1.52677,
    "v": 5456
  },
  {
    "dt": "2022.03.02 16:00",
    "o": 1.52686,
    "h": 1.52686,
    "l": 1.52357,
    "c": 1.52552,
    "v": 5641
  },
  {
    "dt": "2022.03.02 17:00",
    "o": 1.52552,
    "h": 1.52745,
    "l": 1.52367,
    "c": 1.52609,
    "v": 6223
  },
  {
    "dt": "2022.03.02 18:00",
    "o": 1.52607,
    "h": 1.52854,
    "l": 1.52448,
    "c": 1.52452,
    "v": 6205
  },
  {
    "dt": "2022.03.02 19:00",
    "o": 1.52452,
    "h": 1.52462,
    "l": 1.52252,
    "c": 1.5242,
    "v": 5078
  },
  {
    "dt": "2022.03.02 20:00",
    "o": 1.52419,
    "h": 1.52468,
    "l": 1.52299,
    "c": 1.52396,
    "v": 4210
  },
  {
    "dt": "2022.03.02 21:00",
    "o": 1.52394,
    "h": 1.52479,
    "l": 1.5234,
    "c": 1.52445,
    "v": 4211
  },
  {
    "dt": "2022.03.02 22:00",
    "o": 1.52445,
    "h": 1.525,
    "l": 1.52309,
    "c": 1.52323,
    "v": 4457
  },
  {
    "dt": "2022.03.02 23:00",
    "o": 1.52322,
    "h": 1.52488,
    "l": 1.52293,
    "c": 1.52368,
    "v": 2369
  },
  {
    "dt": "2022.03.03 00:00",
    "o": 1.52336,
    "h": 1.52446,
    "l": 1.52264,
    "c": 1.52424,
    "v": 1072
  },
  {
    "dt": "2022.03.03 01:00",
    "o": 1.52443,
    "h": 1.52443,
    "l": 1.52346,
    "c": 1.52352,
    "v": 2654
  },
  {
    "dt": "2022.03.03 02:00",
    "o": 1.52355,
    "h": 1.52388,
    "l": 1.52213,
    "c": 1.52325,
    "v": 2775
  },
  {
    "dt": "2022.03.03 03:00",
    "o": 1.52338,
    "h": 1.52367,
    "l": 1.52261,
    "c": 1.52302,
    "v": 3640
  },
  {
    "dt": "2022.03.03 04:00",
    "o": 1.52302,
    "h": 1.52439,
    "l": 1.52261,
    "c": 1.52282,
    "v": 3266
  },
  {
    "dt": "2022.03.03 05:00",
    "o": 1.52278,
    "h": 1.52328,
    "l": 1.52212,
    "c": 1.5224,
    "v": 2556
  },
  {
    "dt": "2022.03.03 06:00",
    "o": 1.52244,
    "h": 1.52265,
    "l": 1.51959,
    "c": 1.52004,
    "v": 2444
  },
  {
    "dt": "2022.03.03 07:00",
    "o": 1.52006,
    "h": 1.52057,
    "l": 1.51934,
    "c": 1.51947,
    "v": 2531
  },
  {
    "dt": "2022.03.03 08:00",
    "o": 1.51946,
    "h": 1.51956,
    "l": 1.5163,
    "c": 1.51673,
    "v": 3242
  },
  {
    "dt": "2022.03.03 09:00",
    "o": 1.51673,
    "h": 1.51744,
    "l": 1.51547,
    "c": 1.51648,
    "v": 4177
  },
  {
    "dt": "2022.03.03 10:00",
    "o": 1.51647,
    "h": 1.51969,
    "l": 1.51591,
    "c": 1.51678,
    "v": 5142
  },
  {
    "dt": "2022.03.03 11:00",
    "o": 1.51682,
    "h": 1.51862,
    "l": 1.51637,
    "c": 1.51771,
    "v": 4744
  },
  {
    "dt": "2022.03.03 12:00",
    "o": 1.5177,
    "h": 1.51866,
    "l": 1.51649,
    "c": 1.51758,
    "v": 3946
  },
  {
    "dt": "2022.03.03 13:00",
    "o": 1.51756,
    "h": 1.51893,
    "l": 1.51663,
    "c": 1.51854,
    "v": 4309
  },
  {
    "dt": "2022.03.03 14:00",
    "o": 1.51853,
    "h": 1.51858,
    "l": 1.51445,
    "c": 1.51489,
    "v": 4372
  },
  {
    "dt": "2022.03.03 15:00",
    "o": 1.51493,
    "h": 1.51497,
    "l": 1.51232,
    "c": 1.51411,
    "v": 5189
  },
  {
    "dt": "2022.03.03 16:00",
    "o": 1.51402,
    "h": 1.51501,
    "l": 1.5086,
    "c": 1.50891,
    "v": 5656
  },
  {
    "dt": "2022.03.03 17:00",
    "o": 1.5089,
    "h": 1.51135,
    "l": 1.50737,
    "c": 1.51117,
    "v": 5746
  },
  {
    "dt": "2022.03.03 18:00",
    "o": 1.51113,
    "h": 1.51186,
    "l": 1.50877,
    "c": 1.51107,
    "v": 5505
  },
  {
    "dt": "2022.03.03 19:00",
    "o": 1.51105,
    "h": 1.51111,
    "l": 1.50867,
    "c": 1.5099,
    "v": 5390
  },
  {
    "dt": "2022.03.03 20:00",
    "o": 1.50993,
    "h": 1.51068,
    "l": 1.5086,
    "c": 1.50883,
    "v": 4565
  },
  {
    "dt": "2022.03.03 21:00",
    "o": 1.50884,
    "h": 1.51034,
    "l": 1.50872,
    "c": 1.50921,
    "v": 3911
  },
  {
    "dt": "2022.03.03 22:00",
    "o": 1.50923,
    "h": 1.51107,
    "l": 1.50923,
    "c": 1.51014,
    "v": 4693
  },
  {
    "dt": "2022.03.03 23:00",
    "o": 1.51006,
    "h": 1.51045,
    "l": 1.50963,
    "c": 1.50991,
    "v": 2157
  },
  {
    "dt": "2022.03.04 00:00",
    "o": 1.50938,
    "h": 1.51037,
    "l": 1.50919,
    "c": 1.51011,
    "v": 318
  },
  {
    "dt": "2022.03.04 01:00",
    "o": 1.51023,
    "h": 1.51041,
    "l": 1.50784,
    "c": 1.50827,
    "v": 1674
  },
  {
    "dt": "2022.03.04 02:00",
    "o": 1.50827,
    "h": 1.51011,
    "l": 1.50662,
    "c": 1.50716,
    "v": 4857
  },
  {
    "dt": "2022.03.04 03:00",
    "o": 1.50712,
    "h": 1.50826,
    "l": 1.50542,
    "c": 1.50755,
    "v": 5657
  },
  {
    "dt": "2022.03.04 04:00",
    "o": 1.50756,
    "h": 1.50772,
    "l": 1.50385,
    "c": 1.50443,
    "v": 4289
  },
  {
    "dt": "2022.03.04 05:00",
    "o": 1.50441,
    "h": 1.50448,
    "l": 1.50247,
    "c": 1.50278,
    "v": 3695
  },
  {
    "dt": "2022.03.04 06:00",
    "o": 1.50274,
    "h": 1.50285,
    "l": 1.49929,
    "c": 1.49966,
    "v": 3086
  },
  {
    "dt": "2022.03.04 07:00",
    "o": 1.49966,
    "h": 1.50007,
    "l": 1.49897,
    "c": 1.49931,
    "v": 2842
  },
  {
    "dt": "2022.03.04 08:00",
    "o": 1.49931,
    "h": 1.50028,
    "l": 1.49874,
    "c": 1.4993,
    "v": 2812
  },
  {
    "dt": "2022.03.04 09:00",
    "o": 1.49923,
    "h": 1.49944,
    "l": 1.49716,
    "c": 1.49719,
    "v": 4298
  },
  {
    "dt": "2022.03.04 10:00",
    "o": 1.49718,
    "h": 1.49778,
    "l": 1.49282,
    "c": 1.49377,
    "v": 5271
  },
  {
    "dt": "2022.03.04 11:00",
    "o": 1.49378,
    "h": 1.49884,
    "l": 1.49374,
    "c": 1.49819,
    "v": 4707
  },
  {
    "dt": "2022.03.04 12:00",
    "o": 1.49818,
    "h": 1.49847,
    "l": 1.49389,
    "c": 1.49429,
    "v": 4670
  },
  {
    "dt": "2022.03.04 13:00",
    "o": 1.49429,
    "h": 1.49467,
    "l": 1.4904,
    "c": 1.49047,
    "v": 4665
  },
  {
    "dt": "2022.03.04 14:00",
    "o": 1.49047,
    "h": 1.49158,
    "l": 1.48931,
    "c": 1.48964,
    "v": 4814
  },
  {
    "dt": "2022.03.04 15:00",
    "o": 1.48953,
    "h": 1.49004,
    "l": 1.48524,
    "c": 1.48612,
    "v": 5826
  },
  {
    "dt": "2022.03.04 16:00",
    "o": 1.48606,
    "h": 1.49044,
    "l": 1.48563,
    "c": 1.48674,
    "v": 5958
  },
  {
    "dt": "2022.03.04 17:00",
    "o": 1.48679,
    "h": 1.48749,
    "l": 1.48374,
    "c": 1.48566,
    "v": 6008
  },
  {
    "dt": "2022.03.04 18:00",
    "o": 1.48567,
    "h": 1.48721,
    "l": 1.48167,
    "c": 1.48167,
    "v": 5522
  },
  {
    "dt": "2022.03.04 19:00",
    "o": 1.48166,
    "h": 1.48265,
    "l": 1.48071,
    "c": 1.48157,
    "v": 4903
  },
  {
    "dt": "2022.03.04 20:00",
    "o": 1.48161,
    "h": 1.48231,
    "l": 1.48071,
    "c": 1.4823,
    "v": 4029
  },
  {
    "dt": "2022.03.04 21:00",
    "o": 1.48237,
    "h": 1.48301,
    "l": 1.4801,
    "c": 1.48043,
    "v": 3570
  },
  {
    "dt": "2022.03.04 22:00",
    "o": 1.4804,
    "h": 1.4828,
    "l": 1.4804,
    "c": 1.4827,
    "v": 4137
  },
  {
    "dt": "2022.03.04 23:00",
    "o": 1.4827,
    "h": 1.48337,
    "l": 1.48113,
    "c": 1.48141,
    "v": 2079
  },
  {
    "dt": "2022.03.07 00:00",
    "o": 1.48142,
    "h": 1.48207,
    "l": 1.48084,
    "c": 1.48169,
    "v": 457
  },
  {
    "dt": "2022.03.07 01:00",
    "o": 1.47962,
    "h": 1.48262,
    "l": 1.47012,
    "c": 1.47043,
    "v": 4117
  },
  {
    "dt": "2022.03.07 02:00",
    "o": 1.47038,
    "h": 1.4724,
    "l": 1.46891,
    "c": 1.46891,
    "v": 3526
  },
  {
    "dt": "2022.03.07 03:00",
    "o": 1.46916,
    "h": 1.46922,
    "l": 1.45621,
    "c": 1.45983,
    "v": 5453
  },
  {
    "dt": "2022.03.07 04:00",
    "o": 1.45983,
    "h": 1.46413,
    "l": 1.45955,
    "c": 1.46324,
    "v": 4343
  },
  {
    "dt": "2022.03.07 05:00",
    "o": 1.46321,
    "h": 1.46917,
    "l": 1.4631,
    "c": 1.46652,
    "v": 4013
  },
  {
    "dt": "2022.03.07 06:00",
    "o": 1.46652,
    "h": 1.46674,
    "l": 1.46464,
    "c": 1.46628,
    "v": 2929
  },
  {
    "dt": "2022.03.07 07:00",
    "o": 1.46624,
    "h": 1.46699,
    "l": 1.46508,
    "c": 1.46651,
    "v": 3655
  },
  {
    "dt": "2022.03.07 08:00",
    "o": 1.46661,
    "h": 1.46818,
    "l": 1.46382,
    "c": 1.46382,
    "v": 3837
  },
  {
    "dt": "2022.03.07 09:00",
    "o": 1.46378,
    "h": 1.46831,
    "l": 1.46372,
    "c": 1.46696,
    "v": 5498
  },
  {
    "dt": "2022.03.07 10:00",
    "o": 1.46705,
    "h": 1.46838,
    "l": 1.46545,
    "c": 1.46608,
    "v": 6252
  },
  {
    "dt": "2022.03.07 11:00",
    "o": 1.46608,
    "h": 1.46799,
    "l": 1.46552,
    "c": 1.46648,
    "v": 5651
  },
  {
    "dt": "2022.03.07 12:00",
    "o": 1.46647,
    "h": 1.4668,
    "l": 1.46116,
    "c": 1.46328,
    "v": 5375
  },
  {
    "dt": "2022.03.07 13:00",
    "o": 1.46327,
    "h": 1.46602,
    "l": 1.4615,
    "c": 1.4656,
    "v": 5215
  },
  {
    "dt": "2022.03.07 14:00",
    "o": 1.46559,
    "h": 1.47867,
    "l": 1.46528,
    "c": 1.47265,
    "v": 6219
  },
  {
    "dt": "2022.03.07 15:00",
    "o": 1.47266,
    "h": 1.4782,
    "l": 1.47261,
    "c": 1.47771,
    "v": 6198
  },
  {
    "dt": "2022.03.07 16:00",
    "o": 1.47762,
    "h": 1.48442,
    "l": 1.47747,
    "c": 1.4816,
    "v": 6251
  },
  {
    "dt": "2022.03.07 17:00",
    "o": 1.48161,
    "h": 1.48444,
    "l": 1.47783,
    "c": 1.48392,
    "v": 6289
  },
  {
    "dt": "2022.03.07 18:00",
    "o": 1.48379,
    "h": 1.48424,
    "l": 1.48027,
    "c": 1.48325,
    "v": 5769
  },
  {
    "dt": "2022.03.07 19:00",
    "o": 1.48334,
    "h": 1.48774,
    "l": 1.48312,
    "c": 1.48604,
    "v": 5447
  },
  {
    "dt": "2022.03.07 20:00",
    "o": 1.48605,
    "h": 1.48856,
    "l": 1.48486,
    "c": 1.48553,
    "v": 5429
  },
  {
    "dt": "2022.03.07 21:00",
    "o": 1.48549,
    "h": 1.48748,
    "l": 1.48038,
    "c": 1.48072,
    "v": 4916
  },
  {
    "dt": "2022.03.07 22:00",
    "o": 1.4808,
    "h": 1.48563,
    "l": 1.48041,
    "c": 1.48534,
    "v": 4870
  },
  {
    "dt": "2022.03.07 23:00",
    "o": 1.48519,
    "h": 1.4852,
    "l": 1.48303,
    "c": 1.48351,
    "v": 2414
  },
  {
    "dt": "2022.03.08 00:00",
    "o": 1.48346,
    "h": 1.48398,
    "l": 1.48241,
    "c": 1.48346,
    "v": 416
  },
  {
    "dt": "2022.03.08 01:00",
    "o": 1.48322,
    "h": 1.4849,
    "l": 1.48201,
    "c": 1.48243,
    "v": 1926
  },
  {
    "dt": "2022.03.08 02:00",
    "o": 1.48243,
    "h": 1.48286,
    "l": 1.48045,
    "c": 1.48099,
    "v": 2641
  },
  {
    "dt": "2022.03.08 03:00",
    "o": 1.48094,
    "h": 1.48229,
    "l": 1.47898,
    "c": 1.48195,
    "v": 4048
  },
  {
    "dt": "2022.03.08 04:00",
    "o": 1.48198,
    "h": 1.48592,
    "l": 1.48093,
    "c": 1.48513,
    "v": 3698
  },
  {
    "dt": "2022.03.08 05:00",
    "o": 1.48513,
    "h": 1.4859,
    "l": 1.48262,
    "c": 1.48304,
    "v": 3335
  },
  {
    "dt": "2022.03.08 06:00",
    "o": 1.48301,
    "h": 1.48682,
    "l": 1.48278,
    "c": 1.48678,
    "v": 2972
  },
  {
    "dt": "2022.03.08 07:00",
    "o": 1.4868,
    "h": 1.4922,
    "l": 1.48674,
    "c": 1.49073,
    "v": 4041
  },
  {
    "dt": "2022.03.08 08:00",
    "o": 1.49069,
    "h": 1.49202,
    "l": 1.48939,
    "c": 1.4918,
    "v": 4255
  },
  {
    "dt": "2022.03.08 09:00",
    "o": 1.49172,
    "h": 1.49302,
    "l": 1.49043,
    "c": 1.49263,
    "v": 5436
  },
  {
    "dt": "2022.03.08 10:00",
    "o": 1.49259,
    "h": 1.49934,
    "l": 1.49143,
    "c": 1.49786,
    "v": 6440
  },
  {
    "dt": "2022.03.08 11:00",
    "o": 1.49785,
    "h": 1.49813,
    "l": 1.49189,
    "c": 1.49288,
    "v": 5664
  },
  {
    "dt": "2022.03.08 12:00",
    "o": 1.49288,
    "h": 1.49399,
    "l": 1.48925,
    "c": 1.49354,
    "v": 5228
  },
  {
    "dt": "2022.03.08 13:00",
    "o": 1.49362,
    "h": 1.49474,
    "l": 1.49175,
    "c": 1.49248,
    "v": 4814
  },
  {
    "dt": "2022.03.08 14:00",
    "o": 1.49248,
    "h": 1.4983,
    "l": 1.49245,
    "c": 1.4982,
    "v": 5445
  },
  {
    "dt": "2022.03.08 15:00",
    "o": 1.49818,
    "h": 1.49889,
    "l": 1.49432,
    "c": 1.49865,
    "v": 5712
  },
  {
    "dt": "2022.03.08 16:00",
    "o": 1.49865,
    "h": 1.49959,
    "l": 1.49613,
    "c": 1.49635,
    "v": 5960
  },
  {
    "dt": "2022.03.08 17:00",
    "o": 1.49638,
    "h": 1.49782,
    "l": 1.49154,
    "c": 1.49664,
    "v": 6371
  },
  {
    "dt": "2022.03.08 18:00",
    "o": 1.49661,
    "h": 1.50152,
    "l": 1.49661,
    "c": 1.49815,
    "v": 5920
  },
  {
    "dt": "2022.03.08 19:00",
    "o": 1.49815,
    "h": 1.50486,
    "l": 1.49682,
    "c": 1.50323,
    "v": 6274
  },
  {
    "dt": "2022.03.08 20:00",
    "o": 1.50315,
    "h": 1.50495,
    "l": 1.49909,
    "c": 1.50133,
    "v": 6127
  },
  {
    "dt": "2022.03.08 21:00",
    "o": 1.50117,
    "h": 1.5014,
    "l": 1.49882,
    "c": 1.49882,
    "v": 5559
  },
  {
    "dt": "2022.03.08 22:00",
    "o": 1.49878,
    "h": 1.50043,
    "l": 1.49783,
    "c": 1.50007,
    "v": 4782
  },
  {
    "dt": "2022.03.08 23:00",
    "o": 1.50009,
    "h": 1.50058,
    "l": 1.49836,
    "c": 1.49857,
    "v": 2237
  },
  {
    "dt": "2022.03.09 00:00",
    "o": 1.49952,
    "h": 1.5,
    "l": 1.4973,
    "c": 1.49991,
    "v": 626
  },
  {
    "dt": "2022.03.09 01:00",
    "o": 1.49957,
    "h": 1.49988,
    "l": 1.49721,
    "c": 1.49929,
    "v": 1970
  },
  {
    "dt": "2022.03.09 02:00",
    "o": 1.49932,
    "h": 1.49932,
    "l": 1.49742,
    "c": 1.49912,
    "v": 2726
  },
  {
    "dt": "2022.03.09 03:00",
    "o": 1.49921,
    "h": 1.50047,
    "l": 1.49878,
    "c": 1.49969,
    "v": 3547
  },
  {
    "dt": "2022.03.09 04:00",
    "o": 1.49972,
    "h": 1.50181,
    "l": 1.4994,
    "c": 1.50048,
    "v": 3256
  },
  {
    "dt": "2022.03.09 05:00",
    "o": 1.50039,
    "h": 1.50142,
    "l": 1.49926,
    "c": 1.49968,
    "v": 2847
  },
  {
    "dt": "2022.03.09 06:00",
    "o": 1.49968,
    "h": 1.49971,
    "l": 1.49805,
    "c": 1.49849,
    "v": 2449
  },
  {
    "dt": "2022.03.09 07:00",
    "o": 1.49851,
    "h": 1.50147,
    "l": 1.49851,
    "c": 1.5002,
    "v": 2853
  },
  {
    "dt": "2022.03.09 08:00",
    "o": 1.5002,
    "h": 1.5002,
    "l": 1.498,
    "c": 1.49886,
    "v": 3245
  },
  {
    "dt": "2022.03.09 09:00",
    "o": 1.49886,
    "h": 1.49931,
    "l": 1.49527,
    "c": 1.49617,
    "v": 4824
  },
  {
    "dt": "2022.03.09 10:00",
    "o": 1.49619,
    "h": 1.49835,
    "l": 1.4951,
    "c": 1.49775,
    "v": 5523
  },
  {
    "dt": "2022.03.09 11:00",
    "o": 1.49767,
    "h": 1.49897,
    "l": 1.49544,
    "c": 1.49764,
    "v": 5274
  },
  {
    "dt": "2022.03.09 12:00",
    "o": 1.49767,
    "h": 1.49992,
    "l": 1.49622,
    "c": 1.49628,
    "v": 4967
  },
  {
    "dt": "2022.03.09 13:00",
    "o": 1.49625,
    "h": 1.49808,
    "l": 1.49354,
    "c": 1.49761,
    "v": 5021
  },
  {
    "dt": "2022.03.09 14:00",
    "o": 1.4976,
    "h": 1.49974,
    "l": 1.49628,
    "c": 1.49857,
    "v": 4816
  },
  {
    "dt": "2022.03.09 15:00",
    "o": 1.49851,
    "h": 1.50313,
    "l": 1.49756,
    "c": 1.50298,
    "v": 5088
  },
  {
    "dt": "2022.03.09 16:00",
    "o": 1.50298,
    "h": 1.50772,
    "l": 1.50272,
    "c": 1.5053,
    "v": 6119
  },
  {
    "dt": "2022.03.09 17:00",
    "o": 1.50534,
    "h": 1.50943,
    "l": 1.50278,
    "c": 1.50877,
    "v": 5870
  },
  {
    "dt": "2022.03.09 18:00",
    "o": 1.50878,
    "h": 1.51373,
    "l": 1.50869,
    "c": 1.51154,
    "v": 5703
  },
  {
    "dt": "2022.03.09 19:00",
    "o": 1.51149,
    "h": 1.51581,
    "l": 1.51059,
    "c": 1.51501,
    "v": 5035
  },
  {
    "dt": "2022.03.09 20:00",
    "o": 1.51502,
    "h": 1.51523,
    "l": 1.51161,
    "c": 1.51218,
    "v": 4340
  },
  {
    "dt": "2022.03.09 21:00",
    "o": 1.5122,
    "h": 1.51427,
    "l": 1.5115,
    "c": 1.51336,
    "v": 3825
  },
  {
    "dt": "2022.03.09 22:00",
    "o": 1.51334,
    "h": 1.51349,
    "l": 1.51027,
    "c": 1.51098,
    "v": 4180
  },
  {
    "dt": "2022.03.09 23:00",
    "o": 1.51097,
    "h": 1.51289,
    "l": 1.51055,
    "c": 1.51229,
    "v": 2510
  },
  {
    "dt": "2022.03.10 00:00",
    "o": 1.51168,
    "h": 1.51274,
    "l": 1.51155,
    "c": 1.51225,
    "v": 822
  },
  {
    "dt": "2022.03.10 01:00",
    "o": 1.51242,
    "h": 1.5141,
    "l": 1.51208,
    "c": 1.51325,
    "v": 1929
  },
  {
    "dt": "2022.03.10 02:00",
    "o": 1.51328,
    "h": 1.51331,
    "l": 1.51086,
    "c": 1.51318,
    "v": 2486
  },
  {
    "dt": "2022.03.10 03:00",
    "o": 1.51312,
    "h": 1.51519,
    "l": 1.51203,
    "c": 1.51475,
    "v": 3610
  },
  {
    "dt": "2022.03.10 04:00",
    "o": 1.51473,
    "h": 1.51509,
    "l": 1.51058,
    "c": 1.51077,
    "v": 2730
  },
  {
    "dt": "2022.03.10 05:00",
    "o": 1.51076,
    "h": 1.51126,
    "l": 1.50878,
    "c": 1.51,
    "v": 2597
  },
  {
    "dt": "2022.03.10 06:00",
    "o": 1.51004,
    "h": 1.51064,
    "l": 1.50953,
    "c": 1.50973,
    "v": 2236
  },
  {
    "dt": "2022.03.10 07:00",
    "o": 1.50971,
    "h": 1.51227,
    "l": 1.50957,
    "c": 1.51035,
    "v": 2230
  },
  {
    "dt": "2022.03.10 08:00",
    "o": 1.51031,
    "h": 1.51081,
    "l": 1.50693,
    "c": 1.50746,
    "v": 2925
  },
  {
    "dt": "2022.03.10 09:00",
    "o": 1.50747,
    "h": 1.5084,
    "l": 1.50594,
    "c": 1.5063,
    "v": 4450
  },
  {
    "dt": "2022.03.10 10:00",
    "o": 1.50622,
    "h": 1.5066,
    "l": 1.50358,
    "c": 1.50435,
    "v": 5661
  },
  {
    "dt": "2022.03.10 11:00",
    "o": 1.50437,
    "h": 1.50901,
    "l": 1.50404,
    "c": 1.50468,
    "v": 5583
  },
  {
    "dt": "2022.03.10 12:00",
    "o": 1.50466,
    "h": 1.50546,
    "l": 1.50306,
    "c": 1.50409,
    "v": 5276
  },
  {
    "dt": "2022.03.10 13:00",
    "o": 1.50414,
    "h": 1.5075,
    "l": 1.50399,
    "c": 1.50577,
    "v": 4856
  },
  {
    "dt": "2022.03.10 14:00",
    "o": 1.50575,
    "h": 1.51463,
    "l": 1.5027,
    "c": 1.51295,
    "v": 5107
  },
  {
    "dt": "2022.03.10 15:00",
    "o": 1.51303,
    "h": 1.51325,
    "l": 1.50482,
    "c": 1.50573,
    "v": 6135
  },
  {
    "dt": "2022.03.10 16:00",
    "o": 1.5058,
    "h": 1.50712,
    "l": 1.49838,
    "c": 1.49973,
    "v": 6000
  },
  {
    "dt": "2022.03.10 17:00",
    "o": 1.4996,
    "h": 1.5002,
    "l": 1.49346,
    "c": 1.49686,
    "v": 5948
  },
  {
    "dt": "2022.03.10 18:00",
    "o": 1.49695,
    "h": 1.49777,
    "l": 1.49428,
    "c": 1.4951,
    "v": 5111
  },
  {
    "dt": "2022.03.10 19:00",
    "o": 1.49507,
    "h": 1.49584,
    "l": 1.49295,
    "c": 1.49352,
    "v": 4463
  },
  {
    "dt": "2022.03.10 20:00",
    "o": 1.49357,
    "h": 1.4943,
    "l": 1.4924,
    "c": 1.49245,
    "v": 3749
  },
  {
    "dt": "2022.03.10 21:00",
    "o": 1.4924,
    "h": 1.49294,
    "l": 1.49106,
    "c": 1.49135,
    "v": 3707
  },
  {
    "dt": "2022.03.10 22:00",
    "o": 1.4913,
    "h": 1.49244,
    "l": 1.49127,
    "c": 1.49175,
    "v": 3947
  },
  {
    "dt": "2022.03.10 23:00",
    "o": 1.49173,
    "h": 1.49336,
    "l": 1.49173,
    "c": 1.49303,
    "v": 1934
  },
  {
    "dt": "2022.03.11 00:00",
    "o": 1.49254,
    "h": 1.49432,
    "l": 1.49237,
    "c": 1.49371,
    "v": 428
  },
  {
    "dt": "2022.03.11 01:00",
    "o": 1.49354,
    "h": 1.49523,
    "l": 1.49286,
    "c": 1.49509,
    "v": 1975
  },
  {
    "dt": "2022.03.11 02:00",
    "o": 1.49489,
    "h": 1.49731,
    "l": 1.49473,
    "c": 1.49612,
    "v": 2571
  },
  {
    "dt": "2022.03.11 03:00",
    "o": 1.4961,
    "h": 1.49815,
    "l": 1.49551,
    "c": 1.49674,
    "v": 3477
  },
  {
    "dt": "2022.03.11 04:00",
    "o": 1.49678,
    "h": 1.49899,
    "l": 1.49673,
    "c": 1.49824,
    "v": 2890
  },
  {
    "dt": "2022.03.11 05:00",
    "o": 1.49823,
    "h": 1.49882,
    "l": 1.4976,
    "c": 1.49814,
    "v": 2436
  },
  {
    "dt": "2022.03.11 06:00",
    "o": 1.49814,
    "h": 1.50055,
    "l": 1.49761,
    "c": 1.49959,
    "v": 2204
  },
  {
    "dt": "2022.03.11 07:00",
    "o": 1.49959,
    "h": 1.5004,
    "l": 1.49833,
    "c": 1.49871,
    "v": 2932
  },
  {
    "dt": "2022.03.11 08:00",
    "o": 1.4987,
    "h": 1.49944,
    "l": 1.49596,
    "c": 1.49725,
    "v": 3435
  },
  {
    "dt": "2022.03.11 09:00",
    "o": 1.49725,
    "h": 1.49771,
    "l": 1.49487,
    "c": 1.49506,
    "v": 4724
  },
  {
    "dt": "2022.03.11 10:00",
    "o": 1.49514,
    "h": 1.49852,
    "l": 1.49445,
    "c": 1.49816,
    "v": 5485
  },
  {
    "dt": "2022.03.11 11:00",
    "o": 1.49814,
    "h": 1.49961,
    "l": 1.49697,
    "c": 1.49939,
    "v": 4620
  },
  {
    "dt": "2022.03.11 12:00",
    "o": 1.49934,
    "h": 1.50205,
    "l": 1.49886,
    "c": 1.50172,
    "v": 4104
  },
  {
    "dt": "2022.03.11 13:00",
    "o": 1.50173,
    "h": 1.50729,
    "l": 1.50119,
    "c": 1.50283,
    "v": 5417
  },
  {
    "dt": "2022.03.11 14:00",
    "o": 1.50286,
    "h": 1.5061,
    "l": 1.50018,
    "c": 1.50107,
    "v": 5445
  },
  {
    "dt": "2022.03.11 15:00",
    "o": 1.5011,
    "h": 1.50309,
    "l": 1.50008,
    "c": 1.50115,
    "v": 5252
  },
  {
    "dt": "2022.03.11 16:00",
    "o": 1.50114,
    "h": 1.50166,
    "l": 1.4982,
    "c": 1.49951,
    "v": 5122
  },
  {
    "dt": "2022.03.11 17:00",
    "o": 1.49967,
    "h": 1.49991,
    "l": 1.49395,
    "c": 1.49781,
    "v": 5682
  },
  {
    "dt": "2022.03.11 18:00",
    "o": 1.49785,
    "h": 1.49879,
    "l": 1.49617,
    "c": 1.49636,
    "v": 5413
  },
  {
    "dt": "2022.03.11 19:00",
    "o": 1.49634,
    "h": 1.49689,
    "l": 1.49426,
    "c": 1.49481,
    "v": 4020
  },
  {
    "dt": "2022.03.11 20:00",
    "o": 1.49484,
    "h": 1.49505,
    "l": 1.49241,
    "c": 1.49285,
    "v": 3357
  },
  {
    "dt": "2022.03.11 21:00",
    "o": 1.49285,
    "h": 1.4953,
    "l": 1.49211,
    "c": 1.49502,
    "v": 3073
  },
  {
    "dt": "2022.03.11 22:00",
    "o": 1.49518,
    "h": 1.49788,
    "l": 1.49515,
    "c": 1.49743,
    "v": 3545
  },
  {
    "dt": "2022.03.11 23:00",
    "o": 1.49737,
    "h": 1.4976,
    "l": 1.4957,
    "c": 1.4962,
    "v": 2166
  },
  {
    "dt": "2022.03.14 00:00",
    "o": 1.49765,
    "h": 1.49856,
    "l": 1.4965,
    "c": 1.49715,
    "v": 175
  },
  {
    "dt": "2022.03.14 01:00",
    "o": 1.49659,
    "h": 1.50021,
    "l": 1.49578,
    "c": 1.49873,
    "v": 1619
  },
  {
    "dt": "2022.03.14 02:00",
    "o": 1.49876,
    "h": 1.49916,
    "l": 1.49776,
    "c": 1.4981,
    "v": 1957
  },
  {
    "dt": "2022.03.14 03:00",
    "o": 1.49812,
    "h": 1.50216,
    "l": 1.49688,
    "c": 1.50179,
    "v": 3520
  },
  {
    "dt": "2022.03.14 04:00",
    "o": 1.50175,
    "h": 1.50329,
    "l": 1.50096,
    "c": 1.50134,
    "v": 3871
  },
  {
    "dt": "2022.03.14 05:00",
    "o": 1.50131,
    "h": 1.50427,
    "l": 1.50038,
    "c": 1.50398,
    "v": 3457
  },
  {
    "dt": "2022.03.14 06:00",
    "o": 1.50397,
    "h": 1.50465,
    "l": 1.50311,
    "c": 1.50339,
    "v": 2773
  },
  {
    "dt": "2022.03.14 07:00",
    "o": 1.5034,
    "h": 1.50517,
    "l": 1.50303,
    "c": 1.50386,
    "v": 2267
  },
  {
    "dt": "2022.03.14 08:00",
    "o": 1.50385,
    "h": 1.50558,
    "l": 1.50365,
    "c": 1.50534,
    "v": 2379
  },
  {
    "dt": "2022.03.14 09:00",
    "o": 1.50539,
    "h": 1.50888,
    "l": 1.50534,
    "c": 1.50843,
    "v": 3071
  },
  {
    "dt": "2022.03.14 10:00",
    "o": 1.50847,
    "h": 1.50994,
    "l": 1.50679,
    "c": 1.50884,
    "v": 4682
  },
  {
    "dt": "2022.03.14 11:00",
    "o": 1.50888,
    "h": 1.51122,
    "l": 1.5075,
    "c": 1.51087,
    "v": 5408
  },
  {
    "dt": "2022.03.14 12:00",
    "o": 1.51081,
    "h": 1.51415,
    "l": 1.50965,
    "c": 1.51337,
    "v": 5109
  },
  {
    "dt": "2022.03.14 13:00",
    "o": 1.51335,
    "h": 1.51423,
    "l": 1.51111,
    "c": 1.51308,
    "v": 4484
  },
  {
    "dt": "2022.03.14 14:00",
    "o": 1.51309,
    "h": 1.51384,
    "l": 1.51113,
    "c": 1.51319,
    "v": 4617
  },
  {
    "dt": "2022.03.14 15:00",
    "o": 1.51325,
    "h": 1.51325,
    "l": 1.51028,
    "c": 1.51205,
    "v": 4965
  },
  {
    "dt": "2022.03.14 16:00",
    "o": 1.51208,
    "h": 1.51379,
    "l": 1.51095,
    "c": 1.51293,
    "v": 5335
  },
  {
    "dt": "2022.03.14 17:00",
    "o": 1.51285,
    "h": 1.51512,
    "l": 1.5112,
    "c": 1.51142,
    "v": 5425
  },
  {
    "dt": "2022.03.14 18:00",
    "o": 1.51141,
    "h": 1.51932,
    "l": 1.51115,
    "c": 1.51852,
    "v": 5069
  },
  {
    "dt": "2022.03.14 19:00",
    "o": 1.51861,
    "h": 1.52077,
    "l": 1.51673,
    "c": 1.52058,
    "v": 5049
  },
  {
    "dt": "2022.03.14 20:00",
    "o": 1.52054,
    "h": 1.52409,
    "l": 1.51943,
    "c": 1.52401,
    "v": 4550
  },
  {
    "dt": "2022.03.14 21:00",
    "o": 1.52402,
    "h": 1.5243,
    "l": 1.52144,
    "c": 1.52318,
    "v": 3982
  },
  {
    "dt": "2022.03.14 22:00",
    "o": 1.52321,
    "h": 1.52321,
    "l": 1.52076,
    "c": 1.52135,
    "v": 4325
  },
  {
    "dt": "2022.03.14 23:00",
    "o": 1.52138,
    "h": 1.5221,
    "l": 1.52038,
    "c": 1.52194,
    "v": 2422
  },
  {
    "dt": "2022.03.15 00:00",
    "o": 1.52169,
    "h": 1.52227,
    "l": 1.51672,
    "c": 1.52149,
    "v": 308
  },
  {
    "dt": "2022.03.15 01:00",
    "o": 1.5215,
    "h": 1.52171,
    "l": 1.5177,
    "c": 1.51814,
    "v": 1548
  },
  {
    "dt": "2022.03.15 02:00",
    "o": 1.51818,
    "h": 1.52048,
    "l": 1.51805,
    "c": 1.51994,
    "v": 1943
  },
  {
    "dt": "2022.03.15 03:00",
    "o": 1.51999,
    "h": 1.52283,
    "l": 1.51951,
    "c": 1.52277,
    "v": 2889
  },
  {
    "dt": "2022.03.15 04:00",
    "o": 1.52281,
    "h": 1.52746,
    "l": 1.52215,
    "c": 1.52716,
    "v": 4372
  },
  {
    "dt": "2022.03.15 05:00",
    "o": 1.52721,
    "h": 1.52919,
    "l": 1.52498,
    "c": 1.52861,
    "v": 4391
  },
  {
    "dt": "2022.03.15 06:00",
    "o": 1.52862,
    "h": 1.52862,
    "l": 1.52642,
    "c": 1.52716,
    "v": 2948
  },
  {
    "dt": "2022.03.15 07:00",
    "o": 1.52714,
    "h": 1.52904,
    "l": 1.5271,
    "c": 1.52837,
    "v": 2380
  },
  {
    "dt": "2022.03.15 08:00",
    "o": 1.52838,
    "h": 1.53002,
    "l": 1.52819,
    "c": 1.52904,
    "v": 3008
  },
  {
    "dt": "2022.03.15 09:00",
    "o": 1.52909,
    "h": 1.52994,
    "l": 1.52717,
    "c": 1.52953,
    "v": 3407
  },
  {
    "dt": "2022.03.15 10:00",
    "o": 1.52954,
    "h": 1.53276,
    "l": 1.52731,
    "c": 1.52983,
    "v": 5627
  },
  {
    "dt": "2022.03.15 11:00",
    "o": 1.52981,
    "h": 1.53103,
    "l": 1.52651,
    "c": 1.52987,
    "v": 5559
  },
  {
    "dt": "2022.03.15 12:00",
    "o": 1.52985,
    "h": 1.53145,
    "l": 1.52928,
    "c": 1.53083,
    "v": 4868
  },
  {
    "dt": "2022.03.15 13:00",
    "o": 1.53084,
    "h": 1.53084,
    "l": 1.52698,
    "c": 1.52722,
    "v": 4291
  },
  {
    "dt": "2022.03.15 14:00",
    "o": 1.52718,
    "h": 1.52788,
    "l": 1.52297,
    "c": 1.52415,
    "v": 4712
  },
  {
    "dt": "2022.03.15 15:00",
    "o": 1.52415,
    "h": 1.52585,
    "l": 1.52293,
    "c": 1.52418,
    "v": 5153
  },
  {
    "dt": "2022.03.15 16:00",
    "o": 1.52421,
    "h": 1.52462,
    "l": 1.52106,
    "c": 1.52241,
    "v": 5543
  },
  {
    "dt": "2022.03.15 17:00",
    "o": 1.52245,
    "h": 1.52284,
    "l": 1.51982,
    "c": 1.5218,
    "v": 5412
  },
  {
    "dt": "2022.03.15 18:00",
    "o": 1.52181,
    "h": 1.52531,
    "l": 1.52008,
    "c": 1.52492,
    "v": 5314
  },
  {
    "dt": "2022.03.15 19:00",
    "o": 1.52482,
    "h": 1.52511,
    "l": 1.52135,
    "c": 1.52364,
    "v": 5514
  },
  {
    "dt": "2022.03.15 20:00",
    "o": 1.52365,
    "h": 1.52373,
    "l": 1.52057,
    "c": 1.52187,
    "v": 4331
  },
  {
    "dt": "2022.03.15 21:00",
    "o": 1.52187,
    "h": 1.52323,
    "l": 1.52137,
    "c": 1.52163,
    "v": 4059
  },
  {
    "dt": "2022.03.15 22:00",
    "o": 1.52163,
    "h": 1.52212,
    "l": 1.52074,
    "c": 1.52124,
    "v": 4053
  },
  {
    "dt": "2022.03.15 23:00",
    "o": 1.52121,
    "h": 1.52229,
    "l": 1.52056,
    "c": 1.52213,
    "v": 1930
  },
  {
    "dt": "2022.03.16 00:00",
    "o": 1.52196,
    "h": 1.52232,
    "l": 1.52113,
    "c": 1.52118,
    "v": 364
  },
  {
    "dt": "2022.03.16 01:00",
    "o": 1.52117,
    "h": 1.52418,
    "l": 1.52117,
    "c": 1.52418,
    "v": 1432
  },
  {
    "dt": "2022.03.16 02:00",
    "o": 1.52414,
    "h": 1.52541,
    "l": 1.52304,
    "c": 1.52513,
    "v": 1677
  },
  {
    "dt": "2022.03.16 03:00",
    "o": 1.52524,
    "h": 1.5259,
    "l": 1.52413,
    "c": 1.5257,
    "v": 2867
  },
  {
    "dt": "2022.03.16 04:00",
    "o": 1.52571,
    "h": 1.52571,
    "l": 1.52268,
    "c": 1.52293,
    "v": 3830
  },
  {
    "dt": "2022.03.16 05:00",
    "o": 1.52285,
    "h": 1.52342,
    "l": 1.52198,
    "c": 1.52326,
    "v": 2924
  },
  {
    "dt": "2022.03.16 06:00",
    "o": 1.52328,
    "h": 1.52422,
    "l": 1.52275,
    "c": 1.52313,
    "v": 2366
  },
  {
    "dt": "2022.03.16 07:00",
    "o": 1.52313,
    "h": 1.5235,
    "l": 1.52174,
    "c": 1.52179,
    "v": 1710
  },
  {
    "dt": "2022.03.16 08:00",
    "o": 1.52181,
    "h": 1.52201,
    "l": 1.51852,
    "c": 1.51912,
    "v": 2702
  },
  {
    "dt": "2022.03.16 09:00",
    "o": 1.51913,
    "h": 1.51944,
    "l": 1.51761,
    "c": 1.5181,
    "v": 3519
  },
  {
    "dt": "2022.03.16 10:00",
    "o": 1.5181,
    "h": 1.51888,
    "l": 1.51682,
    "c": 1.51784,
    "v": 4503
  },
  {
    "dt": "2022.03.16 11:00",
    "o": 1.51785,
    "h": 1.52214,
    "l": 1.51766,
    "c": 1.52008,
    "v": 5641
  },
  {
    "dt": "2022.03.16 12:00",
    "o": 1.5201,
    "h": 1.52119,
    "l": 1.51806,
    "c": 1.51946,
    "v": 4310
  },
  {
    "dt": "2022.03.16 13:00",
    "o": 1.51947,
    "h": 1.52184,
    "l": 1.51777,
    "c": 1.51855,
    "v": 4822
  },
  {
    "dt": "2022.03.16 14:00",
    "o": 1.51853,
    "h": 1.51982,
    "l": 1.51803,
    "c": 1.51858,
    "v": 4635
  },
  {
    "dt": "2022.03.16 15:00",
    "o": 1.51851,
    "h": 1.51869,
    "l": 1.51486,
    "c": 1.515,
    "v": 4878
  },
  {
    "dt": "2022.03.16 16:00",
    "o": 1.515,
    "h": 1.51698,
    "l": 1.51322,
    "c": 1.51396,
    "v": 5065
  },
  {
    "dt": "2022.03.16 17:00",
    "o": 1.51394,
    "h": 1.51951,
    "l": 1.51393,
    "c": 1.51913,
    "v": 6135
  },
  {
    "dt": "2022.03.16 18:00",
    "o": 1.5191,
    "h": 1.51932,
    "l": 1.51496,
    "c": 1.5158,
    "v": 5516
  },
  {
    "dt": "2022.03.16 19:00",
    "o": 1.51579,
    "h": 1.51822,
    "l": 1.51565,
    "c": 1.51663,
    "v": 4830
  },
  {
    "dt": "2022.03.16 20:00",
    "o": 1.51662,
    "h": 1.51732,
    "l": 1.51462,
    "c": 1.51463,
    "v": 4420
  },
  {
    "dt": "2022.03.16 21:00",
    "o": 1.5145,
    "h": 1.51944,
    "l": 1.51329,
    "c": 1.51456,
    "v": 6619
  },
  {
    "dt": "2022.03.16 22:00",
    "o": 1.51472,
    "h": 1.51628,
    "l": 1.51285,
    "c": 1.51341,
    "v": 5962
  },
  {
    "dt": "2022.03.16 23:00",
    "o": 1.51342,
    "h": 1.51553,
    "l": 1.51257,
    "c": 1.51299,
    "v": 3016
  },
  {
    "dt": "2022.03.17 00:00",
    "o": 1.51309,
    "h": 1.51397,
    "l": 1.51285,
    "c": 1.51327,
    "v": 379
  },
  {
    "dt": "2022.03.17 01:00",
    "o": 1.51331,
    "h": 1.51374,
    "l": 1.50967,
    "c": 1.51167,
    "v": 1868
  },
  {
    "dt": "2022.03.17 02:00",
    "o": 1.51166,
    "h": 1.51269,
    "l": 1.51092,
    "c": 1.51203,
    "v": 1801
  },
  {
    "dt": "2022.03.17 03:00",
    "o": 1.51207,
    "h": 1.5124,
    "l": 1.50891,
    "c": 1.51001,
    "v": 3886
  },
  {
    "dt": "2022.03.17 04:00",
    "o": 1.51001,
    "h": 1.51445,
    "l": 1.50891,
    "c": 1.51286,
    "v": 4415
  },
  {
    "dt": "2022.03.17 05:00",
    "o": 1.51288,
    "h": 1.51296,
    "l": 1.50805,
    "c": 1.50926,
    "v": 3710
  },
  {
    "dt": "2022.03.17 06:00",
    "o": 1.50928,
    "h": 1.51035,
    "l": 1.5083,
    "c": 1.50912,
    "v": 3014
  },
  {
    "dt": "2022.03.17 07:00",
    "o": 1.50909,
    "h": 1.50936,
    "l": 1.50736,
    "c": 1.50766,
    "v": 2139
  },
  {
    "dt": "2022.03.17 08:00",
    "o": 1.50767,
    "h": 1.50915,
    "l": 1.50724,
    "c": 1.50735,
    "v": 2824
  },
  {
    "dt": "2022.03.17 09:00",
    "o": 1.50739,
    "h": 1.50994,
    "l": 1.50718,
    "c": 1.50991,
    "v": 2925
  },
  {
    "dt": "2022.03.17 10:00",
    "o": 1.50994,
    "h": 1.51108,
    "l": 1.5078,
    "c": 1.50782,
    "v": 4088
  },
  {
    "dt": "2022.03.17 11:00",
    "o": 1.50793,
    "h": 1.51043,
    "l": 1.507,
    "c": 1.50899,
    "v": 5065
  },
  {
    "dt": "2022.03.17 12:00",
    "o": 1.50892,
    "h": 1.50907,
    "l": 1.50646,
    "c": 1.50747,
    "v": 4566
  },
  {
    "dt": "2022.03.17 13:00",
    "o": 1.50747,
    "h": 1.5075,
    "l": 1.50422,
    "c": 1.50499,
    "v": 4880
  },
  {
    "dt": "2022.03.17 14:00",
    "o": 1.505,
    "h": 1.50677,
    "l": 1.50446,
    "c": 1.50577,
    "v": 4214
  },
  {
    "dt": "2022.03.17 15:00",
    "o": 1.5058,
    "h": 1.50744,
    "l": 1.5037,
    "c": 1.50381,
    "v": 5368
  },
  {
    "dt": "2022.03.17 16:00",
    "o": 1.50389,
    "h": 1.50704,
    "l": 1.50389,
    "c": 1.50644,
    "v": 5052
  },
  {
    "dt": "2022.03.17 17:00",
    "o": 1.50653,
    "h": 1.50862,
    "l": 1.50609,
    "c": 1.50716,
    "v": 5427
  },
  {
    "dt": "2022.03.17 18:00",
    "o": 1.50722,
    "h": 1.50755,
    "l": 1.50325,
    "c": 1.50377,
    "v": 4818
  },
  {
    "dt": "2022.03.17 19:00",
    "o": 1.50362,
    "h": 1.50595,
    "l": 1.50275,
    "c": 1.50587,
    "v": 4439
  },
  {
    "dt": "2022.03.17 20:00",
    "o": 1.50579,
    "h": 1.5069,
    "l": 1.50492,
    "c": 1.50524,
    "v": 4004
  },
  {
    "dt": "2022.03.17 21:00",
    "o": 1.50523,
    "h": 1.5061,
    "l": 1.50452,
    "c": 1.50462,
    "v": 3704
  },
  {
    "dt": "2022.03.17 22:00",
    "o": 1.50468,
    "h": 1.50487,
    "l": 1.50321,
    "c": 1.50396,
    "v": 3643
  },
  {
    "dt": "2022.03.17 23:00",
    "o": 1.50392,
    "h": 1.50396,
    "l": 1.50295,
    "c": 1.50362,
    "v": 2151
  },
  {
    "dt": "2022.03.18 00:00",
    "o": 1.50343,
    "h": 1.50401,
    "l": 1.50306,
    "c": 1.50347,
    "v": 430
  },
  {
    "dt": "2022.03.18 01:00",
    "o": 1.50364,
    "h": 1.50399,
    "l": 1.50248,
    "c": 1.50396,
    "v": 1282
  },
  {
    "dt": "2022.03.18 02:00",
    "o": 1.50407,
    "h": 1.50443,
    "l": 1.50316,
    "c": 1.50354,
    "v": 1636
  },
  {
    "dt": "2022.03.18 03:00",
    "o": 1.50345,
    "h": 1.50479,
    "l": 1.50237,
    "c": 1.50399,
    "v": 3036
  },
  {
    "dt": "2022.03.18 04:00",
    "o": 1.504,
    "h": 1.50408,
    "l": 1.50162,
    "c": 1.50173,
    "v": 3239
  },
  {
    "dt": "2022.03.18 05:00",
    "o": 1.50172,
    "h": 1.50348,
    "l": 1.50172,
    "c": 1.50306,
    "v": 2467
  },
  {
    "dt": "2022.03.18 06:00",
    "o": 1.50299,
    "h": 1.50304,
    "l": 1.50216,
    "c": 1.50239,
    "v": 2154
  },
  {
    "dt": "2022.03.18 07:00",
    "o": 1.50238,
    "h": 1.50252,
    "l": 1.50074,
    "c": 1.50078,
    "v": 1788
  },
  {
    "dt": "2022.03.18 08:00",
    "o": 1.50078,
    "h": 1.5012,
    "l": 1.49807,
    "c": 1.49884,
    "v": 2193
  },
  {
    "dt": "2022.03.18 09:00",
    "o": 1.49885,
    "h": 1.49903,
    "l": 1.49638,
    "c": 1.49671,
    "v": 2850
  },
  {
    "dt": "2022.03.18 10:00",
    "o": 1.49669,
    "h": 1.50069,
    "l": 1.49669,
    "c": 1.4971,
    "v": 4320
  },
  {
    "dt": "2022.03.18 11:00",
    "o": 1.49708,
    "h": 1.50029,
    "l": 1.49664,
    "c": 1.49899,
    "v": 4829
  },
  {
    "dt": "2022.03.18 12:00",
    "o": 1.499,
    "h": 1.5003,
    "l": 1.49806,
    "c": 1.49896,
    "v": 3889
  },
  {
    "dt": "2022.03.18 13:00",
    "o": 1.49898,
    "h": 1.49935,
    "l": 1.49438,
    "c": 1.49614,
    "v": 4350
  },
  {
    "dt": "2022.03.18 14:00",
    "o": 1.49614,
    "h": 1.49647,
    "l": 1.4933,
    "c": 1.49361,
    "v": 4147
  },
  {
    "dt": "2022.03.18 15:00",
    "o": 1.49362,
    "h": 1.49624,
    "l": 1.49274,
    "c": 1.49406,
    "v": 4467
  },
  {
    "dt": "2022.03.18 16:00",
    "o": 1.49403,
    "h": 1.49514,
    "l": 1.49206,
    "c": 1.49387,
    "v": 5548
  },
  {
    "dt": "2022.03.18 17:00",
    "o": 1.49385,
    "h": 1.4944,
    "l": 1.48943,
    "c": 1.49035,
    "v": 5377
  },
  {
    "dt": "2022.03.18 18:00",
    "o": 1.49032,
    "h": 1.49297,
    "l": 1.48915,
    "c": 1.49237,
    "v": 5368
  },
  {
    "dt": "2022.03.18 19:00",
    "o": 1.49235,
    "h": 1.4943,
    "l": 1.49178,
    "c": 1.49247,
    "v": 4782
  },
  {
    "dt": "2022.03.18 20:00",
    "o": 1.4925,
    "h": 1.49253,
    "l": 1.49114,
    "c": 1.49136,
    "v": 3130
  },
  {
    "dt": "2022.03.18 21:00",
    "o": 1.49138,
    "h": 1.49217,
    "l": 1.49051,
    "c": 1.49128,
    "v": 2934
  },
  {
    "dt": "2022.03.18 22:00",
    "o": 1.49129,
    "h": 1.49215,
    "l": 1.49019,
    "c": 1.49109,
    "v": 3118
  },
  {
    "dt": "2022.03.18 23:00",
    "o": 1.49106,
    "h": 1.49118,
    "l": 1.48993,
    "c": 1.49036,
    "v": 1826
  },
  {
    "dt": "2022.03.21 00:00",
    "o": 1.49199,
    "h": 1.4925,
    "l": 1.49071,
    "c": 1.49203,
    "v": 256
  },
  {
    "dt": "2022.03.21 01:00",
    "o": 1.4913,
    "h": 1.49185,
    "l": 1.48997,
    "c": 1.49101,
    "v": 1437
  },
  {
    "dt": "2022.03.21 02:00",
    "o": 1.49096,
    "h": 1.49144,
    "l": 1.48991,
    "c": 1.4901,
    "v": 1457
  },
  {
    "dt": "2022.03.21 03:00",
    "o": 1.48998,
    "h": 1.49072,
    "l": 1.48915,
    "c": 1.48915,
    "v": 2178
  },
  {
    "dt": "2022.03.21 04:00",
    "o": 1.48909,
    "h": 1.49029,
    "l": 1.48772,
    "c": 1.489,
    "v": 2541
  },
  {
    "dt": "2022.03.21 05:00",
    "o": 1.48899,
    "h": 1.49237,
    "l": 1.48899,
    "c": 1.49129,
    "v": 2403
  },
  {
    "dt": "2022.03.21 06:00",
    "o": 1.49129,
    "h": 1.49352,
    "l": 1.49127,
    "c": 1.49248,
    "v": 1714
  },
  {
    "dt": "2022.03.21 07:00",
    "o": 1.4925,
    "h": 1.4927,
    "l": 1.49061,
    "c": 1.49118,
    "v": 1541
  },
  {
    "dt": "2022.03.21 08:00",
    "o": 1.49114,
    "h": 1.49245,
    "l": 1.49105,
    "c": 1.49205,
    "v": 2152
  },
  {
    "dt": "2022.03.21 09:00",
    "o": 1.49206,
    "h": 1.4926,
    "l": 1.49118,
    "c": 1.49173,
    "v": 2243
  },
  {
    "dt": "2022.03.21 10:00",
    "o": 1.49178,
    "h": 1.49574,
    "l": 1.49112,
    "c": 1.49404,
    "v": 4054
  },
  {
    "dt": "2022.03.21 11:00",
    "o": 1.49402,
    "h": 1.49579,
    "l": 1.4933,
    "c": 1.49507,
    "v": 4405
  },
  {
    "dt": "2022.03.21 12:00",
    "o": 1.49511,
    "h": 1.49869,
    "l": 1.49472,
    "c": 1.49748,
    "v": 3797
  },
  {
    "dt": "2022.03.21 13:00",
    "o": 1.49749,
    "h": 1.49785,
    "l": 1.49623,
    "c": 1.49643,
    "v": 3455
  },
  {
    "dt": "2022.03.21 14:00",
    "o": 1.49642,
    "h": 1.49644,
    "l": 1.49313,
    "c": 1.49338,
    "v": 4175
  },
  {
    "dt": "2022.03.21 15:00",
    "o": 1.49331,
    "h": 1.49391,
    "l": 1.48978,
    "c": 1.49013,
    "v": 4065
  },
  {
    "dt": "2022.03.21 16:00",
    "o": 1.49012,
    "h": 1.49067,
    "l": 1.48745,
    "c": 1.4893,
    "v": 4836
  },
  {
    "dt": "2022.03.21 17:00",
    "o": 1.48925,
    "h": 1.4905,
    "l": 1.48836,
    "c": 1.48928,
    "v": 5096
  },
  {
    "dt": "2022.03.21 18:00",
    "o": 1.4893,
    "h": 1.49098,
    "l": 1.48893,
    "c": 1.48915,
    "v": 4905
  },
  {
    "dt": "2022.03.21 19:00",
    "o": 1.48914,
    "h": 1.49214,
    "l": 1.48836,
    "c": 1.49137,
    "v": 5447
  },
  {
    "dt": "2022.03.21 20:00",
    "o": 1.49138,
    "h": 1.49314,
    "l": 1.49103,
    "c": 1.49132,
    "v": 5306
  },
  {
    "dt": "2022.03.21 21:00",
    "o": 1.49133,
    "h": 1.49144,
    "l": 1.48901,
    "c": 1.49024,
    "v": 4594
  },
  {
    "dt": "2022.03.21 22:00",
    "o": 1.49028,
    "h": 1.4908,
    "l": 1.48815,
    "c": 1.48845,
    "v": 4235
  },
  {
    "dt": "2022.03.21 23:00",
    "o": 1.48856,
    "h": 1.48915,
    "l": 1.48846,
    "c": 1.48857,
    "v": 1788
  },
  {
    "dt": "2022.03.22 00:00",
    "o": 1.48946,
    "h": 1.48989,
    "l": 1.48851,
    "c": 1.48913,
    "v": 324
  },
  {
    "dt": "2022.03.22 01:00",
    "o": 1.48952,
    "h": 1.48981,
    "l": 1.48864,
    "c": 1.48924,
    "v": 1015
  },
  {
    "dt": "2022.03.22 02:00",
    "o": 1.48918,
    "h": 1.49007,
    "l": 1.48874,
    "c": 1.48943,
    "v": 1276
  },
  {
    "dt": "2022.03.22 03:00",
    "o": 1.48944,
    "h": 1.48981,
    "l": 1.48718,
    "c": 1.48771,
    "v": 2849
  },
  {
    "dt": "2022.03.22 04:00",
    "o": 1.48769,
    "h": 1.49069,
    "l": 1.48733,
    "c": 1.49066,
    "v": 3162
  },
  {
    "dt": "2022.03.22 05:00",
    "o": 1.49059,
    "h": 1.49066,
    "l": 1.48786,
    "c": 1.48888,
    "v": 2575
  },
  {
    "dt": "2022.03.22 06:00",
    "o": 1.48885,
    "h": 1.48934,
    "l": 1.48629,
    "c": 1.48667,
    "v": 2172
  },
  {
    "dt": "2022.03.22 07:00",
    "o": 1.4867,
    "h": 1.48685,
    "l": 1.48375,
    "c": 1.48609,
    "v": 2816
  },
  {
    "dt": "2022.03.22 08:00",
    "o": 1.48609,
    "h": 1.48796,
    "l": 1.48547,
    "c": 1.48559,
    "v": 2776
  },
  {
    "dt": "2022.03.22 09:00",
    "o": 1.48564,
    "h": 1.48706,
    "l": 1.48535,
    "c": 1.48604,
    "v": 2932
  },
  {
    "dt": "2022.03.22 10:00",
    "o": 1.48605,
    "h": 1.4868,
    "l": 1.48408,
    "c": 1.48636,
    "v": 4189
  },
  {
    "dt": "2022.03.22 11:00",
    "o": 1.48634,
    "h": 1.48689,
    "l": 1.48406,
    "c": 1.48599,
    "v": 5240
  },
  {
    "dt": "2022.03.22 12:00",
    "o": 1.48601,
    "h": 1.48606,
    "l": 1.48203,
    "c": 1.48248,
    "v": 4454
  },
  {
    "dt": "2022.03.22 13:00",
    "o": 1.48249,
    "h": 1.48311,
    "l": 1.48001,
    "c": 1.48145,
    "v": 4099
  },
  {
    "dt": "2022.03.22 14:00",
    "o": 1.48147,
    "h": 1.48205,
    "l": 1.47987,
    "c": 1.48056,
    "v": 4173
  },
  {
    "dt": "2022.03.22 15:00",
    "o": 1.48057,
    "h": 1.48336,
    "l": 1.47984,
    "c": 1.48068,
    "v": 4896
  },
  {
    "dt": "2022.03.22 16:00",
    "o": 1.48066,
    "h": 1.48253,
    "l": 1.47958,
    "c": 1.48233,
    "v": 4883
  },
  {
    "dt": "2022.03.22 17:00",
    "o": 1.4823,
    "h": 1.48326,
    "l": 1.48134,
    "c": 1.48288,
    "v": 4650
  },
  {
    "dt": "2022.03.22 18:00",
    "o": 1.48285,
    "h": 1.48407,
    "l": 1.48132,
    "c": 1.48193,
    "v": 4698
  },
  {
    "dt": "2022.03.22 19:00",
    "o": 1.48193,
    "h": 1.482,
    "l": 1.48021,
    "c": 1.48079,
    "v": 3851
  },
  {
    "dt": "2022.03.22 20:00",
    "o": 1.48077,
    "h": 1.48135,
    "l": 1.47875,
    "c": 1.47951,
    "v": 3116
  },
  {
    "dt": "2022.03.22 21:00",
    "o": 1.4795,
    "h": 1.47983,
    "l": 1.47736,
    "c": 1.47767,
    "v": 2737
  },
  {
    "dt": "2022.03.22 22:00",
    "o": 1.47766,
    "h": 1.47806,
    "l": 1.47649,
    "c": 1.47695,
    "v": 3062
  },
  {
    "dt": "2022.03.22 23:00",
    "o": 1.47693,
    "h": 1.47727,
    "l": 1.47582,
    "c": 1.47586,
    "v": 1711
  },
  {
    "dt": "2022.03.23 00:00",
    "o": 1.47592,
    "h": 1.47725,
    "l": 1.47584,
    "c": 1.47725,
    "v": 436
  },
  {
    "dt": "2022.03.23 01:00",
    "o": 1.47724,
    "h": 1.47774,
    "l": 1.47535,
    "c": 1.47588,
    "v": 1839
  },
  {
    "dt": "2022.03.23 02:00",
    "o": 1.4758,
    "h": 1.478,
    "l": 1.47537,
    "c": 1.4778,
    "v": 2104
  },
  {
    "dt": "2022.03.23 03:00",
    "o": 1.47786,
    "h": 1.47932,
    "l": 1.47688,
    "c": 1.47888,
    "v": 3013
  },
  {
    "dt": "2022.03.23 04:00",
    "o": 1.47888,
    "h": 1.47935,
    "l": 1.4772,
    "c": 1.47748,
    "v": 3305
  },
  {
    "dt": "2022.03.23 05:00",
    "o": 1.47749,
    "h": 1.47787,
    "l": 1.47519,
    "c": 1.47667,
    "v": 3119
  },
  {
    "dt": "2022.03.23 06:00",
    "o": 1.4767,
    "h": 1.47879,
    "l": 1.47656,
    "c": 1.47846,
    "v": 2644
  },
  {
    "dt": "2022.03.23 07:00",
    "o": 1.47846,
    "h": 1.47896,
    "l": 1.47696,
    "c": 1.4784,
    "v": 2167
  },
  {
    "dt": "2022.03.23 08:00",
    "o": 1.4784,
    "h": 1.47983,
    "l": 1.47838,
    "c": 1.47884,
    "v": 2096
  },
  {
    "dt": "2022.03.23 09:00",
    "o": 1.47881,
    "h": 1.48036,
    "l": 1.47828,
    "c": 1.47844,
    "v": 2516
  },
  {
    "dt": "2022.03.23 10:00",
    "o": 1.47845,
    "h": 1.48045,
    "l": 1.47659,
    "c": 1.47664,
    "v": 3835
  },
  {
    "dt": "2022.03.23 11:00",
    "o": 1.47678,
    "h": 1.47818,
    "l": 1.47649,
    "c": 1.47673,
    "v": 4441
  },
  {
    "dt": "2022.03.23 12:00",
    "o": 1.47676,
    "h": 1.47691,
    "l": 1.47043,
    "c": 1.47073,
    "v": 4300
  },
  {
    "dt": "2022.03.23 13:00",
    "o": 1.47074,
    "h": 1.47273,
    "l": 1.47046,
    "c": 1.47198,
    "v": 3893
  },
  {
    "dt": "2022.03.23 14:00",
    "o": 1.47198,
    "h": 1.47252,
    "l": 1.46871,
    "c": 1.46875,
    "v": 4560
  },
  {
    "dt": "2022.03.23 15:00",
    "o": 1.46877,
    "h": 1.47279,
    "l": 1.46873,
    "c": 1.47168,
    "v": 4723
  },
  {
    "dt": "2022.03.23 16:00",
    "o": 1.4717,
    "h": 1.47317,
    "l": 1.46936,
    "c": 1.4699,
    "v": 5245
  },
  {
    "dt": "2022.03.23 17:00",
    "o": 1.46994,
    "h": 1.47096,
    "l": 1.46681,
    "c": 1.4672,
    "v": 5277
  },
  {
    "dt": "2022.03.23 18:00",
    "o": 1.46727,
    "h": 1.46828,
    "l": 1.46612,
    "c": 1.46725,
    "v": 4877
  },
  {
    "dt": "2022.03.23 19:00",
    "o": 1.46723,
    "h": 1.46887,
    "l": 1.46708,
    "c": 1.46723,
    "v": 4178
  },
  {
    "dt": "2022.03.23 20:00",
    "o": 1.46729,
    "h": 1.46874,
    "l": 1.4668,
    "c": 1.46772,
    "v": 3907
  },
  {
    "dt": "2022.03.23 21:00",
    "o": 1.46778,
    "h": 1.46818,
    "l": 1.46636,
    "c": 1.46652,
    "v": 3578
  },
  {
    "dt": "2022.03.23 22:00",
    "o": 1.46655,
    "h": 1.46775,
    "l": 1.46641,
    "c": 1.46735,
    "v": 3629
  },
  {
    "dt": "2022.03.23 23:00",
    "o": 1.46736,
    "h": 1.46779,
    "l": 1.46666,
    "c": 1.46735,
    "v": 2128
  },
  {
    "dt": "2022.03.24 00:00",
    "o": 1.46745,
    "h": 1.46804,
    "l": 1.4672,
    "c": 1.46787,
    "v": 503
  },
  {
    "dt": "2022.03.24 01:00",
    "o": 1.46787,
    "h": 1.47037,
    "l": 1.46715,
    "c": 1.46945,
    "v": 1446
  },
  {
    "dt": "2022.03.24 02:00",
    "o": 1.46957,
    "h": 1.4697,
    "l": 1.46749,
    "c": 1.46751,
    "v": 1693
  },
  {
    "dt": "2022.03.24 03:00",
    "o": 1.46749,
    "h": 1.47017,
    "l": 1.46688,
    "c": 1.4681,
    "v": 3235
  },
  {
    "dt": "2022.03.24 04:00",
    "o": 1.46812,
    "h": 1.46897,
    "l": 1.46526,
    "c": 1.46617,
    "v": 3772
  },
  {
    "dt": "2022.03.24 05:00",
    "o": 1.46616,
    "h": 1.46654,
    "l": 1.46515,
    "c": 1.46652,
    "v": 2727
  },
  {
    "dt": "2022.03.24 06:00",
    "o": 1.46651,
    "h": 1.4688,
    "l": 1.46645,
    "c": 1.46856,
    "v": 2409
  },
  {
    "dt": "2022.03.24 07:00",
    "o": 1.46855,
    "h": 1.47092,
    "l": 1.4676,
    "c": 1.47011,
    "v": 2184
  },
  {
    "dt": "2022.03.24 08:00",
    "o": 1.47008,
    "h": 1.47009,
    "l": 1.46609,
    "c": 1.46665,
    "v": 2699
  },
  {
    "dt": "2022.03.24 09:00",
    "o": 1.46667,
    "h": 1.46965,
    "l": 1.46633,
    "c": 1.46946,
    "v": 2855
  },
  {
    "dt": "2022.03.24 10:00",
    "o": 1.46932,
    "h": 1.46932,
    "l": 1.46764,
    "c": 1.46799,
    "v": 4151
  },
  {
    "dt": "2022.03.24 11:00",
    "o": 1.46794,
    "h": 1.47046,
    "l": 1.46718,
    "c": 1.46951,
    "v": 5008
  },
  {
    "dt": "2022.03.24 12:00",
    "o": 1.46951,
    "h": 1.47121,
    "l": 1.4689,
    "c": 1.46898,
    "v": 4252
  },
  {
    "dt": "2022.03.24 13:00",
    "o": 1.46898,
    "h": 1.46996,
    "l": 1.4662,
    "c": 1.46651,
    "v": 3989
  },
  {
    "dt": "2022.03.24 14:00",
    "o": 1.4665,
    "h": 1.46812,
    "l": 1.46457,
    "c": 1.46595,
    "v": 4373
  },
  {
    "dt": "2022.03.24 15:00",
    "o": 1.46597,
    "h": 1.46725,
    "l": 1.4651,
    "c": 1.46565,
    "v": 4800
  },
  {
    "dt": "2022.03.24 16:00",
    "o": 1.46567,
    "h": 1.46704,
    "l": 1.46328,
    "c": 1.46399,
    "v": 5267
  },
  {
    "dt": "2022.03.24 17:00",
    "o": 1.46393,
    "h": 1.46503,
    "l": 1.46085,
    "c": 1.46113,
    "v": 5344
  },
  {
    "dt": "2022.03.24 18:00",
    "o": 1.46109,
    "h": 1.46705,
    "l": 1.46092,
    "c": 1.46611,
    "v": 5454
  },
  {
    "dt": "2022.03.24 19:00",
    "o": 1.46612,
    "h": 1.46674,
    "l": 1.46475,
    "c": 1.46514,
    "v": 4854
  },
  {
    "dt": "2022.03.24 20:00",
    "o": 1.46517,
    "h": 1.46693,
    "l": 1.46442,
    "c": 1.46463,
    "v": 4095
  },
  {
    "dt": "2022.03.24 21:00",
    "o": 1.46461,
    "h": 1.46465,
    "l": 1.46323,
    "c": 1.46399,
    "v": 3555
  },
  {
    "dt": "2022.03.24 22:00",
    "o": 1.464,
    "h": 1.46457,
    "l": 1.46322,
    "c": 1.46359,
    "v": 3365
  },
  {
    "dt": "2022.03.24 23:00",
    "o": 1.4636,
    "h": 1.46399,
    "l": 1.4632,
    "c": 1.46361,
    "v": 1896
  },
  {
    "dt": "2022.03.25 00:00",
    "o": 1.46369,
    "h": 1.46407,
    "l": 1.46309,
    "c": 1.46363,
    "v": 280
  },
  {
    "dt": "2022.03.25 01:00",
    "o": 1.46396,
    "h": 1.46462,
    "l": 1.46323,
    "c": 1.46428,
    "v": 1322
  },
  {
    "dt": "2022.03.25 02:00",
    "o": 1.46433,
    "h": 1.46568,
    "l": 1.46392,
    "c": 1.46566,
    "v": 1628
  },
  {
    "dt": "2022.03.25 03:00",
    "o": 1.46566,
    "h": 1.46726,
    "l": 1.46447,
    "c": 1.4671,
    "v": 3408
  },
  {
    "dt": "2022.03.25 04:00",
    "o": 1.46709,
    "h": 1.46759,
    "l": 1.46497,
    "c": 1.46624,
    "v": 3999
  },
  {
    "dt": "2022.03.25 05:00",
    "o": 1.46622,
    "h": 1.46766,
    "l": 1.46595,
    "c": 1.46766,
    "v": 3176
  },
  {
    "dt": "2022.03.25 06:00",
    "o": 1.46759,
    "h": 1.46761,
    "l": 1.46583,
    "c": 1.4662,
    "v": 2914
  },
  {
    "dt": "2022.03.25 07:00",
    "o": 1.46618,
    "h": 1.46771,
    "l": 1.46535,
    "c": 1.46587,
    "v": 3007
  },
  {
    "dt": "2022.03.25 08:00",
    "o": 1.46587,
    "h": 1.46733,
    "l": 1.46528,
    "c": 1.46535,
    "v": 2425
  },
  {
    "dt": "2022.03.25 09:00",
    "o": 1.46537,
    "h": 1.46544,
    "l": 1.46283,
    "c": 1.46513,
    "v": 2926
  },
  {
    "dt": "2022.03.25 10:00",
    "o": 1.46516,
    "h": 1.46994,
    "l": 1.46516,
    "c": 1.4677,
    "v": 3752
  },
  {
    "dt": "2022.03.25 11:00",
    "o": 1.46768,
    "h": 1.46922,
    "l": 1.46679,
    "c": 1.46772,
    "v": 4674
  },
  {
    "dt": "2022.03.25 12:00",
    "o": 1.4677,
    "h": 1.46777,
    "l": 1.46538,
    "c": 1.46573,
    "v": 4297
  },
  {
    "dt": "2022.03.25 13:00",
    "o": 1.46572,
    "h": 1.46612,
    "l": 1.46366,
    "c": 1.4659,
    "v": 3344
  },
  {
    "dt": "2022.03.25 14:00",
    "o": 1.46585,
    "h": 1.46716,
    "l": 1.46545,
    "c": 1.46639,
    "v": 3501
  },
  {
    "dt": "2022.03.25 15:00",
    "o": 1.46638,
    "h": 1.46641,
    "l": 1.46337,
    "c": 1.46355,
    "v": 3528
  },
  {
    "dt": "2022.03.25 16:00",
    "o": 1.46354,
    "h": 1.46666,
    "l": 1.46206,
    "c": 1.46609,
    "v": 5393
  },
  {
    "dt": "2022.03.25 17:00",
    "o": 1.46597,
    "h": 1.46781,
    "l": 1.46351,
    "c": 1.46564,
    "v": 5124
  },
  {
    "dt": "2022.03.25 18:00",
    "o": 1.46562,
    "h": 1.46621,
    "l": 1.46317,
    "c": 1.4642,
    "v": 5511
  },
  {
    "dt": "2022.03.25 19:00",
    "o": 1.46426,
    "h": 1.46477,
    "l": 1.46136,
    "c": 1.46136,
    "v": 4767
  },
  {
    "dt": "2022.03.25 20:00",
    "o": 1.46135,
    "h": 1.46268,
    "l": 1.46097,
    "c": 1.46218,
    "v": 3560
  },
  {
    "dt": "2022.03.25 21:00",
    "o": 1.46197,
    "h": 1.46214,
    "l": 1.46033,
    "c": 1.46053,
    "v": 3173
  },
  {
    "dt": "2022.03.25 22:00",
    "o": 1.46061,
    "h": 1.46251,
    "l": 1.45944,
    "c": 1.45944,
    "v": 2953
  },
  {
    "dt": "2022.03.25 23:00",
    "o": 1.4594,
    "h": 1.46184,
    "l": 1.45922,
    "c": 1.46121,
    "v": 1634
  },
  {
    "dt": "2022.03.28 00:00",
    "o": 1.46281,
    "h": 1.46323,
    "l": 1.46012,
    "c": 1.46156,
    "v": 303
  },
  {
    "dt": "2022.03.28 01:00",
    "o": 1.46169,
    "h": 1.46208,
    "l": 1.46083,
    "c": 1.46097,
    "v": 1448
  },
  {
    "dt": "2022.03.28 02:00",
    "o": 1.46079,
    "h": 1.46153,
    "l": 1.45982,
    "c": 1.46062,
    "v": 1680
  },
  {
    "dt": "2022.03.28 03:00",
    "o": 1.46068,
    "h": 1.46186,
    "l": 1.45967,
    "c": 1.46154,
    "v": 2991
  },
  {
    "dt": "2022.03.28 04:00",
    "o": 1.46156,
    "h": 1.46207,
    "l": 1.45851,
    "c": 1.45873,
    "v": 4204
  },
  {
    "dt": "2022.03.28 05:00",
    "o": 1.45876,
    "h": 1.45952,
    "l": 1.45644,
    "c": 1.45676,
    "v": 3719
  },
  {
    "dt": "2022.03.28 06:00",
    "o": 1.45678,
    "h": 1.45742,
    "l": 1.45519,
    "c": 1.45569,
    "v": 2564
  },
  {
    "dt": "2022.03.28 07:00",
    "o": 1.45569,
    "h": 1.45607,
    "l": 1.45384,
    "c": 1.45607,
    "v": 2388
  },
  {
    "dt": "2022.03.28 08:00",
    "o": 1.45608,
    "h": 1.4571,
    "l": 1.45433,
    "c": 1.45665,
    "v": 2617
  },
  {
    "dt": "2022.03.28 09:00",
    "o": 1.4567,
    "h": 1.4586,
    "l": 1.45647,
    "c": 1.45742,
    "v": 4552
  },
  {
    "dt": "2022.03.28 10:00",
    "o": 1.45739,
    "h": 1.45793,
    "l": 1.45401,
    "c": 1.45478,
    "v": 5280
  },
  {
    "dt": "2022.03.28 11:00",
    "o": 1.45483,
    "h": 1.45956,
    "l": 1.45343,
    "c": 1.4595,
    "v": 5460
  },
  {
    "dt": "2022.03.28 12:00",
    "o": 1.45944,
    "h": 1.46092,
    "l": 1.45861,
    "c": 1.45918,
    "v": 4891
  },
  {
    "dt": "2022.03.28 13:00",
    "o": 1.45916,
    "h": 1.46178,
    "l": 1.45843,
    "c": 1.46128,
    "v": 4491
  },
  {
    "dt": "2022.03.28 14:00",
    "o": 1.46126,
    "h": 1.4619,
    "l": 1.45867,
    "c": 1.45953,
    "v": 4501
  },
  {
    "dt": "2022.03.28 15:00",
    "o": 1.45957,
    "h": 1.4597,
    "l": 1.45705,
    "c": 1.45957,
    "v": 5212
  },
  {
    "dt": "2022.03.28 16:00",
    "o": 1.45956,
    "h": 1.46738,
    "l": 1.45946,
    "c": 1.46704,
    "v": 5741
  },
  {
    "dt": "2022.03.28 17:00",
    "o": 1.46709,
    "h": 1.4696,
    "l": 1.46608,
    "c": 1.46697,
    "v": 5634
  },
  {
    "dt": "2022.03.28 18:00",
    "o": 1.46693,
    "h": 1.46756,
    "l": 1.46468,
    "c": 1.46647,
    "v": 5032
  },
  {
    "dt": "2022.03.28 19:00",
    "o": 1.46646,
    "h": 1.468,
    "l": 1.46592,
    "c": 1.46695,
    "v": 4271
  },
  {
    "dt": "2022.03.28 20:00",
    "o": 1.46703,
    "h": 1.46782,
    "l": 1.46594,
    "c": 1.46642,
    "v": 3806
  },
  {
    "dt": "2022.03.28 21:00",
    "o": 1.46644,
    "h": 1.46648,
    "l": 1.46456,
    "c": 1.46533,
    "v": 3759
  },
  {
    "dt": "2022.03.28 22:00",
    "o": 1.46536,
    "h": 1.46788,
    "l": 1.46492,
    "c": 1.46601,
    "v": 3905
  },
  {
    "dt": "2022.03.28 23:00",
    "o": 1.46605,
    "h": 1.46674,
    "l": 1.46573,
    "c": 1.46636,
    "v": 1722
  },
  {
    "dt": "2022.03.29 00:00",
    "o": 1.46541,
    "h": 1.46677,
    "l": 1.46524,
    "c": 1.46657,
    "v": 332
  },
  {
    "dt": "2022.03.29 01:00",
    "o": 1.4665,
    "h": 1.46715,
    "l": 1.46524,
    "c": 1.46585,
    "v": 1432
  },
  {
    "dt": "2022.03.29 02:00",
    "o": 1.46587,
    "h": 1.46639,
    "l": 1.46455,
    "c": 1.46593,
    "v": 1886
  },
  {
    "dt": "2022.03.29 03:00",
    "o": 1.46606,
    "h": 1.46878,
    "l": 1.46563,
    "c": 1.46799,
    "v": 3944
  },
  {
    "dt": "2022.03.29 04:00",
    "o": 1.46798,
    "h": 1.46882,
    "l": 1.46626,
    "c": 1.46694,
    "v": 3960
  },
  {
    "dt": "2022.03.29 05:00",
    "o": 1.46696,
    "h": 1.46824,
    "l": 1.4665,
    "c": 1.46739,
    "v": 2941
  },
  {
    "dt": "2022.03.29 06:00",
    "o": 1.46737,
    "h": 1.46963,
    "l": 1.4672,
    "c": 1.46898,
    "v": 2905
  },
  {
    "dt": "2022.03.29 07:00",
    "o": 1.46898,
    "h": 1.46911,
    "l": 1.46771,
    "c": 1.46812,
    "v": 2476
  },
  {
    "dt": "2022.03.29 08:00",
    "o": 1.46819,
    "h": 1.46838,
    "l": 1.46453,
    "c": 1.46475,
    "v": 3087
  },
  {
    "dt": "2022.03.29 09:00",
    "o": 1.46472,
    "h": 1.46695,
    "l": 1.46351,
    "c": 1.46442,
    "v": 4383
  },
  {
    "dt": "2022.03.29 10:00",
    "o": 1.46447,
    "h": 1.46657,
    "l": 1.46415,
    "c": 1.46638,
    "v": 5131
  },
  {
    "dt": "2022.03.29 11:00",
    "o": 1.46644,
    "h": 1.46879,
    "l": 1.46569,
    "c": 1.46805,
    "v": 4478
  },
  {
    "dt": "2022.03.29 12:00",
    "o": 1.46805,
    "h": 1.47209,
    "l": 1.46655,
    "c": 1.47159,
    "v": 5113
  },
  {
    "dt": "2022.03.29 13:00",
    "o": 1.47158,
    "h": 1.47404,
    "l": 1.47113,
    "c": 1.47358,
    "v": 4559
  },
  {
    "dt": "2022.03.29 14:00",
    "o": 1.47354,
    "h": 1.47833,
    "l": 1.47214,
    "c": 1.47686,
    "v": 5130
  },
  {
    "dt": "2022.03.29 15:00",
    "o": 1.47689,
    "h": 1.48958,
    "l": 1.47577,
    "c": 1.48502,
    "v": 6276
  },
  {
    "dt": "2022.03.29 16:00",
    "o": 1.48512,
    "h": 1.48818,
    "l": 1.48302,
    "c": 1.48594,
    "v": 5913
  },
  {
    "dt": "2022.03.29 17:00",
    "o": 1.48592,
    "h": 1.48602,
    "l": 1.47718,
    "c": 1.47917,
    "v": 6174
  },
  {
    "dt": "2022.03.29 18:00",
    "o": 1.47919,
    "h": 1.48239,
    "l": 1.47853,
    "c": 1.47962,
    "v": 5070
  },
  {
    "dt": "2022.03.29 19:00",
    "o": 1.47964,
    "h": 1.48054,
    "l": 1.47818,
    "c": 1.47952,
    "v": 4194
  },
  {
    "dt": "2022.03.29 20:00",
    "o": 1.4795,
    "h": 1.48015,
    "l": 1.47806,
    "c": 1.47873,
    "v": 3765
  },
  {
    "dt": "2022.03.29 21:00",
    "o": 1.47874,
    "h": 1.47889,
    "l": 1.47569,
    "c": 1.47574,
    "v": 3686
  },
  {
    "dt": "2022.03.29 22:00",
    "o": 1.47588,
    "h": 1.4764,
    "l": 1.47455,
    "c": 1.47564,
    "v": 3559
  },
  {
    "dt": "2022.03.29 23:00",
    "o": 1.47565,
    "h": 1.47664,
    "l": 1.47507,
    "c": 1.47643,
    "v": 1543
  },
  {
    "dt": "2022.03.30 00:00",
    "o": 1.47649,
    "h": 1.4767,
    "l": 1.47564,
    "c": 1.47571,
    "v": 497
  },
  {
    "dt": "2022.03.30 01:00",
    "o": 1.47589,
    "h": 1.47666,
    "l": 1.47404,
    "c": 1.47487,
    "v": 1642
  },
  {
    "dt": "2022.03.30 02:00",
    "o": 1.47487,
    "h": 1.47606,
    "l": 1.47444,
    "c": 1.47592,
    "v": 1805
  },
  {
    "dt": "2022.03.30 03:00",
    "o": 1.47591,
    "h": 1.47798,
    "l": 1.47523,
    "c": 1.47751,
    "v": 3921
  },
  {
    "dt": "2022.03.30 04:00",
    "o": 1.47751,
    "h": 1.47974,
    "l": 1.47729,
    "c": 1.47818,
    "v": 4483
  },
  {
    "dt": "2022.03.30 05:00",
    "o": 1.47816,
    "h": 1.47972,
    "l": 1.47742,
    "c": 1.4793,
    "v": 3955
  },
  {
    "dt": "2022.03.30 06:00",
    "o": 1.4793,
    "h": 1.4805,
    "l": 1.47806,
    "c": 1.47834,
    "v": 3673
  },
  {
    "dt": "2022.03.30 07:00",
    "o": 1.47834,
    "h": 1.47852,
    "l": 1.47553,
    "c": 1.47634,
    "v": 2769
  },
  {
    "dt": "2022.03.30 08:00",
    "o": 1.47639,
    "h": 1.47648,
    "l": 1.47474,
    "c": 1.47559,
    "v": 2998
  },
  {
    "dt": "2022.03.30 09:00",
    "o": 1.47553,
    "h": 1.47671,
    "l": 1.47449,
    "c": 1.47549,
    "v": 4689
  },
  {
    "dt": "2022.03.30 10:00",
    "o": 1.47551,
    "h": 1.482,
    "l": 1.47551,
    "c": 1.48093,
    "v": 5476
  },
  {
    "dt": "2022.03.30 11:00",
    "o": 1.48099,
    "h": 1.48477,
    "l": 1.47925,
    "c": 1.48463,
    "v": 5249
  },
  {
    "dt": "2022.03.30 12:00",
    "o": 1.4846,
    "h": 1.48674,
    "l": 1.48355,
    "c": 1.48359,
    "v": 4299
  },
  {
    "dt": "2022.03.30 13:00",
    "o": 1.48359,
    "h": 1.48413,
    "l": 1.47825,
    "c": 1.47908,
    "v": 4621
  },
  {
    "dt": "2022.03.30 14:00",
    "o": 1.4791,
    "h": 1.48223,
    "l": 1.47792,
    "c": 1.48148,
    "v": 4321
  },
  {
    "dt": "2022.03.30 15:00",
    "o": 1.48149,
    "h": 1.48185,
    "l": 1.47853,
    "c": 1.47954,
    "v": 5090
  },
  {
    "dt": "2022.03.30 16:00",
    "o": 1.47953,
    "h": 1.48438,
    "l": 1.47798,
    "c": 1.48435,
    "v": 5420
  },
  {
    "dt": "2022.03.30 17:00",
    "o": 1.48432,
    "h": 1.48517,
    "l": 1.48141,
    "c": 1.48309,
    "v": 5548
  },
  {
    "dt": "2022.03.30 18:00",
    "o": 1.4831,
    "h": 1.4878,
    "l": 1.48309,
    "c": 1.4868,
    "v": 4831
  },
  {
    "dt": "2022.03.30 19:00",
    "o": 1.48675,
    "h": 1.48711,
    "l": 1.4838,
    "c": 1.48428,
    "v": 3745
  },
  {
    "dt": "2022.03.30 20:00",
    "o": 1.48425,
    "h": 1.48469,
    "l": 1.48339,
    "c": 1.48388,
    "v": 3439
  },
  {
    "dt": "2022.03.30 21:00",
    "o": 1.48391,
    "h": 1.48663,
    "l": 1.48374,
    "c": 1.4864,
    "v": 3352
  },
  {
    "dt": "2022.03.30 22:00",
    "o": 1.48635,
    "h": 1.48683,
    "l": 1.48479,
    "c": 1.48484,
    "v": 3830
  },
  {
    "dt": "2022.03.30 23:00",
    "o": 1.48485,
    "h": 1.48566,
    "l": 1.48445,
    "c": 1.4855,
    "v": 1624
  },
  {
    "dt": "2022.03.31 00:00",
    "o": 1.48547,
    "h": 1.48577,
    "l": 1.48447,
    "c": 1.48517,
    "v": 268
  },
  {
    "dt": "2022.03.31 01:00",
    "o": 1.48517,
    "h": 1.48627,
    "l": 1.48444,
    "c": 1.48606,
    "v": 1320
  },
  {
    "dt": "2022.03.31 02:00",
    "o": 1.48608,
    "h": 1.48873,
    "l": 1.48585,
    "c": 1.48768,
    "v": 2073
  },
  {
    "dt": "2022.03.31 03:00",
    "o": 1.48765,
    "h": 1.48827,
    "l": 1.48476,
    "c": 1.48752,
    "v": 4273
  },
  {
    "dt": "2022.03.31 04:00",
    "o": 1.48751,
    "h": 1.48995,
    "l": 1.48743,
    "c": 1.48884,
    "v": 3809
  },
  {
    "dt": "2022.03.31 05:00",
    "o": 1.48886,
    "h": 1.48886,
    "l": 1.48775,
    "c": 1.48831,
    "v": 3071
  },
  {
    "dt": "2022.03.31 06:00",
    "o": 1.48833,
    "h": 1.49176,
    "l": 1.48802,
    "c": 1.4912,
    "v": 3005
  },
  {
    "dt": "2022.03.31 07:00",
    "o": 1.49119,
    "h": 1.49168,
    "l": 1.49011,
    "c": 1.4916,
    "v": 2399
  },
  {
    "dt": "2022.03.31 08:00",
    "o": 1.49156,
    "h": 1.49199,
    "l": 1.49031,
    "c": 1.49167,
    "v": 3009
  },
  {
    "dt": "2022.03.31 09:00",
    "o": 1.49162,
    "h": 1.49384,
    "l": 1.49088,
    "c": 1.49348,
    "v": 4984
  },
  {
    "dt": "2022.03.31 10:00",
    "o": 1.49362,
    "h": 1.49413,
    "l": 1.48965,
    "c": 1.48974,
    "v": 5029
  },
  {
    "dt": "2022.03.31 11:00",
    "o": 1.4898,
    "h": 1.49042,
    "l": 1.48702,
    "c": 1.48839,
    "v": 4856
  },
  {
    "dt": "2022.03.31 12:00",
    "o": 1.48841,
    "h": 1.48914,
    "l": 1.48332,
    "c": 1.48399,
    "v": 4532
  },
  {
    "dt": "2022.03.31 13:00",
    "o": 1.48414,
    "h": 1.48425,
    "l": 1.48009,
    "c": 1.48118,
    "v": 4564
  },
  {
    "dt": "2022.03.31 14:00",
    "o": 1.48112,
    "h": 1.48373,
    "l": 1.48104,
    "c": 1.48362,
    "v": 4304
  },
  {
    "dt": "2022.03.31 15:00",
    "o": 1.48361,
    "h": 1.48399,
    "l": 1.48092,
    "c": 1.48151,
    "v": 4770
  },
  {
    "dt": "2022.03.31 16:00",
    "o": 1.48151,
    "h": 1.48237,
    "l": 1.47619,
    "c": 1.47913,
    "v": 5713
  },
  {
    "dt": "2022.03.31 17:00",
    "o": 1.47921,
    "h": 1.48239,
    "l": 1.47765,
    "c": 1.4807,
    "v": 5927
  },
  {
    "dt": "2022.03.31 18:00",
    "o": 1.48072,
    "h": 1.48174,
    "l": 1.47924,
    "c": 1.47934,
    "v": 5332
  },
  {
    "dt": "2022.03.31 19:00",
    "o": 1.47936,
    "h": 1.47974,
    "l": 1.47813,
    "c": 1.47814,
    "v": 4149
  },
  {
    "dt": "2022.03.31 20:00",
    "o": 1.47813,
    "h": 1.47925,
    "l": 1.47762,
    "c": 1.47794,
    "v": 3842
  },
  {
    "dt": "2022.03.31 21:00",
    "o": 1.47793,
    "h": 1.47894,
    "l": 1.47762,
    "c": 1.47824,
    "v": 4088
  },
  {
    "dt": "2022.03.31 22:00",
    "o": 1.47828,
    "h": 1.47854,
    "l": 1.47657,
    "c": 1.4784,
    "v": 4384
  },
  {
    "dt": "2022.03.31 23:00",
    "o": 1.47844,
    "h": 1.47897,
    "l": 1.4775,
    "c": 1.47841,
    "v": 2553
  }
]