[
  {
    "dt": "2022.07.01 00:00",
    "o": 1.51786,
    "h": 1.51896,
    "l": 1.51747,
    "c": 1.51814,
    "v": 561
  },
  {
    "dt": "2022.07.01 01:00",
    "o": 1.51823,
    "h": 1.51929,
    "l": 1.5179,
    "c": 1.51855,
    "v": 2562
  },
  {
    "dt": "2022.07.01 02:00",
    "o": 1.51859,
    "h": 1.51903,
    "l": 1.51787,
    "c": 1.519,
    "v": 2964
  },
  {
    "dt": "2022.07.01 03:00",
    "o": 1.51884,
    "h": 1.5198,
    "l": 1.5171,
    "c": 1.51948,
    "v": 4554
  },
  {
    "dt": "2022.07.01 04:00",
    "o": 1.51952,
    "h": 1.52128,
    "l": 1.51897,
    "c": 1.52085,
    "v": 4636
  },
  {
    "dt": "2022.07.01 05:00",
    "o": 1.52088,
    "h": 1.52287,
    "l": 1.51971,
    "c": 1.52182,
    "v": 4579
  },
  {
    "dt": "2022.07.01 06:00",
    "o": 1.52167,
    "h": 1.53121,
    "l": 1.52167,
    "c": 1.53006,
    "v": 4833
  },
  {
    "dt": "2022.07.01 07:00",
    "o": 1.53004,
    "h": 1.53354,
    "l": 1.52925,
    "c": 1.53218,
    "v": 4599
  },
  {
    "dt": "2022.07.01 08:00",
    "o": 1.53217,
    "h": 1.53411,
    "l": 1.53191,
    "c": 1.53216,
    "v": 4887
  },
  {
    "dt": "2022.07.01 09:00",
    "o": 1.5322,
    "h": 1.53377,
    "l": 1.52911,
    "c": 1.53315,
    "v": 5139
  },
  {
    "dt": "2022.07.01 10:00",
    "o": 1.53316,
    "h": 1.53687,
    "l": 1.53179,
    "c": 1.53635,
    "v": 5575
  },
  {
    "dt": "2022.07.01 11:00",
    "o": 1.53636,
    "h": 1.53813,
    "l": 1.5354,
    "c": 1.53571,
    "v": 5292
  },
  {
    "dt": "2022.07.01 12:00",
    "o": 1.53573,
    "h": 1.53693,
    "l": 1.53403,
    "c": 1.53538,
    "v": 5040
  },
  {
    "dt": "2022.07.01 13:00",
    "o": 1.53537,
    "h": 1.53966,
    "l": 1.53479,
    "c": 1.53788,
    "v": 4753
  },
  {
    "dt": "2022.07.01 14:00",
    "o": 1.53788,
    "h": 1.53956,
    "l": 1.53687,
    "c": 1.53834,
    "v": 5257
  },
  {
    "dt": "2022.07.01 15:00",
    "o": 1.53835,
    "h": 1.53956,
    "l": 1.53722,
    "c": 1.53727,
    "v": 5383
  },
  {
    "dt": "2022.07.01 16:00",
    "o": 1.53729,
    "h": 1.53757,
    "l": 1.53094,
    "c": 1.53106,
    "v": 5666
  },
  {
    "dt": "2022.07.01 17:00",
    "o": 1.53137,
    "h": 1.53461,
    "l": 1.52642,
    "c": 1.53434,
    "v": 5781
  },
  {
    "dt": "2022.07.01 18:00",
    "o": 1.5344,
    "h": 1.53536,
    "l": 1.53168,
    "c": 1.53282,
    "v": 5670
  },
  {
    "dt": "2022.07.01 19:00",
    "o": 1.53283,
    "h": 1.53352,
    "l": 1.53102,
    "c": 1.53283,
    "v": 5232
  },
  {
    "dt": "2022.07.01 20:00",
    "o": 1.53289,
    "h": 1.53289,
    "l": 1.52896,
    "c": 1.52941,
    "v": 4563
  },
  {
    "dt": "2022.07.01 21:00",
    "o": 1.52938,
    "h": 1.52973,
    "l": 1.52711,
    "c": 1.52898,
    "v": 3972
  },
  {
    "dt": "2022.07.01 22:00",
    "o": 1.52902,
    "h": 1.5303,
    "l": 1.52857,
    "c": 1.52929,
    "v": 4202
  },
  {
    "dt": "2022.07.01 23:00",
    "o": 1.52926,
    "h": 1.53074,
    "l": 1.52857,
    "c": 1.52992,
    "v": 1580
  },
  {
    "dt": "2022.07.04 00:00",
    "o": 1.52927,
    "h": 1.52997,
    "l": 1.52858,
    "c": 1.52903,
    "v": 157
  },
  {
    "dt": "2022.07.04 01:00",
    "o": 1.52932,
    "h": 1.53101,
    "l": 1.52872,
    "c": 1.52908,
    "v": 2330
  },
  {
    "dt": "2022.07.04 02:00",
    "o": 1.52907,
    "h": 1.53118,
    "l": 1.52861,
    "c": 1.53107,
    "v": 3508
  },
  {
    "dt": "2022.07.04 03:00",
    "o": 1.53109,
    "h": 1.53178,
    "l": 1.52862,
    "c": 1.53007,
    "v": 4869
  },
  {
    "dt": "2022.07.04 04:00",
    "o": 1.53007,
    "h": 1.53521,
    "l": 1.53006,
    "c": 1.53163,
    "v": 5364
  },
  {
    "dt": "2022.07.04 05:00",
    "o": 1.53158,
    "h": 1.53297,
    "l": 1.53123,
    "c": 1.53291,
    "v": 4729
  },
  {
    "dt": "2022.07.04 06:00",
    "o": 1.53287,
    "h": 1.53305,
    "l": 1.53123,
    "c": 1.53206,
    "v": 3980
  },
  {
    "dt": "2022.07.04 07:00",
    "o": 1.53197,
    "h": 1.53216,
    "l": 1.52979,
    "c": 1.52997,
    "v": 2765
  },
  {
    "dt": "2022.07.04 08:00",
    "o": 1.52999,
    "h": 1.53002,
    "l": 1.52647,
    "c": 1.52674,
    "v": 3850
  },
  {
    "dt": "2022.07.04 09:00",
    "o": 1.52669,
    "h": 1.52753,
    "l": 1.52399,
    "c": 1.52399,
    "v": 4569
  },
  {
    "dt": "2022.07.04 10:00",
    "o": 1.52402,
    "h": 1.52442,
    "l": 1.51967,
    "c": 1.52,
    "v": 5167
  },
  {
    "dt": "2022.07.04 11:00",
    "o": 1.51991,
    "h": 1.52281,
    "l": 1.51925,
    "c": 1.52281,
    "v": 4571
  },
  {
    "dt": "2022.07.04 12:00",
    "o": 1.5229,
    "h": 1.52377,
    "l": 1.51739,
    "c": 1.51799,
    "v": 4574
  },
  {
    "dt": "2022.07.04 13:00",
    "o": 1.51795,
    "h": 1.51841,
    "l": 1.51694,
    "c": 1.51784,
    "v": 4010
  },
  {
    "dt": "2022.07.04 14:00",
    "o": 1.51785,
    "h": 1.5201,
    "l": 1.51739,
    "c": 1.51941,
    "v": 3962
  },
  {
    "dt": "2022.07.04 15:00",
    "o": 1.51937,
    "h": 1.5208,
    "l": 1.51868,
    "c": 1.51987,
    "v": 4033
  },
  {
    "dt": "2022.07.04 16:00",
    "o": 1.51987,
    "h": 1.52323,
    "l": 1.51961,
    "c": 1.52256,
    "v": 3859
  },
  {
    "dt": "2022.07.04 17:00",
    "o": 1.52255,
    "h": 1.52343,
    "l": 1.52036,
    "c": 1.52076,
    "v": 4613
  },
  {
    "dt": "2022.07.04 18:00",
    "o": 1.5207,
    "h": 1.52276,
    "l": 1.51918,
    "c": 1.51933,
    "v": 4246
  },
  {
    "dt": "2022.07.04 19:00",
    "o": 1.51934,
    "h": 1.51965,
    "l": 1.51675,
    "c": 1.51768,
    "v": 2928
  },
  {
    "dt": "2022.07.04 20:00",
    "o": 1.51769,
    "h": 1.51884,
    "l": 1.51753,
    "c": 1.51875,
    "v": 1591
  },
  {
    "dt": "2022.07.04 21:00",
    "o": 1.51876,
    "h": 1.51914,
    "l": 1.51852,
    "c": 1.51855,
    "v": 1071
  },
  {
    "dt": "2022.07.04 22:00",
    "o": 1.51857,
    "h": 1.519,
    "l": 1.51837,
    "c": 1.51862,
    "v": 623
  },
  {
    "dt": "2022.07.04 23:00",
    "o": 1.51852,
    "h": 1.51878,
    "l": 1.5171,
    "c": 1.51776,
    "v": 887
  },
  {
    "dt": "2022.07.05 00:00",
    "o": 1.51701,
    "h": 1.52241,
    "l": 1.51701,
    "c": 1.51734,
    "v": 140
  },
  {
    "dt": "2022.07.05 01:00",
    "o": 1.51736,
    "h": 1.5186,
    "l": 1.51705,
    "c": 1.51813,
    "v": 2112
  },
  {
    "dt": "2022.07.05 02:00",
    "o": 1.5181,
    "h": 1.51819,
    "l": 1.51642,
    "c": 1.51811,
    "v": 3621
  },
  {
    "dt": "2022.07.05 03:00",
    "o": 1.51814,
    "h": 1.51853,
    "l": 1.51412,
    "c": 1.51528,
    "v": 4415
  },
  {
    "dt": "2022.07.05 04:00",
    "o": 1.51531,
    "h": 1.51605,
    "l": 1.51292,
    "c": 1.51433,
    "v": 5018
  },
  {
    "dt": "2022.07.05 05:00",
    "o": 1.51432,
    "h": 1.51753,
    "l": 1.51418,
    "c": 1.51687,
    "v": 4715
  },
  {
    "dt": "2022.07.05 06:00",
    "o": 1.51681,
    "h": 1.5179,
    "l": 1.51538,
    "c": 1.51746,
    "v": 4134
  },
  {
    "dt": "2022.07.05 07:00",
    "o": 1.51753,
    "h": 1.52206,
    "l": 1.51541,
    "c": 1.52032,
    "v": 4295
  },
  {
    "dt": "2022.07.05 08:00",
    "o": 1.52059,
    "h": 1.52145,
    "l": 1.51869,
    "c": 1.51909,
    "v": 4348
  },
  {
    "dt": "2022.07.05 09:00",
    "o": 1.51914,
    "h": 1.5219,
    "l": 1.51911,
    "c": 1.52144,
    "v": 4920
  },
  {
    "dt": "2022.07.05 10:00",
    "o": 1.52151,
    "h": 1.52437,
    "l": 1.52088,
    "c": 1.52173,
    "v": 6094
  },
  {
    "dt": "2022.07.05 11:00",
    "o": 1.52173,
    "h": 1.52208,
    "l": 1.51617,
    "c": 1.51725,
    "v": 6183
  },
  {
    "dt": "2022.07.05 12:00",
    "o": 1.51724,
    "h": 1.51811,
    "l": 1.51405,
    "c": 1.51466,
    "v": 5829
  },
  {
    "dt": "2022.07.05 13:00",
    "o": 1.51469,
    "h": 1.51569,
    "l": 1.51339,
    "c": 1.51499,
    "v": 5101
  },
  {
    "dt": "2022.07.05 14:00",
    "o": 1.51496,
    "h": 1.51879,
    "l": 1.51419,
    "c": 1.5176,
    "v": 5159
  },
  {
    "dt": "2022.07.05 15:00",
    "o": 1.51757,
    "h": 1.51873,
    "l": 1.51586,
    "c": 1.51668,
    "v": 6030
  },
  {
    "dt": "2022.07.05 16:00",
    "o": 1.51673,
    "h": 1.51845,
    "l": 1.51283,
    "c": 1.5154,
    "v": 6236
  },
  {
    "dt": "2022.07.05 17:00",
    "o": 1.51544,
    "h": 1.51577,
    "l": 1.51112,
    "c": 1.51129,
    "v": 6334
  },
  {
    "dt": "2022.07.05 18:00",
    "o": 1.51139,
    "h": 1.51502,
    "l": 1.51102,
    "c": 1.51393,
    "v": 5892
  },
  {
    "dt": "2022.07.05 19:00",
    "o": 1.51394,
    "h": 1.51509,
    "l": 1.51185,
    "c": 1.51441,
    "v": 5394
  },
  {
    "dt": "2022.07.05 20:00",
    "o": 1.51441,
    "h": 1.51472,
    "l": 1.51252,
    "c": 1.51261,
    "v": 4995
  },
  {
    "dt": "2022.07.05 21:00",
    "o": 1.51261,
    "h": 1.51327,
    "l": 1.51088,
    "c": 1.5111,
    "v": 4866
  },
  {
    "dt": "2022.07.05 22:00",
    "o": 1.51116,
    "h": 1.51146,
    "l": 1.50991,
    "c": 1.51029,
    "v": 4734
  },
  {
    "dt": "2022.07.05 23:00",
    "o": 1.51026,
    "h": 1.51068,
    "l": 1.50858,
    "c": 1.50875,
    "v": 2292
  },
  {
    "dt": "2022.07.06 00:00",
    "o": 1.50871,
    "h": 1.51037,
    "l": 1.50871,
    "c": 1.50964,
    "v": 371
  },
  {
    "dt": "2022.07.06 01:00",
    "o": 1.50979,
    "h": 1.51052,
    "l": 1.50889,
    "c": 1.51006,
    "v": 2101
  },
  {
    "dt": "2022.07.06 02:00",
    "o": 1.51005,
    "h": 1.51127,
    "l": 1.5094,
    "c": 1.50951,
    "v": 3354
  },
  {
    "dt": "2022.07.06 03:00",
    "o": 1.5095,
    "h": 1.51132,
    "l": 1.50811,
    "c": 1.50827,
    "v": 4836
  },
  {
    "dt": "2022.07.06 04:00",
    "o": 1.50828,
    "h": 1.50831,
    "l": 1.5057,
    "c": 1.50727,
    "v": 5307
  },
  {
    "dt": "2022.07.06 05:00",
    "o": 1.50725,
    "h": 1.50833,
    "l": 1.50537,
    "c": 1.5071,
    "v": 4997
  },
  {
    "dt": "2022.07.06 06:00",
    "o": 1.50701,
    "h": 1.50884,
    "l": 1.50685,
    "c": 1.50805,
    "v": 4270
  },
  {
    "dt": "2022.07.06 07:00",
    "o": 1.50802,
    "h": 1.50961,
    "l": 1.50693,
    "c": 1.50864,
    "v": 3990
  },
  {
    "dt": "2022.07.06 08:00",
    "o": 1.50861,
    "h": 1.51126,
    "l": 1.50847,
    "c": 1.51068,
    "v": 4718
  },
  {
    "dt": "2022.07.06 09:00",
    "o": 1.51059,
    "h": 1.51124,
    "l": 1.50818,
    "c": 1.50841,
    "v": 5873
  },
  {
    "dt": "2022.07.06 10:00",
    "o": 1.50843,
    "h": 1.50901,
    "l": 1.50494,
    "c": 1.50621,
    "v": 6128
  },
  {
    "dt": "2022.07.06 11:00",
    "o": 1.50612,
    "h": 1.50798,
    "l": 1.50564,
    "c": 1.5067,
    "v": 5881
  },
  {
    "dt": "2022.07.06 12:00",
    "o": 1.5067,
    "h": 1.50691,
    "l": 1.50402,
    "c": 1.50453,
    "v": 5721
  },
  {
    "dt": "2022.07.06 13:00",
    "o": 1.50451,
    "h": 1.505,
    "l": 1.49839,
    "c": 1.4987,
    "v": 5334
  },
  {
    "dt": "2022.07.06 14:00",
    "o": 1.49878,
    "h": 1.50073,
    "l": 1.49753,
    "c": 1.49809,
    "v": 5451
  },
  {
    "dt": "2022.07.06 15:00",
    "o": 1.49801,
    "h": 1.49808,
    "l": 1.49283,
    "c": 1.4949,
    "v": 6016
  },
  {
    "dt": "2022.07.06 16:00",
    "o": 1.49495,
    "h": 1.49758,
    "l": 1.49391,
    "c": 1.49663,
    "v": 6184
  },
  {
    "dt": "2022.07.06 17:00",
    "o": 1.49648,
    "h": 1.50549,
    "l": 1.4962,
    "c": 1.50454,
    "v": 6666
  },
  {
    "dt": "2022.07.06 18:00",
    "o": 1.50462,
    "h": 1.50532,
    "l": 1.50068,
    "c": 1.50126,
    "v": 6092
  },
  {
    "dt": "2022.07.06 19:00",
    "o": 1.50123,
    "h": 1.50407,
    "l": 1.50123,
    "c": 1.50175,
    "v": 5296
  },
  {
    "dt": "2022.07.06 20:00",
    "o": 1.50171,
    "h": 1.5018,
    "l": 1.50035,
    "c": 1.50087,
    "v": 4664
  },
  {
    "dt": "2022.07.06 21:00",
    "o": 1.50092,
    "h": 1.5028,
    "l": 1.49815,
    "c": 1.49932,
    "v": 6302
  },
  {
    "dt": "2022.07.06 22:00",
    "o": 1.4994,
    "h": 1.50154,
    "l": 1.49864,
    "c": 1.50088,
    "v": 5288
  },
  {
    "dt": "2022.07.06 23:00",
    "o": 1.50085,
    "h": 1.50256,
    "l": 1.50044,
    "c": 1.50155,
    "v": 2994
  },
  {
    "dt": "2022.07.07 00:00",
    "o": 1.50133,
    "h": 1.50237,
    "l": 1.50046,
    "c": 1.50095,
    "v": 451
  },
  {
    "dt": "2022.07.07 01:00",
    "o": 1.50088,
    "h": 1.50208,
    "l": 1.5008,
    "c": 1.50098,
    "v": 1952
  },
  {
    "dt": "2022.07.07 02:00",
    "o": 1.5009,
    "h": 1.50206,
    "l": 1.50065,
    "c": 1.50152,
    "v": 3108
  },
  {
    "dt": "2022.07.07 03:00",
    "o": 1.50163,
    "h": 1.5044,
    "l": 1.50076,
    "c": 1.50137,
    "v": 4632
  },
  {
    "dt": "2022.07.07 04:00",
    "o": 1.50131,
    "h": 1.50231,
    "l": 1.49974,
    "c": 1.5001,
    "v": 5308
  },
  {
    "dt": "2022.07.07 05:00",
    "o": 1.50008,
    "h": 1.50008,
    "l": 1.49687,
    "c": 1.49718,
    "v": 5113
  },
  {
    "dt": "2022.07.07 06:00",
    "o": 1.49715,
    "h": 1.49791,
    "l": 1.49642,
    "c": 1.49709,
    "v": 4665
  },
  {
    "dt": "2022.07.07 07:00",
    "o": 1.49713,
    "h": 1.49728,
    "l": 1.49571,
    "c": 1.496,
    "v": 3484
  },
  {
    "dt": "2022.07.07 08:00",
    "o": 1.49602,
    "h": 1.49837,
    "l": 1.49462,
    "c": 1.49808,
    "v": 4413
  },
  {
    "dt": "2022.07.07 09:00",
    "o": 1.49786,
    "h": 1.49933,
    "l": 1.49619,
    "c": 1.49811,
    "v": 5128
  },
  {
    "dt": "2022.07.07 10:00",
    "o": 1.49819,
    "h": 1.49848,
    "l": 1.49449,
    "c": 1.49494,
    "v": 5763
  },
  {
    "dt": "2022.07.07 11:00",
    "o": 1.4949,
    "h": 1.49735,
    "l": 1.49352,
    "c": 1.49352,
    "v": 5607
  },
  {
    "dt": "2022.07.07 12:00",
    "o": 1.49352,
    "h": 1.49465,
    "l": 1.49092,
    "c": 1.49211,
    "v": 5664
  },
  {
    "dt": "2022.07.07 13:00",
    "o": 1.49215,
    "h": 1.49313,
    "l": 1.48885,
    "c": 1.48976,
    "v": 5059
  },
  {
    "dt": "2022.07.07 14:00",
    "o": 1.48974,
    "h": 1.49165,
    "l": 1.48918,
    "c": 1.48955,
    "v": 5013
  },
  {
    "dt": "2022.07.07 15:00",
    "o": 1.48951,
    "h": 1.49293,
    "l": 1.48755,
    "c": 1.49122,
    "v": 5361
  },
  {
    "dt": "2022.07.07 16:00",
    "o": 1.49127,
    "h": 1.49215,
    "l": 1.48985,
    "c": 1.49043,
    "v": 5853
  },
  {
    "dt": "2022.07.07 17:00",
    "o": 1.49043,
    "h": 1.49127,
    "l": 1.48702,
    "c": 1.48807,
    "v": 5978
  },
  {
    "dt": "2022.07.07 18:00",
    "o": 1.48801,
    "h": 1.48882,
    "l": 1.48694,
    "c": 1.48796,
    "v": 5161
  },
  {
    "dt": "2022.07.07 19:00",
    "o": 1.48796,
    "h": 1.488,
    "l": 1.48394,
    "c": 1.48531,
    "v": 4400
  },
  {
    "dt": "2022.07.07 20:00",
    "o": 1.48532,
    "h": 1.48568,
    "l": 1.48456,
    "c": 1.48498,
    "v": 3834
  },
  {
    "dt": "2022.07.07 21:00",
    "o": 1.48505,
    "h": 1.48602,
    "l": 1.484,
    "c": 1.48491,
    "v": 3741
  },
  {
    "dt": "2022.07.07 22:00",
    "o": 1.48485,
    "h": 1.4858,
    "l": 1.48379,
    "c": 1.48579,
    "v": 3640
  },
  {
    "dt": "2022.07.07 23:00",
    "o": 1.48582,
    "h": 1.48582,
    "l": 1.48478,
    "c": 1.48507,
    "v": 2121
  },
  {
    "dt": "2022.07.08 00:00",
    "o": 1.48533,
    "h": 1.48601,
    "l": 1.48517,
    "c": 1.4853,
    "v": 227
  },
  {
    "dt": "2022.07.08 01:00",
    "o": 1.4853,
    "h": 1.4863,
    "l": 1.48469,
    "c": 1.48572,
    "v": 2057
  },
  {
    "dt": "2022.07.08 02:00",
    "o": 1.48584,
    "h": 1.48624,
    "l": 1.48424,
    "c": 1.48483,
    "v": 3214
  },
  {
    "dt": "2022.07.08 03:00",
    "o": 1.4848,
    "h": 1.48611,
    "l": 1.48406,
    "c": 1.48479,
    "v": 4446
  },
  {
    "dt": "2022.07.08 04:00",
    "o": 1.48479,
    "h": 1.48718,
    "l": 1.48463,
    "c": 1.48623,
    "v": 4719
  },
  {
    "dt": "2022.07.08 05:00",
    "o": 1.48623,
    "h": 1.488,
    "l": 1.48503,
    "c": 1.48747,
    "v": 4617
  },
  {
    "dt": "2022.07.08 06:00",
    "o": 1.48748,
    "h": 1.48918,
    "l": 1.48551,
    "c": 1.48755,
    "v": 5381
  },
  {
    "dt": "2022.07.08 07:00",
    "o": 1.48746,
    "h": 1.48863,
    "l": 1.48571,
    "c": 1.48804,
    "v": 4106
  },
  {
    "dt": "2022.07.08 08:00",
    "o": 1.48806,
    "h": 1.48908,
    "l": 1.48722,
    "c": 1.48876,
    "v": 4633
  },
  {
    "dt": "2022.07.08 09:00",
    "o": 1.48881,
    "h": 1.48953,
    "l": 1.48711,
    "c": 1.48747,
    "v": 4878
  },
  {
    "dt": "2022.07.08 10:00",
    "o": 1.48741,
    "h": 1.48852,
    "l": 1.48059,
    "c": 1.48235,
    "v": 5981
  },
  {
    "dt": "2022.07.08 11:00",
    "o": 1.48256,
    "h": 1.48385,
    "l": 1.48074,
    "c": 1.48385,
    "v": 5663
  },
  {
    "dt": "2022.07.08 12:00",
    "o": 1.48378,
    "h": 1.48519,
    "l": 1.48338,
    "c": 1.48402,
    "v": 5170
  },
  {
    "dt": "2022.07.08 13:00",
    "o": 1.48409,
    "h": 1.48515,
    "l": 1.4832,
    "c": 1.48455,
    "v": 5002
  },
  {
    "dt": "2022.07.08 14:00",
    "o": 1.48455,
    "h": 1.48657,
    "l": 1.48408,
    "c": 1.48554,
    "v": 4916
  },
  {
    "dt": "2022.07.08 15:00",
    "o": 1.48556,
    "h": 1.49024,
    "l": 1.48512,
    "c": 1.48942,
    "v": 5986
  },
  {
    "dt": "2022.07.08 16:00",
    "o": 1.48942,
    "h": 1.48965,
    "l": 1.48326,
    "c": 1.48435,
    "v": 6457
  },
  {
    "dt": "2022.07.08 17:00",
    "o": 1.48437,
    "h": 1.48629,
    "l": 1.48041,
    "c": 1.48128,
    "v": 6198
  },
  {
    "dt": "2022.07.08 18:00",
    "o": 1.48133,
    "h": 1.48452,
    "l": 1.48096,
    "c": 1.48389,
    "v": 5552
  },
  {
    "dt": "2022.07.08 19:00",
    "o": 1.48388,
    "h": 1.48732,
    "l": 1.4834,
    "c": 1.48694,
    "v": 5118
  },
  {
    "dt": "2022.07.08 20:00",
    "o": 1.48693,
    "h": 1.48771,
    "l": 1.48515,
    "c": 1.48528,
    "v": 4654
  },
  {
    "dt": "2022.07.08 21:00",
    "o": 1.48526,
    "h": 1.48584,
    "l": 1.48417,
    "c": 1.48517,
    "v": 3927
  },
  {
    "dt": "2022.07.08 22:00",
    "o": 1.48518,
    "h": 1.48625,
    "l": 1.48454,
    "c": 1.48565,
    "v": 3993
  },
  {
    "dt": "2022.07.08 23:00",
    "o": 1.48568,
    "h": 1.48632,
    "l": 1.48338,
    "c": 1.48498,
    "v": 2098
  },
  {
    "dt": "2022.07.11 00:00",
    "o": 1.48667,
    "h": 1.48789,
    "l": 1.48428,
    "c": 1.48524,
    "v": 393
  },
  {
    "dt": "2022.07.11 01:00",
    "o": 1.48408,
    "h": 1.48691,
    "l": 1.48408,
    "c": 1.48567,
    "v": 2534
  },
  {
    "dt": "2022.07.11 02:00",
    "o": 1.48566,
    "h": 1.48572,
    "l": 1.48421,
    "c": 1.4852,
    "v": 3614
  },
  {
    "dt": "2022.07.11 03:00",
    "o": 1.48519,
    "h": 1.48573,
    "l": 1.48456,
    "c": 1.48476,
    "v": 4632
  },
  {
    "dt": "2022.07.11 04:00",
    "o": 1.48475,
    "h": 1.48677,
    "l": 1.48465,
    "c": 1.48596,
    "v": 5195
  },
  {
    "dt": "2022.07.11 05:00",
    "o": 1.48596,
    "h": 1.4871,
    "l": 1.48549,
    "c": 1.48701,
    "v": 4549
  },
  {
    "dt": "2022.07.11 06:00",
    "o": 1.48707,
    "h": 1.48857,
    "l": 1.48683,
    "c": 1.48701,
    "v": 3946
  },
  {
    "dt": "2022.07.11 07:00",
    "o": 1.48705,
    "h": 1.48852,
    "l": 1.48634,
    "c": 1.48787,
    "v": 3147
  },
  {
    "dt": "2022.07.11 08:00",
    "o": 1.4879,
    "h": 1.48951,
    "l": 1.48755,
    "c": 1.48829,
    "v": 4080
  },
  {
    "dt": "2022.07.11 09:00",
    "o": 1.48836,
    "h": 1.48945,
    "l": 1.48681,
    "c": 1.48735,
    "v": 4947
  },
  {
    "dt": "2022.07.11 10:00",
    "o": 1.48733,
    "h": 1.48844,
    "l": 1.48534,
    "c": 1.48592,
    "v": 5353
  },
  {
    "dt": "2022.07.11 11:00",
    "o": 1.486,
    "h": 1.48755,
    "l": 1.48562,
    "c": 1.48615,
    "v": 5028
  },
  {
    "dt": "2022.07.11 12:00",
    "o": 1.48627,
    "h": 1.48858,
    "l": 1.48591,
    "c": 1.4885,
    "v": 4728
  },
  {
    "dt": "2022.07.11 13:00",
    "o": 1.4885,
    "h": 1.49066,
    "l": 1.48765,
    "c": 1.49031,
    "v": 4469
  },
  {
    "dt": "2022.07.11 14:00",
    "o": 1.4903,
    "h": 1.49059,
    "l": 1.48831,
    "c": 1.49047,
    "v": 4740
  },
  {
    "dt": "2022.07.11 15:00",
    "o": 1.49043,
    "h": 1.49544,
    "l": 1.49008,
    "c": 1.4952,
    "v": 5416
  },
  {
    "dt": "2022.07.11 16:00",
    "o": 1.49521,
    "h": 1.49715,
    "l": 1.49356,
    "c": 1.49598,
    "v": 5750
  },
  {
    "dt": "2022.07.11 17:00",
    "o": 1.49605,
    "h": 1.49782,
    "l": 1.49503,
    "c": 1.49643,
    "v": 5847
  },
  {
    "dt": "2022.07.11 18:00",
    "o": 1.49634,
    "h": 1.49724,
    "l": 1.49287,
    "c": 1.49413,
    "v": 5451
  },
  {
    "dt": "2022.07.11 19:00",
    "o": 1.49409,
    "h": 1.49504,
    "l": 1.49272,
    "c": 1.49288,
    "v": 4831
  },
  {
    "dt": "2022.07.11 20:00",
    "o": 1.49292,
    "h": 1.49314,
    "l": 1.49108,
    "c": 1.49153,
    "v": 4355
  },
  {
    "dt": "2022.07.11 21:00",
    "o": 1.49153,
    "h": 1.49285,
    "l": 1.49126,
    "c": 1.49253,
    "v": 4275
  },
  {
    "dt": "2022.07.11 22:00",
    "o": 1.49254,
    "h": 1.49305,
    "l": 1.49046,
    "c": 1.49117,
    "v": 4349
  },
  {
    "dt": "2022.07.11 23:00",
    "o": 1.49115,
    "h": 1.49159,
    "l": 1.48992,
    "c": 1.4908,
    "v": 2959
  },
  {
    "dt": "2022.07.12 00:00",
    "o": 1.49063,
    "h": 1.49064,
    "l": 1.4897,
    "c": 1.49033,
    "v": 307
  },
  {
    "dt": "2022.07.12 01:00",
    "o": 1.49048,
    "h": 1.49118,
    "l": 1.49008,
    "c": 1.49056,
    "v": 1821
  },
  {
    "dt": "2022.07.12 02:00",
    "o": 1.49056,
    "h": 1.49092,
    "l": 1.48965,
    "c": 1.49023,
    "v": 2732
  },
  {
    "dt": "2022.07.12 03:00",
    "o": 1.49023,
    "h": 1.49293,
    "l": 1.48988,
    "c": 1.49144,
    "v": 4578
  },
  {
    "dt": "2022.07.12 04:00",
    "o": 1.49148,
    "h": 1.4927,
    "l": 1.48748,
    "c": 1.48844,
    "v": 5549
  },
  {
    "dt": "2022.07.12 05:00",
    "o": 1.48843,
    "h": 1.48968,
    "l": 1.48747,
    "c": 1.48909,
    "v": 5092
  },
  {
    "dt": "2022.07.12 06:00",
    "o": 1.48905,
    "h": 1.49103,
    "l": 1.489,
    "c": 1.48912,
    "v": 4551
  },
  {
    "dt": "2022.07.12 07:00",
    "o": 1.4891,
    "h": 1.49063,
    "l": 1.48845,
    "c": 1.4891,
    "v": 3499
  },
  {
    "dt": "2022.07.12 08:00",
    "o": 1.48909,
    "h": 1.48994,
    "l": 1.48839,
    "c": 1.48955,
    "v": 4718
  },
  {
    "dt": "2022.07.12 09:00",
    "o": 1.48959,
    "h": 1.49113,
    "l": 1.48882,
    "c": 1.48921,
    "v": 5423
  },
  {
    "dt": "2022.07.12 10:00",
    "o": 1.48908,
    "h": 1.49131,
    "l": 1.48842,
    "c": 1.48876,
    "v": 5695
  },
  {
    "dt": "2022.07.12 11:00",
    "o": 1.48879,
    "h": 1.49033,
    "l": 1.48802,
    "c": 1.48972,
    "v": 5141
  },
  {
    "dt": "2022.07.12 12:00",
    "o": 1.48974,
    "h": 1.49011,
    "l": 1.48797,
    "c": 1.48804,
    "v": 4970
  },
  {
    "dt": "2022.07.12 13:00",
    "o": 1.48802,
    "h": 1.49055,
    "l": 1.48744,
    "c": 1.49017,
    "v": 4796
  },
  {
    "dt": "2022.07.12 14:00",
    "o": 1.4902,
    "h": 1.49392,
    "l": 1.48966,
    "c": 1.49061,
    "v": 5412
  },
  {
    "dt": "2022.07.12 15:00",
    "o": 1.49062,
    "h": 1.49073,
    "l": 1.48872,
    "c": 1.48997,
    "v": 5219
  },
  {
    "dt": "2022.07.12 16:00",
    "o": 1.48998,
    "h": 1.49081,
    "l": 1.4866,
    "c": 1.48767,
    "v": 5850
  },
  {
    "dt": "2022.07.12 17:00",
    "o": 1.48763,
    "h": 1.49023,
    "l": 1.48486,
    "c": 1.48549,
    "v": 5861
  },
  {
    "dt": "2022.07.12 18:00",
    "o": 1.48549,
    "h": 1.48723,
    "l": 1.48392,
    "c": 1.48682,
    "v": 5259
  },
  {
    "dt": "2022.07.12 19:00",
    "o": 1.48685,
    "h": 1.48758,
    "l": 1.48533,
    "c": 1.48564,
    "v": 4427
  },
  {
    "dt": "2022.07.12 20:00",
    "o": 1.48567,
    "h": 1.48655,
    "l": 1.48471,
    "c": 1.48491,
    "v": 4242
  },
  {
    "dt": "2022.07.12 21:00",
    "o": 1.4849,
    "h": 1.48568,
    "l": 1.48435,
    "c": 1.48449,
    "v": 3983
  },
  {
    "dt": "2022.07.12 22:00",
    "o": 1.4845,
    "h": 1.48667,
    "l": 1.48379,
    "c": 1.48383,
    "v": 4126
  },
  {
    "dt": "2022.07.12 23:00",
    "o": 1.48386,
    "h": 1.48535,
    "l": 1.48386,
    "c": 1.48455,
    "v": 2405
  },
  {
    "dt": "2022.07.13 00:00",
    "o": 1.4846,
    "h": 1.48566,
    "l": 1.48346,
    "c": 1.48464,
    "v": 295
  },
  {
    "dt": "2022.07.13 01:00",
    "o": 1.48491,
    "h": 1.48552,
    "l": 1.4834,
    "c": 1.48529,
    "v": 1604
  },
  {
    "dt": "2022.07.13 02:00",
    "o": 1.48547,
    "h": 1.48684,
    "l": 1.4844,
    "c": 1.48673,
    "v": 2846
  },
  {
    "dt": "2022.07.13 03:00",
    "o": 1.48672,
    "h": 1.48778,
    "l": 1.48571,
    "c": 1.4862,
    "v": 4310
  },
  {
    "dt": "2022.07.13 04:00",
    "o": 1.48624,
    "h": 1.48634,
    "l": 1.48333,
    "c": 1.48377,
    "v": 5012
  },
  {
    "dt": "2022.07.13 05:00",
    "o": 1.48363,
    "h": 1.48449,
    "l": 1.48212,
    "c": 1.48294,
    "v": 4800
  },
  {
    "dt": "2022.07.13 06:00",
    "o": 1.48293,
    "h": 1.48326,
    "l": 1.48156,
    "c": 1.4821,
    "v": 4061
  },
  {
    "dt": "2022.07.13 07:00",
    "o": 1.48213,
    "h": 1.48263,
    "l": 1.48141,
    "c": 1.48162,
    "v": 3124
  },
  {
    "dt": "2022.07.13 08:00",
    "o": 1.48155,
    "h": 1.48392,
    "l": 1.48138,
    "c": 1.48357,
    "v": 4457
  },
  {
    "dt": "2022.07.13 09:00",
    "o": 1.48355,
    "h": 1.48578,
    "l": 1.48308,
    "c": 1.48369,
    "v": 5093
  },
  {
    "dt": "2022.07.13 10:00",
    "o": 1.48372,
    "h": 1.48537,
    "l": 1.47873,
    "c": 1.48113,
    "v": 5497
  },
  {
    "dt": "2022.07.13 11:00",
    "o": 1.48114,
    "h": 1.48194,
    "l": 1.47911,
    "c": 1.47993,
    "v": 5177
  },
  {
    "dt": "2022.07.13 12:00",
    "o": 1.47996,
    "h": 1.48048,
    "l": 1.47872,
    "c": 1.48024,
    "v": 4424
  },
  {
    "dt": "2022.07.13 13:00",
    "o": 1.48021,
    "h": 1.48309,
    "l": 1.47927,
    "c": 1.48169,
    "v": 4495
  },
  {
    "dt": "2022.07.13 14:00",
    "o": 1.48167,
    "h": 1.48218,
    "l": 1.47982,
    "c": 1.48167,
    "v": 4696
  },
  {
    "dt": "2022.07.13 15:00",
    "o": 1.48171,
    "h": 1.48891,
    "l": 1.47957,
    "c": 1.48495,
    "v": 5459
  },
  {
    "dt": "2022.07.13 16:00",
    "o": 1.48502,
    "h": 1.4857,
    "l": 1.48266,
    "c": 1.48553,
    "v": 5802
  },
  {
    "dt": "2022.07.13 17:00",
    "o": 1.48535,
    "h": 1.49139,
    "l": 1.48465,
    "c": 1.48869,
    "v": 5760
  },
  {
    "dt": "2022.07.13 18:00",
    "o": 1.48856,
    "h": 1.48886,
    "l": 1.48497,
    "c": 1.48569,
    "v": 5648
  },
  {
    "dt": "2022.07.13 19:00",
    "o": 1.48563,
    "h": 1.48732,
    "l": 1.48484,
    "c": 1.48585,
    "v": 5245
  },
  {
    "dt": "2022.07.13 20:00",
    "o": 1.48586,
    "h": 1.48627,
    "l": 1.48443,
    "c": 1.48494,
    "v": 5095
  },
  {
    "dt": "2022.07.13 21:00",
    "o": 1.48492,
    "h": 1.48784,
    "l": 1.48492,
    "c": 1.48643,
    "v": 5351
  },
  {
    "dt": "2022.07.13 22:00",
    "o": 1.48643,
    "h": 1.48837,
    "l": 1.48603,
    "c": 1.4876,
    "v": 4717
  },
  {
    "dt": "2022.07.13 23:00",
    "o": 1.48761,
    "h": 1.48859,
    "l": 1.48736,
    "c": 1.48736,
    "v": 2732
  },
  {
    "dt": "2022.07.14 00:00",
    "o": 1.48764,
    "h": 1.48865,
    "l": 1.48696,
    "c": 1.48735,
    "v": 207
  },
  {
    "dt": "2022.07.14 01:00",
    "o": 1.48729,
    "h": 1.48942,
    "l": 1.48729,
    "c": 1.48901,
    "v": 2247
  },
  {
    "dt": "2022.07.14 02:00",
    "o": 1.48929,
    "h": 1.49082,
    "l": 1.48922,
    "c": 1.49027,
    "v": 3650
  },
  {
    "dt": "2022.07.14 03:00",
    "o": 1.49026,
    "h": 1.49039,
    "l": 1.48683,
    "c": 1.48725,
    "v": 4566
  },
  {
    "dt": "2022.07.14 04:00",
    "o": 1.48723,
    "h": 1.4878,
    "l": 1.48169,
    "c": 1.48284,
    "v": 5244
  },
  {
    "dt": "2022.07.14 05:00",
    "o": 1.48277,
    "h": 1.48286,
    "l": 1.47925,
    "c": 1.47926,
    "v": 4595
  },
  {
    "dt": "2022.07.14 06:00",
    "o": 1.47925,
    "h": 1.4806,
    "l": 1.47882,
    "c": 1.47996,
    "v": 4183
  },
  {
    "dt": "2022.07.14 07:00",
    "o": 1.47995,
    "h": 1.48079,
    "l": 1.4795,
    "c": 1.48028,
    "v": 3506
  },
  {
    "dt": "2022.07.14 08:00",
    "o": 1.48026,
    "h": 1.48428,
    "l": 1.47957,
    "c": 1.48258,
    "v": 4548
  },
  {
    "dt": "2022.07.14 09:00",
    "o": 1.48284,
    "h": 1.48389,
    "l": 1.48082,
    "c": 1.48183,
    "v": 5295
  },
  {
    "dt": "2022.07.14 10:00",
    "o": 1.48187,
    "h": 1.48338,
    "l": 1.47623,
    "c": 1.48254,
    "v": 5741
  },
  {
    "dt": "2022.07.14 11:00",
    "o": 1.48253,
    "h": 1.48745,
    "l": 1.48231,
    "c": 1.48672,
    "v": 5530
  },
  {
    "dt": "2022.07.14 12:00",
    "o": 1.48669,
    "h": 1.48849,
    "l": 1.48522,
    "c": 1.48799,
    "v": 5304
  },
  {
    "dt": "2022.07.14 13:00",
    "o": 1.48799,
    "h": 1.49161,
    "l": 1.48733,
    "c": 1.49148,
    "v": 4916
  },
  {
    "dt": "2022.07.14 14:00",
    "o": 1.49147,
    "h": 1.49194,
    "l": 1.48805,
    "c": 1.48955,
    "v": 5349
  },
  {
    "dt": "2022.07.14 15:00",
    "o": 1.48952,
    "h": 1.49133,
    "l": 1.48748,
    "c": 1.4909,
    "v": 5445
  },
  {
    "dt": "2022.07.14 16:00",
    "o": 1.49089,
    "h": 1.49289,
    "l": 1.48689,
    "c": 1.48933,
    "v": 5739
  },
  {
    "dt": "2022.07.14 17:00",
    "o": 1.48944,
    "h": 1.49294,
    "l": 1.48763,
    "c": 1.49128,
    "v": 5818
  },
  {
    "dt": "2022.07.14 18:00",
    "o": 1.49125,
    "h": 1.49391,
    "l": 1.48648,
    "c": 1.48721,
    "v": 5845
  },
  {
    "dt": "2022.07.14 19:00",
    "o": 1.48717,
    "h": 1.49003,
    "l": 1.48606,
    "c": 1.48673,
    "v": 5644
  },
  {
    "dt": "2022.07.14 20:00",
    "o": 1.48672,
    "h": 1.48785,
    "l": 1.48564,
    "c": 1.48676,
    "v": 5339
  },
  {
    "dt": "2022.07.14 21:00",
    "o": 1.48679,
    "h": 1.48719,
    "l": 1.48374,
    "c": 1.48407,
    "v": 5047
  },
  {
    "dt": "2022.07.14 22:00",
    "o": 1.48403,
    "h": 1.48665,
    "l": 1.4839,
    "c": 1.48452,
    "v": 4591
  },
  {
    "dt": "2022.07.14 23:00",
    "o": 1.48451,
    "h": 1.48493,
    "l": 1.48338,
    "c": 1.48338,
    "v": 2406
  },
  {
    "dt": "2022.07.15 00:00",
    "o": 1.48375,
    "h": 1.48478,
    "l": 1.48321,
    "c": 1.48434,
    "v": 314
  },
  {
    "dt": "2022.07.15 01:00",
    "o": 1.4846,
    "h": 1.48546,
    "l": 1.48389,
    "c": 1.48467,
    "v": 1987
  },
  {
    "dt": "2022.07.15 02:00",
    "o": 1.48471,
    "h": 1.48475,
    "l": 1.48318,
    "c": 1.4839,
    "v": 3155
  },
  {
    "dt": "2022.07.15 03:00",
    "o": 1.48398,
    "h": 1.48604,
    "l": 1.4828,
    "c": 1.48596,
    "v": 4783
  },
  {
    "dt": "2022.07.15 04:00",
    "o": 1.48595,
    "h": 1.48668,
    "l": 1.48403,
    "c": 1.48433,
    "v": 4899
  },
  {
    "dt": "2022.07.15 05:00",
    "o": 1.48433,
    "h": 1.48654,
    "l": 1.4837,
    "c": 1.48574,
    "v": 4568
  },
  {
    "dt": "2022.07.15 06:00",
    "o": 1.48572,
    "h": 1.48835,
    "l": 1.48555,
    "c": 1.48694,
    "v": 4032
  },
  {
    "dt": "2022.07.15 07:00",
    "o": 1.48695,
    "h": 1.48872,
    "l": 1.48577,
    "c": 1.4883,
    "v": 3452
  },
  {
    "dt": "2022.07.15 08:00",
    "o": 1.48831,
    "h": 1.49031,
    "l": 1.48815,
    "c": 1.48888,
    "v": 4285
  },
  {
    "dt": "2022.07.15 09:00",
    "o": 1.48896,
    "h": 1.49039,
    "l": 1.4877,
    "c": 1.48923,
    "v": 5141
  },
  {
    "dt": "2022.07.15 10:00",
    "o": 1.48928,
    "h": 1.4903,
    "l": 1.48722,
    "c": 1.49023,
    "v": 5425
  },
  {
    "dt": "2022.07.15 11:00",
    "o": 1.49033,
    "h": 1.49228,
    "l": 1.48768,
    "c": 1.48898,
    "v": 5193
  },
  {
    "dt": "2022.07.15 12:00",
    "o": 1.48896,
    "h": 1.48995,
    "l": 1.48729,
    "c": 1.48909,
    "v": 4897
  },
  {
    "dt": "2022.07.15 13:00",
    "o": 1.48902,
    "h": 1.4892,
    "l": 1.48686,
    "c": 1.4881,
    "v": 4559
  },
  {
    "dt": "2022.07.15 14:00",
    "o": 1.48805,
    "h": 1.4893,
    "l": 1.48748,
    "c": 1.48889,
    "v": 4703
  },
  {
    "dt": "2022.07.15 15:00",
    "o": 1.48886,
    "h": 1.48984,
    "l": 1.48523,
    "c": 1.48584,
    "v": 5390
  },
  {
    "dt": "2022.07.15 16:00",
    "o": 1.48575,
    "h": 1.48714,
    "l": 1.48458,
    "c": 1.48593,
    "v": 5750
  },
  {
    "dt": "2022.07.15 17:00",
    "o": 1.48573,
    "h": 1.48573,
    "l": 1.4818,
    "c": 1.48347,
    "v": 5826
  },
  {
    "dt": "2022.07.15 18:00",
    "o": 1.48349,
    "h": 1.4855,
    "l": 1.48309,
    "c": 1.48536,
    "v": 5410
  },
  {
    "dt": "2022.07.15 19:00",
    "o": 1.48535,
    "h": 1.48579,
    "l": 1.48385,
    "c": 1.48487,
    "v": 4412
  },
  {
    "dt": "2022.07.15 20:00",
    "o": 1.48484,
    "h": 1.48496,
    "l": 1.48364,
    "c": 1.48378,
    "v": 3994
  },
  {
    "dt": "2022.07.15 21:00",
    "o": 1.48378,
    "h": 1.48475,
    "l": 1.48284,
    "c": 1.48438,
    "v": 3595
  },
  {
    "dt": "2022.07.15 22:00",
    "o": 1.4844,
    "h": 1.48471,
    "l": 1.48349,
    "c": 1.48374,
    "v": 3557
  },
  {
    "dt": "2022.07.15 23:00",
    "o": 1.48372,
    "h": 1.48495,
    "l": 1.48356,
    "c": 1.4844,
    "v": 1983
  },
  {
    "dt": "2022.07.18 00:00",
    "o": 1.48546,
    "h": 1.48618,
    "l": 1.48405,
    "c": 1.48405,
    "v": 128
  },
  {
    "dt": "2022.07.18 01:00",
    "o": 1.48402,
    "h": 1.48475,
    "l": 1.48174,
    "c": 1.48206,
    "v": 1984
  },
  {
    "dt": "2022.07.18 02:00",
    "o": 1.48203,
    "h": 1.48301,
    "l": 1.48136,
    "c": 1.48187,
    "v": 3116
  },
  {
    "dt": "2022.07.18 03:00",
    "o": 1.482,
    "h": 1.48388,
    "l": 1.48183,
    "c": 1.48277,
    "v": 3508
  },
  {
    "dt": "2022.07.18 04:00",
    "o": 1.48281,
    "h": 1.48418,
    "l": 1.48176,
    "c": 1.48349,
    "v": 4656
  },
  {
    "dt": "2022.07.18 05:00",
    "o": 1.48345,
    "h": 1.48484,
    "l": 1.48306,
    "c": 1.48335,
    "v": 3974
  },
  {
    "dt": "2022.07.18 06:00",
    "o": 1.48336,
    "h": 1.48407,
    "l": 1.48274,
    "c": 1.48378,
    "v": 3973
  },
  {
    "dt": "2022.07.18 07:00",
    "o": 1.48377,
    "h": 1.48407,
    "l": 1.48267,
    "c": 1.48285,
    "v": 3308
  },
  {
    "dt": "2022.07.18 08:00",
    "o": 1.48284,
    "h": 1.48367,
    "l": 1.48249,
    "c": 1.4833,
    "v": 3932
  },
  {
    "dt": "2022.07.18 09:00",
    "o": 1.48333,
    "h": 1.4843,
    "l": 1.48262,
    "c": 1.48375,
    "v": 4893
  },
  {
    "dt": "2022.07.18 10:00",
    "o": 1.48375,
    "h": 1.48743,
    "l": 1.48319,
    "c": 1.48523,
    "v": 5496
  },
  {
    "dt": "2022.07.18 11:00",
    "o": 1.48514,
    "h": 1.48561,
    "l": 1.48134,
    "c": 1.48257,
    "v": 5066
  },
  {
    "dt": "2022.07.18 12:00",
    "o": 1.48258,
    "h": 1.48536,
    "l": 1.48176,
    "c": 1.48494,
    "v": 4660
  },
  {
    "dt": "2022.07.18 13:00",
    "o": 1.48496,
    "h": 1.48686,
    "l": 1.48482,
    "c": 1.48586,
    "v": 4394
  },
  {
    "dt": "2022.07.18 14:00",
    "o": 1.48587,
    "h": 1.48601,
    "l": 1.48448,
    "c": 1.48523,
    "v": 4516
  },
  {
    "dt": "2022.07.18 15:00",
    "o": 1.48528,
    "h": 1.48558,
    "l": 1.48342,
    "c": 1.4836,
    "v": 5106
  },
  {
    "dt": "2022.07.18 16:00",
    "o": 1.48358,
    "h": 1.48516,
    "l": 1.48333,
    "c": 1.48495,
    "v": 5397
  },
  {
    "dt": "2022.07.18 17:00",
    "o": 1.48493,
    "h": 1.48893,
    "l": 1.48475,
    "c": 1.4887,
    "v": 5662
  },
  {
    "dt": "2022.07.18 18:00",
    "o": 1.4887,
    "h": 1.48927,
    "l": 1.48561,
    "c": 1.48566,
    "v": 4920
  },
  {
    "dt": "2022.07.18 19:00",
    "o": 1.48566,
    "h": 1.48803,
    "l": 1.48559,
    "c": 1.48782,
    "v": 4189
  },
  {
    "dt": "2022.07.18 20:00",
    "o": 1.48782,
    "h": 1.48916,
    "l": 1.48723,
    "c": 1.48892,
    "v": 4171
  },
  {
    "dt": "2022.07.18 21:00",
    "o": 1.48895,
    "h": 1.49054,
    "l": 1.48843,
    "c": 1.4896,
    "v": 4362
  },
  {
    "dt": "2022.07.18 22:00",
    "o": 1.4897,
    "h": 1.48986,
    "l": 1.48858,
    "c": 1.48864,
    "v": 4167
  },
  {
    "dt": "2022.07.18 23:00",
    "o": 1.48864,
    "h": 1.48963,
    "l": 1.48828,
    "c": 1.48871,
    "v": 2111
  },
  {
    "dt": "2022.07.19 00:00",
    "o": 1.48804,
    "h": 1.48896,
    "l": 1.48796,
    "c": 1.48838,
    "v": 230
  },
  {
    "dt": "2022.07.19 01:00",
    "o": 1.48845,
    "h": 1.49002,
    "l": 1.4883,
    "c": 1.48941,
    "v": 1858
  },
  {
    "dt": "2022.07.19 02:00",
    "o": 1.48941,
    "h": 1.49026,
    "l": 1.48906,
    "c": 1.48982,
    "v": 2752
  },
  {
    "dt": "2022.07.19 03:00",
    "o": 1.48982,
    "h": 1.49024,
    "l": 1.48758,
    "c": 1.48825,
    "v": 3553
  },
  {
    "dt": "2022.07.19 04:00",
    "o": 1.48823,
    "h": 1.48889,
    "l": 1.48491,
    "c": 1.48505,
    "v": 4152
  },
  {
    "dt": "2022.07.19 05:00",
    "o": 1.48509,
    "h": 1.4857,
    "l": 1.48313,
    "c": 1.48381,
    "v": 3683
  },
  {
    "dt": "2022.07.19 06:00",
    "o": 1.48383,
    "h": 1.4846,
    "l": 1.48026,
    "c": 1.4808,
    "v": 3488
  },
  {
    "dt": "2022.07.19 07:00",
    "o": 1.48087,
    "h": 1.48218,
    "l": 1.48062,
    "c": 1.48089,
    "v": 3391
  },
  {
    "dt": "2022.07.19 08:00",
    "o": 1.48093,
    "h": 1.4823,
    "l": 1.48057,
    "c": 1.48133,
    "v": 4361
  },
  {
    "dt": "2022.07.19 09:00",
    "o": 1.48154,
    "h": 1.48441,
    "l": 1.48102,
    "c": 1.48386,
    "v": 4873
  },
  {
    "dt": "2022.07.19 10:00",
    "o": 1.48395,
    "h": 1.48902,
    "l": 1.48197,
    "c": 1.48856,
    "v": 5562
  },
  {
    "dt": "2022.07.19 11:00",
    "o": 1.48855,
    "h": 1.48892,
    "l": 1.48422,
    "c": 1.48598,
    "v": 5469
  },
  {
    "dt": "2022.07.19 12:00",
    "o": 1.48597,
    "h": 1.48635,
    "l": 1.48401,
    "c": 1.48525,
    "v": 5000
  },
  {
    "dt": "2022.07.19 13:00",
    "o": 1.48524,
    "h": 1.48803,
    "l": 1.48492,
    "c": 1.48707,
    "v": 5038
  },
  {
    "dt": "2022.07.19 14:00",
    "o": 1.48705,
    "h": 1.48843,
    "l": 1.48597,
    "c": 1.48628,
    "v": 4772
  },
  {
    "dt": "2022.07.19 15:00",
    "o": 1.4863,
    "h": 1.48744,
    "l": 1.48353,
    "c": 1.48354,
    "v": 5110
  },
  {
    "dt": "2022.07.19 16:00",
    "o": 1.48354,
    "h": 1.48573,
    "l": 1.48353,
    "c": 1.48477,
    "v": 5342
  },
  {
    "dt": "2022.07.19 17:00",
    "o": 1.48473,
    "h": 1.48599,
    "l": 1.48271,
    "c": 1.48387,
    "v": 5469
  },
  {
    "dt": "2022.07.19 18:00",
    "o": 1.48379,
    "h": 1.48487,
    "l": 1.48293,
    "c": 1.48305,
    "v": 4511
  },
  {
    "dt": "2022.07.19 19:00",
    "o": 1.48308,
    "h": 1.48393,
    "l": 1.48129,
    "c": 1.4828,
    "v": 3532
  },
  {
    "dt": "2022.07.19 20:00",
    "o": 1.48279,
    "h": 1.4837,
    "l": 1.48241,
    "c": 1.48306,
    "v": 3012
  },
  {
    "dt": "2022.07.19 21:00",
    "o": 1.48305,
    "h": 1.48423,
    "l": 1.48234,
    "c": 1.48369,
    "v": 3483
  },
  {
    "dt": "2022.07.19 22:00",
    "o": 1.4836,
    "h": 1.48365,
    "l": 1.48172,
    "c": 1.48172,
    "v": 4078
  },
  {
    "dt": "2022.07.19 23:00",
    "o": 1.48169,
    "h": 1.48236,
    "l": 1.4816,
    "c": 1.48235,
    "v": 1964
  },
  {
    "dt": "2022.07.20 00:00",
    "o": 1.48215,
    "h": 1.48361,
    "l": 1.48165,
    "c": 1.48196,
    "v": 440
  },
  {
    "dt": "2022.07.20 01:00",
    "o": 1.48163,
    "h": 1.48346,
    "l": 1.48157,
    "c": 1.4826,
    "v": 1502
  },
  {
    "dt": "2022.07.20 02:00",
    "o": 1.48263,
    "h": 1.48356,
    "l": 1.48168,
    "c": 1.4835,
    "v": 2610
  },
  {
    "dt": "2022.07.20 03:00",
    "o": 1.48354,
    "h": 1.48447,
    "l": 1.48218,
    "c": 1.48343,
    "v": 2847
  },
  {
    "dt": "2022.07.20 04:00",
    "o": 1.48343,
    "h": 1.48499,
    "l": 1.48294,
    "c": 1.48379,
    "v": 2830
  },
  {
    "dt": "2022.07.20 05:00",
    "o": 1.48384,
    "h": 1.48394,
    "l": 1.48124,
    "c": 1.48124,
    "v": 2814
  },
  {
    "dt": "2022.07.20 06:00",
    "o": 1.48127,
    "h": 1.48155,
    "l": 1.4802,
    "c": 1.48101,
    "v": 2662
  },
  {
    "dt": "2022.07.20 07:00",
    "o": 1.48104,
    "h": 1.48109,
    "l": 1.47922,
    "c": 1.47982,
    "v": 2340
  },
  {
    "dt": "2022.07.20 08:00",
    "o": 1.47982,
    "h": 1.48134,
    "l": 1.47981,
    "c": 1.481,
    "v": 3031
  },
  {
    "dt": "2022.07.20 09:00",
    "o": 1.48102,
    "h": 1.48276,
    "l": 1.48068,
    "c": 1.48204,
    "v": 4302
  },
  {
    "dt": "2022.07.20 10:00",
    "o": 1.48201,
    "h": 1.48469,
    "l": 1.48021,
    "c": 1.4804,
    "v": 5367
  },
  {
    "dt": "2022.07.20 11:00",
    "o": 1.48044,
    "h": 1.48274,
    "l": 1.48009,
    "c": 1.48132,
    "v": 4661
  },
  {
    "dt": "2022.07.20 12:00",
    "o": 1.48128,
    "h": 1.48156,
    "l": 1.47951,
    "c": 1.48071,
    "v": 4118
  },
  {
    "dt": "2022.07.20 13:00",
    "o": 1.48062,
    "h": 1.48062,
    "l": 1.47499,
    "c": 1.47675,
    "v": 4714
  },
  {
    "dt": "2022.07.20 14:00",
    "o": 1.47676,
    "h": 1.47837,
    "l": 1.47594,
    "c": 1.47656,
    "v": 4553
  },
  {
    "dt": "2022.07.20 15:00",
    "o": 1.47663,
    "h": 1.4794,
    "l": 1.47596,
    "c": 1.47895,
    "v": 4989
  },
  {
    "dt": "2022.07.20 16:00",
    "o": 1.47898,
    "h": 1.48305,
    "l": 1.47839,
    "c": 1.48205,
    "v": 5400
  },
  {
    "dt": "2022.07.20 17:00",
    "o": 1.482,
    "h": 1.48379,
    "l": 1.47803,
    "c": 1.4789,
    "v": 5409
  },
  {
    "dt": "2022.07.20 18:00",
    "o": 1.47892,
    "h": 1.48146,
    "l": 1.47838,
    "c": 1.48105,
    "v": 4797
  },
  {
    "dt": "2022.07.20 19:00",
    "o": 1.48102,
    "h": 1.48135,
    "l": 1.47874,
    "c": 1.48027,
    "v": 3917
  },
  {
    "dt": "2022.07.20 20:00",
    "o": 1.48019,
    "h": 1.48036,
    "l": 1.47665,
    "c": 1.47747,
    "v": 4892
  },
  {
    "dt": "2022.07.20 21:00",
    "o": 1.4775,
    "h": 1.4788,
    "l": 1.47697,
    "c": 1.47804,
    "v": 4363
  },
  {
    "dt": "2022.07.20 22:00",
    "o": 1.47803,
    "h": 1.47845,
    "l": 1.47751,
    "c": 1.47787,
    "v": 3309
  },
  {
    "dt": "2022.07.20 23:00",
    "o": 1.47789,
    "h": 1.47835,
    "l": 1.47666,
    "c": 1.47675,
    "v": 2110
  },
  {
    "dt": "2022.07.21 00:00",
    "o": 1.47707,
    "h": 1.47788,
    "l": 1.47642,
    "c": 1.47703,
    "v": 202
  },
  {
    "dt": "2022.07.21 01:00",
    "o": 1.47714,
    "h": 1.47879,
    "l": 1.47696,
    "c": 1.47826,
    "v": 1803
  },
  {
    "dt": "2022.07.21 02:00",
    "o": 1.47827,
    "h": 1.47957,
    "l": 1.47799,
    "c": 1.47877,
    "v": 2037
  },
  {
    "dt": "2022.07.21 03:00",
    "o": 1.47876,
    "h": 1.47971,
    "l": 1.47798,
    "c": 1.47867,
    "v": 2883
  },
  {
    "dt": "2022.07.21 04:00",
    "o": 1.4787,
    "h": 1.48021,
    "l": 1.47814,
    "c": 1.47908,
    "v": 3674
  },
  {
    "dt": "2022.07.21 05:00",
    "o": 1.47908,
    "h": 1.48084,
    "l": 1.47852,
    "c": 1.4803,
    "v": 3071
  },
  {
    "dt": "2022.07.21 06:00",
    "o": 1.48031,
    "h": 1.48156,
    "l": 1.48008,
    "c": 1.48143,
    "v": 3122
  },
  {
    "dt": "2022.07.21 07:00",
    "o": 1.48141,
    "h": 1.48144,
    "l": 1.47826,
    "c": 1.4784,
    "v": 2988
  },
  {
    "dt": "2022.07.21 08:00",
    "o": 1.47827,
    "h": 1.47953,
    "l": 1.47813,
    "c": 1.47922,
    "v": 3358
  },
  {
    "dt": "2022.07.21 09:00",
    "o": 1.47922,
    "h": 1.48132,
    "l": 1.47892,
    "c": 1.47967,
    "v": 4810
  },
  {
    "dt": "2022.07.21 10:00",
    "o": 1.47965,
    "h": 1.48457,
    "l": 1.47954,
    "c": 1.48291,
    "v": 5397
  },
  {
    "dt": "2022.07.21 11:00",
    "o": 1.48285,
    "h": 1.48404,
    "l": 1.48148,
    "c": 1.48377,
    "v": 5125
  },
  {
    "dt": "2022.07.21 12:00",
    "o": 1.48372,
    "h": 1.48411,
    "l": 1.4811,
    "c": 1.48181,
    "v": 4706
  },
  {
    "dt": "2022.07.21 13:00",
    "o": 1.48181,
    "h": 1.48289,
    "l": 1.48112,
    "c": 1.48229,
    "v": 4364
  },
  {
    "dt": "2022.07.21 14:00",
    "o": 1.48237,
    "h": 1.48346,
    "l": 1.48193,
    "c": 1.48323,
    "v": 4732
  },
  {
    "dt": "2022.07.21 15:00",
    "o": 1.48327,
    "h": 1.49081,
    "l": 1.48291,
    "c": 1.48681,
    "v": 5620
  },
  {
    "dt": "2022.07.21 16:00",
    "o": 1.4868,
    "h": 1.48783,
    "l": 1.47813,
    "c": 1.4808,
    "v": 5840
  },
  {
    "dt": "2022.07.21 17:00",
    "o": 1.48085,
    "h": 1.48101,
    "l": 1.47709,
    "c": 1.47749,
    "v": 5704
  },
  {
    "dt": "2022.07.21 18:00",
    "o": 1.47755,
    "h": 1.47984,
    "l": 1.47734,
    "c": 1.47873,
    "v": 5156
  },
  {
    "dt": "2022.07.21 19:00",
    "o": 1.47866,
    "h": 1.47869,
    "l": 1.4755,
    "c": 1.47619,
    "v": 4377
  },
  {
    "dt": "2022.07.21 20:00",
    "o": 1.47622,
    "h": 1.47713,
    "l": 1.47498,
    "c": 1.47618,
    "v": 4054
  },
  {
    "dt": "2022.07.21 21:00",
    "o": 1.47622,
    "h": 1.47756,
    "l": 1.47595,
    "c": 1.47666,
    "v": 3788
  },
  {
    "dt": "2022.07.21 22:00",
    "o": 1.47667,
    "h": 1.47709,
    "l": 1.47488,
    "c": 1.47551,
    "v": 3612
  },
  {
    "dt": "2022.07.21 23:00",
    "o": 1.47537,
    "h": 1.47675,
    "l": 1.47422,
    "c": 1.47545,
    "v": 2649
  },
  {
    "dt": "2022.07.22 00:00",
    "o": 1.47525,
    "h": 1.47547,
    "l": 1.47377,
    "c": 1.47452,
    "v": 429
  },
  {
    "dt": "2022.07.22 01:00",
    "o": 1.47477,
    "h": 1.47591,
    "l": 1.4742,
    "c": 1.47573,
    "v": 1782
  },
  {
    "dt": "2022.07.22 02:00",
    "o": 1.47567,
    "h": 1.47639,
    "l": 1.47543,
    "c": 1.47627,
    "v": 2334
  },
  {
    "dt": "2022.07.22 03:00",
    "o": 1.47626,
    "h": 1.47652,
    "l": 1.47432,
    "c": 1.47458,
    "v": 3158
  },
  {
    "dt": "2022.07.22 04:00",
    "o": 1.47455,
    "h": 1.47534,
    "l": 1.47246,
    "c": 1.4733,
    "v": 3871
  },
  {
    "dt": "2022.07.22 05:00",
    "o": 1.4733,
    "h": 1.4743,
    "l": 1.47282,
    "c": 1.47403,
    "v": 3685
  },
  {
    "dt": "2022.07.22 06:00",
    "o": 1.47399,
    "h": 1.4753,
    "l": 1.47337,
    "c": 1.47416,
    "v": 2830
  },
  {
    "dt": "2022.07.22 07:00",
    "o": 1.47413,
    "h": 1.4759,
    "l": 1.47404,
    "c": 1.4756,
    "v": 2314
  },
  {
    "dt": "2022.07.22 08:00",
    "o": 1.47562,
    "h": 1.47676,
    "l": 1.47498,
    "c": 1.47512,
    "v": 3170
  },
  {
    "dt": "2022.07.22 09:00",
    "o": 1.47502,
    "h": 1.47534,
    "l": 1.4739,
    "c": 1.47422,
    "v": 4471
  },
  {
    "dt": "2022.07.22 10:00",
    "o": 1.47422,
    "h": 1.47524,
    "l": 1.46683,
    "c": 1.46764,
    "v": 5284
  },
  {
    "dt": "2022.07.22 11:00",
    "o": 1.46765,
    "h": 1.46924,
    "l": 1.46677,
    "c": 1.46802,
    "v": 4940
  },
  {
    "dt": "2022.07.22 12:00",
    "o": 1.46794,
    "h": 1.46887,
    "l": 1.46686,
    "c": 1.46765,
    "v": 4758
  },
  {
    "dt": "2022.07.22 13:00",
    "o": 1.46762,
    "h": 1.46805,
    "l": 1.46658,
    "c": 1.46805,
    "v": 4448
  },
  {
    "dt": "2022.07.22 14:00",
    "o": 1.46799,
    "h": 1.46803,
    "l": 1.46509,
    "c": 1.46613,
    "v": 4910
  },
  {
    "dt": "2022.07.22 15:00",
    "o": 1.46611,
    "h": 1.46847,
    "l": 1.46548,
    "c": 1.46795,
    "v": 4984
  },
  {
    "dt": "2022.07.22 16:00",
    "o": 1.46806,
    "h": 1.46967,
    "l": 1.46544,
    "c": 1.46952,
    "v": 5345
  },
  {
    "dt": "2022.07.22 17:00",
    "o": 1.46958,
    "h": 1.47179,
    "l": 1.46901,
    "c": 1.4696,
    "v": 5842
  },
  {
    "dt": "2022.07.22 18:00",
    "o": 1.46954,
    "h": 1.47222,
    "l": 1.46882,
    "c": 1.47206,
    "v": 5284
  },
  {
    "dt": "2022.07.22 19:00",
    "o": 1.47207,
    "h": 1.47464,
    "l": 1.471,
    "c": 1.47292,
    "v": 4356
  },
  {
    "dt": "2022.07.22 20:00",
    "o": 1.47294,
    "h": 1.47571,
    "l": 1.4728,
    "c": 1.47556,
    "v": 4092
  },
  {
    "dt": "2022.07.22 21:00",
    "o": 1.47556,
    "h": 1.4767,
    "l": 1.47434,
    "c": 1.47473,
    "v": 4317
  },
  {
    "dt": "2022.07.22 22:00",
    "o": 1.47473,
    "h": 1.4765,
    "l": 1.47428,
    "c": 1.47565,
    "v": 3615
  },
  {
    "dt": "2022.07.22 23:00",
    "o": 1.47565,
    "h": 1.47573,
    "l": 1.47338,
    "c": 1.47357,
    "v": 2005
  },
  {
    "dt": "2022.07.25 00:00",
    "o": 1.47404,
    "h": 1.47508,
    "l": 1.47337,
    "c": 1.47465,
    "v": 149
  },
  {
    "dt": "2022.07.25 01:00",
    "o": 1.47541,
    "h": 1.47756,
    "l": 1.47295,
    "c": 1.47634,
    "v": 1750
  },
  {
    "dt": "2022.07.25 02:00",
    "o": 1.47634,
    "h": 1.47727,
    "l": 1.47569,
    "c": 1.4772,
    "v": 2295
  },
  {
    "dt": "2022.07.25 03:00",
    "o": 1.4772,
    "h": 1.4802,
    "l": 1.47525,
    "c": 1.47891,
    "v": 4021
  },
  {
    "dt": "2022.07.25 04:00",
    "o": 1.47889,
    "h": 1.47915,
    "l": 1.477,
    "c": 1.47725,
    "v": 4524
  },
  {
    "dt": "2022.07.25 05:00",
    "o": 1.47725,
    "h": 1.4789,
    "l": 1.47664,
    "c": 1.47704,
    "v": 3756
  },
  {
    "dt": "2022.07.25 06:00",
    "o": 1.47706,
    "h": 1.47858,
    "l": 1.47702,
    "c": 1.47768,
    "v": 3172
  },
  {
    "dt": "2022.07.25 07:00",
    "o": 1.47773,
    "h": 1.47828,
    "l": 1.47714,
    "c": 1.47714,
    "v": 2471
  },
  {
    "dt": "2022.07.25 08:00",
    "o": 1.47731,
    "h": 1.47801,
    "l": 1.47624,
    "c": 1.47642,
    "v": 3599
  },
  {
    "dt": "2022.07.25 09:00",
    "o": 1.47646,
    "h": 1.47698,
    "l": 1.47374,
    "c": 1.47388,
    "v": 4675
  },
  {
    "dt": "2022.07.25 10:00",
    "o": 1.47382,
    "h": 1.47696,
    "l": 1.47224,
    "c": 1.47267,
    "v": 5313
  },
  {
    "dt": "2022.07.25 11:00",
    "o": 1.47264,
    "h": 1.47406,
    "l": 1.47107,
    "c": 1.47328,
    "v": 5289
  },
  {
    "dt": "2022.07.25 12:00",
    "o": 1.47325,
    "h": 1.4761,
    "l": 1.47233,
    "c": 1.4728,
    "v": 4778
  },
  {
    "dt": "2022.07.25 13:00",
    "o": 1.47278,
    "h": 1.47292,
    "l": 1.46977,
    "c": 1.47114,
    "v": 4301
  },
  {
    "dt": "2022.07.25 14:00",
    "o": 1.4712,
    "h": 1.47371,
    "l": 1.47091,
    "c": 1.47109,
    "v": 4772
  },
  {
    "dt": "2022.07.25 15:00",
    "o": 1.47116,
    "h": 1.47291,
    "l": 1.46982,
    "c": 1.47287,
    "v": 4989
  },
  {
    "dt": "2022.07.25 16:00",
    "o": 1.47285,
    "h": 1.47316,
    "l": 1.4712,
    "c": 1.4725,
    "v": 5320
  },
  {
    "dt": "2022.07.25 17:00",
    "o": 1.47243,
    "h": 1.47272,
    "l": 1.46916,
    "c": 1.4707,
    "v": 6112
  },
  {
    "dt": "2022.07.25 18:00",
    "o": 1.47065,
    "h": 1.47076,
    "l": 1.46782,
    "c": 1.46818,
    "v": 5232
  },
  {
    "dt": "2022.07.25 19:00",
    "o": 1.46822,
    "h": 1.46889,
    "l": 1.46759,
    "c": 1.46883,
    "v": 4073
  },
  {
    "dt": "2022.07.25 20:00",
    "o": 1.46883,
    "h": 1.46918,
    "l": 1.46776,
    "c": 1.46859,
    "v": 3496
  },
  {
    "dt": "2022.07.25 21:00",
    "o": 1.4686,
    "h": 1.46985,
    "l": 1.46857,
    "c": 1.4698,
    "v": 3208
  },
  {
    "dt": "2022.07.25 22:00",
    "o": 1.4698,
    "h": 1.47006,
    "l": 1.46835,
    "c": 1.46877,
    "v": 2959
  },
  {
    "dt": "2022.07.25 23:00",
    "o": 1.46875,
    "h": 1.46956,
    "l": 1.46843,
    "c": 1.46911,
    "v": 1973
  },
  {
    "dt": "2022.07.26 00:00",
    "o": 1.46971,
    "h": 1.46971,
    "l": 1.46804,
    "c": 1.46883,
    "v": 258
  },
  {
    "dt": "2022.07.26 01:00",
    "o": 1.46866,
    "h": 1.47037,
    "l": 1.46858,
    "c": 1.46982,
    "v": 1038
  },
  {
    "dt": "2022.07.26 02:00",
    "o": 1.4698,
    "h": 1.47083,
    "l": 1.46939,
    "c": 1.47079,
    "v": 1692
  },
  {
    "dt": "2022.07.26 03:00",
    "o": 1.47076,
    "h": 1.47129,
    "l": 1.46902,
    "c": 1.47109,
    "v": 2979
  },
  {
    "dt": "2022.07.26 04:00",
    "o": 1.47111,
    "h": 1.47164,
    "l": 1.46739,
    "c": 1.46778,
    "v": 4151
  },
  {
    "dt": "2022.07.26 05:00",
    "o": 1.46772,
    "h": 1.46922,
    "l": 1.46712,
    "c": 1.46748,
    "v": 3198
  },
  {
    "dt": "2022.07.26 06:00",
    "o": 1.46745,
    "h": 1.46969,
    "l": 1.46721,
    "c": 1.46952,
    "v": 2881
  },
  {
    "dt": "2022.07.26 07:00",
    "o": 1.46955,
    "h": 1.46981,
    "l": 1.46881,
    "c": 1.46908,
    "v": 2222
  },
  {
    "dt": "2022.07.26 08:00",
    "o": 1.46905,
    "h": 1.46954,
    "l": 1.46793,
    "c": 1.46794,
    "v": 3017
  },
  {
    "dt": "2022.07.26 09:00",
    "o": 1.46785,
    "h": 1.46918,
    "l": 1.46757,
    "c": 1.46799,
    "v": 3940
  },
  {
    "dt": "2022.07.26 10:00",
    "o": 1.46799,
    "h": 1.46848,
    "l": 1.46598,
    "c": 1.46719,
    "v": 4818
  },
  {
    "dt": "2022.07.26 11:00",
    "o": 1.46714,
    "h": 1.46855,
    "l": 1.46543,
    "c": 1.46716,
    "v": 4410
  },
  {
    "dt": "2022.07.26 12:00",
    "o": 1.46719,
    "h": 1.46778,
    "l": 1.46462,
    "c": 1.46489,
    "v": 4374
  },
  {
    "dt": "2022.07.26 13:00",
    "o": 1.46489,
    "h": 1.46524,
    "l": 1.46263,
    "c": 1.46342,
    "v": 4984
  },
  {
    "dt": "2022.07.26 14:00",
    "o": 1.46343,
    "h": 1.46356,
    "l": 1.46009,
    "c": 1.4617,
    "v": 4626
  },
  {
    "dt": "2022.07.26 15:00",
    "o": 1.46178,
    "h": 1.46308,
    "l": 1.46,
    "c": 1.46306,
    "v": 4812
  },
  {
    "dt": "2022.07.26 16:00",
    "o": 1.46296,
    "h": 1.46317,
    "l": 1.45964,
    "c": 1.46079,
    "v": 5412
  },
  {
    "dt": "2022.07.26 17:00",
    "o": 1.46081,
    "h": 1.46157,
    "l": 1.45558,
    "c": 1.45623,
    "v": 5845
  },
  {
    "dt": "2022.07.26 18:00",
    "o": 1.4562,
    "h": 1.45879,
    "l": 1.45595,
    "c": 1.45769,
    "v": 4821
  },
  {
    "dt": "2022.07.26 19:00",
    "o": 1.45765,
    "h": 1.45886,
    "l": 1.45649,
    "c": 1.4588,
    "v": 3997
  },
  {
    "dt": "2022.07.26 20:00",
    "o": 1.45877,
    "h": 1.45972,
    "l": 1.45822,
    "c": 1.45874,
    "v": 3863
  },
  {
    "dt": "2022.07.26 21:00",
    "o": 1.45864,
    "h": 1.46052,
    "l": 1.45861,
    "c": 1.46007,
    "v": 3471
  },
  {
    "dt": "2022.07.26 22:00",
    "o": 1.46003,
    "h": 1.46022,
    "l": 1.45854,
    "c": 1.45869,
    "v": 3341
  },
  {
    "dt": "2022.07.26 23:00",
    "o": 1.45861,
    "h": 1.45958,
    "l": 1.45716,
    "c": 1.45743,
    "v": 2580
  },
  {
    "dt": "2022.07.27 00:00",
    "o": 1.45612,
    "h": 1.45829,
    "l": 1.45612,
    "c": 1.45745,
    "v": 256
  },
  {
    "dt": "2022.07.27 01:00",
    "o": 1.45742,
    "h": 1.45902,
    "l": 1.45742,
    "c": 1.45804,
    "v": 1633
  },
  {
    "dt": "2022.07.27 02:00",
    "o": 1.45806,
    "h": 1.45839,
    "l": 1.45691,
    "c": 1.45818,
    "v": 1725
  },
  {
    "dt": "2022.07.27 03:00",
    "o": 1.45806,
    "h": 1.45906,
    "l": 1.45687,
    "c": 1.45906,
    "v": 2905
  },
  {
    "dt": "2022.07.27 04:00",
    "o": 1.45906,
    "h": 1.46573,
    "l": 1.45812,
    "c": 1.46453,
    "v": 3822
  },
  {
    "dt": "2022.07.27 05:00",
    "o": 1.46448,
    "h": 1.46665,
    "l": 1.46395,
    "c": 1.46524,
    "v": 3260
  },
  {
    "dt": "2022.07.27 06:00",
    "o": 1.46524,
    "h": 1.46563,
    "l": 1.46392,
    "c": 1.46522,
    "v": 2475
  },
  {
    "dt": "2022.07.27 07:00",
    "o": 1.46523,
    "h": 1.46584,
    "l": 1.46313,
    "c": 1.46329,
    "v": 1912
  },
  {
    "dt": "2022.07.27 08:00",
    "o": 1.46329,
    "h": 1.46413,
    "l": 1.46174,
    "c": 1.46201,
    "v": 2356
  },
  {
    "dt": "2022.07.27 09:00",
    "o": 1.46202,
    "h": 1.46299,
    "l": 1.46127,
    "c": 1.46269,
    "v": 4445
  },
  {
    "dt": "2022.07.27 10:00",
    "o": 1.46276,
    "h": 1.46394,
    "l": 1.4616,
    "c": 1.46161,
    "v": 4983
  },
  {
    "dt": "2022.07.27 11:00",
    "o": 1.46166,
    "h": 1.46228,
    "l": 1.46014,
    "c": 1.46106,
    "v": 4471
  },
  {
    "dt": "2022.07.27 12:00",
    "o": 1.46101,
    "h": 1.46112,
    "l": 1.45876,
    "c": 1.45958,
    "v": 3892
  },
  {
    "dt": "2022.07.27 13:00",
    "o": 1.45958,
    "h": 1.46227,
    "l": 1.45902,
    "c": 1.4621,
    "v": 3745
  },
  {
    "dt": "2022.07.27 14:00",
    "o": 1.46213,
    "h": 1.46316,
    "l": 1.46066,
    "c": 1.46099,
    "v": 4086
  },
  {
    "dt": "2022.07.27 15:00",
    "o": 1.46103,
    "h": 1.46221,
    "l": 1.46078,
    "c": 1.46163,
    "v": 4691
  },
  {
    "dt": "2022.07.27 16:00",
    "o": 1.4616,
    "h": 1.46415,
    "l": 1.4612,
    "c": 1.46176,
    "v": 5064
  },
  {
    "dt": "2022.07.27 17:00",
    "o": 1.46168,
    "h": 1.46225,
    "l": 1.4601,
    "c": 1.46139,
    "v": 5221
  },
  {
    "dt": "2022.07.27 18:00",
    "o": 1.46136,
    "h": 1.46291,
    "l": 1.46028,
    "c": 1.46033,
    "v": 4690
  },
  {
    "dt": "2022.07.27 19:00",
    "o": 1.46035,
    "h": 1.46145,
    "l": 1.45999,
    "c": 1.46047,
    "v": 3791
  },
  {
    "dt": "2022.07.27 20:00",
    "o": 1.46048,
    "h": 1.46285,
    "l": 1.46026,
    "c": 1.46134,
    "v": 3931
  },
  {
    "dt": "2022.07.27 21:00",
    "o": 1.46128,
    "h": 1.46236,
    "l": 1.45771,
    "c": 1.45809,
    "v": 6241
  },
  {
    "dt": "2022.07.27 22:00",
    "o": 1.45805,
    "h": 1.45941,
    "l": 1.45699,
    "c": 1.45938,
    "v": 5709
  },
  {
    "dt": "2022.07.27 23:00",
    "o": 1.45936,
    "h": 1.46018,
    "l": 1.45734,
    "c": 1.45872,
    "v": 3312
  },
  {
    "dt": "2022.07.28 00:00",
    "o": 1.45877,
    "h": 1.45877,
    "l": 1.45634,
    "c": 1.45871,
    "v": 253
  },
  {
    "dt": "2022.07.28 01:00",
    "o": 1.45871,
    "h": 1.45872,
    "l": 1.45668,
    "c": 1.4587,
    "v": 1862
  },
  {
    "dt": "2022.07.28 02:00",
    "o": 1.45866,
    "h": 1.45936,
    "l": 1.45709,
    "c": 1.45921,
    "v": 2299
  },
  {
    "dt": "2022.07.28 03:00",
    "o": 1.45928,
    "h": 1.45975,
    "l": 1.45723,
    "c": 1.45826,
    "v": 3640
  },
  {
    "dt": "2022.07.28 04:00",
    "o": 1.45827,
    "h": 1.46087,
    "l": 1.45666,
    "c": 1.45911,
    "v": 4776
  },
  {
    "dt": "2022.07.28 05:00",
    "o": 1.45918,
    "h": 1.46137,
    "l": 1.45907,
    "c": 1.45989,
    "v": 3252
  },
  {
    "dt": "2022.07.28 06:00",
    "o": 1.45985,
    "h": 1.46069,
    "l": 1.45931,
    "c": 1.45946,
    "v": 2972
  },
  {
    "dt": "2022.07.28 07:00",
    "o": 1.45945,
    "h": 1.46168,
    "l": 1.45884,
    "c": 1.46,
    "v": 2690
  },
  {
    "dt": "2022.07.28 08:00",
    "o": 1.46004,
    "h": 1.46126,
    "l": 1.4593,
    "c": 1.46084,
    "v": 2690
  },
  {
    "dt": "2022.07.28 09:00",
    "o": 1.46076,
    "h": 1.46098,
    "l": 1.45764,
    "c": 1.45892,
    "v": 4846
  },
  {
    "dt": "2022.07.28 10:00",
    "o": 1.45884,
    "h": 1.45928,
    "l": 1.45716,
    "c": 1.45902,
    "v": 5473
  },
  {
    "dt": "2022.07.28 11:00",
    "o": 1.45896,
    "h": 1.45929,
    "l": 1.45726,
    "c": 1.45869,
    "v": 5027
  },
  {
    "dt": "2022.07.28 12:00",
    "o": 1.45867,
    "h": 1.45867,
    "l": 1.45349,
    "c": 1.45349,
    "v": 5056
  },
  {
    "dt": "2022.07.28 13:00",
    "o": 1.45348,
    "h": 1.4549,
    "l": 1.45099,
    "c": 1.45215,
    "v": 5094
  },
  {
    "dt": "2022.07.28 14:00",
    "o": 1.45217,
    "h": 1.45354,
    "l": 1.45131,
    "c": 1.45162,
    "v": 4688
  },
  {
    "dt": "2022.07.28 15:00",
    "o": 1.45166,
    "h": 1.45604,
    "l": 1.45162,
    "c": 1.45511,
    "v": 5659
  },
  {
    "dt": "2022.07.28 16:00",
    "o": 1.45513,
    "h": 1.45572,
    "l": 1.45304,
    "c": 1.4544,
    "v": 5936
  },
  {
    "dt": "2022.07.28 17:00",
    "o": 1.45449,
    "h": 1.46065,
    "l": 1.45412,
    "c": 1.45754,
    "v": 6153
  },
  {
    "dt": "2022.07.28 18:00",
    "o": 1.45756,
    "h": 1.45844,
    "l": 1.45662,
    "c": 1.45773,
    "v": 5336
  },
  {
    "dt": "2022.07.28 19:00",
    "o": 1.45763,
    "h": 1.45917,
    "l": 1.45683,
    "c": 1.45906,
    "v": 4536
  },
  {
    "dt": "2022.07.28 20:00",
    "o": 1.45906,
    "h": 1.45971,
    "l": 1.45764,
    "c": 1.45826,
    "v": 3559
  },
  {
    "dt": "2022.07.28 21:00",
    "o": 1.45829,
    "h": 1.46027,
    "l": 1.45818,
    "c": 1.45921,
    "v": 3532
  },
  {
    "dt": "2022.07.28 22:00",
    "o": 1.45912,
    "h": 1.45975,
    "l": 1.4587,
    "c": 1.4592,
    "v": 3565
  },
  {
    "dt": "2022.07.28 23:00",
    "o": 1.45919,
    "h": 1.45958,
    "l": 1.45774,
    "c": 1.45958,
    "v": 2920
  },
  {
    "dt": "2022.07.29 00:00",
    "o": 1.45896,
    "h": 1.45896,
    "l": 1.45739,
    "c": 1.45813,
    "v": 253
  },
  {
    "dt": "2022.07.29 01:00",
    "o": 1.45806,
    "h": 1.45867,
    "l": 1.45701,
    "c": 1.45732,
    "v": 1756
  },
  {
    "dt": "2022.07.29 02:00",
    "o": 1.45732,
    "h": 1.45742,
    "l": 1.456,
    "c": 1.45648,
    "v": 2325
  },
  {
    "dt": "2022.07.29 03:00",
    "o": 1.45655,
    "h": 1.45747,
    "l": 1.45529,
    "c": 1.45703,
    "v": 3555
  },
  {
    "dt": "2022.07.29 04:00",
    "o": 1.45706,
    "h": 1.45814,
    "l": 1.45663,
    "c": 1.45694,
    "v": 3572
  },
  {
    "dt": "2022.07.29 05:00",
    "o": 1.45692,
    "h": 1.45761,
    "l": 1.45639,
    "c": 1.45647,
    "v": 2946
  },
  {
    "dt": "2022.07.29 06:00",
    "o": 1.4565,
    "h": 1.45828,
    "l": 1.4563,
    "c": 1.45734,
    "v": 3968
  },
  {
    "dt": "2022.07.29 07:00",
    "o": 1.45729,
    "h": 1.4582,
    "l": 1.45598,
    "c": 1.45765,
    "v": 2939
  },
  {
    "dt": "2022.07.29 08:00",
    "o": 1.45771,
    "h": 1.4583,
    "l": 1.45671,
    "c": 1.45726,
    "v": 3771
  },
  {
    "dt": "2022.07.29 09:00",
    "o": 1.45733,
    "h": 1.45935,
    "l": 1.45706,
    "c": 1.45917,
    "v": 5321
  },
  {
    "dt": "2022.07.29 10:00",
    "o": 1.45924,
    "h": 1.46052,
    "l": 1.45614,
    "c": 1.45715,
    "v": 5683
  },
  {
    "dt": "2022.07.29 11:00",
    "o": 1.45716,
    "h": 1.46123,
    "l": 1.4569,
    "c": 1.46074,
    "v": 5166
  },
  {
    "dt": "2022.07.29 12:00",
    "o": 1.46072,
    "h": 1.4622,
    "l": 1.45919,
    "c": 1.46073,
    "v": 4814
  },
  {
    "dt": "2022.07.29 13:00",
    "o": 1.46071,
    "h": 1.46485,
    "l": 1.46018,
    "c": 1.46438,
    "v": 4463
  },
  {
    "dt": "2022.07.29 14:00",
    "o": 1.46439,
    "h": 1.46503,
    "l": 1.4627,
    "c": 1.46429,
    "v": 4579
  },
  {
    "dt": "2022.07.29 15:00",
    "o": 1.46428,
    "h": 1.46619,
    "l": 1.46299,
    "c": 1.46428,
    "v": 5643
  },
  {
    "dt": "2022.07.29 16:00",
    "o": 1.46437,
    "h": 1.4684,
    "l": 1.4634,
    "c": 1.46765,
    "v": 5966
  },
  {
    "dt": "2022.07.29 17:00",
    "o": 1.46761,
    "h": 1.46809,
    "l": 1.46074,
    "c": 1.46141,
    "v": 6214
  },
  {
    "dt": "2022.07.29 18:00",
    "o": 1.46148,
    "h": 1.46343,
    "l": 1.46056,
    "c": 1.46062,
    "v": 5389
  },
  {
    "dt": "2022.07.29 19:00",
    "o": 1.46063,
    "h": 1.46194,
    "l": 1.45984,
    "c": 1.46125,
    "v": 3974
  },
  {
    "dt": "2022.07.29 20:00",
    "o": 1.46128,
    "h": 1.46355,
    "l": 1.4612,
    "c": 1.46315,
    "v": 2899
  },
  {
    "dt": "2022.07.29 21:00",
    "o": 1.46315,
    "h": 1.46351,
    "l": 1.46069,
    "c": 1.46081,
    "v": 2950
  },
  {
    "dt": "2022.07.29 22:00",
    "o": 1.46083,
    "h": 1.46291,
    "l": 1.46057,
    "c": 1.46279,
    "v": 2886
  },
  {
    "dt": "2022.07.29 23:00",
    "o": 1.46276,
    "h": 1.46375,
    "l": 1.46145,
    "c": 1.46341,
    "v": 1730
  }
]