[
  {
    "dt": "2021.01.04 00:00",
    "o": 1.07033,
    "h": 1.07082,
    "l": 1.06976,
    "c": 1.06988,
    "v": 232
  },
  {
    "dt": "2021.01.04 01:00",
    "o": 1.06988,
    "h": 1.07167,
    "l": 1.06988,
    "c": 1.07143,
    "v": 2382
  },
  {
    "dt": "2021.01.04 02:00",
    "o": 1.07143,
    "h": 1.07152,
    "l": 1.06935,
    "c": 1.07008,
    "v": 2409
  },
  {
    "dt": "2021.01.04 03:00",
    "o": 1.07008,
    "h": 1.07198,
    "l": 1.06993,
    "c": 1.07134,
    "v": 2926
  },
  {
    "dt": "2021.01.04 04:00",
    "o": 1.07129,
    "h": 1.07134,
    "l": 1.07058,
    "c": 1.07091,
    "v": 2741
  },
  {
    "dt": "2021.01.04 05:00",
    "o": 1.0709,
    "h": 1.0712,
    "l": 1.07056,
    "c": 1.0708,
    "v": 2010
  },
  {
    "dt": "2021.01.04 06:00",
    "o": 1.0708,
    "h": 1.07088,
    "l": 1.07025,
    "c": 1.07063,
    "v": 1609
  },
  {
    "dt": "2021.01.04 07:00",
    "o": 1.07063,
    "h": 1.07071,
    "l": 1.07005,
    "c": 1.07043,
    "v": 1968
  },
  {
    "dt": "2021.01.04 08:00",
    "o": 1.07045,
    "h": 1.07118,
    "l": 1.07039,
    "c": 1.0706,
    "v": 2223
  },
  {
    "dt": "2021.01.04 09:00",
    "o": 1.07058,
    "h": 1.07166,
    "l": 1.07021,
    "c": 1.07109,
    "v": 2470
  },
  {
    "dt": "2021.01.04 10:00",
    "o": 1.07109,
    "h": 1.07148,
    "l": 1.07023,
    "c": 1.07053,
    "v": 3226
  },
  {
    "dt": "2021.01.04 11:00",
    "o": 1.07052,
    "h": 1.07112,
    "l": 1.07007,
    "c": 1.07094,
    "v": 2556
  },
  {
    "dt": "2021.01.04 12:00",
    "o": 1.07095,
    "h": 1.07106,
    "l": 1.06946,
    "c": 1.07022,
    "v": 2424
  },
  {
    "dt": "2021.01.04 13:00",
    "o": 1.07018,
    "h": 1.07078,
    "l": 1.07002,
    "c": 1.07066,
    "v": 2372
  },
  {
    "dt": "2021.01.04 14:00",
    "o": 1.07066,
    "h": 1.07125,
    "l": 1.07023,
    "c": 1.07063,
    "v": 2799
  },
  {
    "dt": "2021.01.04 15:00",
    "o": 1.07061,
    "h": 1.0713,
    "l": 1.06987,
    "c": 1.06991,
    "v": 3437
  },
  {
    "dt": "2021.01.04 16:00",
    "o": 1.06989,
    "h": 1.07099,
    "l": 1.06975,
    "c": 1.07026,
    "v": 4005
  },
  {
    "dt": "2021.01.04 17:00",
    "o": 1.07024,
    "h": 1.0706,
    "l": 1.06829,
    "c": 1.06856,
    "v": 4368
  },
  {
    "dt": "2021.01.04 18:00",
    "o": 1.06856,
    "h": 1.06903,
    "l": 1.06788,
    "c": 1.06873,
    "v": 4088
  },
  {
    "dt": "2021.01.04 19:00",
    "o": 1.06875,
    "h": 1.06923,
    "l": 1.06802,
    "c": 1.06914,
    "v": 3935
  },
  {
    "dt": "2021.01.04 20:00",
    "o": 1.06919,
    "h": 1.06919,
    "l": 1.06806,
    "c": 1.06821,
    "v": 2481
  },
  {
    "dt": "2021.01.04 21:00",
    "o": 1.0682,
    "h": 1.0684,
    "l": 1.06774,
    "c": 1.06777,
    "v": 2553
  },
  {
    "dt": "2021.01.04 22:00",
    "o": 1.06776,
    "h": 1.06813,
    "l": 1.06686,
    "c": 1.06752,
    "v": 2950
  },
  {
    "dt": "2021.01.04 23:00",
    "o": 1.06754,
    "h": 1.06845,
    "l": 1.06736,
    "c": 1.06817,
    "v": 1197
  },
  {
    "dt": "2021.01.05 00:00",
    "o": 1.06775,
    "h": 1.06938,
    "l": 1.06759,
    "c": 1.06877,
    "v": 910
  },
  {
    "dt": "2021.01.05 01:00",
    "o": 1.06887,
    "h": 1.06959,
    "l": 1.06798,
    "c": 1.06828,
    "v": 1683
  },
  {
    "dt": "2021.01.05 02:00",
    "o": 1.06836,
    "h": 1.06907,
    "l": 1.06786,
    "c": 1.06907,
    "v": 1997
  },
  {
    "dt": "2021.01.05 03:00",
    "o": 1.06909,
    "h": 1.06994,
    "l": 1.06878,
    "c": 1.06921,
    "v": 2610
  },
  {
    "dt": "2021.01.05 04:00",
    "o": 1.06921,
    "h": 1.06971,
    "l": 1.06865,
    "c": 1.06866,
    "v": 2420
  },
  {
    "dt": "2021.01.05 05:00",
    "o": 1.06867,
    "h": 1.06935,
    "l": 1.06766,
    "c": 1.06783,
    "v": 2342
  },
  {
    "dt": "2021.01.05 06:00",
    "o": 1.06778,
    "h": 1.06807,
    "l": 1.06693,
    "c": 1.06777,
    "v": 2331
  },
  {
    "dt": "2021.01.05 07:00",
    "o": 1.06773,
    "h": 1.06829,
    "l": 1.06734,
    "c": 1.06818,
    "v": 2159
  },
  {
    "dt": "2021.01.05 08:00",
    "o": 1.06813,
    "h": 1.06909,
    "l": 1.06795,
    "c": 1.06899,
    "v": 2196
  },
  {
    "dt": "2021.01.05 09:00",
    "o": 1.06895,
    "h": 1.06987,
    "l": 1.06863,
    "c": 1.0687,
    "v": 3121
  },
  {
    "dt": "2021.01.05 10:00",
    "o": 1.06871,
    "h": 1.06962,
    "l": 1.06825,
    "c": 1.06866,
    "v": 3512
  },
  {
    "dt": "2021.01.05 11:00",
    "o": 1.06864,
    "h": 1.06974,
    "l": 1.06802,
    "c": 1.06947,
    "v": 2626
  },
  {
    "dt": "2021.01.05 12:00",
    "o": 1.06947,
    "h": 1.0702,
    "l": 1.06897,
    "c": 1.06973,
    "v": 2328
  },
  {
    "dt": "2021.01.05 13:00",
    "o": 1.06974,
    "h": 1.07039,
    "l": 1.06904,
    "c": 1.07035,
    "v": 2451
  },
  {
    "dt": "2021.01.05 14:00",
    "o": 1.07038,
    "h": 1.07053,
    "l": 1.06911,
    "c": 1.06922,
    "v": 3277
  },
  {
    "dt": "2021.01.05 15:00",
    "o": 1.06927,
    "h": 1.06981,
    "l": 1.06914,
    "c": 1.06936,
    "v": 3510
  },
  {
    "dt": "2021.01.05 16:00",
    "o": 1.06936,
    "h": 1.06998,
    "l": 1.06866,
    "c": 1.0688,
    "v": 3933
  },
  {
    "dt": "2021.01.05 17:00",
    "o": 1.06877,
    "h": 1.07014,
    "l": 1.06838,
    "c": 1.07002,
    "v": 4426
  },
  {
    "dt": "2021.01.05 18:00",
    "o": 1.07005,
    "h": 1.0708,
    "l": 1.06928,
    "c": 1.07033,
    "v": 3992
  },
  {
    "dt": "2021.01.05 19:00",
    "o": 1.07036,
    "h": 1.07043,
    "l": 1.06967,
    "c": 1.07018,
    "v": 3348
  },
  {
    "dt": "2021.01.05 20:00",
    "o": 1.07017,
    "h": 1.07048,
    "l": 1.06974,
    "c": 1.07047,
    "v": 2080
  },
  {
    "dt": "2021.01.05 21:00",
    "o": 1.07043,
    "h": 1.07181,
    "l": 1.07028,
    "c": 1.07131,
    "v": 1968
  },
  {
    "dt": "2021.01.05 22:00",
    "o": 1.07128,
    "h": 1.07175,
    "l": 1.07029,
    "c": 1.07052,
    "v": 1939
  },
  {
    "dt": "2021.01.05 23:00",
    "o": 1.07055,
    "h": 1.07069,
    "l": 1.06994,
    "c": 1.07011,
    "v": 1099
  },
  {
    "dt": "2021.01.06 00:00",
    "o": 1.06919,
    "h": 1.06997,
    "l": 1.06849,
    "c": 1.06914,
    "v": 608
  },
  {
    "dt": "2021.01.06 01:00",
    "o": 1.06958,
    "h": 1.07013,
    "l": 1.06899,
    "c": 1.06992,
    "v": 1528
  },
  {
    "dt": "2021.01.06 02:00",
    "o": 1.0699,
    "h": 1.07046,
    "l": 1.06954,
    "c": 1.07011,
    "v": 2685
  },
  {
    "dt": "2021.01.06 03:00",
    "o": 1.07008,
    "h": 1.07021,
    "l": 1.06892,
    "c": 1.06919,
    "v": 4024
  },
  {
    "dt": "2021.01.06 04:00",
    "o": 1.06922,
    "h": 1.06958,
    "l": 1.06838,
    "c": 1.06838,
    "v": 3151
  },
  {
    "dt": "2021.01.06 05:00",
    "o": 1.06834,
    "h": 1.06982,
    "l": 1.06813,
    "c": 1.06931,
    "v": 2967
  },
  {
    "dt": "2021.01.06 06:00",
    "o": 1.0693,
    "h": 1.07054,
    "l": 1.06914,
    "c": 1.06941,
    "v": 2952
  },
  {
    "dt": "2021.01.06 07:00",
    "o": 1.06944,
    "h": 1.07006,
    "l": 1.06918,
    "c": 1.06942,
    "v": 2077
  },
  {
    "dt": "2021.01.06 08:00",
    "o": 1.06941,
    "h": 1.07005,
    "l": 1.06936,
    "c": 1.06997,
    "v": 2563
  },
  {
    "dt": "2021.01.06 09:00",
    "o": 1.07,
    "h": 1.07042,
    "l": 1.06875,
    "c": 1.06875,
    "v": 3608
  },
  {
    "dt": "2021.01.06 10:00",
    "o": 1.06875,
    "h": 1.06908,
    "l": 1.06804,
    "c": 1.06832,
    "v": 3646
  },
  {
    "dt": "2021.01.06 11:00",
    "o": 1.06832,
    "h": 1.06933,
    "l": 1.06793,
    "c": 1.06859,
    "v": 3027
  },
  {
    "dt": "2021.01.06 12:00",
    "o": 1.06854,
    "h": 1.06983,
    "l": 1.06825,
    "c": 1.06889,
    "v": 2891
  },
  {
    "dt": "2021.01.06 13:00",
    "o": 1.0689,
    "h": 1.06933,
    "l": 1.06865,
    "c": 1.06916,
    "v": 2898
  },
  {
    "dt": "2021.01.06 14:00",
    "o": 1.06915,
    "h": 1.0696,
    "l": 1.06882,
    "c": 1.06899,
    "v": 3825
  },
  {
    "dt": "2021.01.06 15:00",
    "o": 1.06899,
    "h": 1.06927,
    "l": 1.06826,
    "c": 1.06881,
    "v": 4007
  },
  {
    "dt": "2021.01.06 16:00",
    "o": 1.06881,
    "h": 1.06965,
    "l": 1.06855,
    "c": 1.06895,
    "v": 4967
  },
  {
    "dt": "2021.01.06 17:00",
    "o": 1.06894,
    "h": 1.06957,
    "l": 1.06808,
    "c": 1.06927,
    "v": 5122
  },
  {
    "dt": "2021.01.06 18:00",
    "o": 1.06932,
    "h": 1.06971,
    "l": 1.06887,
    "c": 1.06934,
    "v": 4652
  },
  {
    "dt": "2021.01.06 19:00",
    "o": 1.06934,
    "h": 1.06947,
    "l": 1.06865,
    "c": 1.069,
    "v": 3800
  },
  {
    "dt": "2021.01.06 20:00",
    "o": 1.06902,
    "h": 1.07005,
    "l": 1.069,
    "c": 1.06975,
    "v": 2804
  },
  {
    "dt": "2021.01.06 21:00",
    "o": 1.0697,
    "h": 1.07034,
    "l": 1.06947,
    "c": 1.07,
    "v": 4246
  },
  {
    "dt": "2021.01.06 22:00",
    "o": 1.06995,
    "h": 1.07014,
    "l": 1.06921,
    "c": 1.06947,
    "v": 4501
  },
  {
    "dt": "2021.01.06 23:00",
    "o": 1.06949,
    "h": 1.07014,
    "l": 1.06903,
    "c": 1.06979,
    "v": 1848
  },
  {
    "dt": "2021.01.07 00:00",
    "o": 1.06903,
    "h": 1.07023,
    "l": 1.06879,
    "c": 1.07003,
    "v": 677
  },
  {
    "dt": "2021.01.07 01:00",
    "o": 1.07005,
    "h": 1.07016,
    "l": 1.06917,
    "c": 1.06982,
    "v": 1971
  },
  {
    "dt": "2021.01.07 02:00",
    "o": 1.06983,
    "h": 1.07008,
    "l": 1.06856,
    "c": 1.06881,
    "v": 2745
  },
  {
    "dt": "2021.01.07 03:00",
    "o": 1.06883,
    "h": 1.06993,
    "l": 1.0686,
    "c": 1.06943,
    "v": 2817
  },
  {
    "dt": "2021.01.07 04:00",
    "o": 1.06945,
    "h": 1.06958,
    "l": 1.06864,
    "c": 1.0688,
    "v": 2499
  },
  {
    "dt": "2021.01.07 05:00",
    "o": 1.0688,
    "h": 1.06913,
    "l": 1.06874,
    "c": 1.06896,
    "v": 1468
  },
  {
    "dt": "2021.01.07 06:00",
    "o": 1.06895,
    "h": 1.06924,
    "l": 1.06874,
    "c": 1.06892,
    "v": 1497
  },
  {
    "dt": "2021.01.07 07:00",
    "o": 1.06892,
    "h": 1.06957,
    "l": 1.06885,
    "c": 1.06894,
    "v": 1900
  },
  {
    "dt": "2021.01.07 08:00",
    "o": 1.06894,
    "h": 1.06956,
    "l": 1.0687,
    "c": 1.06954,
    "v": 2324
  },
  {
    "dt": "2021.01.07 09:00",
    "o": 1.06955,
    "h": 1.07002,
    "l": 1.06921,
    "c": 1.0693,
    "v": 2992
  },
  {
    "dt": "2021.01.07 10:00",
    "o": 1.06929,
    "h": 1.06929,
    "l": 1.06819,
    "c": 1.06854,
    "v": 3403
  },
  {
    "dt": "2021.01.07 11:00",
    "o": 1.06857,
    "h": 1.0689,
    "l": 1.06781,
    "c": 1.06823,
    "v": 3459
  },
  {
    "dt": "2021.01.07 12:00",
    "o": 1.06818,
    "h": 1.06852,
    "l": 1.06771,
    "c": 1.06786,
    "v": 3274
  },
  {
    "dt": "2021.01.07 13:00",
    "o": 1.06785,
    "h": 1.06816,
    "l": 1.06739,
    "c": 1.06799,
    "v": 2956
  },
  {
    "dt": "2021.01.07 14:00",
    "o": 1.06795,
    "h": 1.06822,
    "l": 1.0675,
    "c": 1.06781,
    "v": 3177
  },
  {
    "dt": "2021.01.07 15:00",
    "o": 1.06786,
    "h": 1.06894,
    "l": 1.06712,
    "c": 1.0688,
    "v": 3703
  },
  {
    "dt": "2021.01.07 16:00",
    "o": 1.06876,
    "h": 1.06995,
    "l": 1.06858,
    "c": 1.06925,
    "v": 4466
  },
  {
    "dt": "2021.01.07 17:00",
    "o": 1.06924,
    "h": 1.06996,
    "l": 1.0687,
    "c": 1.06992,
    "v": 4685
  },
  {
    "dt": "2021.01.07 18:00",
    "o": 1.06994,
    "h": 1.07003,
    "l": 1.06935,
    "c": 1.06984,
    "v": 3854
  },
  {
    "dt": "2021.01.07 19:00",
    "o": 1.0698,
    "h": 1.06983,
    "l": 1.06871,
    "c": 1.06902,
    "v": 3333
  },
  {
    "dt": "2021.01.07 20:00",
    "o": 1.06894,
    "h": 1.06932,
    "l": 1.06872,
    "c": 1.06891,
    "v": 2259
  },
  {
    "dt": "2021.01.07 21:00",
    "o": 1.0689,
    "h": 1.06944,
    "l": 1.06853,
    "c": 1.06867,
    "v": 2042
  },
  {
    "dt": "2021.01.07 22:00",
    "o": 1.06866,
    "h": 1.06973,
    "l": 1.06856,
    "c": 1.06964,
    "v": 2010
  },
  {
    "dt": "2021.01.07 23:00",
    "o": 1.06964,
    "h": 1.07016,
    "l": 1.06924,
    "c": 1.07013,
    "v": 1398
  },
  {
    "dt": "2021.01.08 00:00",
    "o": 1.07002,
    "h": 1.07047,
    "l": 1.06923,
    "c": 1.06961,
    "v": 389
  },
  {
    "dt": "2021.01.08 01:00",
    "o": 1.06955,
    "h": 1.07014,
    "l": 1.06907,
    "c": 1.06907,
    "v": 1283
  },
  {
    "dt": "2021.01.08 02:00",
    "o": 1.06911,
    "h": 1.06948,
    "l": 1.06868,
    "c": 1.0689,
    "v": 2217
  },
  {
    "dt": "2021.01.08 03:00",
    "o": 1.06893,
    "h": 1.06959,
    "l": 1.06865,
    "c": 1.06932,
    "v": 2831
  },
  {
    "dt": "2021.01.08 04:00",
    "o": 1.0693,
    "h": 1.06955,
    "l": 1.06885,
    "c": 1.06911,
    "v": 2529
  },
  {
    "dt": "2021.01.08 05:00",
    "o": 1.06912,
    "h": 1.06995,
    "l": 1.06899,
    "c": 1.06972,
    "v": 2253
  },
  {
    "dt": "2021.01.08 06:00",
    "o": 1.0697,
    "h": 1.06985,
    "l": 1.06908,
    "c": 1.06949,
    "v": 1887
  },
  {
    "dt": "2021.01.08 07:00",
    "o": 1.0695,
    "h": 1.0702,
    "l": 1.0695,
    "c": 1.06991,
    "v": 2159
  },
  {
    "dt": "2021.01.08 08:00",
    "o": 1.06991,
    "h": 1.07082,
    "l": 1.0698,
    "c": 1.07059,
    "v": 2026
  },
  {
    "dt": "2021.01.08 09:00",
    "o": 1.07058,
    "h": 1.07092,
    "l": 1.0702,
    "c": 1.07039,
    "v": 3179
  },
  {
    "dt": "2021.01.08 10:00",
    "o": 1.07038,
    "h": 1.07157,
    "l": 1.06979,
    "c": 1.07085,
    "v": 4275
  },
  {
    "dt": "2021.01.08 11:00",
    "o": 1.0708,
    "h": 1.07113,
    "l": 1.07001,
    "c": 1.07087,
    "v": 3387
  },
  {
    "dt": "2021.01.08 12:00",
    "o": 1.07086,
    "h": 1.07109,
    "l": 1.0704,
    "c": 1.07075,
    "v": 2606
  },
  {
    "dt": "2021.01.08 13:00",
    "o": 1.07078,
    "h": 1.07152,
    "l": 1.07052,
    "c": 1.07151,
    "v": 2873
  },
  {
    "dt": "2021.01.08 14:00",
    "o": 1.07155,
    "h": 1.07173,
    "l": 1.07118,
    "c": 1.07132,
    "v": 2794
  },
  {
    "dt": "2021.01.08 15:00",
    "o": 1.0713,
    "h": 1.07151,
    "l": 1.0701,
    "c": 1.07039,
    "v": 4559
  },
  {
    "dt": "2021.01.08 16:00",
    "o": 1.0704,
    "h": 1.07144,
    "l": 1.07029,
    "c": 1.07101,
    "v": 5136
  },
  {
    "dt": "2021.01.08 17:00",
    "o": 1.07099,
    "h": 1.07263,
    "l": 1.07084,
    "c": 1.07259,
    "v": 4901
  },
  {
    "dt": "2021.01.08 18:00",
    "o": 1.07258,
    "h": 1.07259,
    "l": 1.07175,
    "c": 1.07238,
    "v": 4951
  },
  {
    "dt": "2021.01.08 19:00",
    "o": 1.07234,
    "h": 1.07314,
    "l": 1.07218,
    "c": 1.07245,
    "v": 3777
  },
  {
    "dt": "2021.01.08 20:00",
    "o": 1.07244,
    "h": 1.07318,
    "l": 1.07183,
    "c": 1.07205,
    "v": 4137
  },
  {
    "dt": "2021.01.08 21:00",
    "o": 1.07207,
    "h": 1.07282,
    "l": 1.07192,
    "c": 1.07255,
    "v": 3446
  },
  {
    "dt": "2021.01.08 22:00",
    "o": 1.07255,
    "h": 1.07271,
    "l": 1.07176,
    "c": 1.07255,
    "v": 2730
  },
  {
    "dt": "2021.01.08 23:00",
    "o": 1.07253,
    "h": 1.07329,
    "l": 1.07235,
    "c": 1.07286,
    "v": 1813
  },
  {
    "dt": "2021.01.11 00:00",
    "o": 1.07117,
    "h": 1.07361,
    "l": 1.07117,
    "c": 1.07334,
    "v": 384
  },
  {
    "dt": "2021.01.11 01:00",
    "o": 1.07326,
    "h": 1.07357,
    "l": 1.07153,
    "c": 1.07202,
    "v": 2562
  },
  {
    "dt": "2021.01.11 02:00",
    "o": 1.072,
    "h": 1.07266,
    "l": 1.07183,
    "c": 1.07187,
    "v": 2265
  },
  {
    "dt": "2021.01.11 03:00",
    "o": 1.07187,
    "h": 1.07216,
    "l": 1.07136,
    "c": 1.07151,
    "v": 3004
  },
  {
    "dt": "2021.01.11 04:00",
    "o": 1.07159,
    "h": 1.0717,
    "l": 1.07077,
    "c": 1.07149,
    "v": 3004
  },
  {
    "dt": "2021.01.11 05:00",
    "o": 1.07149,
    "h": 1.07162,
    "l": 1.0711,
    "c": 1.0711,
    "v": 2666
  },
  {
    "dt": "2021.01.11 06:00",
    "o": 1.0711,
    "h": 1.0712,
    "l": 1.07038,
    "c": 1.07056,
    "v": 2129
  },
  {
    "dt": "2021.01.11 07:00",
    "o": 1.0706,
    "h": 1.07109,
    "l": 1.07041,
    "c": 1.07098,
    "v": 2793
  },
  {
    "dt": "2021.01.11 08:00",
    "o": 1.07093,
    "h": 1.07135,
    "l": 1.07073,
    "c": 1.07101,
    "v": 2657
  },
  {
    "dt": "2021.01.11 09:00",
    "o": 1.07097,
    "h": 1.07136,
    "l": 1.07083,
    "c": 1.07125,
    "v": 3268
  },
  {
    "dt": "2021.01.11 10:00",
    "o": 1.07125,
    "h": 1.07214,
    "l": 1.0711,
    "c": 1.07164,
    "v": 3563
  },
  {
    "dt": "2021.01.11 11:00",
    "o": 1.07165,
    "h": 1.07316,
    "l": 1.07134,
    "c": 1.07288,
    "v": 3200
  },
  {
    "dt": "2021.01.11 12:00",
    "o": 1.07284,
    "h": 1.0734,
    "l": 1.07245,
    "c": 1.07271,
    "v": 2827
  },
  {
    "dt": "2021.01.11 13:00",
    "o": 1.07272,
    "h": 1.07287,
    "l": 1.0719,
    "c": 1.07215,
    "v": 2427
  },
  {
    "dt": "2021.01.11 14:00",
    "o": 1.07214,
    "h": 1.07229,
    "l": 1.07147,
    "c": 1.07159,
    "v": 3099
  },
  {
    "dt": "2021.01.11 15:00",
    "o": 1.07157,
    "h": 1.07199,
    "l": 1.0712,
    "c": 1.0714,
    "v": 4077
  },
  {
    "dt": "2021.01.11 16:00",
    "o": 1.07138,
    "h": 1.07299,
    "l": 1.07111,
    "c": 1.0723,
    "v": 4856
  },
  {
    "dt": "2021.01.11 17:00",
    "o": 1.0723,
    "h": 1.07352,
    "l": 1.07212,
    "c": 1.07313,
    "v": 4570
  },
  {
    "dt": "2021.01.11 18:00",
    "o": 1.07312,
    "h": 1.07389,
    "l": 1.0725,
    "c": 1.07325,
    "v": 4112
  },
  {
    "dt": "2021.01.11 19:00",
    "o": 1.07327,
    "h": 1.07386,
    "l": 1.07304,
    "c": 1.07358,
    "v": 3436
  },
  {
    "dt": "2021.01.11 20:00",
    "o": 1.07359,
    "h": 1.07391,
    "l": 1.07314,
    "c": 1.07384,
    "v": 2260
  },
  {
    "dt": "2021.01.11 21:00",
    "o": 1.07384,
    "h": 1.07423,
    "l": 1.07354,
    "c": 1.07417,
    "v": 2271
  },
  {
    "dt": "2021.01.11 22:00",
    "o": 1.0741,
    "h": 1.0745,
    "l": 1.07399,
    "c": 1.07423,
    "v": 2526
  },
  {
    "dt": "2021.01.11 23:00",
    "o": 1.07423,
    "h": 1.07459,
    "l": 1.07398,
    "c": 1.07449,
    "v": 1007
  },
  {
    "dt": "2021.01.12 00:00",
    "o": 1.07411,
    "h": 1.07443,
    "l": 1.07344,
    "c": 1.07408,
    "v": 406
  },
  {
    "dt": "2021.01.12 01:00",
    "o": 1.07398,
    "h": 1.07453,
    "l": 1.07374,
    "c": 1.07428,
    "v": 1477
  },
  {
    "dt": "2021.01.12 02:00",
    "o": 1.07427,
    "h": 1.07445,
    "l": 1.07379,
    "c": 1.07404,
    "v": 1930
  },
  {
    "dt": "2021.01.12 03:00",
    "o": 1.07406,
    "h": 1.07481,
    "l": 1.07387,
    "c": 1.07451,
    "v": 2892
  },
  {
    "dt": "2021.01.12 04:00",
    "o": 1.0745,
    "h": 1.07461,
    "l": 1.07399,
    "c": 1.07412,
    "v": 2089
  },
  {
    "dt": "2021.01.12 05:00",
    "o": 1.0741,
    "h": 1.07461,
    "l": 1.07374,
    "c": 1.07374,
    "v": 1790
  },
  {
    "dt": "2021.01.12 06:00",
    "o": 1.07377,
    "h": 1.07411,
    "l": 1.07322,
    "c": 1.0736,
    "v": 1820
  },
  {
    "dt": "2021.01.12 07:00",
    "o": 1.07358,
    "h": 1.07409,
    "l": 1.07325,
    "c": 1.07384,
    "v": 1952
  },
  {
    "dt": "2021.01.12 08:00",
    "o": 1.07384,
    "h": 1.07458,
    "l": 1.07357,
    "c": 1.074,
    "v": 1972
  },
  {
    "dt": "2021.01.12 09:00",
    "o": 1.07404,
    "h": 1.07458,
    "l": 1.07352,
    "c": 1.07447,
    "v": 2730
  },
  {
    "dt": "2021.01.12 10:00",
    "o": 1.07447,
    "h": 1.07624,
    "l": 1.07447,
    "c": 1.07518,
    "v": 3015
  },
  {
    "dt": "2021.01.12 11:00",
    "o": 1.07518,
    "h": 1.07636,
    "l": 1.07501,
    "c": 1.0761,
    "v": 3158
  },
  {
    "dt": "2021.01.12 12:00",
    "o": 1.07614,
    "h": 1.07614,
    "l": 1.07465,
    "c": 1.07595,
    "v": 2540
  },
  {
    "dt": "2021.01.12 13:00",
    "o": 1.07595,
    "h": 1.07635,
    "l": 1.07567,
    "c": 1.07632,
    "v": 2598
  },
  {
    "dt": "2021.01.12 14:00",
    "o": 1.07629,
    "h": 1.07679,
    "l": 1.0759,
    "c": 1.07628,
    "v": 3029
  },
  {
    "dt": "2021.01.12 15:00",
    "o": 1.07631,
    "h": 1.07644,
    "l": 1.07477,
    "c": 1.07505,
    "v": 3530
  },
  {
    "dt": "2021.01.12 16:00",
    "o": 1.07512,
    "h": 1.07605,
    "l": 1.07492,
    "c": 1.07564,
    "v": 4144
  },
  {
    "dt": "2021.01.12 17:00",
    "o": 1.07564,
    "h": 1.0766,
    "l": 1.07527,
    "c": 1.0766,
    "v": 3872
  },
  {
    "dt": "2021.01.12 18:00",
    "o": 1.07659,
    "h": 1.07659,
    "l": 1.07545,
    "c": 1.0756,
    "v": 3469
  },
  {
    "dt": "2021.01.12 19:00",
    "o": 1.07565,
    "h": 1.07589,
    "l": 1.07496,
    "c": 1.07525,
    "v": 3491
  },
  {
    "dt": "2021.01.12 20:00",
    "o": 1.07514,
    "h": 1.07687,
    "l": 1.07497,
    "c": 1.07679,
    "v": 2865
  },
  {
    "dt": "2021.01.12 21:00",
    "o": 1.07678,
    "h": 1.07749,
    "l": 1.07611,
    "c": 1.07626,
    "v": 3057
  },
  {
    "dt": "2021.01.12 22:00",
    "o": 1.07626,
    "h": 1.07658,
    "l": 1.07529,
    "c": 1.07574,
    "v": 2478
  },
  {
    "dt": "2021.01.12 23:00",
    "o": 1.07574,
    "h": 1.07587,
    "l": 1.07513,
    "c": 1.07553,
    "v": 1304
  },
  {
    "dt": "2021.01.13 00:00",
    "o": 1.07538,
    "h": 1.07575,
    "l": 1.07482,
    "c": 1.07519,
    "v": 490
  },
  {
    "dt": "2021.01.13 01:00",
    "o": 1.07533,
    "h": 1.07561,
    "l": 1.07467,
    "c": 1.07553,
    "v": 1173
  },
  {
    "dt": "2021.01.13 02:00",
    "o": 1.07554,
    "h": 1.07592,
    "l": 1.07489,
    "c": 1.07495,
    "v": 1679
  },
  {
    "dt": "2021.01.13 03:00",
    "o": 1.07493,
    "h": 1.07508,
    "l": 1.07381,
    "c": 1.0743,
    "v": 2078
  },
  {
    "dt": "2021.01.13 04:00",
    "o": 1.07432,
    "h": 1.07479,
    "l": 1.0735,
    "c": 1.07396,
    "v": 1656
  },
  {
    "dt": "2021.01.13 05:00",
    "o": 1.07396,
    "h": 1.07414,
    "l": 1.07357,
    "c": 1.07413,
    "v": 1636
  },
  {
    "dt": "2021.01.13 06:00",
    "o": 1.07412,
    "h": 1.07448,
    "l": 1.07379,
    "c": 1.07419,
    "v": 1534
  },
  {
    "dt": "2021.01.13 07:00",
    "o": 1.07419,
    "h": 1.07467,
    "l": 1.07414,
    "c": 1.07446,
    "v": 1576
  },
  {
    "dt": "2021.01.13 08:00",
    "o": 1.07444,
    "h": 1.0752,
    "l": 1.07434,
    "c": 1.07518,
    "v": 1559
  },
  {
    "dt": "2021.01.13 09:00",
    "o": 1.07512,
    "h": 1.07558,
    "l": 1.07446,
    "c": 1.0752,
    "v": 2436
  },
  {
    "dt": "2021.01.13 10:00",
    "o": 1.07516,
    "h": 1.0765,
    "l": 1.07497,
    "c": 1.0757,
    "v": 3323
  },
  {
    "dt": "2021.01.13 11:00",
    "o": 1.0757,
    "h": 1.07659,
    "l": 1.07511,
    "c": 1.07652,
    "v": 2753
  },
  {
    "dt": "2021.01.13 12:00",
    "o": 1.07651,
    "h": 1.07767,
    "l": 1.07644,
    "c": 1.07741,
    "v": 2691
  },
  {
    "dt": "2021.01.13 13:00",
    "o": 1.0774,
    "h": 1.07753,
    "l": 1.07694,
    "c": 1.0774,
    "v": 2147
  },
  {
    "dt": "2021.01.13 14:00",
    "o": 1.07744,
    "h": 1.07762,
    "l": 1.07697,
    "c": 1.07721,
    "v": 2887
  },
  {
    "dt": "2021.01.13 15:00",
    "o": 1.07719,
    "h": 1.07754,
    "l": 1.07682,
    "c": 1.07698,
    "v": 3358
  },
  {
    "dt": "2021.01.13 16:00",
    "o": 1.07699,
    "h": 1.07763,
    "l": 1.07675,
    "c": 1.07745,
    "v": 3846
  },
  {
    "dt": "2021.01.13 17:00",
    "o": 1.07745,
    "h": 1.07823,
    "l": 1.0768,
    "c": 1.07705,
    "v": 4045
  },
  {
    "dt": "2021.01.13 18:00",
    "o": 1.07704,
    "h": 1.07718,
    "l": 1.07635,
    "c": 1.07656,
    "v": 3291
  },
  {
    "dt": "2021.01.13 19:00",
    "o": 1.07657,
    "h": 1.07674,
    "l": 1.07591,
    "c": 1.07643,
    "v": 3085
  },
  {
    "dt": "2021.01.13 20:00",
    "o": 1.07647,
    "h": 1.07697,
    "l": 1.07511,
    "c": 1.07681,
    "v": 2457
  },
  {
    "dt": "2021.01.13 21:00",
    "o": 1.07682,
    "h": 1.07759,
    "l": 1.07671,
    "c": 1.07704,
    "v": 2017
  },
  {
    "dt": "2021.01.13 22:00",
    "o": 1.07709,
    "h": 1.07786,
    "l": 1.07696,
    "c": 1.07755,
    "v": 1938
  },
  {
    "dt": "2021.01.13 23:00",
    "o": 1.07755,
    "h": 1.07779,
    "l": 1.07651,
    "c": 1.07677,
    "v": 1142
  },
  {
    "dt": "2021.01.14 00:00",
    "o": 1.07714,
    "h": 1.07724,
    "l": 1.07604,
    "c": 1.07685,
    "v": 355
  },
  {
    "dt": "2021.01.14 01:00",
    "o": 1.07687,
    "h": 1.07769,
    "l": 1.07665,
    "c": 1.07724,
    "v": 1096
  },
  {
    "dt": "2021.01.14 02:00",
    "o": 1.07726,
    "h": 1.07749,
    "l": 1.07691,
    "c": 1.07702,
    "v": 1500
  },
  {
    "dt": "2021.01.14 03:00",
    "o": 1.07705,
    "h": 1.07777,
    "l": 1.07705,
    "c": 1.07759,
    "v": 1684
  },
  {
    "dt": "2021.01.14 04:00",
    "o": 1.07763,
    "h": 1.07804,
    "l": 1.07641,
    "c": 1.07651,
    "v": 2458
  },
  {
    "dt": "2021.01.14 05:00",
    "o": 1.0765,
    "h": 1.07723,
    "l": 1.0765,
    "c": 1.0766,
    "v": 1611
  },
  {
    "dt": "2021.01.14 06:00",
    "o": 1.07661,
    "h": 1.07698,
    "l": 1.07606,
    "c": 1.07679,
    "v": 1334
  },
  {
    "dt": "2021.01.14 07:00",
    "o": 1.07679,
    "h": 1.07763,
    "l": 1.07655,
    "c": 1.07675,
    "v": 2012
  },
  {
    "dt": "2021.01.14 08:00",
    "o": 1.07675,
    "h": 1.07747,
    "l": 1.07646,
    "c": 1.07705,
    "v": 1588
  },
  {
    "dt": "2021.01.14 09:00",
    "o": 1.07704,
    "h": 1.0781,
    "l": 1.07675,
    "c": 1.07791,
    "v": 2528
  },
  {
    "dt": "2021.01.14 10:00",
    "o": 1.07792,
    "h": 1.07843,
    "l": 1.07754,
    "c": 1.07828,
    "v": 3451
  },
  {
    "dt": "2021.01.14 11:00",
    "o": 1.07829,
    "h": 1.07866,
    "l": 1.07795,
    "c": 1.07864,
    "v": 2219
  },
  {
    "dt": "2021.01.14 12:00",
    "o": 1.07864,
    "h": 1.07944,
    "l": 1.0786,
    "c": 1.07889,
    "v": 2315
  },
  {
    "dt": "2021.01.14 13:00",
    "o": 1.0789,
    "h": 1.07902,
    "l": 1.07755,
    "c": 1.07766,
    "v": 2173
  },
  {
    "dt": "2021.01.14 14:00",
    "o": 1.07766,
    "h": 1.07792,
    "l": 1.07717,
    "c": 1.07743,
    "v": 2683
  },
  {
    "dt": "2021.01.14 15:00",
    "o": 1.07742,
    "h": 1.07784,
    "l": 1.07708,
    "c": 1.07775,
    "v": 3761
  },
  {
    "dt": "2021.01.14 16:00",
    "o": 1.07775,
    "h": 1.0784,
    "l": 1.07733,
    "c": 1.07827,
    "v": 3781
  },
  {
    "dt": "2021.01.14 17:00",
    "o": 1.07825,
    "h": 1.07885,
    "l": 1.07788,
    "c": 1.07845,
    "v": 3828
  },
  {
    "dt": "2021.01.14 18:00",
    "o": 1.0785,
    "h": 1.07892,
    "l": 1.07798,
    "c": 1.07808,
    "v": 3311
  },
  {
    "dt": "2021.01.14 19:00",
    "o": 1.07808,
    "h": 1.07837,
    "l": 1.07773,
    "c": 1.07798,
    "v": 3196
  },
  {
    "dt": "2021.01.14 20:00",
    "o": 1.07795,
    "h": 1.07813,
    "l": 1.07719,
    "c": 1.07788,
    "v": 3467
  },
  {
    "dt": "2021.01.14 21:00",
    "o": 1.07788,
    "h": 1.07826,
    "l": 1.07709,
    "c": 1.07737,
    "v": 2164
  },
  {
    "dt": "2021.01.14 22:00",
    "o": 1.07737,
    "h": 1.07749,
    "l": 1.07663,
    "c": 1.0768,
    "v": 2241
  },
  {
    "dt": "2021.01.14 23:00",
    "o": 1.07681,
    "h": 1.07699,
    "l": 1.07627,
    "c": 1.07665,
    "v": 1317
  },
  {
    "dt": "2021.01.15 00:00",
    "o": 1.07694,
    "h": 1.07801,
    "l": 1.07649,
    "c": 1.07704,
    "v": 585
  },
  {
    "dt": "2021.01.15 01:00",
    "o": 1.07716,
    "h": 1.07755,
    "l": 1.07683,
    "c": 1.07728,
    "v": 1275
  },
  {
    "dt": "2021.01.15 02:00",
    "o": 1.07726,
    "h": 1.07752,
    "l": 1.07693,
    "c": 1.07721,
    "v": 1971
  },
  {
    "dt": "2021.01.15 03:00",
    "o": 1.07721,
    "h": 1.07783,
    "l": 1.07696,
    "c": 1.07737,
    "v": 2127
  },
  {
    "dt": "2021.01.15 04:00",
    "o": 1.07738,
    "h": 1.07801,
    "l": 1.07738,
    "c": 1.07784,
    "v": 1910
  },
  {
    "dt": "2021.01.15 05:00",
    "o": 1.07789,
    "h": 1.07824,
    "l": 1.07762,
    "c": 1.07799,
    "v": 1739
  },
  {
    "dt": "2021.01.15 06:00",
    "o": 1.07803,
    "h": 1.07837,
    "l": 1.0775,
    "c": 1.07801,
    "v": 1833
  },
  {
    "dt": "2021.01.15 07:00",
    "o": 1.07802,
    "h": 1.07821,
    "l": 1.07721,
    "c": 1.07737,
    "v": 1952
  },
  {
    "dt": "2021.01.15 08:00",
    "o": 1.07738,
    "h": 1.07772,
    "l": 1.07656,
    "c": 1.0768,
    "v": 2131
  },
  {
    "dt": "2021.01.15 09:00",
    "o": 1.07679,
    "h": 1.07708,
    "l": 1.07649,
    "c": 1.07674,
    "v": 2770
  },
  {
    "dt": "2021.01.15 10:00",
    "o": 1.07674,
    "h": 1.07765,
    "l": 1.07664,
    "c": 1.07719,
    "v": 3381
  },
  {
    "dt": "2021.01.15 11:00",
    "o": 1.07722,
    "h": 1.07747,
    "l": 1.0768,
    "c": 1.07695,
    "v": 2451
  },
  {
    "dt": "2021.01.15 12:00",
    "o": 1.07696,
    "h": 1.07756,
    "l": 1.07687,
    "c": 1.07731,
    "v": 2149
  },
  {
    "dt": "2021.01.15 13:00",
    "o": 1.07731,
    "h": 1.07791,
    "l": 1.07713,
    "c": 1.07786,
    "v": 2486
  },
  {
    "dt": "2021.01.15 14:00",
    "o": 1.07785,
    "h": 1.07804,
    "l": 1.07736,
    "c": 1.07764,
    "v": 3361
  },
  {
    "dt": "2021.01.15 15:00",
    "o": 1.07766,
    "h": 1.07793,
    "l": 1.07714,
    "c": 1.0776,
    "v": 3340
  },
  {
    "dt": "2021.01.15 16:00",
    "o": 1.07758,
    "h": 1.0785,
    "l": 1.07659,
    "c": 1.07835,
    "v": 4070
  },
  {
    "dt": "2021.01.15 17:00",
    "o": 1.0783,
    "h": 1.07932,
    "l": 1.07741,
    "c": 1.07901,
    "v": 5092
  },
  {
    "dt": "2021.01.15 18:00",
    "o": 1.07904,
    "h": 1.07939,
    "l": 1.0783,
    "c": 1.07869,
    "v": 4169
  },
  {
    "dt": "2021.01.15 19:00",
    "o": 1.07871,
    "h": 1.07955,
    "l": 1.07856,
    "c": 1.07932,
    "v": 2874
  },
  {
    "dt": "2021.01.15 20:00",
    "o": 1.07931,
    "h": 1.07976,
    "l": 1.07917,
    "c": 1.07945,
    "v": 2473
  },
  {
    "dt": "2021.01.15 21:00",
    "o": 1.07941,
    "h": 1.07976,
    "l": 1.07903,
    "c": 1.07937,
    "v": 2008
  },
  {
    "dt": "2021.01.15 22:00",
    "o": 1.07936,
    "h": 1.07985,
    "l": 1.07908,
    "c": 1.07984,
    "v": 2164
  },
  {
    "dt": "2021.01.15 23:00",
    "o": 1.0798,
    "h": 1.08035,
    "l": 1.07967,
    "c": 1.07995,
    "v": 1461
  },
  {
    "dt": "2021.01.18 00:00",
    "o": 1.07908,
    "h": 1.07956,
    "l": 1.07887,
    "c": 1.0793,
    "v": 273
  },
  {
    "dt": "2021.01.18 01:00",
    "o": 1.07935,
    "h": 1.08009,
    "l": 1.07916,
    "c": 1.07929,
    "v": 1965
  },
  {
    "dt": "2021.01.18 02:00",
    "o": 1.07937,
    "h": 1.07966,
    "l": 1.07854,
    "c": 1.07962,
    "v": 2282
  },
  {
    "dt": "2021.01.18 03:00",
    "o": 1.0796,
    "h": 1.0805,
    "l": 1.07924,
    "c": 1.08006,
    "v": 3172
  },
  {
    "dt": "2021.01.18 04:00",
    "o": 1.08007,
    "h": 1.08031,
    "l": 1.07907,
    "c": 1.07916,
    "v": 2625
  },
  {
    "dt": "2021.01.18 05:00",
    "o": 1.07916,
    "h": 1.07966,
    "l": 1.07874,
    "c": 1.07914,
    "v": 2111
  },
  {
    "dt": "2021.01.18 06:00",
    "o": 1.07915,
    "h": 1.07915,
    "l": 1.07833,
    "c": 1.07881,
    "v": 1731
  },
  {
    "dt": "2021.01.18 07:00",
    "o": 1.0788,
    "h": 1.07906,
    "l": 1.07846,
    "c": 1.07905,
    "v": 2329
  },
  {
    "dt": "2021.01.18 08:00",
    "o": 1.07903,
    "h": 1.07925,
    "l": 1.07854,
    "c": 1.07916,
    "v": 1744
  },
  {
    "dt": "2021.01.18 09:00",
    "o": 1.07917,
    "h": 1.08035,
    "l": 1.07902,
    "c": 1.08011,
    "v": 2477
  },
  {
    "dt": "2021.01.18 10:00",
    "o": 1.08011,
    "h": 1.08068,
    "l": 1.07985,
    "c": 1.0799,
    "v": 3385
  },
  {
    "dt": "2021.01.18 11:00",
    "o": 1.07989,
    "h": 1.07994,
    "l": 1.07867,
    "c": 1.07886,
    "v": 2790
  },
  {
    "dt": "2021.01.18 12:00",
    "o": 1.07886,
    "h": 1.07945,
    "l": 1.07883,
    "c": 1.07922,
    "v": 2079
  },
  {
    "dt": "2021.01.18 13:00",
    "o": 1.07923,
    "h": 1.07945,
    "l": 1.07891,
    "c": 1.07927,
    "v": 2164
  },
  {
    "dt": "2021.01.18 14:00",
    "o": 1.07929,
    "h": 1.07978,
    "l": 1.07912,
    "c": 1.07968,
    "v": 2419
  },
  {
    "dt": "2021.01.18 15:00",
    "o": 1.07969,
    "h": 1.08036,
    "l": 1.07945,
    "c": 1.08026,
    "v": 2683
  },
  {
    "dt": "2021.01.18 16:00",
    "o": 1.08027,
    "h": 1.08051,
    "l": 1.07998,
    "c": 1.08014,
    "v": 2999
  },
  {
    "dt": "2021.01.18 17:00",
    "o": 1.08013,
    "h": 1.08021,
    "l": 1.07957,
    "c": 1.07988,
    "v": 2537
  },
  {
    "dt": "2021.01.18 18:00",
    "o": 1.07989,
    "h": 1.08065,
    "l": 1.07968,
    "c": 1.08064,
    "v": 2009
  },
  {
    "dt": "2021.01.18 19:00",
    "o": 1.08065,
    "h": 1.08077,
    "l": 1.08023,
    "c": 1.08041,
    "v": 1196
  },
  {
    "dt": "2021.01.18 20:00",
    "o": 1.08043,
    "h": 1.08054,
    "l": 1.07978,
    "c": 1.07991,
    "v": 704
  },
  {
    "dt": "2021.01.18 21:00",
    "o": 1.07991,
    "h": 1.08068,
    "l": 1.07981,
    "c": 1.08013,
    "v": 446
  },
  {
    "dt": "2021.01.18 22:00",
    "o": 1.08014,
    "h": 1.08036,
    "l": 1.07944,
    "c": 1.07999,
    "v": 1055
  },
  {
    "dt": "2021.01.18 23:00",
    "o": 1.08,
    "h": 1.08006,
    "l": 1.079,
    "c": 1.0795,
    "v": 695
  },
  {
    "dt": "2021.01.19 00:00",
    "o": 1.07959,
    "h": 1.08005,
    "l": 1.07855,
    "c": 1.07943,
    "v": 637
  },
  {
    "dt": "2021.01.19 01:00",
    "o": 1.07934,
    "h": 1.08073,
    "l": 1.0792,
    "c": 1.07988,
    "v": 1174
  },
  {
    "dt": "2021.01.19 02:00",
    "o": 1.07987,
    "h": 1.08073,
    "l": 1.07979,
    "c": 1.07987,
    "v": 1799
  },
  {
    "dt": "2021.01.19 03:00",
    "o": 1.07988,
    "h": 1.08031,
    "l": 1.0793,
    "c": 1.08017,
    "v": 2218
  },
  {
    "dt": "2021.01.19 04:00",
    "o": 1.08018,
    "h": 1.08051,
    "l": 1.07966,
    "c": 1.08034,
    "v": 1943
  },
  {
    "dt": "2021.01.19 05:00",
    "o": 1.08037,
    "h": 1.08105,
    "l": 1.07998,
    "c": 1.08089,
    "v": 2103
  },
  {
    "dt": "2021.01.19 06:00",
    "o": 1.08089,
    "h": 1.08147,
    "l": 1.08069,
    "c": 1.08132,
    "v": 1356
  },
  {
    "dt": "2021.01.19 07:00",
    "o": 1.08135,
    "h": 1.08136,
    "l": 1.08039,
    "c": 1.08049,
    "v": 1874
  },
  {
    "dt": "2021.01.19 08:00",
    "o": 1.08044,
    "h": 1.0811,
    "l": 1.08036,
    "c": 1.08105,
    "v": 1824
  },
  {
    "dt": "2021.01.19 09:00",
    "o": 1.08105,
    "h": 1.0818,
    "l": 1.08091,
    "c": 1.08166,
    "v": 2549
  },
  {
    "dt": "2021.01.19 10:00",
    "o": 1.08168,
    "h": 1.0821,
    "l": 1.08114,
    "c": 1.08174,
    "v": 3040
  },
  {
    "dt": "2021.01.19 11:00",
    "o": 1.08175,
    "h": 1.08243,
    "l": 1.0813,
    "c": 1.08219,
    "v": 2419
  },
  {
    "dt": "2021.01.19 12:00",
    "o": 1.08218,
    "h": 1.08245,
    "l": 1.08192,
    "c": 1.08228,
    "v": 2401
  },
  {
    "dt": "2021.01.19 13:00",
    "o": 1.08227,
    "h": 1.08267,
    "l": 1.08203,
    "c": 1.08237,
    "v": 2138
  },
  {
    "dt": "2021.01.19 14:00",
    "o": 1.08236,
    "h": 1.08274,
    "l": 1.08208,
    "c": 1.08231,
    "v": 2559
  },
  {
    "dt": "2021.01.19 15:00",
    "o": 1.08235,
    "h": 1.08257,
    "l": 1.08205,
    "c": 1.08241,
    "v": 3107
  },
  {
    "dt": "2021.01.19 16:00",
    "o": 1.08245,
    "h": 1.08411,
    "l": 1.08232,
    "c": 1.0839,
    "v": 3897
  },
  {
    "dt": "2021.01.19 17:00",
    "o": 1.08391,
    "h": 1.08409,
    "l": 1.0823,
    "c": 1.08264,
    "v": 4065
  },
  {
    "dt": "2021.01.19 18:00",
    "o": 1.08261,
    "h": 1.0831,
    "l": 1.08187,
    "c": 1.08241,
    "v": 3516
  },
  {
    "dt": "2021.01.19 19:00",
    "o": 1.08241,
    "h": 1.0825,
    "l": 1.08154,
    "c": 1.08174,
    "v": 2766
  },
  {
    "dt": "2021.01.19 20:00",
    "o": 1.08172,
    "h": 1.08216,
    "l": 1.08153,
    "c": 1.08175,
    "v": 2063
  },
  {
    "dt": "2021.01.19 21:00",
    "o": 1.08175,
    "h": 1.08194,
    "l": 1.08118,
    "c": 1.08148,
    "v": 1912
  },
  {
    "dt": "2021.01.19 22:00",
    "o": 1.08145,
    "h": 1.0815,
    "l": 1.08118,
    "c": 1.08138,
    "v": 1770
  },
  {
    "dt": "2021.01.19 23:00",
    "o": 1.08138,
    "h": 1.08154,
    "l": 1.0811,
    "c": 1.08117,
    "v": 874
  },
  {
    "dt": "2021.01.20 00:00",
    "o": 1.08058,
    "h": 1.081,
    "l": 1.08023,
    "c": 1.08069,
    "v": 393
  },
  {
    "dt": "2021.01.20 01:00",
    "o": 1.08066,
    "h": 1.08182,
    "l": 1.08063,
    "c": 1.08178,
    "v": 1429
  },
  {
    "dt": "2021.01.20 02:00",
    "o": 1.08174,
    "h": 1.0824,
    "l": 1.08139,
    "c": 1.08233,
    "v": 2082
  },
  {
    "dt": "2021.01.20 03:00",
    "o": 1.08232,
    "h": 1.08253,
    "l": 1.08172,
    "c": 1.08241,
    "v": 2203
  },
  {
    "dt": "2021.01.20 04:00",
    "o": 1.08248,
    "h": 1.08296,
    "l": 1.08239,
    "c": 1.0827,
    "v": 1730
  },
  {
    "dt": "2021.01.20 05:00",
    "o": 1.08274,
    "h": 1.08293,
    "l": 1.08233,
    "c": 1.08261,
    "v": 1800
  },
  {
    "dt": "2021.01.20 06:00",
    "o": 1.08256,
    "h": 1.08287,
    "l": 1.08227,
    "c": 1.08277,
    "v": 1372
  },
  {
    "dt": "2021.01.20 07:00",
    "o": 1.08277,
    "h": 1.08321,
    "l": 1.08257,
    "c": 1.08287,
    "v": 1542
  },
  {
    "dt": "2021.01.20 08:00",
    "o": 1.08291,
    "h": 1.0838,
    "l": 1.08287,
    "c": 1.08313,
    "v": 1728
  },
  {
    "dt": "2021.01.20 09:00",
    "o": 1.08312,
    "h": 1.08321,
    "l": 1.08259,
    "c": 1.08268,
    "v": 2489
  },
  {
    "dt": "2021.01.20 10:00",
    "o": 1.08267,
    "h": 1.08327,
    "l": 1.08256,
    "c": 1.08306,
    "v": 3289
  },
  {
    "dt": "2021.01.20 11:00",
    "o": 1.08306,
    "h": 1.08326,
    "l": 1.08247,
    "c": 1.08315,
    "v": 2690
  },
  {
    "dt": "2021.01.20 12:00",
    "o": 1.08313,
    "h": 1.08343,
    "l": 1.08296,
    "c": 1.08306,
    "v": 2406
  },
  {
    "dt": "2021.01.20 13:00",
    "o": 1.08307,
    "h": 1.0833,
    "l": 1.08237,
    "c": 1.08297,
    "v": 2161
  },
  {
    "dt": "2021.01.20 14:00",
    "o": 1.08297,
    "h": 1.08346,
    "l": 1.08268,
    "c": 1.083,
    "v": 2495
  },
  {
    "dt": "2021.01.20 15:00",
    "o": 1.083,
    "h": 1.08324,
    "l": 1.08259,
    "c": 1.08294,
    "v": 3390
  },
  {
    "dt": "2021.01.20 16:00",
    "o": 1.08293,
    "h": 1.08308,
    "l": 1.08224,
    "c": 1.08262,
    "v": 4074
  },
  {
    "dt": "2021.01.20 17:00",
    "o": 1.08265,
    "h": 1.08272,
    "l": 1.08091,
    "c": 1.08106,
    "v": 4761
  },
  {
    "dt": "2021.01.20 18:00",
    "o": 1.08106,
    "h": 1.08153,
    "l": 1.08077,
    "c": 1.08105,
    "v": 3429
  },
  {
    "dt": "2021.01.20 19:00",
    "o": 1.08105,
    "h": 1.08106,
    "l": 1.08035,
    "c": 1.08042,
    "v": 2879
  },
  {
    "dt": "2021.01.20 20:00",
    "o": 1.08044,
    "h": 1.0807,
    "l": 1.08006,
    "c": 1.08068,
    "v": 1998
  },
  {
    "dt": "2021.01.20 21:00",
    "o": 1.08064,
    "h": 1.08096,
    "l": 1.08024,
    "c": 1.08041,
    "v": 1825
  },
  {
    "dt": "2021.01.20 22:00",
    "o": 1.08038,
    "h": 1.0808,
    "l": 1.07999,
    "c": 1.08022,
    "v": 1963
  },
  {
    "dt": "2021.01.20 23:00",
    "o": 1.08024,
    "h": 1.08061,
    "l": 1.07981,
    "c": 1.08,
    "v": 1108
  },
  {
    "dt": "2021.01.21 00:00",
    "o": 1.07946,
    "h": 1.08033,
    "l": 1.079,
    "c": 1.07996,
    "v": 593
  },
  {
    "dt": "2021.01.21 01:00",
    "o": 1.08009,
    "h": 1.08017,
    "l": 1.07876,
    "c": 1.07922,
    "v": 1307
  },
  {
    "dt": "2021.01.21 02:00",
    "o": 1.0792,
    "h": 1.07992,
    "l": 1.0791,
    "c": 1.07959,
    "v": 1823
  },
  {
    "dt": "2021.01.21 03:00",
    "o": 1.0796,
    "h": 1.07996,
    "l": 1.07903,
    "c": 1.07906,
    "v": 2244
  },
  {
    "dt": "2021.01.21 04:00",
    "o": 1.07906,
    "h": 1.07922,
    "l": 1.07827,
    "c": 1.07834,
    "v": 1722
  },
  {
    "dt": "2021.01.21 05:00",
    "o": 1.07831,
    "h": 1.07889,
    "l": 1.07817,
    "c": 1.07849,
    "v": 1461
  },
  {
    "dt": "2021.01.21 06:00",
    "o": 1.07849,
    "h": 1.07859,
    "l": 1.07802,
    "c": 1.07816,
    "v": 1382
  },
  {
    "dt": "2021.01.21 07:00",
    "o": 1.07816,
    "h": 1.0785,
    "l": 1.07793,
    "c": 1.07819,
    "v": 1478
  },
  {
    "dt": "2021.01.21 08:00",
    "o": 1.07819,
    "h": 1.07851,
    "l": 1.07796,
    "c": 1.07802,
    "v": 1329
  },
  {
    "dt": "2021.01.21 09:00",
    "o": 1.07804,
    "h": 1.07814,
    "l": 1.07745,
    "c": 1.07754,
    "v": 2252
  },
  {
    "dt": "2021.01.21 10:00",
    "o": 1.07749,
    "h": 1.0778,
    "l": 1.07678,
    "c": 1.07683,
    "v": 2945
  },
  {
    "dt": "2021.01.21 11:00",
    "o": 1.07683,
    "h": 1.07754,
    "l": 1.07647,
    "c": 1.07695,
    "v": 2732
  },
  {
    "dt": "2021.01.21 12:00",
    "o": 1.07692,
    "h": 1.07727,
    "l": 1.07675,
    "c": 1.07718,
    "v": 2101
  },
  {
    "dt": "2021.01.21 13:00",
    "o": 1.07717,
    "h": 1.07746,
    "l": 1.07678,
    "c": 1.07698,
    "v": 1903
  },
  {
    "dt": "2021.01.21 14:00",
    "o": 1.07699,
    "h": 1.07812,
    "l": 1.07676,
    "c": 1.07788,
    "v": 2898
  },
  {
    "dt": "2021.01.21 15:00",
    "o": 1.07784,
    "h": 1.07813,
    "l": 1.07715,
    "c": 1.07721,
    "v": 4235
  },
  {
    "dt": "2021.01.21 16:00",
    "o": 1.07715,
    "h": 1.07797,
    "l": 1.077,
    "c": 1.07762,
    "v": 4276
  },
  {
    "dt": "2021.01.21 17:00",
    "o": 1.07764,
    "h": 1.07868,
    "l": 1.07743,
    "c": 1.07864,
    "v": 3625
  },
  {
    "dt": "2021.01.21 18:00",
    "o": 1.0786,
    "h": 1.07892,
    "l": 1.07787,
    "c": 1.07841,
    "v": 3273
  },
  {
    "dt": "2021.01.21 19:00",
    "o": 1.07839,
    "h": 1.07854,
    "l": 1.07785,
    "c": 1.07813,
    "v": 2585
  },
  {
    "dt": "2021.01.21 20:00",
    "o": 1.07817,
    "h": 1.07827,
    "l": 1.07771,
    "c": 1.07811,
    "v": 2023
  },
  {
    "dt": "2021.01.21 21:00",
    "o": 1.07812,
    "h": 1.07834,
    "l": 1.07783,
    "c": 1.07797,
    "v": 2059
  },
  {
    "dt": "2021.01.21 22:00",
    "o": 1.0779,
    "h": 1.07817,
    "l": 1.07758,
    "c": 1.07781,
    "v": 1691
  },
  {
    "dt": "2021.01.21 23:00",
    "o": 1.0778,
    "h": 1.07817,
    "l": 1.07545,
    "c": 1.07545,
    "v": 1778
  },
  {
    "dt": "2021.01.22 00:00",
    "o": 1.07493,
    "h": 1.0763,
    "l": 1.07488,
    "c": 1.07558,
    "v": 767
  },
  {
    "dt": "2021.01.22 01:00",
    "o": 1.07557,
    "h": 1.07614,
    "l": 1.07504,
    "c": 1.07545,
    "v": 1522
  },
  {
    "dt": "2021.01.22 02:00",
    "o": 1.07546,
    "h": 1.07633,
    "l": 1.07488,
    "c": 1.07493,
    "v": 1932
  },
  {
    "dt": "2021.01.22 03:00",
    "o": 1.07492,
    "h": 1.07598,
    "l": 1.07484,
    "c": 1.07565,
    "v": 2192
  },
  {
    "dt": "2021.01.22 04:00",
    "o": 1.07564,
    "h": 1.07603,
    "l": 1.07544,
    "c": 1.07576,
    "v": 2316
  },
  {
    "dt": "2021.01.22 05:00",
    "o": 1.07575,
    "h": 1.07655,
    "l": 1.07575,
    "c": 1.07635,
    "v": 1641
  },
  {
    "dt": "2021.01.22 06:00",
    "o": 1.07634,
    "h": 1.07675,
    "l": 1.07634,
    "c": 1.07644,
    "v": 1105
  },
  {
    "dt": "2021.01.22 07:00",
    "o": 1.07643,
    "h": 1.0767,
    "l": 1.07603,
    "c": 1.07639,
    "v": 1296
  },
  {
    "dt": "2021.01.22 08:00",
    "o": 1.07638,
    "h": 1.07671,
    "l": 1.07609,
    "c": 1.07639,
    "v": 1988
  },
  {
    "dt": "2021.01.22 09:00",
    "o": 1.07639,
    "h": 1.07651,
    "l": 1.07585,
    "c": 1.07607,
    "v": 2543
  },
  {
    "dt": "2021.01.22 10:00",
    "o": 1.07609,
    "h": 1.07614,
    "l": 1.07543,
    "c": 1.07569,
    "v": 3410
  },
  {
    "dt": "2021.01.22 11:00",
    "o": 1.07565,
    "h": 1.07591,
    "l": 1.07474,
    "c": 1.07485,
    "v": 2942
  },
  {
    "dt": "2021.01.22 12:00",
    "o": 1.07485,
    "h": 1.0751,
    "l": 1.07332,
    "c": 1.07368,
    "v": 2515
  },
  {
    "dt": "2021.01.22 13:00",
    "o": 1.07368,
    "h": 1.07417,
    "l": 1.07348,
    "c": 1.07377,
    "v": 2437
  },
  {
    "dt": "2021.01.22 14:00",
    "o": 1.07373,
    "h": 1.07461,
    "l": 1.07373,
    "c": 1.07451,
    "v": 2988
  },
  {
    "dt": "2021.01.22 15:00",
    "o": 1.07452,
    "h": 1.07493,
    "l": 1.07415,
    "c": 1.07461,
    "v": 3490
  },
  {
    "dt": "2021.01.22 16:00",
    "o": 1.07462,
    "h": 1.07598,
    "l": 1.07454,
    "c": 1.07521,
    "v": 3685
  },
  {
    "dt": "2021.01.22 17:00",
    "o": 1.07521,
    "h": 1.07548,
    "l": 1.07431,
    "c": 1.07524,
    "v": 3992
  },
  {
    "dt": "2021.01.22 18:00",
    "o": 1.07524,
    "h": 1.07542,
    "l": 1.07474,
    "c": 1.07495,
    "v": 3722
  },
  {
    "dt": "2021.01.22 19:00",
    "o": 1.07496,
    "h": 1.07529,
    "l": 1.07484,
    "c": 1.07491,
    "v": 2706
  },
  {
    "dt": "2021.01.22 20:00",
    "o": 1.07491,
    "h": 1.07491,
    "l": 1.07448,
    "c": 1.07471,
    "v": 1834
  },
  {
    "dt": "2021.01.22 21:00",
    "o": 1.0747,
    "h": 1.07491,
    "l": 1.07442,
    "c": 1.07456,
    "v": 1616
  },
  {
    "dt": "2021.01.22 22:00",
    "o": 1.07455,
    "h": 1.0746,
    "l": 1.07403,
    "c": 1.07422,
    "v": 1712
  },
  {
    "dt": "2021.01.22 23:00",
    "o": 1.07418,
    "h": 1.0747,
    "l": 1.07384,
    "c": 1.07412,
    "v": 1357
  },
  {
    "dt": "2021.01.25 00:00",
    "o": 1.07429,
    "h": 1.07474,
    "l": 1.07409,
    "c": 1.07444,
    "v": 351
  },
  {
    "dt": "2021.01.25 01:00",
    "o": 1.07444,
    "h": 1.075,
    "l": 1.07394,
    "c": 1.07412,
    "v": 1779
  },
  {
    "dt": "2021.01.25 02:00",
    "o": 1.07409,
    "h": 1.07468,
    "l": 1.07339,
    "c": 1.07346,
    "v": 2034
  },
  {
    "dt": "2021.01.25 03:00",
    "o": 1.07346,
    "h": 1.07389,
    "l": 1.07278,
    "c": 1.07304,
    "v": 2380
  },
  {
    "dt": "2021.01.25 04:00",
    "o": 1.07309,
    "h": 1.07328,
    "l": 1.07257,
    "c": 1.07305,
    "v": 2249
  },
  {
    "dt": "2021.01.25 05:00",
    "o": 1.0731,
    "h": 1.07316,
    "l": 1.07274,
    "c": 1.07299,
    "v": 1663
  },
  {
    "dt": "2021.01.25 06:00",
    "o": 1.073,
    "h": 1.07373,
    "l": 1.07292,
    "c": 1.07366,
    "v": 1640
  },
  {
    "dt": "2021.01.25 07:00",
    "o": 1.07367,
    "h": 1.0738,
    "l": 1.07315,
    "c": 1.07349,
    "v": 1790
  },
  {
    "dt": "2021.01.25 08:00",
    "o": 1.07348,
    "h": 1.07369,
    "l": 1.07272,
    "c": 1.07307,
    "v": 2196
  },
  {
    "dt": "2021.01.25 09:00",
    "o": 1.07308,
    "h": 1.07324,
    "l": 1.07245,
    "c": 1.07272,
    "v": 2780
  },
  {
    "dt": "2021.01.25 10:00",
    "o": 1.07273,
    "h": 1.0729,
    "l": 1.07212,
    "c": 1.07234,
    "v": 3229
  },
  {
    "dt": "2021.01.25 11:00",
    "o": 1.07234,
    "h": 1.07266,
    "l": 1.07136,
    "c": 1.07164,
    "v": 2990
  },
  {
    "dt": "2021.01.25 12:00",
    "o": 1.07166,
    "h": 1.07228,
    "l": 1.07133,
    "c": 1.07202,
    "v": 2513
  },
  {
    "dt": "2021.01.25 13:00",
    "o": 1.07199,
    "h": 1.07236,
    "l": 1.07137,
    "c": 1.07156,
    "v": 2356
  },
  {
    "dt": "2021.01.25 14:00",
    "o": 1.07157,
    "h": 1.07158,
    "l": 1.07077,
    "c": 1.07141,
    "v": 2984
  },
  {
    "dt": "2021.01.25 15:00",
    "o": 1.07147,
    "h": 1.07219,
    "l": 1.07133,
    "c": 1.07199,
    "v": 3242
  },
  {
    "dt": "2021.01.25 16:00",
    "o": 1.07202,
    "h": 1.07225,
    "l": 1.07117,
    "c": 1.07131,
    "v": 3869
  },
  {
    "dt": "2021.01.25 17:00",
    "o": 1.07131,
    "h": 1.07223,
    "l": 1.07126,
    "c": 1.07183,
    "v": 4324
  },
  {
    "dt": "2021.01.25 18:00",
    "o": 1.07182,
    "h": 1.07196,
    "l": 1.07052,
    "c": 1.07102,
    "v": 4553
  },
  {
    "dt": "2021.01.25 19:00",
    "o": 1.071,
    "h": 1.07122,
    "l": 1.07046,
    "c": 1.07103,
    "v": 3443
  },
  {
    "dt": "2021.01.25 20:00",
    "o": 1.07103,
    "h": 1.0721,
    "l": 1.0693,
    "c": 1.0715,
    "v": 2512
  },
  {
    "dt": "2021.01.25 21:00",
    "o": 1.07146,
    "h": 1.07178,
    "l": 1.07132,
    "c": 1.07154,
    "v": 2413
  },
  {
    "dt": "2021.01.25 22:00",
    "o": 1.07155,
    "h": 1.07183,
    "l": 1.07121,
    "c": 1.07154,
    "v": 2502
  },
  {
    "dt": "2021.01.25 23:00",
    "o": 1.07155,
    "h": 1.07161,
    "l": 1.07106,
    "c": 1.07146,
    "v": 1401
  },
  {
    "dt": "2021.01.26 00:00",
    "o": 1.07042,
    "h": 1.0715,
    "l": 1.07019,
    "c": 1.07149,
    "v": 307
  },
  {
    "dt": "2021.01.26 01:00",
    "o": 1.07153,
    "h": 1.07166,
    "l": 1.07092,
    "c": 1.07144,
    "v": 723
  },
  {
    "dt": "2021.01.26 02:00",
    "o": 1.07144,
    "h": 1.07156,
    "l": 1.07116,
    "c": 1.07143,
    "v": 1318
  },
  {
    "dt": "2021.01.26 03:00",
    "o": 1.0714,
    "h": 1.07212,
    "l": 1.07139,
    "c": 1.07195,
    "v": 1769
  },
  {
    "dt": "2021.01.26 04:00",
    "o": 1.07196,
    "h": 1.07208,
    "l": 1.07102,
    "c": 1.07102,
    "v": 1761
  },
  {
    "dt": "2021.01.26 05:00",
    "o": 1.07103,
    "h": 1.07121,
    "l": 1.07055,
    "c": 1.07076,
    "v": 1371
  },
  {
    "dt": "2021.01.26 06:00",
    "o": 1.07076,
    "h": 1.07087,
    "l": 1.07026,
    "c": 1.07047,
    "v": 1405
  },
  {
    "dt": "2021.01.26 07:00",
    "o": 1.07049,
    "h": 1.07062,
    "l": 1.07004,
    "c": 1.07042,
    "v": 1312
  },
  {
    "dt": "2021.01.26 08:00",
    "o": 1.07041,
    "h": 1.07058,
    "l": 1.07012,
    "c": 1.07022,
    "v": 1600
  },
  {
    "dt": "2021.01.26 09:00",
    "o": 1.07026,
    "h": 1.07035,
    "l": 1.06961,
    "c": 1.06986,
    "v": 2668
  },
  {
    "dt": "2021.01.26 10:00",
    "o": 1.06981,
    "h": 1.07017,
    "l": 1.0692,
    "c": 1.06935,
    "v": 3533
  },
  {
    "dt": "2021.01.26 11:00",
    "o": 1.06938,
    "h": 1.07003,
    "l": 1.06887,
    "c": 1.06889,
    "v": 2887
  },
  {
    "dt": "2021.01.26 12:00",
    "o": 1.06889,
    "h": 1.06938,
    "l": 1.0685,
    "c": 1.06892,
    "v": 2158
  },
  {
    "dt": "2021.01.26 13:00",
    "o": 1.06894,
    "h": 1.06922,
    "l": 1.06845,
    "c": 1.06861,
    "v": 2713
  },
  {
    "dt": "2021.01.26 14:00",
    "o": 1.06863,
    "h": 1.06959,
    "l": 1.06851,
    "c": 1.06909,
    "v": 3387
  },
  {
    "dt": "2021.01.26 15:00",
    "o": 1.06909,
    "h": 1.06914,
    "l": 1.06818,
    "c": 1.06859,
    "v": 3064
  },
  {
    "dt": "2021.01.26 16:00",
    "o": 1.0686,
    "h": 1.06954,
    "l": 1.06806,
    "c": 1.06937,
    "v": 3661
  },
  {
    "dt": "2021.01.26 17:00",
    "o": 1.06935,
    "h": 1.07021,
    "l": 1.06926,
    "c": 1.06966,
    "v": 4343
  },
  {
    "dt": "2021.01.26 18:00",
    "o": 1.06965,
    "h": 1.07031,
    "l": 1.06962,
    "c": 1.06993,
    "v": 3437
  },
  {
    "dt": "2021.01.26 19:00",
    "o": 1.06992,
    "h": 1.07012,
    "l": 1.06945,
    "c": 1.07012,
    "v": 2204
  },
  {
    "dt": "2021.01.26 20:00",
    "o": 1.07011,
    "h": 1.07018,
    "l": 1.0697,
    "c": 1.06979,
    "v": 1741
  },
  {
    "dt": "2021.01.26 21:00",
    "o": 1.06979,
    "h": 1.07004,
    "l": 1.06962,
    "c": 1.0699,
    "v": 1480
  },
  {
    "dt": "2021.01.26 22:00",
    "o": 1.0699,
    "h": 1.06994,
    "l": 1.06964,
    "c": 1.06986,
    "v": 1546
  },
  {
    "dt": "2021.01.26 23:00",
    "o": 1.06987,
    "h": 1.07016,
    "l": 1.06983,
    "c": 1.07006,
    "v": 1331
  },
  {
    "dt": "2021.01.27 00:00",
    "o": 1.07037,
    "h": 1.07045,
    "l": 1.0693,
    "c": 1.0701,
    "v": 664
  },
  {
    "dt": "2021.01.27 01:00",
    "o": 1.07013,
    "h": 1.07121,
    "l": 1.06997,
    "c": 1.07102,
    "v": 1342
  },
  {
    "dt": "2021.01.27 02:00",
    "o": 1.07103,
    "h": 1.0714,
    "l": 1.07012,
    "c": 1.07103,
    "v": 1696
  },
  {
    "dt": "2021.01.27 03:00",
    "o": 1.07107,
    "h": 1.07127,
    "l": 1.0707,
    "c": 1.07089,
    "v": 2294
  },
  {
    "dt": "2021.01.27 04:00",
    "o": 1.07089,
    "h": 1.07089,
    "l": 1.06997,
    "c": 1.06997,
    "v": 1964
  },
  {
    "dt": "2021.01.27 05:00",
    "o": 1.06997,
    "h": 1.07038,
    "l": 1.06984,
    "c": 1.07,
    "v": 1618
  },
  {
    "dt": "2021.01.27 06:00",
    "o": 1.07003,
    "h": 1.07032,
    "l": 1.06954,
    "c": 1.07018,
    "v": 1424
  },
  {
    "dt": "2021.01.27 07:00",
    "o": 1.07017,
    "h": 1.07066,
    "l": 1.07005,
    "c": 1.07063,
    "v": 1357
  },
  {
    "dt": "2021.01.27 08:00",
    "o": 1.07063,
    "h": 1.07105,
    "l": 1.07017,
    "c": 1.07072,
    "v": 1617
  },
  {
    "dt": "2021.01.27 09:00",
    "o": 1.07075,
    "h": 1.07097,
    "l": 1.07036,
    "c": 1.07067,
    "v": 2117
  },
  {
    "dt": "2021.01.27 10:00",
    "o": 1.07075,
    "h": 1.07081,
    "l": 1.0698,
    "c": 1.06998,
    "v": 2972
  },
  {
    "dt": "2021.01.27 11:00",
    "o": 1.06996,
    "h": 1.07033,
    "l": 1.06934,
    "c": 1.06944,
    "v": 2642
  },
  {
    "dt": "2021.01.27 12:00",
    "o": 1.06942,
    "h": 1.06974,
    "l": 1.06822,
    "c": 1.06824,
    "v": 2195
  },
  {
    "dt": "2021.01.27 13:00",
    "o": 1.06827,
    "h": 1.06918,
    "l": 1.06808,
    "c": 1.06875,
    "v": 3067
  },
  {
    "dt": "2021.01.27 14:00",
    "o": 1.06875,
    "h": 1.06911,
    "l": 1.06806,
    "c": 1.06865,
    "v": 4015
  },
  {
    "dt": "2021.01.27 15:00",
    "o": 1.06865,
    "h": 1.07021,
    "l": 1.06861,
    "c": 1.06992,
    "v": 4081
  },
  {
    "dt": "2021.01.27 16:00",
    "o": 1.06993,
    "h": 1.07061,
    "l": 1.06934,
    "c": 1.06973,
    "v": 4957
  },
  {
    "dt": "2021.01.27 17:00",
    "o": 1.06972,
    "h": 1.07045,
    "l": 1.06946,
    "c": 1.07004,
    "v": 5267
  },
  {
    "dt": "2021.01.27 18:00",
    "o": 1.07007,
    "h": 1.07015,
    "l": 1.06941,
    "c": 1.06971,
    "v": 4249
  },
  {
    "dt": "2021.01.27 19:00",
    "o": 1.06968,
    "h": 1.07017,
    "l": 1.06942,
    "c": 1.07011,
    "v": 3767
  },
  {
    "dt": "2021.01.27 20:00",
    "o": 1.07,
    "h": 1.07008,
    "l": 1.06901,
    "c": 1.06902,
    "v": 3130
  },
  {
    "dt": "2021.01.27 21:00",
    "o": 1.06923,
    "h": 1.06972,
    "l": 1.06914,
    "c": 1.06927,
    "v": 4722
  },
  {
    "dt": "2021.01.27 22:00",
    "o": 1.06926,
    "h": 1.0698,
    "l": 1.069,
    "c": 1.06961,
    "v": 4923
  },
  {
    "dt": "2021.01.27 23:00",
    "o": 1.06962,
    "h": 1.07048,
    "l": 1.06939,
    "c": 1.07031,
    "v": 2623
  },
  {
    "dt": "2021.01.28 00:00",
    "o": 1.06935,
    "h": 1.07026,
    "l": 1.06914,
    "c": 1.06977,
    "v": 586
  },
  {
    "dt": "2021.01.28 01:00",
    "o": 1.06979,
    "h": 1.07097,
    "l": 1.06971,
    "c": 1.07082,
    "v": 2060
  },
  {
    "dt": "2021.01.28 02:00",
    "o": 1.07085,
    "h": 1.07085,
    "l": 1.06865,
    "c": 1.06879,
    "v": 2975
  },
  {
    "dt": "2021.01.28 03:00",
    "o": 1.06878,
    "h": 1.07,
    "l": 1.06875,
    "c": 1.06961,
    "v": 2962
  },
  {
    "dt": "2021.01.28 04:00",
    "o": 1.0697,
    "h": 1.06992,
    "l": 1.06881,
    "c": 1.0689,
    "v": 2091
  },
  {
    "dt": "2021.01.28 05:00",
    "o": 1.06889,
    "h": 1.06909,
    "l": 1.06849,
    "c": 1.06862,
    "v": 2138
  },
  {
    "dt": "2021.01.28 06:00",
    "o": 1.06863,
    "h": 1.06908,
    "l": 1.06828,
    "c": 1.06879,
    "v": 1820
  },
  {
    "dt": "2021.01.28 07:00",
    "o": 1.0688,
    "h": 1.06979,
    "l": 1.06861,
    "c": 1.06957,
    "v": 1933
  },
  {
    "dt": "2021.01.28 08:00",
    "o": 1.06957,
    "h": 1.0696,
    "l": 1.06914,
    "c": 1.06938,
    "v": 2179
  },
  {
    "dt": "2021.01.28 09:00",
    "o": 1.06935,
    "h": 1.06955,
    "l": 1.06804,
    "c": 1.06815,
    "v": 3576
  },
  {
    "dt": "2021.01.28 10:00",
    "o": 1.06816,
    "h": 1.06824,
    "l": 1.06714,
    "c": 1.06761,
    "v": 4497
  },
  {
    "dt": "2021.01.28 11:00",
    "o": 1.06759,
    "h": 1.06913,
    "l": 1.06745,
    "c": 1.06909,
    "v": 3568
  },
  {
    "dt": "2021.01.28 12:00",
    "o": 1.06912,
    "h": 1.06912,
    "l": 1.06752,
    "c": 1.06754,
    "v": 3441
  },
  {
    "dt": "2021.01.28 13:00",
    "o": 1.06758,
    "h": 1.06808,
    "l": 1.06711,
    "c": 1.06736,
    "v": 2966
  },
  {
    "dt": "2021.01.28 14:00",
    "o": 1.06735,
    "h": 1.06863,
    "l": 1.06734,
    "c": 1.06862,
    "v": 3336
  },
  {
    "dt": "2021.01.28 15:00",
    "o": 1.06862,
    "h": 1.06948,
    "l": 1.06783,
    "c": 1.0691,
    "v": 4429
  },
  {
    "dt": "2021.01.28 16:00",
    "o": 1.06914,
    "h": 1.07012,
    "l": 1.06849,
    "c": 1.06985,
    "v": 4979
  },
  {
    "dt": "2021.01.28 17:00",
    "o": 1.06985,
    "h": 1.07116,
    "l": 1.06951,
    "c": 1.0707,
    "v": 4767
  },
  {
    "dt": "2021.01.28 18:00",
    "o": 1.0707,
    "h": 1.07084,
    "l": 1.06963,
    "c": 1.06991,
    "v": 3844
  },
  {
    "dt": "2021.01.28 19:00",
    "o": 1.06989,
    "h": 1.06995,
    "l": 1.06894,
    "c": 1.06929,
    "v": 3042
  },
  {
    "dt": "2021.01.28 20:00",
    "o": 1.06925,
    "h": 1.06995,
    "l": 1.06922,
    "c": 1.06939,
    "v": 2512
  },
  {
    "dt": "2021.01.28 21:00",
    "o": 1.06942,
    "h": 1.07005,
    "l": 1.06921,
    "c": 1.06989,
    "v": 2923
  },
  {
    "dt": "2021.01.28 22:00",
    "o": 1.06988,
    "h": 1.07018,
    "l": 1.06961,
    "c": 1.06992,
    "v": 2993
  },
  {
    "dt": "2021.01.28 23:00",
    "o": 1.06994,
    "h": 1.06997,
    "l": 1.0695,
    "c": 1.06986,
    "v": 1790
  },
  {
    "dt": "2021.01.29 00:00",
    "o": 1.07009,
    "h": 1.07015,
    "l": 1.06884,
    "c": 1.0698,
    "v": 423
  },
  {
    "dt": "2021.01.29 01:00",
    "o": 1.06977,
    "h": 1.06985,
    "l": 1.06893,
    "c": 1.06911,
    "v": 1698
  },
  {
    "dt": "2021.01.29 02:00",
    "o": 1.06915,
    "h": 1.07018,
    "l": 1.06904,
    "c": 1.06964,
    "v": 2106
  },
  {
    "dt": "2021.01.29 03:00",
    "o": 1.0696,
    "h": 1.06973,
    "l": 1.06879,
    "c": 1.06911,
    "v": 2245
  },
  {
    "dt": "2021.01.29 04:00",
    "o": 1.0691,
    "h": 1.06916,
    "l": 1.06817,
    "c": 1.06863,
    "v": 2130
  },
  {
    "dt": "2021.01.29 05:00",
    "o": 1.06864,
    "h": 1.06875,
    "l": 1.06786,
    "c": 1.06796,
    "v": 1923
  },
  {
    "dt": "2021.01.29 06:00",
    "o": 1.06803,
    "h": 1.06833,
    "l": 1.06748,
    "c": 1.06824,
    "v": 1706
  },
  {
    "dt": "2021.01.29 07:00",
    "o": 1.06824,
    "h": 1.06857,
    "l": 1.06811,
    "c": 1.06847,
    "v": 1989
  },
  {
    "dt": "2021.01.29 08:00",
    "o": 1.06846,
    "h": 1.06933,
    "l": 1.06846,
    "c": 1.06892,
    "v": 2141
  },
  {
    "dt": "2021.01.29 09:00",
    "o": 1.06889,
    "h": 1.06902,
    "l": 1.06793,
    "c": 1.06815,
    "v": 3376
  },
  {
    "dt": "2021.01.29 10:00",
    "o": 1.06817,
    "h": 1.06833,
    "l": 1.06728,
    "c": 1.06751,
    "v": 4411
  },
  {
    "dt": "2021.01.29 11:00",
    "o": 1.06754,
    "h": 1.06768,
    "l": 1.06679,
    "c": 1.06684,
    "v": 3796
  },
  {
    "dt": "2021.01.29 12:00",
    "o": 1.06682,
    "h": 1.0671,
    "l": 1.06624,
    "c": 1.06695,
    "v": 3506
  },
  {
    "dt": "2021.01.29 13:00",
    "o": 1.06694,
    "h": 1.06797,
    "l": 1.06681,
    "c": 1.06693,
    "v": 3057
  },
  {
    "dt": "2021.01.29 14:00",
    "o": 1.06692,
    "h": 1.06703,
    "l": 1.06577,
    "c": 1.06587,
    "v": 4087
  },
  {
    "dt": "2021.01.29 15:00",
    "o": 1.0659,
    "h": 1.06674,
    "l": 1.06548,
    "c": 1.06612,
    "v": 4931
  },
  {
    "dt": "2021.01.29 16:00",
    "o": 1.06609,
    "h": 1.06645,
    "l": 1.06497,
    "c": 1.0654,
    "v": 4447
  },
  {
    "dt": "2021.01.29 17:00",
    "o": 1.06544,
    "h": 1.0657,
    "l": 1.06431,
    "c": 1.0646,
    "v": 5176
  },
  {
    "dt": "2021.01.29 18:00",
    "o": 1.0646,
    "h": 1.06513,
    "l": 1.06381,
    "c": 1.06387,
    "v": 4800
  },
  {
    "dt": "2021.01.29 19:00",
    "o": 1.06385,
    "h": 1.06413,
    "l": 1.06325,
    "c": 1.06362,
    "v": 3927
  },
  {
    "dt": "2021.01.29 20:00",
    "o": 1.06363,
    "h": 1.06394,
    "l": 1.06326,
    "c": 1.06347,
    "v": 3645
  },
  {
    "dt": "2021.01.29 21:00",
    "o": 1.06348,
    "h": 1.0641,
    "l": 1.06324,
    "c": 1.06376,
    "v": 3298
  },
  {
    "dt": "2021.01.29 22:00",
    "o": 1.06371,
    "h": 1.06415,
    "l": 1.06322,
    "c": 1.06338,
    "v": 3751
  },
  {
    "dt": "2021.01.29 23:00",
    "o": 1.06344,
    "h": 1.06427,
    "l": 1.06325,
    "c": 1.06407,
    "v": 2164
  }
]