[
  {
    "dt": "2021.05.03 00:00",
    "o": 1.0756,
    "h": 1.07657,
    "l": 1.07502,
    "c": 1.07575,
    "v": 172
  },
  {
    "dt": "2021.05.03 01:00",
    "o": 1.07543,
    "h": 1.07676,
    "l": 1.07536,
    "c": 1.07647,
    "v": 960
  },
  {
    "dt": "2021.05.03 02:00",
    "o": 1.07648,
    "h": 1.07685,
    "l": 1.0762,
    "c": 1.0767,
    "v": 749
  },
  {
    "dt": "2021.05.03 03:00",
    "o": 1.07671,
    "h": 1.07683,
    "l": 1.07609,
    "c": 1.07637,
    "v": 1948
  },
  {
    "dt": "2021.05.03 04:00",
    "o": 1.07635,
    "h": 1.07667,
    "l": 1.07623,
    "c": 1.07651,
    "v": 1595
  },
  {
    "dt": "2021.05.03 05:00",
    "o": 1.07648,
    "h": 1.07674,
    "l": 1.07502,
    "c": 1.07539,
    "v": 2123
  },
  {
    "dt": "2021.05.03 06:00",
    "o": 1.07539,
    "h": 1.07639,
    "l": 1.07539,
    "c": 1.07638,
    "v": 1471
  },
  {
    "dt": "2021.05.03 07:00",
    "o": 1.07637,
    "h": 1.07648,
    "l": 1.07542,
    "c": 1.07641,
    "v": 1122
  },
  {
    "dt": "2021.05.03 08:00",
    "o": 1.0764,
    "h": 1.077,
    "l": 1.07637,
    "c": 1.07668,
    "v": 1465
  },
  {
    "dt": "2021.05.03 09:00",
    "o": 1.0767,
    "h": 1.07701,
    "l": 1.07641,
    "c": 1.07665,
    "v": 2390
  },
  {
    "dt": "2021.05.03 10:00",
    "o": 1.07663,
    "h": 1.07753,
    "l": 1.07663,
    "c": 1.07753,
    "v": 3026
  },
  {
    "dt": "2021.05.03 11:00",
    "o": 1.07756,
    "h": 1.07884,
    "l": 1.07742,
    "c": 1.07878,
    "v": 2206
  },
  {
    "dt": "2021.05.03 12:00",
    "o": 1.07879,
    "h": 1.07879,
    "l": 1.07782,
    "c": 1.07783,
    "v": 2158
  },
  {
    "dt": "2021.05.03 13:00",
    "o": 1.07787,
    "h": 1.07814,
    "l": 1.07737,
    "c": 1.07738,
    "v": 2015
  },
  {
    "dt": "2021.05.03 14:00",
    "o": 1.0774,
    "h": 1.07806,
    "l": 1.0773,
    "c": 1.07781,
    "v": 2228
  },
  {
    "dt": "2021.05.03 15:00",
    "o": 1.07781,
    "h": 1.0779,
    "l": 1.0768,
    "c": 1.07688,
    "v": 2765
  },
  {
    "dt": "2021.05.03 16:00",
    "o": 1.07687,
    "h": 1.07717,
    "l": 1.07639,
    "c": 1.07683,
    "v": 3131
  },
  {
    "dt": "2021.05.03 17:00",
    "o": 1.07683,
    "h": 1.0775,
    "l": 1.07639,
    "c": 1.07739,
    "v": 4126
  },
  {
    "dt": "2021.05.03 18:00",
    "o": 1.0774,
    "h": 1.07806,
    "l": 1.07727,
    "c": 1.07785,
    "v": 3012
  },
  {
    "dt": "2021.05.03 19:00",
    "o": 1.07785,
    "h": 1.07806,
    "l": 1.07724,
    "c": 1.07776,
    "v": 2184
  },
  {
    "dt": "2021.05.03 20:00",
    "o": 1.07776,
    "h": 1.07786,
    "l": 1.07734,
    "c": 1.07746,
    "v": 1753
  },
  {
    "dt": "2021.05.03 21:00",
    "o": 1.07743,
    "h": 1.07757,
    "l": 1.07652,
    "c": 1.07666,
    "v": 1863
  },
  {
    "dt": "2021.05.03 22:00",
    "o": 1.07712,
    "h": 1.07751,
    "l": 1.07672,
    "c": 1.07739,
    "v": 1907
  },
  {
    "dt": "2021.05.03 23:00",
    "o": 1.0774,
    "h": 1.07797,
    "l": 1.07726,
    "c": 1.07791,
    "v": 795
  },
  {
    "dt": "2021.05.04 00:00",
    "o": 1.0774,
    "h": 1.07801,
    "l": 1.07646,
    "c": 1.07712,
    "v": 264
  },
  {
    "dt": "2021.05.04 01:00",
    "o": 1.07711,
    "h": 1.07776,
    "l": 1.07711,
    "c": 1.0774,
    "v": 1069
  },
  {
    "dt": "2021.05.04 02:00",
    "o": 1.07738,
    "h": 1.07792,
    "l": 1.07733,
    "c": 1.07792,
    "v": 590
  },
  {
    "dt": "2021.05.04 03:00",
    "o": 1.07792,
    "h": 1.07835,
    "l": 1.07762,
    "c": 1.07795,
    "v": 1500
  },
  {
    "dt": "2021.05.04 04:00",
    "o": 1.07796,
    "h": 1.07799,
    "l": 1.07723,
    "c": 1.07749,
    "v": 1706
  },
  {
    "dt": "2021.05.04 05:00",
    "o": 1.0775,
    "h": 1.07773,
    "l": 1.07721,
    "c": 1.07745,
    "v": 1598
  },
  {
    "dt": "2021.05.04 06:00",
    "o": 1.07742,
    "h": 1.07788,
    "l": 1.07736,
    "c": 1.07764,
    "v": 1178
  },
  {
    "dt": "2021.05.04 07:00",
    "o": 1.07763,
    "h": 1.07885,
    "l": 1.07741,
    "c": 1.0788,
    "v": 1331
  },
  {
    "dt": "2021.05.04 08:00",
    "o": 1.07878,
    "h": 1.07967,
    "l": 1.07878,
    "c": 1.0795,
    "v": 1411
  },
  {
    "dt": "2021.05.04 09:00",
    "o": 1.07955,
    "h": 1.0803,
    "l": 1.07943,
    "c": 1.07951,
    "v": 2072
  },
  {
    "dt": "2021.05.04 10:00",
    "o": 1.07951,
    "h": 1.08007,
    "l": 1.07896,
    "c": 1.07927,
    "v": 3287
  },
  {
    "dt": "2021.05.04 11:00",
    "o": 1.07927,
    "h": 1.08007,
    "l": 1.07913,
    "c": 1.07985,
    "v": 2781
  },
  {
    "dt": "2021.05.04 12:00",
    "o": 1.07985,
    "h": 1.08122,
    "l": 1.07974,
    "c": 1.08121,
    "v": 2492
  },
  {
    "dt": "2021.05.04 13:00",
    "o": 1.0812,
    "h": 1.08198,
    "l": 1.08082,
    "c": 1.08141,
    "v": 2473
  },
  {
    "dt": "2021.05.04 14:00",
    "o": 1.08141,
    "h": 1.08192,
    "l": 1.0809,
    "c": 1.08094,
    "v": 3274
  },
  {
    "dt": "2021.05.04 15:00",
    "o": 1.081,
    "h": 1.08205,
    "l": 1.081,
    "c": 1.08144,
    "v": 3544
  },
  {
    "dt": "2021.05.04 16:00",
    "o": 1.08144,
    "h": 1.08144,
    "l": 1.07843,
    "c": 1.0788,
    "v": 4265
  },
  {
    "dt": "2021.05.04 17:00",
    "o": 1.07881,
    "h": 1.07907,
    "l": 1.07721,
    "c": 1.07741,
    "v": 4717
  },
  {
    "dt": "2021.05.04 18:00",
    "o": 1.07741,
    "h": 1.07876,
    "l": 1.07722,
    "c": 1.07834,
    "v": 4683
  },
  {
    "dt": "2021.05.04 19:00",
    "o": 1.07832,
    "h": 1.0791,
    "l": 1.07811,
    "c": 1.07868,
    "v": 3704
  },
  {
    "dt": "2021.05.04 20:00",
    "o": 1.07864,
    "h": 1.07889,
    "l": 1.07839,
    "c": 1.07864,
    "v": 3109
  },
  {
    "dt": "2021.05.04 21:00",
    "o": 1.07864,
    "h": 1.07942,
    "l": 1.07833,
    "c": 1.07929,
    "v": 2673
  },
  {
    "dt": "2021.05.04 22:00",
    "o": 1.07926,
    "h": 1.07954,
    "l": 1.07901,
    "c": 1.07934,
    "v": 3004
  },
  {
    "dt": "2021.05.04 23:00",
    "o": 1.07938,
    "h": 1.07957,
    "l": 1.07829,
    "c": 1.07838,
    "v": 1221
  },
  {
    "dt": "2021.05.05 00:00",
    "o": 1.07812,
    "h": 1.07852,
    "l": 1.07739,
    "c": 1.07815,
    "v": 618
  },
  {
    "dt": "2021.05.05 01:00",
    "o": 1.07815,
    "h": 1.0789,
    "l": 1.07516,
    "c": 1.07558,
    "v": 1138
  },
  {
    "dt": "2021.05.05 02:00",
    "o": 1.07565,
    "h": 1.07688,
    "l": 1.07564,
    "c": 1.07687,
    "v": 860
  },
  {
    "dt": "2021.05.05 03:00",
    "o": 1.07689,
    "h": 1.07858,
    "l": 1.07677,
    "c": 1.07835,
    "v": 2096
  },
  {
    "dt": "2021.05.05 04:00",
    "o": 1.07834,
    "h": 1.07847,
    "l": 1.07747,
    "c": 1.0783,
    "v": 1809
  },
  {
    "dt": "2021.05.05 05:00",
    "o": 1.07831,
    "h": 1.07833,
    "l": 1.07752,
    "c": 1.07777,
    "v": 1847
  },
  {
    "dt": "2021.05.05 06:00",
    "o": 1.07775,
    "h": 1.07845,
    "l": 1.07775,
    "c": 1.07832,
    "v": 1369
  },
  {
    "dt": "2021.05.05 07:00",
    "o": 1.07834,
    "h": 1.07847,
    "l": 1.07808,
    "c": 1.07823,
    "v": 944
  },
  {
    "dt": "2021.05.05 08:00",
    "o": 1.07823,
    "h": 1.07832,
    "l": 1.0778,
    "c": 1.07796,
    "v": 1315
  },
  {
    "dt": "2021.05.05 09:00",
    "o": 1.078,
    "h": 1.07817,
    "l": 1.07705,
    "c": 1.07741,
    "v": 2775
  },
  {
    "dt": "2021.05.05 10:00",
    "o": 1.07742,
    "h": 1.07793,
    "l": 1.07709,
    "c": 1.07736,
    "v": 3435
  },
  {
    "dt": "2021.05.05 11:00",
    "o": 1.07734,
    "h": 1.07737,
    "l": 1.07636,
    "c": 1.07648,
    "v": 2540
  },
  {
    "dt": "2021.05.05 12:00",
    "o": 1.07647,
    "h": 1.07692,
    "l": 1.07616,
    "c": 1.07667,
    "v": 2037
  },
  {
    "dt": "2021.05.05 13:00",
    "o": 1.0767,
    "h": 1.07672,
    "l": 1.07574,
    "c": 1.07598,
    "v": 2507
  },
  {
    "dt": "2021.05.05 14:00",
    "o": 1.07599,
    "h": 1.0761,
    "l": 1.07539,
    "c": 1.07591,
    "v": 2277
  },
  {
    "dt": "2021.05.05 15:00",
    "o": 1.07591,
    "h": 1.07607,
    "l": 1.07483,
    "c": 1.07491,
    "v": 3257
  },
  {
    "dt": "2021.05.05 16:00",
    "o": 1.07491,
    "h": 1.07548,
    "l": 1.07318,
    "c": 1.07412,
    "v": 3646
  },
  {
    "dt": "2021.05.05 17:00",
    "o": 1.07407,
    "h": 1.07505,
    "l": 1.07354,
    "c": 1.07423,
    "v": 4134
  },
  {
    "dt": "2021.05.05 18:00",
    "o": 1.07421,
    "h": 1.07492,
    "l": 1.07416,
    "c": 1.07441,
    "v": 2777
  },
  {
    "dt": "2021.05.05 19:00",
    "o": 1.07443,
    "h": 1.07461,
    "l": 1.0741,
    "c": 1.07425,
    "v": 2191
  },
  {
    "dt": "2021.05.05 20:00",
    "o": 1.07426,
    "h": 1.07441,
    "l": 1.07382,
    "c": 1.07416,
    "v": 1578
  },
  {
    "dt": "2021.05.05 21:00",
    "o": 1.07416,
    "h": 1.07478,
    "l": 1.07377,
    "c": 1.07419,
    "v": 1695
  },
  {
    "dt": "2021.05.05 22:00",
    "o": 1.07413,
    "h": 1.07425,
    "l": 1.07335,
    "c": 1.07349,
    "v": 2574
  },
  {
    "dt": "2021.05.05 23:00",
    "o": 1.07349,
    "h": 1.07404,
    "l": 1.07335,
    "c": 1.07342,
    "v": 1035
  },
  {
    "dt": "2021.05.06 00:00",
    "o": 1.07347,
    "h": 1.07382,
    "l": 1.07287,
    "c": 1.07347,
    "v": 245
  },
  {
    "dt": "2021.05.06 01:00",
    "o": 1.07365,
    "h": 1.0739,
    "l": 1.07264,
    "c": 1.07304,
    "v": 871
  },
  {
    "dt": "2021.05.06 02:00",
    "o": 1.07316,
    "h": 1.0739,
    "l": 1.07316,
    "c": 1.07363,
    "v": 926
  },
  {
    "dt": "2021.05.06 03:00",
    "o": 1.07362,
    "h": 1.07392,
    "l": 1.07292,
    "c": 1.07318,
    "v": 1652
  },
  {
    "dt": "2021.05.06 04:00",
    "o": 1.07317,
    "h": 1.07353,
    "l": 1.07267,
    "c": 1.0728,
    "v": 2000
  },
  {
    "dt": "2021.05.06 05:00",
    "o": 1.07279,
    "h": 1.07347,
    "l": 1.07163,
    "c": 1.07259,
    "v": 2655
  },
  {
    "dt": "2021.05.06 06:00",
    "o": 1.07255,
    "h": 1.0733,
    "l": 1.07219,
    "c": 1.07307,
    "v": 2691
  },
  {
    "dt": "2021.05.06 07:00",
    "o": 1.07306,
    "h": 1.07308,
    "l": 1.07177,
    "c": 1.07219,
    "v": 1622
  },
  {
    "dt": "2021.05.06 08:00",
    "o": 1.07219,
    "h": 1.07267,
    "l": 1.07205,
    "c": 1.07254,
    "v": 1820
  },
  {
    "dt": "2021.05.06 09:00",
    "o": 1.07254,
    "h": 1.07377,
    "l": 1.07247,
    "c": 1.07352,
    "v": 2758
  },
  {
    "dt": "2021.05.06 10:00",
    "o": 1.07353,
    "h": 1.07505,
    "l": 1.07333,
    "c": 1.07408,
    "v": 3217
  },
  {
    "dt": "2021.05.06 11:00",
    "o": 1.07407,
    "h": 1.07542,
    "l": 1.07386,
    "c": 1.07504,
    "v": 2646
  },
  {
    "dt": "2021.05.06 12:00",
    "o": 1.07504,
    "h": 1.07575,
    "l": 1.07391,
    "c": 1.07496,
    "v": 2636
  },
  {
    "dt": "2021.05.06 13:00",
    "o": 1.07499,
    "h": 1.07544,
    "l": 1.07477,
    "c": 1.07505,
    "v": 2063
  },
  {
    "dt": "2021.05.06 14:00",
    "o": 1.07504,
    "h": 1.07544,
    "l": 1.07435,
    "c": 1.07504,
    "v": 3191
  },
  {
    "dt": "2021.05.06 15:00",
    "o": 1.07502,
    "h": 1.07536,
    "l": 1.0746,
    "c": 1.0752,
    "v": 3386
  },
  {
    "dt": "2021.05.06 16:00",
    "o": 1.07521,
    "h": 1.07643,
    "l": 1.07511,
    "c": 1.07565,
    "v": 4169
  },
  {
    "dt": "2021.05.06 17:00",
    "o": 1.07564,
    "h": 1.07653,
    "l": 1.07525,
    "c": 1.0754,
    "v": 4488
  },
  {
    "dt": "2021.05.06 18:00",
    "o": 1.07545,
    "h": 1.07616,
    "l": 1.0752,
    "c": 1.0756,
    "v": 3466
  },
  {
    "dt": "2021.05.06 19:00",
    "o": 1.07558,
    "h": 1.07603,
    "l": 1.07549,
    "c": 1.07594,
    "v": 2565
  },
  {
    "dt": "2021.05.06 20:00",
    "o": 1.07593,
    "h": 1.07614,
    "l": 1.0755,
    "c": 1.07561,
    "v": 2050
  },
  {
    "dt": "2021.05.06 21:00",
    "o": 1.07565,
    "h": 1.07599,
    "l": 1.0753,
    "c": 1.07573,
    "v": 2761
  },
  {
    "dt": "2021.05.06 22:00",
    "o": 1.07561,
    "h": 1.07635,
    "l": 1.07525,
    "c": 1.07566,
    "v": 2514
  },
  {
    "dt": "2021.05.06 23:00",
    "o": 1.07568,
    "h": 1.0759,
    "l": 1.0751,
    "c": 1.07588,
    "v": 996
  },
  {
    "dt": "2021.05.07 00:00",
    "o": 1.07497,
    "h": 1.07595,
    "l": 1.07488,
    "c": 1.07551,
    "v": 575
  },
  {
    "dt": "2021.05.07 01:00",
    "o": 1.07551,
    "h": 1.07601,
    "l": 1.07551,
    "c": 1.0759,
    "v": 798
  },
  {
    "dt": "2021.05.07 02:00",
    "o": 1.07589,
    "h": 1.07662,
    "l": 1.07589,
    "c": 1.07656,
    "v": 634
  },
  {
    "dt": "2021.05.07 03:00",
    "o": 1.07654,
    "h": 1.07656,
    "l": 1.07605,
    "c": 1.07632,
    "v": 1443
  },
  {
    "dt": "2021.05.07 04:00",
    "o": 1.07633,
    "h": 1.07633,
    "l": 1.07547,
    "c": 1.07552,
    "v": 1973
  },
  {
    "dt": "2021.05.07 05:00",
    "o": 1.07548,
    "h": 1.07588,
    "l": 1.07509,
    "c": 1.0753,
    "v": 1697
  },
  {
    "dt": "2021.05.07 06:00",
    "o": 1.07534,
    "h": 1.07551,
    "l": 1.07479,
    "c": 1.07536,
    "v": 1486
  },
  {
    "dt": "2021.05.07 07:00",
    "o": 1.07538,
    "h": 1.07551,
    "l": 1.07505,
    "c": 1.07523,
    "v": 914
  },
  {
    "dt": "2021.05.07 08:00",
    "o": 1.07523,
    "h": 1.07544,
    "l": 1.07422,
    "c": 1.07424,
    "v": 1233
  },
  {
    "dt": "2021.05.07 09:00",
    "o": 1.07423,
    "h": 1.07547,
    "l": 1.07399,
    "c": 1.07547,
    "v": 2506
  },
  {
    "dt": "2021.05.07 10:00",
    "o": 1.07548,
    "h": 1.07647,
    "l": 1.07497,
    "c": 1.07566,
    "v": 2923
  },
  {
    "dt": "2021.05.07 11:00",
    "o": 1.07566,
    "h": 1.07618,
    "l": 1.07527,
    "c": 1.07566,
    "v": 2289
  },
  {
    "dt": "2021.05.07 12:00",
    "o": 1.07566,
    "h": 1.07673,
    "l": 1.0755,
    "c": 1.0767,
    "v": 1751
  },
  {
    "dt": "2021.05.07 13:00",
    "o": 1.07671,
    "h": 1.07793,
    "l": 1.07671,
    "c": 1.07727,
    "v": 1993
  },
  {
    "dt": "2021.05.07 14:00",
    "o": 1.07727,
    "h": 1.07792,
    "l": 1.07713,
    "c": 1.07753,
    "v": 2183
  },
  {
    "dt": "2021.05.07 15:00",
    "o": 1.07755,
    "h": 1.07874,
    "l": 1.07526,
    "c": 1.07691,
    "v": 4291
  },
  {
    "dt": "2021.05.07 16:00",
    "o": 1.07692,
    "h": 1.07839,
    "l": 1.07648,
    "c": 1.07816,
    "v": 5180
  },
  {
    "dt": "2021.05.07 17:00",
    "o": 1.07817,
    "h": 1.07845,
    "l": 1.07725,
    "c": 1.07785,
    "v": 4121
  },
  {
    "dt": "2021.05.07 18:00",
    "o": 1.07785,
    "h": 1.07789,
    "l": 1.07653,
    "c": 1.07727,
    "v": 3312
  },
  {
    "dt": "2021.05.07 19:00",
    "o": 1.07729,
    "h": 1.07778,
    "l": 1.0771,
    "c": 1.07743,
    "v": 2782
  },
  {
    "dt": "2021.05.07 20:00",
    "o": 1.07738,
    "h": 1.07778,
    "l": 1.07714,
    "c": 1.07729,
    "v": 2574
  },
  {
    "dt": "2021.05.07 21:00",
    "o": 1.07729,
    "h": 1.07765,
    "l": 1.07697,
    "c": 1.07724,
    "v": 2301
  },
  {
    "dt": "2021.05.07 22:00",
    "o": 1.07716,
    "h": 1.07765,
    "l": 1.07713,
    "c": 1.07744,
    "v": 1768
  },
  {
    "dt": "2021.05.07 23:00",
    "o": 1.07745,
    "h": 1.07751,
    "l": 1.07646,
    "c": 1.07717,
    "v": 1384
  },
  {
    "dt": "2021.05.10 00:00",
    "o": 1.07692,
    "h": 1.07757,
    "l": 1.0761,
    "c": 1.07751,
    "v": 161
  },
  {
    "dt": "2021.05.10 01:00",
    "o": 1.07714,
    "h": 1.0777,
    "l": 1.07693,
    "c": 1.07745,
    "v": 996
  },
  {
    "dt": "2021.05.10 02:00",
    "o": 1.07744,
    "h": 1.07744,
    "l": 1.07656,
    "c": 1.07707,
    "v": 1373
  },
  {
    "dt": "2021.05.10 03:00",
    "o": 1.07713,
    "h": 1.0784,
    "l": 1.07702,
    "c": 1.07753,
    "v": 2273
  },
  {
    "dt": "2021.05.10 04:00",
    "o": 1.07752,
    "h": 1.07819,
    "l": 1.07736,
    "c": 1.07799,
    "v": 2334
  },
  {
    "dt": "2021.05.10 05:00",
    "o": 1.07798,
    "h": 1.07846,
    "l": 1.07751,
    "c": 1.07778,
    "v": 2020
  },
  {
    "dt": "2021.05.10 06:00",
    "o": 1.07778,
    "h": 1.07846,
    "l": 1.07765,
    "c": 1.07846,
    "v": 1336
  },
  {
    "dt": "2021.05.10 07:00",
    "o": 1.07846,
    "h": 1.07863,
    "l": 1.07799,
    "c": 1.07805,
    "v": 973
  },
  {
    "dt": "2021.05.10 08:00",
    "o": 1.07804,
    "h": 1.07904,
    "l": 1.078,
    "c": 1.079,
    "v": 1699
  },
  {
    "dt": "2021.05.10 09:00",
    "o": 1.07899,
    "h": 1.07913,
    "l": 1.07845,
    "c": 1.07875,
    "v": 3221
  },
  {
    "dt": "2021.05.10 10:00",
    "o": 1.07876,
    "h": 1.07904,
    "l": 1.07822,
    "c": 1.07888,
    "v": 3408
  },
  {
    "dt": "2021.05.10 11:00",
    "o": 1.07886,
    "h": 1.07956,
    "l": 1.07871,
    "c": 1.07941,
    "v": 2844
  },
  {
    "dt": "2021.05.10 12:00",
    "o": 1.0794,
    "h": 1.07985,
    "l": 1.07929,
    "c": 1.07984,
    "v": 2234
  },
  {
    "dt": "2021.05.10 13:00",
    "o": 1.07983,
    "h": 1.08088,
    "l": 1.07975,
    "c": 1.08022,
    "v": 2278
  },
  {
    "dt": "2021.05.10 14:00",
    "o": 1.08028,
    "h": 1.08092,
    "l": 1.08023,
    "c": 1.08045,
    "v": 2550
  },
  {
    "dt": "2021.05.10 15:00",
    "o": 1.08052,
    "h": 1.08103,
    "l": 1.08008,
    "c": 1.08095,
    "v": 2764
  },
  {
    "dt": "2021.05.10 16:00",
    "o": 1.08093,
    "h": 1.08123,
    "l": 1.07972,
    "c": 1.07977,
    "v": 3901
  },
  {
    "dt": "2021.05.10 17:00",
    "o": 1.07976,
    "h": 1.0799,
    "l": 1.07836,
    "c": 1.07848,
    "v": 4315
  },
  {
    "dt": "2021.05.10 18:00",
    "o": 1.0785,
    "h": 1.07874,
    "l": 1.07805,
    "c": 1.07809,
    "v": 2985
  },
  {
    "dt": "2021.05.10 19:00",
    "o": 1.07809,
    "h": 1.07834,
    "l": 1.07769,
    "c": 1.07832,
    "v": 1953
  },
  {
    "dt": "2021.05.10 20:00",
    "o": 1.07833,
    "h": 1.07843,
    "l": 1.07791,
    "c": 1.07806,
    "v": 2303
  },
  {
    "dt": "2021.05.10 21:00",
    "o": 1.07806,
    "h": 1.07836,
    "l": 1.07777,
    "c": 1.07829,
    "v": 3217
  },
  {
    "dt": "2021.05.10 22:00",
    "o": 1.07828,
    "h": 1.07849,
    "l": 1.07771,
    "c": 1.07798,
    "v": 2392
  },
  {
    "dt": "2021.05.10 23:00",
    "o": 1.07798,
    "h": 1.07832,
    "l": 1.07769,
    "c": 1.07781,
    "v": 1335
  },
  {
    "dt": "2021.05.11 00:00",
    "o": 1.07746,
    "h": 1.07821,
    "l": 1.0772,
    "c": 1.07778,
    "v": 380
  },
  {
    "dt": "2021.05.11 01:00",
    "o": 1.07788,
    "h": 1.07852,
    "l": 1.07668,
    "c": 1.0784,
    "v": 1251
  },
  {
    "dt": "2021.05.11 02:00",
    "o": 1.07841,
    "h": 1.07841,
    "l": 1.0779,
    "c": 1.07819,
    "v": 996
  },
  {
    "dt": "2021.05.11 03:00",
    "o": 1.07823,
    "h": 1.07861,
    "l": 1.07768,
    "c": 1.0785,
    "v": 2317
  },
  {
    "dt": "2021.05.11 04:00",
    "o": 1.07847,
    "h": 1.079,
    "l": 1.07776,
    "c": 1.07844,
    "v": 2947
  },
  {
    "dt": "2021.05.11 05:00",
    "o": 1.07842,
    "h": 1.079,
    "l": 1.07832,
    "c": 1.07862,
    "v": 2339
  },
  {
    "dt": "2021.05.11 06:00",
    "o": 1.07861,
    "h": 1.07866,
    "l": 1.07804,
    "c": 1.07816,
    "v": 1408
  },
  {
    "dt": "2021.05.11 07:00",
    "o": 1.07815,
    "h": 1.07829,
    "l": 1.07742,
    "c": 1.07753,
    "v": 1548
  },
  {
    "dt": "2021.05.11 08:00",
    "o": 1.07749,
    "h": 1.07799,
    "l": 1.07737,
    "c": 1.07754,
    "v": 1636
  },
  {
    "dt": "2021.05.11 09:00",
    "o": 1.07757,
    "h": 1.07811,
    "l": 1.07711,
    "c": 1.07806,
    "v": 2585
  },
  {
    "dt": "2021.05.11 10:00",
    "o": 1.0781,
    "h": 1.07886,
    "l": 1.07758,
    "c": 1.07854,
    "v": 3508
  },
  {
    "dt": "2021.05.11 11:00",
    "o": 1.07852,
    "h": 1.07876,
    "l": 1.07732,
    "c": 1.07769,
    "v": 2688
  },
  {
    "dt": "2021.05.11 12:00",
    "o": 1.07771,
    "h": 1.0778,
    "l": 1.07682,
    "c": 1.07723,
    "v": 2589
  },
  {
    "dt": "2021.05.11 13:00",
    "o": 1.07724,
    "h": 1.07769,
    "l": 1.07691,
    "c": 1.07732,
    "v": 2850
  },
  {
    "dt": "2021.05.11 14:00",
    "o": 1.07731,
    "h": 1.07781,
    "l": 1.07703,
    "c": 1.07751,
    "v": 2588
  },
  {
    "dt": "2021.05.11 15:00",
    "o": 1.07752,
    "h": 1.07799,
    "l": 1.07731,
    "c": 1.07736,
    "v": 3193
  },
  {
    "dt": "2021.05.11 16:00",
    "o": 1.07738,
    "h": 1.07884,
    "l": 1.07719,
    "c": 1.07847,
    "v": 4825
  },
  {
    "dt": "2021.05.11 17:00",
    "o": 1.07848,
    "h": 1.07893,
    "l": 1.07773,
    "c": 1.07801,
    "v": 5039
  },
  {
    "dt": "2021.05.11 18:00",
    "o": 1.07794,
    "h": 1.07856,
    "l": 1.07761,
    "c": 1.07806,
    "v": 3830
  },
  {
    "dt": "2021.05.11 19:00",
    "o": 1.07807,
    "h": 1.07819,
    "l": 1.07768,
    "c": 1.07805,
    "v": 3132
  },
  {
    "dt": "2021.05.11 20:00",
    "o": 1.07805,
    "h": 1.07899,
    "l": 1.07785,
    "c": 1.07889,
    "v": 2573
  },
  {
    "dt": "2021.05.11 21:00",
    "o": 1.07885,
    "h": 1.07939,
    "l": 1.07869,
    "c": 1.07901,
    "v": 3063
  },
  {
    "dt": "2021.05.11 22:00",
    "o": 1.07906,
    "h": 1.0793,
    "l": 1.07836,
    "c": 1.07849,
    "v": 3239
  },
  {
    "dt": "2021.05.11 23:00",
    "o": 1.07853,
    "h": 1.07861,
    "l": 1.07795,
    "c": 1.07825,
    "v": 1085
  },
  {
    "dt": "2021.05.12 00:00",
    "o": 1.07765,
    "h": 1.07854,
    "l": 1.07735,
    "c": 1.07742,
    "v": 677
  },
  {
    "dt": "2021.05.12 01:00",
    "o": 1.07739,
    "h": 1.07908,
    "l": 1.07739,
    "c": 1.07906,
    "v": 813
  },
  {
    "dt": "2021.05.12 02:00",
    "o": 1.07906,
    "h": 1.07919,
    "l": 1.07877,
    "c": 1.07912,
    "v": 637
  },
  {
    "dt": "2021.05.12 03:00",
    "o": 1.07911,
    "h": 1.07919,
    "l": 1.07827,
    "c": 1.07858,
    "v": 2013
  },
  {
    "dt": "2021.05.12 04:00",
    "o": 1.07857,
    "h": 1.07901,
    "l": 1.0781,
    "c": 1.07818,
    "v": 2419
  },
  {
    "dt": "2021.05.12 05:00",
    "o": 1.07815,
    "h": 1.0783,
    "l": 1.0777,
    "c": 1.07788,
    "v": 2162
  },
  {
    "dt": "2021.05.12 06:00",
    "o": 1.07789,
    "h": 1.07811,
    "l": 1.07682,
    "c": 1.07712,
    "v": 2314
  },
  {
    "dt": "2021.05.12 07:00",
    "o": 1.07715,
    "h": 1.0777,
    "l": 1.07711,
    "c": 1.07764,
    "v": 1898
  },
  {
    "dt": "2021.05.12 08:00",
    "o": 1.07761,
    "h": 1.0787,
    "l": 1.07753,
    "c": 1.07862,
    "v": 2167
  },
  {
    "dt": "2021.05.12 09:00",
    "o": 1.07863,
    "h": 1.07943,
    "l": 1.07846,
    "c": 1.07937,
    "v": 2739
  },
  {
    "dt": "2021.05.12 10:00",
    "o": 1.07938,
    "h": 1.07966,
    "l": 1.07847,
    "c": 1.07959,
    "v": 3353
  },
  {
    "dt": "2021.05.12 11:00",
    "o": 1.07962,
    "h": 1.07974,
    "l": 1.07882,
    "c": 1.07949,
    "v": 2620
  },
  {
    "dt": "2021.05.12 12:00",
    "o": 1.07951,
    "h": 1.07965,
    "l": 1.07872,
    "c": 1.07917,
    "v": 2391
  },
  {
    "dt": "2021.05.12 13:00",
    "o": 1.07918,
    "h": 1.07924,
    "l": 1.07846,
    "c": 1.07882,
    "v": 2198
  },
  {
    "dt": "2021.05.12 14:00",
    "o": 1.07881,
    "h": 1.07895,
    "l": 1.07841,
    "c": 1.07885,
    "v": 2392
  },
  {
    "dt": "2021.05.12 15:00",
    "o": 1.07882,
    "h": 1.07935,
    "l": 1.07748,
    "c": 1.07894,
    "v": 4107
  },
  {
    "dt": "2021.05.12 16:00",
    "o": 1.07892,
    "h": 1.07927,
    "l": 1.07761,
    "c": 1.07907,
    "v": 5494
  },
  {
    "dt": "2021.05.12 17:00",
    "o": 1.07901,
    "h": 1.08,
    "l": 1.07884,
    "c": 1.07983,
    "v": 5104
  },
  {
    "dt": "2021.05.12 18:00",
    "o": 1.07983,
    "h": 1.07999,
    "l": 1.07907,
    "c": 1.07931,
    "v": 3907
  },
  {
    "dt": "2021.05.12 19:00",
    "o": 1.07926,
    "h": 1.08021,
    "l": 1.07914,
    "c": 1.07986,
    "v": 3840
  },
  {
    "dt": "2021.05.12 20:00",
    "o": 1.07984,
    "h": 1.08038,
    "l": 1.07951,
    "c": 1.07954,
    "v": 3476
  },
  {
    "dt": "2021.05.12 21:00",
    "o": 1.07954,
    "h": 1.07984,
    "l": 1.0792,
    "c": 1.07928,
    "v": 3192
  },
  {
    "dt": "2021.05.12 22:00",
    "o": 1.079,
    "h": 1.07962,
    "l": 1.07832,
    "c": 1.07952,
    "v": 3555
  },
  {
    "dt": "2021.05.12 23:00",
    "o": 1.07951,
    "h": 1.0798,
    "l": 1.0789,
    "c": 1.07902,
    "v": 1350
  },
  {
    "dt": "2021.05.13 00:00",
    "o": 1.07903,
    "h": 1.07967,
    "l": 1.07784,
    "c": 1.07887,
    "v": 212
  },
  {
    "dt": "2021.05.13 01:00",
    "o": 1.07901,
    "h": 1.07951,
    "l": 1.07814,
    "c": 1.07862,
    "v": 995
  },
  {
    "dt": "2021.05.13 02:00",
    "o": 1.07867,
    "h": 1.07926,
    "l": 1.07861,
    "c": 1.07924,
    "v": 926
  },
  {
    "dt": "2021.05.13 03:00",
    "o": 1.07926,
    "h": 1.07931,
    "l": 1.07799,
    "c": 1.07838,
    "v": 2613
  },
  {
    "dt": "2021.05.13 04:00",
    "o": 1.07838,
    "h": 1.07896,
    "l": 1.07803,
    "c": 1.07865,
    "v": 2857
  },
  {
    "dt": "2021.05.13 05:00",
    "o": 1.07866,
    "h": 1.07866,
    "l": 1.07759,
    "c": 1.07773,
    "v": 2148
  },
  {
    "dt": "2021.05.13 06:00",
    "o": 1.07773,
    "h": 1.07795,
    "l": 1.07695,
    "c": 1.07698,
    "v": 2224
  },
  {
    "dt": "2021.05.13 07:00",
    "o": 1.07699,
    "h": 1.0778,
    "l": 1.07691,
    "c": 1.07775,
    "v": 1470
  },
  {
    "dt": "2021.05.13 08:00",
    "o": 1.07776,
    "h": 1.07788,
    "l": 1.07682,
    "c": 1.0772,
    "v": 2070
  },
  {
    "dt": "2021.05.13 09:00",
    "o": 1.07723,
    "h": 1.07806,
    "l": 1.0771,
    "c": 1.07786,
    "v": 3181
  },
  {
    "dt": "2021.05.13 10:00",
    "o": 1.07784,
    "h": 1.07854,
    "l": 1.07747,
    "c": 1.07808,
    "v": 3868
  },
  {
    "dt": "2021.05.13 11:00",
    "o": 1.07804,
    "h": 1.07809,
    "l": 1.07688,
    "c": 1.07719,
    "v": 3745
  },
  {
    "dt": "2021.05.13 12:00",
    "o": 1.07721,
    "h": 1.0778,
    "l": 1.07656,
    "c": 1.07676,
    "v": 2943
  },
  {
    "dt": "2021.05.13 13:00",
    "o": 1.07678,
    "h": 1.07823,
    "l": 1.07671,
    "c": 1.0782,
    "v": 2995
  },
  {
    "dt": "2021.05.13 14:00",
    "o": 1.07818,
    "h": 1.07827,
    "l": 1.07736,
    "c": 1.07743,
    "v": 3232
  },
  {
    "dt": "2021.05.13 15:00",
    "o": 1.07741,
    "h": 1.07757,
    "l": 1.07615,
    "c": 1.07675,
    "v": 3674
  },
  {
    "dt": "2021.05.13 16:00",
    "o": 1.07675,
    "h": 1.0769,
    "l": 1.07583,
    "c": 1.07626,
    "v": 4018
  },
  {
    "dt": "2021.05.13 17:00",
    "o": 1.07626,
    "h": 1.0764,
    "l": 1.07539,
    "c": 1.07601,
    "v": 4028
  },
  {
    "dt": "2021.05.13 18:00",
    "o": 1.07603,
    "h": 1.07612,
    "l": 1.07525,
    "c": 1.07548,
    "v": 3766
  },
  {
    "dt": "2021.05.13 19:00",
    "o": 1.07547,
    "h": 1.07559,
    "l": 1.07524,
    "c": 1.07543,
    "v": 3553
  },
  {
    "dt": "2021.05.13 20:00",
    "o": 1.07545,
    "h": 1.07569,
    "l": 1.07521,
    "c": 1.07543,
    "v": 4218
  },
  {
    "dt": "2021.05.13 21:00",
    "o": 1.07544,
    "h": 1.0756,
    "l": 1.07476,
    "c": 1.07481,
    "v": 3787
  },
  {
    "dt": "2021.05.13 22:00",
    "o": 1.07481,
    "h": 1.07573,
    "l": 1.07479,
    "c": 1.07549,
    "v": 3616
  },
  {
    "dt": "2021.05.13 23:00",
    "o": 1.07545,
    "h": 1.07556,
    "l": 1.07487,
    "c": 1.07534,
    "v": 1470
  },
  {
    "dt": "2021.05.14 00:00",
    "o": 1.07542,
    "h": 1.0761,
    "l": 1.07462,
    "c": 1.07499,
    "v": 433
  },
  {
    "dt": "2021.05.14 01:00",
    "o": 1.07482,
    "h": 1.07557,
    "l": 1.0748,
    "c": 1.07537,
    "v": 557
  },
  {
    "dt": "2021.05.14 02:00",
    "o": 1.0754,
    "h": 1.07571,
    "l": 1.07506,
    "c": 1.07543,
    "v": 848
  },
  {
    "dt": "2021.05.14 03:00",
    "o": 1.07544,
    "h": 1.07626,
    "l": 1.07519,
    "c": 1.07606,
    "v": 2059
  },
  {
    "dt": "2021.05.14 04:00",
    "o": 1.07608,
    "h": 1.07671,
    "l": 1.07576,
    "c": 1.07612,
    "v": 2528
  },
  {
    "dt": "2021.05.14 05:00",
    "o": 1.07614,
    "h": 1.0766,
    "l": 1.076,
    "c": 1.07633,
    "v": 1906
  },
  {
    "dt": "2021.05.14 06:00",
    "o": 1.07636,
    "h": 1.07672,
    "l": 1.07591,
    "c": 1.07603,
    "v": 1443
  },
  {
    "dt": "2021.05.14 07:00",
    "o": 1.07602,
    "h": 1.07643,
    "l": 1.07586,
    "c": 1.07615,
    "v": 1176
  },
  {
    "dt": "2021.05.14 08:00",
    "o": 1.07616,
    "h": 1.07703,
    "l": 1.07608,
    "c": 1.07697,
    "v": 1466
  },
  {
    "dt": "2021.05.14 09:00",
    "o": 1.07694,
    "h": 1.07697,
    "l": 1.07607,
    "c": 1.07624,
    "v": 2807
  },
  {
    "dt": "2021.05.14 10:00",
    "o": 1.07623,
    "h": 1.07697,
    "l": 1.07599,
    "c": 1.07604,
    "v": 2920
  },
  {
    "dt": "2021.05.14 11:00",
    "o": 1.07603,
    "h": 1.07603,
    "l": 1.07431,
    "c": 1.07435,
    "v": 2576
  },
  {
    "dt": "2021.05.14 12:00",
    "o": 1.07434,
    "h": 1.07484,
    "l": 1.07381,
    "c": 1.07402,
    "v": 2288
  },
  {
    "dt": "2021.05.14 13:00",
    "o": 1.07404,
    "h": 1.07415,
    "l": 1.07335,
    "c": 1.07342,
    "v": 1825
  },
  {
    "dt": "2021.05.14 14:00",
    "o": 1.07342,
    "h": 1.07364,
    "l": 1.07237,
    "c": 1.07237,
    "v": 2294
  },
  {
    "dt": "2021.05.14 15:00",
    "o": 1.07237,
    "h": 1.07282,
    "l": 1.07212,
    "c": 1.07251,
    "v": 3435
  },
  {
    "dt": "2021.05.14 16:00",
    "o": 1.07249,
    "h": 1.07301,
    "l": 1.07195,
    "c": 1.07298,
    "v": 3746
  },
  {
    "dt": "2021.05.14 17:00",
    "o": 1.07297,
    "h": 1.0735,
    "l": 1.07266,
    "c": 1.07308,
    "v": 3880
  },
  {
    "dt": "2021.05.14 18:00",
    "o": 1.07309,
    "h": 1.07379,
    "l": 1.0728,
    "c": 1.07353,
    "v": 2387
  },
  {
    "dt": "2021.05.14 19:00",
    "o": 1.0735,
    "h": 1.07378,
    "l": 1.07312,
    "c": 1.07356,
    "v": 2069
  },
  {
    "dt": "2021.05.14 20:00",
    "o": 1.07356,
    "h": 1.07374,
    "l": 1.0733,
    "c": 1.07341,
    "v": 1474
  },
  {
    "dt": "2021.05.14 21:00",
    "o": 1.0734,
    "h": 1.07383,
    "l": 1.07336,
    "c": 1.07376,
    "v": 1183
  },
  {
    "dt": "2021.05.14 22:00",
    "o": 1.07368,
    "h": 1.07393,
    "l": 1.07294,
    "c": 1.07311,
    "v": 2245
  },
  {
    "dt": "2021.05.14 23:00",
    "o": 1.07311,
    "h": 1.07348,
    "l": 1.07201,
    "c": 1.07249,
    "v": 1130
  },
  {
    "dt": "2021.05.17 00:00",
    "o": 1.0733,
    "h": 1.0733,
    "l": 1.07185,
    "c": 1.07248,
    "v": 165
  },
  {
    "dt": "2021.05.17 01:00",
    "o": 1.07272,
    "h": 1.07368,
    "l": 1.07238,
    "c": 1.07356,
    "v": 806
  },
  {
    "dt": "2021.05.17 02:00",
    "o": 1.07356,
    "h": 1.07398,
    "l": 1.07348,
    "c": 1.07372,
    "v": 900
  },
  {
    "dt": "2021.05.17 03:00",
    "o": 1.07369,
    "h": 1.07377,
    "l": 1.07285,
    "c": 1.07295,
    "v": 2000
  },
  {
    "dt": "2021.05.17 04:00",
    "o": 1.07292,
    "h": 1.07375,
    "l": 1.07286,
    "c": 1.07364,
    "v": 2410
  },
  {
    "dt": "2021.05.17 05:00",
    "o": 1.07365,
    "h": 1.074,
    "l": 1.0722,
    "c": 1.07399,
    "v": 2466
  },
  {
    "dt": "2021.05.17 06:00",
    "o": 1.07397,
    "h": 1.07465,
    "l": 1.07378,
    "c": 1.07419,
    "v": 2288
  },
  {
    "dt": "2021.05.17 07:00",
    "o": 1.0742,
    "h": 1.07436,
    "l": 1.07374,
    "c": 1.07425,
    "v": 1891
  },
  {
    "dt": "2021.05.17 08:00",
    "o": 1.07426,
    "h": 1.07435,
    "l": 1.07381,
    "c": 1.07387,
    "v": 2320
  },
  {
    "dt": "2021.05.17 09:00",
    "o": 1.07384,
    "h": 1.07464,
    "l": 1.0737,
    "c": 1.07423,
    "v": 2831
  },
  {
    "dt": "2021.05.17 10:00",
    "o": 1.07426,
    "h": 1.07517,
    "l": 1.07411,
    "c": 1.07478,
    "v": 3037
  },
  {
    "dt": "2021.05.17 11:00",
    "o": 1.07475,
    "h": 1.0754,
    "l": 1.07472,
    "c": 1.0752,
    "v": 2218
  },
  {
    "dt": "2021.05.17 12:00",
    "o": 1.07521,
    "h": 1.07579,
    "l": 1.07483,
    "c": 1.07575,
    "v": 2346
  },
  {
    "dt": "2021.05.17 13:00",
    "o": 1.07575,
    "h": 1.07601,
    "l": 1.07514,
    "c": 1.07601,
    "v": 2077
  },
  {
    "dt": "2021.05.17 14:00",
    "o": 1.07601,
    "h": 1.07647,
    "l": 1.07575,
    "c": 1.07608,
    "v": 2370
  },
  {
    "dt": "2021.05.17 15:00",
    "o": 1.07607,
    "h": 1.07732,
    "l": 1.07584,
    "c": 1.07712,
    "v": 3257
  },
  {
    "dt": "2021.05.17 16:00",
    "o": 1.07711,
    "h": 1.07757,
    "l": 1.07662,
    "c": 1.0767,
    "v": 3648
  },
  {
    "dt": "2021.05.17 17:00",
    "o": 1.07669,
    "h": 1.07778,
    "l": 1.07638,
    "c": 1.07718,
    "v": 4918
  },
  {
    "dt": "2021.05.17 18:00",
    "o": 1.07719,
    "h": 1.07732,
    "l": 1.07626,
    "c": 1.07661,
    "v": 3794
  },
  {
    "dt": "2021.05.17 19:00",
    "o": 1.07668,
    "h": 1.07688,
    "l": 1.07609,
    "c": 1.07615,
    "v": 2380
  },
  {
    "dt": "2021.05.17 20:00",
    "o": 1.07616,
    "h": 1.07646,
    "l": 1.07593,
    "c": 1.07606,
    "v": 2591
  },
  {
    "dt": "2021.05.17 21:00",
    "o": 1.07606,
    "h": 1.077,
    "l": 1.07597,
    "c": 1.07638,
    "v": 2405
  },
  {
    "dt": "2021.05.17 22:00",
    "o": 1.0766,
    "h": 1.07679,
    "l": 1.07577,
    "c": 1.07654,
    "v": 2595
  },
  {
    "dt": "2021.05.17 23:00",
    "o": 1.07653,
    "h": 1.07688,
    "l": 1.07633,
    "c": 1.07668,
    "v": 1004
  },
  {
    "dt": "2021.05.18 00:00",
    "o": 1.0762,
    "h": 1.07736,
    "l": 1.07556,
    "c": 1.07627,
    "v": 284
  },
  {
    "dt": "2021.05.18 01:00",
    "o": 1.07624,
    "h": 1.07731,
    "l": 1.07618,
    "c": 1.07689,
    "v": 442
  },
  {
    "dt": "2021.05.18 02:00",
    "o": 1.0769,
    "h": 1.07691,
    "l": 1.0765,
    "c": 1.07677,
    "v": 663
  },
  {
    "dt": "2021.05.18 03:00",
    "o": 1.07677,
    "h": 1.07691,
    "l": 1.07626,
    "c": 1.07667,
    "v": 1647
  },
  {
    "dt": "2021.05.18 04:00",
    "o": 1.07667,
    "h": 1.07736,
    "l": 1.07601,
    "c": 1.07609,
    "v": 2417
  },
  {
    "dt": "2021.05.18 05:00",
    "o": 1.07607,
    "h": 1.07658,
    "l": 1.07581,
    "c": 1.07612,
    "v": 1869
  },
  {
    "dt": "2021.05.18 06:00",
    "o": 1.07611,
    "h": 1.07668,
    "l": 1.07602,
    "c": 1.07662,
    "v": 1788
  },
  {
    "dt": "2021.05.18 07:00",
    "o": 1.07662,
    "h": 1.07707,
    "l": 1.07611,
    "c": 1.07621,
    "v": 1713
  },
  {
    "dt": "2021.05.18 08:00",
    "o": 1.07621,
    "h": 1.07642,
    "l": 1.07591,
    "c": 1.07619,
    "v": 1537
  },
  {
    "dt": "2021.05.18 09:00",
    "o": 1.07621,
    "h": 1.07677,
    "l": 1.07551,
    "c": 1.07572,
    "v": 3061
  },
  {
    "dt": "2021.05.18 10:00",
    "o": 1.07571,
    "h": 1.07709,
    "l": 1.07547,
    "c": 1.07562,
    "v": 3168
  },
  {
    "dt": "2021.05.18 11:00",
    "o": 1.07562,
    "h": 1.07626,
    "l": 1.07517,
    "c": 1.07531,
    "v": 2389
  },
  {
    "dt": "2021.05.18 12:00",
    "o": 1.0753,
    "h": 1.0757,
    "l": 1.07471,
    "c": 1.07501,
    "v": 2241
  },
  {
    "dt": "2021.05.18 13:00",
    "o": 1.07507,
    "h": 1.07526,
    "l": 1.07456,
    "c": 1.0747,
    "v": 1317
  },
  {
    "dt": "2021.05.18 14:00",
    "o": 1.07468,
    "h": 1.07497,
    "l": 1.07426,
    "c": 1.07451,
    "v": 1789
  },
  {
    "dt": "2021.05.18 15:00",
    "o": 1.0745,
    "h": 1.07462,
    "l": 1.07366,
    "c": 1.07394,
    "v": 2935
  },
  {
    "dt": "2021.05.18 16:00",
    "o": 1.07391,
    "h": 1.07485,
    "l": 1.07384,
    "c": 1.07457,
    "v": 4045
  },
  {
    "dt": "2021.05.18 17:00",
    "o": 1.07456,
    "h": 1.07558,
    "l": 1.07438,
    "c": 1.07548,
    "v": 4034
  },
  {
    "dt": "2021.05.18 18:00",
    "o": 1.07552,
    "h": 1.0756,
    "l": 1.07487,
    "c": 1.07499,
    "v": 3253
  },
  {
    "dt": "2021.05.18 19:00",
    "o": 1.07501,
    "h": 1.0757,
    "l": 1.0747,
    "c": 1.07569,
    "v": 2692
  },
  {
    "dt": "2021.05.18 20:00",
    "o": 1.07567,
    "h": 1.07583,
    "l": 1.07543,
    "c": 1.07574,
    "v": 2016
  },
  {
    "dt": "2021.05.18 21:00",
    "o": 1.07571,
    "h": 1.07605,
    "l": 1.07557,
    "c": 1.07594,
    "v": 2889
  },
  {
    "dt": "2021.05.18 22:00",
    "o": 1.07599,
    "h": 1.07618,
    "l": 1.07559,
    "c": 1.07608,
    "v": 2743
  },
  {
    "dt": "2021.05.18 23:00",
    "o": 1.07607,
    "h": 1.0762,
    "l": 1.07569,
    "c": 1.07593,
    "v": 1395
  },
  {
    "dt": "2021.05.19 00:00",
    "o": 1.07441,
    "h": 1.07638,
    "l": 1.07441,
    "c": 1.07529,
    "v": 153
  },
  {
    "dt": "2021.05.19 01:00",
    "o": 1.07493,
    "h": 1.07626,
    "l": 1.07493,
    "c": 1.07618,
    "v": 616
  },
  {
    "dt": "2021.05.19 02:00",
    "o": 1.07616,
    "h": 1.07621,
    "l": 1.07542,
    "c": 1.07588,
    "v": 779
  },
  {
    "dt": "2021.05.19 03:00",
    "o": 1.07594,
    "h": 1.07613,
    "l": 1.07542,
    "c": 1.07551,
    "v": 2086
  },
  {
    "dt": "2021.05.19 04:00",
    "o": 1.07552,
    "h": 1.07612,
    "l": 1.07505,
    "c": 1.07562,
    "v": 2734
  },
  {
    "dt": "2021.05.19 05:00",
    "o": 1.07568,
    "h": 1.07687,
    "l": 1.07553,
    "c": 1.07663,
    "v": 2869
  },
  {
    "dt": "2021.05.19 06:00",
    "o": 1.07662,
    "h": 1.07695,
    "l": 1.07616,
    "c": 1.07649,
    "v": 2141
  },
  {
    "dt": "2021.05.19 07:00",
    "o": 1.0765,
    "h": 1.07684,
    "l": 1.07607,
    "c": 1.07631,
    "v": 1939
  },
  {
    "dt": "2021.05.19 08:00",
    "o": 1.07629,
    "h": 1.07699,
    "l": 1.07622,
    "c": 1.0766,
    "v": 2051
  },
  {
    "dt": "2021.05.19 09:00",
    "o": 1.07657,
    "h": 1.07753,
    "l": 1.07639,
    "c": 1.07712,
    "v": 3151
  },
  {
    "dt": "2021.05.19 10:00",
    "o": 1.07709,
    "h": 1.07723,
    "l": 1.07583,
    "c": 1.07648,
    "v": 4138
  },
  {
    "dt": "2021.05.19 11:00",
    "o": 1.07646,
    "h": 1.07674,
    "l": 1.0758,
    "c": 1.07667,
    "v": 3365
  },
  {
    "dt": "2021.05.19 12:00",
    "o": 1.07665,
    "h": 1.07747,
    "l": 1.07662,
    "c": 1.07669,
    "v": 3109
  },
  {
    "dt": "2021.05.19 13:00",
    "o": 1.07668,
    "h": 1.07741,
    "l": 1.07651,
    "c": 1.07698,
    "v": 2680
  },
  {
    "dt": "2021.05.19 14:00",
    "o": 1.07701,
    "h": 1.0773,
    "l": 1.07661,
    "c": 1.07696,
    "v": 3405
  },
  {
    "dt": "2021.05.19 15:00",
    "o": 1.07695,
    "h": 1.07764,
    "l": 1.07666,
    "c": 1.07756,
    "v": 3519
  },
  {
    "dt": "2021.05.19 16:00",
    "o": 1.07755,
    "h": 1.07812,
    "l": 1.07734,
    "c": 1.07781,
    "v": 5232
  },
  {
    "dt": "2021.05.19 17:00",
    "o": 1.07778,
    "h": 1.07895,
    "l": 1.07762,
    "c": 1.07854,
    "v": 5366
  },
  {
    "dt": "2021.05.19 18:00",
    "o": 1.07852,
    "h": 1.07896,
    "l": 1.07817,
    "c": 1.0787,
    "v": 3875
  },
  {
    "dt": "2021.05.19 19:00",
    "o": 1.07872,
    "h": 1.0788,
    "l": 1.07798,
    "c": 1.07808,
    "v": 2985
  },
  {
    "dt": "2021.05.19 20:00",
    "o": 1.07807,
    "h": 1.0789,
    "l": 1.07801,
    "c": 1.07851,
    "v": 2736
  },
  {
    "dt": "2021.05.19 21:00",
    "o": 1.0785,
    "h": 1.07905,
    "l": 1.07786,
    "c": 1.07786,
    "v": 5607
  },
  {
    "dt": "2021.05.19 22:00",
    "o": 1.07669,
    "h": 1.0783,
    "l": 1.07669,
    "c": 1.07775,
    "v": 4062
  },
  {
    "dt": "2021.05.19 23:00",
    "o": 1.07775,
    "h": 1.07796,
    "l": 1.07701,
    "c": 1.07721,
    "v": 1438
  },
  {
    "dt": "2021.05.20 00:00",
    "o": 1.07713,
    "h": 1.07755,
    "l": 1.07636,
    "c": 1.07684,
    "v": 469
  },
  {
    "dt": "2021.05.20 01:00",
    "o": 1.07684,
    "h": 1.07755,
    "l": 1.0768,
    "c": 1.07746,
    "v": 776
  },
  {
    "dt": "2021.05.20 02:00",
    "o": 1.07743,
    "h": 1.078,
    "l": 1.07708,
    "c": 1.0779,
    "v": 990
  },
  {
    "dt": "2021.05.20 03:00",
    "o": 1.07789,
    "h": 1.07845,
    "l": 1.07755,
    "c": 1.07835,
    "v": 2435
  },
  {
    "dt": "2021.05.20 04:00",
    "o": 1.07835,
    "h": 1.07981,
    "l": 1.07784,
    "c": 1.07907,
    "v": 3233
  },
  {
    "dt": "2021.05.20 05:00",
    "o": 1.07906,
    "h": 1.0791,
    "l": 1.07805,
    "c": 1.07894,
    "v": 2311
  },
  {
    "dt": "2021.05.20 06:00",
    "o": 1.07893,
    "h": 1.07908,
    "l": 1.07819,
    "c": 1.07854,
    "v": 1665
  },
  {
    "dt": "2021.05.20 07:00",
    "o": 1.07855,
    "h": 1.07929,
    "l": 1.07832,
    "c": 1.07881,
    "v": 1531
  },
  {
    "dt": "2021.05.20 08:00",
    "o": 1.0788,
    "h": 1.07894,
    "l": 1.07851,
    "c": 1.07878,
    "v": 1454
  },
  {
    "dt": "2021.05.20 09:00",
    "o": 1.07875,
    "h": 1.07901,
    "l": 1.07794,
    "c": 1.0781,
    "v": 2866
  },
  {
    "dt": "2021.05.20 10:00",
    "o": 1.07808,
    "h": 1.07855,
    "l": 1.07784,
    "c": 1.07834,
    "v": 3458
  },
  {
    "dt": "2021.05.20 11:00",
    "o": 1.07833,
    "h": 1.07893,
    "l": 1.07811,
    "c": 1.0787,
    "v": 3116
  },
  {
    "dt": "2021.05.20 12:00",
    "o": 1.07869,
    "h": 1.0791,
    "l": 1.07844,
    "c": 1.0791,
    "v": 2561
  },
  {
    "dt": "2021.05.20 13:00",
    "o": 1.07909,
    "h": 1.07977,
    "l": 1.07889,
    "c": 1.07938,
    "v": 2448
  },
  {
    "dt": "2021.05.20 14:00",
    "o": 1.0794,
    "h": 1.07978,
    "l": 1.07897,
    "c": 1.07965,
    "v": 2398
  },
  {
    "dt": "2021.05.20 15:00",
    "o": 1.07966,
    "h": 1.07968,
    "l": 1.07899,
    "c": 1.07924,
    "v": 2820
  },
  {
    "dt": "2021.05.20 16:00",
    "o": 1.07927,
    "h": 1.07963,
    "l": 1.07791,
    "c": 1.07804,
    "v": 4039
  },
  {
    "dt": "2021.05.20 17:00",
    "o": 1.07804,
    "h": 1.07825,
    "l": 1.07719,
    "c": 1.07808,
    "v": 4126
  },
  {
    "dt": "2021.05.20 18:00",
    "o": 1.07806,
    "h": 1.07884,
    "l": 1.07795,
    "c": 1.07847,
    "v": 2709
  },
  {
    "dt": "2021.05.20 19:00",
    "o": 1.07846,
    "h": 1.07924,
    "l": 1.07836,
    "c": 1.07908,
    "v": 3272
  },
  {
    "dt": "2021.05.20 20:00",
    "o": 1.0791,
    "h": 1.07949,
    "l": 1.07898,
    "c": 1.07925,
    "v": 2505
  },
  {
    "dt": "2021.05.20 21:00",
    "o": 1.07923,
    "h": 1.07986,
    "l": 1.07912,
    "c": 1.07956,
    "v": 2096
  },
  {
    "dt": "2021.05.20 22:00",
    "o": 1.07956,
    "h": 1.07984,
    "l": 1.07883,
    "c": 1.07909,
    "v": 2162
  },
  {
    "dt": "2021.05.20 23:00",
    "o": 1.07901,
    "h": 1.07954,
    "l": 1.07888,
    "c": 1.079,
    "v": 1357
  },
  {
    "dt": "2021.05.21 00:00",
    "o": 1.0789,
    "h": 1.0792,
    "l": 1.07804,
    "c": 1.0791,
    "v": 214
  },
  {
    "dt": "2021.05.21 01:00",
    "o": 1.07909,
    "h": 1.07982,
    "l": 1.07902,
    "c": 1.07961,
    "v": 772
  },
  {
    "dt": "2021.05.21 02:00",
    "o": 1.07963,
    "h": 1.08004,
    "l": 1.07936,
    "c": 1.07953,
    "v": 687
  },
  {
    "dt": "2021.05.21 03:00",
    "o": 1.07951,
    "h": 1.08061,
    "l": 1.07938,
    "c": 1.08038,
    "v": 2386
  },
  {
    "dt": "2021.05.21 04:00",
    "o": 1.08038,
    "h": 1.08065,
    "l": 1.07968,
    "c": 1.07979,
    "v": 2546
  },
  {
    "dt": "2021.05.21 05:00",
    "o": 1.07975,
    "h": 1.07992,
    "l": 1.07911,
    "c": 1.07945,
    "v": 2074
  },
  {
    "dt": "2021.05.21 06:00",
    "o": 1.07946,
    "h": 1.07961,
    "l": 1.07901,
    "c": 1.0792,
    "v": 1434
  },
  {
    "dt": "2021.05.21 07:00",
    "o": 1.07924,
    "h": 1.07948,
    "l": 1.07899,
    "c": 1.07928,
    "v": 1400
  },
  {
    "dt": "2021.05.21 08:00",
    "o": 1.07928,
    "h": 1.07956,
    "l": 1.07894,
    "c": 1.07895,
    "v": 1602
  },
  {
    "dt": "2021.05.21 09:00",
    "o": 1.07895,
    "h": 1.07937,
    "l": 1.0782,
    "c": 1.07835,
    "v": 2855
  },
  {
    "dt": "2021.05.21 10:00",
    "o": 1.07837,
    "h": 1.07878,
    "l": 1.07814,
    "c": 1.07872,
    "v": 3503
  },
  {
    "dt": "2021.05.21 11:00",
    "o": 1.0787,
    "h": 1.07879,
    "l": 1.07814,
    "c": 1.07865,
    "v": 2561
  },
  {
    "dt": "2021.05.21 12:00",
    "o": 1.07866,
    "h": 1.07871,
    "l": 1.07721,
    "c": 1.07751,
    "v": 2737
  },
  {
    "dt": "2021.05.21 13:00",
    "o": 1.07754,
    "h": 1.07819,
    "l": 1.07743,
    "c": 1.0776,
    "v": 2341
  },
  {
    "dt": "2021.05.21 14:00",
    "o": 1.07758,
    "h": 1.07792,
    "l": 1.07707,
    "c": 1.07758,
    "v": 2676
  },
  {
    "dt": "2021.05.21 15:00",
    "o": 1.07755,
    "h": 1.0783,
    "l": 1.07729,
    "c": 1.0781,
    "v": 3086
  },
  {
    "dt": "2021.05.21 16:00",
    "o": 1.07808,
    "h": 1.07839,
    "l": 1.0775,
    "c": 1.07803,
    "v": 3927
  },
  {
    "dt": "2021.05.21 17:00",
    "o": 1.07798,
    "h": 1.07889,
    "l": 1.07761,
    "c": 1.07838,
    "v": 4461
  },
  {
    "dt": "2021.05.21 18:00",
    "o": 1.07843,
    "h": 1.07895,
    "l": 1.07826,
    "c": 1.07888,
    "v": 3378
  },
  {
    "dt": "2021.05.21 19:00",
    "o": 1.07889,
    "h": 1.07909,
    "l": 1.0786,
    "c": 1.07867,
    "v": 2782
  },
  {
    "dt": "2021.05.21 20:00",
    "o": 1.07867,
    "h": 1.07889,
    "l": 1.07844,
    "c": 1.07873,
    "v": 2037
  },
  {
    "dt": "2021.05.21 21:00",
    "o": 1.07873,
    "h": 1.07893,
    "l": 1.07831,
    "c": 1.0789,
    "v": 1568
  },
  {
    "dt": "2021.05.21 22:00",
    "o": 1.07889,
    "h": 1.07903,
    "l": 1.07849,
    "c": 1.07895,
    "v": 2223
  },
  {
    "dt": "2021.05.21 23:00",
    "o": 1.07893,
    "h": 1.07929,
    "l": 1.07733,
    "c": 1.07813,
    "v": 1232
  },
  {
    "dt": "2021.05.24 00:00",
    "o": 1.07592,
    "h": 1.07763,
    "l": 1.07592,
    "c": 1.07701,
    "v": 142
  },
  {
    "dt": "2021.05.24 01:00",
    "o": 1.07742,
    "h": 1.0783,
    "l": 1.07644,
    "c": 1.07688,
    "v": 1013
  },
  {
    "dt": "2021.05.24 02:00",
    "o": 1.07691,
    "h": 1.07763,
    "l": 1.07686,
    "c": 1.07709,
    "v": 1118
  },
  {
    "dt": "2021.05.24 03:00",
    "o": 1.07708,
    "h": 1.07841,
    "l": 1.07708,
    "c": 1.07826,
    "v": 2220
  },
  {
    "dt": "2021.05.24 04:00",
    "o": 1.07827,
    "h": 1.07828,
    "l": 1.07671,
    "c": 1.07717,
    "v": 2937
  },
  {
    "dt": "2021.05.24 05:00",
    "o": 1.07718,
    "h": 1.07775,
    "l": 1.07708,
    "c": 1.07772,
    "v": 1918
  },
  {
    "dt": "2021.05.24 06:00",
    "o": 1.07772,
    "h": 1.07816,
    "l": 1.07739,
    "c": 1.07786,
    "v": 1811
  },
  {
    "dt": "2021.05.24 07:00",
    "o": 1.07784,
    "h": 1.07826,
    "l": 1.07761,
    "c": 1.07819,
    "v": 1185
  },
  {
    "dt": "2021.05.24 08:00",
    "o": 1.07818,
    "h": 1.07883,
    "l": 1.07808,
    "c": 1.07853,
    "v": 1726
  },
  {
    "dt": "2021.05.24 09:00",
    "o": 1.07844,
    "h": 1.0789,
    "l": 1.078,
    "c": 1.07807,
    "v": 2509
  },
  {
    "dt": "2021.05.24 10:00",
    "o": 1.07805,
    "h": 1.07824,
    "l": 1.07682,
    "c": 1.07704,
    "v": 2862
  },
  {
    "dt": "2021.05.24 11:00",
    "o": 1.07703,
    "h": 1.07711,
    "l": 1.07618,
    "c": 1.07642,
    "v": 3212
  },
  {
    "dt": "2021.05.24 12:00",
    "o": 1.07642,
    "h": 1.07706,
    "l": 1.0761,
    "c": 1.07702,
    "v": 2662
  },
  {
    "dt": "2021.05.24 13:00",
    "o": 1.07706,
    "h": 1.07716,
    "l": 1.07629,
    "c": 1.07639,
    "v": 2045
  },
  {
    "dt": "2021.05.24 14:00",
    "o": 1.07634,
    "h": 1.07647,
    "l": 1.07565,
    "c": 1.07592,
    "v": 1915
  },
  {
    "dt": "2021.05.24 15:00",
    "o": 1.0759,
    "h": 1.07613,
    "l": 1.07458,
    "c": 1.07476,
    "v": 2102
  },
  {
    "dt": "2021.05.24 16:00",
    "o": 1.07477,
    "h": 1.075,
    "l": 1.07419,
    "c": 1.0749,
    "v": 3168
  },
  {
    "dt": "2021.05.24 17:00",
    "o": 1.07489,
    "h": 1.07513,
    "l": 1.07406,
    "c": 1.07431,
    "v": 3147
  },
  {
    "dt": "2021.05.24 18:00",
    "o": 1.07426,
    "h": 1.07494,
    "l": 1.07415,
    "c": 1.07424,
    "v": 2109
  },
  {
    "dt": "2021.05.24 19:00",
    "o": 1.07424,
    "h": 1.07444,
    "l": 1.07391,
    "c": 1.07396,
    "v": 1554
  },
  {
    "dt": "2021.05.24 20:00",
    "o": 1.07395,
    "h": 1.07416,
    "l": 1.07361,
    "c": 1.07382,
    "v": 1682
  },
  {
    "dt": "2021.05.24 21:00",
    "o": 1.07386,
    "h": 1.07447,
    "l": 1.07385,
    "c": 1.0742,
    "v": 1082
  },
  {
    "dt": "2021.05.24 22:00",
    "o": 1.0742,
    "h": 1.07479,
    "l": 1.07413,
    "c": 1.07435,
    "v": 1636
  },
  {
    "dt": "2021.05.24 23:00",
    "o": 1.07437,
    "h": 1.07535,
    "l": 1.07369,
    "c": 1.07535,
    "v": 720
  },
  {
    "dt": "2021.05.25 00:00",
    "o": 1.07513,
    "h": 1.07513,
    "l": 1.07405,
    "c": 1.07426,
    "v": 274
  },
  {
    "dt": "2021.05.25 01:00",
    "o": 1.07422,
    "h": 1.07451,
    "l": 1.07405,
    "c": 1.0742,
    "v": 680
  },
  {
    "dt": "2021.05.25 02:00",
    "o": 1.07416,
    "h": 1.07433,
    "l": 1.07378,
    "c": 1.07422,
    "v": 999
  },
  {
    "dt": "2021.05.25 03:00",
    "o": 1.07426,
    "h": 1.07468,
    "l": 1.07372,
    "c": 1.07377,
    "v": 2333
  },
  {
    "dt": "2021.05.25 04:00",
    "o": 1.0738,
    "h": 1.07443,
    "l": 1.07329,
    "c": 1.0743,
    "v": 2992
  },
  {
    "dt": "2021.05.25 05:00",
    "o": 1.07431,
    "h": 1.0745,
    "l": 1.0738,
    "c": 1.0739,
    "v": 2152
  },
  {
    "dt": "2021.05.25 06:00",
    "o": 1.07391,
    "h": 1.07425,
    "l": 1.0735,
    "c": 1.07371,
    "v": 1553
  },
  {
    "dt": "2021.05.25 07:00",
    "o": 1.07376,
    "h": 1.07379,
    "l": 1.07319,
    "c": 1.07334,
    "v": 1170
  },
  {
    "dt": "2021.05.25 08:00",
    "o": 1.07334,
    "h": 1.07368,
    "l": 1.07314,
    "c": 1.07343,
    "v": 1693
  },
  {
    "dt": "2021.05.25 09:00",
    "o": 1.07347,
    "h": 1.07398,
    "l": 1.07305,
    "c": 1.07386,
    "v": 3208
  },
  {
    "dt": "2021.05.25 10:00",
    "o": 1.07386,
    "h": 1.07459,
    "l": 1.07374,
    "c": 1.0743,
    "v": 2631
  },
  {
    "dt": "2021.05.25 11:00",
    "o": 1.07434,
    "h": 1.07474,
    "l": 1.0737,
    "c": 1.07378,
    "v": 2760
  },
  {
    "dt": "2021.05.25 12:00",
    "o": 1.07378,
    "h": 1.07399,
    "l": 1.07322,
    "c": 1.07324,
    "v": 1690
  },
  {
    "dt": "2021.05.25 13:00",
    "o": 1.0733,
    "h": 1.07385,
    "l": 1.07312,
    "c": 1.07336,
    "v": 1871
  },
  {
    "dt": "2021.05.25 14:00",
    "o": 1.07336,
    "h": 1.0734,
    "l": 1.07207,
    "c": 1.07213,
    "v": 2180
  },
  {
    "dt": "2021.05.25 15:00",
    "o": 1.07216,
    "h": 1.07218,
    "l": 1.07127,
    "c": 1.07195,
    "v": 2638
  },
  {
    "dt": "2021.05.25 16:00",
    "o": 1.07197,
    "h": 1.07226,
    "l": 1.07162,
    "c": 1.07183,
    "v": 3913
  },
  {
    "dt": "2021.05.25 17:00",
    "o": 1.07184,
    "h": 1.07244,
    "l": 1.07146,
    "c": 1.07229,
    "v": 4100
  },
  {
    "dt": "2021.05.25 18:00",
    "o": 1.07233,
    "h": 1.07285,
    "l": 1.07198,
    "c": 1.07267,
    "v": 3506
  },
  {
    "dt": "2021.05.25 19:00",
    "o": 1.07263,
    "h": 1.07275,
    "l": 1.07214,
    "c": 1.07238,
    "v": 2628
  },
  {
    "dt": "2021.05.25 20:00",
    "o": 1.07237,
    "h": 1.07251,
    "l": 1.072,
    "c": 1.07207,
    "v": 2709
  },
  {
    "dt": "2021.05.25 21:00",
    "o": 1.07208,
    "h": 1.07225,
    "l": 1.07174,
    "c": 1.07201,
    "v": 2622
  },
  {
    "dt": "2021.05.25 22:00",
    "o": 1.07107,
    "h": 1.07266,
    "l": 1.07107,
    "c": 1.07242,
    "v": 2446
  },
  {
    "dt": "2021.05.25 23:00",
    "o": 1.07244,
    "h": 1.0728,
    "l": 1.07171,
    "c": 1.07171,
    "v": 1063
  },
  {
    "dt": "2021.05.26 00:00",
    "o": 1.0717,
    "h": 1.07268,
    "l": 1.0709,
    "c": 1.07196,
    "v": 212
  },
  {
    "dt": "2021.05.26 01:00",
    "o": 1.07196,
    "h": 1.07312,
    "l": 1.07194,
    "c": 1.07297,
    "v": 787
  },
  {
    "dt": "2021.05.26 02:00",
    "o": 1.07298,
    "h": 1.07309,
    "l": 1.07222,
    "c": 1.07269,
    "v": 902
  },
  {
    "dt": "2021.05.26 03:00",
    "o": 1.07269,
    "h": 1.07274,
    "l": 1.07197,
    "c": 1.07266,
    "v": 1902
  },
  {
    "dt": "2021.05.26 04:00",
    "o": 1.07266,
    "h": 1.07304,
    "l": 1.07195,
    "c": 1.07226,
    "v": 2480
  },
  {
    "dt": "2021.05.26 05:00",
    "o": 1.07222,
    "h": 1.0723,
    "l": 1.06562,
    "c": 1.06739,
    "v": 3513
  },
  {
    "dt": "2021.05.26 06:00",
    "o": 1.06736,
    "h": 1.0674,
    "l": 1.06484,
    "c": 1.06547,
    "v": 2471
  },
  {
    "dt": "2021.05.26 07:00",
    "o": 1.06548,
    "h": 1.0669,
    "l": 1.06529,
    "c": 1.06629,
    "v": 1777
  },
  {
    "dt": "2021.05.26 08:00",
    "o": 1.06625,
    "h": 1.06642,
    "l": 1.06476,
    "c": 1.06542,
    "v": 1608
  },
  {
    "dt": "2021.05.26 09:00",
    "o": 1.06547,
    "h": 1.06598,
    "l": 1.06466,
    "c": 1.06522,
    "v": 3117
  },
  {
    "dt": "2021.05.26 10:00",
    "o": 1.06522,
    "h": 1.06526,
    "l": 1.0636,
    "c": 1.06423,
    "v": 2939
  },
  {
    "dt": "2021.05.26 11:00",
    "o": 1.06423,
    "h": 1.066,
    "l": 1.06411,
    "c": 1.0657,
    "v": 2267
  },
  {
    "dt": "2021.05.26 12:00",
    "o": 1.06569,
    "h": 1.06606,
    "l": 1.06438,
    "c": 1.06451,
    "v": 2237
  },
  {
    "dt": "2021.05.26 13:00",
    "o": 1.0645,
    "h": 1.06475,
    "l": 1.06387,
    "c": 1.06393,
    "v": 2114
  },
  {
    "dt": "2021.05.26 14:00",
    "o": 1.06394,
    "h": 1.0645,
    "l": 1.06335,
    "c": 1.06363,
    "v": 2423
  },
  {
    "dt": "2021.05.26 15:00",
    "o": 1.06362,
    "h": 1.06403,
    "l": 1.06238,
    "c": 1.06283,
    "v": 3457
  },
  {
    "dt": "2021.05.26 16:00",
    "o": 1.06283,
    "h": 1.06351,
    "l": 1.06239,
    "c": 1.06292,
    "v": 3699
  },
  {
    "dt": "2021.05.26 17:00",
    "o": 1.06292,
    "h": 1.06336,
    "l": 1.06213,
    "c": 1.06217,
    "v": 3906
  },
  {
    "dt": "2021.05.26 18:00",
    "o": 1.06215,
    "h": 1.06269,
    "l": 1.06155,
    "c": 1.06192,
    "v": 3280
  },
  {
    "dt": "2021.05.26 19:00",
    "o": 1.06191,
    "h": 1.0623,
    "l": 1.06177,
    "c": 1.06209,
    "v": 2367
  },
  {
    "dt": "2021.05.26 20:00",
    "o": 1.06208,
    "h": 1.06278,
    "l": 1.06202,
    "c": 1.06266,
    "v": 2355
  },
  {
    "dt": "2021.05.26 21:00",
    "o": 1.06267,
    "h": 1.06281,
    "l": 1.06202,
    "c": 1.06213,
    "v": 1970
  },
  {
    "dt": "2021.05.26 22:00",
    "o": 1.06218,
    "h": 1.06253,
    "l": 1.06137,
    "c": 1.06154,
    "v": 1869
  },
  {
    "dt": "2021.05.26 23:00",
    "o": 1.0616,
    "h": 1.06299,
    "l": 1.06159,
    "c": 1.06278,
    "v": 1146
  },
  {
    "dt": "2021.05.27 00:00",
    "o": 1.06255,
    "h": 1.06284,
    "l": 1.06181,
    "c": 1.06266,
    "v": 220
  },
  {
    "dt": "2021.05.27 01:00",
    "o": 1.06272,
    "h": 1.06383,
    "l": 1.06266,
    "c": 1.0633,
    "v": 890
  },
  {
    "dt": "2021.05.27 02:00",
    "o": 1.06327,
    "h": 1.06347,
    "l": 1.063,
    "c": 1.06336,
    "v": 797
  },
  {
    "dt": "2021.05.27 03:00",
    "o": 1.06339,
    "h": 1.06355,
    "l": 1.06261,
    "c": 1.06305,
    "v": 1952
  },
  {
    "dt": "2021.05.27 04:00",
    "o": 1.0631,
    "h": 1.0631,
    "l": 1.06203,
    "c": 1.06205,
    "v": 2358
  },
  {
    "dt": "2021.05.27 05:00",
    "o": 1.06205,
    "h": 1.06221,
    "l": 1.06079,
    "c": 1.06088,
    "v": 1747
  },
  {
    "dt": "2021.05.27 06:00",
    "o": 1.06088,
    "h": 1.06144,
    "l": 1.06075,
    "c": 1.0614,
    "v": 1457
  },
  {
    "dt": "2021.05.27 07:00",
    "o": 1.0614,
    "h": 1.06226,
    "l": 1.06125,
    "c": 1.06197,
    "v": 1168
  },
  {
    "dt": "2021.05.27 08:00",
    "o": 1.06199,
    "h": 1.06206,
    "l": 1.06138,
    "c": 1.06183,
    "v": 1594
  },
  {
    "dt": "2021.05.27 09:00",
    "o": 1.06184,
    "h": 1.06261,
    "l": 1.06173,
    "c": 1.06173,
    "v": 3024
  },
  {
    "dt": "2021.05.27 10:00",
    "o": 1.06175,
    "h": 1.0621,
    "l": 1.06113,
    "c": 1.06163,
    "v": 3123
  },
  {
    "dt": "2021.05.27 11:00",
    "o": 1.06162,
    "h": 1.06181,
    "l": 1.06129,
    "c": 1.06174,
    "v": 2729
  },
  {
    "dt": "2021.05.27 12:00",
    "o": 1.06174,
    "h": 1.06194,
    "l": 1.06053,
    "c": 1.06093,
    "v": 1814
  },
  {
    "dt": "2021.05.27 13:00",
    "o": 1.06093,
    "h": 1.06093,
    "l": 1.05989,
    "c": 1.0604,
    "v": 1989
  },
  {
    "dt": "2021.05.27 14:00",
    "o": 1.06039,
    "h": 1.06116,
    "l": 1.06037,
    "c": 1.06097,
    "v": 2813
  },
  {
    "dt": "2021.05.27 15:00",
    "o": 1.06098,
    "h": 1.06174,
    "l": 1.06086,
    "c": 1.06091,
    "v": 3702
  },
  {
    "dt": "2021.05.27 16:00",
    "o": 1.06094,
    "h": 1.06173,
    "l": 1.06081,
    "c": 1.06117,
    "v": 3899
  },
  {
    "dt": "2021.05.27 17:00",
    "o": 1.06118,
    "h": 1.06197,
    "l": 1.06054,
    "c": 1.06147,
    "v": 4167
  },
  {
    "dt": "2021.05.27 18:00",
    "o": 1.06144,
    "h": 1.06187,
    "l": 1.06082,
    "c": 1.06089,
    "v": 3504
  },
  {
    "dt": "2021.05.27 19:00",
    "o": 1.06089,
    "h": 1.06158,
    "l": 1.06062,
    "c": 1.0615,
    "v": 2618
  },
  {
    "dt": "2021.05.27 20:00",
    "o": 1.06145,
    "h": 1.06146,
    "l": 1.06049,
    "c": 1.06069,
    "v": 2279
  },
  {
    "dt": "2021.05.27 21:00",
    "o": 1.06068,
    "h": 1.0611,
    "l": 1.06049,
    "c": 1.06092,
    "v": 1831
  },
  {
    "dt": "2021.05.27 22:00",
    "o": 1.06118,
    "h": 1.06141,
    "l": 1.06041,
    "c": 1.06106,
    "v": 2041
  },
  {
    "dt": "2021.05.27 23:00",
    "o": 1.06108,
    "h": 1.06203,
    "l": 1.0609,
    "c": 1.06177,
    "v": 1021
  },
  {
    "dt": "2021.05.28 00:00",
    "o": 1.06185,
    "h": 1.06185,
    "l": 1.06068,
    "c": 1.06087,
    "v": 249
  },
  {
    "dt": "2021.05.28 01:00",
    "o": 1.06086,
    "h": 1.06238,
    "l": 1.06086,
    "c": 1.06228,
    "v": 605
  },
  {
    "dt": "2021.05.28 02:00",
    "o": 1.06227,
    "h": 1.06289,
    "l": 1.06219,
    "c": 1.06287,
    "v": 819
  },
  {
    "dt": "2021.05.28 03:00",
    "o": 1.06288,
    "h": 1.06342,
    "l": 1.0626,
    "c": 1.0631,
    "v": 2065
  },
  {
    "dt": "2021.05.28 04:00",
    "o": 1.06311,
    "h": 1.06434,
    "l": 1.06308,
    "c": 1.06411,
    "v": 2132
  },
  {
    "dt": "2021.05.28 05:00",
    "o": 1.06413,
    "h": 1.06494,
    "l": 1.06394,
    "c": 1.06494,
    "v": 1676
  },
  {
    "dt": "2021.05.28 06:00",
    "o": 1.06493,
    "h": 1.06511,
    "l": 1.06407,
    "c": 1.06411,
    "v": 1388
  },
  {
    "dt": "2021.05.28 07:00",
    "o": 1.0641,
    "h": 1.06503,
    "l": 1.06402,
    "c": 1.06502,
    "v": 932
  },
  {
    "dt": "2021.05.28 08:00",
    "o": 1.06504,
    "h": 1.0653,
    "l": 1.06438,
    "c": 1.06482,
    "v": 1959
  },
  {
    "dt": "2021.05.28 09:00",
    "o": 1.06482,
    "h": 1.06544,
    "l": 1.06436,
    "c": 1.06517,
    "v": 3016
  },
  {
    "dt": "2021.05.28 10:00",
    "o": 1.06516,
    "h": 1.06548,
    "l": 1.06494,
    "c": 1.06538,
    "v": 3105
  },
  {
    "dt": "2021.05.28 11:00",
    "o": 1.06539,
    "h": 1.06547,
    "l": 1.06434,
    "c": 1.06486,
    "v": 2437
  },
  {
    "dt": "2021.05.28 12:00",
    "o": 1.06481,
    "h": 1.06491,
    "l": 1.06402,
    "c": 1.06414,
    "v": 1955
  },
  {
    "dt": "2021.05.28 13:00",
    "o": 1.06413,
    "h": 1.0644,
    "l": 1.06372,
    "c": 1.06422,
    "v": 1921
  },
  {
    "dt": "2021.05.28 14:00",
    "o": 1.06418,
    "h": 1.06548,
    "l": 1.06418,
    "c": 1.06489,
    "v": 3124
  },
  {
    "dt": "2021.05.28 15:00",
    "o": 1.06486,
    "h": 1.06489,
    "l": 1.06352,
    "c": 1.06415,
    "v": 4044
  },
  {
    "dt": "2021.05.28 16:00",
    "o": 1.06416,
    "h": 1.06443,
    "l": 1.0629,
    "c": 1.06314,
    "v": 4148
  },
  {
    "dt": "2021.05.28 17:00",
    "o": 1.06318,
    "h": 1.06349,
    "l": 1.06227,
    "c": 1.0632,
    "v": 4238
  },
  {
    "dt": "2021.05.28 18:00",
    "o": 1.06322,
    "h": 1.06349,
    "l": 1.06246,
    "c": 1.06259,
    "v": 2992
  },
  {
    "dt": "2021.05.28 19:00",
    "o": 1.06259,
    "h": 1.06269,
    "l": 1.06194,
    "c": 1.06252,
    "v": 2393
  },
  {
    "dt": "2021.05.28 20:00",
    "o": 1.06254,
    "h": 1.06254,
    "l": 1.06199,
    "c": 1.06202,
    "v": 2234
  },
  {
    "dt": "2021.05.28 21:00",
    "o": 1.06202,
    "h": 1.06309,
    "l": 1.06196,
    "c": 1.06281,
    "v": 1932
  },
  {
    "dt": "2021.05.28 22:00",
    "o": 1.06283,
    "h": 1.06411,
    "l": 1.06258,
    "c": 1.06398,
    "v": 1848
  },
  {
    "dt": "2021.05.28 23:00",
    "o": 1.06397,
    "h": 1.06399,
    "l": 1.06276,
    "c": 1.06299,
    "v": 1259
  },
  {
    "dt": "2021.05.31 00:00",
    "o": 1.06215,
    "h": 1.06311,
    "l": 1.06211,
    "c": 1.06262,
    "v": 77
  },
  {
    "dt": "2021.05.31 01:00",
    "o": 1.06266,
    "h": 1.06356,
    "l": 1.06242,
    "c": 1.06344,
    "v": 577
  },
  {
    "dt": "2021.05.31 02:00",
    "o": 1.06344,
    "h": 1.06453,
    "l": 1.06343,
    "c": 1.06418,
    "v": 651
  },
  {
    "dt": "2021.05.31 03:00",
    "o": 1.06421,
    "h": 1.06518,
    "l": 1.0642,
    "c": 1.06508,
    "v": 2198
  },
  {
    "dt": "2021.05.31 04:00",
    "o": 1.06506,
    "h": 1.0656,
    "l": 1.06468,
    "c": 1.06508,
    "v": 2873
  },
  {
    "dt": "2021.05.31 05:00",
    "o": 1.06509,
    "h": 1.06537,
    "l": 1.06459,
    "c": 1.06464,
    "v": 1561
  },
  {
    "dt": "2021.05.31 06:00",
    "o": 1.0646,
    "h": 1.06486,
    "l": 1.06421,
    "c": 1.0648,
    "v": 1423
  },
  {
    "dt": "2021.05.31 07:00",
    "o": 1.06483,
    "h": 1.06513,
    "l": 1.06422,
    "c": 1.06433,
    "v": 1169
  },
  {
    "dt": "2021.05.31 08:00",
    "o": 1.06434,
    "h": 1.06508,
    "l": 1.06431,
    "c": 1.06472,
    "v": 1288
  },
  {
    "dt": "2021.05.31 09:00",
    "o": 1.0647,
    "h": 1.06542,
    "l": 1.06459,
    "c": 1.06531,
    "v": 2173
  },
  {
    "dt": "2021.05.31 10:00",
    "o": 1.06533,
    "h": 1.06576,
    "l": 1.06533,
    "c": 1.06565,
    "v": 2727
  },
  {
    "dt": "2021.05.31 11:00",
    "o": 1.06563,
    "h": 1.06586,
    "l": 1.06541,
    "c": 1.06563,
    "v": 2476
  },
  {
    "dt": "2021.05.31 12:00",
    "o": 1.06564,
    "h": 1.06572,
    "l": 1.06521,
    "c": 1.0656,
    "v": 1977
  },
  {
    "dt": "2021.05.31 13:00",
    "o": 1.0656,
    "h": 1.06566,
    "l": 1.06498,
    "c": 1.06508,
    "v": 1516
  },
  {
    "dt": "2021.05.31 14:00",
    "o": 1.0651,
    "h": 1.06546,
    "l": 1.06476,
    "c": 1.06494,
    "v": 1540
  },
  {
    "dt": "2021.05.31 15:00",
    "o": 1.06495,
    "h": 1.06496,
    "l": 1.06444,
    "c": 1.0645,
    "v": 1427
  },
  {
    "dt": "2021.05.31 16:00",
    "o": 1.06452,
    "h": 1.06479,
    "l": 1.06445,
    "c": 1.06464,
    "v": 1799
  },
  {
    "dt": "2021.05.31 17:00",
    "o": 1.0646,
    "h": 1.06466,
    "l": 1.06293,
    "c": 1.06316,
    "v": 1951
  },
  {
    "dt": "2021.05.31 18:00",
    "o": 1.06312,
    "h": 1.06354,
    "l": 1.06258,
    "c": 1.06263,
    "v": 1809
  },
  {
    "dt": "2021.05.31 19:00",
    "o": 1.06263,
    "h": 1.063,
    "l": 1.06245,
    "c": 1.06258,
    "v": 1259
  },
  {
    "dt": "2021.05.31 20:00",
    "o": 1.0626,
    "h": 1.06327,
    "l": 1.06235,
    "c": 1.06287,
    "v": 927
  },
  {
    "dt": "2021.05.31 21:00",
    "o": 1.06286,
    "h": 1.06322,
    "l": 1.06229,
    "c": 1.06269,
    "v": 895
  },
  {
    "dt": "2021.05.31 22:00",
    "o": 1.06245,
    "h": 1.06287,
    "l": 1.0618,
    "c": 1.06285,
    "v": 1087
  },
  {
    "dt": "2021.05.31 23:00",
    "o": 1.06283,
    "h": 1.0633,
    "l": 1.06169,
    "c": 1.06305,
    "v": 721
  }
]