[
  {
    "dt": "2021.12.01 00:00",
    "o": 1.0441,
    "h": 1.04492,
    "l": 1.04389,
    "c": 1.04439,
    "v": 1214
  },
  {
    "dt": "2021.12.01 01:00",
    "o": 1.04448,
    "h": 1.04494,
    "l": 1.04355,
    "c": 1.04394,
    "v": 1810
  },
  {
    "dt": "2021.12.01 02:00",
    "o": 1.04393,
    "h": 1.04532,
    "l": 1.04353,
    "c": 1.04475,
    "v": 2541
  },
  {
    "dt": "2021.12.01 03:00",
    "o": 1.04477,
    "h": 1.04538,
    "l": 1.0441,
    "c": 1.04426,
    "v": 2856
  },
  {
    "dt": "2021.12.01 04:00",
    "o": 1.04422,
    "h": 1.04486,
    "l": 1.04373,
    "c": 1.04459,
    "v": 2010
  },
  {
    "dt": "2021.12.01 05:00",
    "o": 1.0446,
    "h": 1.04479,
    "l": 1.0437,
    "c": 1.04442,
    "v": 1864
  },
  {
    "dt": "2021.12.01 06:00",
    "o": 1.04442,
    "h": 1.04538,
    "l": 1.04421,
    "c": 1.04523,
    "v": 1508
  },
  {
    "dt": "2021.12.01 07:00",
    "o": 1.04525,
    "h": 1.04532,
    "l": 1.04449,
    "c": 1.04518,
    "v": 1560
  },
  {
    "dt": "2021.12.01 08:00",
    "o": 1.04517,
    "h": 1.04558,
    "l": 1.04477,
    "c": 1.04478,
    "v": 2050
  },
  {
    "dt": "2021.12.01 09:00",
    "o": 1.04481,
    "h": 1.04509,
    "l": 1.04398,
    "c": 1.04416,
    "v": 3434
  },
  {
    "dt": "2021.12.01 10:00",
    "o": 1.04416,
    "h": 1.04479,
    "l": 1.04353,
    "c": 1.04444,
    "v": 4151
  },
  {
    "dt": "2021.12.01 11:00",
    "o": 1.04448,
    "h": 1.04451,
    "l": 1.04369,
    "c": 1.04418,
    "v": 3334
  },
  {
    "dt": "2021.12.01 12:00",
    "o": 1.04418,
    "h": 1.0453,
    "l": 1.04338,
    "c": 1.0448,
    "v": 2573
  },
  {
    "dt": "2021.12.01 13:00",
    "o": 1.04481,
    "h": 1.04499,
    "l": 1.04427,
    "c": 1.04484,
    "v": 2416
  },
  {
    "dt": "2021.12.01 14:00",
    "o": 1.04488,
    "h": 1.04511,
    "l": 1.04414,
    "c": 1.04431,
    "v": 2895
  },
  {
    "dt": "2021.12.01 15:00",
    "o": 1.04433,
    "h": 1.04501,
    "l": 1.04359,
    "c": 1.04452,
    "v": 3959
  },
  {
    "dt": "2021.12.01 16:00",
    "o": 1.04454,
    "h": 1.04488,
    "l": 1.04364,
    "c": 1.04458,
    "v": 3973
  },
  {
    "dt": "2021.12.01 17:00",
    "o": 1.04458,
    "h": 1.04511,
    "l": 1.04229,
    "c": 1.04307,
    "v": 4957
  },
  {
    "dt": "2021.12.01 18:00",
    "o": 1.04305,
    "h": 1.04383,
    "l": 1.04234,
    "c": 1.04252,
    "v": 4779
  },
  {
    "dt": "2021.12.01 19:00",
    "o": 1.04254,
    "h": 1.04347,
    "l": 1.04254,
    "c": 1.04279,
    "v": 3634
  },
  {
    "dt": "2021.12.01 20:00",
    "o": 1.04247,
    "h": 1.0435,
    "l": 1.04218,
    "c": 1.04308,
    "v": 4223
  },
  {
    "dt": "2021.12.01 21:00",
    "o": 1.04307,
    "h": 1.04363,
    "l": 1.04283,
    "c": 1.04322,
    "v": 4287
  },
  {
    "dt": "2021.12.01 22:00",
    "o": 1.04324,
    "h": 1.04378,
    "l": 1.04227,
    "c": 1.04246,
    "v": 4462
  },
  {
    "dt": "2021.12.01 23:00",
    "o": 1.04247,
    "h": 1.0437,
    "l": 1.04229,
    "c": 1.04288,
    "v": 2465
  },
  {
    "dt": "2021.12.02 00:00",
    "o": 1.04299,
    "h": 1.04358,
    "l": 1.04256,
    "c": 1.04283,
    "v": 1079
  },
  {
    "dt": "2021.12.02 01:00",
    "o": 1.0429,
    "h": 1.04346,
    "l": 1.04278,
    "c": 1.04293,
    "v": 1206
  },
  {
    "dt": "2021.12.02 02:00",
    "o": 1.04295,
    "h": 1.04315,
    "l": 1.04207,
    "c": 1.04231,
    "v": 1977
  },
  {
    "dt": "2021.12.02 03:00",
    "o": 1.04233,
    "h": 1.04282,
    "l": 1.04179,
    "c": 1.04274,
    "v": 2802
  },
  {
    "dt": "2021.12.02 04:00",
    "o": 1.04274,
    "h": 1.0437,
    "l": 1.04262,
    "c": 1.04325,
    "v": 2497
  },
  {
    "dt": "2021.12.02 05:00",
    "o": 1.04327,
    "h": 1.04331,
    "l": 1.04269,
    "c": 1.04277,
    "v": 1427
  },
  {
    "dt": "2021.12.02 06:00",
    "o": 1.04277,
    "h": 1.04278,
    "l": 1.04108,
    "c": 1.0413,
    "v": 1669
  },
  {
    "dt": "2021.12.02 07:00",
    "o": 1.0413,
    "h": 1.04225,
    "l": 1.04104,
    "c": 1.04214,
    "v": 1678
  },
  {
    "dt": "2021.12.02 08:00",
    "o": 1.04215,
    "h": 1.043,
    "l": 1.0419,
    "c": 1.04298,
    "v": 2817
  },
  {
    "dt": "2021.12.02 09:00",
    "o": 1.04301,
    "h": 1.0432,
    "l": 1.04268,
    "c": 1.04284,
    "v": 3299
  },
  {
    "dt": "2021.12.02 10:00",
    "o": 1.0428,
    "h": 1.04287,
    "l": 1.04231,
    "c": 1.04258,
    "v": 3980
  },
  {
    "dt": "2021.12.02 11:00",
    "o": 1.04257,
    "h": 1.04286,
    "l": 1.04167,
    "c": 1.04209,
    "v": 3248
  },
  {
    "dt": "2021.12.02 12:00",
    "o": 1.0421,
    "h": 1.04273,
    "l": 1.04145,
    "c": 1.04267,
    "v": 3740
  },
  {
    "dt": "2021.12.02 13:00",
    "o": 1.0427,
    "h": 1.04335,
    "l": 1.0425,
    "c": 1.04274,
    "v": 3190
  },
  {
    "dt": "2021.12.02 14:00",
    "o": 1.04273,
    "h": 1.0432,
    "l": 1.04248,
    "c": 1.04272,
    "v": 3667
  },
  {
    "dt": "2021.12.02 15:00",
    "o": 1.0427,
    "h": 1.04295,
    "l": 1.04197,
    "c": 1.04231,
    "v": 3914
  },
  {
    "dt": "2021.12.02 16:00",
    "o": 1.04231,
    "h": 1.04244,
    "l": 1.04097,
    "c": 1.04112,
    "v": 4718
  },
  {
    "dt": "2021.12.02 17:00",
    "o": 1.04107,
    "h": 1.04241,
    "l": 1.0406,
    "c": 1.04107,
    "v": 4999
  },
  {
    "dt": "2021.12.02 18:00",
    "o": 1.04108,
    "h": 1.0416,
    "l": 1.04079,
    "c": 1.0414,
    "v": 4855
  },
  {
    "dt": "2021.12.02 19:00",
    "o": 1.04138,
    "h": 1.04217,
    "l": 1.04124,
    "c": 1.0415,
    "v": 4001
  },
  {
    "dt": "2021.12.02 20:00",
    "o": 1.04123,
    "h": 1.04186,
    "l": 1.04061,
    "c": 1.04154,
    "v": 3577
  },
  {
    "dt": "2021.12.02 21:00",
    "o": 1.04155,
    "h": 1.04176,
    "l": 1.04087,
    "c": 1.04087,
    "v": 3045
  },
  {
    "dt": "2021.12.02 22:00",
    "o": 1.0409,
    "h": 1.04115,
    "l": 1.0403,
    "c": 1.04037,
    "v": 3772
  },
  {
    "dt": "2021.12.02 23:00",
    "o": 1.04037,
    "h": 1.04044,
    "l": 1.03881,
    "c": 1.03881,
    "v": 1958
  },
  {
    "dt": "2021.12.03 00:00",
    "o": 1.03995,
    "h": 1.04061,
    "l": 1.03966,
    "c": 1.03982,
    "v": 659
  },
  {
    "dt": "2021.12.03 01:00",
    "o": 1.03995,
    "h": 1.04046,
    "l": 1.03964,
    "c": 1.04034,
    "v": 1265
  },
  {
    "dt": "2021.12.03 02:00",
    "o": 1.04033,
    "h": 1.04162,
    "l": 1.04012,
    "c": 1.04116,
    "v": 1391
  },
  {
    "dt": "2021.12.03 03:00",
    "o": 1.04117,
    "h": 1.04144,
    "l": 1.04061,
    "c": 1.04129,
    "v": 2412
  },
  {
    "dt": "2021.12.03 04:00",
    "o": 1.04125,
    "h": 1.04158,
    "l": 1.04078,
    "c": 1.04123,
    "v": 1631
  },
  {
    "dt": "2021.12.03 05:00",
    "o": 1.04121,
    "h": 1.04171,
    "l": 1.04078,
    "c": 1.04122,
    "v": 1454
  },
  {
    "dt": "2021.12.03 06:00",
    "o": 1.04114,
    "h": 1.04119,
    "l": 1.0404,
    "c": 1.04103,
    "v": 1263
  },
  {
    "dt": "2021.12.03 07:00",
    "o": 1.04102,
    "h": 1.04166,
    "l": 1.04086,
    "c": 1.04149,
    "v": 1711
  },
  {
    "dt": "2021.12.03 08:00",
    "o": 1.04148,
    "h": 1.04186,
    "l": 1.04104,
    "c": 1.0412,
    "v": 1811
  },
  {
    "dt": "2021.12.03 09:00",
    "o": 1.04126,
    "h": 1.04192,
    "l": 1.04093,
    "c": 1.04095,
    "v": 3052
  },
  {
    "dt": "2021.12.03 10:00",
    "o": 1.04093,
    "h": 1.04145,
    "l": 1.04074,
    "c": 1.04131,
    "v": 3520
  },
  {
    "dt": "2021.12.03 11:00",
    "o": 1.0413,
    "h": 1.0413,
    "l": 1.04023,
    "c": 1.04046,
    "v": 2825
  },
  {
    "dt": "2021.12.03 12:00",
    "o": 1.04045,
    "h": 1.04101,
    "l": 1.04031,
    "c": 1.04041,
    "v": 2743
  },
  {
    "dt": "2021.12.03 13:00",
    "o": 1.04043,
    "h": 1.04088,
    "l": 1.0393,
    "c": 1.03937,
    "v": 2631
  },
  {
    "dt": "2021.12.03 14:00",
    "o": 1.03938,
    "h": 1.04004,
    "l": 1.03927,
    "c": 1.03982,
    "v": 2779
  },
  {
    "dt": "2021.12.03 15:00",
    "o": 1.03982,
    "h": 1.04076,
    "l": 1.03918,
    "c": 1.04076,
    "v": 4491
  },
  {
    "dt": "2021.12.03 16:00",
    "o": 1.04076,
    "h": 1.04084,
    "l": 1.03895,
    "c": 1.03921,
    "v": 4899
  },
  {
    "dt": "2021.12.03 17:00",
    "o": 1.03926,
    "h": 1.03949,
    "l": 1.03821,
    "c": 1.03837,
    "v": 5180
  },
  {
    "dt": "2021.12.03 18:00",
    "o": 1.03838,
    "h": 1.03908,
    "l": 1.0379,
    "c": 1.03801,
    "v": 4937
  },
  {
    "dt": "2021.12.03 19:00",
    "o": 1.038,
    "h": 1.03823,
    "l": 1.0377,
    "c": 1.03805,
    "v": 3355
  },
  {
    "dt": "2021.12.03 20:00",
    "o": 1.03803,
    "h": 1.03808,
    "l": 1.03705,
    "c": 1.03722,
    "v": 3247
  },
  {
    "dt": "2021.12.03 21:00",
    "o": 1.03723,
    "h": 1.03734,
    "l": 1.03661,
    "c": 1.0367,
    "v": 3318
  },
  {
    "dt": "2021.12.03 22:00",
    "o": 1.03671,
    "h": 1.03751,
    "l": 1.03656,
    "c": 1.03721,
    "v": 3434
  },
  {
    "dt": "2021.12.03 23:00",
    "o": 1.03719,
    "h": 1.03741,
    "l": 1.03631,
    "c": 1.03668,
    "v": 1700
  },
  {
    "dt": "2021.12.06 00:00",
    "o": 1.03556,
    "h": 1.03712,
    "l": 1.03556,
    "c": 1.03648,
    "v": 990
  },
  {
    "dt": "2021.12.06 01:00",
    "o": 1.03658,
    "h": 1.03862,
    "l": 1.03658,
    "c": 1.03845,
    "v": 1718
  },
  {
    "dt": "2021.12.06 02:00",
    "o": 1.03846,
    "h": 1.0401,
    "l": 1.03758,
    "c": 1.03953,
    "v": 2125
  },
  {
    "dt": "2021.12.06 03:00",
    "o": 1.03948,
    "h": 1.04012,
    "l": 1.03867,
    "c": 1.03913,
    "v": 2433
  },
  {
    "dt": "2021.12.06 04:00",
    "o": 1.03915,
    "h": 1.03942,
    "l": 1.03862,
    "c": 1.03886,
    "v": 1719
  },
  {
    "dt": "2021.12.06 05:00",
    "o": 1.03889,
    "h": 1.03918,
    "l": 1.0384,
    "c": 1.03898,
    "v": 1390
  },
  {
    "dt": "2021.12.06 06:00",
    "o": 1.03898,
    "h": 1.03938,
    "l": 1.03853,
    "c": 1.03919,
    "v": 1183
  },
  {
    "dt": "2021.12.06 07:00",
    "o": 1.03922,
    "h": 1.03933,
    "l": 1.03822,
    "c": 1.03859,
    "v": 1702
  },
  {
    "dt": "2021.12.06 08:00",
    "o": 1.0386,
    "h": 1.04014,
    "l": 1.03855,
    "c": 1.03988,
    "v": 2328
  },
  {
    "dt": "2021.12.06 09:00",
    "o": 1.03983,
    "h": 1.03984,
    "l": 1.03941,
    "c": 1.03951,
    "v": 2579
  },
  {
    "dt": "2021.12.06 10:00",
    "o": 1.03954,
    "h": 1.04118,
    "l": 1.03942,
    "c": 1.0408,
    "v": 3400
  },
  {
    "dt": "2021.12.06 11:00",
    "o": 1.04081,
    "h": 1.04206,
    "l": 1.04072,
    "c": 1.04103,
    "v": 3414
  },
  {
    "dt": "2021.12.06 12:00",
    "o": 1.04106,
    "h": 1.04156,
    "l": 1.04085,
    "c": 1.04105,
    "v": 2942
  },
  {
    "dt": "2021.12.06 13:00",
    "o": 1.04102,
    "h": 1.04135,
    "l": 1.04028,
    "c": 1.04043,
    "v": 2722
  },
  {
    "dt": "2021.12.06 14:00",
    "o": 1.04044,
    "h": 1.04115,
    "l": 1.04042,
    "c": 1.04108,
    "v": 2696
  },
  {
    "dt": "2021.12.06 15:00",
    "o": 1.04112,
    "h": 1.04199,
    "l": 1.04088,
    "c": 1.04194,
    "v": 3353
  },
  {
    "dt": "2021.12.06 16:00",
    "o": 1.04195,
    "h": 1.04302,
    "l": 1.04163,
    "c": 1.04294,
    "v": 4012
  },
  {
    "dt": "2021.12.06 17:00",
    "o": 1.04293,
    "h": 1.04474,
    "l": 1.04284,
    "c": 1.04458,
    "v": 4038
  },
  {
    "dt": "2021.12.06 18:00",
    "o": 1.04461,
    "h": 1.04479,
    "l": 1.04357,
    "c": 1.04365,
    "v": 4149
  },
  {
    "dt": "2021.12.06 19:00",
    "o": 1.04366,
    "h": 1.04394,
    "l": 1.04327,
    "c": 1.04337,
    "v": 3075
  },
  {
    "dt": "2021.12.06 20:00",
    "o": 1.0432,
    "h": 1.04497,
    "l": 1.0432,
    "c": 1.04492,
    "v": 2763
  },
  {
    "dt": "2021.12.06 21:00",
    "o": 1.0449,
    "h": 1.04492,
    "l": 1.04395,
    "c": 1.04414,
    "v": 2479
  },
  {
    "dt": "2021.12.06 22:00",
    "o": 1.04415,
    "h": 1.04441,
    "l": 1.04256,
    "c": 1.04314,
    "v": 2560
  },
  {
    "dt": "2021.12.06 23:00",
    "o": 1.04316,
    "h": 1.04389,
    "l": 1.04289,
    "c": 1.04333,
    "v": 1628
  },
  {
    "dt": "2021.12.07 00:00",
    "o": 1.04341,
    "h": 1.04431,
    "l": 1.04316,
    "c": 1.04362,
    "v": 695
  },
  {
    "dt": "2021.12.07 01:00",
    "o": 1.04386,
    "h": 1.04438,
    "l": 1.04307,
    "c": 1.0443,
    "v": 793
  },
  {
    "dt": "2021.12.07 02:00",
    "o": 1.04431,
    "h": 1.04502,
    "l": 1.04398,
    "c": 1.04406,
    "v": 1573
  },
  {
    "dt": "2021.12.07 03:00",
    "o": 1.04403,
    "h": 1.0455,
    "l": 1.04391,
    "c": 1.04548,
    "v": 1879
  },
  {
    "dt": "2021.12.07 04:00",
    "o": 1.0455,
    "h": 1.0455,
    "l": 1.04432,
    "c": 1.04446,
    "v": 2017
  },
  {
    "dt": "2021.12.07 05:00",
    "o": 1.04446,
    "h": 1.04633,
    "l": 1.04444,
    "c": 1.04581,
    "v": 1925
  },
  {
    "dt": "2021.12.07 06:00",
    "o": 1.04582,
    "h": 1.04617,
    "l": 1.04547,
    "c": 1.04592,
    "v": 1465
  },
  {
    "dt": "2021.12.07 07:00",
    "o": 1.04594,
    "h": 1.04646,
    "l": 1.04567,
    "c": 1.04634,
    "v": 1739
  },
  {
    "dt": "2021.12.07 08:00",
    "o": 1.04633,
    "h": 1.04691,
    "l": 1.04599,
    "c": 1.04683,
    "v": 1773
  },
  {
    "dt": "2021.12.07 09:00",
    "o": 1.04683,
    "h": 1.04767,
    "l": 1.04662,
    "c": 1.04754,
    "v": 2626
  },
  {
    "dt": "2021.12.07 10:00",
    "o": 1.04755,
    "h": 1.04826,
    "l": 1.04715,
    "c": 1.04799,
    "v": 3413
  },
  {
    "dt": "2021.12.07 11:00",
    "o": 1.048,
    "h": 1.04876,
    "l": 1.04747,
    "c": 1.04837,
    "v": 2658
  },
  {
    "dt": "2021.12.07 12:00",
    "o": 1.04837,
    "h": 1.04855,
    "l": 1.04657,
    "c": 1.0468,
    "v": 2128
  },
  {
    "dt": "2021.12.07 13:00",
    "o": 1.04679,
    "h": 1.04841,
    "l": 1.04679,
    "c": 1.0484,
    "v": 2179
  },
  {
    "dt": "2021.12.07 14:00",
    "o": 1.04843,
    "h": 1.04935,
    "l": 1.04835,
    "c": 1.04934,
    "v": 2682
  },
  {
    "dt": "2021.12.07 15:00",
    "o": 1.04931,
    "h": 1.04986,
    "l": 1.04824,
    "c": 1.04986,
    "v": 3259
  },
  {
    "dt": "2021.12.07 16:00",
    "o": 1.04983,
    "h": 1.04995,
    "l": 1.04827,
    "c": 1.04897,
    "v": 3244
  },
  {
    "dt": "2021.12.07 17:00",
    "o": 1.04897,
    "h": 1.04958,
    "l": 1.04878,
    "c": 1.04912,
    "v": 3679
  },
  {
    "dt": "2021.12.07 18:00",
    "o": 1.04911,
    "h": 1.04965,
    "l": 1.04879,
    "c": 1.04924,
    "v": 2985
  },
  {
    "dt": "2021.12.07 19:00",
    "o": 1.04924,
    "h": 1.05003,
    "l": 1.04924,
    "c": 1.04946,
    "v": 2038
  },
  {
    "dt": "2021.12.07 20:00",
    "o": 1.04922,
    "h": 1.0498,
    "l": 1.04856,
    "c": 1.04905,
    "v": 1678
  },
  {
    "dt": "2021.12.07 21:00",
    "o": 1.04907,
    "h": 1.04926,
    "l": 1.0484,
    "c": 1.04846,
    "v": 1268
  },
  {
    "dt": "2021.12.07 22:00",
    "o": 1.04844,
    "h": 1.04896,
    "l": 1.04811,
    "c": 1.04854,
    "v": 2140
  },
  {
    "dt": "2021.12.07 23:00",
    "o": 1.04861,
    "h": 1.04872,
    "l": 1.04771,
    "c": 1.04771,
    "v": 1568
  },
  {
    "dt": "2021.12.08 00:00",
    "o": 1.04794,
    "h": 1.04931,
    "l": 1.04757,
    "c": 1.04898,
    "v": 1210
  },
  {
    "dt": "2021.12.08 01:00",
    "o": 1.04895,
    "h": 1.04945,
    "l": 1.04836,
    "c": 1.04942,
    "v": 857
  },
  {
    "dt": "2021.12.08 02:00",
    "o": 1.04952,
    "h": 1.05025,
    "l": 1.04899,
    "c": 1.0495,
    "v": 1703
  },
  {
    "dt": "2021.12.08 03:00",
    "o": 1.04949,
    "h": 1.05009,
    "l": 1.04905,
    "c": 1.04997,
    "v": 2186
  },
  {
    "dt": "2021.12.08 04:00",
    "o": 1.04997,
    "h": 1.05069,
    "l": 1.04996,
    "c": 1.05025,
    "v": 1972
  },
  {
    "dt": "2021.12.08 05:00",
    "o": 1.05024,
    "h": 1.05039,
    "l": 1.04955,
    "c": 1.04963,
    "v": 1602
  },
  {
    "dt": "2021.12.08 06:00",
    "o": 1.0496,
    "h": 1.05025,
    "l": 1.04959,
    "c": 1.04976,
    "v": 1101
  },
  {
    "dt": "2021.12.08 07:00",
    "o": 1.0498,
    "h": 1.0498,
    "l": 1.04922,
    "c": 1.04939,
    "v": 1468
  },
  {
    "dt": "2021.12.08 08:00",
    "o": 1.04939,
    "h": 1.05007,
    "l": 1.0492,
    "c": 1.05004,
    "v": 1627
  },
  {
    "dt": "2021.12.08 09:00",
    "o": 1.04997,
    "h": 1.05045,
    "l": 1.04906,
    "c": 1.05035,
    "v": 2389
  },
  {
    "dt": "2021.12.08 10:00",
    "o": 1.0503,
    "h": 1.05189,
    "l": 1.05012,
    "c": 1.05166,
    "v": 3372
  },
  {
    "dt": "2021.12.08 11:00",
    "o": 1.05164,
    "h": 1.05226,
    "l": 1.05152,
    "c": 1.05193,
    "v": 3022
  },
  {
    "dt": "2021.12.08 12:00",
    "o": 1.05192,
    "h": 1.0525,
    "l": 1.05164,
    "c": 1.05199,
    "v": 3158
  },
  {
    "dt": "2021.12.08 13:00",
    "o": 1.05201,
    "h": 1.05293,
    "l": 1.05119,
    "c": 1.05274,
    "v": 3770
  },
  {
    "dt": "2021.12.08 14:00",
    "o": 1.05274,
    "h": 1.05307,
    "l": 1.05158,
    "c": 1.05167,
    "v": 3665
  },
  {
    "dt": "2021.12.08 15:00",
    "o": 1.05169,
    "h": 1.05286,
    "l": 1.05146,
    "c": 1.05241,
    "v": 3577
  },
  {
    "dt": "2021.12.08 16:00",
    "o": 1.05241,
    "h": 1.05326,
    "l": 1.05165,
    "c": 1.05182,
    "v": 3790
  },
  {
    "dt": "2021.12.08 17:00",
    "o": 1.0518,
    "h": 1.05277,
    "l": 1.05125,
    "c": 1.0519,
    "v": 3962
  },
  {
    "dt": "2021.12.08 18:00",
    "o": 1.05185,
    "h": 1.05305,
    "l": 1.05181,
    "c": 1.0526,
    "v": 2927
  },
  {
    "dt": "2021.12.08 19:00",
    "o": 1.05261,
    "h": 1.0534,
    "l": 1.05255,
    "c": 1.05279,
    "v": 2451
  },
  {
    "dt": "2021.12.08 20:00",
    "o": 1.0528,
    "h": 1.05337,
    "l": 1.05266,
    "c": 1.05326,
    "v": 1910
  },
  {
    "dt": "2021.12.08 21:00",
    "o": 1.05324,
    "h": 1.05352,
    "l": 1.05275,
    "c": 1.05295,
    "v": 2027
  },
  {
    "dt": "2021.12.08 22:00",
    "o": 1.05296,
    "h": 1.05318,
    "l": 1.05241,
    "c": 1.05278,
    "v": 1939
  },
  {
    "dt": "2021.12.08 23:00",
    "o": 1.05275,
    "h": 1.05335,
    "l": 1.05222,
    "c": 1.05235,
    "v": 1701
  },
  {
    "dt": "2021.12.09 00:00",
    "o": 1.05211,
    "h": 1.05325,
    "l": 1.05211,
    "c": 1.0526,
    "v": 703
  },
  {
    "dt": "2021.12.09 01:00",
    "o": 1.05248,
    "h": 1.05314,
    "l": 1.05239,
    "c": 1.05286,
    "v": 1134
  },
  {
    "dt": "2021.12.09 02:00",
    "o": 1.05284,
    "h": 1.05304,
    "l": 1.05205,
    "c": 1.05208,
    "v": 1369
  },
  {
    "dt": "2021.12.09 03:00",
    "o": 1.05207,
    "h": 1.05308,
    "l": 1.05207,
    "c": 1.05271,
    "v": 1633
  },
  {
    "dt": "2021.12.09 04:00",
    "o": 1.0527,
    "h": 1.05271,
    "l": 1.05193,
    "c": 1.05226,
    "v": 1445
  },
  {
    "dt": "2021.12.09 05:00",
    "o": 1.05227,
    "h": 1.05266,
    "l": 1.05149,
    "c": 1.0525,
    "v": 1385
  },
  {
    "dt": "2021.12.09 06:00",
    "o": 1.05251,
    "h": 1.05306,
    "l": 1.05229,
    "c": 1.0527,
    "v": 1166
  },
  {
    "dt": "2021.12.09 07:00",
    "o": 1.05269,
    "h": 1.05348,
    "l": 1.05263,
    "c": 1.05324,
    "v": 1126
  },
  {
    "dt": "2021.12.09 08:00",
    "o": 1.05323,
    "h": 1.05353,
    "l": 1.05286,
    "c": 1.05289,
    "v": 1161
  },
  {
    "dt": "2021.12.09 09:00",
    "o": 1.0529,
    "h": 1.05312,
    "l": 1.0513,
    "c": 1.0518,
    "v": 2913
  },
  {
    "dt": "2021.12.09 10:00",
    "o": 1.0518,
    "h": 1.05204,
    "l": 1.05112,
    "c": 1.05174,
    "v": 3052
  },
  {
    "dt": "2021.12.09 11:00",
    "o": 1.05173,
    "h": 1.05283,
    "l": 1.05136,
    "c": 1.05275,
    "v": 2782
  },
  {
    "dt": "2021.12.09 12:00",
    "o": 1.05275,
    "h": 1.05287,
    "l": 1.05176,
    "c": 1.05205,
    "v": 2251
  },
  {
    "dt": "2021.12.09 13:00",
    "o": 1.05202,
    "h": 1.05221,
    "l": 1.0514,
    "c": 1.05174,
    "v": 2541
  },
  {
    "dt": "2021.12.09 14:00",
    "o": 1.05175,
    "h": 1.05235,
    "l": 1.05116,
    "c": 1.05228,
    "v": 2295
  },
  {
    "dt": "2021.12.09 15:00",
    "o": 1.05231,
    "h": 1.05262,
    "l": 1.05148,
    "c": 1.05192,
    "v": 2872
  },
  {
    "dt": "2021.12.09 16:00",
    "o": 1.05195,
    "h": 1.05342,
    "l": 1.05159,
    "c": 1.053,
    "v": 2871
  },
  {
    "dt": "2021.12.09 17:00",
    "o": 1.05297,
    "h": 1.05341,
    "l": 1.05201,
    "c": 1.05221,
    "v": 3607
  },
  {
    "dt": "2021.12.09 18:00",
    "o": 1.05224,
    "h": 1.05355,
    "l": 1.05215,
    "c": 1.05348,
    "v": 3076
  },
  {
    "dt": "2021.12.09 19:00",
    "o": 1.05345,
    "h": 1.05345,
    "l": 1.05272,
    "c": 1.05309,
    "v": 2015
  },
  {
    "dt": "2021.12.09 20:00",
    "o": 1.05308,
    "h": 1.05342,
    "l": 1.05269,
    "c": 1.05322,
    "v": 3006
  },
  {
    "dt": "2021.12.09 21:00",
    "o": 1.05321,
    "h": 1.05334,
    "l": 1.05231,
    "c": 1.0525,
    "v": 2536
  },
  {
    "dt": "2021.12.09 22:00",
    "o": 1.0525,
    "h": 1.05251,
    "l": 1.05192,
    "c": 1.05208,
    "v": 2952
  },
  {
    "dt": "2021.12.09 23:00",
    "o": 1.05207,
    "h": 1.05245,
    "l": 1.05098,
    "c": 1.05135,
    "v": 1391
  },
  {
    "dt": "2021.12.10 00:00",
    "o": 1.0514,
    "h": 1.05168,
    "l": 1.05064,
    "c": 1.05143,
    "v": 1118
  },
  {
    "dt": "2021.12.10 01:00",
    "o": 1.05134,
    "h": 1.05171,
    "l": 1.05089,
    "c": 1.05154,
    "v": 901
  },
  {
    "dt": "2021.12.10 02:00",
    "o": 1.05154,
    "h": 1.05182,
    "l": 1.05047,
    "c": 1.05048,
    "v": 1343
  },
  {
    "dt": "2021.12.10 03:00",
    "o": 1.05047,
    "h": 1.05196,
    "l": 1.05013,
    "c": 1.05176,
    "v": 2551
  },
  {
    "dt": "2021.12.10 04:00",
    "o": 1.05177,
    "h": 1.05202,
    "l": 1.05152,
    "c": 1.05152,
    "v": 1803
  },
  {
    "dt": "2021.12.10 05:00",
    "o": 1.05152,
    "h": 1.05231,
    "l": 1.05152,
    "c": 1.05212,
    "v": 1081
  },
  {
    "dt": "2021.12.10 06:00",
    "o": 1.05217,
    "h": 1.05228,
    "l": 1.05169,
    "c": 1.05195,
    "v": 989
  },
  {
    "dt": "2021.12.10 07:00",
    "o": 1.05196,
    "h": 1.05243,
    "l": 1.05158,
    "c": 1.05242,
    "v": 1524
  },
  {
    "dt": "2021.12.10 08:00",
    "o": 1.05239,
    "h": 1.05362,
    "l": 1.05217,
    "c": 1.05344,
    "v": 1732
  },
  {
    "dt": "2021.12.10 09:00",
    "o": 1.05338,
    "h": 1.05396,
    "l": 1.05306,
    "c": 1.05336,
    "v": 3037
  },
  {
    "dt": "2021.12.10 10:00",
    "o": 1.05336,
    "h": 1.05465,
    "l": 1.05317,
    "c": 1.05462,
    "v": 3217
  },
  {
    "dt": "2021.12.10 11:00",
    "o": 1.0546,
    "h": 1.05518,
    "l": 1.05407,
    "c": 1.05495,
    "v": 2399
  },
  {
    "dt": "2021.12.10 12:00",
    "o": 1.05496,
    "h": 1.05573,
    "l": 1.05491,
    "c": 1.0556,
    "v": 1825
  },
  {
    "dt": "2021.12.10 13:00",
    "o": 1.05554,
    "h": 1.05574,
    "l": 1.05511,
    "c": 1.05528,
    "v": 1774
  },
  {
    "dt": "2021.12.10 14:00",
    "o": 1.0553,
    "h": 1.05544,
    "l": 1.05493,
    "c": 1.05493,
    "v": 2029
  },
  {
    "dt": "2021.12.10 15:00",
    "o": 1.05492,
    "h": 1.0556,
    "l": 1.0546,
    "c": 1.05554,
    "v": 3767
  },
  {
    "dt": "2021.12.10 16:00",
    "o": 1.05555,
    "h": 1.05593,
    "l": 1.05509,
    "c": 1.05548,
    "v": 3992
  },
  {
    "dt": "2021.12.10 17:00",
    "o": 1.05551,
    "h": 1.05617,
    "l": 1.05519,
    "c": 1.05529,
    "v": 3444
  },
  {
    "dt": "2021.12.10 18:00",
    "o": 1.05526,
    "h": 1.05561,
    "l": 1.055,
    "c": 1.05561,
    "v": 2925
  },
  {
    "dt": "2021.12.10 19:00",
    "o": 1.0556,
    "h": 1.05565,
    "l": 1.05517,
    "c": 1.05536,
    "v": 2156
  },
  {
    "dt": "2021.12.10 20:00",
    "o": 1.05538,
    "h": 1.05582,
    "l": 1.05504,
    "c": 1.05531,
    "v": 1647
  },
  {
    "dt": "2021.12.10 21:00",
    "o": 1.05534,
    "h": 1.05545,
    "l": 1.05503,
    "c": 1.05516,
    "v": 1627
  },
  {
    "dt": "2021.12.10 22:00",
    "o": 1.05514,
    "h": 1.05532,
    "l": 1.05456,
    "c": 1.05496,
    "v": 1689
  },
  {
    "dt": "2021.12.10 23:00",
    "o": 1.05495,
    "h": 1.05495,
    "l": 1.05442,
    "c": 1.05462,
    "v": 1119
  },
  {
    "dt": "2021.12.13 00:00",
    "o": 1.0525,
    "h": 1.0539,
    "l": 1.05223,
    "c": 1.05284,
    "v": 357
  },
  {
    "dt": "2021.12.13 01:00",
    "o": 1.05307,
    "h": 1.05485,
    "l": 1.05307,
    "c": 1.05433,
    "v": 1004
  },
  {
    "dt": "2021.12.13 02:00",
    "o": 1.05432,
    "h": 1.0545,
    "l": 1.05365,
    "c": 1.05389,
    "v": 1357
  },
  {
    "dt": "2021.12.13 03:00",
    "o": 1.05387,
    "h": 1.0549,
    "l": 1.05369,
    "c": 1.05422,
    "v": 1624
  },
  {
    "dt": "2021.12.13 04:00",
    "o": 1.05425,
    "h": 1.05533,
    "l": 1.05424,
    "c": 1.05531,
    "v": 1184
  },
  {
    "dt": "2021.12.13 05:00",
    "o": 1.05529,
    "h": 1.05586,
    "l": 1.05513,
    "c": 1.0556,
    "v": 1154
  },
  {
    "dt": "2021.12.13 06:00",
    "o": 1.05559,
    "h": 1.05565,
    "l": 1.05507,
    "c": 1.05549,
    "v": 782
  },
  {
    "dt": "2021.12.13 07:00",
    "o": 1.0555,
    "h": 1.05561,
    "l": 1.05458,
    "c": 1.05512,
    "v": 817
  },
  {
    "dt": "2021.12.13 08:00",
    "o": 1.05513,
    "h": 1.05568,
    "l": 1.05492,
    "c": 1.05509,
    "v": 1055
  },
  {
    "dt": "2021.12.13 09:00",
    "o": 1.05506,
    "h": 1.05559,
    "l": 1.05404,
    "c": 1.05415,
    "v": 1843
  },
  {
    "dt": "2021.12.13 10:00",
    "o": 1.05413,
    "h": 1.05446,
    "l": 1.05341,
    "c": 1.05372,
    "v": 2505
  },
  {
    "dt": "2021.12.13 11:00",
    "o": 1.05377,
    "h": 1.05403,
    "l": 1.05345,
    "c": 1.05357,
    "v": 2412
  },
  {
    "dt": "2021.12.13 12:00",
    "o": 1.05358,
    "h": 1.05378,
    "l": 1.05232,
    "c": 1.05262,
    "v": 2797
  },
  {
    "dt": "2021.12.13 13:00",
    "o": 1.05263,
    "h": 1.05335,
    "l": 1.05252,
    "c": 1.05326,
    "v": 2861
  },
  {
    "dt": "2021.12.13 14:00",
    "o": 1.05325,
    "h": 1.05351,
    "l": 1.05289,
    "c": 1.0535,
    "v": 2509
  },
  {
    "dt": "2021.12.13 15:00",
    "o": 1.05349,
    "h": 1.05433,
    "l": 1.05337,
    "c": 1.05347,
    "v": 3007
  },
  {
    "dt": "2021.12.13 16:00",
    "o": 1.05344,
    "h": 1.05391,
    "l": 1.05309,
    "c": 1.05382,
    "v": 3569
  },
  {
    "dt": "2021.12.13 17:00",
    "o": 1.05382,
    "h": 1.0547,
    "l": 1.05344,
    "c": 1.05396,
    "v": 3990
  },
  {
    "dt": "2021.12.13 18:00",
    "o": 1.05397,
    "h": 1.05427,
    "l": 1.05377,
    "c": 1.05423,
    "v": 3314
  },
  {
    "dt": "2021.12.13 19:00",
    "o": 1.0542,
    "h": 1.05441,
    "l": 1.05364,
    "c": 1.05407,
    "v": 2361
  },
  {
    "dt": "2021.12.13 20:00",
    "o": 1.05332,
    "h": 1.05527,
    "l": 1.0533,
    "c": 1.05527,
    "v": 2238
  },
  {
    "dt": "2021.12.13 21:00",
    "o": 1.05526,
    "h": 1.05589,
    "l": 1.05498,
    "c": 1.05579,
    "v": 1817
  },
  {
    "dt": "2021.12.13 22:00",
    "o": 1.05573,
    "h": 1.05639,
    "l": 1.05544,
    "c": 1.0557,
    "v": 2226
  },
  {
    "dt": "2021.12.13 23:00",
    "o": 1.05573,
    "h": 1.05636,
    "l": 1.0546,
    "c": 1.05463,
    "v": 1482
  },
  {
    "dt": "2021.12.14 00:00",
    "o": 1.05301,
    "h": 1.05587,
    "l": 1.05301,
    "c": 1.05569,
    "v": 296
  },
  {
    "dt": "2021.12.14 01:00",
    "o": 1.05569,
    "h": 1.05611,
    "l": 1.05555,
    "c": 1.05608,
    "v": 790
  },
  {
    "dt": "2021.12.14 02:00",
    "o": 1.05609,
    "h": 1.05611,
    "l": 1.05443,
    "c": 1.05447,
    "v": 958
  },
  {
    "dt": "2021.12.14 03:00",
    "o": 1.05446,
    "h": 1.05466,
    "l": 1.05333,
    "c": 1.05349,
    "v": 1699
  },
  {
    "dt": "2021.12.14 04:00",
    "o": 1.05348,
    "h": 1.05389,
    "l": 1.05287,
    "c": 1.05302,
    "v": 1266
  },
  {
    "dt": "2021.12.14 05:00",
    "o": 1.05303,
    "h": 1.05333,
    "l": 1.05228,
    "c": 1.05275,
    "v": 1387
  },
  {
    "dt": "2021.12.14 06:00",
    "o": 1.05277,
    "h": 1.05338,
    "l": 1.05263,
    "c": 1.05334,
    "v": 1224
  },
  {
    "dt": "2021.12.14 07:00",
    "o": 1.05334,
    "h": 1.05403,
    "l": 1.05302,
    "c": 1.05392,
    "v": 1066
  },
  {
    "dt": "2021.12.14 08:00",
    "o": 1.05396,
    "h": 1.05448,
    "l": 1.05384,
    "c": 1.05424,
    "v": 1389
  },
  {
    "dt": "2021.12.14 09:00",
    "o": 1.05423,
    "h": 1.05457,
    "l": 1.05408,
    "c": 1.05412,
    "v": 1684
  },
  {
    "dt": "2021.12.14 10:00",
    "o": 1.05413,
    "h": 1.05533,
    "l": 1.0541,
    "c": 1.0546,
    "v": 2514
  },
  {
    "dt": "2021.12.14 11:00",
    "o": 1.0546,
    "h": 1.05515,
    "l": 1.05314,
    "c": 1.05365,
    "v": 2704
  },
  {
    "dt": "2021.12.14 12:00",
    "o": 1.05366,
    "h": 1.05411,
    "l": 1.0534,
    "c": 1.05377,
    "v": 2409
  },
  {
    "dt": "2021.12.14 13:00",
    "o": 1.05378,
    "h": 1.05416,
    "l": 1.0534,
    "c": 1.05366,
    "v": 2202
  },
  {
    "dt": "2021.12.14 14:00",
    "o": 1.05365,
    "h": 1.05395,
    "l": 1.05324,
    "c": 1.0536,
    "v": 2636
  },
  {
    "dt": "2021.12.14 15:00",
    "o": 1.0536,
    "h": 1.05404,
    "l": 1.05335,
    "c": 1.05397,
    "v": 3620
  },
  {
    "dt": "2021.12.14 16:00",
    "o": 1.05394,
    "h": 1.05469,
    "l": 1.05337,
    "c": 1.05438,
    "v": 4221
  },
  {
    "dt": "2021.12.14 17:00",
    "o": 1.05436,
    "h": 1.05472,
    "l": 1.05296,
    "c": 1.05328,
    "v": 3866
  },
  {
    "dt": "2021.12.14 18:00",
    "o": 1.05327,
    "h": 1.05394,
    "l": 1.05282,
    "c": 1.0529,
    "v": 2978
  },
  {
    "dt": "2021.12.14 19:00",
    "o": 1.05288,
    "h": 1.05308,
    "l": 1.05255,
    "c": 1.05308,
    "v": 2675
  },
  {
    "dt": "2021.12.14 20:00",
    "o": 1.05301,
    "h": 1.05338,
    "l": 1.05278,
    "c": 1.05311,
    "v": 1709
  },
  {
    "dt": "2021.12.14 21:00",
    "o": 1.05311,
    "h": 1.05389,
    "l": 1.05306,
    "c": 1.05385,
    "v": 2004
  },
  {
    "dt": "2021.12.14 22:00",
    "o": 1.05387,
    "h": 1.05394,
    "l": 1.05313,
    "c": 1.05333,
    "v": 2449
  },
  {
    "dt": "2021.12.14 23:00",
    "o": 1.05336,
    "h": 1.05385,
    "l": 1.05253,
    "c": 1.05263,
    "v": 1315
  },
  {
    "dt": "2021.12.15 00:00",
    "o": 1.05247,
    "h": 1.05393,
    "l": 1.05068,
    "c": 1.05377,
    "v": 754
  },
  {
    "dt": "2021.12.15 01:00",
    "o": 1.05379,
    "h": 1.05471,
    "l": 1.05357,
    "c": 1.05444,
    "v": 649
  },
  {
    "dt": "2021.12.15 02:00",
    "o": 1.05465,
    "h": 1.0554,
    "l": 1.05434,
    "c": 1.05507,
    "v": 1138
  },
  {
    "dt": "2021.12.15 03:00",
    "o": 1.05505,
    "h": 1.05518,
    "l": 1.0544,
    "c": 1.05502,
    "v": 1538
  },
  {
    "dt": "2021.12.15 04:00",
    "o": 1.05497,
    "h": 1.05542,
    "l": 1.05465,
    "c": 1.05536,
    "v": 1330
  },
  {
    "dt": "2021.12.15 05:00",
    "o": 1.05537,
    "h": 1.05592,
    "l": 1.05517,
    "c": 1.05574,
    "v": 787
  },
  {
    "dt": "2021.12.15 06:00",
    "o": 1.05574,
    "h": 1.05602,
    "l": 1.05542,
    "c": 1.05589,
    "v": 846
  },
  {
    "dt": "2021.12.15 07:00",
    "o": 1.05587,
    "h": 1.05607,
    "l": 1.05517,
    "c": 1.05534,
    "v": 1052
  },
  {
    "dt": "2021.12.15 08:00",
    "o": 1.05536,
    "h": 1.0564,
    "l": 1.05535,
    "c": 1.05635,
    "v": 1183
  },
  {
    "dt": "2021.12.15 09:00",
    "o": 1.05638,
    "h": 1.05659,
    "l": 1.05563,
    "c": 1.05576,
    "v": 2224
  },
  {
    "dt": "2021.12.15 10:00",
    "o": 1.05578,
    "h": 1.0565,
    "l": 1.05508,
    "c": 1.05544,
    "v": 2475
  },
  {
    "dt": "2021.12.15 11:00",
    "o": 1.05545,
    "h": 1.05673,
    "l": 1.05509,
    "c": 1.05646,
    "v": 2126
  },
  {
    "dt": "2021.12.15 12:00",
    "o": 1.05646,
    "h": 1.05684,
    "l": 1.05626,
    "c": 1.0566,
    "v": 1712
  },
  {
    "dt": "2021.12.15 13:00",
    "o": 1.05661,
    "h": 1.05795,
    "l": 1.05659,
    "c": 1.0576,
    "v": 1758
  },
  {
    "dt": "2021.12.15 14:00",
    "o": 1.0576,
    "h": 1.05837,
    "l": 1.0574,
    "c": 1.05831,
    "v": 2619
  },
  {
    "dt": "2021.12.15 15:00",
    "o": 1.05832,
    "h": 1.0589,
    "l": 1.05811,
    "c": 1.05838,
    "v": 3253
  },
  {
    "dt": "2021.12.15 16:00",
    "o": 1.05838,
    "h": 1.05892,
    "l": 1.05776,
    "c": 1.05787,
    "v": 3919
  },
  {
    "dt": "2021.12.15 17:00",
    "o": 1.05791,
    "h": 1.0582,
    "l": 1.05647,
    "c": 1.0579,
    "v": 3669
  },
  {
    "dt": "2021.12.15 18:00",
    "o": 1.0579,
    "h": 1.05834,
    "l": 1.05725,
    "c": 1.05779,
    "v": 2652
  },
  {
    "dt": "2021.12.15 19:00",
    "o": 1.05778,
    "h": 1.05832,
    "l": 1.0575,
    "c": 1.0583,
    "v": 2581
  },
  {
    "dt": "2021.12.15 20:00",
    "o": 1.0583,
    "h": 1.05842,
    "l": 1.05725,
    "c": 1.05784,
    "v": 2150
  },
  {
    "dt": "2021.12.15 21:00",
    "o": 1.05799,
    "h": 1.05958,
    "l": 1.05666,
    "c": 1.05733,
    "v": 6148
  },
  {
    "dt": "2021.12.15 22:00",
    "o": 1.05733,
    "h": 1.05818,
    "l": 1.05706,
    "c": 1.05745,
    "v": 5216
  },
  {
    "dt": "2021.12.15 23:00",
    "o": 1.05743,
    "h": 1.05779,
    "l": 1.05649,
    "c": 1.05707,
    "v": 1803
  },
  {
    "dt": "2021.12.16 00:00",
    "o": 1.05734,
    "h": 1.05734,
    "l": 1.05577,
    "c": 1.05686,
    "v": 868
  },
  {
    "dt": "2021.12.16 01:00",
    "o": 1.05694,
    "h": 1.05743,
    "l": 1.05639,
    "c": 1.05724,
    "v": 1194
  },
  {
    "dt": "2021.12.16 02:00",
    "o": 1.05723,
    "h": 1.0595,
    "l": 1.05712,
    "c": 1.05882,
    "v": 2354
  },
  {
    "dt": "2021.12.16 03:00",
    "o": 1.05879,
    "h": 1.05954,
    "l": 1.05788,
    "c": 1.05794,
    "v": 2243
  },
  {
    "dt": "2021.12.16 04:00",
    "o": 1.05795,
    "h": 1.05857,
    "l": 1.0571,
    "c": 1.0572,
    "v": 2175
  },
  {
    "dt": "2021.12.16 05:00",
    "o": 1.05721,
    "h": 1.05846,
    "l": 1.05719,
    "c": 1.05772,
    "v": 1864
  },
  {
    "dt": "2021.12.16 06:00",
    "o": 1.05773,
    "h": 1.05792,
    "l": 1.05742,
    "c": 1.05784,
    "v": 1503
  },
  {
    "dt": "2021.12.16 07:00",
    "o": 1.05786,
    "h": 1.05808,
    "l": 1.05728,
    "c": 1.05759,
    "v": 1573
  },
  {
    "dt": "2021.12.16 08:00",
    "o": 1.05758,
    "h": 1.05829,
    "l": 1.0566,
    "c": 1.05689,
    "v": 1375
  },
  {
    "dt": "2021.12.16 09:00",
    "o": 1.05687,
    "h": 1.0574,
    "l": 1.05515,
    "c": 1.05515,
    "v": 2637
  },
  {
    "dt": "2021.12.16 10:00",
    "o": 1.05511,
    "h": 1.05602,
    "l": 1.05477,
    "c": 1.05574,
    "v": 3401
  },
  {
    "dt": "2021.12.16 11:00",
    "o": 1.05575,
    "h": 1.05662,
    "l": 1.05534,
    "c": 1.05607,
    "v": 2859
  },
  {
    "dt": "2021.12.16 12:00",
    "o": 1.05608,
    "h": 1.05683,
    "l": 1.05582,
    "c": 1.05665,
    "v": 2267
  },
  {
    "dt": "2021.12.16 13:00",
    "o": 1.05668,
    "h": 1.05715,
    "l": 1.05632,
    "c": 1.05693,
    "v": 2090
  },
  {
    "dt": "2021.12.16 14:00",
    "o": 1.05698,
    "h": 1.05762,
    "l": 1.05671,
    "c": 1.05697,
    "v": 3932
  },
  {
    "dt": "2021.12.16 15:00",
    "o": 1.05697,
    "h": 1.05792,
    "l": 1.05644,
    "c": 1.05683,
    "v": 3976
  },
  {
    "dt": "2021.12.16 16:00",
    "o": 1.05685,
    "h": 1.05724,
    "l": 1.05592,
    "c": 1.05622,
    "v": 4389
  },
  {
    "dt": "2021.12.16 17:00",
    "o": 1.05622,
    "h": 1.0571,
    "l": 1.05529,
    "c": 1.05552,
    "v": 4336
  },
  {
    "dt": "2021.12.16 18:00",
    "o": 1.0555,
    "h": 1.05627,
    "l": 1.05523,
    "c": 1.05572,
    "v": 3579
  },
  {
    "dt": "2021.12.16 19:00",
    "o": 1.05574,
    "h": 1.05638,
    "l": 1.05546,
    "c": 1.05583,
    "v": 2939
  },
  {
    "dt": "2021.12.16 20:00",
    "o": 1.05584,
    "h": 1.05674,
    "l": 1.05556,
    "c": 1.0567,
    "v": 2400
  },
  {
    "dt": "2021.12.16 21:00",
    "o": 1.05668,
    "h": 1.05729,
    "l": 1.05611,
    "c": 1.05673,
    "v": 2770
  },
  {
    "dt": "2021.12.16 22:00",
    "o": 1.05672,
    "h": 1.05716,
    "l": 1.05632,
    "c": 1.05664,
    "v": 3808
  },
  {
    "dt": "2021.12.16 23:00",
    "o": 1.05664,
    "h": 1.05673,
    "l": 1.05559,
    "c": 1.05577,
    "v": 1909
  },
  {
    "dt": "2021.12.17 00:00",
    "o": 1.05498,
    "h": 1.05612,
    "l": 1.05497,
    "c": 1.05538,
    "v": 774
  },
  {
    "dt": "2021.12.17 01:00",
    "o": 1.05547,
    "h": 1.05618,
    "l": 1.05523,
    "c": 1.05572,
    "v": 1344
  },
  {
    "dt": "2021.12.17 02:00",
    "o": 1.05568,
    "h": 1.05622,
    "l": 1.05556,
    "c": 1.05587,
    "v": 1762
  },
  {
    "dt": "2021.12.17 03:00",
    "o": 1.0558,
    "h": 1.05736,
    "l": 1.05572,
    "c": 1.05699,
    "v": 2240
  },
  {
    "dt": "2021.12.17 04:00",
    "o": 1.05698,
    "h": 1.0577,
    "l": 1.0569,
    "c": 1.05727,
    "v": 1830
  },
  {
    "dt": "2021.12.17 05:00",
    "o": 1.05726,
    "h": 1.0574,
    "l": 1.05646,
    "c": 1.05667,
    "v": 1631
  },
  {
    "dt": "2021.12.17 06:00",
    "o": 1.05666,
    "h": 1.05718,
    "l": 1.0556,
    "c": 1.05694,
    "v": 1613
  },
  {
    "dt": "2021.12.17 07:00",
    "o": 1.05693,
    "h": 1.05731,
    "l": 1.05668,
    "c": 1.05718,
    "v": 1734
  },
  {
    "dt": "2021.12.17 08:00",
    "o": 1.0572,
    "h": 1.0577,
    "l": 1.0567,
    "c": 1.05687,
    "v": 1892
  },
  {
    "dt": "2021.12.17 09:00",
    "o": 1.05689,
    "h": 1.05741,
    "l": 1.05679,
    "c": 1.05716,
    "v": 2687
  },
  {
    "dt": "2021.12.17 10:00",
    "o": 1.05718,
    "h": 1.05812,
    "l": 1.05709,
    "c": 1.05766,
    "v": 3126
  },
  {
    "dt": "2021.12.17 11:00",
    "o": 1.05768,
    "h": 1.05792,
    "l": 1.05704,
    "c": 1.05725,
    "v": 2799
  },
  {
    "dt": "2021.12.17 12:00",
    "o": 1.05725,
    "h": 1.0588,
    "l": 1.05725,
    "c": 1.05862,
    "v": 2905
  },
  {
    "dt": "2021.12.17 13:00",
    "o": 1.05863,
    "h": 1.05869,
    "l": 1.058,
    "c": 1.05806,
    "v": 2596
  },
  {
    "dt": "2021.12.17 14:00",
    "o": 1.05804,
    "h": 1.05836,
    "l": 1.05757,
    "c": 1.05793,
    "v": 2994
  },
  {
    "dt": "2021.12.17 15:00",
    "o": 1.0579,
    "h": 1.05875,
    "l": 1.05784,
    "c": 1.05827,
    "v": 3385
  },
  {
    "dt": "2021.12.17 16:00",
    "o": 1.05825,
    "h": 1.05887,
    "l": 1.05782,
    "c": 1.05835,
    "v": 3811
  },
  {
    "dt": "2021.12.17 17:00",
    "o": 1.05834,
    "h": 1.0588,
    "l": 1.05766,
    "c": 1.05851,
    "v": 4310
  },
  {
    "dt": "2021.12.17 18:00",
    "o": 1.05852,
    "h": 1.05893,
    "l": 1.05783,
    "c": 1.05803,
    "v": 4172
  },
  {
    "dt": "2021.12.17 19:00",
    "o": 1.05802,
    "h": 1.05836,
    "l": 1.05767,
    "c": 1.05827,
    "v": 3093
  },
  {
    "dt": "2021.12.17 20:00",
    "o": 1.05824,
    "h": 1.05887,
    "l": 1.05814,
    "c": 1.05846,
    "v": 2405
  },
  {
    "dt": "2021.12.17 21:00",
    "o": 1.0585,
    "h": 1.05894,
    "l": 1.05827,
    "c": 1.05832,
    "v": 2418
  },
  {
    "dt": "2021.12.17 22:00",
    "o": 1.05829,
    "h": 1.05879,
    "l": 1.05797,
    "c": 1.058,
    "v": 3180
  },
  {
    "dt": "2021.12.17 23:00",
    "o": 1.05804,
    "h": 1.05832,
    "l": 1.05657,
    "c": 1.05747,
    "v": 2206
  },
  {
    "dt": "2021.12.20 00:00",
    "o": 1.05586,
    "h": 1.05833,
    "l": 1.05584,
    "c": 1.05811,
    "v": 456
  },
  {
    "dt": "2021.12.20 01:00",
    "o": 1.05811,
    "h": 1.05821,
    "l": 1.05649,
    "c": 1.0571,
    "v": 1687
  },
  {
    "dt": "2021.12.20 02:00",
    "o": 1.05712,
    "h": 1.05869,
    "l": 1.05712,
    "c": 1.05778,
    "v": 2437
  },
  {
    "dt": "2021.12.20 03:00",
    "o": 1.05777,
    "h": 1.05801,
    "l": 1.05681,
    "c": 1.05685,
    "v": 2536
  },
  {
    "dt": "2021.12.20 04:00",
    "o": 1.05687,
    "h": 1.05708,
    "l": 1.05606,
    "c": 1.05697,
    "v": 2682
  },
  {
    "dt": "2021.12.20 05:00",
    "o": 1.05697,
    "h": 1.0585,
    "l": 1.05695,
    "c": 1.05836,
    "v": 1805
  },
  {
    "dt": "2021.12.20 06:00",
    "o": 1.05835,
    "h": 1.05849,
    "l": 1.05699,
    "c": 1.05735,
    "v": 2156
  },
  {
    "dt": "2021.12.20 07:00",
    "o": 1.05737,
    "h": 1.05747,
    "l": 1.05641,
    "c": 1.05711,
    "v": 2268
  },
  {
    "dt": "2021.12.20 08:00",
    "o": 1.05708,
    "h": 1.0573,
    "l": 1.05615,
    "c": 1.05626,
    "v": 2435
  },
  {
    "dt": "2021.12.20 09:00",
    "o": 1.05626,
    "h": 1.0566,
    "l": 1.05559,
    "c": 1.05562,
    "v": 3031
  },
  {
    "dt": "2021.12.20 10:00",
    "o": 1.05564,
    "h": 1.05715,
    "l": 1.05562,
    "c": 1.05688,
    "v": 3770
  },
  {
    "dt": "2021.12.20 11:00",
    "o": 1.05686,
    "h": 1.05744,
    "l": 1.05596,
    "c": 1.05728,
    "v": 3437
  },
  {
    "dt": "2021.12.20 12:00",
    "o": 1.05729,
    "h": 1.05833,
    "l": 1.05659,
    "c": 1.05814,
    "v": 3620
  },
  {
    "dt": "2021.12.20 13:00",
    "o": 1.05813,
    "h": 1.05872,
    "l": 1.05768,
    "c": 1.05833,
    "v": 2459
  },
  {
    "dt": "2021.12.20 14:00",
    "o": 1.05836,
    "h": 1.05837,
    "l": 1.05751,
    "c": 1.05769,
    "v": 2644
  },
  {
    "dt": "2021.12.20 15:00",
    "o": 1.05771,
    "h": 1.05861,
    "l": 1.05768,
    "c": 1.05844,
    "v": 3147
  },
  {
    "dt": "2021.12.20 16:00",
    "o": 1.05843,
    "h": 1.05971,
    "l": 1.05839,
    "c": 1.05891,
    "v": 3737
  },
  {
    "dt": "2021.12.20 17:00",
    "o": 1.05891,
    "h": 1.05966,
    "l": 1.05869,
    "c": 1.05895,
    "v": 4350
  },
  {
    "dt": "2021.12.20 18:00",
    "o": 1.05895,
    "h": 1.05952,
    "l": 1.05871,
    "c": 1.05916,
    "v": 3606
  },
  {
    "dt": "2021.12.20 19:00",
    "o": 1.05913,
    "h": 1.05992,
    "l": 1.05912,
    "c": 1.05942,
    "v": 3088
  },
  {
    "dt": "2021.12.20 20:00",
    "o": 1.05944,
    "h": 1.06001,
    "l": 1.05931,
    "c": 1.05938,
    "v": 2188
  },
  {
    "dt": "2021.12.20 21:00",
    "o": 1.05938,
    "h": 1.05953,
    "l": 1.05851,
    "c": 1.05905,
    "v": 2499
  },
  {
    "dt": "2021.12.20 22:00",
    "o": 1.05902,
    "h": 1.05923,
    "l": 1.05856,
    "c": 1.05865,
    "v": 2700
  },
  {
    "dt": "2021.12.20 23:00",
    "o": 1.05862,
    "h": 1.0589,
    "l": 1.05843,
    "c": 1.05873,
    "v": 1500
  },
  {
    "dt": "2021.12.21 00:00",
    "o": 1.05872,
    "h": 1.05895,
    "l": 1.05721,
    "c": 1.05852,
    "v": 635
  },
  {
    "dt": "2021.12.21 01:00",
    "o": 1.05869,
    "h": 1.05913,
    "l": 1.05806,
    "c": 1.05903,
    "v": 956
  },
  {
    "dt": "2021.12.21 02:00",
    "o": 1.05904,
    "h": 1.05951,
    "l": 1.05865,
    "c": 1.05873,
    "v": 1775
  },
  {
    "dt": "2021.12.21 03:00",
    "o": 1.05874,
    "h": 1.05935,
    "l": 1.05785,
    "c": 1.05805,
    "v": 2477
  },
  {
    "dt": "2021.12.21 04:00",
    "o": 1.05806,
    "h": 1.05806,
    "l": 1.05687,
    "c": 1.0571,
    "v": 1782
  },
  {
    "dt": "2021.12.21 05:00",
    "o": 1.05708,
    "h": 1.05834,
    "l": 1.05688,
    "c": 1.05794,
    "v": 1658
  },
  {
    "dt": "2021.12.21 06:00",
    "o": 1.05791,
    "h": 1.05823,
    "l": 1.05735,
    "c": 1.05762,
    "v": 1404
  },
  {
    "dt": "2021.12.21 07:00",
    "o": 1.05764,
    "h": 1.05821,
    "l": 1.05757,
    "c": 1.05763,
    "v": 1567
  },
  {
    "dt": "2021.12.21 08:00",
    "o": 1.05764,
    "h": 1.05869,
    "l": 1.05763,
    "c": 1.05847,
    "v": 1660
  },
  {
    "dt": "2021.12.21 09:00",
    "o": 1.0585,
    "h": 1.05868,
    "l": 1.05674,
    "c": 1.05675,
    "v": 2324
  },
  {
    "dt": "2021.12.21 10:00",
    "o": 1.05676,
    "h": 1.05786,
    "l": 1.05557,
    "c": 1.05568,
    "v": 2840
  },
  {
    "dt": "2021.12.21 11:00",
    "o": 1.05571,
    "h": 1.05625,
    "l": 1.05535,
    "c": 1.05622,
    "v": 2445
  },
  {
    "dt": "2021.12.21 12:00",
    "o": 1.05623,
    "h": 1.05657,
    "l": 1.05536,
    "c": 1.05641,
    "v": 2461
  },
  {
    "dt": "2021.12.21 13:00",
    "o": 1.05639,
    "h": 1.05679,
    "l": 1.05588,
    "c": 1.05659,
    "v": 2032
  },
  {
    "dt": "2021.12.21 14:00",
    "o": 1.05659,
    "h": 1.05721,
    "l": 1.05606,
    "c": 1.0561,
    "v": 2064
  },
  {
    "dt": "2021.12.21 15:00",
    "o": 1.05612,
    "h": 1.05615,
    "l": 1.05484,
    "c": 1.05531,
    "v": 2283
  },
  {
    "dt": "2021.12.21 16:00",
    "o": 1.0553,
    "h": 1.05621,
    "l": 1.05507,
    "c": 1.05613,
    "v": 3116
  },
  {
    "dt": "2021.12.21 17:00",
    "o": 1.05613,
    "h": 1.05731,
    "l": 1.05606,
    "c": 1.05683,
    "v": 3388
  },
  {
    "dt": "2021.12.21 18:00",
    "o": 1.05686,
    "h": 1.0575,
    "l": 1.05651,
    "c": 1.05668,
    "v": 2970
  },
  {
    "dt": "2021.12.21 19:00",
    "o": 1.0567,
    "h": 1.05749,
    "l": 1.0566,
    "c": 1.05692,
    "v": 2416
  },
  {
    "dt": "2021.12.21 20:00",
    "o": 1.05671,
    "h": 1.05821,
    "l": 1.05671,
    "c": 1.05723,
    "v": 1972
  },
  {
    "dt": "2021.12.21 21:00",
    "o": 1.05727,
    "h": 1.05766,
    "l": 1.05697,
    "c": 1.05748,
    "v": 1708
  },
  {
    "dt": "2021.12.21 22:00",
    "o": 1.05747,
    "h": 1.05747,
    "l": 1.0565,
    "c": 1.0571,
    "v": 1854
  },
  {
    "dt": "2021.12.21 23:00",
    "o": 1.05705,
    "h": 1.05706,
    "l": 1.05584,
    "c": 1.05684,
    "v": 1376
  },
  {
    "dt": "2021.12.22 00:00",
    "o": 1.05772,
    "h": 1.05772,
    "l": 1.05551,
    "c": 1.05606,
    "v": 440
  },
  {
    "dt": "2021.12.22 01:00",
    "o": 1.05605,
    "h": 1.05643,
    "l": 1.05555,
    "c": 1.05633,
    "v": 979
  },
  {
    "dt": "2021.12.22 02:00",
    "o": 1.05635,
    "h": 1.05744,
    "l": 1.05631,
    "c": 1.05743,
    "v": 1488
  },
  {
    "dt": "2021.12.22 03:00",
    "o": 1.05743,
    "h": 1.05787,
    "l": 1.05694,
    "c": 1.05725,
    "v": 1615
  },
  {
    "dt": "2021.12.22 04:00",
    "o": 1.05725,
    "h": 1.05806,
    "l": 1.05692,
    "c": 1.05776,
    "v": 1463
  },
  {
    "dt": "2021.12.22 05:00",
    "o": 1.05778,
    "h": 1.05788,
    "l": 1.0566,
    "c": 1.05666,
    "v": 1455
  },
  {
    "dt": "2021.12.22 06:00",
    "o": 1.05663,
    "h": 1.05736,
    "l": 1.05633,
    "c": 1.05707,
    "v": 1027
  },
  {
    "dt": "2021.12.22 07:00",
    "o": 1.05706,
    "h": 1.05726,
    "l": 1.05622,
    "c": 1.0568,
    "v": 1505
  },
  {
    "dt": "2021.12.22 08:00",
    "o": 1.05678,
    "h": 1.05729,
    "l": 1.05655,
    "c": 1.05659,
    "v": 1587
  },
  {
    "dt": "2021.12.22 09:00",
    "o": 1.05657,
    "h": 1.05746,
    "l": 1.05656,
    "c": 1.05662,
    "v": 1865
  },
  {
    "dt": "2021.12.22 10:00",
    "o": 1.05666,
    "h": 1.05677,
    "l": 1.05573,
    "c": 1.0564,
    "v": 2421
  },
  {
    "dt": "2021.12.22 11:00",
    "o": 1.05641,
    "h": 1.05713,
    "l": 1.05629,
    "c": 1.05683,
    "v": 2481
  },
  {
    "dt": "2021.12.22 12:00",
    "o": 1.05684,
    "h": 1.05686,
    "l": 1.05606,
    "c": 1.0565,
    "v": 2262
  },
  {
    "dt": "2021.12.22 13:00",
    "o": 1.0565,
    "h": 1.05687,
    "l": 1.05624,
    "c": 1.05641,
    "v": 1842
  },
  {
    "dt": "2021.12.22 14:00",
    "o": 1.0564,
    "h": 1.05788,
    "l": 1.05634,
    "c": 1.0576,
    "v": 1876
  },
  {
    "dt": "2021.12.22 15:00",
    "o": 1.05761,
    "h": 1.05863,
    "l": 1.05718,
    "c": 1.05861,
    "v": 2700
  },
  {
    "dt": "2021.12.22 16:00",
    "o": 1.05864,
    "h": 1.05932,
    "l": 1.05827,
    "c": 1.05833,
    "v": 3071
  },
  {
    "dt": "2021.12.22 17:00",
    "o": 1.05836,
    "h": 1.05884,
    "l": 1.05749,
    "c": 1.05763,
    "v": 3311
  },
  {
    "dt": "2021.12.22 18:00",
    "o": 1.05772,
    "h": 1.05864,
    "l": 1.05741,
    "c": 1.05818,
    "v": 2963
  },
  {
    "dt": "2021.12.22 19:00",
    "o": 1.05819,
    "h": 1.05882,
    "l": 1.05813,
    "c": 1.05848,
    "v": 2160
  },
  {
    "dt": "2021.12.22 20:00",
    "o": 1.05858,
    "h": 1.05884,
    "l": 1.05773,
    "c": 1.05836,
    "v": 2065
  },
  {
    "dt": "2021.12.22 21:00",
    "o": 1.05835,
    "h": 1.05848,
    "l": 1.05747,
    "c": 1.05767,
    "v": 2422
  },
  {
    "dt": "2021.12.22 22:00",
    "o": 1.05769,
    "h": 1.05902,
    "l": 1.05747,
    "c": 1.05874,
    "v": 1940
  },
  {
    "dt": "2021.12.22 23:00",
    "o": 1.05877,
    "h": 1.05931,
    "l": 1.0583,
    "c": 1.05931,
    "v": 1303
  },
  {
    "dt": "2021.12.23 00:00",
    "o": 1.05951,
    "h": 1.05951,
    "l": 1.05638,
    "c": 1.05824,
    "v": 362
  },
  {
    "dt": "2021.12.23 01:00",
    "o": 1.05823,
    "h": 1.05991,
    "l": 1.05823,
    "c": 1.0597,
    "v": 1319
  },
  {
    "dt": "2021.12.23 02:00",
    "o": 1.05966,
    "h": 1.06017,
    "l": 1.05903,
    "c": 1.05935,
    "v": 1375
  },
  {
    "dt": "2021.12.23 03:00",
    "o": 1.05932,
    "h": 1.05964,
    "l": 1.05889,
    "c": 1.05945,
    "v": 1696
  },
  {
    "dt": "2021.12.23 04:00",
    "o": 1.0594,
    "h": 1.05944,
    "l": 1.05852,
    "c": 1.05872,
    "v": 1348
  },
  {
    "dt": "2021.12.23 05:00",
    "o": 1.05871,
    "h": 1.0589,
    "l": 1.05809,
    "c": 1.05819,
    "v": 948
  },
  {
    "dt": "2021.12.23 06:00",
    "o": 1.05819,
    "h": 1.05849,
    "l": 1.0581,
    "c": 1.0584,
    "v": 896
  },
  {
    "dt": "2021.12.23 07:00",
    "o": 1.05839,
    "h": 1.05908,
    "l": 1.05837,
    "c": 1.05891,
    "v": 893
  },
  {
    "dt": "2021.12.23 08:00",
    "o": 1.05888,
    "h": 1.05902,
    "l": 1.05861,
    "c": 1.05883,
    "v": 1112
  },
  {
    "dt": "2021.12.23 09:00",
    "o": 1.05872,
    "h": 1.05937,
    "l": 1.05816,
    "c": 1.05823,
    "v": 1536
  },
  {
    "dt": "2021.12.23 10:00",
    "o": 1.05823,
    "h": 1.05923,
    "l": 1.05793,
    "c": 1.05923,
    "v": 1959
  },
  {
    "dt": "2021.12.23 11:00",
    "o": 1.05921,
    "h": 1.05987,
    "l": 1.05898,
    "c": 1.05923,
    "v": 1826
  },
  {
    "dt": "2021.12.23 12:00",
    "o": 1.05921,
    "h": 1.05948,
    "l": 1.05883,
    "c": 1.05946,
    "v": 1637
  },
  {
    "dt": "2021.12.23 13:00",
    "o": 1.05947,
    "h": 1.06069,
    "l": 1.05849,
    "c": 1.06051,
    "v": 2074
  },
  {
    "dt": "2021.12.23 14:00",
    "o": 1.06052,
    "h": 1.0623,
    "l": 1.06042,
    "c": 1.06195,
    "v": 2268
  },
  {
    "dt": "2021.12.23 15:00",
    "o": 1.06197,
    "h": 1.06264,
    "l": 1.0605,
    "c": 1.06065,
    "v": 2540
  },
  {
    "dt": "2021.12.23 16:00",
    "o": 1.06062,
    "h": 1.06142,
    "l": 1.06017,
    "c": 1.06035,
    "v": 3127
  },
  {
    "dt": "2021.12.23 17:00",
    "o": 1.06034,
    "h": 1.06129,
    "l": 1.05979,
    "c": 1.06097,
    "v": 3159
  },
  {
    "dt": "2021.12.23 18:00",
    "o": 1.06094,
    "h": 1.06099,
    "l": 1.06026,
    "c": 1.06058,
    "v": 2270
  },
  {
    "dt": "2021.12.23 19:00",
    "o": 1.06058,
    "h": 1.06102,
    "l": 1.05998,
    "c": 1.05998,
    "v": 1863
  },
  {
    "dt": "2021.12.23 20:00",
    "o": 1.05989,
    "h": 1.06096,
    "l": 1.05989,
    "c": 1.0608,
    "v": 1819
  },
  {
    "dt": "2021.12.23 21:00",
    "o": 1.06075,
    "h": 1.0611,
    "l": 1.06032,
    "c": 1.06084,
    "v": 1640
  },
  {
    "dt": "2021.12.23 22:00",
    "o": 1.06085,
    "h": 1.06144,
    "l": 1.06081,
    "c": 1.06094,
    "v": 1626
  },
  {
    "dt": "2021.12.23 23:00",
    "o": 1.06096,
    "h": 1.06123,
    "l": 1.06044,
    "c": 1.06045,
    "v": 1072
  },
  {
    "dt": "2021.12.24 00:00",
    "o": 1.06053,
    "h": 1.06116,
    "l": 1.06002,
    "c": 1.06077,
    "v": 409
  },
  {
    "dt": "2021.12.24 01:00",
    "o": 1.06074,
    "h": 1.06096,
    "l": 1.05936,
    "c": 1.06083,
    "v": 2082
  },
  {
    "dt": "2021.12.24 02:00",
    "o": 1.06083,
    "h": 1.0613,
    "l": 1.05912,
    "c": 1.0601,
    "v": 3143
  },
  {
    "dt": "2021.12.24 03:00",
    "o": 1.06008,
    "h": 1.06111,
    "l": 1.05926,
    "c": 1.061,
    "v": 3646
  },
  {
    "dt": "2021.12.24 04:00",
    "o": 1.06103,
    "h": 1.06263,
    "l": 1.06002,
    "c": 1.06179,
    "v": 2557
  },
  {
    "dt": "2021.12.24 05:00",
    "o": 1.06179,
    "h": 1.06214,
    "l": 1.06086,
    "c": 1.06099,
    "v": 3019
  },
  {
    "dt": "2021.12.24 06:00",
    "o": 1.06094,
    "h": 1.06133,
    "l": 1.06077,
    "c": 1.06119,
    "v": 2387
  },
  {
    "dt": "2021.12.24 07:00",
    "o": 1.06118,
    "h": 1.06149,
    "l": 1.06085,
    "c": 1.06136,
    "v": 2405
  },
  {
    "dt": "2021.12.24 08:00",
    "o": 1.06135,
    "h": 1.06173,
    "l": 1.06112,
    "c": 1.06165,
    "v": 1128
  },
  {
    "dt": "2021.12.24 09:00",
    "o": 1.06165,
    "h": 1.06165,
    "l": 1.06131,
    "c": 1.06139,
    "v": 852
  },
  {
    "dt": "2021.12.24 10:00",
    "o": 1.06144,
    "h": 1.06149,
    "l": 1.05915,
    "c": 1.06064,
    "v": 3145
  },
  {
    "dt": "2021.12.24 11:00",
    "o": 1.06057,
    "h": 1.06148,
    "l": 1.06038,
    "c": 1.06065,
    "v": 3935
  },
  {
    "dt": "2021.12.24 12:00",
    "o": 1.06069,
    "h": 1.06202,
    "l": 1.06069,
    "c": 1.06085,
    "v": 2308
  },
  {
    "dt": "2021.12.24 13:00",
    "o": 1.06091,
    "h": 1.06169,
    "l": 1.05952,
    "c": 1.06112,
    "v": 3107
  },
  {
    "dt": "2021.12.24 14:00",
    "o": 1.06111,
    "h": 1.06132,
    "l": 1.05961,
    "c": 1.05998,
    "v": 2333
  },
  {
    "dt": "2021.12.24 15:00",
    "o": 1.06008,
    "h": 1.06068,
    "l": 1.05924,
    "c": 1.06024,
    "v": 2636
  },
  {
    "dt": "2021.12.24 16:00",
    "o": 1.06,
    "h": 1.06068,
    "l": 1.05847,
    "c": 1.06006,
    "v": 2736
  },
  {
    "dt": "2021.12.24 17:00",
    "o": 1.05998,
    "h": 1.06028,
    "l": 1.05789,
    "c": 1.05849,
    "v": 2375
  },
  {
    "dt": "2021.12.24 18:00",
    "o": 1.05852,
    "h": 1.0602,
    "l": 1.05852,
    "c": 1.05961,
    "v": 1269
  },
  {
    "dt": "2021.12.24 19:00",
    "o": 1.05959,
    "h": 1.05994,
    "l": 1.05888,
    "c": 1.05901,
    "v": 1024
  },
  {
    "dt": "2021.12.24 20:00",
    "o": 1.05891,
    "h": 1.05957,
    "l": 1.05558,
    "c": 1.05872,
    "v": 1197
  },
  {
    "dt": "2021.12.24 21:00",
    "o": 1.05867,
    "h": 1.06016,
    "l": 1.05829,
    "c": 1.05894,
    "v": 572
  },
  {
    "dt": "2021.12.24 22:00",
    "o": 1.05893,
    "h": 1.06028,
    "l": 1.05877,
    "c": 1.05927,
    "v": 792
  },
  {
    "dt": "2021.12.24 23:00",
    "o": 1.05907,
    "h": 1.06089,
    "l": 1.05831,
    "c": 1.05831,
    "v": 102
  },
  {
    "dt": "2021.12.27 00:00",
    "o": 1.05776,
    "h": 1.06047,
    "l": 1.05775,
    "c": 1.05938,
    "v": 245
  },
  {
    "dt": "2021.12.27 01:00",
    "o": 1.05922,
    "h": 1.06188,
    "l": 1.05922,
    "c": 1.06083,
    "v": 914
  },
  {
    "dt": "2021.12.27 02:00",
    "o": 1.06084,
    "h": 1.06112,
    "l": 1.06043,
    "c": 1.06092,
    "v": 967
  },
  {
    "dt": "2021.12.27 03:00",
    "o": 1.06093,
    "h": 1.061,
    "l": 1.06038,
    "c": 1.06084,
    "v": 1517
  },
  {
    "dt": "2021.12.27 04:00",
    "o": 1.06085,
    "h": 1.06108,
    "l": 1.06051,
    "c": 1.06097,
    "v": 1241
  },
  {
    "dt": "2021.12.27 05:00",
    "o": 1.06097,
    "h": 1.06099,
    "l": 1.06048,
    "c": 1.06064,
    "v": 1227
  },
  {
    "dt": "2021.12.27 06:00",
    "o": 1.06063,
    "h": 1.06096,
    "l": 1.06058,
    "c": 1.06087,
    "v": 1322
  },
  {
    "dt": "2021.12.27 07:00",
    "o": 1.06081,
    "h": 1.06093,
    "l": 1.06055,
    "c": 1.0606,
    "v": 1656
  },
  {
    "dt": "2021.12.27 08:00",
    "o": 1.0606,
    "h": 1.06117,
    "l": 1.06051,
    "c": 1.06077,
    "v": 1441
  },
  {
    "dt": "2021.12.27 09:00",
    "o": 1.06078,
    "h": 1.06097,
    "l": 1.06023,
    "c": 1.06042,
    "v": 1984
  },
  {
    "dt": "2021.12.27 10:00",
    "o": 1.06043,
    "h": 1.0615,
    "l": 1.06032,
    "c": 1.06126,
    "v": 1992
  },
  {
    "dt": "2021.12.27 11:00",
    "o": 1.06127,
    "h": 1.06158,
    "l": 1.06079,
    "c": 1.06115,
    "v": 1677
  },
  {
    "dt": "2021.12.27 12:00",
    "o": 1.06115,
    "h": 1.06146,
    "l": 1.06076,
    "c": 1.06087,
    "v": 1211
  },
  {
    "dt": "2021.12.27 13:00",
    "o": 1.06089,
    "h": 1.06117,
    "l": 1.06071,
    "c": 1.06097,
    "v": 1158
  },
  {
    "dt": "2021.12.27 14:00",
    "o": 1.06097,
    "h": 1.06173,
    "l": 1.06091,
    "c": 1.06173,
    "v": 1673
  },
  {
    "dt": "2021.12.27 15:00",
    "o": 1.06172,
    "h": 1.0622,
    "l": 1.06168,
    "c": 1.06188,
    "v": 1755
  },
  {
    "dt": "2021.12.27 16:00",
    "o": 1.06187,
    "h": 1.06224,
    "l": 1.06148,
    "c": 1.06199,
    "v": 2236
  },
  {
    "dt": "2021.12.27 17:00",
    "o": 1.06199,
    "h": 1.06325,
    "l": 1.06169,
    "c": 1.06299,
    "v": 2604
  },
  {
    "dt": "2021.12.27 18:00",
    "o": 1.06295,
    "h": 1.06302,
    "l": 1.06249,
    "c": 1.06261,
    "v": 2224
  },
  {
    "dt": "2021.12.27 19:00",
    "o": 1.0626,
    "h": 1.06265,
    "l": 1.06219,
    "c": 1.0623,
    "v": 1564
  },
  {
    "dt": "2021.12.27 20:00",
    "o": 1.06222,
    "h": 1.06268,
    "l": 1.06206,
    "c": 1.06262,
    "v": 1647
  },
  {
    "dt": "2021.12.27 21:00",
    "o": 1.06262,
    "h": 1.06272,
    "l": 1.06164,
    "c": 1.06176,
    "v": 1642
  },
  {
    "dt": "2021.12.27 22:00",
    "o": 1.06175,
    "h": 1.06227,
    "l": 1.06153,
    "c": 1.06178,
    "v": 1867
  },
  {
    "dt": "2021.12.27 23:00",
    "o": 1.06178,
    "h": 1.06225,
    "l": 1.06139,
    "c": 1.06143,
    "v": 1153
  },
  {
    "dt": "2021.12.28 00:00",
    "o": 1.06271,
    "h": 1.06316,
    "l": 1.06073,
    "c": 1.06104,
    "v": 139
  },
  {
    "dt": "2021.12.28 01:00",
    "o": 1.06104,
    "h": 1.06179,
    "l": 1.06104,
    "c": 1.06145,
    "v": 527
  },
  {
    "dt": "2021.12.28 02:00",
    "o": 1.06148,
    "h": 1.06197,
    "l": 1.06141,
    "c": 1.06194,
    "v": 902
  },
  {
    "dt": "2021.12.28 03:00",
    "o": 1.06195,
    "h": 1.06213,
    "l": 1.06156,
    "c": 1.06172,
    "v": 1350
  },
  {
    "dt": "2021.12.28 04:00",
    "o": 1.06171,
    "h": 1.0627,
    "l": 1.0617,
    "c": 1.06261,
    "v": 893
  },
  {
    "dt": "2021.12.28 05:00",
    "o": 1.06261,
    "h": 1.06272,
    "l": 1.06212,
    "c": 1.06226,
    "v": 848
  },
  {
    "dt": "2021.12.28 06:00",
    "o": 1.06226,
    "h": 1.06258,
    "l": 1.06209,
    "c": 1.06248,
    "v": 810
  },
  {
    "dt": "2021.12.28 07:00",
    "o": 1.06249,
    "h": 1.0628,
    "l": 1.06239,
    "c": 1.06264,
    "v": 866
  },
  {
    "dt": "2021.12.28 08:00",
    "o": 1.06264,
    "h": 1.06281,
    "l": 1.0623,
    "c": 1.06257,
    "v": 932
  },
  {
    "dt": "2021.12.28 09:00",
    "o": 1.06262,
    "h": 1.06278,
    "l": 1.06245,
    "c": 1.06255,
    "v": 1269
  },
  {
    "dt": "2021.12.28 10:00",
    "o": 1.06259,
    "h": 1.06365,
    "l": 1.06259,
    "c": 1.06326,
    "v": 1695
  },
  {
    "dt": "2021.12.28 11:00",
    "o": 1.06327,
    "h": 1.06407,
    "l": 1.06325,
    "c": 1.06377,
    "v": 1723
  },
  {
    "dt": "2021.12.28 12:00",
    "o": 1.06376,
    "h": 1.06401,
    "l": 1.06353,
    "c": 1.06385,
    "v": 1390
  },
  {
    "dt": "2021.12.28 13:00",
    "o": 1.06386,
    "h": 1.0642,
    "l": 1.06366,
    "c": 1.06378,
    "v": 1718
  },
  {
    "dt": "2021.12.28 14:00",
    "o": 1.0638,
    "h": 1.06397,
    "l": 1.0635,
    "c": 1.06353,
    "v": 1498
  },
  {
    "dt": "2021.12.28 15:00",
    "o": 1.06354,
    "h": 1.06394,
    "l": 1.0633,
    "c": 1.06338,
    "v": 1519
  },
  {
    "dt": "2021.12.28 16:00",
    "o": 1.0634,
    "h": 1.06389,
    "l": 1.06306,
    "c": 1.06387,
    "v": 2454
  },
  {
    "dt": "2021.12.28 17:00",
    "o": 1.06385,
    "h": 1.06413,
    "l": 1.06301,
    "c": 1.06369,
    "v": 2714
  },
  {
    "dt": "2021.12.28 18:00",
    "o": 1.0637,
    "h": 1.06395,
    "l": 1.06349,
    "c": 1.06357,
    "v": 2581
  },
  {
    "dt": "2021.12.28 19:00",
    "o": 1.06356,
    "h": 1.0636,
    "l": 1.06278,
    "c": 1.06317,
    "v": 2064
  },
  {
    "dt": "2021.12.28 20:00",
    "o": 1.06323,
    "h": 1.06342,
    "l": 1.0629,
    "c": 1.06335,
    "v": 1807
  },
  {
    "dt": "2021.12.28 21:00",
    "o": 1.06335,
    "h": 1.06351,
    "l": 1.06279,
    "c": 1.06279,
    "v": 1824
  },
  {
    "dt": "2021.12.28 22:00",
    "o": 1.06281,
    "h": 1.06302,
    "l": 1.06227,
    "c": 1.06253,
    "v": 2029
  },
  {
    "dt": "2021.12.28 23:00",
    "o": 1.06253,
    "h": 1.06286,
    "l": 1.06127,
    "c": 1.06127,
    "v": 1003
  },
  {
    "dt": "2021.12.29 00:00",
    "o": 1.06293,
    "h": 1.06293,
    "l": 1.06133,
    "c": 1.06148,
    "v": 352
  },
  {
    "dt": "2021.12.29 01:00",
    "o": 1.06191,
    "h": 1.06271,
    "l": 1.06158,
    "c": 1.06266,
    "v": 720
  },
  {
    "dt": "2021.12.29 02:00",
    "o": 1.06259,
    "h": 1.06284,
    "l": 1.06232,
    "c": 1.0624,
    "v": 1332
  },
  {
    "dt": "2021.12.29 03:00",
    "o": 1.06242,
    "h": 1.06289,
    "l": 1.06143,
    "c": 1.06219,
    "v": 1550
  },
  {
    "dt": "2021.12.29 04:00",
    "o": 1.06218,
    "h": 1.06279,
    "l": 1.06163,
    "c": 1.06165,
    "v": 1121
  },
  {
    "dt": "2021.12.29 05:00",
    "o": 1.06167,
    "h": 1.0619,
    "l": 1.06089,
    "c": 1.0619,
    "v": 1241
  },
  {
    "dt": "2021.12.29 06:00",
    "o": 1.06193,
    "h": 1.06298,
    "l": 1.06187,
    "c": 1.06298,
    "v": 1077
  },
  {
    "dt": "2021.12.29 07:00",
    "o": 1.063,
    "h": 1.06337,
    "l": 1.06271,
    "c": 1.06326,
    "v": 1381
  },
  {
    "dt": "2021.12.29 08:00",
    "o": 1.06326,
    "h": 1.06366,
    "l": 1.06293,
    "c": 1.06311,
    "v": 1635
  },
  {
    "dt": "2021.12.29 09:00",
    "o": 1.06305,
    "h": 1.06351,
    "l": 1.06296,
    "c": 1.0635,
    "v": 1342
  },
  {
    "dt": "2021.12.29 10:00",
    "o": 1.06351,
    "h": 1.06407,
    "l": 1.06345,
    "c": 1.06393,
    "v": 2114
  },
  {
    "dt": "2021.12.29 11:00",
    "o": 1.06392,
    "h": 1.06422,
    "l": 1.06261,
    "c": 1.06276,
    "v": 2175
  },
  {
    "dt": "2021.12.29 12:00",
    "o": 1.06275,
    "h": 1.06289,
    "l": 1.06181,
    "c": 1.06226,
    "v": 1608
  },
  {
    "dt": "2021.12.29 13:00",
    "o": 1.06227,
    "h": 1.06236,
    "l": 1.06175,
    "c": 1.06211,
    "v": 1655
  },
  {
    "dt": "2021.12.29 14:00",
    "o": 1.06211,
    "h": 1.06282,
    "l": 1.06193,
    "c": 1.06275,
    "v": 1754
  },
  {
    "dt": "2021.12.29 15:00",
    "o": 1.06274,
    "h": 1.06317,
    "l": 1.06181,
    "c": 1.06201,
    "v": 2391
  },
  {
    "dt": "2021.12.29 16:00",
    "o": 1.062,
    "h": 1.06245,
    "l": 1.06163,
    "c": 1.06198,
    "v": 2681
  },
  {
    "dt": "2021.12.29 17:00",
    "o": 1.06197,
    "h": 1.06307,
    "l": 1.06178,
    "c": 1.06181,
    "v": 3659
  },
  {
    "dt": "2021.12.29 18:00",
    "o": 1.06187,
    "h": 1.06195,
    "l": 1.06039,
    "c": 1.06054,
    "v": 2989
  },
  {
    "dt": "2021.12.29 19:00",
    "o": 1.06055,
    "h": 1.06098,
    "l": 1.06043,
    "c": 1.06065,
    "v": 1821
  },
  {
    "dt": "2021.12.29 20:00",
    "o": 1.0602,
    "h": 1.06118,
    "l": 1.0602,
    "c": 1.06114,
    "v": 1581
  },
  {
    "dt": "2021.12.29 21:00",
    "o": 1.06114,
    "h": 1.0626,
    "l": 1.06105,
    "c": 1.06253,
    "v": 1362
  },
  {
    "dt": "2021.12.29 22:00",
    "o": 1.06255,
    "h": 1.06324,
    "l": 1.06196,
    "c": 1.06199,
    "v": 1916
  },
  {
    "dt": "2021.12.29 23:00",
    "o": 1.06197,
    "h": 1.062,
    "l": 1.06075,
    "c": 1.06102,
    "v": 914
  },
  {
    "dt": "2021.12.30 00:00",
    "o": 1.06094,
    "h": 1.06152,
    "l": 1.06069,
    "c": 1.06119,
    "v": 197
  },
  {
    "dt": "2021.12.30 01:00",
    "o": 1.06127,
    "h": 1.06175,
    "l": 1.06102,
    "c": 1.06117,
    "v": 659
  },
  {
    "dt": "2021.12.30 02:00",
    "o": 1.06117,
    "h": 1.06136,
    "l": 1.06048,
    "c": 1.06061,
    "v": 1444
  },
  {
    "dt": "2021.12.30 03:00",
    "o": 1.06063,
    "h": 1.06131,
    "l": 1.06021,
    "c": 1.06131,
    "v": 1931
  },
  {
    "dt": "2021.12.30 04:00",
    "o": 1.06134,
    "h": 1.06142,
    "l": 1.0599,
    "c": 1.06018,
    "v": 1221
  },
  {
    "dt": "2021.12.30 05:00",
    "o": 1.06019,
    "h": 1.06084,
    "l": 1.06019,
    "c": 1.06055,
    "v": 1032
  },
  {
    "dt": "2021.12.30 06:00",
    "o": 1.06055,
    "h": 1.06069,
    "l": 1.06038,
    "c": 1.06065,
    "v": 785
  },
  {
    "dt": "2021.12.30 07:00",
    "o": 1.06065,
    "h": 1.06105,
    "l": 1.0605,
    "c": 1.06073,
    "v": 1157
  },
  {
    "dt": "2021.12.30 08:00",
    "o": 1.06071,
    "h": 1.06207,
    "l": 1.06069,
    "c": 1.06202,
    "v": 1926
  },
  {
    "dt": "2021.12.30 09:00",
    "o": 1.062,
    "h": 1.06343,
    "l": 1.06178,
    "c": 1.06341,
    "v": 2145
  },
  {
    "dt": "2021.12.30 10:00",
    "o": 1.06343,
    "h": 1.06422,
    "l": 1.06316,
    "c": 1.06319,
    "v": 2056
  },
  {
    "dt": "2021.12.30 11:00",
    "o": 1.0632,
    "h": 1.06345,
    "l": 1.06279,
    "c": 1.06342,
    "v": 1722
  },
  {
    "dt": "2021.12.30 12:00",
    "o": 1.06338,
    "h": 1.06346,
    "l": 1.06235,
    "c": 1.06261,
    "v": 1899
  },
  {
    "dt": "2021.12.30 13:00",
    "o": 1.06258,
    "h": 1.06289,
    "l": 1.06226,
    "c": 1.06229,
    "v": 2137
  },
  {
    "dt": "2021.12.30 14:00",
    "o": 1.06226,
    "h": 1.06237,
    "l": 1.06099,
    "c": 1.06129,
    "v": 2186
  },
  {
    "dt": "2021.12.30 15:00",
    "o": 1.06131,
    "h": 1.06226,
    "l": 1.06025,
    "c": 1.06222,
    "v": 2335
  },
  {
    "dt": "2021.12.30 16:00",
    "o": 1.06223,
    "h": 1.06291,
    "l": 1.06144,
    "c": 1.06166,
    "v": 2500
  },
  {
    "dt": "2021.12.30 17:00",
    "o": 1.06169,
    "h": 1.06179,
    "l": 1.06056,
    "c": 1.06093,
    "v": 2769
  },
  {
    "dt": "2021.12.30 18:00",
    "o": 1.06091,
    "h": 1.06187,
    "l": 1.06055,
    "c": 1.06144,
    "v": 2205
  },
  {
    "dt": "2021.12.30 19:00",
    "o": 1.06147,
    "h": 1.06199,
    "l": 1.06104,
    "c": 1.06155,
    "v": 1430
  },
  {
    "dt": "2021.12.30 20:00",
    "o": 1.0611,
    "h": 1.0621,
    "l": 1.0611,
    "c": 1.06137,
    "v": 1422
  },
  {
    "dt": "2021.12.30 21:00",
    "o": 1.06138,
    "h": 1.06214,
    "l": 1.06125,
    "c": 1.06214,
    "v": 1598
  },
  {
    "dt": "2021.12.30 22:00",
    "o": 1.06209,
    "h": 1.06237,
    "l": 1.06087,
    "c": 1.06096,
    "v": 2031
  },
  {
    "dt": "2021.12.30 23:00",
    "o": 1.06096,
    "h": 1.06203,
    "l": 1.06039,
    "c": 1.06185,
    "v": 1170
  },
  {
    "dt": "2021.12.31 00:00",
    "o": 1.06213,
    "h": 1.06213,
    "l": 1.06026,
    "c": 1.06068,
    "v": 491
  },
  {
    "dt": "2021.12.31 01:00",
    "o": 1.06068,
    "h": 1.06149,
    "l": 1.06053,
    "c": 1.06137,
    "v": 676
  },
  {
    "dt": "2021.12.31 02:00",
    "o": 1.06137,
    "h": 1.06142,
    "l": 1.06027,
    "c": 1.06122,
    "v": 1380
  },
  {
    "dt": "2021.12.31 03:00",
    "o": 1.06124,
    "h": 1.06174,
    "l": 1.06085,
    "c": 1.06169,
    "v": 1645
  },
  {
    "dt": "2021.12.31 04:00",
    "o": 1.0617,
    "h": 1.06308,
    "l": 1.06169,
    "c": 1.06273,
    "v": 1041
  },
  {
    "dt": "2021.12.31 05:00",
    "o": 1.06273,
    "h": 1.06302,
    "l": 1.06216,
    "c": 1.06275,
    "v": 1376
  },
  {
    "dt": "2021.12.31 06:00",
    "o": 1.06274,
    "h": 1.06292,
    "l": 1.06264,
    "c": 1.06265,
    "v": 977
  },
  {
    "dt": "2021.12.31 07:00",
    "o": 1.06262,
    "h": 1.0627,
    "l": 1.06222,
    "c": 1.06256,
    "v": 1101
  },
  {
    "dt": "2021.12.31 08:00",
    "o": 1.06256,
    "h": 1.06284,
    "l": 1.06208,
    "c": 1.06213,
    "v": 1230
  },
  {
    "dt": "2021.12.31 09:00",
    "o": 1.06212,
    "h": 1.06306,
    "l": 1.06197,
    "c": 1.06303,
    "v": 1897
  },
  {
    "dt": "2021.12.31 10:00",
    "o": 1.06303,
    "h": 1.06303,
    "l": 1.06247,
    "c": 1.063,
    "v": 1610
  },
  {
    "dt": "2021.12.31 11:00",
    "o": 1.06299,
    "h": 1.06307,
    "l": 1.06214,
    "c": 1.06216,
    "v": 1654
  },
  {
    "dt": "2021.12.31 12:00",
    "o": 1.06217,
    "h": 1.06227,
    "l": 1.06161,
    "c": 1.06191,
    "v": 1698
  },
  {
    "dt": "2021.12.31 13:00",
    "o": 1.06189,
    "h": 1.06209,
    "l": 1.06088,
    "c": 1.06115,
    "v": 1960
  },
  {
    "dt": "2021.12.31 14:00",
    "o": 1.06114,
    "h": 1.06134,
    "l": 1.06083,
    "c": 1.06131,
    "v": 2107
  },
  {
    "dt": "2021.12.31 15:00",
    "o": 1.06131,
    "h": 1.0621,
    "l": 1.06105,
    "c": 1.06141,
    "v": 2476
  },
  {
    "dt": "2021.12.31 16:00",
    "o": 1.06141,
    "h": 1.06261,
    "l": 1.06093,
    "c": 1.06216,
    "v": 3060
  },
  {
    "dt": "2021.12.31 17:00",
    "o": 1.06218,
    "h": 1.0627,
    "l": 1.06056,
    "c": 1.06171,
    "v": 3168
  },
  {
    "dt": "2021.12.31 18:00",
    "o": 1.06171,
    "h": 1.06223,
    "l": 1.06072,
    "c": 1.06139,
    "v": 2877
  },
  {
    "dt": "2021.12.31 19:00",
    "o": 1.0614,
    "h": 1.06292,
    "l": 1.06121,
    "c": 1.06195,
    "v": 2102
  },
  {
    "dt": "2021.12.31 20:00",
    "o": 1.06198,
    "h": 1.06235,
    "l": 1.06185,
    "c": 1.06201,
    "v": 1548
  },
  {
    "dt": "2021.12.31 21:00",
    "o": 1.06197,
    "h": 1.06242,
    "l": 1.06178,
    "c": 1.0619,
    "v": 1165
  },
  {
    "dt": "2021.12.31 22:00",
    "o": 1.06187,
    "h": 1.06219,
    "l": 1.06162,
    "c": 1.06184,
    "v": 1245
  },
  {
    "dt": "2021.12.31 23:00",
    "o": 1.06183,
    "h": 1.06302,
    "l": 1.06109,
    "c": 1.06221,
    "v": 1191
  }
]