[
  {
    "dt": "2021.01.04 00:00",
    "o": 116.743,
    "h": 116.865,
    "l": 116.695,
    "c": 116.698,
    "v": 121
  },
  {
    "dt": "2021.01.04 01:00",
    "o": 116.835,
    "h": 116.946,
    "l": 116.683,
    "c": 116.893,
    "v": 1599
  },
  {
    "dt": "2021.01.04 02:00",
    "o": 116.893,
    "h": 116.903,
    "l": 116.533,
    "c": 116.611,
    "v": 2460
  },
  {
    "dt": "2021.01.04 03:00",
    "o": 116.61,
    "h": 116.69,
    "l": 116.576,
    "c": 116.622,
    "v": 2182
  },
  {
    "dt": "2021.01.04 04:00",
    "o": 116.62,
    "h": 116.649,
    "l": 116.52,
    "c": 116.545,
    "v": 1756
  },
  {
    "dt": "2021.01.04 05:00",
    "o": 116.547,
    "h": 116.56,
    "l": 116.438,
    "c": 116.482,
    "v": 1422
  },
  {
    "dt": "2021.01.04 06:00",
    "o": 116.481,
    "h": 116.506,
    "l": 116.439,
    "c": 116.485,
    "v": 1179
  },
  {
    "dt": "2021.01.04 07:00",
    "o": 116.488,
    "h": 116.585,
    "l": 116.454,
    "c": 116.559,
    "v": 1523
  },
  {
    "dt": "2021.01.04 08:00",
    "o": 116.558,
    "h": 116.629,
    "l": 116.491,
    "c": 116.61,
    "v": 1704
  },
  {
    "dt": "2021.01.04 09:00",
    "o": 116.602,
    "h": 116.641,
    "l": 116.449,
    "c": 116.547,
    "v": 2869
  },
  {
    "dt": "2021.01.04 10:00",
    "o": 116.547,
    "h": 116.798,
    "l": 116.539,
    "c": 116.75,
    "v": 3556
  },
  {
    "dt": "2021.01.04 11:00",
    "o": 116.749,
    "h": 116.851,
    "l": 116.741,
    "c": 116.773,
    "v": 3252
  },
  {
    "dt": "2021.01.04 12:00",
    "o": 116.775,
    "h": 116.873,
    "l": 116.725,
    "c": 116.851,
    "v": 2602
  },
  {
    "dt": "2021.01.04 13:00",
    "o": 116.851,
    "h": 117.001,
    "l": 116.851,
    "c": 116.894,
    "v": 2803
  },
  {
    "dt": "2021.01.04 14:00",
    "o": 116.89,
    "h": 117.143,
    "l": 116.862,
    "c": 117.129,
    "v": 3273
  },
  {
    "dt": "2021.01.04 15:00",
    "o": 117.127,
    "h": 117.168,
    "l": 117.063,
    "c": 117.132,
    "v": 3715
  },
  {
    "dt": "2021.01.04 16:00",
    "o": 117.13,
    "h": 117.196,
    "l": 116.983,
    "c": 116.993,
    "v": 4187
  },
  {
    "dt": "2021.01.04 17:00",
    "o": 117.001,
    "h": 117.265,
    "l": 116.927,
    "c": 117.23,
    "v": 4504
  },
  {
    "dt": "2021.01.04 18:00",
    "o": 117.229,
    "h": 117.299,
    "l": 117.054,
    "c": 117.083,
    "v": 3978
  },
  {
    "dt": "2021.01.04 19:00",
    "o": 117.086,
    "h": 117.11,
    "l": 117.003,
    "c": 117.052,
    "v": 3422
  },
  {
    "dt": "2021.01.04 20:00",
    "o": 117.051,
    "h": 117.057,
    "l": 116.982,
    "c": 117.039,
    "v": 2718
  },
  {
    "dt": "2021.01.04 21:00",
    "o": 117.04,
    "h": 117.098,
    "l": 117.015,
    "c": 117.071,
    "v": 2462
  },
  {
    "dt": "2021.01.04 22:00",
    "o": 117.074,
    "h": 117.074,
    "l": 117.012,
    "c": 117.053,
    "v": 2398
  },
  {
    "dt": "2021.01.04 23:00",
    "o": 117.056,
    "h": 117.087,
    "l": 117.003,
    "c": 117.058,
    "v": 1472
  },
  {
    "dt": "2021.01.05 00:00",
    "o": 116.907,
    "h": 116.979,
    "l": 116.907,
    "c": 116.964,
    "v": 227
  },
  {
    "dt": "2021.01.05 01:00",
    "o": 116.972,
    "h": 117.05,
    "l": 116.972,
    "c": 117.015,
    "v": 1154
  },
  {
    "dt": "2021.01.05 02:00",
    "o": 117.021,
    "h": 117.046,
    "l": 116.952,
    "c": 116.993,
    "v": 1753
  },
  {
    "dt": "2021.01.05 03:00",
    "o": 116.994,
    "h": 117.033,
    "l": 116.98,
    "c": 116.992,
    "v": 1889
  },
  {
    "dt": "2021.01.05 04:00",
    "o": 116.987,
    "h": 117.109,
    "l": 116.972,
    "c": 117.097,
    "v": 1548
  },
  {
    "dt": "2021.01.05 05:00",
    "o": 117.097,
    "h": 117.127,
    "l": 117.05,
    "c": 117.067,
    "v": 1965
  },
  {
    "dt": "2021.01.05 06:00",
    "o": 117.067,
    "h": 117.067,
    "l": 116.972,
    "c": 116.977,
    "v": 1759
  },
  {
    "dt": "2021.01.05 07:00",
    "o": 116.977,
    "h": 116.99,
    "l": 116.904,
    "c": 116.934,
    "v": 1965
  },
  {
    "dt": "2021.01.05 08:00",
    "o": 116.933,
    "h": 116.948,
    "l": 116.868,
    "c": 116.88,
    "v": 1776
  },
  {
    "dt": "2021.01.05 09:00",
    "o": 116.876,
    "h": 116.93,
    "l": 116.799,
    "c": 116.85,
    "v": 2946
  },
  {
    "dt": "2021.01.05 10:00",
    "o": 116.848,
    "h": 117.031,
    "l": 116.813,
    "c": 116.999,
    "v": 3504
  },
  {
    "dt": "2021.01.05 11:00",
    "o": 116.998,
    "h": 117.023,
    "l": 116.807,
    "c": 116.838,
    "v": 2954
  },
  {
    "dt": "2021.01.05 12:00",
    "o": 116.838,
    "h": 116.942,
    "l": 116.737,
    "c": 116.811,
    "v": 2661
  },
  {
    "dt": "2021.01.05 13:00",
    "o": 116.811,
    "h": 116.896,
    "l": 116.749,
    "c": 116.885,
    "v": 2885
  },
  {
    "dt": "2021.01.05 14:00",
    "o": 116.887,
    "h": 116.981,
    "l": 116.865,
    "c": 116.915,
    "v": 3184
  },
  {
    "dt": "2021.01.05 15:00",
    "o": 116.915,
    "h": 116.95,
    "l": 116.83,
    "c": 116.883,
    "v": 3336
  },
  {
    "dt": "2021.01.05 16:00",
    "o": 116.884,
    "h": 116.948,
    "l": 116.755,
    "c": 116.796,
    "v": 3787
  },
  {
    "dt": "2021.01.05 17:00",
    "o": 116.8,
    "h": 116.939,
    "l": 116.783,
    "c": 116.853,
    "v": 4510
  },
  {
    "dt": "2021.01.05 18:00",
    "o": 116.853,
    "h": 116.944,
    "l": 116.835,
    "c": 116.906,
    "v": 3858
  },
  {
    "dt": "2021.01.05 19:00",
    "o": 116.904,
    "h": 116.93,
    "l": 116.827,
    "c": 116.908,
    "v": 3157
  },
  {
    "dt": "2021.01.05 20:00",
    "o": 116.905,
    "h": 116.962,
    "l": 116.868,
    "c": 116.87,
    "v": 2596
  },
  {
    "dt": "2021.01.05 21:00",
    "o": 116.872,
    "h": 116.931,
    "l": 116.862,
    "c": 116.908,
    "v": 1997
  },
  {
    "dt": "2021.01.05 22:00",
    "o": 116.912,
    "h": 116.925,
    "l": 116.831,
    "c": 116.863,
    "v": 2060
  },
  {
    "dt": "2021.01.05 23:00",
    "o": 116.864,
    "h": 116.946,
    "l": 116.864,
    "c": 116.934,
    "v": 1232
  },
  {
    "dt": "2021.01.06 00:00",
    "o": 116.872,
    "h": 116.942,
    "l": 116.866,
    "c": 116.892,
    "v": 445
  },
  {
    "dt": "2021.01.06 01:00",
    "o": 116.895,
    "h": 116.936,
    "l": 116.871,
    "c": 116.911,
    "v": 1298
  },
  {
    "dt": "2021.01.06 02:00",
    "o": 116.913,
    "h": 117.002,
    "l": 116.791,
    "c": 116.949,
    "v": 2364
  },
  {
    "dt": "2021.01.06 03:00",
    "o": 116.958,
    "h": 116.983,
    "l": 116.866,
    "c": 116.903,
    "v": 3612
  },
  {
    "dt": "2021.01.06 04:00",
    "o": 116.9,
    "h": 116.935,
    "l": 116.865,
    "c": 116.884,
    "v": 2900
  },
  {
    "dt": "2021.01.06 05:00",
    "o": 116.886,
    "h": 116.991,
    "l": 116.883,
    "c": 116.946,
    "v": 2752
  },
  {
    "dt": "2021.01.06 06:00",
    "o": 116.949,
    "h": 117.025,
    "l": 116.906,
    "c": 116.998,
    "v": 2873
  },
  {
    "dt": "2021.01.06 07:00",
    "o": 116.999,
    "h": 117.066,
    "l": 116.948,
    "c": 116.988,
    "v": 2111
  },
  {
    "dt": "2021.01.06 08:00",
    "o": 116.988,
    "h": 117.113,
    "l": 116.975,
    "c": 117.042,
    "v": 1943
  },
  {
    "dt": "2021.01.06 09:00",
    "o": 117.038,
    "h": 117.265,
    "l": 117.028,
    "c": 117.246,
    "v": 3819
  },
  {
    "dt": "2021.01.06 10:00",
    "o": 117.245,
    "h": 117.308,
    "l": 117.164,
    "c": 117.222,
    "v": 3913
  },
  {
    "dt": "2021.01.06 11:00",
    "o": 117.218,
    "h": 117.316,
    "l": 117.166,
    "c": 117.309,
    "v": 3515
  },
  {
    "dt": "2021.01.06 12:00",
    "o": 117.305,
    "h": 117.385,
    "l": 117.281,
    "c": 117.331,
    "v": 3009
  },
  {
    "dt": "2021.01.06 13:00",
    "o": 117.335,
    "h": 117.376,
    "l": 117.22,
    "c": 117.315,
    "v": 2931
  },
  {
    "dt": "2021.01.06 14:00",
    "o": 117.311,
    "h": 117.409,
    "l": 117.291,
    "c": 117.379,
    "v": 3360
  },
  {
    "dt": "2021.01.06 15:00",
    "o": 117.378,
    "h": 117.457,
    "l": 117.331,
    "c": 117.336,
    "v": 4209
  },
  {
    "dt": "2021.01.06 16:00",
    "o": 117.335,
    "h": 117.354,
    "l": 117.248,
    "c": 117.333,
    "v": 4858
  },
  {
    "dt": "2021.01.06 17:00",
    "o": 117.331,
    "h": 117.48,
    "l": 117.268,
    "c": 117.312,
    "v": 4718
  },
  {
    "dt": "2021.01.06 18:00",
    "o": 117.312,
    "h": 117.329,
    "l": 117.11,
    "c": 117.183,
    "v": 4096
  },
  {
    "dt": "2021.01.06 19:00",
    "o": 117.183,
    "h": 117.244,
    "l": 117.146,
    "c": 117.152,
    "v": 3087
  },
  {
    "dt": "2021.01.06 20:00",
    "o": 117.15,
    "h": 117.26,
    "l": 117.144,
    "c": 117.175,
    "v": 2669
  },
  {
    "dt": "2021.01.06 21:00",
    "o": 117.175,
    "h": 117.308,
    "l": 117.173,
    "c": 117.216,
    "v": 3731
  },
  {
    "dt": "2021.01.06 22:00",
    "o": 117.216,
    "h": 117.268,
    "l": 117.17,
    "c": 117.248,
    "v": 3895
  },
  {
    "dt": "2021.01.06 23:00",
    "o": 117.25,
    "h": 117.334,
    "l": 117.204,
    "c": 117.307,
    "v": 1881
  },
  {
    "dt": "2021.01.07 00:00",
    "o": 117.204,
    "h": 117.313,
    "l": 117.171,
    "c": 117.247,
    "v": 496
  },
  {
    "dt": "2021.01.07 01:00",
    "o": 117.26,
    "h": 117.385,
    "l": 117.259,
    "c": 117.31,
    "v": 1741
  },
  {
    "dt": "2021.01.07 02:00",
    "o": 117.308,
    "h": 117.359,
    "l": 117.214,
    "c": 117.316,
    "v": 2343
  },
  {
    "dt": "2021.01.07 03:00",
    "o": 117.314,
    "h": 117.427,
    "l": 117.278,
    "c": 117.382,
    "v": 2554
  },
  {
    "dt": "2021.01.07 04:00",
    "o": 117.384,
    "h": 117.432,
    "l": 117.343,
    "c": 117.4,
    "v": 2566
  },
  {
    "dt": "2021.01.07 05:00",
    "o": 117.399,
    "h": 117.417,
    "l": 117.332,
    "c": 117.374,
    "v": 1993
  },
  {
    "dt": "2021.01.07 06:00",
    "o": 117.376,
    "h": 117.406,
    "l": 117.337,
    "c": 117.355,
    "v": 1716
  },
  {
    "dt": "2021.01.07 07:00",
    "o": 117.361,
    "h": 117.375,
    "l": 117.322,
    "c": 117.356,
    "v": 1321
  },
  {
    "dt": "2021.01.07 08:00",
    "o": 117.357,
    "h": 117.464,
    "l": 117.338,
    "c": 117.423,
    "v": 1676
  },
  {
    "dt": "2021.01.07 09:00",
    "o": 117.422,
    "h": 117.504,
    "l": 117.368,
    "c": 117.46,
    "v": 3301
  },
  {
    "dt": "2021.01.07 10:00",
    "o": 117.461,
    "h": 117.51,
    "l": 117.265,
    "c": 117.271,
    "v": 3926
  },
  {
    "dt": "2021.01.07 11:00",
    "o": 117.273,
    "h": 117.333,
    "l": 117.213,
    "c": 117.258,
    "v": 3817
  },
  {
    "dt": "2021.01.07 12:00",
    "o": 117.258,
    "h": 117.327,
    "l": 117.202,
    "c": 117.22,
    "v": 3725
  },
  {
    "dt": "2021.01.07 13:00",
    "o": 117.225,
    "h": 117.334,
    "l": 117.222,
    "c": 117.306,
    "v": 3332
  },
  {
    "dt": "2021.01.07 14:00",
    "o": 117.306,
    "h": 117.409,
    "l": 117.272,
    "c": 117.283,
    "v": 3251
  },
  {
    "dt": "2021.01.07 15:00",
    "o": 117.287,
    "h": 117.403,
    "l": 117.278,
    "c": 117.389,
    "v": 3627
  },
  {
    "dt": "2021.01.07 16:00",
    "o": 117.388,
    "h": 117.47,
    "l": 117.267,
    "c": 117.275,
    "v": 4564
  },
  {
    "dt": "2021.01.07 17:00",
    "o": 117.29,
    "h": 117.42,
    "l": 117.228,
    "c": 117.376,
    "v": 4691
  },
  {
    "dt": "2021.01.07 18:00",
    "o": 117.375,
    "h": 117.461,
    "l": 117.327,
    "c": 117.42,
    "v": 3632
  },
  {
    "dt": "2021.01.07 19:00",
    "o": 117.421,
    "h": 117.51,
    "l": 117.345,
    "c": 117.398,
    "v": 2772
  },
  {
    "dt": "2021.01.07 20:00",
    "o": 117.404,
    "h": 117.412,
    "l": 117.338,
    "c": 117.338,
    "v": 2271
  },
  {
    "dt": "2021.01.07 21:00",
    "o": 117.338,
    "h": 117.366,
    "l": 117.297,
    "c": 117.349,
    "v": 2192
  },
  {
    "dt": "2021.01.07 22:00",
    "o": 117.351,
    "h": 117.384,
    "l": 117.282,
    "c": 117.299,
    "v": 2193
  },
  {
    "dt": "2021.01.07 23:00",
    "o": 117.3,
    "h": 117.309,
    "l": 117.22,
    "c": 117.255,
    "v": 1545
  },
  {
    "dt": "2021.01.08 00:00",
    "o": 117.222,
    "h": 117.295,
    "l": 117.19,
    "c": 117.274,
    "v": 204
  },
  {
    "dt": "2021.01.08 01:00",
    "o": 117.276,
    "h": 117.288,
    "l": 117.218,
    "c": 117.251,
    "v": 1148
  },
  {
    "dt": "2021.01.08 02:00",
    "o": 117.255,
    "h": 117.316,
    "l": 117.189,
    "c": 117.211,
    "v": 2332
  },
  {
    "dt": "2021.01.08 03:00",
    "o": 117.212,
    "h": 117.266,
    "l": 117.186,
    "c": 117.196,
    "v": 3070
  },
  {
    "dt": "2021.01.08 04:00",
    "o": 117.197,
    "h": 117.269,
    "l": 117.157,
    "c": 117.23,
    "v": 2042
  },
  {
    "dt": "2021.01.08 05:00",
    "o": 117.229,
    "h": 117.266,
    "l": 117.195,
    "c": 117.252,
    "v": 2125
  },
  {
    "dt": "2021.01.08 06:00",
    "o": 117.257,
    "h": 117.283,
    "l": 117.189,
    "c": 117.281,
    "v": 1546
  },
  {
    "dt": "2021.01.08 07:00",
    "o": 117.282,
    "h": 117.345,
    "l": 117.252,
    "c": 117.306,
    "v": 1608
  },
  {
    "dt": "2021.01.08 08:00",
    "o": 117.307,
    "h": 117.35,
    "l": 117.279,
    "c": 117.35,
    "v": 1692
  },
  {
    "dt": "2021.01.08 09:00",
    "o": 117.338,
    "h": 117.377,
    "l": 117.204,
    "c": 117.261,
    "v": 3000
  },
  {
    "dt": "2021.01.08 10:00",
    "o": 117.259,
    "h": 117.259,
    "l": 117.042,
    "c": 117.166,
    "v": 4426
  },
  {
    "dt": "2021.01.08 11:00",
    "o": 117.167,
    "h": 117.194,
    "l": 117.044,
    "c": 117.171,
    "v": 3551
  },
  {
    "dt": "2021.01.08 12:00",
    "o": 117.176,
    "h": 117.286,
    "l": 117.134,
    "c": 117.254,
    "v": 2644
  },
  {
    "dt": "2021.01.08 13:00",
    "o": 117.253,
    "h": 117.443,
    "l": 117.215,
    "c": 117.435,
    "v": 2531
  },
  {
    "dt": "2021.01.08 14:00",
    "o": 117.434,
    "h": 117.509,
    "l": 117.369,
    "c": 117.477,
    "v": 2894
  },
  {
    "dt": "2021.01.08 15:00",
    "o": 117.476,
    "h": 117.578,
    "l": 117.355,
    "c": 117.386,
    "v": 4552
  },
  {
    "dt": "2021.01.08 16:00",
    "o": 117.389,
    "h": 117.489,
    "l": 117.376,
    "c": 117.414,
    "v": 4924
  },
  {
    "dt": "2021.01.08 17:00",
    "o": 117.415,
    "h": 117.541,
    "l": 117.324,
    "c": 117.518,
    "v": 4880
  },
  {
    "dt": "2021.01.08 18:00",
    "o": 117.518,
    "h": 117.562,
    "l": 117.435,
    "c": 117.46,
    "v": 4664
  },
  {
    "dt": "2021.01.08 19:00",
    "o": 117.461,
    "h": 117.499,
    "l": 117.333,
    "c": 117.358,
    "v": 3533
  },
  {
    "dt": "2021.01.08 20:00",
    "o": 117.355,
    "h": 117.37,
    "l": 117.159,
    "c": 117.165,
    "v": 3588
  },
  {
    "dt": "2021.01.08 21:00",
    "o": 117.162,
    "h": 117.279,
    "l": 117.159,
    "c": 117.219,
    "v": 2745
  },
  {
    "dt": "2021.01.08 22:00",
    "o": 117.219,
    "h": 117.409,
    "l": 117.219,
    "c": 117.408,
    "v": 2535
  },
  {
    "dt": "2021.01.08 23:00",
    "o": 117.407,
    "h": 117.457,
    "l": 117.297,
    "c": 117.391,
    "v": 1655
  },
  {
    "dt": "2021.01.11 00:00",
    "o": 117.201,
    "h": 117.381,
    "l": 117.175,
    "c": 117.239,
    "v": 240
  },
  {
    "dt": "2021.01.11 01:00",
    "o": 117.263,
    "h": 117.358,
    "l": 117.22,
    "c": 117.251,
    "v": 1949
  },
  {
    "dt": "2021.01.11 02:00",
    "o": 117.251,
    "h": 117.284,
    "l": 117.203,
    "c": 117.237,
    "v": 2079
  },
  {
    "dt": "2021.01.11 03:00",
    "o": 117.239,
    "h": 117.287,
    "l": 117.203,
    "c": 117.222,
    "v": 2203
  },
  {
    "dt": "2021.01.11 04:00",
    "o": 117.224,
    "h": 117.228,
    "l": 117.171,
    "c": 117.201,
    "v": 1674
  },
  {
    "dt": "2021.01.11 05:00",
    "o": 117.202,
    "h": 117.234,
    "l": 117.163,
    "c": 117.211,
    "v": 1340
  },
  {
    "dt": "2021.01.11 06:00",
    "o": 117.213,
    "h": 117.25,
    "l": 117.206,
    "c": 117.245,
    "v": 1376
  },
  {
    "dt": "2021.01.11 07:00",
    "o": 117.245,
    "h": 117.286,
    "l": 117.216,
    "c": 117.284,
    "v": 1578
  },
  {
    "dt": "2021.01.11 08:00",
    "o": 117.28,
    "h": 117.328,
    "l": 117.248,
    "c": 117.309,
    "v": 1806
  },
  {
    "dt": "2021.01.11 09:00",
    "o": 117.303,
    "h": 117.33,
    "l": 117.188,
    "c": 117.255,
    "v": 3098
  },
  {
    "dt": "2021.01.11 10:00",
    "o": 117.249,
    "h": 117.387,
    "l": 117.188,
    "c": 117.27,
    "v": 3714
  },
  {
    "dt": "2021.01.11 11:00",
    "o": 117.271,
    "h": 117.281,
    "l": 116.981,
    "c": 117.007,
    "v": 3383
  },
  {
    "dt": "2021.01.11 12:00",
    "o": 117.008,
    "h": 117.037,
    "l": 116.881,
    "c": 116.959,
    "v": 3112
  },
  {
    "dt": "2021.01.11 13:00",
    "o": 116.959,
    "h": 117.028,
    "l": 116.908,
    "c": 116.978,
    "v": 2798
  },
  {
    "dt": "2021.01.11 14:00",
    "o": 116.978,
    "h": 117.046,
    "l": 116.904,
    "c": 116.91,
    "v": 3314
  },
  {
    "dt": "2021.01.11 15:00",
    "o": 116.911,
    "h": 117.031,
    "l": 116.899,
    "c": 116.938,
    "v": 3853
  },
  {
    "dt": "2021.01.11 16:00",
    "o": 116.938,
    "h": 117.152,
    "l": 116.917,
    "c": 117.046,
    "v": 4708
  },
  {
    "dt": "2021.01.11 17:00",
    "o": 117.047,
    "h": 117.126,
    "l": 116.934,
    "c": 116.977,
    "v": 4341
  },
  {
    "dt": "2021.01.11 18:00",
    "o": 116.978,
    "h": 117.071,
    "l": 116.942,
    "c": 117.054,
    "v": 3766
  },
  {
    "dt": "2021.01.11 19:00",
    "o": 117.052,
    "h": 117.184,
    "l": 117.041,
    "c": 117.147,
    "v": 3031
  },
  {
    "dt": "2021.01.11 20:00",
    "o": 117.147,
    "h": 117.186,
    "l": 117.105,
    "c": 117.16,
    "v": 2231
  },
  {
    "dt": "2021.01.11 21:00",
    "o": 117.16,
    "h": 117.165,
    "l": 117.076,
    "c": 117.076,
    "v": 2113
  },
  {
    "dt": "2021.01.11 22:00",
    "o": 117.079,
    "h": 117.11,
    "l": 116.998,
    "c": 117.035,
    "v": 2390
  },
  {
    "dt": "2021.01.11 23:00",
    "o": 117.035,
    "h": 117.075,
    "l": 116.998,
    "c": 117.065,
    "v": 1329
  },
  {
    "dt": "2021.01.12 00:00",
    "o": 117.017,
    "h": 117.041,
    "l": 116.883,
    "c": 117.025,
    "v": 511
  },
  {
    "dt": "2021.01.12 01:00",
    "o": 117.031,
    "h": 117.068,
    "l": 117.012,
    "c": 117.039,
    "v": 1103
  },
  {
    "dt": "2021.01.12 02:00",
    "o": 117.038,
    "h": 117.084,
    "l": 116.954,
    "c": 117.068,
    "v": 1908
  },
  {
    "dt": "2021.01.12 03:00",
    "o": 117.07,
    "h": 117.11,
    "l": 116.959,
    "c": 117.002,
    "v": 2177
  },
  {
    "dt": "2021.01.12 04:00",
    "o": 117.008,
    "h": 117.063,
    "l": 116.983,
    "c": 117.052,
    "v": 1380
  },
  {
    "dt": "2021.01.12 05:00",
    "o": 117.051,
    "h": 117.052,
    "l": 117.001,
    "c": 117.011,
    "v": 986
  },
  {
    "dt": "2021.01.12 06:00",
    "o": 117.008,
    "h": 117.012,
    "l": 116.974,
    "c": 117.007,
    "v": 1134
  },
  {
    "dt": "2021.01.12 07:00",
    "o": 117.006,
    "h": 117.023,
    "l": 116.976,
    "c": 117.017,
    "v": 1532
  },
  {
    "dt": "2021.01.12 08:00",
    "o": 117.01,
    "h": 117.033,
    "l": 116.948,
    "c": 116.975,
    "v": 1816
  },
  {
    "dt": "2021.01.12 09:00",
    "o": 116.976,
    "h": 117.06,
    "l": 116.941,
    "c": 117.039,
    "v": 2975
  },
  {
    "dt": "2021.01.12 10:00",
    "o": 117.039,
    "h": 117.121,
    "l": 116.983,
    "c": 117.024,
    "v": 3310
  },
  {
    "dt": "2021.01.12 11:00",
    "o": 117.025,
    "h": 117.148,
    "l": 116.99,
    "c": 117.036,
    "v": 3601
  },
  {
    "dt": "2021.01.12 12:00",
    "o": 117.035,
    "h": 117.137,
    "l": 116.97,
    "c": 117.104,
    "v": 2874
  },
  {
    "dt": "2021.01.12 13:00",
    "o": 117.109,
    "h": 117.161,
    "l": 117.054,
    "c": 117.107,
    "v": 2474
  },
  {
    "dt": "2021.01.12 14:00",
    "o": 117.108,
    "h": 117.145,
    "l": 117.05,
    "c": 117.129,
    "v": 3048
  },
  {
    "dt": "2021.01.12 15:00",
    "o": 117.128,
    "h": 117.215,
    "l": 117.064,
    "c": 117.099,
    "v": 3446
  },
  {
    "dt": "2021.01.12 16:00",
    "o": 117.092,
    "h": 117.189,
    "l": 117.054,
    "c": 117.163,
    "v": 4020
  },
  {
    "dt": "2021.01.12 17:00",
    "o": 117.163,
    "h": 117.225,
    "l": 117.106,
    "c": 117.138,
    "v": 3788
  },
  {
    "dt": "2021.01.12 18:00",
    "o": 117.135,
    "h": 117.148,
    "l": 116.994,
    "c": 117.031,
    "v": 3136
  },
  {
    "dt": "2021.01.12 19:00",
    "o": 117.027,
    "h": 117.082,
    "l": 117.018,
    "c": 117.056,
    "v": 3096
  },
  {
    "dt": "2021.01.12 20:00",
    "o": 117.055,
    "h": 117.112,
    "l": 116.97,
    "c": 117.075,
    "v": 3058
  },
  {
    "dt": "2021.01.12 21:00",
    "o": 117.073,
    "h": 117.115,
    "l": 117.021,
    "c": 117.05,
    "v": 3033
  },
  {
    "dt": "2021.01.12 22:00",
    "o": 117.053,
    "h": 117.078,
    "l": 117.013,
    "c": 117.045,
    "v": 2489
  },
  {
    "dt": "2021.01.12 23:00",
    "o": 117.047,
    "h": 117.062,
    "l": 117.002,
    "c": 117.029,
    "v": 2122
  },
  {
    "dt": "2021.01.13 00:00",
    "o": 117.029,
    "h": 117.032,
    "l": 116.968,
    "c": 117.015,
    "v": 342
  },
  {
    "dt": "2021.01.13 01:00",
    "o": 117.014,
    "h": 117.093,
    "l": 117.007,
    "c": 117.066,
    "v": 1083
  },
  {
    "dt": "2021.01.13 02:00",
    "o": 117.065,
    "h": 117.075,
    "l": 116.929,
    "c": 116.953,
    "v": 1858
  },
  {
    "dt": "2021.01.13 03:00",
    "o": 116.952,
    "h": 116.956,
    "l": 116.852,
    "c": 116.893,
    "v": 1852
  },
  {
    "dt": "2021.01.13 04:00",
    "o": 116.891,
    "h": 116.95,
    "l": 116.874,
    "c": 116.932,
    "v": 1957
  },
  {
    "dt": "2021.01.13 05:00",
    "o": 116.936,
    "h": 116.964,
    "l": 116.917,
    "c": 116.936,
    "v": 1580
  },
  {
    "dt": "2021.01.13 06:00",
    "o": 116.936,
    "h": 116.962,
    "l": 116.915,
    "c": 116.952,
    "v": 1495
  },
  {
    "dt": "2021.01.13 07:00",
    "o": 116.955,
    "h": 117.011,
    "l": 116.952,
    "c": 116.999,
    "v": 1652
  },
  {
    "dt": "2021.01.13 08:00",
    "o": 116.998,
    "h": 117.074,
    "l": 116.994,
    "c": 117.042,
    "v": 1261
  },
  {
    "dt": "2021.01.13 09:00",
    "o": 117.042,
    "h": 117.076,
    "l": 116.927,
    "c": 116.937,
    "v": 2723
  },
  {
    "dt": "2021.01.13 10:00",
    "o": 116.935,
    "h": 117.014,
    "l": 116.915,
    "c": 117.001,
    "v": 3411
  },
  {
    "dt": "2021.01.13 11:00",
    "o": 117.0,
    "h": 117.029,
    "l": 116.903,
    "c": 117.016,
    "v": 3345
  },
  {
    "dt": "2021.01.13 12:00",
    "o": 117.017,
    "h": 117.058,
    "l": 116.983,
    "c": 116.99,
    "v": 3112
  },
  {
    "dt": "2021.01.13 13:00",
    "o": 116.988,
    "h": 117.085,
    "l": 116.951,
    "c": 116.971,
    "v": 2822
  },
  {
    "dt": "2021.01.13 14:00",
    "o": 116.973,
    "h": 116.98,
    "l": 116.896,
    "c": 116.925,
    "v": 3115
  },
  {
    "dt": "2021.01.13 15:00",
    "o": 116.924,
    "h": 116.985,
    "l": 116.868,
    "c": 116.911,
    "v": 3331
  },
  {
    "dt": "2021.01.13 16:00",
    "o": 116.914,
    "h": 117.058,
    "l": 116.914,
    "c": 117.028,
    "v": 3613
  },
  {
    "dt": "2021.01.13 17:00",
    "o": 117.032,
    "h": 117.205,
    "l": 117.004,
    "c": 117.061,
    "v": 3820
  },
  {
    "dt": "2021.01.13 18:00",
    "o": 117.059,
    "h": 117.109,
    "l": 117.029,
    "c": 117.063,
    "v": 3160
  },
  {
    "dt": "2021.01.13 19:00",
    "o": 117.063,
    "h": 117.09,
    "l": 116.991,
    "c": 117.074,
    "v": 2996
  },
  {
    "dt": "2021.01.13 20:00",
    "o": 117.073,
    "h": 117.104,
    "l": 117.026,
    "c": 117.033,
    "v": 2650
  },
  {
    "dt": "2021.01.13 21:00",
    "o": 117.034,
    "h": 117.046,
    "l": 116.965,
    "c": 116.977,
    "v": 2109
  },
  {
    "dt": "2021.01.13 22:00",
    "o": 116.975,
    "h": 117.025,
    "l": 116.967,
    "c": 116.997,
    "v": 1916
  },
  {
    "dt": "2021.01.13 23:00",
    "o": 117.006,
    "h": 117.039,
    "l": 116.979,
    "c": 117.017,
    "v": 1394
  },
  {
    "dt": "2021.01.14 00:00",
    "o": 116.916,
    "h": 117.023,
    "l": 116.87,
    "c": 116.968,
    "v": 366
  },
  {
    "dt": "2021.01.14 01:00",
    "o": 116.959,
    "h": 117.034,
    "l": 116.952,
    "c": 117.019,
    "v": 1279
  },
  {
    "dt": "2021.01.14 02:00",
    "o": 117.022,
    "h": 117.13,
    "l": 116.985,
    "c": 117.116,
    "v": 1811
  },
  {
    "dt": "2021.01.14 03:00",
    "o": 117.116,
    "h": 117.12,
    "l": 117.031,
    "c": 117.042,
    "v": 2553
  },
  {
    "dt": "2021.01.14 04:00",
    "o": 117.043,
    "h": 117.182,
    "l": 117.011,
    "c": 117.16,
    "v": 3372
  },
  {
    "dt": "2021.01.14 05:00",
    "o": 117.16,
    "h": 117.177,
    "l": 117.107,
    "c": 117.118,
    "v": 2253
  },
  {
    "dt": "2021.01.14 06:00",
    "o": 117.118,
    "h": 117.178,
    "l": 117.109,
    "c": 117.174,
    "v": 1605
  },
  {
    "dt": "2021.01.14 07:00",
    "o": 117.178,
    "h": 117.201,
    "l": 117.083,
    "c": 117.182,
    "v": 2520
  },
  {
    "dt": "2021.01.14 08:00",
    "o": 117.181,
    "h": 117.252,
    "l": 117.163,
    "c": 117.209,
    "v": 1568
  },
  {
    "dt": "2021.01.14 09:00",
    "o": 117.213,
    "h": 117.232,
    "l": 117.133,
    "c": 117.163,
    "v": 3033
  },
  {
    "dt": "2021.01.14 10:00",
    "o": 117.165,
    "h": 117.287,
    "l": 117.135,
    "c": 117.242,
    "v": 3567
  },
  {
    "dt": "2021.01.14 11:00",
    "o": 117.242,
    "h": 117.259,
    "l": 117.146,
    "c": 117.178,
    "v": 3084
  },
  {
    "dt": "2021.01.14 12:00",
    "o": 117.177,
    "h": 117.204,
    "l": 116.957,
    "c": 117.076,
    "v": 2867
  },
  {
    "dt": "2021.01.14 13:00",
    "o": 117.075,
    "h": 117.08,
    "l": 116.885,
    "c": 116.896,
    "v": 2684
  },
  {
    "dt": "2021.01.14 14:00",
    "o": 116.896,
    "h": 116.915,
    "l": 116.754,
    "c": 116.841,
    "v": 3035
  },
  {
    "dt": "2021.01.14 15:00",
    "o": 116.839,
    "h": 116.877,
    "l": 116.742,
    "c": 116.864,
    "v": 4081
  },
  {
    "dt": "2021.01.14 16:00",
    "o": 116.864,
    "h": 116.984,
    "l": 116.834,
    "c": 116.971,
    "v": 3672
  },
  {
    "dt": "2021.01.14 17:00",
    "o": 116.97,
    "h": 117.001,
    "l": 116.761,
    "c": 116.808,
    "v": 4020
  },
  {
    "dt": "2021.01.14 18:00",
    "o": 116.807,
    "h": 116.886,
    "l": 116.748,
    "c": 116.85,
    "v": 3612
  },
  {
    "dt": "2021.01.14 19:00",
    "o": 116.85,
    "h": 116.941,
    "l": 116.8,
    "c": 116.926,
    "v": 3149
  },
  {
    "dt": "2021.01.14 20:00",
    "o": 116.928,
    "h": 116.973,
    "l": 116.883,
    "c": 116.899,
    "v": 3478
  },
  {
    "dt": "2021.01.14 21:00",
    "o": 116.898,
    "h": 116.928,
    "l": 116.872,
    "c": 116.88,
    "v": 2414
  },
  {
    "dt": "2021.01.14 22:00",
    "o": 116.878,
    "h": 116.921,
    "l": 116.859,
    "c": 116.896,
    "v": 2267
  },
  {
    "dt": "2021.01.14 23:00",
    "o": 116.895,
    "h": 116.933,
    "l": 116.834,
    "c": 116.859,
    "v": 1861
  },
  {
    "dt": "2021.01.15 00:00",
    "o": 116.837,
    "h": 116.869,
    "l": 116.75,
    "c": 116.853,
    "v": 568
  },
  {
    "dt": "2021.01.15 01:00",
    "o": 116.867,
    "h": 116.899,
    "l": 116.845,
    "c": 116.873,
    "v": 1165
  },
  {
    "dt": "2021.01.15 02:00",
    "o": 116.868,
    "h": 116.897,
    "l": 116.808,
    "c": 116.854,
    "v": 2176
  },
  {
    "dt": "2021.01.15 03:00",
    "o": 116.852,
    "h": 116.866,
    "l": 116.765,
    "c": 116.784,
    "v": 1867
  },
  {
    "dt": "2021.01.15 04:00",
    "o": 116.785,
    "h": 116.824,
    "l": 116.766,
    "c": 116.822,
    "v": 1409
  },
  {
    "dt": "2021.01.15 05:00",
    "o": 116.823,
    "h": 116.868,
    "l": 116.775,
    "c": 116.781,
    "v": 1461
  },
  {
    "dt": "2021.01.15 06:00",
    "o": 116.778,
    "h": 116.807,
    "l": 116.749,
    "c": 116.755,
    "v": 1249
  },
  {
    "dt": "2021.01.15 07:00",
    "o": 116.755,
    "h": 116.795,
    "l": 116.685,
    "c": 116.729,
    "v": 1733
  },
  {
    "dt": "2021.01.15 08:00",
    "o": 116.728,
    "h": 116.762,
    "l": 116.674,
    "c": 116.761,
    "v": 2070
  },
  {
    "dt": "2021.01.15 09:00",
    "o": 116.766,
    "h": 116.798,
    "l": 116.687,
    "c": 116.75,
    "v": 2987
  },
  {
    "dt": "2021.01.15 10:00",
    "o": 116.749,
    "h": 116.84,
    "l": 116.574,
    "c": 116.821,
    "v": 3568
  },
  {
    "dt": "2021.01.15 11:00",
    "o": 116.821,
    "h": 116.887,
    "l": 116.71,
    "c": 116.806,
    "v": 2874
  },
  {
    "dt": "2021.01.15 12:00",
    "o": 116.802,
    "h": 116.86,
    "l": 116.764,
    "c": 116.803,
    "v": 2903
  },
  {
    "dt": "2021.01.15 13:00",
    "o": 116.798,
    "h": 116.856,
    "l": 116.746,
    "c": 116.778,
    "v": 2784
  },
  {
    "dt": "2021.01.15 14:00",
    "o": 116.779,
    "h": 116.832,
    "l": 116.726,
    "c": 116.744,
    "v": 3343
  },
  {
    "dt": "2021.01.15 15:00",
    "o": 116.741,
    "h": 116.858,
    "l": 116.675,
    "c": 116.811,
    "v": 3370
  },
  {
    "dt": "2021.01.15 16:00",
    "o": 116.813,
    "h": 116.843,
    "l": 116.753,
    "c": 116.782,
    "v": 4033
  },
  {
    "dt": "2021.01.15 17:00",
    "o": 116.781,
    "h": 116.825,
    "l": 116.632,
    "c": 116.692,
    "v": 4667
  },
  {
    "dt": "2021.01.15 18:00",
    "o": 116.69,
    "h": 116.714,
    "l": 116.603,
    "c": 116.678,
    "v": 3627
  },
  {
    "dt": "2021.01.15 19:00",
    "o": 116.679,
    "h": 116.679,
    "l": 116.602,
    "c": 116.629,
    "v": 2414
  },
  {
    "dt": "2021.01.15 20:00",
    "o": 116.628,
    "h": 116.63,
    "l": 116.549,
    "c": 116.554,
    "v": 2256
  },
  {
    "dt": "2021.01.15 21:00",
    "o": 116.555,
    "h": 116.559,
    "l": 116.526,
    "c": 116.545,
    "v": 1638
  },
  {
    "dt": "2021.01.15 22:00",
    "o": 116.545,
    "h": 116.56,
    "l": 116.517,
    "c": 116.532,
    "v": 1773
  },
  {
    "dt": "2021.01.15 23:00",
    "o": 116.533,
    "h": 116.563,
    "l": 116.505,
    "c": 116.523,
    "v": 1482
  },
  {
    "dt": "2021.01.18 00:00",
    "o": 116.588,
    "h": 116.588,
    "l": 116.485,
    "c": 116.523,
    "v": 211
  },
  {
    "dt": "2021.01.18 01:00",
    "o": 116.533,
    "h": 116.573,
    "l": 116.41,
    "c": 116.414,
    "v": 1683
  },
  {
    "dt": "2021.01.18 02:00",
    "o": 116.413,
    "h": 116.5,
    "l": 116.403,
    "c": 116.446,
    "v": 2334
  },
  {
    "dt": "2021.01.18 03:00",
    "o": 116.447,
    "h": 116.467,
    "l": 116.349,
    "c": 116.392,
    "v": 2100
  },
  {
    "dt": "2021.01.18 04:00",
    "o": 116.395,
    "h": 116.407,
    "l": 116.348,
    "c": 116.401,
    "v": 2064
  },
  {
    "dt": "2021.01.18 05:00",
    "o": 116.4,
    "h": 116.409,
    "l": 116.342,
    "c": 116.38,
    "v": 1742
  },
  {
    "dt": "2021.01.18 06:00",
    "o": 116.381,
    "h": 116.383,
    "l": 116.283,
    "c": 116.295,
    "v": 1381
  },
  {
    "dt": "2021.01.18 07:00",
    "o": 116.299,
    "h": 116.365,
    "l": 116.275,
    "c": 116.351,
    "v": 1713
  },
  {
    "dt": "2021.01.18 08:00",
    "o": 116.351,
    "h": 116.387,
    "l": 116.331,
    "c": 116.363,
    "v": 1408
  },
  {
    "dt": "2021.01.18 09:00",
    "o": 116.367,
    "h": 116.414,
    "l": 116.326,
    "c": 116.327,
    "v": 2764
  },
  {
    "dt": "2021.01.18 10:00",
    "o": 116.326,
    "h": 116.44,
    "l": 116.319,
    "c": 116.341,
    "v": 3342
  },
  {
    "dt": "2021.01.18 11:00",
    "o": 116.348,
    "h": 116.45,
    "l": 116.315,
    "c": 116.441,
    "v": 3281
  },
  {
    "dt": "2021.01.18 12:00",
    "o": 116.446,
    "h": 116.5,
    "l": 116.337,
    "c": 116.497,
    "v": 2680
  },
  {
    "dt": "2021.01.18 13:00",
    "o": 116.497,
    "h": 116.578,
    "l": 116.471,
    "c": 116.499,
    "v": 2958
  },
  {
    "dt": "2021.01.18 14:00",
    "o": 116.502,
    "h": 116.518,
    "l": 116.404,
    "c": 116.416,
    "v": 2423
  },
  {
    "dt": "2021.01.18 15:00",
    "o": 116.414,
    "h": 116.476,
    "l": 116.357,
    "c": 116.375,
    "v": 2562
  },
  {
    "dt": "2021.01.18 16:00",
    "o": 116.375,
    "h": 116.436,
    "l": 116.338,
    "c": 116.424,
    "v": 2757
  },
  {
    "dt": "2021.01.18 17:00",
    "o": 116.429,
    "h": 116.432,
    "l": 116.364,
    "c": 116.428,
    "v": 2628
  },
  {
    "dt": "2021.01.18 18:00",
    "o": 116.433,
    "h": 116.448,
    "l": 116.371,
    "c": 116.372,
    "v": 1872
  },
  {
    "dt": "2021.01.18 19:00",
    "o": 116.374,
    "h": 116.381,
    "l": 116.323,
    "c": 116.34,
    "v": 1375
  },
  {
    "dt": "2021.01.18 20:00",
    "o": 116.34,
    "h": 116.372,
    "l": 116.328,
    "c": 116.361,
    "v": 1572
  },
  {
    "dt": "2021.01.18 21:00",
    "o": 116.364,
    "h": 116.4,
    "l": 116.349,
    "c": 116.381,
    "v": 1824
  },
  {
    "dt": "2021.01.18 22:00",
    "o": 116.383,
    "h": 116.393,
    "l": 116.347,
    "c": 116.352,
    "v": 1114
  },
  {
    "dt": "2021.01.18 23:00",
    "o": 116.346,
    "h": 116.388,
    "l": 116.323,
    "c": 116.355,
    "v": 1991
  },
  {
    "dt": "2021.01.19 00:00",
    "o": 116.37,
    "h": 116.384,
    "l": 116.314,
    "c": 116.371,
    "v": 207
  },
  {
    "dt": "2021.01.19 01:00",
    "o": 116.354,
    "h": 116.394,
    "l": 116.34,
    "c": 116.385,
    "v": 696
  },
  {
    "dt": "2021.01.19 02:00",
    "o": 116.384,
    "h": 116.445,
    "l": 116.359,
    "c": 116.425,
    "v": 1759
  },
  {
    "dt": "2021.01.19 03:00",
    "o": 116.426,
    "h": 116.605,
    "l": 116.412,
    "c": 116.593,
    "v": 2588
  },
  {
    "dt": "2021.01.19 04:00",
    "o": 116.593,
    "h": 116.828,
    "l": 116.585,
    "c": 116.812,
    "v": 2463
  },
  {
    "dt": "2021.01.19 05:00",
    "o": 116.814,
    "h": 116.833,
    "l": 116.74,
    "c": 116.755,
    "v": 1967
  },
  {
    "dt": "2021.01.19 06:00",
    "o": 116.758,
    "h": 116.758,
    "l": 116.695,
    "c": 116.732,
    "v": 1115
  },
  {
    "dt": "2021.01.19 07:00",
    "o": 116.733,
    "h": 116.762,
    "l": 116.69,
    "c": 116.713,
    "v": 1398
  },
  {
    "dt": "2021.01.19 08:00",
    "o": 116.712,
    "h": 116.824,
    "l": 116.705,
    "c": 116.815,
    "v": 1432
  },
  {
    "dt": "2021.01.19 09:00",
    "o": 116.816,
    "h": 116.842,
    "l": 116.702,
    "c": 116.801,
    "v": 2807
  },
  {
    "dt": "2021.01.19 10:00",
    "o": 116.808,
    "h": 117.015,
    "l": 116.8,
    "c": 116.916,
    "v": 3542
  },
  {
    "dt": "2021.01.19 11:00",
    "o": 116.917,
    "h": 117.118,
    "l": 116.89,
    "c": 117.105,
    "v": 2970
  },
  {
    "dt": "2021.01.19 12:00",
    "o": 117.104,
    "h": 117.251,
    "l": 117.094,
    "c": 117.224,
    "v": 3037
  },
  {
    "dt": "2021.01.19 13:00",
    "o": 117.223,
    "h": 117.26,
    "l": 117.088,
    "c": 117.097,
    "v": 2543
  },
  {
    "dt": "2021.01.19 14:00",
    "o": 117.093,
    "h": 117.107,
    "l": 117.009,
    "c": 117.089,
    "v": 2820
  },
  {
    "dt": "2021.01.19 15:00",
    "o": 117.088,
    "h": 117.191,
    "l": 117.074,
    "c": 117.1,
    "v": 3399
  },
  {
    "dt": "2021.01.19 16:00",
    "o": 117.098,
    "h": 117.155,
    "l": 117.049,
    "c": 117.087,
    "v": 3659
  },
  {
    "dt": "2021.01.19 17:00",
    "o": 117.085,
    "h": 117.163,
    "l": 116.941,
    "c": 116.946,
    "v": 3884
  },
  {
    "dt": "2021.01.19 18:00",
    "o": 116.946,
    "h": 116.995,
    "l": 116.805,
    "c": 116.842,
    "v": 3349
  },
  {
    "dt": "2021.01.19 19:00",
    "o": 116.845,
    "h": 116.883,
    "l": 116.833,
    "c": 116.844,
    "v": 2437
  },
  {
    "dt": "2021.01.19 20:00",
    "o": 116.845,
    "h": 116.886,
    "l": 116.838,
    "c": 116.868,
    "v": 2219
  },
  {
    "dt": "2021.01.19 21:00",
    "o": 116.869,
    "h": 116.882,
    "l": 116.815,
    "c": 116.881,
    "v": 1911
  },
  {
    "dt": "2021.01.19 22:00",
    "o": 116.874,
    "h": 116.917,
    "l": 116.861,
    "c": 116.893,
    "v": 1928
  },
  {
    "dt": "2021.01.19 23:00",
    "o": 116.892,
    "h": 116.933,
    "l": 116.866,
    "c": 116.914,
    "v": 1196
  },
  {
    "dt": "2021.01.20 00:00",
    "o": 116.906,
    "h": 116.917,
    "l": 116.813,
    "c": 116.903,
    "v": 502
  },
  {
    "dt": "2021.01.20 01:00",
    "o": 116.903,
    "h": 116.987,
    "l": 116.886,
    "c": 116.978,
    "v": 1170
  },
  {
    "dt": "2021.01.20 02:00",
    "o": 116.977,
    "h": 117.03,
    "l": 116.898,
    "c": 117.0,
    "v": 2094
  },
  {
    "dt": "2021.01.20 03:00",
    "o": 117.0,
    "h": 117.0,
    "l": 116.905,
    "c": 116.915,
    "v": 1990
  },
  {
    "dt": "2021.01.20 04:00",
    "o": 116.914,
    "h": 116.92,
    "l": 116.845,
    "c": 116.875,
    "v": 1568
  },
  {
    "dt": "2021.01.20 05:00",
    "o": 116.875,
    "h": 116.907,
    "l": 116.869,
    "c": 116.894,
    "v": 1346
  },
  {
    "dt": "2021.01.20 06:00",
    "o": 116.893,
    "h": 116.899,
    "l": 116.834,
    "c": 116.848,
    "v": 954
  },
  {
    "dt": "2021.01.20 07:00",
    "o": 116.847,
    "h": 116.858,
    "l": 116.818,
    "c": 116.833,
    "v": 934
  },
  {
    "dt": "2021.01.20 08:00",
    "o": 116.834,
    "h": 116.907,
    "l": 116.789,
    "c": 116.813,
    "v": 1692
  },
  {
    "dt": "2021.01.20 09:00",
    "o": 116.818,
    "h": 116.953,
    "l": 116.812,
    "c": 116.893,
    "v": 2597
  },
  {
    "dt": "2021.01.20 10:00",
    "o": 116.892,
    "h": 117.011,
    "l": 116.81,
    "c": 116.842,
    "v": 3488
  },
  {
    "dt": "2021.01.20 11:00",
    "o": 116.843,
    "h": 116.857,
    "l": 116.702,
    "c": 116.785,
    "v": 3603
  },
  {
    "dt": "2021.01.20 12:00",
    "o": 116.785,
    "h": 116.787,
    "l": 116.654,
    "c": 116.717,
    "v": 3036
  },
  {
    "dt": "2021.01.20 13:00",
    "o": 116.719,
    "h": 116.749,
    "l": 116.627,
    "c": 116.674,
    "v": 2835
  },
  {
    "dt": "2021.01.20 14:00",
    "o": 116.674,
    "h": 116.698,
    "l": 116.512,
    "c": 116.571,
    "v": 2761
  },
  {
    "dt": "2021.01.20 15:00",
    "o": 116.571,
    "h": 116.63,
    "l": 116.504,
    "c": 116.535,
    "v": 3127
  },
  {
    "dt": "2021.01.20 16:00",
    "o": 116.534,
    "h": 116.545,
    "l": 116.305,
    "c": 116.34,
    "v": 3742
  },
  {
    "dt": "2021.01.20 17:00",
    "o": 116.345,
    "h": 116.444,
    "l": 116.223,
    "c": 116.3,
    "v": 4407
  },
  {
    "dt": "2021.01.20 18:00",
    "o": 116.302,
    "h": 116.417,
    "l": 116.226,
    "c": 116.371,
    "v": 3205
  },
  {
    "dt": "2021.01.20 19:00",
    "o": 116.37,
    "h": 116.441,
    "l": 116.321,
    "c": 116.363,
    "v": 2279
  },
  {
    "dt": "2021.01.20 20:00",
    "o": 116.363,
    "h": 116.42,
    "l": 116.355,
    "c": 116.399,
    "v": 1999
  },
  {
    "dt": "2021.01.20 21:00",
    "o": 116.399,
    "h": 116.4,
    "l": 116.342,
    "c": 116.345,
    "v": 1666
  },
  {
    "dt": "2021.01.20 22:00",
    "o": 116.345,
    "h": 116.378,
    "l": 116.307,
    "c": 116.377,
    "v": 1990
  },
  {
    "dt": "2021.01.20 23:00",
    "o": 116.374,
    "h": 116.381,
    "l": 116.341,
    "c": 116.359,
    "v": 1537
  },
  {
    "dt": "2021.01.21 00:00",
    "o": 116.31,
    "h": 116.398,
    "l": 116.289,
    "c": 116.386,
    "v": 832
  },
  {
    "dt": "2021.01.21 01:00",
    "o": 116.392,
    "h": 116.463,
    "l": 116.373,
    "c": 116.424,
    "v": 1054
  },
  {
    "dt": "2021.01.21 02:00",
    "o": 116.422,
    "h": 116.484,
    "l": 116.416,
    "c": 116.48,
    "v": 1630
  },
  {
    "dt": "2021.01.21 03:00",
    "o": 116.479,
    "h": 116.512,
    "l": 116.443,
    "c": 116.482,
    "v": 2447
  },
  {
    "dt": "2021.01.21 04:00",
    "o": 116.482,
    "h": 116.535,
    "l": 116.447,
    "c": 116.454,
    "v": 1822
  },
  {
    "dt": "2021.01.21 05:00",
    "o": 116.453,
    "h": 116.509,
    "l": 116.436,
    "c": 116.441,
    "v": 1267
  },
  {
    "dt": "2021.01.21 06:00",
    "o": 116.441,
    "h": 116.472,
    "l": 116.312,
    "c": 116.325,
    "v": 1300
  },
  {
    "dt": "2021.01.21 07:00",
    "o": 116.325,
    "h": 116.351,
    "l": 116.288,
    "c": 116.311,
    "v": 1489
  },
  {
    "dt": "2021.01.21 08:00",
    "o": 116.316,
    "h": 116.386,
    "l": 116.307,
    "c": 116.316,
    "v": 1423
  },
  {
    "dt": "2021.01.21 09:00",
    "o": 116.314,
    "h": 116.448,
    "l": 116.274,
    "c": 116.371,
    "v": 2565
  },
  {
    "dt": "2021.01.21 10:00",
    "o": 116.368,
    "h": 116.743,
    "l": 116.365,
    "c": 116.619,
    "v": 3605
  },
  {
    "dt": "2021.01.21 11:00",
    "o": 116.623,
    "h": 116.686,
    "l": 116.534,
    "c": 116.535,
    "v": 2936
  },
  {
    "dt": "2021.01.21 12:00",
    "o": 116.534,
    "h": 116.584,
    "l": 116.464,
    "c": 116.493,
    "v": 2647
  },
  {
    "dt": "2021.01.21 13:00",
    "o": 116.491,
    "h": 116.668,
    "l": 116.461,
    "c": 116.646,
    "v": 2475
  },
  {
    "dt": "2021.01.21 14:00",
    "o": 116.643,
    "h": 116.689,
    "l": 116.547,
    "c": 116.653,
    "v": 3150
  },
  {
    "dt": "2021.01.21 15:00",
    "o": 116.652,
    "h": 116.908,
    "l": 116.623,
    "c": 116.779,
    "v": 4330
  },
  {
    "dt": "2021.01.21 16:00",
    "o": 116.771,
    "h": 116.944,
    "l": 116.717,
    "c": 116.916,
    "v": 4401
  },
  {
    "dt": "2021.01.21 17:00",
    "o": 116.92,
    "h": 116.978,
    "l": 116.825,
    "c": 116.853,
    "v": 3902
  },
  {
    "dt": "2021.01.21 18:00",
    "o": 116.856,
    "h": 116.894,
    "l": 116.73,
    "c": 116.758,
    "v": 3135
  },
  {
    "dt": "2021.01.21 19:00",
    "o": 116.757,
    "h": 116.839,
    "l": 116.73,
    "c": 116.818,
    "v": 2447
  },
  {
    "dt": "2021.01.21 20:00",
    "o": 116.817,
    "h": 116.892,
    "l": 116.808,
    "c": 116.888,
    "v": 1884
  },
  {
    "dt": "2021.01.21 21:00",
    "o": 116.887,
    "h": 116.912,
    "l": 116.855,
    "c": 116.912,
    "v": 1910
  },
  {
    "dt": "2021.01.21 22:00",
    "o": 116.912,
    "h": 116.943,
    "l": 116.884,
    "c": 116.939,
    "v": 1973
  },
  {
    "dt": "2021.01.21 23:00",
    "o": 116.937,
    "h": 116.941,
    "l": 116.893,
    "c": 116.905,
    "v": 1371
  },
  {
    "dt": "2021.01.22 00:00",
    "o": 116.853,
    "h": 116.931,
    "l": 116.826,
    "c": 116.909,
    "v": 911
  },
  {
    "dt": "2021.01.22 01:00",
    "o": 116.897,
    "h": 116.936,
    "l": 116.886,
    "c": 116.894,
    "v": 1231
  },
  {
    "dt": "2021.01.22 02:00",
    "o": 116.894,
    "h": 116.998,
    "l": 116.893,
    "c": 116.952,
    "v": 1709
  },
  {
    "dt": "2021.01.22 03:00",
    "o": 116.953,
    "h": 117.007,
    "l": 116.935,
    "c": 117.004,
    "v": 1999
  },
  {
    "dt": "2021.01.22 04:00",
    "o": 117.007,
    "h": 117.024,
    "l": 116.967,
    "c": 116.976,
    "v": 1641
  },
  {
    "dt": "2021.01.22 05:00",
    "o": 116.976,
    "h": 117.013,
    "l": 116.958,
    "c": 116.99,
    "v": 1215
  },
  {
    "dt": "2021.01.22 06:00",
    "o": 116.991,
    "h": 117.045,
    "l": 116.988,
    "c": 117.039,
    "v": 1177
  },
  {
    "dt": "2021.01.22 07:00",
    "o": 117.04,
    "h": 117.042,
    "l": 117.007,
    "c": 117.029,
    "v": 1425
  },
  {
    "dt": "2021.01.22 08:00",
    "o": 117.025,
    "h": 117.072,
    "l": 117.008,
    "c": 117.043,
    "v": 1738
  },
  {
    "dt": "2021.01.22 09:00",
    "o": 117.044,
    "h": 117.083,
    "l": 117.013,
    "c": 117.067,
    "v": 2645
  },
  {
    "dt": "2021.01.22 10:00",
    "o": 117.067,
    "h": 117.186,
    "l": 116.949,
    "c": 117.158,
    "v": 3644
  },
  {
    "dt": "2021.01.22 11:00",
    "o": 117.158,
    "h": 117.262,
    "l": 117.045,
    "c": 117.136,
    "v": 3425
  },
  {
    "dt": "2021.01.22 12:00",
    "o": 117.133,
    "h": 117.234,
    "l": 117.124,
    "c": 117.152,
    "v": 2588
  },
  {
    "dt": "2021.01.22 13:00",
    "o": 117.152,
    "h": 117.222,
    "l": 117.129,
    "c": 117.162,
    "v": 2809
  },
  {
    "dt": "2021.01.22 14:00",
    "o": 117.163,
    "h": 117.199,
    "l": 117.065,
    "c": 117.12,
    "v": 2941
  },
  {
    "dt": "2021.01.22 15:00",
    "o": 117.121,
    "h": 117.262,
    "l": 117.096,
    "c": 117.206,
    "v": 3448
  },
  {
    "dt": "2021.01.22 16:00",
    "o": 117.205,
    "h": 117.269,
    "l": 117.133,
    "c": 117.261,
    "v": 3363
  },
  {
    "dt": "2021.01.22 17:00",
    "o": 117.26,
    "h": 117.295,
    "l": 117.174,
    "c": 117.211,
    "v": 3748
  },
  {
    "dt": "2021.01.22 18:00",
    "o": 117.209,
    "h": 117.25,
    "l": 117.177,
    "c": 117.186,
    "v": 2972
  },
  {
    "dt": "2021.01.22 19:00",
    "o": 117.187,
    "h": 117.216,
    "l": 117.156,
    "c": 117.165,
    "v": 2069
  },
  {
    "dt": "2021.01.22 20:00",
    "o": 117.166,
    "h": 117.207,
    "l": 117.16,
    "c": 117.192,
    "v": 1694
  },
  {
    "dt": "2021.01.22 21:00",
    "o": 117.192,
    "h": 117.217,
    "l": 117.157,
    "c": 117.158,
    "v": 1582
  },
  {
    "dt": "2021.01.22 22:00",
    "o": 117.159,
    "h": 117.251,
    "l": 117.156,
    "c": 117.246,
    "v": 1296
  },
  {
    "dt": "2021.01.22 23:00",
    "o": 117.247,
    "h": 117.26,
    "l": 117.184,
    "c": 117.214,
    "v": 1428
  },
  {
    "dt": "2021.01.25 00:00",
    "o": 117.102,
    "h": 117.24,
    "l": 117.102,
    "c": 117.134,
    "v": 319
  },
  {
    "dt": "2021.01.25 01:00",
    "o": 117.132,
    "h": 117.239,
    "l": 117.132,
    "c": 117.177,
    "v": 1351
  },
  {
    "dt": "2021.01.25 02:00",
    "o": 117.182,
    "h": 117.266,
    "l": 117.136,
    "c": 117.237,
    "v": 1645
  },
  {
    "dt": "2021.01.25 03:00",
    "o": 117.237,
    "h": 117.239,
    "l": 117.169,
    "c": 117.203,
    "v": 1784
  },
  {
    "dt": "2021.01.25 04:00",
    "o": 117.202,
    "h": 117.219,
    "l": 117.157,
    "c": 117.18,
    "v": 1387
  },
  {
    "dt": "2021.01.25 05:00",
    "o": 117.181,
    "h": 117.219,
    "l": 117.181,
    "c": 117.198,
    "v": 834
  },
  {
    "dt": "2021.01.25 06:00",
    "o": 117.199,
    "h": 117.224,
    "l": 117.167,
    "c": 117.2,
    "v": 871
  },
  {
    "dt": "2021.01.25 07:00",
    "o": 117.198,
    "h": 117.218,
    "l": 117.146,
    "c": 117.185,
    "v": 1137
  },
  {
    "dt": "2021.01.25 08:00",
    "o": 117.185,
    "h": 117.196,
    "l": 117.091,
    "c": 117.101,
    "v": 1477
  },
  {
    "dt": "2021.01.25 09:00",
    "o": 117.102,
    "h": 117.188,
    "l": 117.09,
    "c": 117.164,
    "v": 2750
  },
  {
    "dt": "2021.01.25 10:00",
    "o": 117.165,
    "h": 117.205,
    "l": 117.019,
    "c": 117.111,
    "v": 3247
  },
  {
    "dt": "2021.01.25 11:00",
    "o": 117.109,
    "h": 117.114,
    "l": 116.973,
    "c": 116.99,
    "v": 3621
  },
  {
    "dt": "2021.01.25 12:00",
    "o": 116.993,
    "h": 117.1,
    "l": 116.92,
    "c": 117.085,
    "v": 2969
  },
  {
    "dt": "2021.01.25 13:00",
    "o": 117.089,
    "h": 117.163,
    "l": 117.056,
    "c": 117.121,
    "v": 2581
  },
  {
    "dt": "2021.01.25 14:00",
    "o": 117.115,
    "h": 117.142,
    "l": 117.015,
    "c": 117.029,
    "v": 2593
  },
  {
    "dt": "2021.01.25 15:00",
    "o": 117.026,
    "h": 117.032,
    "l": 116.917,
    "c": 116.96,
    "v": 3058
  },
  {
    "dt": "2021.01.25 16:00",
    "o": 116.963,
    "h": 116.996,
    "l": 116.883,
    "c": 116.887,
    "v": 3592
  },
  {
    "dt": "2021.01.25 17:00",
    "o": 116.884,
    "h": 116.932,
    "l": 116.733,
    "c": 116.763,
    "v": 4102
  },
  {
    "dt": "2021.01.25 18:00",
    "o": 116.761,
    "h": 116.827,
    "l": 116.727,
    "c": 116.816,
    "v": 3222
  },
  {
    "dt": "2021.01.25 19:00",
    "o": 116.817,
    "h": 116.873,
    "l": 116.812,
    "c": 116.862,
    "v": 2344
  },
  {
    "dt": "2021.01.25 20:00",
    "o": 116.862,
    "h": 116.87,
    "l": 116.821,
    "c": 116.843,
    "v": 1938
  },
  {
    "dt": "2021.01.25 21:00",
    "o": 116.843,
    "h": 116.863,
    "l": 116.803,
    "c": 116.863,
    "v": 1784
  },
  {
    "dt": "2021.01.25 22:00",
    "o": 116.862,
    "h": 116.862,
    "l": 116.803,
    "c": 116.829,
    "v": 1744
  },
  {
    "dt": "2021.01.25 23:00",
    "o": 116.829,
    "h": 116.853,
    "l": 116.799,
    "c": 116.813,
    "v": 1523
  },
  {
    "dt": "2021.01.26 00:00",
    "o": 116.689,
    "h": 116.836,
    "l": 116.689,
    "c": 116.834,
    "v": 1200
  },
  {
    "dt": "2021.01.26 01:00",
    "o": 116.84,
    "h": 116.845,
    "l": 116.806,
    "c": 116.825,
    "v": 681
  },
  {
    "dt": "2021.01.26 02:00",
    "o": 116.825,
    "h": 116.842,
    "l": 116.744,
    "c": 116.752,
    "v": 1263
  },
  {
    "dt": "2021.01.26 03:00",
    "o": 116.751,
    "h": 116.798,
    "l": 116.735,
    "c": 116.785,
    "v": 1612
  },
  {
    "dt": "2021.01.26 04:00",
    "o": 116.783,
    "h": 116.801,
    "l": 116.735,
    "c": 116.736,
    "v": 1269
  },
  {
    "dt": "2021.01.26 05:00",
    "o": 116.736,
    "h": 116.78,
    "l": 116.728,
    "c": 116.749,
    "v": 982
  },
  {
    "dt": "2021.01.26 06:00",
    "o": 116.753,
    "h": 116.753,
    "l": 116.696,
    "c": 116.716,
    "v": 1208
  },
  {
    "dt": "2021.01.26 07:00",
    "o": 116.716,
    "h": 116.72,
    "l": 116.674,
    "c": 116.704,
    "v": 1116
  },
  {
    "dt": "2021.01.26 08:00",
    "o": 116.704,
    "h": 116.705,
    "l": 116.638,
    "c": 116.668,
    "v": 1651
  },
  {
    "dt": "2021.01.26 09:00",
    "o": 116.669,
    "h": 116.728,
    "l": 116.651,
    "c": 116.707,
    "v": 2999
  },
  {
    "dt": "2021.01.26 10:00",
    "o": 116.704,
    "h": 116.806,
    "l": 116.679,
    "c": 116.791,
    "v": 3553
  },
  {
    "dt": "2021.01.26 11:00",
    "o": 116.792,
    "h": 116.797,
    "l": 116.684,
    "c": 116.71,
    "v": 3039
  },
  {
    "dt": "2021.01.26 12:00",
    "o": 116.715,
    "h": 116.768,
    "l": 116.684,
    "c": 116.694,
    "v": 2702
  },
  {
    "dt": "2021.01.26 13:00",
    "o": 116.695,
    "h": 116.81,
    "l": 116.687,
    "c": 116.765,
    "v": 2722
  },
  {
    "dt": "2021.01.26 14:00",
    "o": 116.771,
    "h": 116.806,
    "l": 116.716,
    "c": 116.754,
    "v": 3020
  },
  {
    "dt": "2021.01.26 15:00",
    "o": 116.756,
    "h": 116.777,
    "l": 116.661,
    "c": 116.74,
    "v": 3295
  },
  {
    "dt": "2021.01.26 16:00",
    "o": 116.739,
    "h": 116.804,
    "l": 116.656,
    "c": 116.71,
    "v": 3494
  },
  {
    "dt": "2021.01.26 17:00",
    "o": 116.71,
    "h": 116.825,
    "l": 116.684,
    "c": 116.807,
    "v": 3684
  },
  {
    "dt": "2021.01.26 18:00",
    "o": 116.806,
    "h": 116.844,
    "l": 116.696,
    "c": 116.741,
    "v": 3083
  },
  {
    "dt": "2021.01.26 19:00",
    "o": 116.741,
    "h": 116.852,
    "l": 116.74,
    "c": 116.848,
    "v": 2500
  },
  {
    "dt": "2021.01.26 20:00",
    "o": 116.849,
    "h": 116.892,
    "l": 116.843,
    "c": 116.865,
    "v": 1681
  },
  {
    "dt": "2021.01.26 21:00",
    "o": 116.865,
    "h": 116.939,
    "l": 116.843,
    "c": 116.893,
    "v": 1290
  },
  {
    "dt": "2021.01.26 22:00",
    "o": 116.893,
    "h": 116.91,
    "l": 116.873,
    "c": 116.886,
    "v": 1314
  },
  {
    "dt": "2021.01.26 23:00",
    "o": 116.886,
    "h": 116.907,
    "l": 116.814,
    "c": 116.836,
    "v": 1946
  },
  {
    "dt": "2021.01.27 00:00",
    "o": 116.79,
    "h": 116.841,
    "l": 116.766,
    "c": 116.819,
    "v": 520
  },
  {
    "dt": "2021.01.27 01:00",
    "o": 116.822,
    "h": 116.868,
    "l": 116.819,
    "c": 116.832,
    "v": 787
  },
  {
    "dt": "2021.01.27 02:00",
    "o": 116.828,
    "h": 116.912,
    "l": 116.822,
    "c": 116.895,
    "v": 1392
  },
  {
    "dt": "2021.01.27 03:00",
    "o": 116.896,
    "h": 116.955,
    "l": 116.892,
    "c": 116.941,
    "v": 1656
  },
  {
    "dt": "2021.01.27 04:00",
    "o": 116.941,
    "h": 116.958,
    "l": 116.907,
    "c": 116.953,
    "v": 1539
  },
  {
    "dt": "2021.01.27 05:00",
    "o": 116.954,
    "h": 116.989,
    "l": 116.938,
    "c": 116.955,
    "v": 1457
  },
  {
    "dt": "2021.01.27 06:00",
    "o": 116.954,
    "h": 116.965,
    "l": 116.912,
    "c": 116.946,
    "v": 935
  },
  {
    "dt": "2021.01.27 07:00",
    "o": 116.946,
    "h": 116.975,
    "l": 116.931,
    "c": 116.965,
    "v": 1049
  },
  {
    "dt": "2021.01.27 08:00",
    "o": 116.97,
    "h": 116.971,
    "l": 116.898,
    "c": 116.932,
    "v": 1377
  },
  {
    "dt": "2021.01.27 09:00",
    "o": 116.932,
    "h": 116.956,
    "l": 116.899,
    "c": 116.923,
    "v": 2105
  },
  {
    "dt": "2021.01.27 10:00",
    "o": 116.923,
    "h": 116.961,
    "l": 116.878,
    "c": 116.917,
    "v": 3490
  },
  {
    "dt": "2021.01.27 11:00",
    "o": 116.917,
    "h": 116.936,
    "l": 116.75,
    "c": 116.809,
    "v": 3616
  },
  {
    "dt": "2021.01.27 12:00",
    "o": 116.81,
    "h": 116.926,
    "l": 116.782,
    "c": 116.869,
    "v": 2526
  },
  {
    "dt": "2021.01.27 13:00",
    "o": 116.869,
    "h": 116.928,
    "l": 116.848,
    "c": 116.863,
    "v": 3231
  },
  {
    "dt": "2021.01.27 14:00",
    "o": 116.864,
    "h": 116.901,
    "l": 116.81,
    "c": 116.819,
    "v": 3633
  },
  {
    "dt": "2021.01.27 15:00",
    "o": 116.818,
    "h": 117.013,
    "l": 116.806,
    "c": 116.995,
    "v": 3812
  },
  {
    "dt": "2021.01.27 16:00",
    "o": 116.994,
    "h": 117.005,
    "l": 116.799,
    "c": 116.821,
    "v": 4692
  },
  {
    "dt": "2021.01.27 17:00",
    "o": 116.826,
    "h": 117.068,
    "l": 116.812,
    "c": 117.016,
    "v": 4818
  },
  {
    "dt": "2021.01.27 18:00",
    "o": 117.019,
    "h": 117.102,
    "l": 116.997,
    "c": 117.084,
    "v": 3598
  },
  {
    "dt": "2021.01.27 19:00",
    "o": 117.082,
    "h": 117.192,
    "l": 117.055,
    "c": 117.177,
    "v": 3234
  },
  {
    "dt": "2021.01.27 20:00",
    "o": 117.176,
    "h": 117.208,
    "l": 117.116,
    "c": 117.208,
    "v": 2532
  },
  {
    "dt": "2021.01.27 21:00",
    "o": 117.207,
    "h": 117.226,
    "l": 117.092,
    "c": 117.099,
    "v": 4119
  },
  {
    "dt": "2021.01.27 22:00",
    "o": 117.1,
    "h": 117.204,
    "l": 117.099,
    "c": 117.195,
    "v": 3775
  },
  {
    "dt": "2021.01.27 23:00",
    "o": 117.194,
    "h": 117.224,
    "l": 117.107,
    "c": 117.15,
    "v": 2376
  },
  {
    "dt": "2021.01.28 00:00",
    "o": 117.067,
    "h": 117.145,
    "l": 117.01,
    "c": 117.086,
    "v": 920
  },
  {
    "dt": "2021.01.28 01:00",
    "o": 117.078,
    "h": 117.112,
    "l": 117.059,
    "c": 117.093,
    "v": 1468
  },
  {
    "dt": "2021.01.28 02:00",
    "o": 117.094,
    "h": 117.21,
    "l": 117.09,
    "c": 117.154,
    "v": 2689
  },
  {
    "dt": "2021.01.28 03:00",
    "o": 117.156,
    "h": 117.27,
    "l": 117.137,
    "c": 117.238,
    "v": 2410
  },
  {
    "dt": "2021.01.28 04:00",
    "o": 117.24,
    "h": 117.29,
    "l": 117.232,
    "c": 117.266,
    "v": 1878
  },
  {
    "dt": "2021.01.28 05:00",
    "o": 117.265,
    "h": 117.325,
    "l": 117.227,
    "c": 117.316,
    "v": 1740
  },
  {
    "dt": "2021.01.28 06:00",
    "o": 117.317,
    "h": 117.326,
    "l": 117.221,
    "c": 117.254,
    "v": 1697
  },
  {
    "dt": "2021.01.28 07:00",
    "o": 117.255,
    "h": 117.282,
    "l": 117.206,
    "c": 117.278,
    "v": 1553
  },
  {
    "dt": "2021.01.28 08:00",
    "o": 117.278,
    "h": 117.313,
    "l": 117.23,
    "c": 117.303,
    "v": 1776
  },
  {
    "dt": "2021.01.28 09:00",
    "o": 117.301,
    "h": 117.305,
    "l": 117.193,
    "c": 117.219,
    "v": 3345
  },
  {
    "dt": "2021.01.28 10:00",
    "o": 117.224,
    "h": 117.342,
    "l": 117.124,
    "c": 117.134,
    "v": 4091
  },
  {
    "dt": "2021.01.28 11:00",
    "o": 117.137,
    "h": 117.298,
    "l": 117.118,
    "c": 117.219,
    "v": 3787
  },
  {
    "dt": "2021.01.28 12:00",
    "o": 117.22,
    "h": 117.242,
    "l": 117.133,
    "c": 117.162,
    "v": 3398
  },
  {
    "dt": "2021.01.28 13:00",
    "o": 117.16,
    "h": 117.194,
    "l": 117.065,
    "c": 117.13,
    "v": 3091
  },
  {
    "dt": "2021.01.28 14:00",
    "o": 117.129,
    "h": 117.195,
    "l": 117.081,
    "c": 117.117,
    "v": 2977
  },
  {
    "dt": "2021.01.28 15:00",
    "o": 117.119,
    "h": 117.288,
    "l": 117.029,
    "c": 117.28,
    "v": 4088
  },
  {
    "dt": "2021.01.28 16:00",
    "o": 117.283,
    "h": 117.5,
    "l": 117.283,
    "c": 117.477,
    "v": 4562
  },
  {
    "dt": "2021.01.28 17:00",
    "o": 117.476,
    "h": 117.56,
    "l": 117.376,
    "c": 117.388,
    "v": 4154
  },
  {
    "dt": "2021.01.28 18:00",
    "o": 117.387,
    "h": 117.438,
    "l": 117.347,
    "c": 117.367,
    "v": 3332
  },
  {
    "dt": "2021.01.28 19:00",
    "o": 117.367,
    "h": 117.425,
    "l": 117.328,
    "c": 117.379,
    "v": 2928
  },
  {
    "dt": "2021.01.28 20:00",
    "o": 117.38,
    "h": 117.426,
    "l": 117.359,
    "c": 117.404,
    "v": 2415
  },
  {
    "dt": "2021.01.28 21:00",
    "o": 117.404,
    "h": 117.436,
    "l": 117.367,
    "c": 117.406,
    "v": 2202
  },
  {
    "dt": "2021.01.28 22:00",
    "o": 117.401,
    "h": 117.431,
    "l": 117.34,
    "c": 117.347,
    "v": 2421
  },
  {
    "dt": "2021.01.28 23:00",
    "o": 117.344,
    "h": 117.359,
    "l": 117.296,
    "c": 117.321,
    "v": 1705
  },
  {
    "dt": "2021.01.29 00:00",
    "o": 117.234,
    "h": 117.315,
    "l": 117.217,
    "c": 117.274,
    "v": 1508
  },
  {
    "dt": "2021.01.29 01:00",
    "o": 117.275,
    "h": 117.373,
    "l": 117.268,
    "c": 117.363,
    "v": 845
  },
  {
    "dt": "2021.01.29 02:00",
    "o": 117.365,
    "h": 117.506,
    "l": 117.358,
    "c": 117.432,
    "v": 2354
  },
  {
    "dt": "2021.01.29 03:00",
    "o": 117.433,
    "h": 117.562,
    "l": 117.433,
    "c": 117.477,
    "v": 2233
  },
  {
    "dt": "2021.01.29 04:00",
    "o": 117.478,
    "h": 117.486,
    "l": 117.425,
    "c": 117.453,
    "v": 1682
  },
  {
    "dt": "2021.01.29 05:00",
    "o": 117.454,
    "h": 117.471,
    "l": 117.384,
    "c": 117.391,
    "v": 1388
  },
  {
    "dt": "2021.01.29 06:00",
    "o": 117.39,
    "h": 117.454,
    "l": 117.373,
    "c": 117.444,
    "v": 1604
  },
  {
    "dt": "2021.01.29 07:00",
    "o": 117.442,
    "h": 117.486,
    "l": 117.424,
    "c": 117.445,
    "v": 1575
  },
  {
    "dt": "2021.01.29 08:00",
    "o": 117.448,
    "h": 117.54,
    "l": 117.432,
    "c": 117.532,
    "v": 1747
  },
  {
    "dt": "2021.01.29 09:00",
    "o": 117.532,
    "h": 117.605,
    "l": 117.459,
    "c": 117.538,
    "v": 3167
  },
  {
    "dt": "2021.01.29 10:00",
    "o": 117.545,
    "h": 117.77,
    "l": 117.505,
    "c": 117.712,
    "v": 4039
  },
  {
    "dt": "2021.01.29 11:00",
    "o": 117.712,
    "h": 117.948,
    "l": 117.643,
    "c": 117.9,
    "v": 4130
  },
  {
    "dt": "2021.01.29 12:00",
    "o": 117.896,
    "h": 117.946,
    "l": 117.799,
    "c": 117.861,
    "v": 3673
  },
  {
    "dt": "2021.01.29 13:00",
    "o": 117.861,
    "h": 117.898,
    "l": 117.797,
    "c": 117.814,
    "v": 2846
  },
  {
    "dt": "2021.01.29 14:00",
    "o": 117.812,
    "h": 117.894,
    "l": 117.713,
    "c": 117.715,
    "v": 3658
  },
  {
    "dt": "2021.01.29 15:00",
    "o": 117.715,
    "h": 117.905,
    "l": 117.64,
    "c": 117.862,
    "v": 4659
  },
  {
    "dt": "2021.01.29 16:00",
    "o": 117.859,
    "h": 117.998,
    "l": 117.859,
    "c": 117.879,
    "v": 4380
  },
  {
    "dt": "2021.01.29 17:00",
    "o": 117.869,
    "h": 117.909,
    "l": 117.645,
    "c": 117.69,
    "v": 4337
  },
  {
    "dt": "2021.01.29 18:00",
    "o": 117.69,
    "h": 117.714,
    "l": 117.473,
    "c": 117.492,
    "v": 3945
  },
  {
    "dt": "2021.01.29 19:00",
    "o": 117.492,
    "h": 117.619,
    "l": 117.484,
    "c": 117.561,
    "v": 2953
  },
  {
    "dt": "2021.01.29 20:00",
    "o": 117.558,
    "h": 117.604,
    "l": 117.516,
    "c": 117.581,
    "v": 2771
  },
  {
    "dt": "2021.01.29 21:00",
    "o": 117.581,
    "h": 117.615,
    "l": 117.548,
    "c": 117.578,
    "v": 2640
  },
  {
    "dt": "2021.01.29 22:00",
    "o": 117.577,
    "h": 117.628,
    "l": 117.568,
    "c": 117.58,
    "v": 2289
  },
  {
    "dt": "2021.01.29 23:00",
    "o": 117.578,
    "h": 117.61,
    "l": 117.505,
    "c": 117.538,
    "v": 1826
  }
]