[
  {
    "dt": "2021.02.01 00:00",
    "o": 117.647,
    "h": 117.647,
    "l": 117.61,
    "c": 117.625,
    "v": 256
  },
  {
    "dt": "2021.02.01 01:00",
    "o": 117.581,
    "h": 117.641,
    "l": 117.41,
    "c": 117.449,
    "v": 2151
  },
  {
    "dt": "2021.02.01 02:00",
    "o": 117.442,
    "h": 117.49,
    "l": 117.399,
    "c": 117.489,
    "v": 2125
  },
  {
    "dt": "2021.02.01 03:00",
    "o": 117.49,
    "h": 117.505,
    "l": 117.404,
    "c": 117.462,
    "v": 2127
  },
  {
    "dt": "2021.02.01 04:00",
    "o": 117.46,
    "h": 117.463,
    "l": 117.396,
    "c": 117.407,
    "v": 1394
  },
  {
    "dt": "2021.02.01 05:00",
    "o": 117.406,
    "h": 117.415,
    "l": 117.348,
    "c": 117.384,
    "v": 1290
  },
  {
    "dt": "2021.02.01 06:00",
    "o": 117.383,
    "h": 117.412,
    "l": 117.355,
    "c": 117.382,
    "v": 1090
  },
  {
    "dt": "2021.02.01 07:00",
    "o": 117.381,
    "h": 117.397,
    "l": 117.322,
    "c": 117.348,
    "v": 1418
  },
  {
    "dt": "2021.02.01 08:00",
    "o": 117.347,
    "h": 117.413,
    "l": 117.346,
    "c": 117.385,
    "v": 1452
  },
  {
    "dt": "2021.02.01 09:00",
    "o": 117.386,
    "h": 117.446,
    "l": 117.322,
    "c": 117.427,
    "v": 2783
  },
  {
    "dt": "2021.02.01 10:00",
    "o": 117.425,
    "h": 117.434,
    "l": 117.141,
    "c": 117.142,
    "v": 3974
  },
  {
    "dt": "2021.02.01 11:00",
    "o": 117.146,
    "h": 117.279,
    "l": 117.068,
    "c": 117.188,
    "v": 3727
  },
  {
    "dt": "2021.02.01 12:00",
    "o": 117.189,
    "h": 117.213,
    "l": 117.048,
    "c": 117.106,
    "v": 3181
  },
  {
    "dt": "2021.02.01 13:00",
    "o": 117.106,
    "h": 117.192,
    "l": 117.061,
    "c": 117.15,
    "v": 2910
  },
  {
    "dt": "2021.02.01 14:00",
    "o": 117.147,
    "h": 117.234,
    "l": 117.142,
    "c": 117.181,
    "v": 2989
  },
  {
    "dt": "2021.02.01 15:00",
    "o": 117.182,
    "h": 117.231,
    "l": 117.106,
    "c": 117.132,
    "v": 3394
  },
  {
    "dt": "2021.02.01 16:00",
    "o": 117.135,
    "h": 117.289,
    "l": 117.124,
    "c": 117.246,
    "v": 3783
  },
  {
    "dt": "2021.02.01 17:00",
    "o": 117.243,
    "h": 117.358,
    "l": 117.15,
    "c": 117.18,
    "v": 4024
  },
  {
    "dt": "2021.02.01 18:00",
    "o": 117.179,
    "h": 117.215,
    "l": 117.066,
    "c": 117.074,
    "v": 3290
  },
  {
    "dt": "2021.02.01 19:00",
    "o": 117.075,
    "h": 117.113,
    "l": 117.046,
    "c": 117.11,
    "v": 2349
  },
  {
    "dt": "2021.02.01 20:00",
    "o": 117.11,
    "h": 117.121,
    "l": 116.993,
    "c": 117.013,
    "v": 2478
  },
  {
    "dt": "2021.02.01 21:00",
    "o": 117.012,
    "h": 117.053,
    "l": 116.981,
    "c": 117.006,
    "v": 1913
  },
  {
    "dt": "2021.02.01 22:00",
    "o": 117.0,
    "h": 117.018,
    "l": 116.955,
    "c": 116.955,
    "v": 2436
  },
  {
    "dt": "2021.02.01 23:00",
    "o": 116.956,
    "h": 117.007,
    "l": 116.953,
    "c": 116.961,
    "v": 1420
  },
  {
    "dt": "2021.02.02 00:00",
    "o": 116.938,
    "h": 117.001,
    "l": 116.86,
    "c": 116.95,
    "v": 890
  },
  {
    "dt": "2021.02.02 01:00",
    "o": 116.95,
    "h": 117.008,
    "l": 116.949,
    "c": 116.969,
    "v": 1332
  },
  {
    "dt": "2021.02.02 02:00",
    "o": 116.966,
    "h": 116.989,
    "l": 116.921,
    "c": 116.957,
    "v": 1728
  },
  {
    "dt": "2021.02.02 03:00",
    "o": 116.955,
    "h": 117.061,
    "l": 116.929,
    "c": 117.052,
    "v": 1789
  },
  {
    "dt": "2021.02.02 04:00",
    "o": 117.05,
    "h": 117.108,
    "l": 117.025,
    "c": 117.066,
    "v": 1409
  },
  {
    "dt": "2021.02.02 05:00",
    "o": 117.067,
    "h": 117.101,
    "l": 117.041,
    "c": 117.095,
    "v": 1633
  },
  {
    "dt": "2021.02.02 06:00",
    "o": 117.093,
    "h": 117.114,
    "l": 117.049,
    "c": 117.062,
    "v": 1248
  },
  {
    "dt": "2021.02.02 07:00",
    "o": 117.062,
    "h": 117.109,
    "l": 117.047,
    "c": 117.083,
    "v": 1624
  },
  {
    "dt": "2021.02.02 08:00",
    "o": 117.082,
    "h": 117.092,
    "l": 117.007,
    "c": 117.062,
    "v": 1528
  },
  {
    "dt": "2021.02.02 09:00",
    "o": 117.061,
    "h": 117.064,
    "l": 116.945,
    "c": 116.979,
    "v": 2757
  },
  {
    "dt": "2021.02.02 10:00",
    "o": 116.98,
    "h": 117.228,
    "l": 116.921,
    "c": 117.167,
    "v": 3910
  },
  {
    "dt": "2021.02.02 11:00",
    "o": 117.16,
    "h": 117.199,
    "l": 117.028,
    "c": 117.063,
    "v": 3019
  },
  {
    "dt": "2021.02.02 12:00",
    "o": 117.07,
    "h": 117.089,
    "l": 116.862,
    "c": 116.92,
    "v": 3537
  },
  {
    "dt": "2021.02.02 13:00",
    "o": 116.921,
    "h": 116.996,
    "l": 116.855,
    "c": 116.906,
    "v": 2935
  },
  {
    "dt": "2021.02.02 14:00",
    "o": 116.903,
    "h": 117.078,
    "l": 116.89,
    "c": 117.069,
    "v": 2865
  },
  {
    "dt": "2021.02.02 15:00",
    "o": 117.068,
    "h": 117.102,
    "l": 116.922,
    "c": 116.999,
    "v": 3440
  },
  {
    "dt": "2021.02.02 16:00",
    "o": 116.996,
    "h": 117.007,
    "l": 116.897,
    "c": 116.907,
    "v": 3996
  },
  {
    "dt": "2021.02.02 17:00",
    "o": 116.911,
    "h": 117.0,
    "l": 116.882,
    "c": 116.923,
    "v": 4208
  },
  {
    "dt": "2021.02.02 18:00",
    "o": 116.922,
    "h": 116.945,
    "l": 116.881,
    "c": 116.913,
    "v": 3302
  },
  {
    "dt": "2021.02.02 19:00",
    "o": 116.912,
    "h": 116.956,
    "l": 116.853,
    "c": 116.918,
    "v": 3120
  },
  {
    "dt": "2021.02.02 20:00",
    "o": 116.919,
    "h": 116.951,
    "l": 116.886,
    "c": 116.903,
    "v": 2411
  },
  {
    "dt": "2021.02.02 21:00",
    "o": 116.902,
    "h": 116.937,
    "l": 116.886,
    "c": 116.917,
    "v": 1875
  },
  {
    "dt": "2021.02.02 22:00",
    "o": 116.918,
    "h": 116.977,
    "l": 116.886,
    "c": 116.955,
    "v": 2168
  },
  {
    "dt": "2021.02.02 23:00",
    "o": 116.955,
    "h": 117.001,
    "l": 116.935,
    "c": 116.95,
    "v": 1731
  },
  {
    "dt": "2021.02.03 00:00",
    "o": 116.967,
    "h": 116.967,
    "l": 116.836,
    "c": 116.939,
    "v": 683
  },
  {
    "dt": "2021.02.03 01:00",
    "o": 116.948,
    "h": 117.006,
    "l": 116.938,
    "c": 116.951,
    "v": 1341
  },
  {
    "dt": "2021.02.03 02:00",
    "o": 116.952,
    "h": 117.004,
    "l": 116.924,
    "c": 116.933,
    "v": 1752
  },
  {
    "dt": "2021.02.03 03:00",
    "o": 116.934,
    "h": 116.974,
    "l": 116.91,
    "c": 116.96,
    "v": 1716
  },
  {
    "dt": "2021.02.03 04:00",
    "o": 116.956,
    "h": 116.972,
    "l": 116.914,
    "c": 116.944,
    "v": 1296
  },
  {
    "dt": "2021.02.03 05:00",
    "o": 116.949,
    "h": 116.994,
    "l": 116.943,
    "c": 116.96,
    "v": 1239
  },
  {
    "dt": "2021.02.03 06:00",
    "o": 116.961,
    "h": 116.967,
    "l": 116.93,
    "c": 116.951,
    "v": 1066
  },
  {
    "dt": "2021.02.03 07:00",
    "o": 116.951,
    "h": 116.966,
    "l": 116.929,
    "c": 116.953,
    "v": 1076
  },
  {
    "dt": "2021.02.03 08:00",
    "o": 116.952,
    "h": 116.963,
    "l": 116.905,
    "c": 116.918,
    "v": 1216
  },
  {
    "dt": "2021.02.03 09:00",
    "o": 116.91,
    "h": 117.004,
    "l": 116.886,
    "c": 116.965,
    "v": 2590
  },
  {
    "dt": "2021.02.03 10:00",
    "o": 116.965,
    "h": 116.985,
    "l": 116.842,
    "c": 116.868,
    "v": 3038
  },
  {
    "dt": "2021.02.03 11:00",
    "o": 116.867,
    "h": 116.94,
    "l": 116.772,
    "c": 116.887,
    "v": 3039
  },
  {
    "dt": "2021.02.03 12:00",
    "o": 116.89,
    "h": 116.922,
    "l": 116.758,
    "c": 116.862,
    "v": 2536
  },
  {
    "dt": "2021.02.03 13:00",
    "o": 116.861,
    "h": 116.889,
    "l": 116.818,
    "c": 116.859,
    "v": 1858
  },
  {
    "dt": "2021.02.03 14:00",
    "o": 116.858,
    "h": 116.885,
    "l": 116.763,
    "c": 116.813,
    "v": 2770
  },
  {
    "dt": "2021.02.03 15:00",
    "o": 116.817,
    "h": 116.876,
    "l": 116.807,
    "c": 116.86,
    "v": 3061
  },
  {
    "dt": "2021.02.03 16:00",
    "o": 116.859,
    "h": 116.927,
    "l": 116.761,
    "c": 116.779,
    "v": 3545
  },
  {
    "dt": "2021.02.03 17:00",
    "o": 116.775,
    "h": 116.821,
    "l": 116.708,
    "c": 116.782,
    "v": 3769
  },
  {
    "dt": "2021.02.03 18:00",
    "o": 116.783,
    "h": 116.838,
    "l": 116.77,
    "c": 116.791,
    "v": 2674
  },
  {
    "dt": "2021.02.03 19:00",
    "o": 116.79,
    "h": 116.843,
    "l": 116.756,
    "c": 116.757,
    "v": 2131
  },
  {
    "dt": "2021.02.03 20:00",
    "o": 116.757,
    "h": 116.797,
    "l": 116.743,
    "c": 116.795,
    "v": 1757
  },
  {
    "dt": "2021.02.03 21:00",
    "o": 116.797,
    "h": 116.818,
    "l": 116.768,
    "c": 116.804,
    "v": 1490
  },
  {
    "dt": "2021.02.03 22:00",
    "o": 116.803,
    "h": 116.849,
    "l": 116.785,
    "c": 116.824,
    "v": 2047
  },
  {
    "dt": "2021.02.03 23:00",
    "o": 116.825,
    "h": 116.845,
    "l": 116.813,
    "c": 116.815,
    "v": 1306
  },
  {
    "dt": "2021.02.04 00:00",
    "o": 116.802,
    "h": 116.81,
    "l": 116.736,
    "c": 116.802,
    "v": 525
  },
  {
    "dt": "2021.02.04 01:00",
    "o": 116.798,
    "h": 116.873,
    "l": 116.781,
    "c": 116.852,
    "v": 996
  },
  {
    "dt": "2021.02.04 02:00",
    "o": 116.852,
    "h": 116.869,
    "l": 116.81,
    "c": 116.851,
    "v": 1533
  },
  {
    "dt": "2021.02.04 03:00",
    "o": 116.852,
    "h": 116.863,
    "l": 116.808,
    "c": 116.839,
    "v": 1935
  },
  {
    "dt": "2021.02.04 04:00",
    "o": 116.838,
    "h": 116.859,
    "l": 116.803,
    "c": 116.808,
    "v": 1587
  },
  {
    "dt": "2021.02.04 05:00",
    "o": 116.811,
    "h": 116.811,
    "l": 116.753,
    "c": 116.787,
    "v": 1606
  },
  {
    "dt": "2021.02.04 06:00",
    "o": 116.79,
    "h": 116.829,
    "l": 116.768,
    "c": 116.829,
    "v": 1131
  },
  {
    "dt": "2021.02.04 07:00",
    "o": 116.825,
    "h": 116.835,
    "l": 116.784,
    "c": 116.814,
    "v": 1794
  },
  {
    "dt": "2021.02.04 08:00",
    "o": 116.815,
    "h": 116.827,
    "l": 116.786,
    "c": 116.809,
    "v": 1649
  },
  {
    "dt": "2021.02.04 09:00",
    "o": 116.802,
    "h": 116.846,
    "l": 116.761,
    "c": 116.8,
    "v": 2840
  },
  {
    "dt": "2021.02.04 10:00",
    "o": 116.801,
    "h": 116.824,
    "l": 116.613,
    "c": 116.619,
    "v": 3528
  },
  {
    "dt": "2021.02.04 11:00",
    "o": 116.621,
    "h": 116.722,
    "l": 116.585,
    "c": 116.615,
    "v": 3025
  },
  {
    "dt": "2021.02.04 12:00",
    "o": 116.614,
    "h": 116.767,
    "l": 116.593,
    "c": 116.693,
    "v": 2504
  },
  {
    "dt": "2021.02.04 13:00",
    "o": 116.69,
    "h": 116.743,
    "l": 116.656,
    "c": 116.709,
    "v": 2253
  },
  {
    "dt": "2021.02.04 14:00",
    "o": 116.711,
    "h": 116.736,
    "l": 116.616,
    "c": 116.668,
    "v": 3365
  },
  {
    "dt": "2021.02.04 15:00",
    "o": 116.672,
    "h": 116.732,
    "l": 116.633,
    "c": 116.669,
    "v": 3230
  },
  {
    "dt": "2021.02.04 16:00",
    "o": 116.668,
    "h": 116.729,
    "l": 116.64,
    "c": 116.702,
    "v": 3347
  },
  {
    "dt": "2021.02.04 17:00",
    "o": 116.702,
    "h": 116.732,
    "l": 116.657,
    "c": 116.7,
    "v": 3477
  },
  {
    "dt": "2021.02.04 18:00",
    "o": 116.7,
    "h": 116.743,
    "l": 116.672,
    "c": 116.72,
    "v": 2713
  },
  {
    "dt": "2021.02.04 19:00",
    "o": 116.72,
    "h": 116.723,
    "l": 116.641,
    "c": 116.646,
    "v": 2116
  },
  {
    "dt": "2021.02.04 20:00",
    "o": 116.645,
    "h": 116.719,
    "l": 116.631,
    "c": 116.717,
    "v": 1614
  },
  {
    "dt": "2021.02.04 21:00",
    "o": 116.718,
    "h": 116.741,
    "l": 116.682,
    "c": 116.712,
    "v": 1575
  },
  {
    "dt": "2021.02.04 22:00",
    "o": 116.71,
    "h": 116.766,
    "l": 116.708,
    "c": 116.743,
    "v": 1772
  },
  {
    "dt": "2021.02.04 23:00",
    "o": 116.744,
    "h": 116.755,
    "l": 116.684,
    "c": 116.701,
    "v": 1362
  },
  {
    "dt": "2021.02.05 00:00",
    "o": 116.675,
    "h": 116.72,
    "l": 116.657,
    "c": 116.663,
    "v": 544
  },
  {
    "dt": "2021.02.05 01:00",
    "o": 116.69,
    "h": 116.773,
    "l": 116.69,
    "c": 116.766,
    "v": 1067
  },
  {
    "dt": "2021.02.05 02:00",
    "o": 116.764,
    "h": 116.816,
    "l": 116.675,
    "c": 116.702,
    "v": 1784
  },
  {
    "dt": "2021.02.05 03:00",
    "o": 116.703,
    "h": 116.732,
    "l": 116.679,
    "c": 116.729,
    "v": 1449
  },
  {
    "dt": "2021.02.05 04:00",
    "o": 116.729,
    "h": 116.739,
    "l": 116.67,
    "c": 116.689,
    "v": 1444
  },
  {
    "dt": "2021.02.05 05:00",
    "o": 116.685,
    "h": 116.71,
    "l": 116.678,
    "c": 116.694,
    "v": 1133
  },
  {
    "dt": "2021.02.05 06:00",
    "o": 116.693,
    "h": 116.724,
    "l": 116.691,
    "c": 116.709,
    "v": 960
  },
  {
    "dt": "2021.02.05 07:00",
    "o": 116.709,
    "h": 116.733,
    "l": 116.7,
    "c": 116.718,
    "v": 1072
  },
  {
    "dt": "2021.02.05 08:00",
    "o": 116.72,
    "h": 116.751,
    "l": 116.709,
    "c": 116.722,
    "v": 1039
  },
  {
    "dt": "2021.02.05 09:00",
    "o": 116.718,
    "h": 116.75,
    "l": 116.701,
    "c": 116.71,
    "v": 1863
  },
  {
    "dt": "2021.02.05 10:00",
    "o": 116.712,
    "h": 116.829,
    "l": 116.712,
    "c": 116.757,
    "v": 3573
  },
  {
    "dt": "2021.02.05 11:00",
    "o": 116.758,
    "h": 116.846,
    "l": 116.746,
    "c": 116.798,
    "v": 2430
  },
  {
    "dt": "2021.02.05 12:00",
    "o": 116.798,
    "h": 116.955,
    "l": 116.798,
    "c": 116.929,
    "v": 2606
  },
  {
    "dt": "2021.02.05 13:00",
    "o": 116.929,
    "h": 116.977,
    "l": 116.847,
    "c": 116.886,
    "v": 2563
  },
  {
    "dt": "2021.02.05 14:00",
    "o": 116.885,
    "h": 117.108,
    "l": 116.881,
    "c": 117.039,
    "v": 3002
  },
  {
    "dt": "2021.02.05 15:00",
    "o": 117.036,
    "h": 117.219,
    "l": 116.993,
    "c": 117.149,
    "v": 4256
  },
  {
    "dt": "2021.02.05 16:00",
    "o": 117.147,
    "h": 117.167,
    "l": 117.07,
    "c": 117.139,
    "v": 4553
  },
  {
    "dt": "2021.02.05 17:00",
    "o": 117.139,
    "h": 117.174,
    "l": 117.073,
    "c": 117.118,
    "v": 3910
  },
  {
    "dt": "2021.02.05 18:00",
    "o": 117.115,
    "h": 117.232,
    "l": 117.083,
    "c": 117.18,
    "v": 2985
  },
  {
    "dt": "2021.02.05 19:00",
    "o": 117.181,
    "h": 117.214,
    "l": 117.054,
    "c": 117.058,
    "v": 2177
  },
  {
    "dt": "2021.02.05 20:00",
    "o": 117.063,
    "h": 117.152,
    "l": 117.063,
    "c": 117.141,
    "v": 1834
  },
  {
    "dt": "2021.02.05 21:00",
    "o": 117.14,
    "h": 117.196,
    "l": 117.138,
    "c": 117.187,
    "v": 1501
  },
  {
    "dt": "2021.02.05 22:00",
    "o": 117.181,
    "h": 117.208,
    "l": 117.155,
    "c": 117.195,
    "v": 1657
  },
  {
    "dt": "2021.02.05 23:00",
    "o": 117.195,
    "h": 117.232,
    "l": 117.161,
    "c": 117.183,
    "v": 1453
  },
  {
    "dt": "2021.02.08 00:00",
    "o": 117.073,
    "h": 117.259,
    "l": 117.056,
    "c": 117.163,
    "v": 873
  },
  {
    "dt": "2021.02.08 01:00",
    "o": 117.174,
    "h": 117.279,
    "l": 117.174,
    "c": 117.208,
    "v": 1511
  },
  {
    "dt": "2021.02.08 02:00",
    "o": 117.208,
    "h": 117.264,
    "l": 117.178,
    "c": 117.196,
    "v": 2444
  },
  {
    "dt": "2021.02.08 03:00",
    "o": 117.19,
    "h": 117.218,
    "l": 117.137,
    "c": 117.211,
    "v": 1288
  },
  {
    "dt": "2021.02.08 04:00",
    "o": 117.21,
    "h": 117.211,
    "l": 117.139,
    "c": 117.15,
    "v": 1160
  },
  {
    "dt": "2021.02.08 05:00",
    "o": 117.151,
    "h": 117.218,
    "l": 117.135,
    "c": 117.195,
    "v": 930
  },
  {
    "dt": "2021.02.08 06:00",
    "o": 117.195,
    "h": 117.255,
    "l": 117.193,
    "c": 117.246,
    "v": 795
  },
  {
    "dt": "2021.02.08 07:00",
    "o": 117.247,
    "h": 117.276,
    "l": 117.229,
    "c": 117.237,
    "v": 916
  },
  {
    "dt": "2021.02.08 08:00",
    "o": 117.237,
    "h": 117.282,
    "l": 117.232,
    "c": 117.244,
    "v": 963
  },
  {
    "dt": "2021.02.08 09:00",
    "o": 117.242,
    "h": 117.286,
    "l": 117.187,
    "c": 117.214,
    "v": 2123
  },
  {
    "dt": "2021.02.08 10:00",
    "o": 117.213,
    "h": 117.334,
    "l": 117.18,
    "c": 117.292,
    "v": 2958
  },
  {
    "dt": "2021.02.08 11:00",
    "o": 117.293,
    "h": 117.319,
    "l": 117.184,
    "c": 117.198,
    "v": 2457
  },
  {
    "dt": "2021.02.08 12:00",
    "o": 117.194,
    "h": 117.301,
    "l": 117.189,
    "c": 117.294,
    "v": 2337
  },
  {
    "dt": "2021.02.08 13:00",
    "o": 117.294,
    "h": 117.317,
    "l": 117.214,
    "c": 117.256,
    "v": 2176
  },
  {
    "dt": "2021.02.08 14:00",
    "o": 117.257,
    "h": 117.268,
    "l": 117.026,
    "c": 117.027,
    "v": 2559
  },
  {
    "dt": "2021.02.08 15:00",
    "o": 117.034,
    "h": 117.158,
    "l": 117.034,
    "c": 117.118,
    "v": 3079
  },
  {
    "dt": "2021.02.08 16:00",
    "o": 117.114,
    "h": 117.247,
    "l": 117.095,
    "c": 117.226,
    "v": 3637
  },
  {
    "dt": "2021.02.08 17:00",
    "o": 117.225,
    "h": 117.23,
    "l": 116.971,
    "c": 117.012,
    "v": 3670
  },
  {
    "dt": "2021.02.08 18:00",
    "o": 117.011,
    "h": 117.063,
    "l": 116.985,
    "c": 117.045,
    "v": 3131
  },
  {
    "dt": "2021.02.08 19:00",
    "o": 117.044,
    "h": 117.091,
    "l": 117.032,
    "c": 117.036,
    "v": 2213
  },
  {
    "dt": "2021.02.08 20:00",
    "o": 117.039,
    "h": 117.079,
    "l": 117.034,
    "c": 117.059,
    "v": 1571
  },
  {
    "dt": "2021.02.08 21:00",
    "o": 117.059,
    "h": 117.085,
    "l": 117.043,
    "c": 117.077,
    "v": 1370
  },
  {
    "dt": "2021.02.08 22:00",
    "o": 117.075,
    "h": 117.075,
    "l": 117.026,
    "c": 117.032,
    "v": 1512
  },
  {
    "dt": "2021.02.08 23:00",
    "o": 117.034,
    "h": 117.073,
    "l": 117.019,
    "c": 117.041,
    "v": 1284
  },
  {
    "dt": "2021.02.09 00:00",
    "o": 117.028,
    "h": 117.076,
    "l": 116.989,
    "c": 117.043,
    "v": 1212
  },
  {
    "dt": "2021.02.09 01:00",
    "o": 117.041,
    "h": 117.084,
    "l": 117.015,
    "c": 117.062,
    "v": 928
  },
  {
    "dt": "2021.02.09 02:00",
    "o": 117.06,
    "h": 117.085,
    "l": 117.014,
    "c": 117.041,
    "v": 1727
  },
  {
    "dt": "2021.02.09 03:00",
    "o": 117.04,
    "h": 117.084,
    "l": 117.016,
    "c": 117.049,
    "v": 1846
  },
  {
    "dt": "2021.02.09 04:00",
    "o": 117.047,
    "h": 117.113,
    "l": 117.023,
    "c": 117.038,
    "v": 2070
  },
  {
    "dt": "2021.02.09 05:00",
    "o": 117.041,
    "h": 117.056,
    "l": 117.007,
    "c": 117.024,
    "v": 1445
  },
  {
    "dt": "2021.02.09 06:00",
    "o": 117.026,
    "h": 117.027,
    "l": 116.952,
    "c": 116.973,
    "v": 1301
  },
  {
    "dt": "2021.02.09 07:00",
    "o": 116.974,
    "h": 117.046,
    "l": 116.966,
    "c": 117.028,
    "v": 1070
  },
  {
    "dt": "2021.02.09 08:00",
    "o": 117.024,
    "h": 117.039,
    "l": 116.946,
    "c": 116.963,
    "v": 1448
  },
  {
    "dt": "2021.02.09 09:00",
    "o": 116.968,
    "h": 117.009,
    "l": 116.909,
    "c": 116.953,
    "v": 2540
  },
  {
    "dt": "2021.02.09 10:00",
    "o": 116.955,
    "h": 117.096,
    "l": 116.921,
    "c": 117.093,
    "v": 3441
  },
  {
    "dt": "2021.02.09 11:00",
    "o": 117.096,
    "h": 117.098,
    "l": 116.994,
    "c": 117.012,
    "v": 3549
  },
  {
    "dt": "2021.02.09 12:00",
    "o": 117.016,
    "h": 117.158,
    "l": 117.015,
    "c": 117.118,
    "v": 2710
  },
  {
    "dt": "2021.02.09 13:00",
    "o": 117.117,
    "h": 117.176,
    "l": 117.106,
    "c": 117.108,
    "v": 2306
  },
  {
    "dt": "2021.02.09 14:00",
    "o": 117.102,
    "h": 117.131,
    "l": 117.005,
    "c": 117.011,
    "v": 2381
  },
  {
    "dt": "2021.02.09 15:00",
    "o": 117.012,
    "h": 117.121,
    "l": 116.997,
    "c": 117.09,
    "v": 3317
  },
  {
    "dt": "2021.02.09 16:00",
    "o": 117.088,
    "h": 117.124,
    "l": 116.96,
    "c": 116.966,
    "v": 3551
  },
  {
    "dt": "2021.02.09 17:00",
    "o": 116.963,
    "h": 117.075,
    "l": 116.911,
    "c": 117.061,
    "v": 3527
  },
  {
    "dt": "2021.02.09 18:00",
    "o": 117.059,
    "h": 117.15,
    "l": 117.044,
    "c": 117.142,
    "v": 2645
  },
  {
    "dt": "2021.02.09 19:00",
    "o": 117.139,
    "h": 117.188,
    "l": 117.107,
    "c": 117.118,
    "v": 2302
  },
  {
    "dt": "2021.02.09 20:00",
    "o": 117.117,
    "h": 117.186,
    "l": 117.112,
    "c": 117.171,
    "v": 1788
  },
  {
    "dt": "2021.02.09 21:00",
    "o": 117.169,
    "h": 117.233,
    "l": 117.16,
    "c": 117.194,
    "v": 2081
  },
  {
    "dt": "2021.02.09 22:00",
    "o": 117.193,
    "h": 117.213,
    "l": 117.167,
    "c": 117.177,
    "v": 1446
  },
  {
    "dt": "2021.02.09 23:00",
    "o": 117.178,
    "h": 117.202,
    "l": 117.151,
    "c": 117.173,
    "v": 1408
  },
  {
    "dt": "2021.02.10 00:00",
    "o": 117.154,
    "h": 117.196,
    "l": 117.094,
    "c": 117.129,
    "v": 602
  },
  {
    "dt": "2021.02.10 01:00",
    "o": 117.114,
    "h": 117.181,
    "l": 117.114,
    "c": 117.164,
    "v": 814
  },
  {
    "dt": "2021.02.10 02:00",
    "o": 117.166,
    "h": 117.203,
    "l": 117.109,
    "c": 117.189,
    "v": 1358
  },
  {
    "dt": "2021.02.10 03:00",
    "o": 117.19,
    "h": 117.245,
    "l": 117.18,
    "c": 117.226,
    "v": 1569
  },
  {
    "dt": "2021.02.10 04:00",
    "o": 117.225,
    "h": 117.289,
    "l": 117.22,
    "c": 117.261,
    "v": 1218
  },
  {
    "dt": "2021.02.10 05:00",
    "o": 117.261,
    "h": 117.267,
    "l": 117.219,
    "c": 117.267,
    "v": 1270
  },
  {
    "dt": "2021.02.10 06:00",
    "o": 117.262,
    "h": 117.292,
    "l": 117.254,
    "c": 117.286,
    "v": 874
  },
  {
    "dt": "2021.02.10 07:00",
    "o": 117.288,
    "h": 117.298,
    "l": 117.251,
    "c": 117.254,
    "v": 1021
  },
  {
    "dt": "2021.02.10 08:00",
    "o": 117.253,
    "h": 117.31,
    "l": 117.253,
    "c": 117.292,
    "v": 1006
  },
  {
    "dt": "2021.02.10 09:00",
    "o": 117.29,
    "h": 117.32,
    "l": 117.262,
    "c": 117.27,
    "v": 1910
  },
  {
    "dt": "2021.02.10 10:00",
    "o": 117.269,
    "h": 117.403,
    "l": 117.265,
    "c": 117.331,
    "v": 3200
  },
  {
    "dt": "2021.02.10 11:00",
    "o": 117.333,
    "h": 117.595,
    "l": 117.25,
    "c": 117.53,
    "v": 3526
  },
  {
    "dt": "2021.02.10 12:00",
    "o": 117.53,
    "h": 117.571,
    "l": 117.477,
    "c": 117.538,
    "v": 2594
  },
  {
    "dt": "2021.02.10 13:00",
    "o": 117.54,
    "h": 117.603,
    "l": 117.524,
    "c": 117.596,
    "v": 2009
  },
  {
    "dt": "2021.02.10 14:00",
    "o": 117.595,
    "h": 117.615,
    "l": 117.503,
    "c": 117.517,
    "v": 2526
  },
  {
    "dt": "2021.02.10 15:00",
    "o": 117.516,
    "h": 117.599,
    "l": 117.468,
    "c": 117.526,
    "v": 3528
  },
  {
    "dt": "2021.02.10 16:00",
    "o": 117.529,
    "h": 117.546,
    "l": 117.49,
    "c": 117.508,
    "v": 3321
  },
  {
    "dt": "2021.02.10 17:00",
    "o": 117.51,
    "h": 117.593,
    "l": 117.488,
    "c": 117.545,
    "v": 4072
  },
  {
    "dt": "2021.02.10 18:00",
    "o": 117.545,
    "h": 117.721,
    "l": 117.539,
    "c": 117.697,
    "v": 2906
  },
  {
    "dt": "2021.02.10 19:00",
    "o": 117.699,
    "h": 117.72,
    "l": 117.626,
    "c": 117.662,
    "v": 2373
  },
  {
    "dt": "2021.02.10 20:00",
    "o": 117.663,
    "h": 117.667,
    "l": 117.597,
    "c": 117.601,
    "v": 1550
  },
  {
    "dt": "2021.02.10 21:00",
    "o": 117.599,
    "h": 117.613,
    "l": 117.575,
    "c": 117.599,
    "v": 1577
  },
  {
    "dt": "2021.02.10 22:00",
    "o": 117.6,
    "h": 117.617,
    "l": 117.509,
    "c": 117.516,
    "v": 1464
  },
  {
    "dt": "2021.02.10 23:00",
    "o": 117.517,
    "h": 117.538,
    "l": 117.473,
    "c": 117.48,
    "v": 1027
  },
  {
    "dt": "2021.02.11 00:00",
    "o": 117.414,
    "h": 117.497,
    "l": 117.406,
    "c": 117.464,
    "v": 303
  },
  {
    "dt": "2021.02.11 01:00",
    "o": 117.468,
    "h": 117.535,
    "l": 117.463,
    "c": 117.498,
    "v": 607
  },
  {
    "dt": "2021.02.11 02:00",
    "o": 117.499,
    "h": 117.508,
    "l": 117.422,
    "c": 117.424,
    "v": 921
  },
  {
    "dt": "2021.02.11 03:00",
    "o": 117.423,
    "h": 117.462,
    "l": 117.411,
    "c": 117.449,
    "v": 734
  },
  {
    "dt": "2021.02.11 04:00",
    "o": 117.451,
    "h": 117.504,
    "l": 117.449,
    "c": 117.504,
    "v": 716
  },
  {
    "dt": "2021.02.11 05:00",
    "o": 117.502,
    "h": 117.506,
    "l": 117.463,
    "c": 117.496,
    "v": 812
  },
  {
    "dt": "2021.02.11 06:00",
    "o": 117.497,
    "h": 117.521,
    "l": 117.484,
    "c": 117.492,
    "v": 654
  },
  {
    "dt": "2021.02.11 07:00",
    "o": 117.491,
    "h": 117.54,
    "l": 117.488,
    "c": 117.521,
    "v": 675
  },
  {
    "dt": "2021.02.11 08:00",
    "o": 117.519,
    "h": 117.53,
    "l": 117.488,
    "c": 117.488,
    "v": 776
  },
  {
    "dt": "2021.02.11 09:00",
    "o": 117.492,
    "h": 117.526,
    "l": 117.438,
    "c": 117.451,
    "v": 1694
  },
  {
    "dt": "2021.02.11 10:00",
    "o": 117.448,
    "h": 117.626,
    "l": 117.425,
    "c": 117.619,
    "v": 2689
  },
  {
    "dt": "2021.02.11 11:00",
    "o": 117.616,
    "h": 117.681,
    "l": 117.573,
    "c": 117.582,
    "v": 2043
  },
  {
    "dt": "2021.02.11 12:00",
    "o": 117.579,
    "h": 117.596,
    "l": 117.515,
    "c": 117.591,
    "v": 1558
  },
  {
    "dt": "2021.02.11 13:00",
    "o": 117.589,
    "h": 117.645,
    "l": 117.567,
    "c": 117.626,
    "v": 1640
  },
  {
    "dt": "2021.02.11 14:00",
    "o": 117.624,
    "h": 117.662,
    "l": 117.599,
    "c": 117.632,
    "v": 1560
  },
  {
    "dt": "2021.02.11 15:00",
    "o": 117.632,
    "h": 117.69,
    "l": 117.604,
    "c": 117.647,
    "v": 2728
  },
  {
    "dt": "2021.02.11 16:00",
    "o": 117.651,
    "h": 117.689,
    "l": 117.57,
    "c": 117.579,
    "v": 3495
  },
  {
    "dt": "2021.02.11 17:00",
    "o": 117.58,
    "h": 117.653,
    "l": 117.566,
    "c": 117.597,
    "v": 2961
  },
  {
    "dt": "2021.02.11 18:00",
    "o": 117.597,
    "h": 117.63,
    "l": 117.575,
    "c": 117.603,
    "v": 2753
  },
  {
    "dt": "2021.02.11 19:00",
    "o": 117.604,
    "h": 117.644,
    "l": 117.581,
    "c": 117.599,
    "v": 2576
  },
  {
    "dt": "2021.02.11 20:00",
    "o": 117.598,
    "h": 117.634,
    "l": 117.586,
    "c": 117.627,
    "v": 2265
  },
  {
    "dt": "2021.02.11 21:00",
    "o": 117.627,
    "h": 117.706,
    "l": 117.609,
    "c": 117.696,
    "v": 1884
  },
  {
    "dt": "2021.02.11 22:00",
    "o": 117.696,
    "h": 117.713,
    "l": 117.67,
    "c": 117.683,
    "v": 1559
  },
  {
    "dt": "2021.02.11 23:00",
    "o": 117.685,
    "h": 117.695,
    "l": 117.664,
    "c": 117.68,
    "v": 1041
  },
  {
    "dt": "2021.02.12 00:00",
    "o": 117.662,
    "h": 117.711,
    "l": 117.638,
    "c": 117.662,
    "v": 1037
  },
  {
    "dt": "2021.02.12 01:00",
    "o": 117.667,
    "h": 117.699,
    "l": 117.649,
    "c": 117.668,
    "v": 765
  },
  {
    "dt": "2021.02.12 02:00",
    "o": 117.67,
    "h": 117.733,
    "l": 117.644,
    "c": 117.668,
    "v": 1325
  },
  {
    "dt": "2021.02.12 03:00",
    "o": 117.667,
    "h": 117.735,
    "l": 117.66,
    "c": 117.714,
    "v": 1069
  },
  {
    "dt": "2021.02.12 04:00",
    "o": 117.713,
    "h": 117.716,
    "l": 117.666,
    "c": 117.668,
    "v": 945
  },
  {
    "dt": "2021.02.12 05:00",
    "o": 117.668,
    "h": 117.689,
    "l": 117.656,
    "c": 117.682,
    "v": 720
  },
  {
    "dt": "2021.02.12 06:00",
    "o": 117.683,
    "h": 117.695,
    "l": 117.655,
    "c": 117.691,
    "v": 805
  },
  {
    "dt": "2021.02.12 07:00",
    "o": 117.686,
    "h": 117.81,
    "l": 117.673,
    "c": 117.791,
    "v": 982
  },
  {
    "dt": "2021.02.12 08:00",
    "o": 117.788,
    "h": 117.788,
    "l": 117.678,
    "c": 117.686,
    "v": 954
  },
  {
    "dt": "2021.02.12 09:00",
    "o": 117.686,
    "h": 117.81,
    "l": 117.682,
    "c": 117.783,
    "v": 2186
  },
  {
    "dt": "2021.02.12 10:00",
    "o": 117.785,
    "h": 117.85,
    "l": 117.683,
    "c": 117.716,
    "v": 2923
  },
  {
    "dt": "2021.02.12 11:00",
    "o": 117.716,
    "h": 117.875,
    "l": 117.692,
    "c": 117.696,
    "v": 2894
  },
  {
    "dt": "2021.02.12 12:00",
    "o": 117.696,
    "h": 117.703,
    "l": 117.565,
    "c": 117.606,
    "v": 2194
  },
  {
    "dt": "2021.02.12 13:00",
    "o": 117.607,
    "h": 117.677,
    "l": 117.576,
    "c": 117.652,
    "v": 1981
  },
  {
    "dt": "2021.02.12 14:00",
    "o": 117.657,
    "h": 117.703,
    "l": 117.643,
    "c": 117.671,
    "v": 2207
  },
  {
    "dt": "2021.02.12 15:00",
    "o": 117.671,
    "h": 117.734,
    "l": 117.552,
    "c": 117.558,
    "v": 2936
  },
  {
    "dt": "2021.02.12 16:00",
    "o": 117.559,
    "h": 117.646,
    "l": 117.544,
    "c": 117.595,
    "v": 3199
  },
  {
    "dt": "2021.02.12 17:00",
    "o": 117.594,
    "h": 117.714,
    "l": 117.582,
    "c": 117.707,
    "v": 3392
  },
  {
    "dt": "2021.02.12 18:00",
    "o": 117.713,
    "h": 117.781,
    "l": 117.684,
    "c": 117.768,
    "v": 2780
  },
  {
    "dt": "2021.02.12 19:00",
    "o": 117.767,
    "h": 117.785,
    "l": 117.688,
    "c": 117.689,
    "v": 1427
  },
  {
    "dt": "2021.02.12 20:00",
    "o": 117.689,
    "h": 117.71,
    "l": 117.667,
    "c": 117.68,
    "v": 1559
  },
  {
    "dt": "2021.02.12 21:00",
    "o": 117.682,
    "h": 117.712,
    "l": 117.643,
    "c": 117.644,
    "v": 1088
  },
  {
    "dt": "2021.02.12 22:00",
    "o": 117.644,
    "h": 117.678,
    "l": 117.644,
    "c": 117.662,
    "v": 927
  },
  {
    "dt": "2021.02.12 23:00",
    "o": 117.664,
    "h": 117.684,
    "l": 117.619,
    "c": 117.625,
    "v": 905
  },
  {
    "dt": "2021.02.15 00:00",
    "o": 117.586,
    "h": 117.748,
    "l": 117.586,
    "c": 117.651,
    "v": 780
  },
  {
    "dt": "2021.02.15 01:00",
    "o": 117.647,
    "h": 117.823,
    "l": 117.644,
    "c": 117.783,
    "v": 1518
  },
  {
    "dt": "2021.02.15 02:00",
    "o": 117.776,
    "h": 117.85,
    "l": 117.723,
    "c": 117.779,
    "v": 1618
  },
  {
    "dt": "2021.02.15 03:00",
    "o": 117.778,
    "h": 117.808,
    "l": 117.718,
    "c": 117.798,
    "v": 1146
  },
  {
    "dt": "2021.02.15 04:00",
    "o": 117.799,
    "h": 117.858,
    "l": 117.779,
    "c": 117.848,
    "v": 939
  },
  {
    "dt": "2021.02.15 05:00",
    "o": 117.849,
    "h": 117.915,
    "l": 117.833,
    "c": 117.909,
    "v": 918
  },
  {
    "dt": "2021.02.15 06:00",
    "o": 117.908,
    "h": 117.951,
    "l": 117.863,
    "c": 117.874,
    "v": 1004
  },
  {
    "dt": "2021.02.15 07:00",
    "o": 117.873,
    "h": 117.937,
    "l": 117.87,
    "c": 117.92,
    "v": 777
  },
  {
    "dt": "2021.02.15 08:00",
    "o": 117.921,
    "h": 117.968,
    "l": 117.881,
    "c": 117.894,
    "v": 1126
  },
  {
    "dt": "2021.02.15 09:00",
    "o": 117.892,
    "h": 118.019,
    "l": 117.881,
    "c": 117.993,
    "v": 1865
  },
  {
    "dt": "2021.02.15 10:00",
    "o": 117.994,
    "h": 118.127,
    "l": 117.976,
    "c": 118.116,
    "v": 2780
  },
  {
    "dt": "2021.02.15 11:00",
    "o": 118.118,
    "h": 118.371,
    "l": 118.104,
    "c": 118.308,
    "v": 2252
  },
  {
    "dt": "2021.02.15 12:00",
    "o": 118.307,
    "h": 118.335,
    "l": 118.223,
    "c": 118.279,
    "v": 1935
  },
  {
    "dt": "2021.02.15 13:00",
    "o": 118.279,
    "h": 118.304,
    "l": 118.2,
    "c": 118.204,
    "v": 1603
  },
  {
    "dt": "2021.02.15 14:00",
    "o": 118.206,
    "h": 118.254,
    "l": 118.151,
    "c": 118.234,
    "v": 1727
  },
  {
    "dt": "2021.02.15 15:00",
    "o": 118.235,
    "h": 118.31,
    "l": 118.214,
    "c": 118.292,
    "v": 1826
  },
  {
    "dt": "2021.02.15 16:00",
    "o": 118.291,
    "h": 118.315,
    "l": 118.254,
    "c": 118.315,
    "v": 1686
  },
  {
    "dt": "2021.02.15 17:00",
    "o": 118.314,
    "h": 118.387,
    "l": 118.279,
    "c": 118.38,
    "v": 1701
  },
  {
    "dt": "2021.02.15 18:00",
    "o": 118.38,
    "h": 118.385,
    "l": 118.316,
    "c": 118.368,
    "v": 1488
  },
  {
    "dt": "2021.02.15 19:00",
    "o": 118.368,
    "h": 118.376,
    "l": 118.255,
    "c": 118.257,
    "v": 1237
  },
  {
    "dt": "2021.02.15 20:00",
    "o": 118.259,
    "h": 118.324,
    "l": 118.253,
    "c": 118.3,
    "v": 763
  },
  {
    "dt": "2021.02.15 21:00",
    "o": 118.296,
    "h": 118.33,
    "l": 118.282,
    "c": 118.313,
    "v": 917
  },
  {
    "dt": "2021.02.15 22:00",
    "o": 118.315,
    "h": 118.345,
    "l": 118.283,
    "c": 118.291,
    "v": 610
  },
  {
    "dt": "2021.02.15 23:00",
    "o": 118.293,
    "h": 118.329,
    "l": 118.26,
    "c": 118.27,
    "v": 690
  },
  {
    "dt": "2021.02.16 00:00",
    "o": 118.285,
    "h": 118.333,
    "l": 118.217,
    "c": 118.3,
    "v": 429
  },
  {
    "dt": "2021.02.16 01:00",
    "o": 118.294,
    "h": 118.413,
    "l": 118.294,
    "c": 118.39,
    "v": 655
  },
  {
    "dt": "2021.02.16 02:00",
    "o": 118.39,
    "h": 118.623,
    "l": 118.39,
    "c": 118.612,
    "v": 1599
  },
  {
    "dt": "2021.02.16 03:00",
    "o": 118.609,
    "h": 118.73,
    "l": 118.567,
    "c": 118.667,
    "v": 1577
  },
  {
    "dt": "2021.02.16 04:00",
    "o": 118.67,
    "h": 118.794,
    "l": 118.654,
    "c": 118.752,
    "v": 1108
  },
  {
    "dt": "2021.02.16 05:00",
    "o": 118.752,
    "h": 118.832,
    "l": 118.745,
    "c": 118.815,
    "v": 971
  },
  {
    "dt": "2021.02.16 06:00",
    "o": 118.811,
    "h": 118.816,
    "l": 118.7,
    "c": 118.707,
    "v": 1069
  },
  {
    "dt": "2021.02.16 07:00",
    "o": 118.706,
    "h": 118.766,
    "l": 118.561,
    "c": 118.608,
    "v": 1653
  },
  {
    "dt": "2021.02.16 08:00",
    "o": 118.608,
    "h": 118.689,
    "l": 118.582,
    "c": 118.646,
    "v": 1597
  },
  {
    "dt": "2021.02.16 09:00",
    "o": 118.652,
    "h": 118.74,
    "l": 118.514,
    "c": 118.537,
    "v": 2318
  },
  {
    "dt": "2021.02.16 10:00",
    "o": 118.538,
    "h": 118.719,
    "l": 118.516,
    "c": 118.704,
    "v": 2999
  },
  {
    "dt": "2021.02.16 11:00",
    "o": 118.705,
    "h": 118.714,
    "l": 118.446,
    "c": 118.514,
    "v": 2711
  },
  {
    "dt": "2021.02.16 12:00",
    "o": 118.515,
    "h": 118.6,
    "l": 118.46,
    "c": 118.537,
    "v": 2495
  },
  {
    "dt": "2021.02.16 13:00",
    "o": 118.538,
    "h": 118.706,
    "l": 118.503,
    "c": 118.696,
    "v": 2418
  },
  {
    "dt": "2021.02.16 14:00",
    "o": 118.696,
    "h": 118.791,
    "l": 118.654,
    "c": 118.759,
    "v": 2707
  },
  {
    "dt": "2021.02.16 15:00",
    "o": 118.758,
    "h": 118.776,
    "l": 118.508,
    "c": 118.534,
    "v": 4202
  },
  {
    "dt": "2021.02.16 16:00",
    "o": 118.536,
    "h": 118.58,
    "l": 118.458,
    "c": 118.5,
    "v": 4603
  },
  {
    "dt": "2021.02.16 17:00",
    "o": 118.5,
    "h": 118.597,
    "l": 118.463,
    "c": 118.584,
    "v": 4121
  },
  {
    "dt": "2021.02.16 18:00",
    "o": 118.579,
    "h": 118.657,
    "l": 118.563,
    "c": 118.637,
    "v": 3402
  },
  {
    "dt": "2021.02.16 19:00",
    "o": 118.64,
    "h": 118.733,
    "l": 118.6,
    "c": 118.643,
    "v": 2810
  },
  {
    "dt": "2021.02.16 20:00",
    "o": 118.643,
    "h": 118.703,
    "l": 118.642,
    "c": 118.691,
    "v": 1788
  },
  {
    "dt": "2021.02.16 21:00",
    "o": 118.69,
    "h": 118.731,
    "l": 118.67,
    "c": 118.729,
    "v": 1449
  },
  {
    "dt": "2021.02.16 22:00",
    "o": 118.728,
    "h": 118.744,
    "l": 118.701,
    "c": 118.711,
    "v": 1611
  },
  {
    "dt": "2021.02.16 23:00",
    "o": 118.711,
    "h": 118.784,
    "l": 118.703,
    "c": 118.765,
    "v": 1408
  },
  {
    "dt": "2021.02.17 00:00",
    "o": 118.778,
    "h": 118.824,
    "l": 118.711,
    "c": 118.812,
    "v": 898
  },
  {
    "dt": "2021.02.17 01:00",
    "o": 118.812,
    "h": 118.856,
    "l": 118.714,
    "c": 118.738,
    "v": 2213
  },
  {
    "dt": "2021.02.17 02:00",
    "o": 118.739,
    "h": 118.802,
    "l": 118.684,
    "c": 118.79,
    "v": 2290
  },
  {
    "dt": "2021.02.17 03:00",
    "o": 118.788,
    "h": 118.79,
    "l": 118.69,
    "c": 118.714,
    "v": 1993
  },
  {
    "dt": "2021.02.17 04:00",
    "o": 118.716,
    "h": 118.719,
    "l": 118.593,
    "c": 118.654,
    "v": 1800
  },
  {
    "dt": "2021.02.17 05:00",
    "o": 118.655,
    "h": 118.67,
    "l": 118.606,
    "c": 118.606,
    "v": 1402
  },
  {
    "dt": "2021.02.17 06:00",
    "o": 118.605,
    "h": 118.618,
    "l": 118.526,
    "c": 118.527,
    "v": 1514
  },
  {
    "dt": "2021.02.17 07:00",
    "o": 118.529,
    "h": 118.575,
    "l": 118.513,
    "c": 118.545,
    "v": 1619
  },
  {
    "dt": "2021.02.17 08:00",
    "o": 118.546,
    "h": 118.597,
    "l": 118.53,
    "c": 118.551,
    "v": 1751
  },
  {
    "dt": "2021.02.17 09:00",
    "o": 118.555,
    "h": 118.6,
    "l": 118.411,
    "c": 118.441,
    "v": 2847
  },
  {
    "dt": "2021.02.17 10:00",
    "o": 118.444,
    "h": 118.489,
    "l": 118.252,
    "c": 118.339,
    "v": 3531
  },
  {
    "dt": "2021.02.17 11:00",
    "o": 118.345,
    "h": 118.415,
    "l": 118.306,
    "c": 118.401,
    "v": 3139
  },
  {
    "dt": "2021.02.17 12:00",
    "o": 118.394,
    "h": 118.46,
    "l": 118.304,
    "c": 118.457,
    "v": 2350
  },
  {
    "dt": "2021.02.17 13:00",
    "o": 118.458,
    "h": 118.458,
    "l": 118.33,
    "c": 118.378,
    "v": 2093
  },
  {
    "dt": "2021.02.17 14:00",
    "o": 118.378,
    "h": 118.409,
    "l": 118.352,
    "c": 118.37,
    "v": 2465
  },
  {
    "dt": "2021.02.17 15:00",
    "o": 118.368,
    "h": 118.438,
    "l": 118.185,
    "c": 118.185,
    "v": 4227
  },
  {
    "dt": "2021.02.17 16:00",
    "o": 118.181,
    "h": 118.213,
    "l": 117.934,
    "c": 118.007,
    "v": 4634
  },
  {
    "dt": "2021.02.17 17:00",
    "o": 118.005,
    "h": 118.038,
    "l": 117.845,
    "c": 117.909,
    "v": 3924
  },
  {
    "dt": "2021.02.17 18:00",
    "o": 117.908,
    "h": 117.908,
    "l": 117.729,
    "c": 117.768,
    "v": 3558
  },
  {
    "dt": "2021.02.17 19:00",
    "o": 117.768,
    "h": 117.801,
    "l": 117.721,
    "c": 117.765,
    "v": 2474
  },
  {
    "dt": "2021.02.17 20:00",
    "o": 117.766,
    "h": 117.825,
    "l": 117.762,
    "c": 117.79,
    "v": 2356
  },
  {
    "dt": "2021.02.17 21:00",
    "o": 117.79,
    "h": 117.817,
    "l": 117.764,
    "c": 117.778,
    "v": 1926
  },
  {
    "dt": "2021.02.17 22:00",
    "o": 117.782,
    "h": 117.841,
    "l": 117.777,
    "c": 117.779,
    "v": 1702
  },
  {
    "dt": "2021.02.17 23:00",
    "o": 117.778,
    "h": 117.806,
    "l": 117.758,
    "c": 117.766,
    "v": 1509
  },
  {
    "dt": "2021.02.18 00:00",
    "o": 117.774,
    "h": 117.825,
    "l": 117.72,
    "c": 117.8,
    "v": 682
  },
  {
    "dt": "2021.02.18 01:00",
    "o": 117.8,
    "h": 117.816,
    "l": 117.751,
    "c": 117.784,
    "v": 832
  },
  {
    "dt": "2021.02.18 02:00",
    "o": 117.788,
    "h": 117.851,
    "l": 117.665,
    "c": 117.711,
    "v": 2281
  },
  {
    "dt": "2021.02.18 03:00",
    "o": 117.713,
    "h": 117.763,
    "l": 117.697,
    "c": 117.706,
    "v": 2035
  },
  {
    "dt": "2021.02.18 04:00",
    "o": 117.706,
    "h": 117.79,
    "l": 117.696,
    "c": 117.77,
    "v": 1671
  },
  {
    "dt": "2021.02.18 05:00",
    "o": 117.773,
    "h": 117.791,
    "l": 117.748,
    "c": 117.765,
    "v": 1439
  },
  {
    "dt": "2021.02.18 06:00",
    "o": 117.765,
    "h": 117.769,
    "l": 117.723,
    "c": 117.752,
    "v": 1264
  },
  {
    "dt": "2021.02.18 07:00",
    "o": 117.752,
    "h": 117.818,
    "l": 117.747,
    "c": 117.783,
    "v": 1301
  },
  {
    "dt": "2021.02.18 08:00",
    "o": 117.783,
    "h": 117.833,
    "l": 117.76,
    "c": 117.791,
    "v": 1371
  },
  {
    "dt": "2021.02.18 09:00",
    "o": 117.786,
    "h": 117.806,
    "l": 117.715,
    "c": 117.72,
    "v": 2663
  },
  {
    "dt": "2021.02.18 10:00",
    "o": 117.723,
    "h": 117.928,
    "l": 117.721,
    "c": 117.897,
    "v": 3570
  },
  {
    "dt": "2021.02.18 11:00",
    "o": 117.893,
    "h": 117.94,
    "l": 117.812,
    "c": 117.877,
    "v": 2947
  },
  {
    "dt": "2021.02.18 12:00",
    "o": 117.873,
    "h": 117.887,
    "l": 117.769,
    "c": 117.788,
    "v": 2527
  },
  {
    "dt": "2021.02.18 13:00",
    "o": 117.788,
    "h": 117.813,
    "l": 117.717,
    "c": 117.805,
    "v": 2727
  },
  {
    "dt": "2021.02.18 14:00",
    "o": 117.806,
    "h": 117.897,
    "l": 117.785,
    "c": 117.879,
    "v": 2907
  },
  {
    "dt": "2021.02.18 15:00",
    "o": 117.88,
    "h": 117.937,
    "l": 117.856,
    "c": 117.883,
    "v": 3474
  },
  {
    "dt": "2021.02.18 16:00",
    "o": 117.888,
    "h": 117.985,
    "l": 117.874,
    "c": 117.959,
    "v": 4176
  },
  {
    "dt": "2021.02.18 17:00",
    "o": 117.954,
    "h": 117.973,
    "l": 117.855,
    "c": 117.86,
    "v": 4138
  },
  {
    "dt": "2021.02.18 18:00",
    "o": 117.859,
    "h": 117.93,
    "l": 117.829,
    "c": 117.845,
    "v": 3005
  },
  {
    "dt": "2021.02.18 19:00",
    "o": 117.844,
    "h": 117.909,
    "l": 117.826,
    "c": 117.853,
    "v": 2236
  },
  {
    "dt": "2021.02.18 20:00",
    "o": 117.854,
    "h": 117.901,
    "l": 117.853,
    "c": 117.877,
    "v": 1807
  },
  {
    "dt": "2021.02.18 21:00",
    "o": 117.878,
    "h": 117.895,
    "l": 117.845,
    "c": 117.889,
    "v": 1674
  },
  {
    "dt": "2021.02.18 22:00",
    "o": 117.887,
    "h": 117.928,
    "l": 117.865,
    "c": 117.928,
    "v": 1543
  },
  {
    "dt": "2021.02.18 23:00",
    "o": 117.924,
    "h": 117.948,
    "l": 117.913,
    "c": 117.913,
    "v": 1340
  },
  {
    "dt": "2021.02.19 00:00",
    "o": 117.964,
    "h": 117.964,
    "l": 117.876,
    "c": 117.913,
    "v": 431
  },
  {
    "dt": "2021.02.19 01:00",
    "o": 117.911,
    "h": 117.958,
    "l": 117.896,
    "c": 117.905,
    "v": 822
  },
  {
    "dt": "2021.02.19 02:00",
    "o": 117.903,
    "h": 117.977,
    "l": 117.898,
    "c": 117.936,
    "v": 1814
  },
  {
    "dt": "2021.02.19 03:00",
    "o": 117.936,
    "h": 117.97,
    "l": 117.858,
    "c": 117.897,
    "v": 1868
  },
  {
    "dt": "2021.02.19 04:00",
    "o": 117.895,
    "h": 117.904,
    "l": 117.816,
    "c": 117.856,
    "v": 1734
  },
  {
    "dt": "2021.02.19 05:00",
    "o": 117.855,
    "h": 117.864,
    "l": 117.817,
    "c": 117.85,
    "v": 1284
  },
  {
    "dt": "2021.02.19 06:00",
    "o": 117.846,
    "h": 117.874,
    "l": 117.788,
    "c": 117.809,
    "v": 1349
  },
  {
    "dt": "2021.02.19 07:00",
    "o": 117.809,
    "h": 117.817,
    "l": 117.757,
    "c": 117.791,
    "v": 1720
  },
  {
    "dt": "2021.02.19 08:00",
    "o": 117.788,
    "h": 117.882,
    "l": 117.764,
    "c": 117.871,
    "v": 1768
  },
  {
    "dt": "2021.02.19 09:00",
    "o": 117.871,
    "h": 117.947,
    "l": 117.85,
    "c": 117.938,
    "v": 2700
  },
  {
    "dt": "2021.02.19 10:00",
    "o": 117.938,
    "h": 117.969,
    "l": 117.808,
    "c": 117.838,
    "v": 3672
  },
  {
    "dt": "2021.02.19 11:00",
    "o": 117.844,
    "h": 117.928,
    "l": 117.834,
    "c": 117.847,
    "v": 3282
  },
  {
    "dt": "2021.02.19 12:00",
    "o": 117.846,
    "h": 117.917,
    "l": 117.845,
    "c": 117.864,
    "v": 2988
  },
  {
    "dt": "2021.02.19 13:00",
    "o": 117.864,
    "h": 117.877,
    "l": 117.774,
    "c": 117.795,
    "v": 2550
  },
  {
    "dt": "2021.02.19 14:00",
    "o": 117.794,
    "h": 117.86,
    "l": 117.682,
    "c": 117.727,
    "v": 2754
  },
  {
    "dt": "2021.02.19 15:00",
    "o": 117.729,
    "h": 117.862,
    "l": 117.706,
    "c": 117.833,
    "v": 3676
  },
  {
    "dt": "2021.02.19 16:00",
    "o": 117.834,
    "h": 117.872,
    "l": 117.758,
    "c": 117.863,
    "v": 3745
  },
  {
    "dt": "2021.02.19 17:00",
    "o": 117.863,
    "h": 118.069,
    "l": 117.84,
    "c": 117.989,
    "v": 3661
  },
  {
    "dt": "2021.02.19 18:00",
    "o": 117.985,
    "h": 118.019,
    "l": 117.889,
    "c": 117.984,
    "v": 2926
  },
  {
    "dt": "2021.02.19 19:00",
    "o": 117.985,
    "h": 117.991,
    "l": 117.621,
    "c": 117.651,
    "v": 2837
  },
  {
    "dt": "2021.02.19 20:00",
    "o": 117.645,
    "h": 117.742,
    "l": 117.645,
    "c": 117.651,
    "v": 2710
  },
  {
    "dt": "2021.02.19 21:00",
    "o": 117.651,
    "h": 117.672,
    "l": 117.605,
    "c": 117.623,
    "v": 1654
  },
  {
    "dt": "2021.02.19 22:00",
    "o": 117.625,
    "h": 117.645,
    "l": 117.583,
    "c": 117.604,
    "v": 1483
  },
  {
    "dt": "2021.02.19 23:00",
    "o": 117.597,
    "h": 117.615,
    "l": 117.552,
    "c": 117.552,
    "v": 1100
  },
  {
    "dt": "2021.02.22 00:00",
    "o": 117.479,
    "h": 117.712,
    "l": 117.479,
    "c": 117.679,
    "v": 311
  },
  {
    "dt": "2021.02.22 01:00",
    "o": 117.662,
    "h": 117.726,
    "l": 117.637,
    "c": 117.655,
    "v": 2017
  },
  {
    "dt": "2021.02.22 02:00",
    "o": 117.653,
    "h": 117.677,
    "l": 117.575,
    "c": 117.576,
    "v": 2296
  },
  {
    "dt": "2021.02.22 03:00",
    "o": 117.574,
    "h": 117.76,
    "l": 117.566,
    "c": 117.74,
    "v": 2344
  },
  {
    "dt": "2021.02.22 04:00",
    "o": 117.74,
    "h": 117.787,
    "l": 117.617,
    "c": 117.674,
    "v": 2812
  },
  {
    "dt": "2021.02.22 05:00",
    "o": 117.673,
    "h": 117.684,
    "l": 117.601,
    "c": 117.678,
    "v": 2022
  },
  {
    "dt": "2021.02.22 06:00",
    "o": 117.678,
    "h": 117.726,
    "l": 117.668,
    "c": 117.693,
    "v": 1823
  },
  {
    "dt": "2021.02.22 07:00",
    "o": 117.692,
    "h": 117.693,
    "l": 117.624,
    "c": 117.63,
    "v": 1724
  },
  {
    "dt": "2021.02.22 08:00",
    "o": 117.629,
    "h": 117.666,
    "l": 117.613,
    "c": 117.632,
    "v": 1274
  },
  {
    "dt": "2021.02.22 09:00",
    "o": 117.631,
    "h": 117.657,
    "l": 117.55,
    "c": 117.558,
    "v": 3408
  },
  {
    "dt": "2021.02.22 10:00",
    "o": 117.555,
    "h": 117.619,
    "l": 117.232,
    "c": 117.301,
    "v": 4033
  },
  {
    "dt": "2021.02.22 11:00",
    "o": 117.3,
    "h": 117.618,
    "l": 117.281,
    "c": 117.462,
    "v": 3672
  },
  {
    "dt": "2021.02.22 12:00",
    "o": 117.461,
    "h": 117.539,
    "l": 117.407,
    "c": 117.51,
    "v": 2595
  },
  {
    "dt": "2021.02.22 13:00",
    "o": 117.509,
    "h": 117.553,
    "l": 117.444,
    "c": 117.545,
    "v": 2998
  },
  {
    "dt": "2021.02.22 14:00",
    "o": 117.543,
    "h": 117.677,
    "l": 117.543,
    "c": 117.631,
    "v": 2948
  },
  {
    "dt": "2021.02.22 15:00",
    "o": 117.631,
    "h": 117.677,
    "l": 117.509,
    "c": 117.541,
    "v": 3796
  },
  {
    "dt": "2021.02.22 16:00",
    "o": 117.543,
    "h": 117.549,
    "l": 117.36,
    "c": 117.361,
    "v": 4330
  },
  {
    "dt": "2021.02.22 17:00",
    "o": 117.359,
    "h": 117.391,
    "l": 117.118,
    "c": 117.153,
    "v": 4427
  },
  {
    "dt": "2021.02.22 18:00",
    "o": 117.152,
    "h": 117.283,
    "l": 117.152,
    "c": 117.278,
    "v": 3271
  },
  {
    "dt": "2021.02.22 19:00",
    "o": 117.277,
    "h": 117.341,
    "l": 117.256,
    "c": 117.317,
    "v": 2601
  },
  {
    "dt": "2021.02.22 20:00",
    "o": 117.315,
    "h": 117.324,
    "l": 117.212,
    "c": 117.233,
    "v": 2011
  },
  {
    "dt": "2021.02.22 21:00",
    "o": 117.232,
    "h": 117.271,
    "l": 117.216,
    "c": 117.259,
    "v": 1919
  },
  {
    "dt": "2021.02.22 22:00",
    "o": 117.26,
    "h": 117.273,
    "l": 117.187,
    "c": 117.191,
    "v": 2080
  },
  {
    "dt": "2021.02.22 23:00",
    "o": 117.192,
    "h": 117.257,
    "l": 117.179,
    "c": 117.254,
    "v": 1095
  },
  {
    "dt": "2021.02.23 00:00",
    "o": 117.223,
    "h": 117.255,
    "l": 117.166,
    "c": 117.224,
    "v": 859
  },
  {
    "dt": "2021.02.23 01:00",
    "o": 117.225,
    "h": 117.241,
    "l": 117.14,
    "c": 117.202,
    "v": 1224
  },
  {
    "dt": "2021.02.23 02:00",
    "o": 117.2,
    "h": 117.236,
    "l": 117.172,
    "c": 117.188,
    "v": 1490
  },
  {
    "dt": "2021.02.23 03:00",
    "o": 117.188,
    "h": 117.261,
    "l": 117.174,
    "c": 117.245,
    "v": 2019
  },
  {
    "dt": "2021.02.23 04:00",
    "o": 117.244,
    "h": 117.273,
    "l": 117.223,
    "c": 117.27,
    "v": 1655
  },
  {
    "dt": "2021.02.23 05:00",
    "o": 117.271,
    "h": 117.279,
    "l": 117.229,
    "c": 117.237,
    "v": 1448
  },
  {
    "dt": "2021.02.23 06:00",
    "o": 117.237,
    "h": 117.277,
    "l": 117.226,
    "c": 117.244,
    "v": 1054
  },
  {
    "dt": "2021.02.23 07:00",
    "o": 117.25,
    "h": 117.27,
    "l": 117.216,
    "c": 117.267,
    "v": 1520
  },
  {
    "dt": "2021.02.23 08:00",
    "o": 117.266,
    "h": 117.32,
    "l": 117.266,
    "c": 117.298,
    "v": 1434
  },
  {
    "dt": "2021.02.23 09:00",
    "o": 117.302,
    "h": 117.4,
    "l": 117.278,
    "c": 117.296,
    "v": 2777
  },
  {
    "dt": "2021.02.23 10:00",
    "o": 117.293,
    "h": 117.335,
    "l": 116.963,
    "c": 117.029,
    "v": 3695
  },
  {
    "dt": "2021.02.23 11:00",
    "o": 117.027,
    "h": 117.028,
    "l": 116.808,
    "c": 117.012,
    "v": 3459
  },
  {
    "dt": "2021.02.23 12:00",
    "o": 117.015,
    "h": 117.015,
    "l": 116.836,
    "c": 116.842,
    "v": 2974
  },
  {
    "dt": "2021.02.23 13:00",
    "o": 116.841,
    "h": 116.958,
    "l": 116.811,
    "c": 116.887,
    "v": 2650
  },
  {
    "dt": "2021.02.23 14:00",
    "o": 116.886,
    "h": 116.94,
    "l": 116.851,
    "c": 116.881,
    "v": 2923
  },
  {
    "dt": "2021.02.23 15:00",
    "o": 116.879,
    "h": 117.036,
    "l": 116.866,
    "c": 117.007,
    "v": 3377
  },
  {
    "dt": "2021.02.23 16:00",
    "o": 117.005,
    "h": 117.09,
    "l": 116.738,
    "c": 116.818,
    "v": 3997
  },
  {
    "dt": "2021.02.23 17:00",
    "o": 116.822,
    "h": 116.889,
    "l": 116.718,
    "c": 116.737,
    "v": 4861
  },
  {
    "dt": "2021.02.23 18:00",
    "o": 116.737,
    "h": 116.795,
    "l": 116.553,
    "c": 116.591,
    "v": 3754
  },
  {
    "dt": "2021.02.23 19:00",
    "o": 116.591,
    "h": 116.599,
    "l": 116.415,
    "c": 116.422,
    "v": 3020
  },
  {
    "dt": "2021.02.23 20:00",
    "o": 116.422,
    "h": 116.462,
    "l": 116.393,
    "c": 116.457,
    "v": 2676
  },
  {
    "dt": "2021.02.23 21:00",
    "o": 116.457,
    "h": 116.489,
    "l": 116.293,
    "c": 116.309,
    "v": 2192
  },
  {
    "dt": "2021.02.23 22:00",
    "o": 116.311,
    "h": 116.329,
    "l": 116.276,
    "c": 116.307,
    "v": 1817
  },
  {
    "dt": "2021.02.23 23:00",
    "o": 116.307,
    "h": 116.309,
    "l": 116.226,
    "c": 116.256,
    "v": 1185
  },
  {
    "dt": "2021.02.24 00:00",
    "o": 116.384,
    "h": 116.384,
    "l": 116.212,
    "c": 116.242,
    "v": 629
  },
  {
    "dt": "2021.02.24 01:00",
    "o": 116.237,
    "h": 116.378,
    "l": 116.163,
    "c": 116.289,
    "v": 1508
  },
  {
    "dt": "2021.02.24 02:00",
    "o": 116.288,
    "h": 116.392,
    "l": 116.26,
    "c": 116.391,
    "v": 2310
  },
  {
    "dt": "2021.02.24 03:00",
    "o": 116.394,
    "h": 116.412,
    "l": 116.286,
    "c": 116.362,
    "v": 3553
  },
  {
    "dt": "2021.02.24 04:00",
    "o": 116.362,
    "h": 116.466,
    "l": 116.349,
    "c": 116.454,
    "v": 2461
  },
  {
    "dt": "2021.02.24 05:00",
    "o": 116.455,
    "h": 116.463,
    "l": 116.367,
    "c": 116.402,
    "v": 2280
  },
  {
    "dt": "2021.02.24 06:00",
    "o": 116.405,
    "h": 116.429,
    "l": 116.331,
    "c": 116.353,
    "v": 1958
  },
  {
    "dt": "2021.02.24 07:00",
    "o": 116.354,
    "h": 116.391,
    "l": 116.295,
    "c": 116.367,
    "v": 2044
  },
  {
    "dt": "2021.02.24 08:00",
    "o": 116.362,
    "h": 116.447,
    "l": 116.275,
    "c": 116.443,
    "v": 1964
  },
  {
    "dt": "2021.02.24 09:00",
    "o": 116.436,
    "h": 116.525,
    "l": 116.398,
    "c": 116.524,
    "v": 2998
  },
  {
    "dt": "2021.02.24 10:00",
    "o": 116.521,
    "h": 116.629,
    "l": 116.218,
    "c": 116.354,
    "v": 4175
  },
  {
    "dt": "2021.02.24 11:00",
    "o": 116.357,
    "h": 116.699,
    "l": 116.321,
    "c": 116.636,
    "v": 3867
  },
  {
    "dt": "2021.02.24 12:00",
    "o": 116.633,
    "h": 116.758,
    "l": 116.509,
    "c": 116.511,
    "v": 2996
  },
  {
    "dt": "2021.02.24 13:00",
    "o": 116.513,
    "h": 116.684,
    "l": 116.482,
    "c": 116.611,
    "v": 2972
  },
  {
    "dt": "2021.02.24 14:00",
    "o": 116.618,
    "h": 116.706,
    "l": 116.588,
    "c": 116.62,
    "v": 3124
  },
  {
    "dt": "2021.02.24 15:00",
    "o": 116.62,
    "h": 116.844,
    "l": 116.611,
    "c": 116.766,
    "v": 4607
  },
  {
    "dt": "2021.02.24 16:00",
    "o": 116.765,
    "h": 116.778,
    "l": 116.633,
    "c": 116.697,
    "v": 4653
  },
  {
    "dt": "2021.02.24 17:00",
    "o": 116.694,
    "h": 116.735,
    "l": 116.486,
    "c": 116.525,
    "v": 4847
  },
  {
    "dt": "2021.02.24 18:00",
    "o": 116.529,
    "h": 116.702,
    "l": 116.475,
    "c": 116.699,
    "v": 3996
  },
  {
    "dt": "2021.02.24 19:00",
    "o": 116.699,
    "h": 116.734,
    "l": 116.643,
    "c": 116.649,
    "v": 3048
  },
  {
    "dt": "2021.02.24 20:00",
    "o": 116.649,
    "h": 116.767,
    "l": 116.646,
    "c": 116.735,
    "v": 2691
  },
  {
    "dt": "2021.02.24 21:00",
    "o": 116.734,
    "h": 116.75,
    "l": 116.668,
    "c": 116.704,
    "v": 2455
  },
  {
    "dt": "2021.02.24 22:00",
    "o": 116.706,
    "h": 116.775,
    "l": 116.706,
    "c": 116.724,
    "v": 2533
  },
  {
    "dt": "2021.02.24 23:00",
    "o": 116.724,
    "h": 116.79,
    "l": 116.7,
    "c": 116.736,
    "v": 1797
  },
  {
    "dt": "2021.02.25 00:00",
    "o": 116.745,
    "h": 116.758,
    "l": 116.662,
    "c": 116.718,
    "v": 1020
  },
  {
    "dt": "2021.02.25 01:00",
    "o": 116.718,
    "h": 116.851,
    "l": 116.703,
    "c": 116.837,
    "v": 2294
  },
  {
    "dt": "2021.02.25 02:00",
    "o": 116.839,
    "h": 116.914,
    "l": 116.798,
    "c": 116.894,
    "v": 2323
  },
  {
    "dt": "2021.02.25 03:00",
    "o": 116.898,
    "h": 116.987,
    "l": 116.853,
    "c": 116.928,
    "v": 2928
  },
  {
    "dt": "2021.02.25 04:00",
    "o": 116.929,
    "h": 116.968,
    "l": 116.883,
    "c": 116.928,
    "v": 2247
  },
  {
    "dt": "2021.02.25 05:00",
    "o": 116.928,
    "h": 116.949,
    "l": 116.865,
    "c": 116.883,
    "v": 1902
  },
  {
    "dt": "2021.02.25 06:00",
    "o": 116.883,
    "h": 116.9,
    "l": 116.797,
    "c": 116.844,
    "v": 2064
  },
  {
    "dt": "2021.02.25 07:00",
    "o": 116.845,
    "h": 116.884,
    "l": 116.827,
    "c": 116.843,
    "v": 2290
  },
  {
    "dt": "2021.02.25 08:00",
    "o": 116.85,
    "h": 116.955,
    "l": 116.848,
    "c": 116.885,
    "v": 1983
  },
  {
    "dt": "2021.02.25 09:00",
    "o": 116.88,
    "h": 117.043,
    "l": 116.855,
    "c": 117.014,
    "v": 3274
  },
  {
    "dt": "2021.02.25 10:00",
    "o": 117.012,
    "h": 117.353,
    "l": 117.012,
    "c": 117.348,
    "v": 3623
  },
  {
    "dt": "2021.02.25 11:00",
    "o": 117.346,
    "h": 117.378,
    "l": 116.997,
    "c": 117.021,
    "v": 3787
  },
  {
    "dt": "2021.02.25 12:00",
    "o": 117.018,
    "h": 117.205,
    "l": 116.8,
    "c": 117.125,
    "v": 3595
  },
  {
    "dt": "2021.02.25 13:00",
    "o": 117.127,
    "h": 117.28,
    "l": 117.108,
    "c": 117.145,
    "v": 3607
  },
  {
    "dt": "2021.02.25 14:00",
    "o": 117.146,
    "h": 117.188,
    "l": 117.087,
    "c": 117.115,
    "v": 3460
  },
  {
    "dt": "2021.02.25 15:00",
    "o": 117.118,
    "h": 117.173,
    "l": 117.023,
    "c": 117.067,
    "v": 4347
  },
  {
    "dt": "2021.02.25 16:00",
    "o": 117.066,
    "h": 117.38,
    "l": 116.999,
    "c": 117.36,
    "v": 4815
  },
  {
    "dt": "2021.02.25 17:00",
    "o": 117.358,
    "h": 117.636,
    "l": 117.303,
    "c": 117.592,
    "v": 5079
  },
  {
    "dt": "2021.02.25 18:00",
    "o": 117.583,
    "h": 117.645,
    "l": 117.501,
    "c": 117.574,
    "v": 4278
  },
  {
    "dt": "2021.02.25 19:00",
    "o": 117.575,
    "h": 117.614,
    "l": 117.455,
    "c": 117.501,
    "v": 4361
  },
  {
    "dt": "2021.02.25 20:00",
    "o": 117.499,
    "h": 117.513,
    "l": 117.074,
    "c": 117.178,
    "v": 5528
  },
  {
    "dt": "2021.02.25 21:00",
    "o": 117.181,
    "h": 117.38,
    "l": 117.165,
    "c": 117.375,
    "v": 4279
  },
  {
    "dt": "2021.02.25 22:00",
    "o": 117.371,
    "h": 117.379,
    "l": 117.23,
    "c": 117.23,
    "v": 4126
  },
  {
    "dt": "2021.02.25 23:00",
    "o": 117.231,
    "h": 117.42,
    "l": 117.228,
    "c": 117.407,
    "v": 2264
  },
  {
    "dt": "2021.02.26 00:00",
    "o": 117.349,
    "h": 117.457,
    "l": 117.222,
    "c": 117.411,
    "v": 1416
  },
  {
    "dt": "2021.02.26 01:00",
    "o": 117.433,
    "h": 117.528,
    "l": 117.356,
    "c": 117.444,
    "v": 2901
  },
  {
    "dt": "2021.02.26 02:00",
    "o": 117.445,
    "h": 117.489,
    "l": 117.156,
    "c": 117.341,
    "v": 4477
  },
  {
    "dt": "2021.02.26 03:00",
    "o": 117.341,
    "h": 117.364,
    "l": 117.224,
    "c": 117.227,
    "v": 3707
  },
  {
    "dt": "2021.02.26 04:00",
    "o": 117.235,
    "h": 117.249,
    "l": 117.02,
    "c": 117.113,
    "v": 3378
  },
  {
    "dt": "2021.02.26 05:00",
    "o": 117.115,
    "h": 117.176,
    "l": 117.075,
    "c": 117.145,
    "v": 2721
  },
  {
    "dt": "2021.02.26 06:00",
    "o": 117.144,
    "h": 117.201,
    "l": 117.066,
    "c": 117.151,
    "v": 3210
  },
  {
    "dt": "2021.02.26 07:00",
    "o": 117.151,
    "h": 117.269,
    "l": 117.139,
    "c": 117.241,
    "v": 3360
  },
  {
    "dt": "2021.02.26 08:00",
    "o": 117.245,
    "h": 117.351,
    "l": 117.218,
    "c": 117.24,
    "v": 2845
  },
  {
    "dt": "2021.02.26 09:00",
    "o": 117.241,
    "h": 117.324,
    "l": 117.104,
    "c": 117.272,
    "v": 4687
  },
  {
    "dt": "2021.02.26 10:00",
    "o": 117.271,
    "h": 117.356,
    "l": 117.167,
    "c": 117.353,
    "v": 4461
  },
  {
    "dt": "2021.02.26 11:00",
    "o": 117.351,
    "h": 117.776,
    "l": 117.318,
    "c": 117.758,
    "v": 4096
  },
  {
    "dt": "2021.02.26 12:00",
    "o": 117.754,
    "h": 117.754,
    "l": 117.419,
    "c": 117.493,
    "v": 3815
  },
  {
    "dt": "2021.02.26 13:00",
    "o": 117.492,
    "h": 117.517,
    "l": 117.323,
    "c": 117.336,
    "v": 4382
  },
  {
    "dt": "2021.02.26 14:00",
    "o": 117.338,
    "h": 117.377,
    "l": 117.206,
    "c": 117.231,
    "v": 4374
  },
  {
    "dt": "2021.02.26 15:00",
    "o": 117.234,
    "h": 117.344,
    "l": 117.194,
    "c": 117.327,
    "v": 4574
  },
  {
    "dt": "2021.02.26 16:00",
    "o": 117.325,
    "h": 117.602,
    "l": 117.319,
    "c": 117.512,
    "v": 4885
  },
  {
    "dt": "2021.02.26 17:00",
    "o": 117.51,
    "h": 117.734,
    "l": 117.322,
    "c": 117.66,
    "v": 5621
  },
  {
    "dt": "2021.02.26 18:00",
    "o": 117.663,
    "h": 117.772,
    "l": 117.256,
    "c": 117.268,
    "v": 4932
  },
  {
    "dt": "2021.02.26 19:00",
    "o": 117.266,
    "h": 117.289,
    "l": 117.151,
    "c": 117.201,
    "v": 3597
  },
  {
    "dt": "2021.02.26 20:00",
    "o": 117.201,
    "h": 117.231,
    "l": 117.136,
    "c": 117.188,
    "v": 3407
  },
  {
    "dt": "2021.02.26 21:00",
    "o": 117.188,
    "h": 117.294,
    "l": 117.132,
    "c": 117.275,
    "v": 2837
  },
  {
    "dt": "2021.02.26 22:00",
    "o": 117.274,
    "h": 117.277,
    "l": 117.103,
    "c": 117.16,
    "v": 2771
  },
  {
    "dt": "2021.02.26 23:00",
    "o": 117.149,
    "h": 117.271,
    "l": 117.131,
    "c": 117.221,
    "v": 2180
  }
]