[
  {
    "dt": "2021.06.01 00:00",
    "o": 121.839,
    "h": 121.864,
    "l": 121.822,
    "c": 121.861,
    "v": 93
  },
  {
    "dt": "2021.06.01 01:00",
    "o": 121.871,
    "h": 121.948,
    "l": 121.837,
    "c": 121.895,
    "v": 581
  },
  {
    "dt": "2021.06.01 02:00",
    "o": 121.895,
    "h": 121.901,
    "l": 121.853,
    "c": 121.853,
    "v": 664
  },
  {
    "dt": "2021.06.01 03:00",
    "o": 121.857,
    "h": 121.911,
    "l": 121.724,
    "c": 121.755,
    "v": 2161
  },
  {
    "dt": "2021.06.01 04:00",
    "o": 121.756,
    "h": 121.78,
    "l": 121.691,
    "c": 121.751,
    "v": 2535
  },
  {
    "dt": "2021.06.01 05:00",
    "o": 121.749,
    "h": 121.793,
    "l": 121.724,
    "c": 121.745,
    "v": 1830
  },
  {
    "dt": "2021.06.01 06:00",
    "o": 121.745,
    "h": 121.834,
    "l": 121.745,
    "c": 121.774,
    "v": 1257
  },
  {
    "dt": "2021.06.01 07:00",
    "o": 121.773,
    "h": 121.816,
    "l": 121.765,
    "c": 121.807,
    "v": 1249
  },
  {
    "dt": "2021.06.01 08:00",
    "o": 121.805,
    "h": 121.816,
    "l": 121.723,
    "c": 121.727,
    "v": 1530
  },
  {
    "dt": "2021.06.01 09:00",
    "o": 121.727,
    "h": 121.859,
    "l": 121.673,
    "c": 121.837,
    "v": 2645
  },
  {
    "dt": "2021.06.01 10:00",
    "o": 121.832,
    "h": 121.917,
    "l": 121.791,
    "c": 121.885,
    "v": 3362
  },
  {
    "dt": "2021.06.01 11:00",
    "o": 121.884,
    "h": 121.924,
    "l": 121.81,
    "c": 121.895,
    "v": 3604
  },
  {
    "dt": "2021.06.01 12:00",
    "o": 121.895,
    "h": 121.955,
    "l": 121.839,
    "c": 121.895,
    "v": 2713
  },
  {
    "dt": "2021.06.01 13:00",
    "o": 121.894,
    "h": 121.953,
    "l": 121.817,
    "c": 121.836,
    "v": 2489
  },
  {
    "dt": "2021.06.01 14:00",
    "o": 121.839,
    "h": 122.001,
    "l": 121.814,
    "c": 121.982,
    "v": 2285
  },
  {
    "dt": "2021.06.01 15:00",
    "o": 121.984,
    "h": 122.046,
    "l": 121.935,
    "c": 122.011,
    "v": 3024
  },
  {
    "dt": "2021.06.01 16:00",
    "o": 122.008,
    "h": 122.09,
    "l": 121.936,
    "c": 121.998,
    "v": 3883
  },
  {
    "dt": "2021.06.01 17:00",
    "o": 122.008,
    "h": 122.223,
    "l": 122.008,
    "c": 122.171,
    "v": 4522
  },
  {
    "dt": "2021.06.01 18:00",
    "o": 122.17,
    "h": 122.253,
    "l": 122.157,
    "c": 122.197,
    "v": 2889
  },
  {
    "dt": "2021.06.01 19:00",
    "o": 122.196,
    "h": 122.23,
    "l": 122.104,
    "c": 122.108,
    "v": 2183
  },
  {
    "dt": "2021.06.01 20:00",
    "o": 122.106,
    "h": 122.106,
    "l": 122.011,
    "c": 122.024,
    "v": 1665
  },
  {
    "dt": "2021.06.01 21:00",
    "o": 122.022,
    "h": 122.036,
    "l": 121.999,
    "c": 122.014,
    "v": 1452
  },
  {
    "dt": "2021.06.01 22:00",
    "o": 122.008,
    "h": 122.055,
    "l": 121.992,
    "c": 122.049,
    "v": 1655
  },
  {
    "dt": "2021.06.01 23:00",
    "o": 122.056,
    "h": 122.064,
    "l": 121.97,
    "c": 122.06,
    "v": 1017
  },
  {
    "dt": "2021.06.02 00:00",
    "o": 122.064,
    "h": 122.072,
    "l": 121.883,
    "c": 121.921,
    "v": 785
  },
  {
    "dt": "2021.06.02 01:00",
    "o": 121.924,
    "h": 121.996,
    "l": 121.924,
    "c": 121.984,
    "v": 402
  },
  {
    "dt": "2021.06.02 02:00",
    "o": 121.982,
    "h": 122.041,
    "l": 121.972,
    "c": 122.04,
    "v": 727
  },
  {
    "dt": "2021.06.02 03:00",
    "o": 122.039,
    "h": 122.203,
    "l": 122.023,
    "c": 122.183,
    "v": 2326
  },
  {
    "dt": "2021.06.02 04:00",
    "o": 122.184,
    "h": 122.226,
    "l": 122.138,
    "c": 122.142,
    "v": 1970
  },
  {
    "dt": "2021.06.02 05:00",
    "o": 122.142,
    "h": 122.196,
    "l": 122.109,
    "c": 122.172,
    "v": 1498
  },
  {
    "dt": "2021.06.02 06:00",
    "o": 122.173,
    "h": 122.208,
    "l": 122.147,
    "c": 122.182,
    "v": 1448
  },
  {
    "dt": "2021.06.02 07:00",
    "o": 122.181,
    "h": 122.221,
    "l": 122.137,
    "c": 122.204,
    "v": 1642
  },
  {
    "dt": "2021.06.02 08:00",
    "o": 122.208,
    "h": 122.247,
    "l": 122.172,
    "c": 122.219,
    "v": 1505
  },
  {
    "dt": "2021.06.02 09:00",
    "o": 122.213,
    "h": 122.26,
    "l": 122.158,
    "c": 122.193,
    "v": 2616
  },
  {
    "dt": "2021.06.02 10:00",
    "o": 122.188,
    "h": 122.305,
    "l": 122.127,
    "c": 122.151,
    "v": 3399
  },
  {
    "dt": "2021.06.02 11:00",
    "o": 122.149,
    "h": 122.175,
    "l": 121.919,
    "c": 121.978,
    "v": 3469
  },
  {
    "dt": "2021.06.02 12:00",
    "o": 121.974,
    "h": 121.985,
    "l": 121.757,
    "c": 121.832,
    "v": 2990
  },
  {
    "dt": "2021.06.02 13:00",
    "o": 121.832,
    "h": 121.861,
    "l": 121.75,
    "c": 121.775,
    "v": 2721
  },
  {
    "dt": "2021.06.02 14:00",
    "o": 121.777,
    "h": 121.819,
    "l": 121.728,
    "c": 121.79,
    "v": 2904
  },
  {
    "dt": "2021.06.02 15:00",
    "o": 121.787,
    "h": 121.844,
    "l": 121.729,
    "c": 121.783,
    "v": 3381
  },
  {
    "dt": "2021.06.02 16:00",
    "o": 121.783,
    "h": 121.995,
    "l": 121.78,
    "c": 121.987,
    "v": 3289
  },
  {
    "dt": "2021.06.02 17:00",
    "o": 121.987,
    "h": 122.015,
    "l": 121.895,
    "c": 121.995,
    "v": 2989
  },
  {
    "dt": "2021.06.02 18:00",
    "o": 121.995,
    "h": 122.048,
    "l": 121.935,
    "c": 122.028,
    "v": 2728
  },
  {
    "dt": "2021.06.02 19:00",
    "o": 122.028,
    "h": 122.046,
    "l": 121.965,
    "c": 122.021,
    "v": 1718
  },
  {
    "dt": "2021.06.02 20:00",
    "o": 122.021,
    "h": 122.029,
    "l": 121.954,
    "c": 121.954,
    "v": 1263
  },
  {
    "dt": "2021.06.02 21:00",
    "o": 121.955,
    "h": 122.013,
    "l": 121.949,
    "c": 122.002,
    "v": 1714
  },
  {
    "dt": "2021.06.02 22:00",
    "o": 122.005,
    "h": 122.02,
    "l": 121.974,
    "c": 121.993,
    "v": 1275
  },
  {
    "dt": "2021.06.02 23:00",
    "o": 121.995,
    "h": 122.012,
    "l": 121.946,
    "c": 121.955,
    "v": 979
  },
  {
    "dt": "2021.06.03 00:00",
    "o": 121.948,
    "h": 122.006,
    "l": 121.939,
    "c": 121.977,
    "v": 268
  },
  {
    "dt": "2021.06.03 01:00",
    "o": 121.973,
    "h": 122.015,
    "l": 121.973,
    "c": 121.996,
    "v": 443
  },
  {
    "dt": "2021.06.03 02:00",
    "o": 121.998,
    "h": 122.023,
    "l": 121.987,
    "c": 121.996,
    "v": 582
  },
  {
    "dt": "2021.06.03 03:00",
    "o": 121.995,
    "h": 122.069,
    "l": 121.985,
    "c": 122.047,
    "v": 1337
  },
  {
    "dt": "2021.06.03 04:00",
    "o": 122.046,
    "h": 122.095,
    "l": 122.027,
    "c": 122.053,
    "v": 1305
  },
  {
    "dt": "2021.06.03 05:00",
    "o": 122.054,
    "h": 122.094,
    "l": 122.048,
    "c": 122.085,
    "v": 1336
  },
  {
    "dt": "2021.06.03 06:00",
    "o": 122.084,
    "h": 122.097,
    "l": 122.052,
    "c": 122.076,
    "v": 1080
  },
  {
    "dt": "2021.06.03 07:00",
    "o": 122.078,
    "h": 122.127,
    "l": 122.075,
    "c": 122.11,
    "v": 990
  },
  {
    "dt": "2021.06.03 08:00",
    "o": 122.104,
    "h": 122.124,
    "l": 122.064,
    "c": 122.11,
    "v": 1244
  },
  {
    "dt": "2021.06.03 09:00",
    "o": 122.109,
    "h": 122.125,
    "l": 121.977,
    "c": 121.983,
    "v": 2191
  },
  {
    "dt": "2021.06.03 10:00",
    "o": 121.983,
    "h": 122.012,
    "l": 121.854,
    "c": 121.96,
    "v": 2782
  },
  {
    "dt": "2021.06.03 11:00",
    "o": 121.96,
    "h": 122.023,
    "l": 121.931,
    "c": 121.94,
    "v": 2602
  },
  {
    "dt": "2021.06.03 12:00",
    "o": 121.94,
    "h": 122.027,
    "l": 121.908,
    "c": 121.982,
    "v": 2018
  },
  {
    "dt": "2021.06.03 13:00",
    "o": 121.981,
    "h": 122.016,
    "l": 121.946,
    "c": 121.967,
    "v": 2913
  },
  {
    "dt": "2021.06.03 14:00",
    "o": 121.97,
    "h": 122.103,
    "l": 121.967,
    "c": 122.079,
    "v": 2851
  },
  {
    "dt": "2021.06.03 15:00",
    "o": 122.079,
    "h": 122.114,
    "l": 121.905,
    "c": 121.924,
    "v": 4486
  },
  {
    "dt": "2021.06.03 16:00",
    "o": 121.923,
    "h": 121.996,
    "l": 121.884,
    "c": 121.896,
    "v": 4419
  },
  {
    "dt": "2021.06.03 17:00",
    "o": 121.894,
    "h": 121.911,
    "l": 121.746,
    "c": 121.818,
    "v": 4168
  },
  {
    "dt": "2021.06.03 18:00",
    "o": 121.821,
    "h": 121.89,
    "l": 121.792,
    "c": 121.838,
    "v": 2971
  },
  {
    "dt": "2021.06.03 19:00",
    "o": 121.841,
    "h": 121.907,
    "l": 121.82,
    "c": 121.878,
    "v": 2144
  },
  {
    "dt": "2021.06.03 20:00",
    "o": 121.878,
    "h": 121.952,
    "l": 121.86,
    "c": 121.921,
    "v": 1907
  },
  {
    "dt": "2021.06.03 21:00",
    "o": 121.924,
    "h": 121.993,
    "l": 121.884,
    "c": 121.993,
    "v": 1608
  },
  {
    "dt": "2021.06.03 22:00",
    "o": 121.994,
    "h": 122.061,
    "l": 121.951,
    "c": 122.05,
    "v": 1601
  },
  {
    "dt": "2021.06.03 23:00",
    "o": 122.05,
    "h": 122.096,
    "l": 121.966,
    "c": 121.966,
    "v": 1080
  },
  {
    "dt": "2021.06.04 00:00",
    "o": 121.996,
    "h": 122.048,
    "l": 121.986,
    "c": 122.045,
    "v": 120
  },
  {
    "dt": "2021.06.04 01:00",
    "o": 122.051,
    "h": 122.094,
    "l": 122.039,
    "c": 122.048,
    "v": 754
  },
  {
    "dt": "2021.06.04 02:00",
    "o": 122.048,
    "h": 122.065,
    "l": 122.012,
    "c": 122.054,
    "v": 579
  },
  {
    "dt": "2021.06.04 03:00",
    "o": 122.054,
    "h": 122.064,
    "l": 121.934,
    "c": 121.948,
    "v": 2039
  },
  {
    "dt": "2021.06.04 04:00",
    "o": 121.951,
    "h": 121.952,
    "l": 121.873,
    "c": 121.926,
    "v": 1867
  },
  {
    "dt": "2021.06.04 05:00",
    "o": 121.931,
    "h": 121.935,
    "l": 121.834,
    "c": 121.844,
    "v": 1654
  },
  {
    "dt": "2021.06.04 06:00",
    "o": 121.845,
    "h": 121.891,
    "l": 121.838,
    "c": 121.866,
    "v": 1302
  },
  {
    "dt": "2021.06.04 07:00",
    "o": 121.867,
    "h": 121.9,
    "l": 121.845,
    "c": 121.885,
    "v": 1409
  },
  {
    "dt": "2021.06.04 08:00",
    "o": 121.884,
    "h": 121.9,
    "l": 121.809,
    "c": 121.845,
    "v": 1513
  },
  {
    "dt": "2021.06.04 09:00",
    "o": 121.844,
    "h": 121.854,
    "l": 121.786,
    "c": 121.827,
    "v": 2432
  },
  {
    "dt": "2021.06.04 10:00",
    "o": 121.827,
    "h": 121.845,
    "l": 121.727,
    "c": 121.734,
    "v": 2747
  },
  {
    "dt": "2021.06.04 11:00",
    "o": 121.73,
    "h": 121.807,
    "l": 121.681,
    "c": 121.773,
    "v": 2593
  },
  {
    "dt": "2021.06.04 12:00",
    "o": 121.774,
    "h": 121.821,
    "l": 121.741,
    "c": 121.767,
    "v": 2350
  },
  {
    "dt": "2021.06.04 13:00",
    "o": 121.763,
    "h": 121.779,
    "l": 121.709,
    "c": 121.735,
    "v": 1997
  },
  {
    "dt": "2021.06.04 14:00",
    "o": 121.737,
    "h": 121.79,
    "l": 121.725,
    "c": 121.753,
    "v": 2193
  },
  {
    "dt": "2021.06.04 15:00",
    "o": 121.753,
    "h": 122.082,
    "l": 121.732,
    "c": 122.027,
    "v": 4517
  },
  {
    "dt": "2021.06.04 16:00",
    "o": 122.026,
    "h": 122.034,
    "l": 121.836,
    "c": 121.88,
    "v": 4416
  },
  {
    "dt": "2021.06.04 17:00",
    "o": 121.881,
    "h": 121.881,
    "l": 121.649,
    "c": 121.744,
    "v": 4139
  },
  {
    "dt": "2021.06.04 18:00",
    "o": 121.743,
    "h": 121.792,
    "l": 121.659,
    "c": 121.699,
    "v": 3143
  },
  {
    "dt": "2021.06.04 19:00",
    "o": 121.7,
    "h": 121.744,
    "l": 121.685,
    "c": 121.705,
    "v": 2219
  },
  {
    "dt": "2021.06.04 20:00",
    "o": 121.712,
    "h": 121.767,
    "l": 121.696,
    "c": 121.748,
    "v": 1539
  },
  {
    "dt": "2021.06.04 21:00",
    "o": 121.75,
    "h": 121.809,
    "l": 121.75,
    "c": 121.765,
    "v": 1536
  },
  {
    "dt": "2021.06.04 22:00",
    "o": 121.765,
    "h": 121.842,
    "l": 121.765,
    "c": 121.833,
    "v": 1445
  },
  {
    "dt": "2021.06.04 23:00",
    "o": 121.83,
    "h": 121.842,
    "l": 121.762,
    "c": 121.763,
    "v": 880
  },
  {
    "dt": "2021.06.07 00:00",
    "o": 121.728,
    "h": 121.751,
    "l": 121.592,
    "c": 121.687,
    "v": 88
  },
  {
    "dt": "2021.06.07 01:00",
    "o": 121.657,
    "h": 121.848,
    "l": 121.65,
    "c": 121.844,
    "v": 1044
  },
  {
    "dt": "2021.06.07 02:00",
    "o": 121.847,
    "h": 121.895,
    "l": 121.825,
    "c": 121.877,
    "v": 623
  },
  {
    "dt": "2021.06.07 03:00",
    "o": 121.876,
    "h": 121.89,
    "l": 121.761,
    "c": 121.838,
    "v": 1979
  },
  {
    "dt": "2021.06.07 04:00",
    "o": 121.84,
    "h": 121.852,
    "l": 121.783,
    "c": 121.812,
    "v": 1621
  },
  {
    "dt": "2021.06.07 05:00",
    "o": 121.813,
    "h": 121.851,
    "l": 121.751,
    "c": 121.808,
    "v": 2002
  },
  {
    "dt": "2021.06.07 06:00",
    "o": 121.808,
    "h": 121.854,
    "l": 121.799,
    "c": 121.849,
    "v": 1567
  },
  {
    "dt": "2021.06.07 07:00",
    "o": 121.85,
    "h": 121.85,
    "l": 121.668,
    "c": 121.704,
    "v": 1646
  },
  {
    "dt": "2021.06.07 08:00",
    "o": 121.709,
    "h": 121.744,
    "l": 121.701,
    "c": 121.711,
    "v": 1392
  },
  {
    "dt": "2021.06.07 09:00",
    "o": 121.713,
    "h": 121.728,
    "l": 121.568,
    "c": 121.632,
    "v": 2248
  },
  {
    "dt": "2021.06.07 10:00",
    "o": 121.632,
    "h": 121.78,
    "l": 121.575,
    "c": 121.682,
    "v": 2548
  },
  {
    "dt": "2021.06.07 11:00",
    "o": 121.683,
    "h": 121.694,
    "l": 121.583,
    "c": 121.587,
    "v": 2553
  },
  {
    "dt": "2021.06.07 12:00",
    "o": 121.588,
    "h": 121.694,
    "l": 121.551,
    "c": 121.653,
    "v": 1857
  },
  {
    "dt": "2021.06.07 13:00",
    "o": 121.651,
    "h": 121.656,
    "l": 121.596,
    "c": 121.621,
    "v": 1862
  },
  {
    "dt": "2021.06.07 14:00",
    "o": 121.619,
    "h": 121.676,
    "l": 121.562,
    "c": 121.595,
    "v": 2457
  },
  {
    "dt": "2021.06.07 15:00",
    "o": 121.598,
    "h": 121.612,
    "l": 121.503,
    "c": 121.519,
    "v": 2418
  },
  {
    "dt": "2021.06.07 16:00",
    "o": 121.522,
    "h": 121.648,
    "l": 121.459,
    "c": 121.604,
    "v": 3263
  },
  {
    "dt": "2021.06.07 17:00",
    "o": 121.604,
    "h": 121.711,
    "l": 121.581,
    "c": 121.687,
    "v": 3008
  },
  {
    "dt": "2021.06.07 18:00",
    "o": 121.696,
    "h": 121.793,
    "l": 121.69,
    "c": 121.79,
    "v": 2410
  },
  {
    "dt": "2021.06.07 19:00",
    "o": 121.792,
    "h": 121.825,
    "l": 121.773,
    "c": 121.786,
    "v": 1505
  },
  {
    "dt": "2021.06.07 20:00",
    "o": 121.79,
    "h": 121.79,
    "l": 121.708,
    "c": 121.757,
    "v": 1258
  },
  {
    "dt": "2021.06.07 21:00",
    "o": 121.753,
    "h": 121.785,
    "l": 121.741,
    "c": 121.779,
    "v": 1012
  },
  {
    "dt": "2021.06.07 22:00",
    "o": 121.777,
    "h": 121.784,
    "l": 121.73,
    "c": 121.742,
    "v": 830
  },
  {
    "dt": "2021.06.07 23:00",
    "o": 121.74,
    "h": 121.766,
    "l": 121.644,
    "c": 121.644,
    "v": 772
  },
  {
    "dt": "2021.06.08 00:00",
    "o": 121.491,
    "h": 121.705,
    "l": 121.491,
    "c": 121.642,
    "v": 280
  },
  {
    "dt": "2021.06.08 01:00",
    "o": 121.647,
    "h": 121.733,
    "l": 121.647,
    "c": 121.71,
    "v": 744
  },
  {
    "dt": "2021.06.08 02:00",
    "o": 121.711,
    "h": 121.731,
    "l": 121.701,
    "c": 121.707,
    "v": 773
  },
  {
    "dt": "2021.06.08 03:00",
    "o": 121.706,
    "h": 121.853,
    "l": 121.662,
    "c": 121.811,
    "v": 2023
  },
  {
    "dt": "2021.06.08 04:00",
    "o": 121.812,
    "h": 121.898,
    "l": 121.802,
    "c": 121.872,
    "v": 1674
  },
  {
    "dt": "2021.06.08 05:00",
    "o": 121.872,
    "h": 121.901,
    "l": 121.815,
    "c": 121.836,
    "v": 1747
  },
  {
    "dt": "2021.06.08 06:00",
    "o": 121.835,
    "h": 121.862,
    "l": 121.822,
    "c": 121.85,
    "v": 1594
  },
  {
    "dt": "2021.06.08 07:00",
    "o": 121.85,
    "h": 121.863,
    "l": 121.815,
    "c": 121.845,
    "v": 995
  },
  {
    "dt": "2021.06.08 08:00",
    "o": 121.848,
    "h": 121.892,
    "l": 121.848,
    "c": 121.891,
    "v": 1065
  },
  {
    "dt": "2021.06.08 09:00",
    "o": 121.884,
    "h": 121.912,
    "l": 121.83,
    "c": 121.834,
    "v": 1885
  },
  {
    "dt": "2021.06.08 10:00",
    "o": 121.848,
    "h": 121.939,
    "l": 121.813,
    "c": 121.926,
    "v": 2889
  },
  {
    "dt": "2021.06.08 11:00",
    "o": 121.926,
    "h": 122.098,
    "l": 121.895,
    "c": 122.043,
    "v": 2563
  },
  {
    "dt": "2021.06.08 12:00",
    "o": 122.05,
    "h": 122.136,
    "l": 122.039,
    "c": 122.099,
    "v": 2284
  },
  {
    "dt": "2021.06.08 13:00",
    "o": 122.106,
    "h": 122.155,
    "l": 122.021,
    "c": 122.109,
    "v": 2968
  },
  {
    "dt": "2021.06.08 14:00",
    "o": 122.108,
    "h": 122.138,
    "l": 122.068,
    "c": 122.072,
    "v": 2464
  },
  {
    "dt": "2021.06.08 15:00",
    "o": 122.074,
    "h": 122.1,
    "l": 121.996,
    "c": 122.034,
    "v": 3586
  },
  {
    "dt": "2021.06.08 16:00",
    "o": 122.032,
    "h": 122.152,
    "l": 121.958,
    "c": 122.09,
    "v": 3540
  },
  {
    "dt": "2021.06.08 17:00",
    "o": 122.095,
    "h": 122.169,
    "l": 122.057,
    "c": 122.117,
    "v": 3523
  },
  {
    "dt": "2021.06.08 18:00",
    "o": 122.114,
    "h": 122.161,
    "l": 122.084,
    "c": 122.107,
    "v": 2572
  },
  {
    "dt": "2021.06.08 19:00",
    "o": 122.106,
    "h": 122.134,
    "l": 122.075,
    "c": 122.093,
    "v": 1583
  },
  {
    "dt": "2021.06.08 20:00",
    "o": 122.098,
    "h": 122.109,
    "l": 122.041,
    "c": 122.079,
    "v": 1368
  },
  {
    "dt": "2021.06.08 21:00",
    "o": 122.079,
    "h": 122.154,
    "l": 122.067,
    "c": 122.149,
    "v": 1271
  },
  {
    "dt": "2021.06.08 22:00",
    "o": 122.148,
    "h": 122.148,
    "l": 122.04,
    "c": 122.06,
    "v": 1466
  },
  {
    "dt": "2021.06.08 23:00",
    "o": 122.058,
    "h": 122.091,
    "l": 122.031,
    "c": 122.031,
    "v": 773
  },
  {
    "dt": "2021.06.09 00:00",
    "o": 122.021,
    "h": 122.084,
    "l": 122.021,
    "c": 122.053,
    "v": 136
  },
  {
    "dt": "2021.06.09 01:00",
    "o": 122.054,
    "h": 122.087,
    "l": 122.043,
    "c": 122.069,
    "v": 425
  },
  {
    "dt": "2021.06.09 02:00",
    "o": 122.071,
    "h": 122.073,
    "l": 122.031,
    "c": 122.034,
    "v": 609
  },
  {
    "dt": "2021.06.09 03:00",
    "o": 122.036,
    "h": 122.083,
    "l": 121.995,
    "c": 122.035,
    "v": 1797
  },
  {
    "dt": "2021.06.09 04:00",
    "o": 122.032,
    "h": 122.073,
    "l": 121.994,
    "c": 122.07,
    "v": 1342
  },
  {
    "dt": "2021.06.09 05:00",
    "o": 122.071,
    "h": 122.09,
    "l": 122.051,
    "c": 122.087,
    "v": 1081
  },
  {
    "dt": "2021.06.09 06:00",
    "o": 122.086,
    "h": 122.138,
    "l": 122.074,
    "c": 122.132,
    "v": 1061
  },
  {
    "dt": "2021.06.09 07:00",
    "o": 122.123,
    "h": 122.134,
    "l": 122.086,
    "c": 122.101,
    "v": 977
  },
  {
    "dt": "2021.06.09 08:00",
    "o": 122.1,
    "h": 122.103,
    "l": 122.049,
    "c": 122.072,
    "v": 910
  },
  {
    "dt": "2021.06.09 09:00",
    "o": 122.064,
    "h": 122.115,
    "l": 121.972,
    "c": 121.995,
    "v": 1965
  },
  {
    "dt": "2021.06.09 10:00",
    "o": 121.992,
    "h": 122.086,
    "l": 121.973,
    "c": 122.077,
    "v": 2521
  },
  {
    "dt": "2021.06.09 11:00",
    "o": 122.078,
    "h": 122.15,
    "l": 122.037,
    "c": 122.145,
    "v": 2751
  },
  {
    "dt": "2021.06.09 12:00",
    "o": 122.146,
    "h": 122.237,
    "l": 122.098,
    "c": 122.205,
    "v": 1806
  },
  {
    "dt": "2021.06.09 13:00",
    "o": 122.206,
    "h": 122.206,
    "l": 122.15,
    "c": 122.202,
    "v": 1877
  },
  {
    "dt": "2021.06.09 14:00",
    "o": 122.206,
    "h": 122.21,
    "l": 122.112,
    "c": 122.168,
    "v": 2067
  },
  {
    "dt": "2021.06.09 15:00",
    "o": 122.168,
    "h": 122.268,
    "l": 122.151,
    "c": 122.258,
    "v": 3006
  },
  {
    "dt": "2021.06.09 16:00",
    "o": 122.257,
    "h": 122.389,
    "l": 122.22,
    "c": 122.387,
    "v": 3437
  },
  {
    "dt": "2021.06.09 17:00",
    "o": 122.386,
    "h": 122.448,
    "l": 122.273,
    "c": 122.341,
    "v": 3782
  },
  {
    "dt": "2021.06.09 18:00",
    "o": 122.344,
    "h": 122.392,
    "l": 122.277,
    "c": 122.349,
    "v": 1921
  },
  {
    "dt": "2021.06.09 19:00",
    "o": 122.348,
    "h": 122.365,
    "l": 122.269,
    "c": 122.295,
    "v": 1693
  },
  {
    "dt": "2021.06.09 20:00",
    "o": 122.294,
    "h": 122.344,
    "l": 122.276,
    "c": 122.342,
    "v": 1718
  },
  {
    "dt": "2021.06.09 21:00",
    "o": 122.343,
    "h": 122.36,
    "l": 122.288,
    "c": 122.292,
    "v": 1436
  },
  {
    "dt": "2021.06.09 22:00",
    "o": 122.293,
    "h": 122.364,
    "l": 122.291,
    "c": 122.348,
    "v": 1314
  },
  {
    "dt": "2021.06.09 23:00",
    "o": 122.348,
    "h": 122.374,
    "l": 122.32,
    "c": 122.34,
    "v": 859
  },
  {
    "dt": "2021.06.10 00:00",
    "o": 122.325,
    "h": 122.366,
    "l": 122.307,
    "c": 122.337,
    "v": 215
  },
  {
    "dt": "2021.06.10 01:00",
    "o": 122.339,
    "h": 122.406,
    "l": 122.334,
    "c": 122.367,
    "v": 383
  },
  {
    "dt": "2021.06.10 02:00",
    "o": 122.367,
    "h": 122.376,
    "l": 122.332,
    "c": 122.34,
    "v": 694
  },
  {
    "dt": "2021.06.10 03:00",
    "o": 122.335,
    "h": 122.377,
    "l": 122.256,
    "c": 122.3,
    "v": 1638
  },
  {
    "dt": "2021.06.10 04:00",
    "o": 122.304,
    "h": 122.305,
    "l": 122.206,
    "c": 122.223,
    "v": 1767
  },
  {
    "dt": "2021.06.10 05:00",
    "o": 122.222,
    "h": 122.297,
    "l": 122.221,
    "c": 122.278,
    "v": 1509
  },
  {
    "dt": "2021.06.10 06:00",
    "o": 122.278,
    "h": 122.293,
    "l": 122.253,
    "c": 122.276,
    "v": 960
  },
  {
    "dt": "2021.06.10 07:00",
    "o": 122.275,
    "h": 122.305,
    "l": 122.26,
    "c": 122.305,
    "v": 1015
  },
  {
    "dt": "2021.06.10 08:00",
    "o": 122.306,
    "h": 122.306,
    "l": 122.251,
    "c": 122.256,
    "v": 1055
  },
  {
    "dt": "2021.06.10 09:00",
    "o": 122.258,
    "h": 122.274,
    "l": 122.174,
    "c": 122.175,
    "v": 1970
  },
  {
    "dt": "2021.06.10 10:00",
    "o": 122.171,
    "h": 122.213,
    "l": 122.065,
    "c": 122.141,
    "v": 3203
  },
  {
    "dt": "2021.06.10 11:00",
    "o": 122.146,
    "h": 122.224,
    "l": 122.13,
    "c": 122.148,
    "v": 2122
  },
  {
    "dt": "2021.06.10 12:00",
    "o": 122.143,
    "h": 122.192,
    "l": 122.116,
    "c": 122.164,
    "v": 2130
  },
  {
    "dt": "2021.06.10 13:00",
    "o": 122.166,
    "h": 122.256,
    "l": 122.13,
    "c": 122.206,
    "v": 1903
  },
  {
    "dt": "2021.06.10 14:00",
    "o": 122.201,
    "h": 122.277,
    "l": 122.19,
    "c": 122.225,
    "v": 2580
  },
  {
    "dt": "2021.06.10 15:00",
    "o": 122.222,
    "h": 122.494,
    "l": 122.032,
    "c": 122.384,
    "v": 4607
  },
  {
    "dt": "2021.06.10 16:00",
    "o": 122.372,
    "h": 122.527,
    "l": 122.051,
    "c": 122.507,
    "v": 5120
  },
  {
    "dt": "2021.06.10 17:00",
    "o": 122.506,
    "h": 122.509,
    "l": 122.222,
    "c": 122.326,
    "v": 4213
  },
  {
    "dt": "2021.06.10 18:00",
    "o": 122.324,
    "h": 122.381,
    "l": 122.248,
    "c": 122.304,
    "v": 2468
  },
  {
    "dt": "2021.06.10 19:00",
    "o": 122.303,
    "h": 122.309,
    "l": 122.205,
    "c": 122.276,
    "v": 2311
  },
  {
    "dt": "2021.06.10 20:00",
    "o": 122.273,
    "h": 122.287,
    "l": 122.245,
    "c": 122.255,
    "v": 1789
  },
  {
    "dt": "2021.06.10 21:00",
    "o": 122.257,
    "h": 122.301,
    "l": 122.251,
    "c": 122.263,
    "v": 1325
  },
  {
    "dt": "2021.06.10 22:00",
    "o": 122.264,
    "h": 122.277,
    "l": 122.125,
    "c": 122.13,
    "v": 1565
  },
  {
    "dt": "2021.06.10 23:00",
    "o": 122.133,
    "h": 122.204,
    "l": 122.133,
    "c": 122.162,
    "v": 1202
  },
  {
    "dt": "2021.06.11 00:00",
    "o": 122.154,
    "h": 122.214,
    "l": 122.12,
    "c": 122.186,
    "v": 851
  },
  {
    "dt": "2021.06.11 01:00",
    "o": 122.176,
    "h": 122.233,
    "l": 122.173,
    "c": 122.23,
    "v": 643
  },
  {
    "dt": "2021.06.11 02:00",
    "o": 122.239,
    "h": 122.281,
    "l": 122.21,
    "c": 122.269,
    "v": 503
  },
  {
    "dt": "2021.06.11 03:00",
    "o": 122.268,
    "h": 122.344,
    "l": 122.24,
    "c": 122.321,
    "v": 1456
  },
  {
    "dt": "2021.06.11 04:00",
    "o": 122.318,
    "h": 122.371,
    "l": 122.305,
    "c": 122.358,
    "v": 1505
  },
  {
    "dt": "2021.06.11 05:00",
    "o": 122.357,
    "h": 122.417,
    "l": 122.329,
    "c": 122.411,
    "v": 1309
  },
  {
    "dt": "2021.06.11 06:00",
    "o": 122.415,
    "h": 122.427,
    "l": 122.38,
    "c": 122.392,
    "v": 826
  },
  {
    "dt": "2021.06.11 07:00",
    "o": 122.393,
    "h": 122.41,
    "l": 122.381,
    "c": 122.396,
    "v": 836
  },
  {
    "dt": "2021.06.11 08:00",
    "o": 122.393,
    "h": 122.411,
    "l": 122.37,
    "c": 122.388,
    "v": 926
  },
  {
    "dt": "2021.06.11 09:00",
    "o": 122.389,
    "h": 122.466,
    "l": 122.308,
    "c": 122.343,
    "v": 1930
  },
  {
    "dt": "2021.06.11 10:00",
    "o": 122.343,
    "h": 122.422,
    "l": 122.327,
    "c": 122.375,
    "v": 3132
  },
  {
    "dt": "2021.06.11 11:00",
    "o": 122.37,
    "h": 122.371,
    "l": 122.222,
    "c": 122.295,
    "v": 3221
  },
  {
    "dt": "2021.06.11 12:00",
    "o": 122.294,
    "h": 122.312,
    "l": 122.149,
    "c": 122.155,
    "v": 2605
  },
  {
    "dt": "2021.06.11 13:00",
    "o": 122.155,
    "h": 122.202,
    "l": 122.109,
    "c": 122.12,
    "v": 2420
  },
  {
    "dt": "2021.06.11 14:00",
    "o": 122.12,
    "h": 122.173,
    "l": 122.072,
    "c": 122.12,
    "v": 2692
  },
  {
    "dt": "2021.06.11 15:00",
    "o": 122.121,
    "h": 122.225,
    "l": 122.079,
    "c": 122.149,
    "v": 2873
  },
  {
    "dt": "2021.06.11 16:00",
    "o": 122.148,
    "h": 122.194,
    "l": 122.107,
    "c": 122.184,
    "v": 3349
  },
  {
    "dt": "2021.06.11 17:00",
    "o": 122.176,
    "h": 122.184,
    "l": 122.03,
    "c": 122.093,
    "v": 3665
  },
  {
    "dt": "2021.06.11 18:00",
    "o": 122.093,
    "h": 122.151,
    "l": 121.989,
    "c": 122.012,
    "v": 2759
  },
  {
    "dt": "2021.06.11 19:00",
    "o": 122.011,
    "h": 122.033,
    "l": 121.96,
    "c": 121.973,
    "v": 1811
  },
  {
    "dt": "2021.06.11 20:00",
    "o": 121.974,
    "h": 122.037,
    "l": 121.968,
    "c": 122.028,
    "v": 1377
  },
  {
    "dt": "2021.06.11 21:00",
    "o": 122.031,
    "h": 122.053,
    "l": 122.002,
    "c": 122.032,
    "v": 1383
  },
  {
    "dt": "2021.06.11 22:00",
    "o": 122.032,
    "h": 122.051,
    "l": 122.017,
    "c": 122.034,
    "v": 1168
  },
  {
    "dt": "2021.06.11 23:00",
    "o": 122.037,
    "h": 122.145,
    "l": 122.017,
    "c": 122.102,
    "v": 899
  },
  {
    "dt": "2021.06.14 00:00",
    "o": 121.95,
    "h": 122.01,
    "l": 121.861,
    "c": 122.01,
    "v": 39
  },
  {
    "dt": "2021.06.14 01:00",
    "o": 122.035,
    "h": 122.178,
    "l": 121.922,
    "c": 122.147,
    "v": 861
  },
  {
    "dt": "2021.06.14 02:00",
    "o": 122.15,
    "h": 122.186,
    "l": 122.115,
    "c": 122.18,
    "v": 846
  },
  {
    "dt": "2021.06.14 03:00",
    "o": 122.181,
    "h": 122.21,
    "l": 122.122,
    "c": 122.168,
    "v": 1766
  },
  {
    "dt": "2021.06.14 04:00",
    "o": 122.168,
    "h": 122.169,
    "l": 122.094,
    "c": 122.097,
    "v": 1477
  },
  {
    "dt": "2021.06.14 05:00",
    "o": 122.097,
    "h": 122.127,
    "l": 122.07,
    "c": 122.125,
    "v": 1185
  },
  {
    "dt": "2021.06.14 06:00",
    "o": 122.122,
    "h": 122.134,
    "l": 122.095,
    "c": 122.12,
    "v": 1032
  },
  {
    "dt": "2021.06.14 07:00",
    "o": 122.117,
    "h": 122.137,
    "l": 122.078,
    "c": 122.106,
    "v": 902
  },
  {
    "dt": "2021.06.14 08:00",
    "o": 122.104,
    "h": 122.116,
    "l": 122.066,
    "c": 122.094,
    "v": 794
  },
  {
    "dt": "2021.06.14 09:00",
    "o": 122.094,
    "h": 122.094,
    "l": 121.96,
    "c": 121.983,
    "v": 2105
  },
  {
    "dt": "2021.06.14 10:00",
    "o": 121.985,
    "h": 122.059,
    "l": 121.848,
    "c": 122.0,
    "v": 3278
  },
  {
    "dt": "2021.06.14 11:00",
    "o": 122.0,
    "h": 122.039,
    "l": 121.882,
    "c": 121.953,
    "v": 2510
  },
  {
    "dt": "2021.06.14 12:00",
    "o": 121.951,
    "h": 122.007,
    "l": 121.909,
    "c": 121.964,
    "v": 2232
  },
  {
    "dt": "2021.06.14 13:00",
    "o": 121.965,
    "h": 122.115,
    "l": 121.957,
    "c": 122.102,
    "v": 2212
  },
  {
    "dt": "2021.06.14 14:00",
    "o": 122.101,
    "h": 122.162,
    "l": 122.067,
    "c": 122.156,
    "v": 2245
  },
  {
    "dt": "2021.06.14 15:00",
    "o": 122.155,
    "h": 122.177,
    "l": 122.019,
    "c": 122.114,
    "v": 2815
  },
  {
    "dt": "2021.06.14 16:00",
    "o": 122.114,
    "h": 122.255,
    "l": 122.097,
    "c": 122.197,
    "v": 3557
  },
  {
    "dt": "2021.06.14 17:00",
    "o": 122.198,
    "h": 122.346,
    "l": 122.153,
    "c": 122.31,
    "v": 3371
  },
  {
    "dt": "2021.06.14 18:00",
    "o": 122.307,
    "h": 122.335,
    "l": 122.275,
    "c": 122.304,
    "v": 2432
  },
  {
    "dt": "2021.06.14 19:00",
    "o": 122.302,
    "h": 122.351,
    "l": 122.284,
    "c": 122.311,
    "v": 1622
  },
  {
    "dt": "2021.06.14 20:00",
    "o": 122.311,
    "h": 122.327,
    "l": 122.288,
    "c": 122.309,
    "v": 1223
  },
  {
    "dt": "2021.06.14 21:00",
    "o": 122.309,
    "h": 122.323,
    "l": 122.282,
    "c": 122.311,
    "v": 1364
  },
  {
    "dt": "2021.06.14 22:00",
    "o": 122.309,
    "h": 122.352,
    "l": 122.297,
    "c": 122.338,
    "v": 1047
  },
  {
    "dt": "2021.06.14 23:00",
    "o": 122.338,
    "h": 122.372,
    "l": 122.251,
    "c": 122.259,
    "v": 968
  },
  {
    "dt": "2021.06.15 00:00",
    "o": 122.2,
    "h": 122.33,
    "l": 122.2,
    "c": 122.289,
    "v": 88
  },
  {
    "dt": "2021.06.15 01:00",
    "o": 122.294,
    "h": 122.377,
    "l": 122.294,
    "c": 122.34,
    "v": 790
  },
  {
    "dt": "2021.06.15 02:00",
    "o": 122.341,
    "h": 122.367,
    "l": 122.331,
    "c": 122.339,
    "v": 649
  },
  {
    "dt": "2021.06.15 03:00",
    "o": 122.34,
    "h": 122.395,
    "l": 122.321,
    "c": 122.384,
    "v": 1749
  },
  {
    "dt": "2021.06.15 04:00",
    "o": 122.382,
    "h": 122.39,
    "l": 122.299,
    "c": 122.343,
    "v": 1940
  },
  {
    "dt": "2021.06.15 05:00",
    "o": 122.341,
    "h": 122.407,
    "l": 122.325,
    "c": 122.401,
    "v": 1243
  },
  {
    "dt": "2021.06.15 06:00",
    "o": 122.401,
    "h": 122.404,
    "l": 122.35,
    "c": 122.385,
    "v": 910
  },
  {
    "dt": "2021.06.15 07:00",
    "o": 122.385,
    "h": 122.398,
    "l": 122.36,
    "c": 122.392,
    "v": 936
  },
  {
    "dt": "2021.06.15 08:00",
    "o": 122.389,
    "h": 122.4,
    "l": 122.351,
    "c": 122.358,
    "v": 981
  },
  {
    "dt": "2021.06.15 09:00",
    "o": 122.356,
    "h": 122.549,
    "l": 122.343,
    "c": 122.513,
    "v": 2309
  },
  {
    "dt": "2021.06.15 10:00",
    "o": 122.515,
    "h": 122.693,
    "l": 122.459,
    "c": 122.674,
    "v": 2761
  },
  {
    "dt": "2021.06.15 11:00",
    "o": 122.67,
    "h": 122.759,
    "l": 122.62,
    "c": 122.648,
    "v": 2478
  },
  {
    "dt": "2021.06.15 12:00",
    "o": 122.65,
    "h": 122.651,
    "l": 122.516,
    "c": 122.574,
    "v": 2195
  },
  {
    "dt": "2021.06.15 13:00",
    "o": 122.572,
    "h": 122.599,
    "l": 122.393,
    "c": 122.427,
    "v": 2207
  },
  {
    "dt": "2021.06.15 14:00",
    "o": 122.425,
    "h": 122.432,
    "l": 122.277,
    "c": 122.325,
    "v": 2387
  },
  {
    "dt": "2021.06.15 15:00",
    "o": 122.326,
    "h": 122.358,
    "l": 122.258,
    "c": 122.329,
    "v": 3029
  },
  {
    "dt": "2021.06.15 16:00",
    "o": 122.325,
    "h": 122.54,
    "l": 122.273,
    "c": 122.461,
    "v": 3384
  },
  {
    "dt": "2021.06.15 17:00",
    "o": 122.458,
    "h": 122.567,
    "l": 122.457,
    "c": 122.496,
    "v": 3124
  },
  {
    "dt": "2021.06.15 18:00",
    "o": 122.498,
    "h": 122.59,
    "l": 122.495,
    "c": 122.546,
    "v": 2139
  },
  {
    "dt": "2021.06.15 19:00",
    "o": 122.545,
    "h": 122.565,
    "l": 122.493,
    "c": 122.498,
    "v": 1582
  },
  {
    "dt": "2021.06.15 20:00",
    "o": 122.5,
    "h": 122.574,
    "l": 122.496,
    "c": 122.556,
    "v": 1489
  },
  {
    "dt": "2021.06.15 21:00",
    "o": 122.556,
    "h": 122.582,
    "l": 122.526,
    "c": 122.527,
    "v": 1398
  },
  {
    "dt": "2021.06.15 22:00",
    "o": 122.528,
    "h": 122.534,
    "l": 122.488,
    "c": 122.491,
    "v": 777
  },
  {
    "dt": "2021.06.15 23:00",
    "o": 122.493,
    "h": 122.516,
    "l": 122.482,
    "c": 122.499,
    "v": 757
  },
  {
    "dt": "2021.06.16 00:00",
    "o": 122.53,
    "h": 122.548,
    "l": 122.421,
    "c": 122.438,
    "v": 287
  },
  {
    "dt": "2021.06.16 01:00",
    "o": 122.455,
    "h": 122.535,
    "l": 122.453,
    "c": 122.486,
    "v": 534
  },
  {
    "dt": "2021.06.16 02:00",
    "o": 122.486,
    "h": 122.519,
    "l": 122.479,
    "c": 122.492,
    "v": 617
  },
  {
    "dt": "2021.06.16 03:00",
    "o": 122.491,
    "h": 122.574,
    "l": 122.483,
    "c": 122.543,
    "v": 1197
  },
  {
    "dt": "2021.06.16 04:00",
    "o": 122.544,
    "h": 122.55,
    "l": 122.453,
    "c": 122.473,
    "v": 1256
  },
  {
    "dt": "2021.06.16 05:00",
    "o": 122.471,
    "h": 122.491,
    "l": 122.447,
    "c": 122.452,
    "v": 1298
  },
  {
    "dt": "2021.06.16 06:00",
    "o": 122.453,
    "h": 122.484,
    "l": 122.448,
    "c": 122.472,
    "v": 753
  },
  {
    "dt": "2021.06.16 07:00",
    "o": 122.47,
    "h": 122.483,
    "l": 122.448,
    "c": 122.463,
    "v": 1001
  },
  {
    "dt": "2021.06.16 08:00",
    "o": 122.462,
    "h": 122.504,
    "l": 122.458,
    "c": 122.504,
    "v": 804
  },
  {
    "dt": "2021.06.16 09:00",
    "o": 122.505,
    "h": 122.534,
    "l": 122.443,
    "c": 122.498,
    "v": 2091
  },
  {
    "dt": "2021.06.16 10:00",
    "o": 122.49,
    "h": 122.497,
    "l": 122.344,
    "c": 122.434,
    "v": 2754
  },
  {
    "dt": "2021.06.16 11:00",
    "o": 122.432,
    "h": 122.461,
    "l": 122.343,
    "c": 122.391,
    "v": 2448
  },
  {
    "dt": "2021.06.16 12:00",
    "o": 122.39,
    "h": 122.399,
    "l": 122.274,
    "c": 122.325,
    "v": 2014
  },
  {
    "dt": "2021.06.16 13:00",
    "o": 122.326,
    "h": 122.344,
    "l": 122.229,
    "c": 122.254,
    "v": 2040
  },
  {
    "dt": "2021.06.16 14:00",
    "o": 122.256,
    "h": 122.303,
    "l": 122.199,
    "c": 122.221,
    "v": 2059
  },
  {
    "dt": "2021.06.16 15:00",
    "o": 122.222,
    "h": 122.273,
    "l": 122.116,
    "c": 122.129,
    "v": 2757
  },
  {
    "dt": "2021.06.16 16:00",
    "o": 122.133,
    "h": 122.19,
    "l": 122.077,
    "c": 122.136,
    "v": 2972
  },
  {
    "dt": "2021.06.16 17:00",
    "o": 122.133,
    "h": 122.301,
    "l": 122.133,
    "c": 122.287,
    "v": 2892
  },
  {
    "dt": "2021.06.16 18:00",
    "o": 122.288,
    "h": 122.336,
    "l": 122.184,
    "c": 122.247,
    "v": 2069
  },
  {
    "dt": "2021.06.16 19:00",
    "o": 122.245,
    "h": 122.257,
    "l": 122.204,
    "c": 122.246,
    "v": 2012
  },
  {
    "dt": "2021.06.16 20:00",
    "o": 122.245,
    "h": 122.255,
    "l": 122.19,
    "c": 122.2,
    "v": 1346
  },
  {
    "dt": "2021.06.16 21:00",
    "o": 122.147,
    "h": 122.205,
    "l": 121.82,
    "c": 121.921,
    "v": 6327
  },
  {
    "dt": "2021.06.16 22:00",
    "o": 121.924,
    "h": 121.99,
    "l": 121.784,
    "c": 121.813,
    "v": 4235
  },
  {
    "dt": "2021.06.16 23:00",
    "o": 121.814,
    "h": 121.906,
    "l": 121.791,
    "c": 121.791,
    "v": 2374
  },
  {
    "dt": "2021.06.17 00:00",
    "o": 121.71,
    "h": 121.781,
    "l": 121.672,
    "c": 121.755,
    "v": 523
  },
  {
    "dt": "2021.06.17 01:00",
    "o": 121.756,
    "h": 121.857,
    "l": 121.746,
    "c": 121.825,
    "v": 1494
  },
  {
    "dt": "2021.06.17 02:00",
    "o": 121.833,
    "h": 121.891,
    "l": 121.802,
    "c": 121.884,
    "v": 1627
  },
  {
    "dt": "2021.06.17 03:00",
    "o": 121.888,
    "h": 121.925,
    "l": 121.814,
    "c": 121.82,
    "v": 2972
  },
  {
    "dt": "2021.06.17 04:00",
    "o": 121.822,
    "h": 121.893,
    "l": 121.792,
    "c": 121.864,
    "v": 2499
  },
  {
    "dt": "2021.06.17 05:00",
    "o": 121.864,
    "h": 121.885,
    "l": 121.814,
    "c": 121.832,
    "v": 1764
  },
  {
    "dt": "2021.06.17 06:00",
    "o": 121.83,
    "h": 121.872,
    "l": 121.822,
    "c": 121.834,
    "v": 1299
  },
  {
    "dt": "2021.06.17 07:00",
    "o": 121.834,
    "h": 121.866,
    "l": 121.784,
    "c": 121.83,
    "v": 1264
  },
  {
    "dt": "2021.06.17 08:00",
    "o": 121.828,
    "h": 121.878,
    "l": 121.79,
    "c": 121.79,
    "v": 1441
  },
  {
    "dt": "2021.06.17 09:00",
    "o": 121.792,
    "h": 121.805,
    "l": 121.542,
    "c": 121.557,
    "v": 3322
  },
  {
    "dt": "2021.06.17 10:00",
    "o": 121.561,
    "h": 121.563,
    "l": 121.136,
    "c": 121.237,
    "v": 3990
  },
  {
    "dt": "2021.06.17 11:00",
    "o": 121.228,
    "h": 121.256,
    "l": 121.043,
    "c": 121.096,
    "v": 3437
  },
  {
    "dt": "2021.06.17 12:00",
    "o": 121.093,
    "h": 121.205,
    "l": 120.977,
    "c": 121.019,
    "v": 2872
  },
  {
    "dt": "2021.06.17 13:00",
    "o": 121.026,
    "h": 121.054,
    "l": 120.934,
    "c": 120.983,
    "v": 2988
  },
  {
    "dt": "2021.06.17 14:00",
    "o": 120.984,
    "h": 121.014,
    "l": 120.926,
    "c": 120.943,
    "v": 3144
  },
  {
    "dt": "2021.06.17 15:00",
    "o": 120.941,
    "h": 120.951,
    "l": 120.703,
    "c": 120.729,
    "v": 3975
  },
  {
    "dt": "2021.06.17 16:00",
    "o": 120.724,
    "h": 120.889,
    "l": 120.581,
    "c": 120.584,
    "v": 4203
  },
  {
    "dt": "2021.06.17 17:00",
    "o": 120.587,
    "h": 120.628,
    "l": 120.397,
    "c": 120.437,
    "v": 4417
  },
  {
    "dt": "2021.06.17 18:00",
    "o": 120.433,
    "h": 120.476,
    "l": 120.154,
    "c": 120.19,
    "v": 4100
  },
  {
    "dt": "2021.06.17 19:00",
    "o": 120.192,
    "h": 120.242,
    "l": 119.924,
    "c": 120.069,
    "v": 3613
  },
  {
    "dt": "2021.06.17 20:00",
    "o": 120.07,
    "h": 120.219,
    "l": 120.052,
    "c": 120.157,
    "v": 3165
  },
  {
    "dt": "2021.06.17 21:00",
    "o": 120.16,
    "h": 120.245,
    "l": 120.146,
    "c": 120.173,
    "v": 2634
  },
  {
    "dt": "2021.06.17 22:00",
    "o": 120.174,
    "h": 120.207,
    "l": 120.12,
    "c": 120.12,
    "v": 2165
  },
  {
    "dt": "2021.06.17 23:00",
    "o": 120.121,
    "h": 120.152,
    "l": 120.022,
    "c": 120.063,
    "v": 1357
  },
  {
    "dt": "2021.06.18 00:00",
    "o": 120.163,
    "h": 120.164,
    "l": 120.038,
    "c": 120.095,
    "v": 273
  },
  {
    "dt": "2021.06.18 01:00",
    "o": 120.094,
    "h": 120.181,
    "l": 120.086,
    "c": 120.161,
    "v": 1003
  },
  {
    "dt": "2021.06.18 02:00",
    "o": 120.158,
    "h": 120.207,
    "l": 120.133,
    "c": 120.205,
    "v": 962
  },
  {
    "dt": "2021.06.18 03:00",
    "o": 120.202,
    "h": 120.208,
    "l": 120.07,
    "c": 120.113,
    "v": 2341
  },
  {
    "dt": "2021.06.18 04:00",
    "o": 120.115,
    "h": 120.143,
    "l": 120.062,
    "c": 120.087,
    "v": 2114
  },
  {
    "dt": "2021.06.18 05:00",
    "o": 120.085,
    "h": 120.158,
    "l": 120.072,
    "c": 120.133,
    "v": 1951
  },
  {
    "dt": "2021.06.18 06:00",
    "o": 120.136,
    "h": 120.177,
    "l": 120.13,
    "c": 120.162,
    "v": 1552
  },
  {
    "dt": "2021.06.18 07:00",
    "o": 120.161,
    "h": 120.162,
    "l": 120.081,
    "c": 120.093,
    "v": 1227
  },
  {
    "dt": "2021.06.18 08:00",
    "o": 120.092,
    "h": 120.101,
    "l": 119.813,
    "c": 119.882,
    "v": 2271
  },
  {
    "dt": "2021.06.18 09:00",
    "o": 119.877,
    "h": 119.912,
    "l": 119.692,
    "c": 119.758,
    "v": 3523
  },
  {
    "dt": "2021.06.18 10:00",
    "o": 119.756,
    "h": 119.982,
    "l": 119.735,
    "c": 119.853,
    "v": 4287
  },
  {
    "dt": "2021.06.18 11:00",
    "o": 119.853,
    "h": 119.977,
    "l": 119.832,
    "c": 119.886,
    "v": 3543
  },
  {
    "dt": "2021.06.18 12:00",
    "o": 119.884,
    "h": 120.016,
    "l": 119.838,
    "c": 119.9,
    "v": 3165
  },
  {
    "dt": "2021.06.18 13:00",
    "o": 119.897,
    "h": 119.957,
    "l": 119.791,
    "c": 119.796,
    "v": 2964
  },
  {
    "dt": "2021.06.18 14:00",
    "o": 119.795,
    "h": 119.891,
    "l": 119.763,
    "c": 119.848,
    "v": 2961
  },
  {
    "dt": "2021.06.18 15:00",
    "o": 119.845,
    "h": 119.918,
    "l": 119.575,
    "c": 119.801,
    "v": 4741
  },
  {
    "dt": "2021.06.18 16:00",
    "o": 119.802,
    "h": 119.804,
    "l": 119.592,
    "c": 119.748,
    "v": 4839
  },
  {
    "dt": "2021.06.18 17:00",
    "o": 119.747,
    "h": 119.801,
    "l": 119.403,
    "c": 119.434,
    "v": 5187
  },
  {
    "dt": "2021.06.18 18:00",
    "o": 119.434,
    "h": 119.628,
    "l": 119.434,
    "c": 119.585,
    "v": 4226
  },
  {
    "dt": "2021.06.18 19:00",
    "o": 119.584,
    "h": 119.652,
    "l": 119.563,
    "c": 119.594,
    "v": 2755
  },
  {
    "dt": "2021.06.18 20:00",
    "o": 119.592,
    "h": 119.625,
    "l": 119.532,
    "c": 119.546,
    "v": 2229
  },
  {
    "dt": "2021.06.18 21:00",
    "o": 119.548,
    "h": 119.567,
    "l": 119.476,
    "c": 119.477,
    "v": 2802
  },
  {
    "dt": "2021.06.18 22:00",
    "o": 119.475,
    "h": 119.507,
    "l": 119.414,
    "c": 119.418,
    "v": 2174
  },
  {
    "dt": "2021.06.18 23:00",
    "o": 119.419,
    "h": 119.445,
    "l": 119.271,
    "c": 119.351,
    "v": 1671
  },
  {
    "dt": "2021.06.21 00:00",
    "o": 119.65,
    "h": 119.65,
    "l": 119.339,
    "c": 119.437,
    "v": 134
  },
  {
    "dt": "2021.06.21 01:00",
    "o": 119.385,
    "h": 119.459,
    "l": 119.338,
    "c": 119.439,
    "v": 1126
  },
  {
    "dt": "2021.06.21 02:00",
    "o": 119.442,
    "h": 119.484,
    "l": 119.423,
    "c": 119.447,
    "v": 1146
  },
  {
    "dt": "2021.06.21 03:00",
    "o": 119.44,
    "h": 119.554,
    "l": 119.415,
    "c": 119.542,
    "v": 2692
  },
  {
    "dt": "2021.06.21 04:00",
    "o": 119.543,
    "h": 119.552,
    "l": 119.346,
    "c": 119.352,
    "v": 2398
  },
  {
    "dt": "2021.06.21 05:00",
    "o": 119.347,
    "h": 119.366,
    "l": 119.263,
    "c": 119.3,
    "v": 2403
  },
  {
    "dt": "2021.06.21 06:00",
    "o": 119.3,
    "h": 119.3,
    "l": 118.907,
    "c": 118.98,
    "v": 3072
  },
  {
    "dt": "2021.06.21 07:00",
    "o": 118.983,
    "h": 119.039,
    "l": 118.857,
    "c": 118.969,
    "v": 2081
  },
  {
    "dt": "2021.06.21 08:00",
    "o": 118.967,
    "h": 119.117,
    "l": 118.951,
    "c": 119.117,
    "v": 1658
  },
  {
    "dt": "2021.06.21 09:00",
    "o": 119.115,
    "h": 119.335,
    "l": 119.071,
    "c": 119.222,
    "v": 2931
  },
  {
    "dt": "2021.06.21 10:00",
    "o": 119.226,
    "h": 119.438,
    "l": 119.032,
    "c": 119.38,
    "v": 4202
  },
  {
    "dt": "2021.06.21 11:00",
    "o": 119.382,
    "h": 119.461,
    "l": 119.306,
    "c": 119.356,
    "v": 3420
  },
  {
    "dt": "2021.06.21 12:00",
    "o": 119.354,
    "h": 119.572,
    "l": 119.316,
    "c": 119.515,
    "v": 3348
  },
  {
    "dt": "2021.06.21 13:00",
    "o": 119.518,
    "h": 119.57,
    "l": 119.464,
    "c": 119.553,
    "v": 2718
  },
  {
    "dt": "2021.06.21 14:00",
    "o": 119.546,
    "h": 119.61,
    "l": 119.477,
    "c": 119.546,
    "v": 2930
  },
  {
    "dt": "2021.06.21 15:00",
    "o": 119.547,
    "h": 119.581,
    "l": 119.463,
    "c": 119.574,
    "v": 3545
  },
  {
    "dt": "2021.06.21 16:00",
    "o": 119.573,
    "h": 119.88,
    "l": 119.562,
    "c": 119.803,
    "v": 4158
  },
  {
    "dt": "2021.06.21 17:00",
    "o": 119.81,
    "h": 120.072,
    "l": 119.794,
    "c": 119.952,
    "v": 4660
  },
  {
    "dt": "2021.06.21 18:00",
    "o": 119.952,
    "h": 120.006,
    "l": 119.911,
    "c": 119.98,
    "v": 3134
  },
  {
    "dt": "2021.06.21 19:00",
    "o": 119.979,
    "h": 120.007,
    "l": 119.924,
    "c": 119.987,
    "v": 2367
  },
  {
    "dt": "2021.06.21 20:00",
    "o": 119.988,
    "h": 120.082,
    "l": 119.988,
    "c": 120.064,
    "v": 2544
  },
  {
    "dt": "2021.06.21 21:00",
    "o": 120.066,
    "h": 120.097,
    "l": 120.039,
    "c": 120.061,
    "v": 2370
  },
  {
    "dt": "2021.06.21 22:00",
    "o": 120.058,
    "h": 120.172,
    "l": 120.048,
    "c": 120.165,
    "v": 1778
  },
  {
    "dt": "2021.06.21 23:00",
    "o": 120.166,
    "h": 120.184,
    "l": 120.031,
    "c": 120.031,
    "v": 1285
  },
  {
    "dt": "2021.06.22 00:00",
    "o": 120.059,
    "h": 120.189,
    "l": 120.059,
    "c": 120.107,
    "v": 439
  },
  {
    "dt": "2021.06.22 01:00",
    "o": 120.11,
    "h": 120.161,
    "l": 120.096,
    "c": 120.135,
    "v": 772
  },
  {
    "dt": "2021.06.22 02:00",
    "o": 120.138,
    "h": 120.195,
    "l": 120.096,
    "c": 120.137,
    "v": 749
  },
  {
    "dt": "2021.06.22 03:00",
    "o": 120.14,
    "h": 120.151,
    "l": 119.903,
    "c": 119.971,
    "v": 2064
  },
  {
    "dt": "2021.06.22 04:00",
    "o": 119.972,
    "h": 119.989,
    "l": 119.897,
    "c": 119.987,
    "v": 1946
  },
  {
    "dt": "2021.06.22 05:00",
    "o": 119.988,
    "h": 120.117,
    "l": 119.987,
    "c": 120.035,
    "v": 2063
  },
  {
    "dt": "2021.06.22 06:00",
    "o": 120.038,
    "h": 120.166,
    "l": 120.031,
    "c": 120.121,
    "v": 1467
  },
  {
    "dt": "2021.06.22 07:00",
    "o": 120.12,
    "h": 120.127,
    "l": 120.074,
    "c": 120.082,
    "v": 1058
  },
  {
    "dt": "2021.06.22 08:00",
    "o": 120.082,
    "h": 120.083,
    "l": 119.934,
    "c": 119.969,
    "v": 1363
  },
  {
    "dt": "2021.06.22 09:00",
    "o": 119.97,
    "h": 120.073,
    "l": 119.968,
    "c": 120.015,
    "v": 3160
  },
  {
    "dt": "2021.06.22 10:00",
    "o": 120.015,
    "h": 120.206,
    "l": 119.979,
    "c": 120.169,
    "v": 3754
  },
  {
    "dt": "2021.06.22 11:00",
    "o": 120.17,
    "h": 120.171,
    "l": 120.022,
    "c": 120.08,
    "v": 3041
  },
  {
    "dt": "2021.06.22 12:00",
    "o": 120.079,
    "h": 120.113,
    "l": 119.872,
    "c": 119.881,
    "v": 2906
  },
  {
    "dt": "2021.06.22 13:00",
    "o": 119.881,
    "h": 120.024,
    "l": 119.868,
    "c": 120.017,
    "v": 2306
  },
  {
    "dt": "2021.06.22 14:00",
    "o": 120.017,
    "h": 120.161,
    "l": 119.982,
    "c": 120.097,
    "v": 2500
  },
  {
    "dt": "2021.06.22 15:00",
    "o": 120.096,
    "h": 120.262,
    "l": 120.072,
    "c": 120.25,
    "v": 3531
  },
  {
    "dt": "2021.06.22 16:00",
    "o": 120.252,
    "h": 120.376,
    "l": 120.21,
    "c": 120.289,
    "v": 3969
  },
  {
    "dt": "2021.06.22 17:00",
    "o": 120.294,
    "h": 120.418,
    "l": 120.255,
    "c": 120.28,
    "v": 4120
  },
  {
    "dt": "2021.06.22 18:00",
    "o": 120.281,
    "h": 120.393,
    "l": 120.237,
    "c": 120.364,
    "v": 3305
  },
  {
    "dt": "2021.06.22 19:00",
    "o": 120.37,
    "h": 120.513,
    "l": 120.306,
    "c": 120.501,
    "v": 2835
  },
  {
    "dt": "2021.06.22 20:00",
    "o": 120.503,
    "h": 120.544,
    "l": 120.481,
    "c": 120.506,
    "v": 2124
  },
  {
    "dt": "2021.06.22 21:00",
    "o": 120.505,
    "h": 120.561,
    "l": 120.434,
    "c": 120.434,
    "v": 2405
  },
  {
    "dt": "2021.06.22 22:00",
    "o": 120.436,
    "h": 120.566,
    "l": 120.436,
    "c": 120.474,
    "v": 2289
  },
  {
    "dt": "2021.06.22 23:00",
    "o": 120.474,
    "h": 120.527,
    "l": 120.449,
    "c": 120.452,
    "v": 1092
  },
  {
    "dt": "2021.06.23 00:00",
    "o": 120.474,
    "h": 120.477,
    "l": 120.451,
    "c": 120.464,
    "v": 216
  },
  {
    "dt": "2021.06.23 01:00",
    "o": 120.464,
    "h": 120.518,
    "l": 120.455,
    "c": 120.466,
    "v": 666
  },
  {
    "dt": "2021.06.23 02:00",
    "o": 120.465,
    "h": 120.488,
    "l": 120.42,
    "c": 120.44,
    "v": 955
  },
  {
    "dt": "2021.06.23 03:00",
    "o": 120.441,
    "h": 120.541,
    "l": 120.433,
    "c": 120.482,
    "v": 1897
  },
  {
    "dt": "2021.06.23 04:00",
    "o": 120.483,
    "h": 120.549,
    "l": 120.45,
    "c": 120.486,
    "v": 2185
  },
  {
    "dt": "2021.06.23 05:00",
    "o": 120.489,
    "h": 120.489,
    "l": 120.409,
    "c": 120.42,
    "v": 1548
  },
  {
    "dt": "2021.06.23 06:00",
    "o": 120.421,
    "h": 120.477,
    "l": 120.409,
    "c": 120.444,
    "v": 1304
  },
  {
    "dt": "2021.06.23 07:00",
    "o": 120.445,
    "h": 120.482,
    "l": 120.435,
    "c": 120.45,
    "v": 1127
  },
  {
    "dt": "2021.06.23 08:00",
    "o": 120.45,
    "h": 120.558,
    "l": 120.438,
    "c": 120.501,
    "v": 1231
  },
  {
    "dt": "2021.06.23 09:00",
    "o": 120.505,
    "h": 120.738,
    "l": 120.49,
    "c": 120.684,
    "v": 2860
  },
  {
    "dt": "2021.06.23 10:00",
    "o": 120.689,
    "h": 120.792,
    "l": 120.607,
    "c": 120.762,
    "v": 3661
  },
  {
    "dt": "2021.06.23 11:00",
    "o": 120.763,
    "h": 120.831,
    "l": 120.693,
    "c": 120.712,
    "v": 3121
  },
  {
    "dt": "2021.06.23 12:00",
    "o": 120.715,
    "h": 120.828,
    "l": 120.666,
    "c": 120.828,
    "v": 2567
  },
  {
    "dt": "2021.06.23 13:00",
    "o": 120.826,
    "h": 120.979,
    "l": 120.821,
    "c": 120.904,
    "v": 2925
  },
  {
    "dt": "2021.06.23 14:00",
    "o": 120.904,
    "h": 120.945,
    "l": 120.623,
    "c": 120.758,
    "v": 3422
  },
  {
    "dt": "2021.06.23 15:00",
    "o": 120.757,
    "h": 120.899,
    "l": 120.687,
    "c": 120.86,
    "v": 3207
  },
  {
    "dt": "2021.06.23 16:00",
    "o": 120.863,
    "h": 120.974,
    "l": 120.829,
    "c": 120.904,
    "v": 4200
  },
  {
    "dt": "2021.06.23 17:00",
    "o": 120.902,
    "h": 120.925,
    "l": 120.739,
    "c": 120.836,
    "v": 3937
  },
  {
    "dt": "2021.06.23 18:00",
    "o": 120.838,
    "h": 120.889,
    "l": 120.804,
    "c": 120.886,
    "v": 3169
  },
  {
    "dt": "2021.06.23 19:00",
    "o": 120.886,
    "h": 120.898,
    "l": 120.772,
    "c": 120.802,
    "v": 2657
  },
  {
    "dt": "2021.06.23 20:00",
    "o": 120.803,
    "h": 120.839,
    "l": 120.781,
    "c": 120.835,
    "v": 2383
  },
  {
    "dt": "2021.06.23 21:00",
    "o": 120.834,
    "h": 120.885,
    "l": 120.809,
    "c": 120.824,
    "v": 1967
  },
  {
    "dt": "2021.06.23 22:00",
    "o": 120.826,
    "h": 120.826,
    "l": 120.725,
    "c": 120.756,
    "v": 1586
  },
  {
    "dt": "2021.06.23 23:00",
    "o": 120.753,
    "h": 120.854,
    "l": 120.713,
    "c": 120.713,
    "v": 1159
  },
  {
    "dt": "2021.06.24 00:00",
    "o": 120.581,
    "h": 120.839,
    "l": 120.581,
    "c": 120.835,
    "v": 1035
  },
  {
    "dt": "2021.06.24 01:00",
    "o": 120.839,
    "h": 120.885,
    "l": 120.826,
    "c": 120.84,
    "v": 420
  },
  {
    "dt": "2021.06.24 02:00",
    "o": 120.839,
    "h": 120.887,
    "l": 120.827,
    "c": 120.881,
    "v": 1304
  },
  {
    "dt": "2021.06.24 03:00",
    "o": 120.881,
    "h": 120.978,
    "l": 120.813,
    "c": 120.877,
    "v": 2115
  },
  {
    "dt": "2021.06.24 04:00",
    "o": 120.88,
    "h": 120.891,
    "l": 120.729,
    "c": 120.747,
    "v": 2075
  },
  {
    "dt": "2021.06.24 05:00",
    "o": 120.747,
    "h": 120.773,
    "l": 120.713,
    "c": 120.758,
    "v": 1728
  },
  {
    "dt": "2021.06.24 06:00",
    "o": 120.757,
    "h": 120.772,
    "l": 120.709,
    "c": 120.727,
    "v": 1102
  },
  {
    "dt": "2021.06.24 07:00",
    "o": 120.726,
    "h": 120.745,
    "l": 120.666,
    "c": 120.681,
    "v": 909
  },
  {
    "dt": "2021.06.24 08:00",
    "o": 120.682,
    "h": 120.683,
    "l": 120.513,
    "c": 120.58,
    "v": 1413
  },
  {
    "dt": "2021.06.24 09:00",
    "o": 120.577,
    "h": 120.701,
    "l": 120.531,
    "c": 120.695,
    "v": 2623
  },
  {
    "dt": "2021.06.24 10:00",
    "o": 120.687,
    "h": 120.734,
    "l": 120.518,
    "c": 120.557,
    "v": 3319
  },
  {
    "dt": "2021.06.24 11:00",
    "o": 120.556,
    "h": 120.634,
    "l": 120.485,
    "c": 120.515,
    "v": 2984
  },
  {
    "dt": "2021.06.24 12:00",
    "o": 120.514,
    "h": 120.747,
    "l": 120.512,
    "c": 120.689,
    "v": 2639
  },
  {
    "dt": "2021.06.24 13:00",
    "o": 120.686,
    "h": 120.709,
    "l": 120.605,
    "c": 120.64,
    "v": 2519
  },
  {
    "dt": "2021.06.24 14:00",
    "o": 120.637,
    "h": 120.662,
    "l": 120.545,
    "c": 120.572,
    "v": 3286
  },
  {
    "dt": "2021.06.24 15:00",
    "o": 120.572,
    "h": 120.683,
    "l": 120.478,
    "c": 120.677,
    "v": 3576
  },
  {
    "dt": "2021.06.24 16:00",
    "o": 120.676,
    "h": 120.689,
    "l": 120.593,
    "c": 120.631,
    "v": 3748
  },
  {
    "dt": "2021.06.24 17:00",
    "o": 120.634,
    "h": 120.678,
    "l": 120.559,
    "c": 120.594,
    "v": 3532
  },
  {
    "dt": "2021.06.24 18:00",
    "o": 120.593,
    "h": 120.723,
    "l": 120.584,
    "c": 120.679,
    "v": 2697
  },
  {
    "dt": "2021.06.24 19:00",
    "o": 120.681,
    "h": 120.738,
    "l": 120.661,
    "c": 120.699,
    "v": 2130
  },
  {
    "dt": "2021.06.24 20:00",
    "o": 120.697,
    "h": 120.768,
    "l": 120.696,
    "c": 120.725,
    "v": 2057
  },
  {
    "dt": "2021.06.24 21:00",
    "o": 120.723,
    "h": 120.739,
    "l": 120.692,
    "c": 120.705,
    "v": 1811
  },
  {
    "dt": "2021.06.24 22:00",
    "o": 120.702,
    "h": 120.732,
    "l": 120.686,
    "c": 120.709,
    "v": 1474
  },
  {
    "dt": "2021.06.24 23:00",
    "o": 120.708,
    "h": 120.795,
    "l": 120.707,
    "c": 120.727,
    "v": 1254
  },
  {
    "dt": "2021.06.25 00:00",
    "o": 120.764,
    "h": 120.765,
    "l": 120.671,
    "c": 120.718,
    "v": 257
  },
  {
    "dt": "2021.06.25 01:00",
    "o": 120.723,
    "h": 120.779,
    "l": 120.7,
    "c": 120.764,
    "v": 590
  },
  {
    "dt": "2021.06.25 02:00",
    "o": 120.763,
    "h": 120.823,
    "l": 120.76,
    "c": 120.794,
    "v": 871
  },
  {
    "dt": "2021.06.25 03:00",
    "o": 120.792,
    "h": 120.885,
    "l": 120.775,
    "c": 120.828,
    "v": 1849
  },
  {
    "dt": "2021.06.25 04:00",
    "o": 120.825,
    "h": 120.912,
    "l": 120.807,
    "c": 120.895,
    "v": 1624
  },
  {
    "dt": "2021.06.25 05:00",
    "o": 120.897,
    "h": 120.904,
    "l": 120.798,
    "c": 120.804,
    "v": 1269
  },
  {
    "dt": "2021.06.25 06:00",
    "o": 120.804,
    "h": 120.826,
    "l": 120.792,
    "c": 120.799,
    "v": 914
  },
  {
    "dt": "2021.06.25 07:00",
    "o": 120.8,
    "h": 120.811,
    "l": 120.763,
    "c": 120.782,
    "v": 1072
  },
  {
    "dt": "2021.06.25 08:00",
    "o": 120.783,
    "h": 120.791,
    "l": 120.742,
    "c": 120.766,
    "v": 1101
  },
  {
    "dt": "2021.06.25 09:00",
    "o": 120.762,
    "h": 120.827,
    "l": 120.713,
    "c": 120.732,
    "v": 2225
  },
  {
    "dt": "2021.06.25 10:00",
    "o": 120.729,
    "h": 120.767,
    "l": 120.637,
    "c": 120.731,
    "v": 2952
  },
  {
    "dt": "2021.06.25 11:00",
    "o": 120.728,
    "h": 120.785,
    "l": 120.666,
    "c": 120.766,
    "v": 2699
  },
  {
    "dt": "2021.06.25 12:00",
    "o": 120.767,
    "h": 120.817,
    "l": 120.7,
    "c": 120.813,
    "v": 2533
  },
  {
    "dt": "2021.06.25 13:00",
    "o": 120.813,
    "h": 120.834,
    "l": 120.739,
    "c": 120.803,
    "v": 2269
  },
  {
    "dt": "2021.06.25 14:00",
    "o": 120.804,
    "h": 120.815,
    "l": 120.657,
    "c": 120.68,
    "v": 2340
  },
  {
    "dt": "2021.06.25 15:00",
    "o": 120.679,
    "h": 120.77,
    "l": 120.597,
    "c": 120.625,
    "v": 3974
  },
  {
    "dt": "2021.06.25 16:00",
    "o": 120.622,
    "h": 120.938,
    "l": 120.62,
    "c": 120.87,
    "v": 3939
  },
  {
    "dt": "2021.06.25 17:00",
    "o": 120.869,
    "h": 120.897,
    "l": 120.781,
    "c": 120.875,
    "v": 4139
  },
  {
    "dt": "2021.06.25 18:00",
    "o": 120.873,
    "h": 120.906,
    "l": 120.692,
    "c": 120.724,
    "v": 3260
  },
  {
    "dt": "2021.06.25 19:00",
    "o": 120.724,
    "h": 120.807,
    "l": 120.713,
    "c": 120.807,
    "v": 1984
  },
  {
    "dt": "2021.06.25 20:00",
    "o": 120.809,
    "h": 120.814,
    "l": 120.762,
    "c": 120.782,
    "v": 1996
  },
  {
    "dt": "2021.06.25 21:00",
    "o": 120.791,
    "h": 120.791,
    "l": 120.711,
    "c": 120.736,
    "v": 1628
  },
  {
    "dt": "2021.06.25 22:00",
    "o": 120.736,
    "h": 120.813,
    "l": 120.733,
    "c": 120.807,
    "v": 1523
  },
  {
    "dt": "2021.06.25 23:00",
    "o": 120.808,
    "h": 120.842,
    "l": 120.782,
    "c": 120.782,
    "v": 933
  },
  {
    "dt": "2021.06.28 00:00",
    "o": 120.433,
    "h": 120.749,
    "l": 120.433,
    "c": 120.689,
    "v": 127
  },
  {
    "dt": "2021.06.28 01:00",
    "o": 120.686,
    "h": 120.832,
    "l": 120.663,
    "c": 120.818,
    "v": 517
  },
  {
    "dt": "2021.06.28 02:00",
    "o": 120.815,
    "h": 120.88,
    "l": 120.806,
    "c": 120.868,
    "v": 605
  },
  {
    "dt": "2021.06.28 03:00",
    "o": 120.862,
    "h": 120.87,
    "l": 120.603,
    "c": 120.654,
    "v": 1657
  },
  {
    "dt": "2021.06.28 04:00",
    "o": 120.654,
    "h": 120.664,
    "l": 120.45,
    "c": 120.486,
    "v": 1728
  },
  {
    "dt": "2021.06.28 05:00",
    "o": 120.484,
    "h": 120.527,
    "l": 120.427,
    "c": 120.507,
    "v": 1210
  },
  {
    "dt": "2021.06.28 06:00",
    "o": 120.508,
    "h": 120.511,
    "l": 120.451,
    "c": 120.452,
    "v": 1010
  },
  {
    "dt": "2021.06.28 07:00",
    "o": 120.451,
    "h": 120.482,
    "l": 120.428,
    "c": 120.442,
    "v": 814
  },
  {
    "dt": "2021.06.28 08:00",
    "o": 120.442,
    "h": 120.496,
    "l": 120.401,
    "c": 120.472,
    "v": 905
  },
  {
    "dt": "2021.06.28 09:00",
    "o": 120.471,
    "h": 120.574,
    "l": 120.469,
    "c": 120.559,
    "v": 2107
  },
  {
    "dt": "2021.06.28 10:00",
    "o": 120.558,
    "h": 120.612,
    "l": 120.487,
    "c": 120.591,
    "v": 2949
  },
  {
    "dt": "2021.06.28 11:00",
    "o": 120.59,
    "h": 120.627,
    "l": 120.435,
    "c": 120.609,
    "v": 2911
  },
  {
    "dt": "2021.06.28 12:00",
    "o": 120.61,
    "h": 120.627,
    "l": 120.525,
    "c": 120.56,
    "v": 2205
  },
  {
    "dt": "2021.06.28 13:00",
    "o": 120.56,
    "h": 120.622,
    "l": 120.543,
    "c": 120.602,
    "v": 2191
  },
  {
    "dt": "2021.06.28 14:00",
    "o": 120.603,
    "h": 120.61,
    "l": 120.394,
    "c": 120.423,
    "v": 3091
  },
  {
    "dt": "2021.06.28 15:00",
    "o": 120.433,
    "h": 120.491,
    "l": 120.402,
    "c": 120.476,
    "v": 3313
  },
  {
    "dt": "2021.06.28 16:00",
    "o": 120.479,
    "h": 120.569,
    "l": 120.414,
    "c": 120.474,
    "v": 3457
  },
  {
    "dt": "2021.06.28 17:00",
    "o": 120.476,
    "h": 120.537,
    "l": 120.324,
    "c": 120.327,
    "v": 3862
  },
  {
    "dt": "2021.06.28 18:00",
    "o": 120.335,
    "h": 120.4,
    "l": 120.199,
    "c": 120.308,
    "v": 3201
  },
  {
    "dt": "2021.06.28 19:00",
    "o": 120.307,
    "h": 120.308,
    "l": 120.223,
    "c": 120.238,
    "v": 2209
  },
  {
    "dt": "2021.06.28 20:00",
    "o": 120.239,
    "h": 120.253,
    "l": 120.18,
    "c": 120.194,
    "v": 2024
  },
  {
    "dt": "2021.06.28 21:00",
    "o": 120.194,
    "h": 120.255,
    "l": 120.168,
    "c": 120.168,
    "v": 1481
  },
  {
    "dt": "2021.06.28 22:00",
    "o": 120.17,
    "h": 120.274,
    "l": 120.17,
    "c": 120.262,
    "v": 1095
  },
  {
    "dt": "2021.06.28 23:00",
    "o": 120.264,
    "h": 120.269,
    "l": 120.218,
    "c": 120.264,
    "v": 712
  },
  {
    "dt": "2021.06.29 00:00",
    "o": 120.24,
    "h": 120.296,
    "l": 120.211,
    "c": 120.253,
    "v": 317
  },
  {
    "dt": "2021.06.29 01:00",
    "o": 120.253,
    "h": 120.258,
    "l": 120.2,
    "c": 120.226,
    "v": 502
  },
  {
    "dt": "2021.06.29 02:00",
    "o": 120.227,
    "h": 120.262,
    "l": 120.222,
    "c": 120.258,
    "v": 415
  },
  {
    "dt": "2021.06.29 03:00",
    "o": 120.256,
    "h": 120.274,
    "l": 120.074,
    "c": 120.086,
    "v": 1564
  },
  {
    "dt": "2021.06.29 04:00",
    "o": 120.085,
    "h": 120.121,
    "l": 120.027,
    "c": 120.083,
    "v": 1523
  },
  {
    "dt": "2021.06.29 05:00",
    "o": 120.081,
    "h": 120.086,
    "l": 120.02,
    "c": 120.081,
    "v": 1245
  },
  {
    "dt": "2021.06.29 06:00",
    "o": 120.082,
    "h": 120.097,
    "l": 120.003,
    "c": 120.055,
    "v": 989
  },
  {
    "dt": "2021.06.29 07:00",
    "o": 120.052,
    "h": 120.163,
    "l": 120.048,
    "c": 120.139,
    "v": 1027
  },
  {
    "dt": "2021.06.29 08:00",
    "o": 120.137,
    "h": 120.219,
    "l": 120.119,
    "c": 120.203,
    "v": 905
  },
  {
    "dt": "2021.06.29 09:00",
    "o": 120.203,
    "h": 120.335,
    "l": 120.172,
    "c": 120.286,
    "v": 2185
  },
  {
    "dt": "2021.06.29 10:00",
    "o": 120.288,
    "h": 120.31,
    "l": 120.187,
    "c": 120.267,
    "v": 3083
  },
  {
    "dt": "2021.06.29 11:00",
    "o": 120.272,
    "h": 120.314,
    "l": 120.062,
    "c": 120.064,
    "v": 3314
  },
  {
    "dt": "2021.06.29 12:00",
    "o": 120.066,
    "h": 120.202,
    "l": 120.065,
    "c": 120.119,
    "v": 2577
  },
  {
    "dt": "2021.06.29 13:00",
    "o": 120.12,
    "h": 120.148,
    "l": 120.003,
    "c": 120.075,
    "v": 2376
  },
  {
    "dt": "2021.06.29 14:00",
    "o": 120.078,
    "h": 120.085,
    "l": 119.912,
    "c": 119.938,
    "v": 3121
  },
  {
    "dt": "2021.06.29 15:00",
    "o": 119.939,
    "h": 120.015,
    "l": 119.897,
    "c": 119.937,
    "v": 3881
  },
  {
    "dt": "2021.06.29 16:00",
    "o": 119.937,
    "h": 120.0,
    "l": 119.852,
    "c": 119.981,
    "v": 3759
  },
  {
    "dt": "2021.06.29 17:00",
    "o": 119.977,
    "h": 120.044,
    "l": 119.799,
    "c": 119.988,
    "v": 3987
  },
  {
    "dt": "2021.06.29 18:00",
    "o": 119.988,
    "h": 120.145,
    "l": 119.953,
    "c": 120.13,
    "v": 2609
  },
  {
    "dt": "2021.06.29 19:00",
    "o": 120.132,
    "h": 120.132,
    "l": 120.013,
    "c": 120.016,
    "v": 1749
  },
  {
    "dt": "2021.06.29 20:00",
    "o": 120.016,
    "h": 120.047,
    "l": 119.959,
    "c": 119.971,
    "v": 1240
  },
  {
    "dt": "2021.06.29 21:00",
    "o": 119.97,
    "h": 120.031,
    "l": 119.958,
    "c": 119.972,
    "v": 1333
  },
  {
    "dt": "2021.06.29 22:00",
    "o": 119.97,
    "h": 120.044,
    "l": 119.948,
    "c": 120.037,
    "v": 1189
  },
  {
    "dt": "2021.06.29 23:00",
    "o": 120.036,
    "h": 120.073,
    "l": 119.94,
    "c": 119.97,
    "v": 917
  },
  {
    "dt": "2021.06.30 00:00",
    "o": 119.912,
    "h": 120.019,
    "l": 119.912,
    "c": 119.99,
    "v": 428
  },
  {
    "dt": "2021.06.30 01:00",
    "o": 119.991,
    "h": 120.024,
    "l": 119.971,
    "c": 119.992,
    "v": 798
  },
  {
    "dt": "2021.06.30 02:00",
    "o": 119.985,
    "h": 120.022,
    "l": 119.985,
    "c": 120.007,
    "v": 472
  },
  {
    "dt": "2021.06.30 03:00",
    "o": 120.007,
    "h": 120.075,
    "l": 119.964,
    "c": 120.015,
    "v": 1779
  },
  {
    "dt": "2021.06.30 04:00",
    "o": 120.014,
    "h": 120.028,
    "l": 119.907,
    "c": 119.968,
    "v": 1847
  },
  {
    "dt": "2021.06.30 05:00",
    "o": 119.969,
    "h": 120.002,
    "l": 119.929,
    "c": 119.964,
    "v": 982
  },
  {
    "dt": "2021.06.30 06:00",
    "o": 119.965,
    "h": 119.967,
    "l": 119.889,
    "c": 119.916,
    "v": 998
  },
  {
    "dt": "2021.06.30 07:00",
    "o": 119.915,
    "h": 119.928,
    "l": 119.892,
    "c": 119.911,
    "v": 1101
  },
  {
    "dt": "2021.06.30 08:00",
    "o": 119.91,
    "h": 119.92,
    "l": 119.814,
    "c": 119.84,
    "v": 1319
  },
  {
    "dt": "2021.06.30 09:00",
    "o": 119.837,
    "h": 119.995,
    "l": 119.805,
    "c": 119.983,
    "v": 2143
  },
  {
    "dt": "2021.06.30 10:00",
    "o": 119.982,
    "h": 119.987,
    "l": 119.783,
    "c": 119.892,
    "v": 3224
  },
  {
    "dt": "2021.06.30 11:00",
    "o": 119.89,
    "h": 119.905,
    "l": 119.654,
    "c": 119.692,
    "v": 3215
  },
  {
    "dt": "2021.06.30 12:00",
    "o": 119.692,
    "h": 119.816,
    "l": 119.688,
    "c": 119.813,
    "v": 2747
  },
  {
    "dt": "2021.06.30 13:00",
    "o": 119.813,
    "h": 119.815,
    "l": 119.682,
    "c": 119.705,
    "v": 2494
  },
  {
    "dt": "2021.06.30 14:00",
    "o": 119.706,
    "h": 119.765,
    "l": 119.624,
    "c": 119.753,
    "v": 2554
  },
  {
    "dt": "2021.06.30 15:00",
    "o": 119.753,
    "h": 119.783,
    "l": 119.634,
    "c": 119.715,
    "v": 3770
  },
  {
    "dt": "2021.06.30 16:00",
    "o": 119.715,
    "h": 119.817,
    "l": 119.678,
    "c": 119.796,
    "v": 3986
  },
  {
    "dt": "2021.06.30 17:00",
    "o": 119.8,
    "h": 120.079,
    "l": 119.692,
    "c": 120.061,
    "v": 4538
  },
  {
    "dt": "2021.06.30 18:00",
    "o": 120.055,
    "h": 120.101,
    "l": 119.947,
    "c": 119.989,
    "v": 3784
  },
  {
    "dt": "2021.06.30 19:00",
    "o": 119.993,
    "h": 120.045,
    "l": 119.949,
    "c": 120.025,
    "v": 2802
  },
  {
    "dt": "2021.06.30 20:00",
    "o": 120.025,
    "h": 120.041,
    "l": 119.983,
    "c": 120.008,
    "v": 2141
  },
  {
    "dt": "2021.06.30 21:00",
    "o": 120.007,
    "h": 120.015,
    "l": 119.937,
    "c": 119.947,
    "v": 1859
  },
  {
    "dt": "2021.06.30 22:00",
    "o": 119.948,
    "h": 120.062,
    "l": 119.938,
    "c": 120.046,
    "v": 1661
  },
  {
    "dt": "2021.06.30 23:00",
    "o": 120.043,
    "h": 120.116,
    "l": 120.035,
    "c": 120.035,
    "v": 1690
  }
]