[
  {
    "dt": "2021.04.01 00:00",
    "o": 1.37758,
    "h": 1.37808,
    "l": 1.37713,
    "c": 1.37757,
    "v": 149
  },
  {
    "dt": "2021.04.01 01:00",
    "o": 1.37788,
    "h": 1.37862,
    "l": 1.37767,
    "c": 1.37815,
    "v": 626
  },
  {
    "dt": "2021.04.01 02:00",
    "o": 1.37815,
    "h": 1.3785,
    "l": 1.3778,
    "c": 1.37845,
    "v": 664
  },
  {
    "dt": "2021.04.01 03:00",
    "o": 1.37846,
    "h": 1.37891,
    "l": 1.37758,
    "c": 1.37876,
    "v": 1696
  },
  {
    "dt": "2021.04.01 04:00",
    "o": 1.37875,
    "h": 1.37892,
    "l": 1.37782,
    "c": 1.37854,
    "v": 1391
  },
  {
    "dt": "2021.04.01 05:00",
    "o": 1.37853,
    "h": 1.37897,
    "l": 1.37792,
    "c": 1.37827,
    "v": 1405
  },
  {
    "dt": "2021.04.01 06:00",
    "o": 1.37828,
    "h": 1.37878,
    "l": 1.37786,
    "c": 1.37806,
    "v": 1478
  },
  {
    "dt": "2021.04.01 07:00",
    "o": 1.37806,
    "h": 1.37819,
    "l": 1.37645,
    "c": 1.37666,
    "v": 1716
  },
  {
    "dt": "2021.04.01 08:00",
    "o": 1.37662,
    "h": 1.37664,
    "l": 1.37554,
    "c": 1.37617,
    "v": 1910
  },
  {
    "dt": "2021.04.01 09:00",
    "o": 1.37613,
    "h": 1.37697,
    "l": 1.37524,
    "c": 1.37619,
    "v": 2748
  },
  {
    "dt": "2021.04.01 10:00",
    "o": 1.37612,
    "h": 1.37872,
    "l": 1.3745,
    "c": 1.3785,
    "v": 3341
  },
  {
    "dt": "2021.04.01 11:00",
    "o": 1.37848,
    "h": 1.3795,
    "l": 1.37748,
    "c": 1.3775,
    "v": 3122
  },
  {
    "dt": "2021.04.01 12:00",
    "o": 1.37751,
    "h": 1.37853,
    "l": 1.37671,
    "c": 1.37702,
    "v": 2557
  },
  {
    "dt": "2021.04.01 13:00",
    "o": 1.37704,
    "h": 1.37766,
    "l": 1.3758,
    "c": 1.37752,
    "v": 2265
  },
  {
    "dt": "2021.04.01 14:00",
    "o": 1.37758,
    "h": 1.37871,
    "l": 1.37703,
    "c": 1.37846,
    "v": 2421
  },
  {
    "dt": "2021.04.01 15:00",
    "o": 1.37849,
    "h": 1.37948,
    "l": 1.37812,
    "c": 1.37907,
    "v": 3252
  },
  {
    "dt": "2021.04.01 16:00",
    "o": 1.37905,
    "h": 1.38253,
    "l": 1.379,
    "c": 1.38141,
    "v": 3840
  },
  {
    "dt": "2021.04.01 17:00",
    "o": 1.38145,
    "h": 1.38277,
    "l": 1.38069,
    "c": 1.38187,
    "v": 3722
  },
  {
    "dt": "2021.04.01 18:00",
    "o": 1.38187,
    "h": 1.38333,
    "l": 1.38183,
    "c": 1.38234,
    "v": 2971
  },
  {
    "dt": "2021.04.01 19:00",
    "o": 1.3823,
    "h": 1.38357,
    "l": 1.38176,
    "c": 1.38177,
    "v": 2105
  },
  {
    "dt": "2021.04.01 20:00",
    "o": 1.38176,
    "h": 1.3827,
    "l": 1.38171,
    "c": 1.38219,
    "v": 1589
  },
  {
    "dt": "2021.04.01 21:00",
    "o": 1.38215,
    "h": 1.38337,
    "l": 1.38205,
    "c": 1.38305,
    "v": 1325
  },
  {
    "dt": "2021.04.01 22:00",
    "o": 1.38304,
    "h": 1.3835,
    "l": 1.38254,
    "c": 1.38327,
    "v": 1332
  },
  {
    "dt": "2021.04.01 23:00",
    "o": 1.38327,
    "h": 1.38344,
    "l": 1.38268,
    "c": 1.38326,
    "v": 843
  },
  {
    "dt": "2021.04.02 00:00",
    "o": 1.38279,
    "h": 1.38307,
    "l": 1.38261,
    "c": 1.38261,
    "v": 76
  },
  {
    "dt": "2021.04.02 01:00",
    "o": 1.3829,
    "h": 1.38364,
    "l": 1.3829,
    "c": 1.38357,
    "v": 317
  },
  {
    "dt": "2021.04.02 02:00",
    "o": 1.38355,
    "h": 1.38363,
    "l": 1.38302,
    "c": 1.38324,
    "v": 385
  },
  {
    "dt": "2021.04.02 03:00",
    "o": 1.38325,
    "h": 1.38441,
    "l": 1.38324,
    "c": 1.38408,
    "v": 913
  },
  {
    "dt": "2021.04.02 04:00",
    "o": 1.38405,
    "h": 1.3841,
    "l": 1.3833,
    "c": 1.38336,
    "v": 684
  },
  {
    "dt": "2021.04.02 05:00",
    "o": 1.38334,
    "h": 1.38431,
    "l": 1.38333,
    "c": 1.38429,
    "v": 606
  },
  {
    "dt": "2021.04.02 06:00",
    "o": 1.38428,
    "h": 1.38487,
    "l": 1.38406,
    "c": 1.38443,
    "v": 910
  },
  {
    "dt": "2021.04.02 07:00",
    "o": 1.38436,
    "h": 1.38465,
    "l": 1.38412,
    "c": 1.38445,
    "v": 629
  },
  {
    "dt": "2021.04.02 08:00",
    "o": 1.38446,
    "h": 1.38513,
    "l": 1.38407,
    "c": 1.38452,
    "v": 592
  },
  {
    "dt": "2021.04.02 09:00",
    "o": 1.38456,
    "h": 1.38466,
    "l": 1.38397,
    "c": 1.38422,
    "v": 778
  },
  {
    "dt": "2021.04.02 10:00",
    "o": 1.38423,
    "h": 1.38423,
    "l": 1.38323,
    "c": 1.38376,
    "v": 990
  },
  {
    "dt": "2021.04.02 11:00",
    "o": 1.38371,
    "h": 1.38404,
    "l": 1.38334,
    "c": 1.38344,
    "v": 960
  },
  {
    "dt": "2021.04.02 12:00",
    "o": 1.38339,
    "h": 1.38357,
    "l": 1.38295,
    "c": 1.38338,
    "v": 884
  },
  {
    "dt": "2021.04.02 13:00",
    "o": 1.38331,
    "h": 1.384,
    "l": 1.38331,
    "c": 1.38373,
    "v": 680
  },
  {
    "dt": "2021.04.02 14:00",
    "o": 1.38373,
    "h": 1.38396,
    "l": 1.38264,
    "c": 1.38286,
    "v": 1010
  },
  {
    "dt": "2021.04.02 15:00",
    "o": 1.38288,
    "h": 1.38417,
    "l": 1.38092,
    "c": 1.38325,
    "v": 1723
  },
  {
    "dt": "2021.04.02 16:00",
    "o": 1.38327,
    "h": 1.38328,
    "l": 1.38131,
    "c": 1.38293,
    "v": 1651
  },
  {
    "dt": "2021.04.02 17:00",
    "o": 1.38292,
    "h": 1.38293,
    "l": 1.38132,
    "c": 1.3826,
    "v": 1127
  },
  {
    "dt": "2021.04.02 18:00",
    "o": 1.38258,
    "h": 1.38264,
    "l": 1.38136,
    "c": 1.3821,
    "v": 1613
  },
  {
    "dt": "2021.04.02 19:00",
    "o": 1.38204,
    "h": 1.38233,
    "l": 1.3814,
    "c": 1.38196,
    "v": 1851
  },
  {
    "dt": "2021.04.02 20:00",
    "o": 1.38196,
    "h": 1.38282,
    "l": 1.3817,
    "c": 1.38191,
    "v": 3975
  },
  {
    "dt": "2021.04.02 21:00",
    "o": 1.38192,
    "h": 1.38256,
    "l": 1.38145,
    "c": 1.38202,
    "v": 3299
  },
  {
    "dt": "2021.04.02 22:00",
    "o": 1.38204,
    "h": 1.3836,
    "l": 1.3816,
    "c": 1.3833,
    "v": 1590
  },
  {
    "dt": "2021.04.02 23:00",
    "o": 1.38301,
    "h": 1.38343,
    "l": 1.38134,
    "c": 1.38262,
    "v": 414
  },
  {
    "dt": "2021.04.05 00:00",
    "o": 1.38243,
    "h": 1.3825,
    "l": 1.38192,
    "c": 1.38222,
    "v": 48
  },
  {
    "dt": "2021.04.05 01:00",
    "o": 1.38169,
    "h": 1.38309,
    "l": 1.38169,
    "c": 1.3822,
    "v": 886
  },
  {
    "dt": "2021.04.05 02:00",
    "o": 1.3821,
    "h": 1.38308,
    "l": 1.38163,
    "c": 1.3829,
    "v": 565
  },
  {
    "dt": "2021.04.05 03:00",
    "o": 1.38288,
    "h": 1.38341,
    "l": 1.38215,
    "c": 1.38281,
    "v": 885
  },
  {
    "dt": "2021.04.05 04:00",
    "o": 1.38272,
    "h": 1.38417,
    "l": 1.38265,
    "c": 1.38389,
    "v": 739
  },
  {
    "dt": "2021.04.05 05:00",
    "o": 1.38381,
    "h": 1.38402,
    "l": 1.38324,
    "c": 1.38341,
    "v": 868
  },
  {
    "dt": "2021.04.05 06:00",
    "o": 1.38342,
    "h": 1.38388,
    "l": 1.38319,
    "c": 1.38354,
    "v": 786
  },
  {
    "dt": "2021.04.05 07:00",
    "o": 1.38356,
    "h": 1.38366,
    "l": 1.38255,
    "c": 1.38263,
    "v": 1142
  },
  {
    "dt": "2021.04.05 08:00",
    "o": 1.38259,
    "h": 1.38278,
    "l": 1.38171,
    "c": 1.38186,
    "v": 1038
  },
  {
    "dt": "2021.04.05 09:00",
    "o": 1.38193,
    "h": 1.38333,
    "l": 1.38122,
    "c": 1.38312,
    "v": 1343
  },
  {
    "dt": "2021.04.05 10:00",
    "o": 1.38311,
    "h": 1.38392,
    "l": 1.38198,
    "c": 1.38371,
    "v": 1697
  },
  {
    "dt": "2021.04.05 11:00",
    "o": 1.38367,
    "h": 1.38678,
    "l": 1.38356,
    "c": 1.38607,
    "v": 1784
  },
  {
    "dt": "2021.04.05 12:00",
    "o": 1.38599,
    "h": 1.38634,
    "l": 1.38533,
    "c": 1.38547,
    "v": 1335
  },
  {
    "dt": "2021.04.05 13:00",
    "o": 1.38552,
    "h": 1.38639,
    "l": 1.38526,
    "c": 1.38635,
    "v": 1130
  },
  {
    "dt": "2021.04.05 14:00",
    "o": 1.38632,
    "h": 1.38701,
    "l": 1.38607,
    "c": 1.38628,
    "v": 1830
  },
  {
    "dt": "2021.04.05 15:00",
    "o": 1.38641,
    "h": 1.38792,
    "l": 1.38613,
    "c": 1.38758,
    "v": 2391
  },
  {
    "dt": "2021.04.05 16:00",
    "o": 1.38758,
    "h": 1.39006,
    "l": 1.38725,
    "c": 1.38943,
    "v": 2702
  },
  {
    "dt": "2021.04.05 17:00",
    "o": 1.38944,
    "h": 1.39041,
    "l": 1.38916,
    "c": 1.38933,
    "v": 2918
  },
  {
    "dt": "2021.04.05 18:00",
    "o": 1.38933,
    "h": 1.39127,
    "l": 1.38892,
    "c": 1.39056,
    "v": 2074
  },
  {
    "dt": "2021.04.05 19:00",
    "o": 1.39056,
    "h": 1.3906,
    "l": 1.38972,
    "c": 1.39013,
    "v": 1368
  },
  {
    "dt": "2021.04.05 20:00",
    "o": 1.39013,
    "h": 1.39066,
    "l": 1.38983,
    "c": 1.39038,
    "v": 1441
  },
  {
    "dt": "2021.04.05 21:00",
    "o": 1.39042,
    "h": 1.3906,
    "l": 1.39002,
    "c": 1.39033,
    "v": 1494
  },
  {
    "dt": "2021.04.05 22:00",
    "o": 1.39034,
    "h": 1.39063,
    "l": 1.38988,
    "c": 1.39041,
    "v": 1505
  },
  {
    "dt": "2021.04.05 23:00",
    "o": 1.39039,
    "h": 1.39063,
    "l": 1.39023,
    "c": 1.39034,
    "v": 709
  },
  {
    "dt": "2021.04.06 00:00",
    "o": 1.38966,
    "h": 1.39073,
    "l": 1.38928,
    "c": 1.39033,
    "v": 329
  },
  {
    "dt": "2021.04.06 01:00",
    "o": 1.39034,
    "h": 1.3914,
    "l": 1.39033,
    "c": 1.3911,
    "v": 384
  },
  {
    "dt": "2021.04.06 02:00",
    "o": 1.39119,
    "h": 1.39141,
    "l": 1.39084,
    "c": 1.39117,
    "v": 672
  },
  {
    "dt": "2021.04.06 03:00",
    "o": 1.39109,
    "h": 1.39135,
    "l": 1.39003,
    "c": 1.39024,
    "v": 1241
  },
  {
    "dt": "2021.04.06 04:00",
    "o": 1.39022,
    "h": 1.3907,
    "l": 1.38977,
    "c": 1.38996,
    "v": 1185
  },
  {
    "dt": "2021.04.06 05:00",
    "o": 1.38996,
    "h": 1.39012,
    "l": 1.38896,
    "c": 1.38926,
    "v": 1484
  },
  {
    "dt": "2021.04.06 06:00",
    "o": 1.38925,
    "h": 1.38957,
    "l": 1.38886,
    "c": 1.38917,
    "v": 1134
  },
  {
    "dt": "2021.04.06 07:00",
    "o": 1.38918,
    "h": 1.39068,
    "l": 1.38908,
    "c": 1.3905,
    "v": 1046
  },
  {
    "dt": "2021.04.06 08:00",
    "o": 1.3905,
    "h": 1.39176,
    "l": 1.39038,
    "c": 1.39147,
    "v": 1376
  },
  {
    "dt": "2021.04.06 09:00",
    "o": 1.39139,
    "h": 1.39172,
    "l": 1.38806,
    "c": 1.38857,
    "v": 2427
  },
  {
    "dt": "2021.04.06 10:00",
    "o": 1.38857,
    "h": 1.38857,
    "l": 1.38677,
    "c": 1.38789,
    "v": 3384
  },
  {
    "dt": "2021.04.06 11:00",
    "o": 1.38794,
    "h": 1.38795,
    "l": 1.38381,
    "c": 1.38532,
    "v": 3654
  },
  {
    "dt": "2021.04.06 12:00",
    "o": 1.38534,
    "h": 1.38579,
    "l": 1.38214,
    "c": 1.38297,
    "v": 3293
  },
  {
    "dt": "2021.04.06 13:00",
    "o": 1.38295,
    "h": 1.38386,
    "l": 1.38246,
    "c": 1.38322,
    "v": 2312
  },
  {
    "dt": "2021.04.06 14:00",
    "o": 1.38321,
    "h": 1.38361,
    "l": 1.38169,
    "c": 1.3824,
    "v": 2375
  },
  {
    "dt": "2021.04.06 15:00",
    "o": 1.38245,
    "h": 1.38536,
    "l": 1.38219,
    "c": 1.38394,
    "v": 3350
  },
  {
    "dt": "2021.04.06 16:00",
    "o": 1.38397,
    "h": 1.38581,
    "l": 1.38243,
    "c": 1.38434,
    "v": 3537
  },
  {
    "dt": "2021.04.06 17:00",
    "o": 1.3843,
    "h": 1.38657,
    "l": 1.38378,
    "c": 1.3859,
    "v": 3213
  },
  {
    "dt": "2021.04.06 18:00",
    "o": 1.3858,
    "h": 1.3858,
    "l": 1.38466,
    "c": 1.38473,
    "v": 2543
  },
  {
    "dt": "2021.04.06 19:00",
    "o": 1.38468,
    "h": 1.38481,
    "l": 1.38187,
    "c": 1.3821,
    "v": 2547
  },
  {
    "dt": "2021.04.06 20:00",
    "o": 1.38209,
    "h": 1.38234,
    "l": 1.38015,
    "c": 1.3815,
    "v": 2501
  },
  {
    "dt": "2021.04.06 21:00",
    "o": 1.38151,
    "h": 1.38265,
    "l": 1.38121,
    "c": 1.38222,
    "v": 1958
  },
  {
    "dt": "2021.04.06 22:00",
    "o": 1.38222,
    "h": 1.38302,
    "l": 1.38214,
    "c": 1.3829,
    "v": 1836
  },
  {
    "dt": "2021.04.06 23:00",
    "o": 1.38282,
    "h": 1.38334,
    "l": 1.38213,
    "c": 1.38232,
    "v": 1200
  },
  {
    "dt": "2021.04.07 00:00",
    "o": 1.38178,
    "h": 1.38243,
    "l": 1.38178,
    "c": 1.38218,
    "v": 250
  },
  {
    "dt": "2021.04.07 01:00",
    "o": 1.38214,
    "h": 1.38254,
    "l": 1.38201,
    "c": 1.3821,
    "v": 714
  },
  {
    "dt": "2021.04.07 02:00",
    "o": 1.38209,
    "h": 1.38304,
    "l": 1.38187,
    "c": 1.38294,
    "v": 805
  },
  {
    "dt": "2021.04.07 03:00",
    "o": 1.38295,
    "h": 1.38342,
    "l": 1.38229,
    "c": 1.38327,
    "v": 1483
  },
  {
    "dt": "2021.04.07 04:00",
    "o": 1.38327,
    "h": 1.38391,
    "l": 1.38268,
    "c": 1.38268,
    "v": 1847
  },
  {
    "dt": "2021.04.07 05:00",
    "o": 1.38274,
    "h": 1.38297,
    "l": 1.3819,
    "c": 1.38201,
    "v": 1837
  },
  {
    "dt": "2021.04.07 06:00",
    "o": 1.382,
    "h": 1.38268,
    "l": 1.382,
    "c": 1.3824,
    "v": 1336
  },
  {
    "dt": "2021.04.07 07:00",
    "o": 1.38238,
    "h": 1.38301,
    "l": 1.38231,
    "c": 1.38296,
    "v": 1102
  },
  {
    "dt": "2021.04.07 08:00",
    "o": 1.38296,
    "h": 1.3831,
    "l": 1.38074,
    "c": 1.38157,
    "v": 1381
  },
  {
    "dt": "2021.04.07 09:00",
    "o": 1.38156,
    "h": 1.38222,
    "l": 1.37715,
    "c": 1.37781,
    "v": 3387
  },
  {
    "dt": "2021.04.07 10:00",
    "o": 1.37779,
    "h": 1.38108,
    "l": 1.37779,
    "c": 1.38052,
    "v": 3511
  },
  {
    "dt": "2021.04.07 11:00",
    "o": 1.38045,
    "h": 1.38301,
    "l": 1.37923,
    "c": 1.38296,
    "v": 3092
  },
  {
    "dt": "2021.04.07 12:00",
    "o": 1.38296,
    "h": 1.3837,
    "l": 1.38169,
    "c": 1.3819,
    "v": 2597
  },
  {
    "dt": "2021.04.07 13:00",
    "o": 1.3819,
    "h": 1.38342,
    "l": 1.38109,
    "c": 1.38112,
    "v": 2723
  },
  {
    "dt": "2021.04.07 14:00",
    "o": 1.38118,
    "h": 1.38275,
    "l": 1.38062,
    "c": 1.38132,
    "v": 2678
  },
  {
    "dt": "2021.04.07 15:00",
    "o": 1.38127,
    "h": 1.3813,
    "l": 1.37548,
    "c": 1.37603,
    "v": 3654
  },
  {
    "dt": "2021.04.07 16:00",
    "o": 1.37604,
    "h": 1.37657,
    "l": 1.37274,
    "c": 1.3738,
    "v": 3900
  },
  {
    "dt": "2021.04.07 17:00",
    "o": 1.37378,
    "h": 1.37934,
    "l": 1.37288,
    "c": 1.37872,
    "v": 4109
  },
  {
    "dt": "2021.04.07 18:00",
    "o": 1.37868,
    "h": 1.37927,
    "l": 1.37401,
    "c": 1.37545,
    "v": 3218
  },
  {
    "dt": "2021.04.07 19:00",
    "o": 1.37544,
    "h": 1.37583,
    "l": 1.37354,
    "c": 1.37411,
    "v": 2252
  },
  {
    "dt": "2021.04.07 20:00",
    "o": 1.37405,
    "h": 1.37442,
    "l": 1.37363,
    "c": 1.37409,
    "v": 1595
  },
  {
    "dt": "2021.04.07 21:00",
    "o": 1.3741,
    "h": 1.37485,
    "l": 1.37321,
    "c": 1.37332,
    "v": 2062
  },
  {
    "dt": "2021.04.07 22:00",
    "o": 1.37334,
    "h": 1.37367,
    "l": 1.37234,
    "c": 1.37309,
    "v": 1793
  },
  {
    "dt": "2021.04.07 23:00",
    "o": 1.37309,
    "h": 1.37374,
    "l": 1.37283,
    "c": 1.37371,
    "v": 840
  },
  {
    "dt": "2021.04.08 00:00",
    "o": 1.37318,
    "h": 1.37352,
    "l": 1.37305,
    "c": 1.37323,
    "v": 154
  },
  {
    "dt": "2021.04.08 01:00",
    "o": 1.37302,
    "h": 1.37374,
    "l": 1.37291,
    "c": 1.37332,
    "v": 354
  },
  {
    "dt": "2021.04.08 02:00",
    "o": 1.37334,
    "h": 1.37424,
    "l": 1.37321,
    "c": 1.37403,
    "v": 442
  },
  {
    "dt": "2021.04.08 03:00",
    "o": 1.37402,
    "h": 1.37433,
    "l": 1.3737,
    "c": 1.37385,
    "v": 1085
  },
  {
    "dt": "2021.04.08 04:00",
    "o": 1.37389,
    "h": 1.37461,
    "l": 1.37311,
    "c": 1.37423,
    "v": 1220
  },
  {
    "dt": "2021.04.08 05:00",
    "o": 1.37422,
    "h": 1.37546,
    "l": 1.3741,
    "c": 1.37532,
    "v": 1055
  },
  {
    "dt": "2021.04.08 06:00",
    "o": 1.3754,
    "h": 1.37591,
    "l": 1.37537,
    "c": 1.37547,
    "v": 685
  },
  {
    "dt": "2021.04.08 07:00",
    "o": 1.37546,
    "h": 1.37618,
    "l": 1.37536,
    "c": 1.3758,
    "v": 615
  },
  {
    "dt": "2021.04.08 08:00",
    "o": 1.3758,
    "h": 1.37671,
    "l": 1.37579,
    "c": 1.37606,
    "v": 1109
  },
  {
    "dt": "2021.04.08 09:00",
    "o": 1.37613,
    "h": 1.37697,
    "l": 1.37526,
    "c": 1.37696,
    "v": 1830
  },
  {
    "dt": "2021.04.08 10:00",
    "o": 1.37695,
    "h": 1.37816,
    "l": 1.37551,
    "c": 1.37631,
    "v": 2273
  },
  {
    "dt": "2021.04.08 11:00",
    "o": 1.37625,
    "h": 1.37644,
    "l": 1.37186,
    "c": 1.37253,
    "v": 2552
  },
  {
    "dt": "2021.04.08 12:00",
    "o": 1.3725,
    "h": 1.37456,
    "l": 1.37244,
    "c": 1.37394,
    "v": 2085
  },
  {
    "dt": "2021.04.08 13:00",
    "o": 1.37393,
    "h": 1.37523,
    "l": 1.37335,
    "c": 1.37387,
    "v": 1995
  },
  {
    "dt": "2021.04.08 14:00",
    "o": 1.37387,
    "h": 1.37693,
    "l": 1.3734,
    "c": 1.37651,
    "v": 2515
  },
  {
    "dt": "2021.04.08 15:00",
    "o": 1.37652,
    "h": 1.37725,
    "l": 1.37551,
    "c": 1.3766,
    "v": 2995
  },
  {
    "dt": "2021.04.08 16:00",
    "o": 1.37671,
    "h": 1.37692,
    "l": 1.37369,
    "c": 1.37552,
    "v": 3300
  },
  {
    "dt": "2021.04.08 17:00",
    "o": 1.37554,
    "h": 1.37653,
    "l": 1.37217,
    "c": 1.37298,
    "v": 3633
  },
  {
    "dt": "2021.04.08 18:00",
    "o": 1.373,
    "h": 1.3744,
    "l": 1.37291,
    "c": 1.37371,
    "v": 2611
  },
  {
    "dt": "2021.04.08 19:00",
    "o": 1.37371,
    "h": 1.37488,
    "l": 1.37365,
    "c": 1.37392,
    "v": 2116
  },
  {
    "dt": "2021.04.08 20:00",
    "o": 1.37393,
    "h": 1.37453,
    "l": 1.37314,
    "c": 1.37322,
    "v": 1689
  },
  {
    "dt": "2021.04.08 21:00",
    "o": 1.37317,
    "h": 1.37422,
    "l": 1.3727,
    "c": 1.37359,
    "v": 1904
  },
  {
    "dt": "2021.04.08 22:00",
    "o": 1.37355,
    "h": 1.37385,
    "l": 1.37282,
    "c": 1.37287,
    "v": 1475
  },
  {
    "dt": "2021.04.08 23:00",
    "o": 1.37287,
    "h": 1.37364,
    "l": 1.37277,
    "c": 1.37337,
    "v": 1028
  },
  {
    "dt": "2021.04.09 00:00",
    "o": 1.37293,
    "h": 1.37324,
    "l": 1.37285,
    "c": 1.37294,
    "v": 98
  },
  {
    "dt": "2021.04.09 01:00",
    "o": 1.37304,
    "h": 1.37342,
    "l": 1.37211,
    "c": 1.37321,
    "v": 491
  },
  {
    "dt": "2021.04.09 02:00",
    "o": 1.3732,
    "h": 1.37361,
    "l": 1.373,
    "c": 1.37322,
    "v": 677
  },
  {
    "dt": "2021.04.09 03:00",
    "o": 1.37323,
    "h": 1.37483,
    "l": 1.37314,
    "c": 1.3747,
    "v": 956
  },
  {
    "dt": "2021.04.09 04:00",
    "o": 1.3747,
    "h": 1.37493,
    "l": 1.37321,
    "c": 1.37431,
    "v": 1328
  },
  {
    "dt": "2021.04.09 05:00",
    "o": 1.3743,
    "h": 1.3743,
    "l": 1.37338,
    "c": 1.37339,
    "v": 1111
  },
  {
    "dt": "2021.04.09 06:00",
    "o": 1.37339,
    "h": 1.37372,
    "l": 1.37279,
    "c": 1.3736,
    "v": 913
  },
  {
    "dt": "2021.04.09 07:00",
    "o": 1.3736,
    "h": 1.3736,
    "l": 1.37309,
    "c": 1.37321,
    "v": 669
  },
  {
    "dt": "2021.04.09 08:00",
    "o": 1.3732,
    "h": 1.37333,
    "l": 1.37021,
    "c": 1.37033,
    "v": 1384
  },
  {
    "dt": "2021.04.09 09:00",
    "o": 1.37034,
    "h": 1.37115,
    "l": 1.36689,
    "c": 1.36781,
    "v": 2445
  },
  {
    "dt": "2021.04.09 10:00",
    "o": 1.36769,
    "h": 1.37037,
    "l": 1.3676,
    "c": 1.37023,
    "v": 2781
  },
  {
    "dt": "2021.04.09 11:00",
    "o": 1.37014,
    "h": 1.37185,
    "l": 1.36899,
    "c": 1.37114,
    "v": 2420
  },
  {
    "dt": "2021.04.09 12:00",
    "o": 1.37109,
    "h": 1.37139,
    "l": 1.3699,
    "c": 1.36992,
    "v": 1991
  },
  {
    "dt": "2021.04.09 13:00",
    "o": 1.36989,
    "h": 1.37246,
    "l": 1.36951,
    "c": 1.37142,
    "v": 2117
  },
  {
    "dt": "2021.04.09 14:00",
    "o": 1.37142,
    "h": 1.37271,
    "l": 1.371,
    "c": 1.37195,
    "v": 2258
  },
  {
    "dt": "2021.04.09 15:00",
    "o": 1.37197,
    "h": 1.37215,
    "l": 1.36953,
    "c": 1.37162,
    "v": 3022
  },
  {
    "dt": "2021.04.09 16:00",
    "o": 1.37162,
    "h": 1.37438,
    "l": 1.37123,
    "c": 1.37301,
    "v": 3374
  },
  {
    "dt": "2021.04.09 17:00",
    "o": 1.37303,
    "h": 1.37423,
    "l": 1.3718,
    "c": 1.37284,
    "v": 3535
  },
  {
    "dt": "2021.04.09 18:00",
    "o": 1.37278,
    "h": 1.3735,
    "l": 1.37209,
    "c": 1.373,
    "v": 2663
  },
  {
    "dt": "2021.04.09 19:00",
    "o": 1.37309,
    "h": 1.3733,
    "l": 1.37237,
    "c": 1.37255,
    "v": 1806
  },
  {
    "dt": "2021.04.09 20:00",
    "o": 1.37253,
    "h": 1.37313,
    "l": 1.3723,
    "c": 1.37237,
    "v": 1294
  },
  {
    "dt": "2021.04.09 21:00",
    "o": 1.37236,
    "h": 1.37237,
    "l": 1.37117,
    "c": 1.37137,
    "v": 1319
  },
  {
    "dt": "2021.04.09 22:00",
    "o": 1.37139,
    "h": 1.37162,
    "l": 1.37091,
    "c": 1.37091,
    "v": 1265
  },
  {
    "dt": "2021.04.09 23:00",
    "o": 1.37091,
    "h": 1.37107,
    "l": 1.36996,
    "c": 1.3706,
    "v": 766
  },
  {
    "dt": "2021.04.12 00:00",
    "o": 1.37082,
    "h": 1.37107,
    "l": 1.36959,
    "c": 1.36959,
    "v": 105
  },
  {
    "dt": "2021.04.12 01:00",
    "o": 1.36983,
    "h": 1.37079,
    "l": 1.36978,
    "c": 1.37056,
    "v": 927
  },
  {
    "dt": "2021.04.12 02:00",
    "o": 1.3705,
    "h": 1.37129,
    "l": 1.37047,
    "c": 1.37063,
    "v": 760
  },
  {
    "dt": "2021.04.12 03:00",
    "o": 1.37064,
    "h": 1.37121,
    "l": 1.37018,
    "c": 1.3708,
    "v": 1088
  },
  {
    "dt": "2021.04.12 04:00",
    "o": 1.37077,
    "h": 1.37081,
    "l": 1.36869,
    "c": 1.36882,
    "v": 1789
  },
  {
    "dt": "2021.04.12 05:00",
    "o": 1.36884,
    "h": 1.36898,
    "l": 1.36797,
    "c": 1.36862,
    "v": 1847
  },
  {
    "dt": "2021.04.12 06:00",
    "o": 1.36858,
    "h": 1.36892,
    "l": 1.36805,
    "c": 1.3689,
    "v": 1757
  },
  {
    "dt": "2021.04.12 07:00",
    "o": 1.36901,
    "h": 1.36929,
    "l": 1.36804,
    "c": 1.36806,
    "v": 1087
  },
  {
    "dt": "2021.04.12 08:00",
    "o": 1.36801,
    "h": 1.3693,
    "l": 1.36678,
    "c": 1.36898,
    "v": 1393
  },
  {
    "dt": "2021.04.12 09:00",
    "o": 1.36902,
    "h": 1.37131,
    "l": 1.3679,
    "c": 1.37093,
    "v": 2443
  },
  {
    "dt": "2021.04.12 10:00",
    "o": 1.37092,
    "h": 1.37353,
    "l": 1.37055,
    "c": 1.37271,
    "v": 2911
  },
  {
    "dt": "2021.04.12 11:00",
    "o": 1.3727,
    "h": 1.37462,
    "l": 1.3727,
    "c": 1.37394,
    "v": 2447
  },
  {
    "dt": "2021.04.12 12:00",
    "o": 1.37398,
    "h": 1.37528,
    "l": 1.37326,
    "c": 1.37352,
    "v": 2240
  },
  {
    "dt": "2021.04.12 13:00",
    "o": 1.37341,
    "h": 1.37632,
    "l": 1.37337,
    "c": 1.3759,
    "v": 2011
  },
  {
    "dt": "2021.04.12 14:00",
    "o": 1.37591,
    "h": 1.37676,
    "l": 1.37585,
    "c": 1.37616,
    "v": 2088
  },
  {
    "dt": "2021.04.12 15:00",
    "o": 1.3762,
    "h": 1.37754,
    "l": 1.3752,
    "c": 1.37658,
    "v": 2192
  },
  {
    "dt": "2021.04.12 16:00",
    "o": 1.37659,
    "h": 1.37678,
    "l": 1.37392,
    "c": 1.37467,
    "v": 2826
  },
  {
    "dt": "2021.04.12 17:00",
    "o": 1.37469,
    "h": 1.37489,
    "l": 1.37304,
    "c": 1.37432,
    "v": 2725
  },
  {
    "dt": "2021.04.12 18:00",
    "o": 1.37427,
    "h": 1.37507,
    "l": 1.37376,
    "c": 1.37395,
    "v": 2479
  },
  {
    "dt": "2021.04.12 19:00",
    "o": 1.37393,
    "h": 1.37502,
    "l": 1.37371,
    "c": 1.3742,
    "v": 1724
  },
  {
    "dt": "2021.04.12 20:00",
    "o": 1.3742,
    "h": 1.37463,
    "l": 1.37393,
    "c": 1.37403,
    "v": 1375
  },
  {
    "dt": "2021.04.12 21:00",
    "o": 1.37404,
    "h": 1.37447,
    "l": 1.37342,
    "c": 1.37438,
    "v": 1675
  },
  {
    "dt": "2021.04.12 22:00",
    "o": 1.37437,
    "h": 1.37438,
    "l": 1.37333,
    "c": 1.37368,
    "v": 1390
  },
  {
    "dt": "2021.04.12 23:00",
    "o": 1.37375,
    "h": 1.37451,
    "l": 1.37375,
    "c": 1.37432,
    "v": 839
  },
  {
    "dt": "2021.04.13 00:00",
    "o": 1.37352,
    "h": 1.37416,
    "l": 1.37343,
    "c": 1.37376,
    "v": 144
  },
  {
    "dt": "2021.04.13 01:00",
    "o": 1.37404,
    "h": 1.37456,
    "l": 1.37396,
    "c": 1.37451,
    "v": 562
  },
  {
    "dt": "2021.04.13 02:00",
    "o": 1.37468,
    "h": 1.3755,
    "l": 1.37431,
    "c": 1.37525,
    "v": 652
  },
  {
    "dt": "2021.04.13 03:00",
    "o": 1.37526,
    "h": 1.37526,
    "l": 1.3736,
    "c": 1.37415,
    "v": 1378
  },
  {
    "dt": "2021.04.13 04:00",
    "o": 1.37415,
    "h": 1.37415,
    "l": 1.37287,
    "c": 1.37338,
    "v": 1543
  },
  {
    "dt": "2021.04.13 05:00",
    "o": 1.37339,
    "h": 1.37432,
    "l": 1.37332,
    "c": 1.37415,
    "v": 1349
  },
  {
    "dt": "2021.04.13 06:00",
    "o": 1.37419,
    "h": 1.37426,
    "l": 1.37299,
    "c": 1.37306,
    "v": 1091
  },
  {
    "dt": "2021.04.13 07:00",
    "o": 1.37302,
    "h": 1.37341,
    "l": 1.37248,
    "c": 1.3726,
    "v": 1039
  },
  {
    "dt": "2021.04.13 08:00",
    "o": 1.37258,
    "h": 1.37424,
    "l": 1.3725,
    "c": 1.37409,
    "v": 1339
  },
  {
    "dt": "2021.04.13 09:00",
    "o": 1.37402,
    "h": 1.37539,
    "l": 1.37328,
    "c": 1.37454,
    "v": 2100
  },
  {
    "dt": "2021.04.13 10:00",
    "o": 1.37444,
    "h": 1.37655,
    "l": 1.37386,
    "c": 1.37492,
    "v": 2641
  },
  {
    "dt": "2021.04.13 11:00",
    "o": 1.37492,
    "h": 1.37606,
    "l": 1.37453,
    "c": 1.3754,
    "v": 2241
  },
  {
    "dt": "2021.04.13 12:00",
    "o": 1.37542,
    "h": 1.37679,
    "l": 1.37482,
    "c": 1.3763,
    "v": 2172
  },
  {
    "dt": "2021.04.13 13:00",
    "o": 1.37625,
    "h": 1.37651,
    "l": 1.37292,
    "c": 1.37324,
    "v": 1919
  },
  {
    "dt": "2021.04.13 14:00",
    "o": 1.37323,
    "h": 1.37346,
    "l": 1.37132,
    "c": 1.3723,
    "v": 3144
  },
  {
    "dt": "2021.04.13 15:00",
    "o": 1.37228,
    "h": 1.37448,
    "l": 1.3712,
    "c": 1.37293,
    "v": 3527
  },
  {
    "dt": "2021.04.13 16:00",
    "o": 1.37286,
    "h": 1.37523,
    "l": 1.3694,
    "c": 1.37502,
    "v": 3941
  },
  {
    "dt": "2021.04.13 17:00",
    "o": 1.37504,
    "h": 1.37541,
    "l": 1.37241,
    "c": 1.37288,
    "v": 3158
  },
  {
    "dt": "2021.04.13 18:00",
    "o": 1.37296,
    "h": 1.37405,
    "l": 1.3726,
    "c": 1.37405,
    "v": 2420
  },
  {
    "dt": "2021.04.13 19:00",
    "o": 1.37405,
    "h": 1.37441,
    "l": 1.37354,
    "c": 1.37364,
    "v": 1730
  },
  {
    "dt": "2021.04.13 20:00",
    "o": 1.37363,
    "h": 1.37503,
    "l": 1.37363,
    "c": 1.37433,
    "v": 2058
  },
  {
    "dt": "2021.04.13 21:00",
    "o": 1.37433,
    "h": 1.37508,
    "l": 1.37417,
    "c": 1.37507,
    "v": 1476
  },
  {
    "dt": "2021.04.13 22:00",
    "o": 1.37505,
    "h": 1.37569,
    "l": 1.37468,
    "c": 1.37569,
    "v": 1459
  },
  {
    "dt": "2021.04.13 23:00",
    "o": 1.37563,
    "h": 1.37564,
    "l": 1.37497,
    "c": 1.37498,
    "v": 856
  },
  {
    "dt": "2021.04.14 00:00",
    "o": 1.37449,
    "h": 1.37492,
    "l": 1.37447,
    "c": 1.37464,
    "v": 172
  },
  {
    "dt": "2021.04.14 01:00",
    "o": 1.37471,
    "h": 1.37525,
    "l": 1.37471,
    "c": 1.37517,
    "v": 551
  },
  {
    "dt": "2021.04.14 02:00",
    "o": 1.37517,
    "h": 1.37617,
    "l": 1.37517,
    "c": 1.37579,
    "v": 762
  },
  {
    "dt": "2021.04.14 03:00",
    "o": 1.37584,
    "h": 1.37615,
    "l": 1.37505,
    "c": 1.3751,
    "v": 1317
  },
  {
    "dt": "2021.04.14 04:00",
    "o": 1.37508,
    "h": 1.37649,
    "l": 1.37488,
    "c": 1.3756,
    "v": 1494
  },
  {
    "dt": "2021.04.14 05:00",
    "o": 1.37559,
    "h": 1.3772,
    "l": 1.37508,
    "c": 1.37643,
    "v": 1511
  },
  {
    "dt": "2021.04.14 06:00",
    "o": 1.37644,
    "h": 1.37711,
    "l": 1.37612,
    "c": 1.37672,
    "v": 1008
  },
  {
    "dt": "2021.04.14 07:00",
    "o": 1.37672,
    "h": 1.3778,
    "l": 1.37667,
    "c": 1.37684,
    "v": 1031
  },
  {
    "dt": "2021.04.14 08:00",
    "o": 1.37686,
    "h": 1.37806,
    "l": 1.37644,
    "c": 1.37748,
    "v": 1102
  },
  {
    "dt": "2021.04.14 09:00",
    "o": 1.37754,
    "h": 1.37987,
    "l": 1.37745,
    "c": 1.37984,
    "v": 2171
  },
  {
    "dt": "2021.04.14 10:00",
    "o": 1.37983,
    "h": 1.37989,
    "l": 1.37786,
    "c": 1.37826,
    "v": 2997
  },
  {
    "dt": "2021.04.14 11:00",
    "o": 1.37822,
    "h": 1.38077,
    "l": 1.37801,
    "c": 1.37943,
    "v": 2558
  },
  {
    "dt": "2021.04.14 12:00",
    "o": 1.37942,
    "h": 1.3796,
    "l": 1.3764,
    "c": 1.3769,
    "v": 2395
  },
  {
    "dt": "2021.04.14 13:00",
    "o": 1.3769,
    "h": 1.37769,
    "l": 1.37552,
    "c": 1.37579,
    "v": 2104
  },
  {
    "dt": "2021.04.14 14:00",
    "o": 1.37579,
    "h": 1.37675,
    "l": 1.37535,
    "c": 1.37535,
    "v": 2113
  },
  {
    "dt": "2021.04.14 15:00",
    "o": 1.37534,
    "h": 1.37649,
    "l": 1.37499,
    "c": 1.37534,
    "v": 2002
  },
  {
    "dt": "2021.04.14 16:00",
    "o": 1.37531,
    "h": 1.37966,
    "l": 1.37525,
    "c": 1.37781,
    "v": 3084
  },
  {
    "dt": "2021.04.14 17:00",
    "o": 1.3779,
    "h": 1.37947,
    "l": 1.37712,
    "c": 1.3778,
    "v": 3301
  },
  {
    "dt": "2021.04.14 18:00",
    "o": 1.3779,
    "h": 1.37984,
    "l": 1.37767,
    "c": 1.37884,
    "v": 2562
  },
  {
    "dt": "2021.04.14 19:00",
    "o": 1.37885,
    "h": 1.37974,
    "l": 1.37847,
    "c": 1.37953,
    "v": 2179
  },
  {
    "dt": "2021.04.14 20:00",
    "o": 1.37953,
    "h": 1.37961,
    "l": 1.37824,
    "c": 1.37832,
    "v": 1516
  },
  {
    "dt": "2021.04.14 21:00",
    "o": 1.37832,
    "h": 1.379,
    "l": 1.37777,
    "c": 1.37779,
    "v": 1699
  },
  {
    "dt": "2021.04.14 22:00",
    "o": 1.37783,
    "h": 1.37834,
    "l": 1.37779,
    "c": 1.37832,
    "v": 1584
  },
  {
    "dt": "2021.04.14 23:00",
    "o": 1.3782,
    "h": 1.37825,
    "l": 1.37737,
    "c": 1.3775,
    "v": 865
  },
  {
    "dt": "2021.04.15 00:00",
    "o": 1.37704,
    "h": 1.37765,
    "l": 1.37704,
    "c": 1.37736,
    "v": 194
  },
  {
    "dt": "2021.04.15 01:00",
    "o": 1.37747,
    "h": 1.37823,
    "l": 1.37737,
    "c": 1.37759,
    "v": 380
  },
  {
    "dt": "2021.04.15 02:00",
    "o": 1.37764,
    "h": 1.3779,
    "l": 1.37741,
    "c": 1.37766,
    "v": 518
  },
  {
    "dt": "2021.04.15 03:00",
    "o": 1.37762,
    "h": 1.37907,
    "l": 1.37751,
    "c": 1.37898,
    "v": 1437
  },
  {
    "dt": "2021.04.15 04:00",
    "o": 1.37894,
    "h": 1.37936,
    "l": 1.37665,
    "c": 1.3772,
    "v": 2036
  },
  {
    "dt": "2021.04.15 05:00",
    "o": 1.37717,
    "h": 1.3777,
    "l": 1.37694,
    "c": 1.3772,
    "v": 1345
  },
  {
    "dt": "2021.04.15 06:00",
    "o": 1.3772,
    "h": 1.37763,
    "l": 1.37683,
    "c": 1.37714,
    "v": 1065
  },
  {
    "dt": "2021.04.15 07:00",
    "o": 1.37714,
    "h": 1.3774,
    "l": 1.37639,
    "c": 1.37655,
    "v": 978
  },
  {
    "dt": "2021.04.15 08:00",
    "o": 1.37654,
    "h": 1.37796,
    "l": 1.37642,
    "c": 1.37733,
    "v": 1236
  },
  {
    "dt": "2021.04.15 09:00",
    "o": 1.37716,
    "h": 1.37847,
    "l": 1.37663,
    "c": 1.37761,
    "v": 2023
  },
  {
    "dt": "2021.04.15 10:00",
    "o": 1.37766,
    "h": 1.37977,
    "l": 1.37766,
    "c": 1.37919,
    "v": 2661
  },
  {
    "dt": "2021.04.15 11:00",
    "o": 1.37923,
    "h": 1.37927,
    "l": 1.3777,
    "c": 1.3777,
    "v": 2309
  },
  {
    "dt": "2021.04.15 12:00",
    "o": 1.37773,
    "h": 1.38078,
    "l": 1.37757,
    "c": 1.37901,
    "v": 2295
  },
  {
    "dt": "2021.04.15 13:00",
    "o": 1.37901,
    "h": 1.37918,
    "l": 1.37611,
    "c": 1.37639,
    "v": 2228
  },
  {
    "dt": "2021.04.15 14:00",
    "o": 1.37636,
    "h": 1.37878,
    "l": 1.37618,
    "c": 1.37858,
    "v": 2064
  },
  {
    "dt": "2021.04.15 15:00",
    "o": 1.37866,
    "h": 1.38063,
    "l": 1.37802,
    "c": 1.37838,
    "v": 3050
  },
  {
    "dt": "2021.04.15 16:00",
    "o": 1.37845,
    "h": 1.37922,
    "l": 1.37706,
    "c": 1.37842,
    "v": 3427
  },
  {
    "dt": "2021.04.15 17:00",
    "o": 1.37843,
    "h": 1.37939,
    "l": 1.37744,
    "c": 1.37933,
    "v": 3571
  },
  {
    "dt": "2021.04.15 18:00",
    "o": 1.37935,
    "h": 1.37942,
    "l": 1.37733,
    "c": 1.37785,
    "v": 2843
  },
  {
    "dt": "2021.04.15 19:00",
    "o": 1.37785,
    "h": 1.37875,
    "l": 1.37762,
    "c": 1.37854,
    "v": 1877
  },
  {
    "dt": "2021.04.15 20:00",
    "o": 1.37855,
    "h": 1.37865,
    "l": 1.37724,
    "c": 1.37848,
    "v": 1642
  },
  {
    "dt": "2021.04.15 21:00",
    "o": 1.37849,
    "h": 1.37914,
    "l": 1.37832,
    "c": 1.37896,
    "v": 1377
  },
  {
    "dt": "2021.04.15 22:00",
    "o": 1.37898,
    "h": 1.37936,
    "l": 1.37824,
    "c": 1.37875,
    "v": 1506
  },
  {
    "dt": "2021.04.15 23:00",
    "o": 1.37871,
    "h": 1.37872,
    "l": 1.37771,
    "c": 1.37786,
    "v": 935
  },
  {
    "dt": "2021.04.16 00:00",
    "o": 1.37786,
    "h": 1.3783,
    "l": 1.37761,
    "c": 1.37797,
    "v": 172
  },
  {
    "dt": "2021.04.16 01:00",
    "o": 1.37802,
    "h": 1.37862,
    "l": 1.37801,
    "c": 1.37803,
    "v": 313
  },
  {
    "dt": "2021.04.16 02:00",
    "o": 1.37803,
    "h": 1.37846,
    "l": 1.378,
    "c": 1.37824,
    "v": 604
  },
  {
    "dt": "2021.04.16 03:00",
    "o": 1.37823,
    "h": 1.37846,
    "l": 1.37647,
    "c": 1.37673,
    "v": 1477
  },
  {
    "dt": "2021.04.16 04:00",
    "o": 1.37673,
    "h": 1.37699,
    "l": 1.37534,
    "c": 1.3758,
    "v": 2092
  },
  {
    "dt": "2021.04.16 05:00",
    "o": 1.37576,
    "h": 1.37598,
    "l": 1.37515,
    "c": 1.37579,
    "v": 1386
  },
  {
    "dt": "2021.04.16 06:00",
    "o": 1.37579,
    "h": 1.37613,
    "l": 1.37554,
    "c": 1.37574,
    "v": 1064
  },
  {
    "dt": "2021.04.16 07:00",
    "o": 1.37575,
    "h": 1.37651,
    "l": 1.37545,
    "c": 1.37649,
    "v": 985
  },
  {
    "dt": "2021.04.16 08:00",
    "o": 1.37648,
    "h": 1.37675,
    "l": 1.37588,
    "c": 1.37647,
    "v": 1390
  },
  {
    "dt": "2021.04.16 09:00",
    "o": 1.37639,
    "h": 1.37639,
    "l": 1.37151,
    "c": 1.37229,
    "v": 2586
  },
  {
    "dt": "2021.04.16 10:00",
    "o": 1.37227,
    "h": 1.37559,
    "l": 1.37214,
    "c": 1.3754,
    "v": 2954
  },
  {
    "dt": "2021.04.16 11:00",
    "o": 1.37541,
    "h": 1.37564,
    "l": 1.3743,
    "c": 1.37553,
    "v": 2429
  },
  {
    "dt": "2021.04.16 12:00",
    "o": 1.3755,
    "h": 1.37797,
    "l": 1.37513,
    "c": 1.37776,
    "v": 2777
  },
  {
    "dt": "2021.04.16 13:00",
    "o": 1.37775,
    "h": 1.37978,
    "l": 1.37734,
    "c": 1.37854,
    "v": 2499
  },
  {
    "dt": "2021.04.16 14:00",
    "o": 1.37855,
    "h": 1.38029,
    "l": 1.37756,
    "c": 1.37999,
    "v": 2700
  },
  {
    "dt": "2021.04.16 15:00",
    "o": 1.38,
    "h": 1.38141,
    "l": 1.37951,
    "c": 1.38023,
    "v": 2884
  },
  {
    "dt": "2021.04.16 16:00",
    "o": 1.38031,
    "h": 1.38059,
    "l": 1.37897,
    "c": 1.3792,
    "v": 2798
  },
  {
    "dt": "2021.04.16 17:00",
    "o": 1.3792,
    "h": 1.38212,
    "l": 1.37914,
    "c": 1.38163,
    "v": 3118
  },
  {
    "dt": "2021.04.16 18:00",
    "o": 1.3816,
    "h": 1.38258,
    "l": 1.38149,
    "c": 1.38238,
    "v": 2613
  },
  {
    "dt": "2021.04.16 19:00",
    "o": 1.38236,
    "h": 1.38269,
    "l": 1.3816,
    "c": 1.38248,
    "v": 1829
  },
  {
    "dt": "2021.04.16 20:00",
    "o": 1.38245,
    "h": 1.38305,
    "l": 1.38243,
    "c": 1.38303,
    "v": 1202
  },
  {
    "dt": "2021.04.16 21:00",
    "o": 1.38301,
    "h": 1.38356,
    "l": 1.38267,
    "c": 1.38342,
    "v": 1428
  },
  {
    "dt": "2021.04.16 22:00",
    "o": 1.38341,
    "h": 1.38379,
    "l": 1.38291,
    "c": 1.38379,
    "v": 1270
  },
  {
    "dt": "2021.04.16 23:00",
    "o": 1.38379,
    "h": 1.38413,
    "l": 1.38313,
    "c": 1.38328,
    "v": 628
  },
  {
    "dt": "2021.04.19 00:00",
    "o": 1.38305,
    "h": 1.38337,
    "l": 1.38187,
    "c": 1.38258,
    "v": 101
  },
  {
    "dt": "2021.04.19 01:00",
    "o": 1.38334,
    "h": 1.38338,
    "l": 1.38233,
    "c": 1.38302,
    "v": 886
  },
  {
    "dt": "2021.04.19 02:00",
    "o": 1.38303,
    "h": 1.38303,
    "l": 1.38163,
    "c": 1.38167,
    "v": 1034
  },
  {
    "dt": "2021.04.19 03:00",
    "o": 1.38168,
    "h": 1.38278,
    "l": 1.38137,
    "c": 1.38147,
    "v": 1403
  },
  {
    "dt": "2021.04.19 04:00",
    "o": 1.3815,
    "h": 1.38198,
    "l": 1.38087,
    "c": 1.3815,
    "v": 1688
  },
  {
    "dt": "2021.04.19 05:00",
    "o": 1.38151,
    "h": 1.38324,
    "l": 1.38138,
    "c": 1.38293,
    "v": 1461
  },
  {
    "dt": "2021.04.19 06:00",
    "o": 1.38299,
    "h": 1.3839,
    "l": 1.38282,
    "c": 1.38324,
    "v": 1180
  },
  {
    "dt": "2021.04.19 07:00",
    "o": 1.38322,
    "h": 1.38562,
    "l": 1.38316,
    "c": 1.38501,
    "v": 1148
  },
  {
    "dt": "2021.04.19 08:00",
    "o": 1.38501,
    "h": 1.38611,
    "l": 1.38477,
    "c": 1.38533,
    "v": 1384
  },
  {
    "dt": "2021.04.19 09:00",
    "o": 1.38531,
    "h": 1.38667,
    "l": 1.38432,
    "c": 1.38536,
    "v": 2220
  },
  {
    "dt": "2021.04.19 10:00",
    "o": 1.38537,
    "h": 1.38775,
    "l": 1.38382,
    "c": 1.38748,
    "v": 3060
  },
  {
    "dt": "2021.04.19 11:00",
    "o": 1.38752,
    "h": 1.38886,
    "l": 1.38695,
    "c": 1.38759,
    "v": 3142
  },
  {
    "dt": "2021.04.19 12:00",
    "o": 1.38761,
    "h": 1.39006,
    "l": 1.3867,
    "c": 1.38997,
    "v": 2545
  },
  {
    "dt": "2021.04.19 13:00",
    "o": 1.38992,
    "h": 1.39221,
    "l": 1.38888,
    "c": 1.39185,
    "v": 2496
  },
  {
    "dt": "2021.04.19 14:00",
    "o": 1.39175,
    "h": 1.39304,
    "l": 1.39059,
    "c": 1.39284,
    "v": 3347
  },
  {
    "dt": "2021.04.19 15:00",
    "o": 1.39286,
    "h": 1.39676,
    "l": 1.3923,
    "c": 1.39631,
    "v": 3222
  },
  {
    "dt": "2021.04.19 16:00",
    "o": 1.39629,
    "h": 1.39641,
    "l": 1.39424,
    "c": 1.39627,
    "v": 3460
  },
  {
    "dt": "2021.04.19 17:00",
    "o": 1.39622,
    "h": 1.39917,
    "l": 1.39423,
    "c": 1.39865,
    "v": 3768
  },
  {
    "dt": "2021.04.19 18:00",
    "o": 1.39861,
    "h": 1.39887,
    "l": 1.39754,
    "c": 1.39754,
    "v": 2761
  },
  {
    "dt": "2021.04.19 19:00",
    "o": 1.39753,
    "h": 1.39862,
    "l": 1.39715,
    "c": 1.39853,
    "v": 2082
  },
  {
    "dt": "2021.04.19 20:00",
    "o": 1.39853,
    "h": 1.39893,
    "l": 1.3981,
    "c": 1.39811,
    "v": 1648
  },
  {
    "dt": "2021.04.19 21:00",
    "o": 1.39811,
    "h": 1.39897,
    "l": 1.39798,
    "c": 1.39896,
    "v": 1503
  },
  {
    "dt": "2021.04.19 22:00",
    "o": 1.39893,
    "h": 1.39894,
    "l": 1.39832,
    "c": 1.39872,
    "v": 1254
  },
  {
    "dt": "2021.04.19 23:00",
    "o": 1.39865,
    "h": 1.39876,
    "l": 1.39841,
    "c": 1.39844,
    "v": 612
  },
  {
    "dt": "2021.04.20 00:00",
    "o": 1.39822,
    "h": 1.39831,
    "l": 1.39761,
    "c": 1.39785,
    "v": 217
  },
  {
    "dt": "2021.04.20 01:00",
    "o": 1.39787,
    "h": 1.3988,
    "l": 1.39787,
    "c": 1.3988,
    "v": 422
  },
  {
    "dt": "2021.04.20 02:00",
    "o": 1.39893,
    "h": 1.39915,
    "l": 1.39837,
    "c": 1.39904,
    "v": 830
  },
  {
    "dt": "2021.04.20 03:00",
    "o": 1.39907,
    "h": 1.39937,
    "l": 1.39832,
    "c": 1.39849,
    "v": 1203
  },
  {
    "dt": "2021.04.20 04:00",
    "o": 1.39853,
    "h": 1.39929,
    "l": 1.39747,
    "c": 1.39925,
    "v": 1771
  },
  {
    "dt": "2021.04.20 05:00",
    "o": 1.39926,
    "h": 1.39972,
    "l": 1.3989,
    "c": 1.39968,
    "v": 1513
  },
  {
    "dt": "2021.04.20 06:00",
    "o": 1.39971,
    "h": 1.40073,
    "l": 1.39961,
    "c": 1.40006,
    "v": 1640
  },
  {
    "dt": "2021.04.20 07:00",
    "o": 1.40008,
    "h": 1.40029,
    "l": 1.39879,
    "c": 1.40024,
    "v": 1173
  },
  {
    "dt": "2021.04.20 08:00",
    "o": 1.40016,
    "h": 1.40073,
    "l": 1.3991,
    "c": 1.4001,
    "v": 1454
  },
  {
    "dt": "2021.04.20 09:00",
    "o": 1.40018,
    "h": 1.4008,
    "l": 1.39853,
    "c": 1.40073,
    "v": 2652
  },
  {
    "dt": "2021.04.20 10:00",
    "o": 1.40072,
    "h": 1.40079,
    "l": 1.39859,
    "c": 1.39868,
    "v": 2843
  },
  {
    "dt": "2021.04.20 11:00",
    "o": 1.39866,
    "h": 1.39996,
    "l": 1.39804,
    "c": 1.39808,
    "v": 2417
  },
  {
    "dt": "2021.04.20 12:00",
    "o": 1.39811,
    "h": 1.39896,
    "l": 1.39726,
    "c": 1.39834,
    "v": 2611
  },
  {
    "dt": "2021.04.20 13:00",
    "o": 1.39836,
    "h": 1.39856,
    "l": 1.3967,
    "c": 1.39715,
    "v": 2550
  },
  {
    "dt": "2021.04.20 14:00",
    "o": 1.39715,
    "h": 1.39862,
    "l": 1.3967,
    "c": 1.39706,
    "v": 2150
  },
  {
    "dt": "2021.04.20 15:00",
    "o": 1.39705,
    "h": 1.39722,
    "l": 1.39487,
    "c": 1.39567,
    "v": 2532
  },
  {
    "dt": "2021.04.20 16:00",
    "o": 1.39566,
    "h": 1.39606,
    "l": 1.39535,
    "c": 1.39558,
    "v": 2635
  },
  {
    "dt": "2021.04.20 17:00",
    "o": 1.39558,
    "h": 1.39724,
    "l": 1.39444,
    "c": 1.39494,
    "v": 3233
  },
  {
    "dt": "2021.04.20 18:00",
    "o": 1.39493,
    "h": 1.39543,
    "l": 1.39321,
    "c": 1.39526,
    "v": 3116
  },
  {
    "dt": "2021.04.20 19:00",
    "o": 1.39529,
    "h": 1.39536,
    "l": 1.39378,
    "c": 1.39389,
    "v": 2109
  },
  {
    "dt": "2021.04.20 20:00",
    "o": 1.39388,
    "h": 1.39435,
    "l": 1.39291,
    "c": 1.39355,
    "v": 1469
  },
  {
    "dt": "2021.04.20 21:00",
    "o": 1.39354,
    "h": 1.39369,
    "l": 1.39253,
    "c": 1.39274,
    "v": 1252
  },
  {
    "dt": "2021.04.20 22:00",
    "o": 1.39272,
    "h": 1.39418,
    "l": 1.39262,
    "c": 1.39347,
    "v": 1456
  },
  {
    "dt": "2021.04.20 23:00",
    "o": 1.39345,
    "h": 1.394,
    "l": 1.3931,
    "c": 1.39357,
    "v": 941
  },
  {
    "dt": "2021.04.21 00:00",
    "o": 1.39316,
    "h": 1.39381,
    "l": 1.39295,
    "c": 1.39324,
    "v": 250
  },
  {
    "dt": "2021.04.21 01:00",
    "o": 1.39303,
    "h": 1.39377,
    "l": 1.39303,
    "c": 1.39374,
    "v": 357
  },
  {
    "dt": "2021.04.21 02:00",
    "o": 1.39374,
    "h": 1.394,
    "l": 1.39316,
    "c": 1.39369,
    "v": 829
  },
  {
    "dt": "2021.04.21 03:00",
    "o": 1.39369,
    "h": 1.39465,
    "l": 1.39334,
    "c": 1.39352,
    "v": 1707
  },
  {
    "dt": "2021.04.21 04:00",
    "o": 1.39354,
    "h": 1.39486,
    "l": 1.39295,
    "c": 1.39391,
    "v": 1653
  },
  {
    "dt": "2021.04.21 05:00",
    "o": 1.39389,
    "h": 1.39399,
    "l": 1.39249,
    "c": 1.3928,
    "v": 1511
  },
  {
    "dt": "2021.04.21 06:00",
    "o": 1.39281,
    "h": 1.39328,
    "l": 1.39249,
    "c": 1.39277,
    "v": 1130
  },
  {
    "dt": "2021.04.21 07:00",
    "o": 1.39277,
    "h": 1.39286,
    "l": 1.39157,
    "c": 1.39195,
    "v": 1105
  },
  {
    "dt": "2021.04.21 08:00",
    "o": 1.39197,
    "h": 1.39366,
    "l": 1.39152,
    "c": 1.39304,
    "v": 1361
  },
  {
    "dt": "2021.04.21 09:00",
    "o": 1.39305,
    "h": 1.3945,
    "l": 1.39249,
    "c": 1.39363,
    "v": 1938
  },
  {
    "dt": "2021.04.21 10:00",
    "o": 1.39364,
    "h": 1.39396,
    "l": 1.39092,
    "c": 1.39345,
    "v": 2895
  },
  {
    "dt": "2021.04.21 11:00",
    "o": 1.39346,
    "h": 1.39464,
    "l": 1.3926,
    "c": 1.39279,
    "v": 2270
  },
  {
    "dt": "2021.04.21 12:00",
    "o": 1.39279,
    "h": 1.39387,
    "l": 1.39181,
    "c": 1.39343,
    "v": 2230
  },
  {
    "dt": "2021.04.21 13:00",
    "o": 1.39342,
    "h": 1.39398,
    "l": 1.39255,
    "c": 1.39331,
    "v": 2041
  },
  {
    "dt": "2021.04.21 14:00",
    "o": 1.39333,
    "h": 1.39345,
    "l": 1.39193,
    "c": 1.39195,
    "v": 1563
  },
  {
    "dt": "2021.04.21 15:00",
    "o": 1.39195,
    "h": 1.39237,
    "l": 1.39035,
    "c": 1.39104,
    "v": 2006
  },
  {
    "dt": "2021.04.21 16:00",
    "o": 1.39104,
    "h": 1.39104,
    "l": 1.38845,
    "c": 1.39051,
    "v": 3343
  },
  {
    "dt": "2021.04.21 17:00",
    "o": 1.39052,
    "h": 1.39381,
    "l": 1.39015,
    "c": 1.39299,
    "v": 3599
  },
  {
    "dt": "2021.04.21 18:00",
    "o": 1.39295,
    "h": 1.39417,
    "l": 1.39252,
    "c": 1.3934,
    "v": 2460
  },
  {
    "dt": "2021.04.21 19:00",
    "o": 1.39335,
    "h": 1.39382,
    "l": 1.39232,
    "c": 1.39285,
    "v": 1518
  },
  {
    "dt": "2021.04.21 20:00",
    "o": 1.39286,
    "h": 1.39372,
    "l": 1.39276,
    "c": 1.39321,
    "v": 1617
  },
  {
    "dt": "2021.04.21 21:00",
    "o": 1.39323,
    "h": 1.39339,
    "l": 1.39249,
    "c": 1.39249,
    "v": 1327
  },
  {
    "dt": "2021.04.21 22:00",
    "o": 1.39248,
    "h": 1.39336,
    "l": 1.39247,
    "c": 1.39269,
    "v": 1141
  },
  {
    "dt": "2021.04.21 23:00",
    "o": 1.39273,
    "h": 1.39281,
    "l": 1.39222,
    "c": 1.39273,
    "v": 767
  },
  {
    "dt": "2021.04.22 00:00",
    "o": 1.39223,
    "h": 1.39293,
    "l": 1.39214,
    "c": 1.39268,
    "v": 178
  },
  {
    "dt": "2021.04.22 01:00",
    "o": 1.39301,
    "h": 1.39325,
    "l": 1.39254,
    "c": 1.39268,
    "v": 372
  },
  {
    "dt": "2021.04.22 02:00",
    "o": 1.39268,
    "h": 1.39317,
    "l": 1.39265,
    "c": 1.39289,
    "v": 623
  },
  {
    "dt": "2021.04.22 03:00",
    "o": 1.39289,
    "h": 1.39376,
    "l": 1.39246,
    "c": 1.39375,
    "v": 501
  },
  {
    "dt": "2021.04.22 04:00",
    "o": 1.39375,
    "h": 1.39415,
    "l": 1.39344,
    "c": 1.39366,
    "v": 1467
  },
  {
    "dt": "2021.04.22 05:00",
    "o": 1.39366,
    "h": 1.39453,
    "l": 1.3936,
    "c": 1.39441,
    "v": 1228
  },
  {
    "dt": "2021.04.22 06:00",
    "o": 1.39444,
    "h": 1.39487,
    "l": 1.39356,
    "c": 1.39364,
    "v": 1213
  },
  {
    "dt": "2021.04.22 07:00",
    "o": 1.39368,
    "h": 1.39374,
    "l": 1.3926,
    "c": 1.39274,
    "v": 1376
  },
  {
    "dt": "2021.04.22 08:00",
    "o": 1.39276,
    "h": 1.39382,
    "l": 1.39249,
    "c": 1.39334,
    "v": 1346
  },
  {
    "dt": "2021.04.22 09:00",
    "o": 1.39334,
    "h": 1.39452,
    "l": 1.39247,
    "c": 1.39389,
    "v": 2008
  },
  {
    "dt": "2021.04.22 10:00",
    "o": 1.39392,
    "h": 1.39449,
    "l": 1.39231,
    "c": 1.39252,
    "v": 2247
  },
  {
    "dt": "2021.04.22 11:00",
    "o": 1.39254,
    "h": 1.39257,
    "l": 1.38958,
    "c": 1.38979,
    "v": 2408
  },
  {
    "dt": "2021.04.22 12:00",
    "o": 1.38983,
    "h": 1.3907,
    "l": 1.38868,
    "c": 1.39029,
    "v": 2298
  },
  {
    "dt": "2021.04.22 13:00",
    "o": 1.39032,
    "h": 1.3918,
    "l": 1.38984,
    "c": 1.39019,
    "v": 1827
  },
  {
    "dt": "2021.04.22 14:00",
    "o": 1.39028,
    "h": 1.39139,
    "l": 1.38908,
    "c": 1.38939,
    "v": 2169
  },
  {
    "dt": "2021.04.22 15:00",
    "o": 1.38936,
    "h": 1.38936,
    "l": 1.38585,
    "c": 1.3868,
    "v": 3074
  },
  {
    "dt": "2021.04.22 16:00",
    "o": 1.38685,
    "h": 1.38746,
    "l": 1.3841,
    "c": 1.38468,
    "v": 3869
  },
  {
    "dt": "2021.04.22 17:00",
    "o": 1.38468,
    "h": 1.38505,
    "l": 1.38261,
    "c": 1.38437,
    "v": 3660
  },
  {
    "dt": "2021.04.22 18:00",
    "o": 1.38436,
    "h": 1.38543,
    "l": 1.3836,
    "c": 1.38481,
    "v": 2710
  },
  {
    "dt": "2021.04.22 19:00",
    "o": 1.38479,
    "h": 1.38571,
    "l": 1.38417,
    "c": 1.38422,
    "v": 1987
  },
  {
    "dt": "2021.04.22 20:00",
    "o": 1.38426,
    "h": 1.38452,
    "l": 1.38278,
    "c": 1.38346,
    "v": 3072
  },
  {
    "dt": "2021.04.22 21:00",
    "o": 1.38345,
    "h": 1.3838,
    "l": 1.38226,
    "c": 1.3837,
    "v": 2412
  },
  {
    "dt": "2021.04.22 22:00",
    "o": 1.38369,
    "h": 1.38438,
    "l": 1.38325,
    "c": 1.38359,
    "v": 1739
  },
  {
    "dt": "2021.04.22 23:00",
    "o": 1.38358,
    "h": 1.38422,
    "l": 1.38355,
    "c": 1.38388,
    "v": 741
  },
  {
    "dt": "2021.04.23 00:00",
    "o": 1.38339,
    "h": 1.38384,
    "l": 1.3832,
    "c": 1.38351,
    "v": 174
  },
  {
    "dt": "2021.04.23 01:00",
    "o": 1.38371,
    "h": 1.38407,
    "l": 1.38334,
    "c": 1.38407,
    "v": 438
  },
  {
    "dt": "2021.04.23 02:00",
    "o": 1.38401,
    "h": 1.38439,
    "l": 1.38342,
    "c": 1.38377,
    "v": 666
  },
  {
    "dt": "2021.04.23 03:00",
    "o": 1.38379,
    "h": 1.38454,
    "l": 1.38355,
    "c": 1.38452,
    "v": 1326
  },
  {
    "dt": "2021.04.23 04:00",
    "o": 1.38448,
    "h": 1.38617,
    "l": 1.38419,
    "c": 1.38612,
    "v": 1489
  },
  {
    "dt": "2021.04.23 05:00",
    "o": 1.38611,
    "h": 1.38611,
    "l": 1.38486,
    "c": 1.38609,
    "v": 1394
  },
  {
    "dt": "2021.04.23 06:00",
    "o": 1.38604,
    "h": 1.38623,
    "l": 1.38534,
    "c": 1.38575,
    "v": 1007
  },
  {
    "dt": "2021.04.23 07:00",
    "o": 1.38568,
    "h": 1.38646,
    "l": 1.38568,
    "c": 1.38626,
    "v": 795
  },
  {
    "dt": "2021.04.23 08:00",
    "o": 1.38627,
    "h": 1.38649,
    "l": 1.38535,
    "c": 1.38626,
    "v": 1139
  },
  {
    "dt": "2021.04.23 09:00",
    "o": 1.38622,
    "h": 1.38651,
    "l": 1.38517,
    "c": 1.38606,
    "v": 1826
  },
  {
    "dt": "2021.04.23 10:00",
    "o": 1.38607,
    "h": 1.38895,
    "l": 1.38545,
    "c": 1.38876,
    "v": 2762
  },
  {
    "dt": "2021.04.23 11:00",
    "o": 1.38877,
    "h": 1.38892,
    "l": 1.3862,
    "c": 1.38744,
    "v": 2276
  },
  {
    "dt": "2021.04.23 12:00",
    "o": 1.38745,
    "h": 1.38836,
    "l": 1.38636,
    "c": 1.38783,
    "v": 1896
  },
  {
    "dt": "2021.04.23 13:00",
    "o": 1.38782,
    "h": 1.38895,
    "l": 1.38686,
    "c": 1.38892,
    "v": 1892
  },
  {
    "dt": "2021.04.23 14:00",
    "o": 1.38892,
    "h": 1.38946,
    "l": 1.38776,
    "c": 1.38854,
    "v": 1965
  },
  {
    "dt": "2021.04.23 15:00",
    "o": 1.38856,
    "h": 1.38915,
    "l": 1.38724,
    "c": 1.38837,
    "v": 2547
  },
  {
    "dt": "2021.04.23 16:00",
    "o": 1.38838,
    "h": 1.3888,
    "l": 1.38499,
    "c": 1.38598,
    "v": 3047
  },
  {
    "dt": "2021.04.23 17:00",
    "o": 1.38599,
    "h": 1.38664,
    "l": 1.38361,
    "c": 1.38395,
    "v": 3429
  },
  {
    "dt": "2021.04.23 18:00",
    "o": 1.38391,
    "h": 1.38487,
    "l": 1.38346,
    "c": 1.38426,
    "v": 2390
  },
  {
    "dt": "2021.04.23 19:00",
    "o": 1.38427,
    "h": 1.38565,
    "l": 1.38427,
    "c": 1.38554,
    "v": 1558
  },
  {
    "dt": "2021.04.23 20:00",
    "o": 1.38554,
    "h": 1.38695,
    "l": 1.3853,
    "c": 1.38654,
    "v": 1535
  },
  {
    "dt": "2021.04.23 21:00",
    "o": 1.38659,
    "h": 1.38765,
    "l": 1.38651,
    "c": 1.38755,
    "v": 1098
  },
  {
    "dt": "2021.04.23 22:00",
    "o": 1.38753,
    "h": 1.38888,
    "l": 1.38722,
    "c": 1.38845,
    "v": 1588
  },
  {
    "dt": "2021.04.23 23:00",
    "o": 1.38844,
    "h": 1.38863,
    "l": 1.38742,
    "c": 1.38784,
    "v": 1152
  },
  {
    "dt": "2021.04.26 00:00",
    "o": 1.38742,
    "h": 1.3876,
    "l": 1.38685,
    "c": 1.38726,
    "v": 51
  },
  {
    "dt": "2021.04.26 01:00",
    "o": 1.38733,
    "h": 1.38797,
    "l": 1.38721,
    "c": 1.38724,
    "v": 637
  },
  {
    "dt": "2021.04.26 02:00",
    "o": 1.38725,
    "h": 1.38757,
    "l": 1.38635,
    "c": 1.38638,
    "v": 644
  },
  {
    "dt": "2021.04.26 03:00",
    "o": 1.38645,
    "h": 1.3892,
    "l": 1.38645,
    "c": 1.38871,
    "v": 1293
  },
  {
    "dt": "2021.04.26 04:00",
    "o": 1.38863,
    "h": 1.38992,
    "l": 1.3886,
    "c": 1.38976,
    "v": 1482
  },
  {
    "dt": "2021.04.26 05:00",
    "o": 1.38979,
    "h": 1.39039,
    "l": 1.38938,
    "c": 1.39022,
    "v": 1216
  },
  {
    "dt": "2021.04.26 06:00",
    "o": 1.39023,
    "h": 1.39065,
    "l": 1.3899,
    "c": 1.38997,
    "v": 1431
  },
  {
    "dt": "2021.04.26 07:00",
    "o": 1.38996,
    "h": 1.3907,
    "l": 1.38994,
    "c": 1.39015,
    "v": 868
  },
  {
    "dt": "2021.04.26 08:00",
    "o": 1.39018,
    "h": 1.3906,
    "l": 1.38958,
    "c": 1.38959,
    "v": 1152
  },
  {
    "dt": "2021.04.26 09:00",
    "o": 1.38955,
    "h": 1.39126,
    "l": 1.38896,
    "c": 1.39048,
    "v": 2186
  },
  {
    "dt": "2021.04.26 10:00",
    "o": 1.39033,
    "h": 1.39281,
    "l": 1.39018,
    "c": 1.39236,
    "v": 2590
  },
  {
    "dt": "2021.04.26 11:00",
    "o": 1.39239,
    "h": 1.39281,
    "l": 1.38924,
    "c": 1.39036,
    "v": 2403
  },
  {
    "dt": "2021.04.26 12:00",
    "o": 1.39037,
    "h": 1.39256,
    "l": 1.38997,
    "c": 1.39139,
    "v": 2115
  },
  {
    "dt": "2021.04.26 13:00",
    "o": 1.3913,
    "h": 1.39176,
    "l": 1.38977,
    "c": 1.38978,
    "v": 1965
  },
  {
    "dt": "2021.04.26 14:00",
    "o": 1.38974,
    "h": 1.3903,
    "l": 1.3881,
    "c": 1.38888,
    "v": 2322
  },
  {
    "dt": "2021.04.26 15:00",
    "o": 1.38892,
    "h": 1.38967,
    "l": 1.38661,
    "c": 1.38677,
    "v": 2443
  },
  {
    "dt": "2021.04.26 16:00",
    "o": 1.38677,
    "h": 1.38942,
    "l": 1.38649,
    "c": 1.38865,
    "v": 2883
  },
  {
    "dt": "2021.04.26 17:00",
    "o": 1.38865,
    "h": 1.39037,
    "l": 1.38855,
    "c": 1.38914,
    "v": 2878
  },
  {
    "dt": "2021.04.26 18:00",
    "o": 1.38915,
    "h": 1.3897,
    "l": 1.38792,
    "c": 1.38889,
    "v": 2552
  },
  {
    "dt": "2021.04.26 19:00",
    "o": 1.38893,
    "h": 1.38893,
    "l": 1.38766,
    "c": 1.38862,
    "v": 2117
  },
  {
    "dt": "2021.04.26 20:00",
    "o": 1.38864,
    "h": 1.3894,
    "l": 1.38845,
    "c": 1.38928,
    "v": 1286
  },
  {
    "dt": "2021.04.26 21:00",
    "o": 1.38927,
    "h": 1.39056,
    "l": 1.38927,
    "c": 1.39056,
    "v": 1128
  },
  {
    "dt": "2021.04.26 22:00",
    "o": 1.39056,
    "h": 1.39071,
    "l": 1.38987,
    "c": 1.39056,
    "v": 1488
  },
  {
    "dt": "2021.04.26 23:00",
    "o": 1.39048,
    "h": 1.3905,
    "l": 1.38976,
    "c": 1.39004,
    "v": 1081
  },
  {
    "dt": "2021.04.27 00:00",
    "o": 1.38913,
    "h": 1.38975,
    "l": 1.38908,
    "c": 1.38937,
    "v": 156
  },
  {
    "dt": "2021.04.27 01:00",
    "o": 1.38931,
    "h": 1.38995,
    "l": 1.38931,
    "c": 1.38956,
    "v": 445
  },
  {
    "dt": "2021.04.27 02:00",
    "o": 1.38955,
    "h": 1.38973,
    "l": 1.38912,
    "c": 1.38937,
    "v": 514
  },
  {
    "dt": "2021.04.27 03:00",
    "o": 1.38935,
    "h": 1.3901,
    "l": 1.3887,
    "c": 1.38911,
    "v": 1009
  },
  {
    "dt": "2021.04.27 04:00",
    "o": 1.38911,
    "h": 1.38936,
    "l": 1.38806,
    "c": 1.38873,
    "v": 1284
  },
  {
    "dt": "2021.04.27 05:00",
    "o": 1.38874,
    "h": 1.38886,
    "l": 1.38735,
    "c": 1.38768,
    "v": 1020
  },
  {
    "dt": "2021.04.27 06:00",
    "o": 1.38767,
    "h": 1.38837,
    "l": 1.38752,
    "c": 1.38795,
    "v": 844
  },
  {
    "dt": "2021.04.27 07:00",
    "o": 1.38801,
    "h": 1.38897,
    "l": 1.38782,
    "c": 1.38879,
    "v": 560
  },
  {
    "dt": "2021.04.27 08:00",
    "o": 1.38884,
    "h": 1.38956,
    "l": 1.38867,
    "c": 1.38924,
    "v": 991
  },
  {
    "dt": "2021.04.27 09:00",
    "o": 1.38928,
    "h": 1.38965,
    "l": 1.38777,
    "c": 1.38859,
    "v": 1910
  },
  {
    "dt": "2021.04.27 10:00",
    "o": 1.38858,
    "h": 1.38999,
    "l": 1.38687,
    "c": 1.38855,
    "v": 2300
  },
  {
    "dt": "2021.04.27 11:00",
    "o": 1.38855,
    "h": 1.38886,
    "l": 1.38575,
    "c": 1.38587,
    "v": 2133
  },
  {
    "dt": "2021.04.27 12:00",
    "o": 1.38587,
    "h": 1.38848,
    "l": 1.38579,
    "c": 1.38842,
    "v": 2187
  },
  {
    "dt": "2021.04.27 13:00",
    "o": 1.38845,
    "h": 1.39156,
    "l": 1.38807,
    "c": 1.39104,
    "v": 2310
  },
  {
    "dt": "2021.04.27 14:00",
    "o": 1.39103,
    "h": 1.39166,
    "l": 1.39026,
    "c": 1.39062,
    "v": 2153
  },
  {
    "dt": "2021.04.27 15:00",
    "o": 1.39066,
    "h": 1.39158,
    "l": 1.38924,
    "c": 1.39032,
    "v": 2178
  },
  {
    "dt": "2021.04.27 16:00",
    "o": 1.39039,
    "h": 1.39048,
    "l": 1.38854,
    "c": 1.39003,
    "v": 2866
  },
  {
    "dt": "2021.04.27 17:00",
    "o": 1.39003,
    "h": 1.39227,
    "l": 1.38965,
    "c": 1.39141,
    "v": 3245
  },
  {
    "dt": "2021.04.27 18:00",
    "o": 1.39142,
    "h": 1.39217,
    "l": 1.39062,
    "c": 1.39063,
    "v": 2181
  },
  {
    "dt": "2021.04.27 19:00",
    "o": 1.39065,
    "h": 1.39136,
    "l": 1.38957,
    "c": 1.39049,
    "v": 1988
  },
  {
    "dt": "2021.04.27 20:00",
    "o": 1.3905,
    "h": 1.39136,
    "l": 1.39047,
    "c": 1.39078,
    "v": 1461
  },
  {
    "dt": "2021.04.27 21:00",
    "o": 1.39082,
    "h": 1.39095,
    "l": 1.39007,
    "c": 1.39009,
    "v": 1504
  },
  {
    "dt": "2021.04.27 22:00",
    "o": 1.3901,
    "h": 1.39063,
    "l": 1.38995,
    "c": 1.39036,
    "v": 1088
  },
  {
    "dt": "2021.04.27 23:00",
    "o": 1.39037,
    "h": 1.39077,
    "l": 1.39025,
    "c": 1.39071,
    "v": 728
  },
  {
    "dt": "2021.04.28 00:00",
    "o": 1.39087,
    "h": 1.39092,
    "l": 1.38941,
    "c": 1.39021,
    "v": 1105
  },
  {
    "dt": "2021.04.28 01:00",
    "o": 1.3902,
    "h": 1.39044,
    "l": 1.38981,
    "c": 1.39024,
    "v": 558
  },
  {
    "dt": "2021.04.28 02:00",
    "o": 1.39025,
    "h": 1.3906,
    "l": 1.39009,
    "c": 1.39018,
    "v": 542
  },
  {
    "dt": "2021.04.28 03:00",
    "o": 1.39021,
    "h": 1.39022,
    "l": 1.38863,
    "c": 1.38867,
    "v": 1103
  },
  {
    "dt": "2021.04.28 04:00",
    "o": 1.38868,
    "h": 1.38909,
    "l": 1.38737,
    "c": 1.38774,
    "v": 1402
  },
  {
    "dt": "2021.04.28 05:00",
    "o": 1.3877,
    "h": 1.3883,
    "l": 1.38764,
    "c": 1.38764,
    "v": 1057
  },
  {
    "dt": "2021.04.28 06:00",
    "o": 1.38763,
    "h": 1.38783,
    "l": 1.38729,
    "c": 1.38736,
    "v": 591
  },
  {
    "dt": "2021.04.28 07:00",
    "o": 1.38736,
    "h": 1.38798,
    "l": 1.38731,
    "c": 1.38739,
    "v": 689
  },
  {
    "dt": "2021.04.28 08:00",
    "o": 1.3874,
    "h": 1.38873,
    "l": 1.38738,
    "c": 1.38808,
    "v": 769
  },
  {
    "dt": "2021.04.28 09:00",
    "o": 1.3881,
    "h": 1.38912,
    "l": 1.38673,
    "c": 1.38679,
    "v": 1863
  },
  {
    "dt": "2021.04.28 10:00",
    "o": 1.3868,
    "h": 1.38797,
    "l": 1.38615,
    "c": 1.38725,
    "v": 2606
  },
  {
    "dt": "2021.04.28 11:00",
    "o": 1.38728,
    "h": 1.38883,
    "l": 1.38678,
    "c": 1.388,
    "v": 2355
  },
  {
    "dt": "2021.04.28 12:00",
    "o": 1.388,
    "h": 1.38955,
    "l": 1.38763,
    "c": 1.3888,
    "v": 2302
  },
  {
    "dt": "2021.04.28 13:00",
    "o": 1.38881,
    "h": 1.3893,
    "l": 1.38629,
    "c": 1.38656,
    "v": 1939
  },
  {
    "dt": "2021.04.28 14:00",
    "o": 1.38662,
    "h": 1.38777,
    "l": 1.38606,
    "c": 1.38771,
    "v": 2282
  },
  {
    "dt": "2021.04.28 15:00",
    "o": 1.38771,
    "h": 1.38825,
    "l": 1.38633,
    "c": 1.3867,
    "v": 2194
  },
  {
    "dt": "2021.04.28 16:00",
    "o": 1.3867,
    "h": 1.38947,
    "l": 1.38662,
    "c": 1.38942,
    "v": 2739
  },
  {
    "dt": "2021.04.28 17:00",
    "o": 1.38944,
    "h": 1.39224,
    "l": 1.38913,
    "c": 1.39054,
    "v": 3370
  },
  {
    "dt": "2021.04.28 18:00",
    "o": 1.39054,
    "h": 1.39188,
    "l": 1.39003,
    "c": 1.39144,
    "v": 2518
  },
  {
    "dt": "2021.04.28 19:00",
    "o": 1.39147,
    "h": 1.39178,
    "l": 1.3906,
    "c": 1.39138,
    "v": 1658
  },
  {
    "dt": "2021.04.28 20:00",
    "o": 1.39139,
    "h": 1.3915,
    "l": 1.38975,
    "c": 1.39001,
    "v": 1621
  },
  {
    "dt": "2021.04.28 21:00",
    "o": 1.38975,
    "h": 1.39496,
    "l": 1.38885,
    "c": 1.39429,
    "v": 4069
  },
  {
    "dt": "2021.04.28 22:00",
    "o": 1.39432,
    "h": 1.39461,
    "l": 1.39311,
    "c": 1.39449,
    "v": 2870
  },
  {
    "dt": "2021.04.28 23:00",
    "o": 1.39447,
    "h": 1.39477,
    "l": 1.39389,
    "c": 1.39411,
    "v": 1165
  },
  {
    "dt": "2021.04.29 00:00",
    "o": 1.39303,
    "h": 1.39351,
    "l": 1.393,
    "c": 1.39347,
    "v": 197
  },
  {
    "dt": "2021.04.29 01:00",
    "o": 1.39346,
    "h": 1.39548,
    "l": 1.39346,
    "c": 1.39491,
    "v": 935
  },
  {
    "dt": "2021.04.29 02:00",
    "o": 1.39491,
    "h": 1.39545,
    "l": 1.3948,
    "c": 1.39532,
    "v": 891
  },
  {
    "dt": "2021.04.29 03:00",
    "o": 1.39535,
    "h": 1.3968,
    "l": 1.39508,
    "c": 1.39632,
    "v": 1047
  },
  {
    "dt": "2021.04.29 04:00",
    "o": 1.39642,
    "h": 1.39753,
    "l": 1.3961,
    "c": 1.39666,
    "v": 1352
  },
  {
    "dt": "2021.04.29 05:00",
    "o": 1.3967,
    "h": 1.39688,
    "l": 1.3951,
    "c": 1.39524,
    "v": 1516
  },
  {
    "dt": "2021.04.29 06:00",
    "o": 1.39525,
    "h": 1.39555,
    "l": 1.39387,
    "c": 1.39435,
    "v": 1190
  },
  {
    "dt": "2021.04.29 07:00",
    "o": 1.39437,
    "h": 1.39518,
    "l": 1.39416,
    "c": 1.39498,
    "v": 779
  },
  {
    "dt": "2021.04.29 08:00",
    "o": 1.39499,
    "h": 1.39588,
    "l": 1.39498,
    "c": 1.39571,
    "v": 1047
  },
  {
    "dt": "2021.04.29 09:00",
    "o": 1.39568,
    "h": 1.39635,
    "l": 1.3948,
    "c": 1.3961,
    "v": 2309
  },
  {
    "dt": "2021.04.29 10:00",
    "o": 1.39608,
    "h": 1.39688,
    "l": 1.39494,
    "c": 1.39619,
    "v": 2682
  },
  {
    "dt": "2021.04.29 11:00",
    "o": 1.39618,
    "h": 1.39657,
    "l": 1.39328,
    "c": 1.39407,
    "v": 2452
  },
  {
    "dt": "2021.04.29 12:00",
    "o": 1.39407,
    "h": 1.39605,
    "l": 1.39346,
    "c": 1.39395,
    "v": 2416
  },
  {
    "dt": "2021.04.29 13:00",
    "o": 1.39391,
    "h": 1.39449,
    "l": 1.3931,
    "c": 1.39429,
    "v": 2290
  },
  {
    "dt": "2021.04.29 14:00",
    "o": 1.39426,
    "h": 1.39506,
    "l": 1.39399,
    "c": 1.39479,
    "v": 2419
  },
  {
    "dt": "2021.04.29 15:00",
    "o": 1.3948,
    "h": 1.39653,
    "l": 1.39418,
    "c": 1.39608,
    "v": 2757
  },
  {
    "dt": "2021.04.29 16:00",
    "o": 1.39608,
    "h": 1.39642,
    "l": 1.39382,
    "c": 1.39425,
    "v": 3702
  },
  {
    "dt": "2021.04.29 17:00",
    "o": 1.39426,
    "h": 1.39575,
    "l": 1.39368,
    "c": 1.39438,
    "v": 3863
  },
  {
    "dt": "2021.04.29 18:00",
    "o": 1.39438,
    "h": 1.39555,
    "l": 1.39432,
    "c": 1.39537,
    "v": 2879
  },
  {
    "dt": "2021.04.29 19:00",
    "o": 1.39536,
    "h": 1.39537,
    "l": 1.39401,
    "c": 1.39414,
    "v": 2762
  },
  {
    "dt": "2021.04.29 20:00",
    "o": 1.39413,
    "h": 1.39469,
    "l": 1.39381,
    "c": 1.39392,
    "v": 2092
  },
  {
    "dt": "2021.04.29 21:00",
    "o": 1.39393,
    "h": 1.39483,
    "l": 1.39339,
    "c": 1.39481,
    "v": 1920
  },
  {
    "dt": "2021.04.29 22:00",
    "o": 1.39482,
    "h": 1.39504,
    "l": 1.39411,
    "c": 1.39492,
    "v": 1970
  },
  {
    "dt": "2021.04.29 23:00",
    "o": 1.39491,
    "h": 1.39492,
    "l": 1.39388,
    "c": 1.39388,
    "v": 735
  },
  {
    "dt": "2021.04.30 00:00",
    "o": 1.39373,
    "h": 1.3942,
    "l": 1.39327,
    "c": 1.39417,
    "v": 96
  },
  {
    "dt": "2021.04.30 01:00",
    "o": 1.39417,
    "h": 1.39434,
    "l": 1.39377,
    "c": 1.39424,
    "v": 814
  },
  {
    "dt": "2021.04.30 02:00",
    "o": 1.39422,
    "h": 1.39515,
    "l": 1.39421,
    "c": 1.39493,
    "v": 944
  },
  {
    "dt": "2021.04.30 03:00",
    "o": 1.39493,
    "h": 1.39535,
    "l": 1.3942,
    "c": 1.39524,
    "v": 1492
  },
  {
    "dt": "2021.04.30 04:00",
    "o": 1.39523,
    "h": 1.39573,
    "l": 1.39505,
    "c": 1.39533,
    "v": 1294
  },
  {
    "dt": "2021.04.30 05:00",
    "o": 1.39532,
    "h": 1.39541,
    "l": 1.39446,
    "c": 1.39465,
    "v": 1043
  },
  {
    "dt": "2021.04.30 06:00",
    "o": 1.39466,
    "h": 1.3948,
    "l": 1.39411,
    "c": 1.39455,
    "v": 792
  },
  {
    "dt": "2021.04.30 07:00",
    "o": 1.39455,
    "h": 1.39498,
    "l": 1.39432,
    "c": 1.39441,
    "v": 728
  },
  {
    "dt": "2021.04.30 08:00",
    "o": 1.39444,
    "h": 1.39444,
    "l": 1.39335,
    "c": 1.39355,
    "v": 1185
  },
  {
    "dt": "2021.04.30 09:00",
    "o": 1.39366,
    "h": 1.39457,
    "l": 1.39319,
    "c": 1.39339,
    "v": 1929
  },
  {
    "dt": "2021.04.30 10:00",
    "o": 1.39335,
    "h": 1.39354,
    "l": 1.39078,
    "c": 1.39137,
    "v": 2895
  },
  {
    "dt": "2021.04.30 11:00",
    "o": 1.39137,
    "h": 1.39194,
    "l": 1.39033,
    "c": 1.39063,
    "v": 2400
  },
  {
    "dt": "2021.04.30 12:00",
    "o": 1.39065,
    "h": 1.39125,
    "l": 1.39003,
    "c": 1.39067,
    "v": 1882
  },
  {
    "dt": "2021.04.30 13:00",
    "o": 1.39068,
    "h": 1.39226,
    "l": 1.39002,
    "c": 1.39072,
    "v": 2220
  },
  {
    "dt": "2021.04.30 14:00",
    "o": 1.39074,
    "h": 1.39214,
    "l": 1.3904,
    "c": 1.39055,
    "v": 2298
  },
  {
    "dt": "2021.04.30 15:00",
    "o": 1.39055,
    "h": 1.3912,
    "l": 1.38712,
    "c": 1.38776,
    "v": 2608
  },
  {
    "dt": "2021.04.30 16:00",
    "o": 1.38778,
    "h": 1.38864,
    "l": 1.38616,
    "c": 1.38751,
    "v": 3107
  },
  {
    "dt": "2021.04.30 17:00",
    "o": 1.38753,
    "h": 1.38754,
    "l": 1.38406,
    "c": 1.38435,
    "v": 3537
  },
  {
    "dt": "2021.04.30 18:00",
    "o": 1.38436,
    "h": 1.38453,
    "l": 1.38061,
    "c": 1.38356,
    "v": 3724
  },
  {
    "dt": "2021.04.30 19:00",
    "o": 1.38355,
    "h": 1.38409,
    "l": 1.38233,
    "c": 1.38286,
    "v": 2524
  },
  {
    "dt": "2021.04.30 20:00",
    "o": 1.38286,
    "h": 1.38301,
    "l": 1.38022,
    "c": 1.38043,
    "v": 2345
  },
  {
    "dt": "2021.04.30 21:00",
    "o": 1.38044,
    "h": 1.38197,
    "l": 1.38019,
    "c": 1.38066,
    "v": 1960
  },
  {
    "dt": "2021.04.30 22:00",
    "o": 1.38069,
    "h": 1.38103,
    "l": 1.38016,
    "c": 1.38102,
    "v": 1511
  },
  {
    "dt": "2021.04.30 23:00",
    "o": 1.38102,
    "h": 1.38209,
    "l": 1.38097,
    "c": 1.38181,
    "v": 879
  }
]