[
  {
    "dt": "2021.06.01 00:00",
    "o": 1.4205,
    "h": 1.42089,
    "l": 1.42023,
    "c": 1.42039,
    "v": 90
  },
  {
    "dt": "2021.06.01 01:00",
    "o": 1.42049,
    "h": 1.42172,
    "l": 1.42043,
    "c": 1.42152,
    "v": 457
  },
  {
    "dt": "2021.06.01 02:00",
    "o": 1.42153,
    "h": 1.42276,
    "l": 1.42141,
    "c": 1.42258,
    "v": 384
  },
  {
    "dt": "2021.06.01 03:00",
    "o": 1.42254,
    "h": 1.4228,
    "l": 1.42184,
    "c": 1.42267,
    "v": 1109
  },
  {
    "dt": "2021.06.01 04:00",
    "o": 1.42271,
    "h": 1.42475,
    "l": 1.42261,
    "c": 1.424,
    "v": 2126
  },
  {
    "dt": "2021.06.01 05:00",
    "o": 1.42405,
    "h": 1.42455,
    "l": 1.42327,
    "c": 1.42384,
    "v": 1515
  },
  {
    "dt": "2021.06.01 06:00",
    "o": 1.42384,
    "h": 1.42426,
    "l": 1.42327,
    "c": 1.42361,
    "v": 1212
  },
  {
    "dt": "2021.06.01 07:00",
    "o": 1.4236,
    "h": 1.42384,
    "l": 1.42289,
    "c": 1.42322,
    "v": 1099
  },
  {
    "dt": "2021.06.01 08:00",
    "o": 1.42323,
    "h": 1.42334,
    "l": 1.4219,
    "c": 1.42263,
    "v": 1223
  },
  {
    "dt": "2021.06.01 09:00",
    "o": 1.42265,
    "h": 1.42375,
    "l": 1.42116,
    "c": 1.42345,
    "v": 2164
  },
  {
    "dt": "2021.06.01 10:00",
    "o": 1.42346,
    "h": 1.42422,
    "l": 1.42176,
    "c": 1.4221,
    "v": 3158
  },
  {
    "dt": "2021.06.01 11:00",
    "o": 1.42218,
    "h": 1.42244,
    "l": 1.41753,
    "c": 1.41886,
    "v": 3599
  },
  {
    "dt": "2021.06.01 12:00",
    "o": 1.41885,
    "h": 1.41938,
    "l": 1.41792,
    "c": 1.41817,
    "v": 2669
  },
  {
    "dt": "2021.06.01 13:00",
    "o": 1.41815,
    "h": 1.41887,
    "l": 1.41656,
    "c": 1.418,
    "v": 2680
  },
  {
    "dt": "2021.06.01 14:00",
    "o": 1.41803,
    "h": 1.41876,
    "l": 1.41673,
    "c": 1.41688,
    "v": 2435
  },
  {
    "dt": "2021.06.01 15:00",
    "o": 1.41685,
    "h": 1.41748,
    "l": 1.41543,
    "c": 1.41587,
    "v": 3104
  },
  {
    "dt": "2021.06.01 16:00",
    "o": 1.41586,
    "h": 1.4191,
    "l": 1.41564,
    "c": 1.41771,
    "v": 3576
  },
  {
    "dt": "2021.06.01 17:00",
    "o": 1.4178,
    "h": 1.41913,
    "l": 1.41671,
    "c": 1.41728,
    "v": 4140
  },
  {
    "dt": "2021.06.01 18:00",
    "o": 1.41724,
    "h": 1.41798,
    "l": 1.4164,
    "c": 1.41662,
    "v": 2707
  },
  {
    "dt": "2021.06.01 19:00",
    "o": 1.41662,
    "h": 1.41697,
    "l": 1.416,
    "c": 1.416,
    "v": 2538
  },
  {
    "dt": "2021.06.01 20:00",
    "o": 1.41601,
    "h": 1.41616,
    "l": 1.4154,
    "c": 1.41545,
    "v": 2045
  },
  {
    "dt": "2021.06.01 21:00",
    "o": 1.41544,
    "h": 1.41622,
    "l": 1.41543,
    "c": 1.41594,
    "v": 1607
  },
  {
    "dt": "2021.06.01 22:00",
    "o": 1.41594,
    "h": 1.41615,
    "l": 1.415,
    "c": 1.41505,
    "v": 1374
  },
  {
    "dt": "2021.06.01 23:00",
    "o": 1.41503,
    "h": 1.41518,
    "l": 1.4145,
    "c": 1.4145,
    "v": 1062
  },
  {
    "dt": "2021.06.02 00:00",
    "o": 1.41465,
    "h": 1.4149,
    "l": 1.41458,
    "c": 1.41482,
    "v": 222
  },
  {
    "dt": "2021.06.02 01:00",
    "o": 1.41472,
    "h": 1.41505,
    "l": 1.41444,
    "c": 1.41496,
    "v": 500
  },
  {
    "dt": "2021.06.02 02:00",
    "o": 1.41495,
    "h": 1.41547,
    "l": 1.41476,
    "c": 1.41544,
    "v": 541
  },
  {
    "dt": "2021.06.02 03:00",
    "o": 1.41543,
    "h": 1.41615,
    "l": 1.4151,
    "c": 1.4157,
    "v": 1259
  },
  {
    "dt": "2021.06.02 04:00",
    "o": 1.41563,
    "h": 1.41625,
    "l": 1.41531,
    "c": 1.41551,
    "v": 1267
  },
  {
    "dt": "2021.06.02 05:00",
    "o": 1.41552,
    "h": 1.4163,
    "l": 1.41514,
    "c": 1.41593,
    "v": 1146
  },
  {
    "dt": "2021.06.02 06:00",
    "o": 1.41593,
    "h": 1.41627,
    "l": 1.41552,
    "c": 1.41587,
    "v": 695
  },
  {
    "dt": "2021.06.02 07:00",
    "o": 1.41595,
    "h": 1.41596,
    "l": 1.41471,
    "c": 1.41473,
    "v": 858
  },
  {
    "dt": "2021.06.02 08:00",
    "o": 1.41472,
    "h": 1.41559,
    "l": 1.41457,
    "c": 1.41507,
    "v": 1335
  },
  {
    "dt": "2021.06.02 09:00",
    "o": 1.4151,
    "h": 1.41573,
    "l": 1.41415,
    "c": 1.41464,
    "v": 2566
  },
  {
    "dt": "2021.06.02 10:00",
    "o": 1.41461,
    "h": 1.41498,
    "l": 1.41287,
    "c": 1.41384,
    "v": 3239
  },
  {
    "dt": "2021.06.02 11:00",
    "o": 1.41386,
    "h": 1.41433,
    "l": 1.41241,
    "c": 1.41353,
    "v": 3065
  },
  {
    "dt": "2021.06.02 12:00",
    "o": 1.41354,
    "h": 1.41442,
    "l": 1.41283,
    "c": 1.41424,
    "v": 2860
  },
  {
    "dt": "2021.06.02 13:00",
    "o": 1.41423,
    "h": 1.41464,
    "l": 1.41215,
    "c": 1.41234,
    "v": 2632
  },
  {
    "dt": "2021.06.02 14:00",
    "o": 1.41235,
    "h": 1.41407,
    "l": 1.41107,
    "c": 1.41398,
    "v": 2846
  },
  {
    "dt": "2021.06.02 15:00",
    "o": 1.41397,
    "h": 1.41715,
    "l": 1.41382,
    "c": 1.41663,
    "v": 3180
  },
  {
    "dt": "2021.06.02 16:00",
    "o": 1.41664,
    "h": 1.41684,
    "l": 1.41536,
    "c": 1.4168,
    "v": 3025
  },
  {
    "dt": "2021.06.02 17:00",
    "o": 1.41682,
    "h": 1.41794,
    "l": 1.41605,
    "c": 1.41644,
    "v": 3190
  },
  {
    "dt": "2021.06.02 18:00",
    "o": 1.41643,
    "h": 1.41823,
    "l": 1.41619,
    "c": 1.41753,
    "v": 2376
  },
  {
    "dt": "2021.06.02 19:00",
    "o": 1.41751,
    "h": 1.41754,
    "l": 1.41641,
    "c": 1.41735,
    "v": 1814
  },
  {
    "dt": "2021.06.02 20:00",
    "o": 1.41735,
    "h": 1.41769,
    "l": 1.41642,
    "c": 1.41736,
    "v": 1686
  },
  {
    "dt": "2021.06.02 21:00",
    "o": 1.41738,
    "h": 1.41789,
    "l": 1.41621,
    "c": 1.41675,
    "v": 2205
  },
  {
    "dt": "2021.06.02 22:00",
    "o": 1.41676,
    "h": 1.41744,
    "l": 1.41668,
    "c": 1.41699,
    "v": 1255
  },
  {
    "dt": "2021.06.02 23:00",
    "o": 1.41699,
    "h": 1.41709,
    "l": 1.41647,
    "c": 1.41647,
    "v": 821
  },
  {
    "dt": "2021.06.03 00:00",
    "o": 1.41642,
    "h": 1.41701,
    "l": 1.41642,
    "c": 1.4168,
    "v": 138
  },
  {
    "dt": "2021.06.03 01:00",
    "o": 1.41692,
    "h": 1.41711,
    "l": 1.41676,
    "c": 1.41689,
    "v": 356
  },
  {
    "dt": "2021.06.03 02:00",
    "o": 1.41694,
    "h": 1.41704,
    "l": 1.41671,
    "c": 1.41699,
    "v": 406
  },
  {
    "dt": "2021.06.03 03:00",
    "o": 1.41703,
    "h": 1.41783,
    "l": 1.41702,
    "c": 1.41774,
    "v": 711
  },
  {
    "dt": "2021.06.03 04:00",
    "o": 1.41775,
    "h": 1.41775,
    "l": 1.41666,
    "c": 1.41698,
    "v": 1047
  },
  {
    "dt": "2021.06.03 05:00",
    "o": 1.41698,
    "h": 1.41747,
    "l": 1.41669,
    "c": 1.41671,
    "v": 855
  },
  {
    "dt": "2021.06.03 06:00",
    "o": 1.4167,
    "h": 1.41694,
    "l": 1.4164,
    "c": 1.41684,
    "v": 748
  },
  {
    "dt": "2021.06.03 07:00",
    "o": 1.41685,
    "h": 1.41694,
    "l": 1.41602,
    "c": 1.41612,
    "v": 641
  },
  {
    "dt": "2021.06.03 08:00",
    "o": 1.41613,
    "h": 1.41613,
    "l": 1.41495,
    "c": 1.41527,
    "v": 1323
  },
  {
    "dt": "2021.06.03 09:00",
    "o": 1.4152,
    "h": 1.41587,
    "l": 1.41432,
    "c": 1.41515,
    "v": 2219
  },
  {
    "dt": "2021.06.03 10:00",
    "o": 1.41516,
    "h": 1.41629,
    "l": 1.41426,
    "c": 1.41454,
    "v": 2992
  },
  {
    "dt": "2021.06.03 11:00",
    "o": 1.41451,
    "h": 1.41868,
    "l": 1.41446,
    "c": 1.41774,
    "v": 3000
  },
  {
    "dt": "2021.06.03 12:00",
    "o": 1.41767,
    "h": 1.41869,
    "l": 1.4175,
    "c": 1.41865,
    "v": 2670
  },
  {
    "dt": "2021.06.03 13:00",
    "o": 1.41865,
    "h": 1.42021,
    "l": 1.41761,
    "c": 1.41771,
    "v": 3164
  },
  {
    "dt": "2021.06.03 14:00",
    "o": 1.41773,
    "h": 1.41936,
    "l": 1.41744,
    "c": 1.41862,
    "v": 3014
  },
  {
    "dt": "2021.06.03 15:00",
    "o": 1.4186,
    "h": 1.4188,
    "l": 1.41506,
    "c": 1.41558,
    "v": 4290
  },
  {
    "dt": "2021.06.03 16:00",
    "o": 1.4156,
    "h": 1.41578,
    "l": 1.41069,
    "c": 1.41109,
    "v": 4318
  },
  {
    "dt": "2021.06.03 17:00",
    "o": 1.41103,
    "h": 1.412,
    "l": 1.40991,
    "c": 1.41143,
    "v": 3780
  },
  {
    "dt": "2021.06.03 18:00",
    "o": 1.41142,
    "h": 1.4117,
    "l": 1.40912,
    "c": 1.40983,
    "v": 2809
  },
  {
    "dt": "2021.06.03 19:00",
    "o": 1.40984,
    "h": 1.41041,
    "l": 1.40956,
    "c": 1.40976,
    "v": 2183
  },
  {
    "dt": "2021.06.03 20:00",
    "o": 1.40979,
    "h": 1.40985,
    "l": 1.40856,
    "c": 1.40907,
    "v": 1945
  },
  {
    "dt": "2021.06.03 21:00",
    "o": 1.40906,
    "h": 1.40985,
    "l": 1.40894,
    "c": 1.40953,
    "v": 1804
  },
  {
    "dt": "2021.06.03 22:00",
    "o": 1.40952,
    "h": 1.41071,
    "l": 1.40952,
    "c": 1.41062,
    "v": 1374
  },
  {
    "dt": "2021.06.03 23:00",
    "o": 1.41061,
    "h": 1.4107,
    "l": 1.40985,
    "c": 1.41013,
    "v": 810
  },
  {
    "dt": "2021.06.04 00:00",
    "o": 1.41005,
    "h": 1.41023,
    "l": 1.40958,
    "c": 1.40998,
    "v": 257
  },
  {
    "dt": "2021.06.04 01:00",
    "o": 1.41014,
    "h": 1.41072,
    "l": 1.41012,
    "c": 1.41072,
    "v": 493
  },
  {
    "dt": "2021.06.04 02:00",
    "o": 1.41073,
    "h": 1.4111,
    "l": 1.4107,
    "c": 1.4107,
    "v": 276
  },
  {
    "dt": "2021.06.04 03:00",
    "o": 1.4107,
    "h": 1.41075,
    "l": 1.4094,
    "c": 1.41034,
    "v": 1240
  },
  {
    "dt": "2021.06.04 04:00",
    "o": 1.41035,
    "h": 1.41097,
    "l": 1.4095,
    "c": 1.40975,
    "v": 1288
  },
  {
    "dt": "2021.06.04 05:00",
    "o": 1.40976,
    "h": 1.41034,
    "l": 1.40943,
    "c": 1.41026,
    "v": 1154
  },
  {
    "dt": "2021.06.04 06:00",
    "o": 1.41027,
    "h": 1.41043,
    "l": 1.40962,
    "c": 1.40963,
    "v": 762
  },
  {
    "dt": "2021.06.04 07:00",
    "o": 1.40965,
    "h": 1.40967,
    "l": 1.40894,
    "c": 1.40936,
    "v": 836
  },
  {
    "dt": "2021.06.04 08:00",
    "o": 1.40937,
    "h": 1.40959,
    "l": 1.40824,
    "c": 1.40866,
    "v": 1298
  },
  {
    "dt": "2021.06.04 09:00",
    "o": 1.40864,
    "h": 1.41076,
    "l": 1.40844,
    "c": 1.41061,
    "v": 2347
  },
  {
    "dt": "2021.06.04 10:00",
    "o": 1.4106,
    "h": 1.41159,
    "l": 1.40986,
    "c": 1.41139,
    "v": 2769
  },
  {
    "dt": "2021.06.04 11:00",
    "o": 1.4114,
    "h": 1.41309,
    "l": 1.41102,
    "c": 1.41262,
    "v": 2844
  },
  {
    "dt": "2021.06.04 12:00",
    "o": 1.41272,
    "h": 1.41297,
    "l": 1.41201,
    "c": 1.4126,
    "v": 2210
  },
  {
    "dt": "2021.06.04 13:00",
    "o": 1.4126,
    "h": 1.41286,
    "l": 1.41153,
    "c": 1.4117,
    "v": 2195
  },
  {
    "dt": "2021.06.04 14:00",
    "o": 1.41169,
    "h": 1.41304,
    "l": 1.41145,
    "c": 1.41293,
    "v": 2316
  },
  {
    "dt": "2021.06.04 15:00",
    "o": 1.41292,
    "h": 1.41843,
    "l": 1.41292,
    "c": 1.4178,
    "v": 4382
  },
  {
    "dt": "2021.06.04 16:00",
    "o": 1.41777,
    "h": 1.41994,
    "l": 1.4176,
    "c": 1.41865,
    "v": 3860
  },
  {
    "dt": "2021.06.04 17:00",
    "o": 1.41864,
    "h": 1.41928,
    "l": 1.4165,
    "c": 1.41703,
    "v": 3712
  },
  {
    "dt": "2021.06.04 18:00",
    "o": 1.41704,
    "h": 1.41776,
    "l": 1.41649,
    "c": 1.41728,
    "v": 2949
  },
  {
    "dt": "2021.06.04 19:00",
    "o": 1.41726,
    "h": 1.41747,
    "l": 1.41601,
    "c": 1.41627,
    "v": 2215
  },
  {
    "dt": "2021.06.04 20:00",
    "o": 1.41632,
    "h": 1.4164,
    "l": 1.41582,
    "c": 1.41613,
    "v": 1756
  },
  {
    "dt": "2021.06.04 21:00",
    "o": 1.41612,
    "h": 1.41635,
    "l": 1.41543,
    "c": 1.41608,
    "v": 1887
  },
  {
    "dt": "2021.06.04 22:00",
    "o": 1.41609,
    "h": 1.41656,
    "l": 1.41579,
    "c": 1.41653,
    "v": 1362
  },
  {
    "dt": "2021.06.04 23:00",
    "o": 1.41654,
    "h": 1.41662,
    "l": 1.4157,
    "c": 1.4157,
    "v": 763
  },
  {
    "dt": "2021.06.07 00:00",
    "o": 1.41546,
    "h": 1.4163,
    "l": 1.41462,
    "c": 1.41558,
    "v": 152
  },
  {
    "dt": "2021.06.07 01:00",
    "o": 1.41603,
    "h": 1.41622,
    "l": 1.41551,
    "c": 1.4156,
    "v": 600
  },
  {
    "dt": "2021.06.07 02:00",
    "o": 1.4156,
    "h": 1.41644,
    "l": 1.4156,
    "c": 1.41629,
    "v": 624
  },
  {
    "dt": "2021.06.07 03:00",
    "o": 1.41629,
    "h": 1.41691,
    "l": 1.41593,
    "c": 1.41602,
    "v": 1627
  },
  {
    "dt": "2021.06.07 04:00",
    "o": 1.41601,
    "h": 1.41605,
    "l": 1.41415,
    "c": 1.41415,
    "v": 1808
  },
  {
    "dt": "2021.06.07 05:00",
    "o": 1.41422,
    "h": 1.41456,
    "l": 1.41379,
    "c": 1.41392,
    "v": 1539
  },
  {
    "dt": "2021.06.07 06:00",
    "o": 1.41394,
    "h": 1.41446,
    "l": 1.4139,
    "c": 1.41424,
    "v": 1208
  },
  {
    "dt": "2021.06.07 07:00",
    "o": 1.41424,
    "h": 1.41482,
    "l": 1.41382,
    "c": 1.41454,
    "v": 1104
  },
  {
    "dt": "2021.06.07 08:00",
    "o": 1.41453,
    "h": 1.41462,
    "l": 1.41322,
    "c": 1.41324,
    "v": 1460
  },
  {
    "dt": "2021.06.07 09:00",
    "o": 1.41324,
    "h": 1.41326,
    "l": 1.41103,
    "c": 1.4118,
    "v": 2159
  },
  {
    "dt": "2021.06.07 10:00",
    "o": 1.41188,
    "h": 1.41385,
    "l": 1.41145,
    "c": 1.41342,
    "v": 3155
  },
  {
    "dt": "2021.06.07 11:00",
    "o": 1.41337,
    "h": 1.41425,
    "l": 1.41171,
    "c": 1.4141,
    "v": 2872
  },
  {
    "dt": "2021.06.07 12:00",
    "o": 1.41409,
    "h": 1.41446,
    "l": 1.41295,
    "c": 1.41439,
    "v": 2361
  },
  {
    "dt": "2021.06.07 13:00",
    "o": 1.4145,
    "h": 1.41488,
    "l": 1.41251,
    "c": 1.41484,
    "v": 2371
  },
  {
    "dt": "2021.06.07 14:00",
    "o": 1.41483,
    "h": 1.41743,
    "l": 1.41474,
    "c": 1.41726,
    "v": 2371
  },
  {
    "dt": "2021.06.07 15:00",
    "o": 1.41729,
    "h": 1.41791,
    "l": 1.41659,
    "c": 1.41737,
    "v": 2264
  },
  {
    "dt": "2021.06.07 16:00",
    "o": 1.41739,
    "h": 1.41809,
    "l": 1.41651,
    "c": 1.41688,
    "v": 3090
  },
  {
    "dt": "2021.06.07 17:00",
    "o": 1.41689,
    "h": 1.4184,
    "l": 1.41614,
    "c": 1.41671,
    "v": 3238
  },
  {
    "dt": "2021.06.07 18:00",
    "o": 1.41665,
    "h": 1.41787,
    "l": 1.41647,
    "c": 1.41762,
    "v": 2553
  },
  {
    "dt": "2021.06.07 19:00",
    "o": 1.41761,
    "h": 1.41832,
    "l": 1.41758,
    "c": 1.418,
    "v": 2016
  },
  {
    "dt": "2021.06.07 20:00",
    "o": 1.41798,
    "h": 1.41884,
    "l": 1.41787,
    "c": 1.41873,
    "v": 1603
  },
  {
    "dt": "2021.06.07 21:00",
    "o": 1.41874,
    "h": 1.41891,
    "l": 1.41824,
    "c": 1.41831,
    "v": 1474
  },
  {
    "dt": "2021.06.07 22:00",
    "o": 1.41828,
    "h": 1.41836,
    "l": 1.41788,
    "c": 1.41811,
    "v": 650
  },
  {
    "dt": "2021.06.07 23:00",
    "o": 1.41812,
    "h": 1.41822,
    "l": 1.41744,
    "c": 1.41775,
    "v": 557
  },
  {
    "dt": "2021.06.08 00:00",
    "o": 1.41795,
    "h": 1.41799,
    "l": 1.41738,
    "c": 1.41776,
    "v": 423
  },
  {
    "dt": "2021.06.08 01:00",
    "o": 1.4178,
    "h": 1.41798,
    "l": 1.41758,
    "c": 1.41781,
    "v": 326
  },
  {
    "dt": "2021.06.08 02:00",
    "o": 1.41782,
    "h": 1.41784,
    "l": 1.41741,
    "c": 1.41745,
    "v": 338
  },
  {
    "dt": "2021.06.08 03:00",
    "o": 1.41745,
    "h": 1.41832,
    "l": 1.41651,
    "c": 1.41693,
    "v": 934
  },
  {
    "dt": "2021.06.08 04:00",
    "o": 1.41701,
    "h": 1.41761,
    "l": 1.4167,
    "c": 1.41695,
    "v": 1214
  },
  {
    "dt": "2021.06.08 05:00",
    "o": 1.41695,
    "h": 1.41728,
    "l": 1.41627,
    "c": 1.41627,
    "v": 1426
  },
  {
    "dt": "2021.06.08 06:00",
    "o": 1.41624,
    "h": 1.41624,
    "l": 1.41572,
    "c": 1.41595,
    "v": 1233
  },
  {
    "dt": "2021.06.08 07:00",
    "o": 1.41594,
    "h": 1.41596,
    "l": 1.41551,
    "c": 1.41561,
    "v": 498
  },
  {
    "dt": "2021.06.08 08:00",
    "o": 1.4156,
    "h": 1.41606,
    "l": 1.41461,
    "c": 1.41495,
    "v": 977
  },
  {
    "dt": "2021.06.08 09:00",
    "o": 1.41494,
    "h": 1.4164,
    "l": 1.41492,
    "c": 1.41534,
    "v": 2092
  },
  {
    "dt": "2021.06.08 10:00",
    "o": 1.41527,
    "h": 1.41643,
    "l": 1.41303,
    "c": 1.4138,
    "v": 2899
  },
  {
    "dt": "2021.06.08 11:00",
    "o": 1.41378,
    "h": 1.41449,
    "l": 1.41274,
    "c": 1.41405,
    "v": 2551
  },
  {
    "dt": "2021.06.08 12:00",
    "o": 1.41401,
    "h": 1.41466,
    "l": 1.41344,
    "c": 1.41355,
    "v": 2282
  },
  {
    "dt": "2021.06.08 13:00",
    "o": 1.41355,
    "h": 1.41448,
    "l": 1.41301,
    "c": 1.4142,
    "v": 2995
  },
  {
    "dt": "2021.06.08 14:00",
    "o": 1.41422,
    "h": 1.41537,
    "l": 1.41399,
    "c": 1.41453,
    "v": 2427
  },
  {
    "dt": "2021.06.08 15:00",
    "o": 1.41453,
    "h": 1.41564,
    "l": 1.41383,
    "c": 1.41436,
    "v": 3218
  },
  {
    "dt": "2021.06.08 16:00",
    "o": 1.41427,
    "h": 1.41544,
    "l": 1.41201,
    "c": 1.41234,
    "v": 3497
  },
  {
    "dt": "2021.06.08 17:00",
    "o": 1.41234,
    "h": 1.41579,
    "l": 1.4122,
    "c": 1.41483,
    "v": 3247
  },
  {
    "dt": "2021.06.08 18:00",
    "o": 1.41487,
    "h": 1.41513,
    "l": 1.41406,
    "c": 1.41453,
    "v": 2624
  },
  {
    "dt": "2021.06.08 19:00",
    "o": 1.41444,
    "h": 1.41521,
    "l": 1.41425,
    "c": 1.4147,
    "v": 1486
  },
  {
    "dt": "2021.06.08 20:00",
    "o": 1.41468,
    "h": 1.4153,
    "l": 1.41454,
    "c": 1.41528,
    "v": 1243
  },
  {
    "dt": "2021.06.08 21:00",
    "o": 1.4153,
    "h": 1.41632,
    "l": 1.41522,
    "c": 1.41627,
    "v": 1387
  },
  {
    "dt": "2021.06.08 22:00",
    "o": 1.41627,
    "h": 1.41627,
    "l": 1.41541,
    "c": 1.41554,
    "v": 1743
  },
  {
    "dt": "2021.06.08 23:00",
    "o": 1.41553,
    "h": 1.41556,
    "l": 1.41476,
    "c": 1.41512,
    "v": 746
  },
  {
    "dt": "2021.06.09 00:00",
    "o": 1.41535,
    "h": 1.41549,
    "l": 1.41421,
    "c": 1.41483,
    "v": 473
  },
  {
    "dt": "2021.06.09 01:00",
    "o": 1.41484,
    "h": 1.41499,
    "l": 1.41454,
    "c": 1.41487,
    "v": 450
  },
  {
    "dt": "2021.06.09 02:00",
    "o": 1.41487,
    "h": 1.41508,
    "l": 1.41471,
    "c": 1.41481,
    "v": 485
  },
  {
    "dt": "2021.06.09 03:00",
    "o": 1.41478,
    "h": 1.41589,
    "l": 1.41467,
    "c": 1.41589,
    "v": 994
  },
  {
    "dt": "2021.06.09 04:00",
    "o": 1.4159,
    "h": 1.41621,
    "l": 1.41543,
    "c": 1.41616,
    "v": 1039
  },
  {
    "dt": "2021.06.09 05:00",
    "o": 1.41617,
    "h": 1.41651,
    "l": 1.41562,
    "c": 1.41647,
    "v": 883
  },
  {
    "dt": "2021.06.09 06:00",
    "o": 1.41648,
    "h": 1.41676,
    "l": 1.41581,
    "c": 1.41587,
    "v": 1121
  },
  {
    "dt": "2021.06.09 07:00",
    "o": 1.41586,
    "h": 1.41624,
    "l": 1.41509,
    "c": 1.41511,
    "v": 781
  },
  {
    "dt": "2021.06.09 08:00",
    "o": 1.41513,
    "h": 1.41587,
    "l": 1.41501,
    "c": 1.41558,
    "v": 834
  },
  {
    "dt": "2021.06.09 09:00",
    "o": 1.41557,
    "h": 1.41817,
    "l": 1.41526,
    "c": 1.41749,
    "v": 1854
  },
  {
    "dt": "2021.06.09 10:00",
    "o": 1.41748,
    "h": 1.41818,
    "l": 1.41642,
    "c": 1.41718,
    "v": 2431
  },
  {
    "dt": "2021.06.09 11:00",
    "o": 1.41723,
    "h": 1.41878,
    "l": 1.41716,
    "c": 1.41848,
    "v": 2612
  },
  {
    "dt": "2021.06.09 12:00",
    "o": 1.41846,
    "h": 1.41856,
    "l": 1.41681,
    "c": 1.41744,
    "v": 1708
  },
  {
    "dt": "2021.06.09 13:00",
    "o": 1.41743,
    "h": 1.41815,
    "l": 1.41706,
    "c": 1.41722,
    "v": 1748
  },
  {
    "dt": "2021.06.09 14:00",
    "o": 1.41725,
    "h": 1.41772,
    "l": 1.4164,
    "c": 1.41732,
    "v": 2127
  },
  {
    "dt": "2021.06.09 15:00",
    "o": 1.41734,
    "h": 1.41745,
    "l": 1.41307,
    "c": 1.41334,
    "v": 2739
  },
  {
    "dt": "2021.06.09 16:00",
    "o": 1.41329,
    "h": 1.41587,
    "l": 1.41316,
    "c": 1.41415,
    "v": 2947
  },
  {
    "dt": "2021.06.09 17:00",
    "o": 1.41415,
    "h": 1.41479,
    "l": 1.41145,
    "c": 1.41259,
    "v": 3237
  },
  {
    "dt": "2021.06.09 18:00",
    "o": 1.4126,
    "h": 1.4128,
    "l": 1.4114,
    "c": 1.41226,
    "v": 2045
  },
  {
    "dt": "2021.06.09 19:00",
    "o": 1.41226,
    "h": 1.41241,
    "l": 1.41111,
    "c": 1.41123,
    "v": 1756
  },
  {
    "dt": "2021.06.09 20:00",
    "o": 1.41123,
    "h": 1.41184,
    "l": 1.41119,
    "c": 1.41148,
    "v": 1487
  },
  {
    "dt": "2021.06.09 21:00",
    "o": 1.41146,
    "h": 1.41168,
    "l": 1.41113,
    "c": 1.41144,
    "v": 1411
  },
  {
    "dt": "2021.06.09 22:00",
    "o": 1.41138,
    "h": 1.41149,
    "l": 1.41092,
    "c": 1.41095,
    "v": 1134
  },
  {
    "dt": "2021.06.09 23:00",
    "o": 1.41095,
    "h": 1.41152,
    "l": 1.41093,
    "c": 1.41152,
    "v": 659
  },
  {
    "dt": "2021.06.10 00:00",
    "o": 1.41127,
    "h": 1.41145,
    "l": 1.41116,
    "c": 1.41141,
    "v": 245
  },
  {
    "dt": "2021.06.10 01:00",
    "o": 1.41144,
    "h": 1.41153,
    "l": 1.41089,
    "c": 1.41101,
    "v": 354
  },
  {
    "dt": "2021.06.10 02:00",
    "o": 1.41102,
    "h": 1.41106,
    "l": 1.41089,
    "c": 1.411,
    "v": 333
  },
  {
    "dt": "2021.06.10 03:00",
    "o": 1.411,
    "h": 1.41134,
    "l": 1.41087,
    "c": 1.41095,
    "v": 963
  },
  {
    "dt": "2021.06.10 04:00",
    "o": 1.41094,
    "h": 1.41239,
    "l": 1.41089,
    "c": 1.41177,
    "v": 1180
  },
  {
    "dt": "2021.06.10 05:00",
    "o": 1.41176,
    "h": 1.41187,
    "l": 1.41118,
    "c": 1.41126,
    "v": 785
  },
  {
    "dt": "2021.06.10 06:00",
    "o": 1.41125,
    "h": 1.41188,
    "l": 1.41121,
    "c": 1.41174,
    "v": 566
  },
  {
    "dt": "2021.06.10 07:00",
    "o": 1.41174,
    "h": 1.41175,
    "l": 1.41039,
    "c": 1.41064,
    "v": 705
  },
  {
    "dt": "2021.06.10 08:00",
    "o": 1.41064,
    "h": 1.4111,
    "l": 1.41043,
    "c": 1.41099,
    "v": 809
  },
  {
    "dt": "2021.06.10 09:00",
    "o": 1.41099,
    "h": 1.41155,
    "l": 1.41003,
    "c": 1.41102,
    "v": 2028
  },
  {
    "dt": "2021.06.10 10:00",
    "o": 1.41096,
    "h": 1.4111,
    "l": 1.40723,
    "c": 1.40868,
    "v": 3417
  },
  {
    "dt": "2021.06.10 11:00",
    "o": 1.4087,
    "h": 1.40903,
    "l": 1.40758,
    "c": 1.40872,
    "v": 2892
  },
  {
    "dt": "2021.06.10 12:00",
    "o": 1.40875,
    "h": 1.41007,
    "l": 1.40872,
    "c": 1.40967,
    "v": 2857
  },
  {
    "dt": "2021.06.10 13:00",
    "o": 1.40969,
    "h": 1.41032,
    "l": 1.40907,
    "c": 1.40957,
    "v": 2635
  },
  {
    "dt": "2021.06.10 14:00",
    "o": 1.40957,
    "h": 1.41095,
    "l": 1.40894,
    "c": 1.40996,
    "v": 2908
  },
  {
    "dt": "2021.06.10 15:00",
    "o": 1.40997,
    "h": 1.41497,
    "l": 1.40841,
    "c": 1.41473,
    "v": 4339
  },
  {
    "dt": "2021.06.10 16:00",
    "o": 1.41485,
    "h": 1.41561,
    "l": 1.41194,
    "c": 1.41522,
    "v": 4571
  },
  {
    "dt": "2021.06.10 17:00",
    "o": 1.4152,
    "h": 1.41709,
    "l": 1.4141,
    "c": 1.41416,
    "v": 3663
  },
  {
    "dt": "2021.06.10 18:00",
    "o": 1.41414,
    "h": 1.41656,
    "l": 1.41407,
    "c": 1.41637,
    "v": 2625
  },
  {
    "dt": "2021.06.10 19:00",
    "o": 1.41635,
    "h": 1.41694,
    "l": 1.41552,
    "c": 1.41645,
    "v": 2631
  },
  {
    "dt": "2021.06.10 20:00",
    "o": 1.41645,
    "h": 1.41729,
    "l": 1.41616,
    "c": 1.41686,
    "v": 2021
  },
  {
    "dt": "2021.06.10 21:00",
    "o": 1.41686,
    "h": 1.41716,
    "l": 1.41652,
    "c": 1.41697,
    "v": 1807
  },
  {
    "dt": "2021.06.10 22:00",
    "o": 1.41696,
    "h": 1.41751,
    "l": 1.41657,
    "c": 1.41667,
    "v": 1212
  },
  {
    "dt": "2021.06.10 23:00",
    "o": 1.41667,
    "h": 1.41771,
    "l": 1.41665,
    "c": 1.41752,
    "v": 944
  },
  {
    "dt": "2021.06.11 00:00",
    "o": 1.41617,
    "h": 1.41757,
    "l": 1.41617,
    "c": 1.41739,
    "v": 393
  },
  {
    "dt": "2021.06.11 01:00",
    "o": 1.41737,
    "h": 1.41759,
    "l": 1.41699,
    "c": 1.41718,
    "v": 384
  },
  {
    "dt": "2021.06.11 02:00",
    "o": 1.4172,
    "h": 1.41746,
    "l": 1.41679,
    "c": 1.41694,
    "v": 463
  },
  {
    "dt": "2021.06.11 03:00",
    "o": 1.41696,
    "h": 1.41774,
    "l": 1.41672,
    "c": 1.41705,
    "v": 1078
  },
  {
    "dt": "2021.06.11 04:00",
    "o": 1.41708,
    "h": 1.41772,
    "l": 1.4169,
    "c": 1.41764,
    "v": 976
  },
  {
    "dt": "2021.06.11 05:00",
    "o": 1.41764,
    "h": 1.41774,
    "l": 1.41675,
    "c": 1.41769,
    "v": 1143
  },
  {
    "dt": "2021.06.11 06:00",
    "o": 1.41773,
    "h": 1.41781,
    "l": 1.41743,
    "c": 1.41777,
    "v": 771
  },
  {
    "dt": "2021.06.11 07:00",
    "o": 1.41776,
    "h": 1.41835,
    "l": 1.41771,
    "c": 1.41808,
    "v": 649
  },
  {
    "dt": "2021.06.11 08:00",
    "o": 1.41809,
    "h": 1.41845,
    "l": 1.41711,
    "c": 1.41711,
    "v": 959
  },
  {
    "dt": "2021.06.11 09:00",
    "o": 1.41715,
    "h": 1.41824,
    "l": 1.41665,
    "c": 1.41713,
    "v": 2285
  },
  {
    "dt": "2021.06.11 10:00",
    "o": 1.41708,
    "h": 1.41742,
    "l": 1.41593,
    "c": 1.41665,
    "v": 2895
  },
  {
    "dt": "2021.06.11 11:00",
    "o": 1.41663,
    "h": 1.41695,
    "l": 1.41516,
    "c": 1.4155,
    "v": 2971
  },
  {
    "dt": "2021.06.11 12:00",
    "o": 1.41556,
    "h": 1.41638,
    "l": 1.41467,
    "c": 1.41495,
    "v": 2651
  },
  {
    "dt": "2021.06.11 13:00",
    "o": 1.41494,
    "h": 1.41644,
    "l": 1.4141,
    "c": 1.41585,
    "v": 2875
  },
  {
    "dt": "2021.06.11 14:00",
    "o": 1.41585,
    "h": 1.41648,
    "l": 1.41477,
    "c": 1.41505,
    "v": 2845
  },
  {
    "dt": "2021.06.11 15:00",
    "o": 1.41504,
    "h": 1.41577,
    "l": 1.41385,
    "c": 1.41395,
    "v": 3021
  },
  {
    "dt": "2021.06.11 16:00",
    "o": 1.41394,
    "h": 1.41492,
    "l": 1.41207,
    "c": 1.41234,
    "v": 3175
  },
  {
    "dt": "2021.06.11 17:00",
    "o": 1.41231,
    "h": 1.41308,
    "l": 1.41062,
    "c": 1.41222,
    "v": 3305
  },
  {
    "dt": "2021.06.11 18:00",
    "o": 1.4122,
    "h": 1.41258,
    "l": 1.4104,
    "c": 1.41117,
    "v": 2668
  },
  {
    "dt": "2021.06.11 19:00",
    "o": 1.41115,
    "h": 1.41122,
    "l": 1.41016,
    "c": 1.41044,
    "v": 2005
  },
  {
    "dt": "2021.06.11 20:00",
    "o": 1.41042,
    "h": 1.41045,
    "l": 1.40949,
    "c": 1.41029,
    "v": 1737
  },
  {
    "dt": "2021.06.11 21:00",
    "o": 1.41029,
    "h": 1.41064,
    "l": 1.40964,
    "c": 1.4106,
    "v": 1614
  },
  {
    "dt": "2021.06.11 22:00",
    "o": 1.4106,
    "h": 1.41166,
    "l": 1.41041,
    "c": 1.41153,
    "v": 1225
  },
  {
    "dt": "2021.06.11 23:00",
    "o": 1.41154,
    "h": 1.41177,
    "l": 1.4103,
    "c": 1.4103,
    "v": 934
  },
  {
    "dt": "2021.06.14 00:00",
    "o": 1.41051,
    "h": 1.41107,
    "l": 1.40991,
    "c": 1.41107,
    "v": 80
  },
  {
    "dt": "2021.06.14 01:00",
    "o": 1.41121,
    "h": 1.41178,
    "l": 1.41031,
    "c": 1.41134,
    "v": 740
  },
  {
    "dt": "2021.06.14 02:00",
    "o": 1.41129,
    "h": 1.41181,
    "l": 1.41125,
    "c": 1.41166,
    "v": 443
  },
  {
    "dt": "2021.06.14 03:00",
    "o": 1.41169,
    "h": 1.41176,
    "l": 1.41061,
    "c": 1.41071,
    "v": 979
  },
  {
    "dt": "2021.06.14 04:00",
    "o": 1.4107,
    "h": 1.41127,
    "l": 1.41041,
    "c": 1.41091,
    "v": 1309
  },
  {
    "dt": "2021.06.14 05:00",
    "o": 1.41093,
    "h": 1.41172,
    "l": 1.41091,
    "c": 1.41111,
    "v": 844
  },
  {
    "dt": "2021.06.14 06:00",
    "o": 1.4111,
    "h": 1.41127,
    "l": 1.41053,
    "c": 1.411,
    "v": 621
  },
  {
    "dt": "2021.06.14 07:00",
    "o": 1.41094,
    "h": 1.41139,
    "l": 1.4107,
    "c": 1.41119,
    "v": 655
  },
  {
    "dt": "2021.06.14 08:00",
    "o": 1.41115,
    "h": 1.41145,
    "l": 1.41069,
    "c": 1.41102,
    "v": 609
  },
  {
    "dt": "2021.06.14 09:00",
    "o": 1.411,
    "h": 1.41158,
    "l": 1.41,
    "c": 1.41063,
    "v": 2056
  },
  {
    "dt": "2021.06.14 10:00",
    "o": 1.41059,
    "h": 1.41105,
    "l": 1.4092,
    "c": 1.41014,
    "v": 3288
  },
  {
    "dt": "2021.06.14 11:00",
    "o": 1.41014,
    "h": 1.4102,
    "l": 1.40698,
    "c": 1.40823,
    "v": 2868
  },
  {
    "dt": "2021.06.14 12:00",
    "o": 1.40824,
    "h": 1.40975,
    "l": 1.40778,
    "c": 1.40901,
    "v": 2492
  },
  {
    "dt": "2021.06.14 13:00",
    "o": 1.40901,
    "h": 1.41083,
    "l": 1.4084,
    "c": 1.41063,
    "v": 2458
  },
  {
    "dt": "2021.06.14 14:00",
    "o": 1.41063,
    "h": 1.41088,
    "l": 1.40961,
    "c": 1.41022,
    "v": 2315
  },
  {
    "dt": "2021.06.14 15:00",
    "o": 1.41022,
    "h": 1.41174,
    "l": 1.40992,
    "c": 1.41082,
    "v": 2866
  },
  {
    "dt": "2021.06.14 16:00",
    "o": 1.41082,
    "h": 1.41231,
    "l": 1.41067,
    "c": 1.41135,
    "v": 3110
  },
  {
    "dt": "2021.06.14 17:00",
    "o": 1.41136,
    "h": 1.4121,
    "l": 1.41099,
    "c": 1.41149,
    "v": 3107
  },
  {
    "dt": "2021.06.14 18:00",
    "o": 1.41151,
    "h": 1.41196,
    "l": 1.41063,
    "c": 1.41142,
    "v": 2463
  },
  {
    "dt": "2021.06.14 19:00",
    "o": 1.41139,
    "h": 1.41191,
    "l": 1.41115,
    "c": 1.41115,
    "v": 1882
  },
  {
    "dt": "2021.06.14 20:00",
    "o": 1.41116,
    "h": 1.41141,
    "l": 1.41077,
    "c": 1.41114,
    "v": 1659
  },
  {
    "dt": "2021.06.14 21:00",
    "o": 1.4111,
    "h": 1.4112,
    "l": 1.41054,
    "c": 1.41057,
    "v": 1639
  },
  {
    "dt": "2021.06.14 22:00",
    "o": 1.4106,
    "h": 1.41116,
    "l": 1.41055,
    "c": 1.41079,
    "v": 1199
  },
  {
    "dt": "2021.06.14 23:00",
    "o": 1.41077,
    "h": 1.4108,
    "l": 1.41032,
    "c": 1.4108,
    "v": 891
  },
  {
    "dt": "2021.06.15 00:00",
    "o": 1.41082,
    "h": 1.41104,
    "l": 1.41001,
    "c": 1.41072,
    "v": 427
  },
  {
    "dt": "2021.06.15 01:00",
    "o": 1.41077,
    "h": 1.41088,
    "l": 1.41056,
    "c": 1.41077,
    "v": 414
  },
  {
    "dt": "2021.06.15 02:00",
    "o": 1.41078,
    "h": 1.41114,
    "l": 1.41059,
    "c": 1.41085,
    "v": 503
  },
  {
    "dt": "2021.06.15 03:00",
    "o": 1.41086,
    "h": 1.41158,
    "l": 1.41035,
    "c": 1.41107,
    "v": 1191
  },
  {
    "dt": "2021.06.15 04:00",
    "o": 1.41106,
    "h": 1.41116,
    "l": 1.40984,
    "c": 1.41013,
    "v": 1752
  },
  {
    "dt": "2021.06.15 05:00",
    "o": 1.41,
    "h": 1.41112,
    "l": 1.40981,
    "c": 1.411,
    "v": 1104
  },
  {
    "dt": "2021.06.15 06:00",
    "o": 1.41099,
    "h": 1.41121,
    "l": 1.4107,
    "c": 1.41099,
    "v": 747
  },
  {
    "dt": "2021.06.15 07:00",
    "o": 1.411,
    "h": 1.41142,
    "l": 1.411,
    "c": 1.41127,
    "v": 943
  },
  {
    "dt": "2021.06.15 08:00",
    "o": 1.4113,
    "h": 1.41247,
    "l": 1.41087,
    "c": 1.41205,
    "v": 920
  },
  {
    "dt": "2021.06.15 09:00",
    "o": 1.41218,
    "h": 1.41279,
    "l": 1.41066,
    "c": 1.41094,
    "v": 2458
  },
  {
    "dt": "2021.06.15 10:00",
    "o": 1.41098,
    "h": 1.4119,
    "l": 1.41054,
    "c": 1.41148,
    "v": 2734
  },
  {
    "dt": "2021.06.15 11:00",
    "o": 1.41147,
    "h": 1.4117,
    "l": 1.40852,
    "c": 1.40861,
    "v": 2475
  },
  {
    "dt": "2021.06.15 12:00",
    "o": 1.40858,
    "h": 1.40866,
    "l": 1.40707,
    "c": 1.40744,
    "v": 2293
  },
  {
    "dt": "2021.06.15 13:00",
    "o": 1.40743,
    "h": 1.40845,
    "l": 1.40738,
    "c": 1.40843,
    "v": 1912
  },
  {
    "dt": "2021.06.15 14:00",
    "o": 1.40842,
    "h": 1.40865,
    "l": 1.40334,
    "c": 1.40403,
    "v": 2693
  },
  {
    "dt": "2021.06.15 15:00",
    "o": 1.40403,
    "h": 1.40679,
    "l": 1.40403,
    "c": 1.40673,
    "v": 3004
  },
  {
    "dt": "2021.06.15 16:00",
    "o": 1.40674,
    "h": 1.40897,
    "l": 1.40655,
    "c": 1.40773,
    "v": 3186
  },
  {
    "dt": "2021.06.15 17:00",
    "o": 1.40772,
    "h": 1.40936,
    "l": 1.40715,
    "c": 1.40851,
    "v": 3104
  },
  {
    "dt": "2021.06.15 18:00",
    "o": 1.4085,
    "h": 1.40912,
    "l": 1.40714,
    "c": 1.40717,
    "v": 2510
  },
  {
    "dt": "2021.06.15 19:00",
    "o": 1.40717,
    "h": 1.40837,
    "l": 1.40694,
    "c": 1.40773,
    "v": 2174
  },
  {
    "dt": "2021.06.15 20:00",
    "o": 1.40775,
    "h": 1.4083,
    "l": 1.40753,
    "c": 1.40802,
    "v": 1603
  },
  {
    "dt": "2021.06.15 21:00",
    "o": 1.40802,
    "h": 1.40835,
    "l": 1.40793,
    "c": 1.40804,
    "v": 1706
  },
  {
    "dt": "2021.06.15 22:00",
    "o": 1.40803,
    "h": 1.40815,
    "l": 1.40759,
    "c": 1.40815,
    "v": 1496
  },
  {
    "dt": "2021.06.15 23:00",
    "o": 1.4081,
    "h": 1.40846,
    "l": 1.40782,
    "c": 1.40784,
    "v": 1008
  },
  {
    "dt": "2021.06.16 00:00",
    "o": 1.4076,
    "h": 1.4083,
    "l": 1.4076,
    "c": 1.40814,
    "v": 431
  },
  {
    "dt": "2021.06.16 01:00",
    "o": 1.40797,
    "h": 1.40846,
    "l": 1.40792,
    "c": 1.40796,
    "v": 321
  },
  {
    "dt": "2021.06.16 02:00",
    "o": 1.40796,
    "h": 1.40806,
    "l": 1.40777,
    "c": 1.40797,
    "v": 539
  },
  {
    "dt": "2021.06.16 03:00",
    "o": 1.40798,
    "h": 1.40837,
    "l": 1.40773,
    "c": 1.40774,
    "v": 898
  },
  {
    "dt": "2021.06.16 04:00",
    "o": 1.40776,
    "h": 1.40819,
    "l": 1.40755,
    "c": 1.40786,
    "v": 971
  },
  {
    "dt": "2021.06.16 05:00",
    "o": 1.40785,
    "h": 1.40811,
    "l": 1.40762,
    "c": 1.40805,
    "v": 1181
  },
  {
    "dt": "2021.06.16 06:00",
    "o": 1.40804,
    "h": 1.40825,
    "l": 1.40784,
    "c": 1.40811,
    "v": 880
  },
  {
    "dt": "2021.06.16 07:00",
    "o": 1.40816,
    "h": 1.40885,
    "l": 1.40807,
    "c": 1.40868,
    "v": 914
  },
  {
    "dt": "2021.06.16 08:00",
    "o": 1.40868,
    "h": 1.40918,
    "l": 1.40844,
    "c": 1.40871,
    "v": 1199
  },
  {
    "dt": "2021.06.16 09:00",
    "o": 1.4088,
    "h": 1.41196,
    "l": 1.40835,
    "c": 1.41129,
    "v": 2520
  },
  {
    "dt": "2021.06.16 10:00",
    "o": 1.41139,
    "h": 1.41219,
    "l": 1.41052,
    "c": 1.41165,
    "v": 2845
  },
  {
    "dt": "2021.06.16 11:00",
    "o": 1.41166,
    "h": 1.41188,
    "l": 1.41017,
    "c": 1.41026,
    "v": 2685
  },
  {
    "dt": "2021.06.16 12:00",
    "o": 1.41026,
    "h": 1.41144,
    "l": 1.4098,
    "c": 1.41123,
    "v": 2138
  },
  {
    "dt": "2021.06.16 13:00",
    "o": 1.41131,
    "h": 1.41183,
    "l": 1.4109,
    "c": 1.41163,
    "v": 2008
  },
  {
    "dt": "2021.06.16 14:00",
    "o": 1.41166,
    "h": 1.41177,
    "l": 1.41088,
    "c": 1.41157,
    "v": 2061
  },
  {
    "dt": "2021.06.16 15:00",
    "o": 1.41158,
    "h": 1.4132,
    "l": 1.41097,
    "c": 1.41106,
    "v": 2945
  },
  {
    "dt": "2021.06.16 16:00",
    "o": 1.41104,
    "h": 1.41197,
    "l": 1.41044,
    "c": 1.41177,
    "v": 2754
  },
  {
    "dt": "2021.06.16 17:00",
    "o": 1.41184,
    "h": 1.41187,
    "l": 1.40998,
    "c": 1.41032,
    "v": 2657
  },
  {
    "dt": "2021.06.16 18:00",
    "o": 1.41029,
    "h": 1.41101,
    "l": 1.40995,
    "c": 1.41079,
    "v": 2103
  },
  {
    "dt": "2021.06.16 19:00",
    "o": 1.41078,
    "h": 1.41129,
    "l": 1.40979,
    "c": 1.41017,
    "v": 2012
  },
  {
    "dt": "2021.06.16 20:00",
    "o": 1.41016,
    "h": 1.41038,
    "l": 1.40949,
    "c": 1.40991,
    "v": 1571
  },
  {
    "dt": "2021.06.16 21:00",
    "o": 1.40831,
    "h": 1.40875,
    "l": 1.39975,
    "c": 1.40012,
    "v": 6070
  },
  {
    "dt": "2021.06.16 22:00",
    "o": 1.40011,
    "h": 1.40218,
    "l": 1.3995,
    "c": 1.3996,
    "v": 3585
  },
  {
    "dt": "2021.06.16 23:00",
    "o": 1.39955,
    "h": 1.40001,
    "l": 1.39815,
    "c": 1.39845,
    "v": 2218
  },
  {
    "dt": "2021.06.17 00:00",
    "o": 1.3985,
    "h": 1.39919,
    "l": 1.39829,
    "c": 1.39854,
    "v": 673
  },
  {
    "dt": "2021.06.17 01:00",
    "o": 1.39854,
    "h": 1.3995,
    "l": 1.3983,
    "c": 1.39928,
    "v": 746
  },
  {
    "dt": "2021.06.17 02:00",
    "o": 1.39928,
    "h": 1.39929,
    "l": 1.39826,
    "c": 1.3988,
    "v": 916
  },
  {
    "dt": "2021.06.17 03:00",
    "o": 1.3988,
    "h": 1.3988,
    "l": 1.397,
    "c": 1.3975,
    "v": 1936
  },
  {
    "dt": "2021.06.17 04:00",
    "o": 1.39751,
    "h": 1.39924,
    "l": 1.39745,
    "c": 1.39889,
    "v": 2029
  },
  {
    "dt": "2021.06.17 05:00",
    "o": 1.39888,
    "h": 1.4002,
    "l": 1.39888,
    "c": 1.40008,
    "v": 1506
  },
  {
    "dt": "2021.06.17 06:00",
    "o": 1.40013,
    "h": 1.40013,
    "l": 1.3991,
    "c": 1.3991,
    "v": 1127
  },
  {
    "dt": "2021.06.17 07:00",
    "o": 1.39909,
    "h": 1.3998,
    "l": 1.39905,
    "c": 1.39976,
    "v": 987
  },
  {
    "dt": "2021.06.17 08:00",
    "o": 1.39975,
    "h": 1.40078,
    "l": 1.39933,
    "c": 1.40045,
    "v": 1309
  },
  {
    "dt": "2021.06.17 09:00",
    "o": 1.40046,
    "h": 1.40047,
    "l": 1.39809,
    "c": 1.39925,
    "v": 3084
  },
  {
    "dt": "2021.06.17 10:00",
    "o": 1.39924,
    "h": 1.40004,
    "l": 1.39654,
    "c": 1.39735,
    "v": 3410
  },
  {
    "dt": "2021.06.17 11:00",
    "o": 1.3973,
    "h": 1.39943,
    "l": 1.39715,
    "c": 1.39757,
    "v": 3439
  },
  {
    "dt": "2021.06.17 12:00",
    "o": 1.39755,
    "h": 1.39832,
    "l": 1.39707,
    "c": 1.39734,
    "v": 2889
  },
  {
    "dt": "2021.06.17 13:00",
    "o": 1.39737,
    "h": 1.39746,
    "l": 1.39328,
    "c": 1.39432,
    "v": 3140
  },
  {
    "dt": "2021.06.17 14:00",
    "o": 1.39432,
    "h": 1.39579,
    "l": 1.39409,
    "c": 1.39463,
    "v": 2910
  },
  {
    "dt": "2021.06.17 15:00",
    "o": 1.39467,
    "h": 1.39615,
    "l": 1.39218,
    "c": 1.39258,
    "v": 3796
  },
  {
    "dt": "2021.06.17 16:00",
    "o": 1.39262,
    "h": 1.39573,
    "l": 1.3919,
    "c": 1.39412,
    "v": 3755
  },
  {
    "dt": "2021.06.17 17:00",
    "o": 1.39416,
    "h": 1.39617,
    "l": 1.39355,
    "c": 1.39492,
    "v": 3880
  },
  {
    "dt": "2021.06.17 18:00",
    "o": 1.39488,
    "h": 1.39529,
    "l": 1.39078,
    "c": 1.39146,
    "v": 3387
  },
  {
    "dt": "2021.06.17 19:00",
    "o": 1.39145,
    "h": 1.3919,
    "l": 1.38948,
    "c": 1.3895,
    "v": 3393
  },
  {
    "dt": "2021.06.17 20:00",
    "o": 1.38951,
    "h": 1.39244,
    "l": 1.3895,
    "c": 1.39244,
    "v": 2779
  },
  {
    "dt": "2021.06.17 21:00",
    "o": 1.39242,
    "h": 1.39344,
    "l": 1.39226,
    "c": 1.39232,
    "v": 2640
  },
  {
    "dt": "2021.06.17 22:00",
    "o": 1.39238,
    "h": 1.39284,
    "l": 1.39163,
    "c": 1.39182,
    "v": 1924
  },
  {
    "dt": "2021.06.17 23:00",
    "o": 1.39181,
    "h": 1.39269,
    "l": 1.39152,
    "c": 1.39152,
    "v": 1252
  },
  {
    "dt": "2021.06.18 00:00",
    "o": 1.39169,
    "h": 1.39255,
    "l": 1.39114,
    "c": 1.39235,
    "v": 401
  },
  {
    "dt": "2021.06.18 01:00",
    "o": 1.39217,
    "h": 1.3933,
    "l": 1.39204,
    "c": 1.39314,
    "v": 590
  },
  {
    "dt": "2021.06.18 02:00",
    "o": 1.39321,
    "h": 1.39382,
    "l": 1.39311,
    "c": 1.39367,
    "v": 580
  },
  {
    "dt": "2021.06.18 03:00",
    "o": 1.39363,
    "h": 1.39413,
    "l": 1.39296,
    "c": 1.39328,
    "v": 1415
  },
  {
    "dt": "2021.06.18 04:00",
    "o": 1.39329,
    "h": 1.3942,
    "l": 1.39284,
    "c": 1.3941,
    "v": 1976
  },
  {
    "dt": "2021.06.18 05:00",
    "o": 1.39409,
    "h": 1.39433,
    "l": 1.39307,
    "c": 1.39318,
    "v": 1515
  },
  {
    "dt": "2021.06.18 06:00",
    "o": 1.39319,
    "h": 1.39334,
    "l": 1.39247,
    "c": 1.39256,
    "v": 1026
  },
  {
    "dt": "2021.06.18 07:00",
    "o": 1.39257,
    "h": 1.39268,
    "l": 1.39093,
    "c": 1.39096,
    "v": 662
  },
  {
    "dt": "2021.06.18 08:00",
    "o": 1.39098,
    "h": 1.39115,
    "l": 1.3894,
    "c": 1.39019,
    "v": 2272
  },
  {
    "dt": "2021.06.18 09:00",
    "o": 1.39023,
    "h": 1.39023,
    "l": 1.38595,
    "c": 1.38604,
    "v": 3123
  },
  {
    "dt": "2021.06.18 10:00",
    "o": 1.38605,
    "h": 1.38902,
    "l": 1.38544,
    "c": 1.3889,
    "v": 3444
  },
  {
    "dt": "2021.06.18 11:00",
    "o": 1.38891,
    "h": 1.38985,
    "l": 1.38749,
    "c": 1.38783,
    "v": 3251
  },
  {
    "dt": "2021.06.18 12:00",
    "o": 1.3879,
    "h": 1.3909,
    "l": 1.38688,
    "c": 1.39012,
    "v": 2843
  },
  {
    "dt": "2021.06.18 13:00",
    "o": 1.3901,
    "h": 1.39095,
    "l": 1.38892,
    "c": 1.39021,
    "v": 2684
  },
  {
    "dt": "2021.06.18 14:00",
    "o": 1.39021,
    "h": 1.39036,
    "l": 1.38781,
    "c": 1.38899,
    "v": 2629
  },
  {
    "dt": "2021.06.18 15:00",
    "o": 1.38893,
    "h": 1.38901,
    "l": 1.38471,
    "c": 1.3848,
    "v": 4359
  },
  {
    "dt": "2021.06.18 16:00",
    "o": 1.38481,
    "h": 1.38607,
    "l": 1.38306,
    "c": 1.38393,
    "v": 4293
  },
  {
    "dt": "2021.06.18 17:00",
    "o": 1.38394,
    "h": 1.38399,
    "l": 1.38035,
    "c": 1.38064,
    "v": 4697
  },
  {
    "dt": "2021.06.18 18:00",
    "o": 1.38065,
    "h": 1.38176,
    "l": 1.37942,
    "c": 1.38149,
    "v": 3958
  },
  {
    "dt": "2021.06.18 19:00",
    "o": 1.38148,
    "h": 1.3823,
    "l": 1.38085,
    "c": 1.38172,
    "v": 2928
  },
  {
    "dt": "2021.06.18 20:00",
    "o": 1.38172,
    "h": 1.38285,
    "l": 1.38158,
    "c": 1.38192,
    "v": 2539
  },
  {
    "dt": "2021.06.18 21:00",
    "o": 1.38196,
    "h": 1.38322,
    "l": 1.38169,
    "c": 1.38179,
    "v": 2907
  },
  {
    "dt": "2021.06.18 22:00",
    "o": 1.38177,
    "h": 1.38215,
    "l": 1.38075,
    "c": 1.38076,
    "v": 2348
  },
  {
    "dt": "2021.06.18 23:00",
    "o": 1.38084,
    "h": 1.38125,
    "l": 1.37907,
    "c": 1.38095,
    "v": 1602
  },
  {
    "dt": "2021.06.21 00:00",
    "o": 1.38016,
    "h": 1.38117,
    "l": 1.37931,
    "c": 1.3796,
    "v": 95
  },
  {
    "dt": "2021.06.21 01:00",
    "o": 1.37958,
    "h": 1.38188,
    "l": 1.37951,
    "c": 1.38154,
    "v": 1053
  },
  {
    "dt": "2021.06.21 02:00",
    "o": 1.3817,
    "h": 1.38222,
    "l": 1.38147,
    "c": 1.38154,
    "v": 956
  },
  {
    "dt": "2021.06.21 03:00",
    "o": 1.38154,
    "h": 1.38278,
    "l": 1.3813,
    "c": 1.38269,
    "v": 2007
  },
  {
    "dt": "2021.06.21 04:00",
    "o": 1.38267,
    "h": 1.38279,
    "l": 1.3811,
    "c": 1.38113,
    "v": 2409
  },
  {
    "dt": "2021.06.21 05:00",
    "o": 1.38112,
    "h": 1.38215,
    "l": 1.3807,
    "c": 1.38129,
    "v": 2161
  },
  {
    "dt": "2021.06.21 06:00",
    "o": 1.38131,
    "h": 1.38135,
    "l": 1.37855,
    "c": 1.37937,
    "v": 2602
  },
  {
    "dt": "2021.06.21 07:00",
    "o": 1.37935,
    "h": 1.38017,
    "l": 1.37887,
    "c": 1.37996,
    "v": 1572
  },
  {
    "dt": "2021.06.21 08:00",
    "o": 1.37995,
    "h": 1.38088,
    "l": 1.37903,
    "c": 1.38088,
    "v": 1505
  },
  {
    "dt": "2021.06.21 09:00",
    "o": 1.38094,
    "h": 1.38271,
    "l": 1.38014,
    "c": 1.38188,
    "v": 3130
  },
  {
    "dt": "2021.06.21 10:00",
    "o": 1.38187,
    "h": 1.38339,
    "l": 1.38002,
    "c": 1.38315,
    "v": 3855
  },
  {
    "dt": "2021.06.21 11:00",
    "o": 1.38322,
    "h": 1.38444,
    "l": 1.38313,
    "c": 1.38402,
    "v": 3419
  },
  {
    "dt": "2021.06.21 12:00",
    "o": 1.38402,
    "h": 1.3877,
    "l": 1.38372,
    "c": 1.38701,
    "v": 3040
  },
  {
    "dt": "2021.06.21 13:00",
    "o": 1.38697,
    "h": 1.38865,
    "l": 1.38582,
    "c": 1.38766,
    "v": 2930
  },
  {
    "dt": "2021.06.21 14:00",
    "o": 1.38763,
    "h": 1.38868,
    "l": 1.38682,
    "c": 1.38762,
    "v": 2735
  },
  {
    "dt": "2021.06.21 15:00",
    "o": 1.38758,
    "h": 1.38795,
    "l": 1.38658,
    "c": 1.38735,
    "v": 3108
  },
  {
    "dt": "2021.06.21 16:00",
    "o": 1.38733,
    "h": 1.38983,
    "l": 1.38703,
    "c": 1.38983,
    "v": 3585
  },
  {
    "dt": "2021.06.21 17:00",
    "o": 1.38983,
    "h": 1.39183,
    "l": 1.38944,
    "c": 1.39034,
    "v": 3802
  },
  {
    "dt": "2021.06.21 18:00",
    "o": 1.39037,
    "h": 1.39169,
    "l": 1.39021,
    "c": 1.39127,
    "v": 3064
  },
  {
    "dt": "2021.06.21 19:00",
    "o": 1.3913,
    "h": 1.39312,
    "l": 1.39119,
    "c": 1.3927,
    "v": 2443
  },
  {
    "dt": "2021.06.21 20:00",
    "o": 1.39273,
    "h": 1.39335,
    "l": 1.3923,
    "c": 1.39285,
    "v": 2605
  },
  {
    "dt": "2021.06.21 21:00",
    "o": 1.39285,
    "h": 1.39342,
    "l": 1.39262,
    "c": 1.39271,
    "v": 2266
  },
  {
    "dt": "2021.06.21 22:00",
    "o": 1.39276,
    "h": 1.3936,
    "l": 1.39276,
    "c": 1.39311,
    "v": 1601
  },
  {
    "dt": "2021.06.21 23:00",
    "o": 1.39311,
    "h": 1.39342,
    "l": 1.39259,
    "c": 1.39317,
    "v": 1184
  },
  {
    "dt": "2021.06.22 00:00",
    "o": 1.39316,
    "h": 1.39363,
    "l": 1.39298,
    "c": 1.39353,
    "v": 355
  },
  {
    "dt": "2021.06.22 01:00",
    "o": 1.39339,
    "h": 1.39359,
    "l": 1.39272,
    "c": 1.3929,
    "v": 434
  },
  {
    "dt": "2021.06.22 02:00",
    "o": 1.39283,
    "h": 1.39306,
    "l": 1.3923,
    "c": 1.39233,
    "v": 876
  },
  {
    "dt": "2021.06.22 03:00",
    "o": 1.39233,
    "h": 1.39243,
    "l": 1.39072,
    "c": 1.39121,
    "v": 1121
  },
  {
    "dt": "2021.06.22 04:00",
    "o": 1.39111,
    "h": 1.39127,
    "l": 1.39,
    "c": 1.39085,
    "v": 1582
  },
  {
    "dt": "2021.06.22 05:00",
    "o": 1.39086,
    "h": 1.39183,
    "l": 1.39055,
    "c": 1.39142,
    "v": 1389
  },
  {
    "dt": "2021.06.22 06:00",
    "o": 1.39141,
    "h": 1.39194,
    "l": 1.39122,
    "c": 1.39123,
    "v": 1037
  },
  {
    "dt": "2021.06.22 07:00",
    "o": 1.39123,
    "h": 1.39158,
    "l": 1.39082,
    "c": 1.39093,
    "v": 926
  },
  {
    "dt": "2021.06.22 08:00",
    "o": 1.39098,
    "h": 1.39098,
    "l": 1.3891,
    "c": 1.38937,
    "v": 1448
  },
  {
    "dt": "2021.06.22 09:00",
    "o": 1.38934,
    "h": 1.39098,
    "l": 1.38934,
    "c": 1.39009,
    "v": 3075
  },
  {
    "dt": "2021.06.22 10:00",
    "o": 1.39007,
    "h": 1.39057,
    "l": 1.38772,
    "c": 1.38845,
    "v": 3620
  },
  {
    "dt": "2021.06.22 11:00",
    "o": 1.38847,
    "h": 1.38874,
    "l": 1.38655,
    "c": 1.38665,
    "v": 2888
  },
  {
    "dt": "2021.06.22 12:00",
    "o": 1.38666,
    "h": 1.38788,
    "l": 1.38596,
    "c": 1.38701,
    "v": 2853
  },
  {
    "dt": "2021.06.22 13:00",
    "o": 1.38693,
    "h": 1.38874,
    "l": 1.38678,
    "c": 1.38766,
    "v": 2742
  },
  {
    "dt": "2021.06.22 14:00",
    "o": 1.38766,
    "h": 1.39071,
    "l": 1.38766,
    "c": 1.38994,
    "v": 2772
  },
  {
    "dt": "2021.06.22 15:00",
    "o": 1.38995,
    "h": 1.39066,
    "l": 1.38793,
    "c": 1.38832,
    "v": 3026
  },
  {
    "dt": "2021.06.22 16:00",
    "o": 1.38834,
    "h": 1.38994,
    "l": 1.38794,
    "c": 1.38928,
    "v": 3634
  },
  {
    "dt": "2021.06.22 17:00",
    "o": 1.38929,
    "h": 1.39191,
    "l": 1.38883,
    "c": 1.3914,
    "v": 3613
  },
  {
    "dt": "2021.06.22 18:00",
    "o": 1.3914,
    "h": 1.39298,
    "l": 1.39114,
    "c": 1.39194,
    "v": 3056
  },
  {
    "dt": "2021.06.22 19:00",
    "o": 1.3919,
    "h": 1.39407,
    "l": 1.39183,
    "c": 1.39381,
    "v": 2819
  },
  {
    "dt": "2021.06.22 20:00",
    "o": 1.39378,
    "h": 1.39419,
    "l": 1.39353,
    "c": 1.39369,
    "v": 2253
  },
  {
    "dt": "2021.06.22 21:00",
    "o": 1.39369,
    "h": 1.39467,
    "l": 1.39355,
    "c": 1.394,
    "v": 2249
  },
  {
    "dt": "2021.06.22 22:00",
    "o": 1.39397,
    "h": 1.39627,
    "l": 1.39397,
    "c": 1.39486,
    "v": 2000
  },
  {
    "dt": "2021.06.22 23:00",
    "o": 1.39485,
    "h": 1.3951,
    "l": 1.39443,
    "c": 1.3945,
    "v": 1076
  },
  {
    "dt": "2021.06.23 00:00",
    "o": 1.39495,
    "h": 1.39516,
    "l": 1.39387,
    "c": 1.39444,
    "v": 441
  },
  {
    "dt": "2021.06.23 01:00",
    "o": 1.39446,
    "h": 1.39517,
    "l": 1.39439,
    "c": 1.39483,
    "v": 423
  },
  {
    "dt": "2021.06.23 02:00",
    "o": 1.39484,
    "h": 1.3955,
    "l": 1.39477,
    "c": 1.39481,
    "v": 697
  },
  {
    "dt": "2021.06.23 03:00",
    "o": 1.39481,
    "h": 1.39516,
    "l": 1.39342,
    "c": 1.3939,
    "v": 1228
  },
  {
    "dt": "2021.06.23 04:00",
    "o": 1.39394,
    "h": 1.39421,
    "l": 1.39231,
    "c": 1.39289,
    "v": 1595
  },
  {
    "dt": "2021.06.23 05:00",
    "o": 1.39294,
    "h": 1.39336,
    "l": 1.39231,
    "c": 1.39284,
    "v": 1078
  },
  {
    "dt": "2021.06.23 06:00",
    "o": 1.39285,
    "h": 1.39335,
    "l": 1.39261,
    "c": 1.39294,
    "v": 957
  },
  {
    "dt": "2021.06.23 07:00",
    "o": 1.39295,
    "h": 1.39311,
    "l": 1.39265,
    "c": 1.39303,
    "v": 918
  },
  {
    "dt": "2021.06.23 08:00",
    "o": 1.39303,
    "h": 1.39394,
    "l": 1.39234,
    "c": 1.39383,
    "v": 1204
  },
  {
    "dt": "2021.06.23 09:00",
    "o": 1.39387,
    "h": 1.39625,
    "l": 1.39367,
    "c": 1.39619,
    "v": 2510
  },
  {
    "dt": "2021.06.23 10:00",
    "o": 1.39625,
    "h": 1.39866,
    "l": 1.39579,
    "c": 1.39782,
    "v": 3400
  },
  {
    "dt": "2021.06.23 11:00",
    "o": 1.39784,
    "h": 1.39827,
    "l": 1.39642,
    "c": 1.39688,
    "v": 3126
  },
  {
    "dt": "2021.06.23 12:00",
    "o": 1.39689,
    "h": 1.39699,
    "l": 1.3952,
    "c": 1.39588,
    "v": 2337
  },
  {
    "dt": "2021.06.23 13:00",
    "o": 1.39595,
    "h": 1.39711,
    "l": 1.3954,
    "c": 1.39654,
    "v": 2513
  },
  {
    "dt": "2021.06.23 14:00",
    "o": 1.39647,
    "h": 1.39732,
    "l": 1.39531,
    "c": 1.39708,
    "v": 2831
  },
  {
    "dt": "2021.06.23 15:00",
    "o": 1.39713,
    "h": 1.39924,
    "l": 1.39701,
    "c": 1.398,
    "v": 2805
  },
  {
    "dt": "2021.06.23 16:00",
    "o": 1.39799,
    "h": 1.39987,
    "l": 1.39799,
    "c": 1.39984,
    "v": 3471
  },
  {
    "dt": "2021.06.23 17:00",
    "o": 1.39988,
    "h": 1.40005,
    "l": 1.39625,
    "c": 1.39672,
    "v": 3366
  },
  {
    "dt": "2021.06.23 18:00",
    "o": 1.3967,
    "h": 1.39776,
    "l": 1.39571,
    "c": 1.39751,
    "v": 3000
  },
  {
    "dt": "2021.06.23 19:00",
    "o": 1.39751,
    "h": 1.39797,
    "l": 1.39621,
    "c": 1.39622,
    "v": 2607
  },
  {
    "dt": "2021.06.23 20:00",
    "o": 1.39623,
    "h": 1.39708,
    "l": 1.39603,
    "c": 1.39692,
    "v": 2149
  },
  {
    "dt": "2021.06.23 21:00",
    "o": 1.39692,
    "h": 1.39701,
    "l": 1.39606,
    "c": 1.39632,
    "v": 1902
  },
  {
    "dt": "2021.06.23 22:00",
    "o": 1.3963,
    "h": 1.39643,
    "l": 1.39505,
    "c": 1.39574,
    "v": 1663
  },
  {
    "dt": "2021.06.23 23:00",
    "o": 1.39576,
    "h": 1.39649,
    "l": 1.39556,
    "c": 1.39587,
    "v": 1239
  },
  {
    "dt": "2021.06.24 00:00",
    "o": 1.39665,
    "h": 1.39672,
    "l": 1.39555,
    "c": 1.39607,
    "v": 253
  },
  {
    "dt": "2021.06.24 01:00",
    "o": 1.39606,
    "h": 1.39669,
    "l": 1.39601,
    "c": 1.39652,
    "v": 329
  },
  {
    "dt": "2021.06.24 02:00",
    "o": 1.39653,
    "h": 1.39679,
    "l": 1.39605,
    "c": 1.39657,
    "v": 662
  },
  {
    "dt": "2021.06.24 03:00",
    "o": 1.39656,
    "h": 1.39669,
    "l": 1.39575,
    "c": 1.39614,
    "v": 1445
  },
  {
    "dt": "2021.06.24 04:00",
    "o": 1.39616,
    "h": 1.39649,
    "l": 1.39502,
    "c": 1.39637,
    "v": 1781
  },
  {
    "dt": "2021.06.24 05:00",
    "o": 1.39639,
    "h": 1.39658,
    "l": 1.39577,
    "c": 1.39602,
    "v": 1411
  },
  {
    "dt": "2021.06.24 06:00",
    "o": 1.39603,
    "h": 1.39615,
    "l": 1.39521,
    "c": 1.39543,
    "v": 1028
  },
  {
    "dt": "2021.06.24 07:00",
    "o": 1.39543,
    "h": 1.39611,
    "l": 1.3954,
    "c": 1.39588,
    "v": 696
  },
  {
    "dt": "2021.06.24 08:00",
    "o": 1.39586,
    "h": 1.39607,
    "l": 1.3953,
    "c": 1.39551,
    "v": 1434
  },
  {
    "dt": "2021.06.24 09:00",
    "o": 1.39543,
    "h": 1.39728,
    "l": 1.39475,
    "c": 1.39583,
    "v": 2524
  },
  {
    "dt": "2021.06.24 10:00",
    "o": 1.39586,
    "h": 1.3969,
    "l": 1.39509,
    "c": 1.39557,
    "v": 3057
  },
  {
    "dt": "2021.06.24 11:00",
    "o": 1.39558,
    "h": 1.39856,
    "l": 1.39554,
    "c": 1.39691,
    "v": 2993
  },
  {
    "dt": "2021.06.24 12:00",
    "o": 1.39696,
    "h": 1.39731,
    "l": 1.39488,
    "c": 1.39619,
    "v": 2744
  },
  {
    "dt": "2021.06.24 13:00",
    "o": 1.39614,
    "h": 1.3981,
    "l": 1.39538,
    "c": 1.39695,
    "v": 2534
  },
  {
    "dt": "2021.06.24 14:00",
    "o": 1.39697,
    "h": 1.39803,
    "l": 1.39039,
    "c": 1.39103,
    "v": 3511
  },
  {
    "dt": "2021.06.24 15:00",
    "o": 1.39103,
    "h": 1.39288,
    "l": 1.38896,
    "c": 1.39264,
    "v": 3419
  },
  {
    "dt": "2021.06.24 16:00",
    "o": 1.39264,
    "h": 1.39292,
    "l": 1.39105,
    "c": 1.3926,
    "v": 3442
  },
  {
    "dt": "2021.06.24 17:00",
    "o": 1.39261,
    "h": 1.39287,
    "l": 1.38891,
    "c": 1.38926,
    "v": 3236
  },
  {
    "dt": "2021.06.24 18:00",
    "o": 1.38936,
    "h": 1.39134,
    "l": 1.38929,
    "c": 1.39056,
    "v": 2782
  },
  {
    "dt": "2021.06.24 19:00",
    "o": 1.39055,
    "h": 1.39217,
    "l": 1.3903,
    "c": 1.39151,
    "v": 2366
  },
  {
    "dt": "2021.06.24 20:00",
    "o": 1.39148,
    "h": 1.3921,
    "l": 1.39141,
    "c": 1.39191,
    "v": 2129
  },
  {
    "dt": "2021.06.24 21:00",
    "o": 1.39189,
    "h": 1.39344,
    "l": 1.39188,
    "c": 1.39257,
    "v": 2176
  },
  {
    "dt": "2021.06.24 22:00",
    "o": 1.39259,
    "h": 1.39352,
    "l": 1.39253,
    "c": 1.39346,
    "v": 1844
  },
  {
    "dt": "2021.06.24 23:00",
    "o": 1.39347,
    "h": 1.39376,
    "l": 1.39169,
    "c": 1.39169,
    "v": 1268
  },
  {
    "dt": "2021.06.25 00:00",
    "o": 1.39162,
    "h": 1.39216,
    "l": 1.3914,
    "c": 1.39162,
    "v": 308
  },
  {
    "dt": "2021.06.25 01:00",
    "o": 1.39177,
    "h": 1.39231,
    "l": 1.39176,
    "c": 1.392,
    "v": 542
  },
  {
    "dt": "2021.06.25 02:00",
    "o": 1.392,
    "h": 1.3921,
    "l": 1.3915,
    "c": 1.39151,
    "v": 501
  },
  {
    "dt": "2021.06.25 03:00",
    "o": 1.3915,
    "h": 1.39183,
    "l": 1.3912,
    "c": 1.39153,
    "v": 1381
  },
  {
    "dt": "2021.06.25 04:00",
    "o": 1.39158,
    "h": 1.39318,
    "l": 1.39155,
    "c": 1.39317,
    "v": 1665
  },
  {
    "dt": "2021.06.25 05:00",
    "o": 1.39316,
    "h": 1.39336,
    "l": 1.3929,
    "c": 1.39302,
    "v": 1284
  },
  {
    "dt": "2021.06.25 06:00",
    "o": 1.39305,
    "h": 1.39344,
    "l": 1.39282,
    "c": 1.39285,
    "v": 1182
  },
  {
    "dt": "2021.06.25 07:00",
    "o": 1.39284,
    "h": 1.39297,
    "l": 1.39198,
    "c": 1.39221,
    "v": 1017
  },
  {
    "dt": "2021.06.25 08:00",
    "o": 1.39227,
    "h": 1.39302,
    "l": 1.39193,
    "c": 1.39279,
    "v": 1492
  },
  {
    "dt": "2021.06.25 09:00",
    "o": 1.3928,
    "h": 1.39315,
    "l": 1.39191,
    "c": 1.39231,
    "v": 2109
  },
  {
    "dt": "2021.06.25 10:00",
    "o": 1.3924,
    "h": 1.3924,
    "l": 1.3898,
    "c": 1.39097,
    "v": 3051
  },
  {
    "dt": "2021.06.25 11:00",
    "o": 1.39095,
    "h": 1.39163,
    "l": 1.3895,
    "c": 1.39104,
    "v": 2904
  },
  {
    "dt": "2021.06.25 12:00",
    "o": 1.39104,
    "h": 1.39153,
    "l": 1.39031,
    "c": 1.39062,
    "v": 2699
  },
  {
    "dt": "2021.06.25 13:00",
    "o": 1.39064,
    "h": 1.39081,
    "l": 1.38951,
    "c": 1.38983,
    "v": 2295
  },
  {
    "dt": "2021.06.25 14:00",
    "o": 1.38989,
    "h": 1.39064,
    "l": 1.38902,
    "c": 1.3895,
    "v": 2336
  },
  {
    "dt": "2021.06.25 15:00",
    "o": 1.38953,
    "h": 1.39082,
    "l": 1.38908,
    "c": 1.39033,
    "v": 3507
  },
  {
    "dt": "2021.06.25 16:00",
    "o": 1.3904,
    "h": 1.39265,
    "l": 1.3904,
    "c": 1.39262,
    "v": 3274
  },
  {
    "dt": "2021.06.25 17:00",
    "o": 1.3926,
    "h": 1.393,
    "l": 1.39075,
    "c": 1.39132,
    "v": 3422
  },
  {
    "dt": "2021.06.25 18:00",
    "o": 1.39135,
    "h": 1.39176,
    "l": 1.38935,
    "c": 1.38968,
    "v": 3079
  },
  {
    "dt": "2021.06.25 19:00",
    "o": 1.38969,
    "h": 1.39076,
    "l": 1.38948,
    "c": 1.39011,
    "v": 2169
  },
  {
    "dt": "2021.06.25 20:00",
    "o": 1.3901,
    "h": 1.39023,
    "l": 1.38845,
    "c": 1.38879,
    "v": 1972
  },
  {
    "dt": "2021.06.25 21:00",
    "o": 1.38878,
    "h": 1.38879,
    "l": 1.38705,
    "c": 1.3875,
    "v": 1805
  },
  {
    "dt": "2021.06.25 22:00",
    "o": 1.38745,
    "h": 1.38893,
    "l": 1.3874,
    "c": 1.38883,
    "v": 1308
  },
  {
    "dt": "2021.06.25 23:00",
    "o": 1.38882,
    "h": 1.38912,
    "l": 1.38777,
    "c": 1.38777,
    "v": 970
  },
  {
    "dt": "2021.06.28 00:00",
    "o": 1.39061,
    "h": 1.39061,
    "l": 1.38739,
    "c": 1.38781,
    "v": 108
  },
  {
    "dt": "2021.06.28 01:00",
    "o": 1.38878,
    "h": 1.38897,
    "l": 1.38794,
    "c": 1.38887,
    "v": 562
  },
  {
    "dt": "2021.06.28 02:00",
    "o": 1.38888,
    "h": 1.38953,
    "l": 1.38886,
    "c": 1.38952,
    "v": 929
  },
  {
    "dt": "2021.06.28 03:00",
    "o": 1.38954,
    "h": 1.38954,
    "l": 1.38825,
    "c": 1.38901,
    "v": 1435
  },
  {
    "dt": "2021.06.28 04:00",
    "o": 1.38899,
    "h": 1.3892,
    "l": 1.38753,
    "c": 1.38809,
    "v": 1677
  },
  {
    "dt": "2021.06.28 05:00",
    "o": 1.38809,
    "h": 1.38844,
    "l": 1.38758,
    "c": 1.38816,
    "v": 1493
  },
  {
    "dt": "2021.06.28 06:00",
    "o": 1.38814,
    "h": 1.38871,
    "l": 1.38788,
    "c": 1.38851,
    "v": 1084
  },
  {
    "dt": "2021.06.28 07:00",
    "o": 1.38849,
    "h": 1.38912,
    "l": 1.38849,
    "c": 1.38901,
    "v": 1243
  },
  {
    "dt": "2021.06.28 08:00",
    "o": 1.389,
    "h": 1.38991,
    "l": 1.38887,
    "c": 1.38936,
    "v": 1154
  },
  {
    "dt": "2021.06.28 09:00",
    "o": 1.3895,
    "h": 1.39243,
    "l": 1.38888,
    "c": 1.3922,
    "v": 2255
  },
  {
    "dt": "2021.06.28 10:00",
    "o": 1.39218,
    "h": 1.39388,
    "l": 1.39184,
    "c": 1.39251,
    "v": 3061
  },
  {
    "dt": "2021.06.28 11:00",
    "o": 1.39252,
    "h": 1.39254,
    "l": 1.38959,
    "c": 1.3924,
    "v": 2985
  },
  {
    "dt": "2021.06.28 12:00",
    "o": 1.39239,
    "h": 1.39278,
    "l": 1.39066,
    "c": 1.39145,
    "v": 2136
  },
  {
    "dt": "2021.06.28 13:00",
    "o": 1.39143,
    "h": 1.3925,
    "l": 1.38995,
    "c": 1.39105,
    "v": 2134
  },
  {
    "dt": "2021.06.28 14:00",
    "o": 1.39105,
    "h": 1.39131,
    "l": 1.38856,
    "c": 1.38899,
    "v": 2352
  },
  {
    "dt": "2021.06.28 15:00",
    "o": 1.389,
    "h": 1.39087,
    "l": 1.38855,
    "c": 1.39009,
    "v": 2999
  },
  {
    "dt": "2021.06.28 16:00",
    "o": 1.39,
    "h": 1.39156,
    "l": 1.38843,
    "c": 1.39126,
    "v": 3304
  },
  {
    "dt": "2021.06.28 17:00",
    "o": 1.3912,
    "h": 1.39255,
    "l": 1.38825,
    "c": 1.38911,
    "v": 3462
  },
  {
    "dt": "2021.06.28 18:00",
    "o": 1.3891,
    "h": 1.38989,
    "l": 1.38811,
    "c": 1.3894,
    "v": 2777
  },
  {
    "dt": "2021.06.28 19:00",
    "o": 1.38939,
    "h": 1.38939,
    "l": 1.38799,
    "c": 1.38825,
    "v": 2107
  },
  {
    "dt": "2021.06.28 20:00",
    "o": 1.38825,
    "h": 1.38873,
    "l": 1.38791,
    "c": 1.38832,
    "v": 1937
  },
  {
    "dt": "2021.06.28 21:00",
    "o": 1.3883,
    "h": 1.38854,
    "l": 1.38756,
    "c": 1.38774,
    "v": 1827
  },
  {
    "dt": "2021.06.28 22:00",
    "o": 1.38774,
    "h": 1.3878,
    "l": 1.38731,
    "c": 1.38735,
    "v": 968
  },
  {
    "dt": "2021.06.28 23:00",
    "o": 1.38734,
    "h": 1.38801,
    "l": 1.387,
    "c": 1.38791,
    "v": 804
  },
  {
    "dt": "2021.06.29 00:00",
    "o": 1.38783,
    "h": 1.38814,
    "l": 1.38708,
    "c": 1.38772,
    "v": 488
  },
  {
    "dt": "2021.06.29 01:00",
    "o": 1.38777,
    "h": 1.38807,
    "l": 1.38767,
    "c": 1.38772,
    "v": 388
  },
  {
    "dt": "2021.06.29 02:00",
    "o": 1.38773,
    "h": 1.38786,
    "l": 1.38753,
    "c": 1.38774,
    "v": 660
  },
  {
    "dt": "2021.06.29 03:00",
    "o": 1.38775,
    "h": 1.38795,
    "l": 1.38591,
    "c": 1.38622,
    "v": 1288
  },
  {
    "dt": "2021.06.29 04:00",
    "o": 1.38621,
    "h": 1.38699,
    "l": 1.38602,
    "c": 1.38663,
    "v": 1543
  },
  {
    "dt": "2021.06.29 05:00",
    "o": 1.38664,
    "h": 1.3868,
    "l": 1.38579,
    "c": 1.38664,
    "v": 1276
  },
  {
    "dt": "2021.06.29 06:00",
    "o": 1.38664,
    "h": 1.38669,
    "l": 1.38613,
    "c": 1.38643,
    "v": 1214
  },
  {
    "dt": "2021.06.29 07:00",
    "o": 1.38643,
    "h": 1.38687,
    "l": 1.38626,
    "c": 1.38635,
    "v": 1009
  },
  {
    "dt": "2021.06.29 08:00",
    "o": 1.38634,
    "h": 1.38785,
    "l": 1.38626,
    "c": 1.38755,
    "v": 1373
  },
  {
    "dt": "2021.06.29 09:00",
    "o": 1.38752,
    "h": 1.38762,
    "l": 1.38625,
    "c": 1.38696,
    "v": 2243
  },
  {
    "dt": "2021.06.29 10:00",
    "o": 1.38693,
    "h": 1.38693,
    "l": 1.38533,
    "c": 1.38571,
    "v": 2807
  },
  {
    "dt": "2021.06.29 11:00",
    "o": 1.38576,
    "h": 1.38607,
    "l": 1.38356,
    "c": 1.38358,
    "v": 3063
  },
  {
    "dt": "2021.06.29 12:00",
    "o": 1.38361,
    "h": 1.3864,
    "l": 1.3835,
    "c": 1.38534,
    "v": 2748
  },
  {
    "dt": "2021.06.29 13:00",
    "o": 1.38536,
    "h": 1.3861,
    "l": 1.38369,
    "c": 1.38404,
    "v": 2882
  },
  {
    "dt": "2021.06.29 14:00",
    "o": 1.38394,
    "h": 1.38411,
    "l": 1.38207,
    "c": 1.3826,
    "v": 2941
  },
  {
    "dt": "2021.06.29 15:00",
    "o": 1.38257,
    "h": 1.38348,
    "l": 1.38131,
    "c": 1.38229,
    "v": 3499
  },
  {
    "dt": "2021.06.29 16:00",
    "o": 1.38223,
    "h": 1.38428,
    "l": 1.38195,
    "c": 1.38325,
    "v": 3433
  },
  {
    "dt": "2021.06.29 17:00",
    "o": 1.3833,
    "h": 1.38383,
    "l": 1.38146,
    "c": 1.38327,
    "v": 3482
  },
  {
    "dt": "2021.06.29 18:00",
    "o": 1.38331,
    "h": 1.38475,
    "l": 1.38311,
    "c": 1.38433,
    "v": 2564
  },
  {
    "dt": "2021.06.29 19:00",
    "o": 1.38433,
    "h": 1.38509,
    "l": 1.38394,
    "c": 1.38403,
    "v": 1870
  },
  {
    "dt": "2021.06.29 20:00",
    "o": 1.38402,
    "h": 1.38451,
    "l": 1.38363,
    "c": 1.38451,
    "v": 1364
  },
  {
    "dt": "2021.06.29 21:00",
    "o": 1.38452,
    "h": 1.38513,
    "l": 1.38449,
    "c": 1.38491,
    "v": 1015
  },
  {
    "dt": "2021.06.29 22:00",
    "o": 1.3849,
    "h": 1.38523,
    "l": 1.38411,
    "c": 1.38496,
    "v": 1179
  },
  {
    "dt": "2021.06.29 23:00",
    "o": 1.38495,
    "h": 1.38504,
    "l": 1.38297,
    "c": 1.38297,
    "v": 1021
  },
  {
    "dt": "2021.06.30 00:00",
    "o": 1.38357,
    "h": 1.3841,
    "l": 1.3833,
    "c": 1.38361,
    "v": 188
  },
  {
    "dt": "2021.06.30 01:00",
    "o": 1.38394,
    "h": 1.38432,
    "l": 1.38377,
    "c": 1.38421,
    "v": 541
  },
  {
    "dt": "2021.06.30 02:00",
    "o": 1.38412,
    "h": 1.38419,
    "l": 1.38371,
    "c": 1.38391,
    "v": 777
  },
  {
    "dt": "2021.06.30 03:00",
    "o": 1.3839,
    "h": 1.38537,
    "l": 1.38382,
    "c": 1.38521,
    "v": 1202
  },
  {
    "dt": "2021.06.30 04:00",
    "o": 1.38515,
    "h": 1.38594,
    "l": 1.38482,
    "c": 1.38556,
    "v": 1521
  },
  {
    "dt": "2021.06.30 05:00",
    "o": 1.38553,
    "h": 1.38596,
    "l": 1.3851,
    "c": 1.38521,
    "v": 1144
  },
  {
    "dt": "2021.06.30 06:00",
    "o": 1.38522,
    "h": 1.38527,
    "l": 1.38424,
    "c": 1.38516,
    "v": 1361
  },
  {
    "dt": "2021.06.30 07:00",
    "o": 1.38514,
    "h": 1.38551,
    "l": 1.38466,
    "c": 1.3848,
    "v": 1048
  },
  {
    "dt": "2021.06.30 08:00",
    "o": 1.38479,
    "h": 1.38552,
    "l": 1.38455,
    "c": 1.38458,
    "v": 1476
  },
  {
    "dt": "2021.06.30 09:00",
    "o": 1.38458,
    "h": 1.38523,
    "l": 1.3837,
    "c": 1.38382,
    "v": 2330
  },
  {
    "dt": "2021.06.30 10:00",
    "o": 1.38387,
    "h": 1.38387,
    "l": 1.38187,
    "c": 1.38302,
    "v": 3104
  },
  {
    "dt": "2021.06.30 11:00",
    "o": 1.38307,
    "h": 1.38424,
    "l": 1.38155,
    "c": 1.38338,
    "v": 3203
  },
  {
    "dt": "2021.06.30 12:00",
    "o": 1.38337,
    "h": 1.38568,
    "l": 1.38305,
    "c": 1.38557,
    "v": 2968
  },
  {
    "dt": "2021.06.30 13:00",
    "o": 1.3856,
    "h": 1.38716,
    "l": 1.38466,
    "c": 1.38606,
    "v": 2881
  },
  {
    "dt": "2021.06.30 14:00",
    "o": 1.38607,
    "h": 1.38696,
    "l": 1.38565,
    "c": 1.38665,
    "v": 2805
  },
  {
    "dt": "2021.06.30 15:00",
    "o": 1.38666,
    "h": 1.38666,
    "l": 1.38347,
    "c": 1.38419,
    "v": 3372
  },
  {
    "dt": "2021.06.30 16:00",
    "o": 1.38417,
    "h": 1.38441,
    "l": 1.3816,
    "c": 1.38389,
    "v": 3375
  },
  {
    "dt": "2021.06.30 17:00",
    "o": 1.38389,
    "h": 1.38396,
    "l": 1.38082,
    "c": 1.38145,
    "v": 3659
  },
  {
    "dt": "2021.06.30 18:00",
    "o": 1.38147,
    "h": 1.38222,
    "l": 1.38039,
    "c": 1.38046,
    "v": 3378
  },
  {
    "dt": "2021.06.30 19:00",
    "o": 1.38044,
    "h": 1.38099,
    "l": 1.37991,
    "c": 1.37994,
    "v": 2599
  },
  {
    "dt": "2021.06.30 20:00",
    "o": 1.37997,
    "h": 1.38127,
    "l": 1.37975,
    "c": 1.38105,
    "v": 2117
  },
  {
    "dt": "2021.06.30 21:00",
    "o": 1.38104,
    "h": 1.38118,
    "l": 1.38015,
    "c": 1.38026,
    "v": 2096
  },
  {
    "dt": "2021.06.30 22:00",
    "o": 1.38025,
    "h": 1.38337,
    "l": 1.38002,
    "c": 1.38324,
    "v": 1680
  },
  {
    "dt": "2021.06.30 23:00",
    "o": 1.38324,
    "h": 1.38367,
    "l": 1.38261,
    "c": 1.38278,
    "v": 1319
  }
]