[
  {
    "dt": "2021.10.01 00:00",
    "o": 1.34705,
    "h": 1.3474,
    "l": 1.34672,
    "c": 1.34714,
    "v": 1035
  },
  {
    "dt": "2021.10.01 01:00",
    "o": 1.34713,
    "h": 1.34794,
    "l": 1.34712,
    "c": 1.34794,
    "v": 584
  },
  {
    "dt": "2021.10.01 02:00",
    "o": 1.34794,
    "h": 1.34794,
    "l": 1.34658,
    "c": 1.34676,
    "v": 722
  },
  {
    "dt": "2021.10.01 03:00",
    "o": 1.3467,
    "h": 1.34718,
    "l": 1.34531,
    "c": 1.34533,
    "v": 2075
  },
  {
    "dt": "2021.10.01 04:00",
    "o": 1.34532,
    "h": 1.34603,
    "l": 1.34438,
    "c": 1.34599,
    "v": 2735
  },
  {
    "dt": "2021.10.01 05:00",
    "o": 1.346,
    "h": 1.34612,
    "l": 1.34517,
    "c": 1.34529,
    "v": 1914
  },
  {
    "dt": "2021.10.01 06:00",
    "o": 1.34532,
    "h": 1.34567,
    "l": 1.3452,
    "c": 1.3454,
    "v": 1677
  },
  {
    "dt": "2021.10.01 07:00",
    "o": 1.3454,
    "h": 1.34591,
    "l": 1.34498,
    "c": 1.34578,
    "v": 1712
  },
  {
    "dt": "2021.10.01 08:00",
    "o": 1.34579,
    "h": 1.34594,
    "l": 1.34469,
    "c": 1.34522,
    "v": 2227
  },
  {
    "dt": "2021.10.01 09:00",
    "o": 1.34519,
    "h": 1.34596,
    "l": 1.34413,
    "c": 1.34546,
    "v": 3799
  },
  {
    "dt": "2021.10.01 10:00",
    "o": 1.3454,
    "h": 1.34658,
    "l": 1.34326,
    "c": 1.34609,
    "v": 4257
  },
  {
    "dt": "2021.10.01 11:00",
    "o": 1.34601,
    "h": 1.34813,
    "l": 1.3448,
    "c": 1.34731,
    "v": 3664
  },
  {
    "dt": "2021.10.01 12:00",
    "o": 1.34731,
    "h": 1.34994,
    "l": 1.34727,
    "c": 1.34966,
    "v": 3227
  },
  {
    "dt": "2021.10.01 13:00",
    "o": 1.34964,
    "h": 1.35243,
    "l": 1.34884,
    "c": 1.35127,
    "v": 3333
  },
  {
    "dt": "2021.10.01 14:00",
    "o": 1.35126,
    "h": 1.35412,
    "l": 1.35095,
    "c": 1.35393,
    "v": 3589
  },
  {
    "dt": "2021.10.01 15:00",
    "o": 1.35385,
    "h": 1.3546,
    "l": 1.35245,
    "c": 1.35416,
    "v": 4053
  },
  {
    "dt": "2021.10.01 16:00",
    "o": 1.35417,
    "h": 1.35696,
    "l": 1.35378,
    "c": 1.35624,
    "v": 4493
  },
  {
    "dt": "2021.10.01 17:00",
    "o": 1.35618,
    "h": 1.35653,
    "l": 1.35345,
    "c": 1.35395,
    "v": 4947
  },
  {
    "dt": "2021.10.01 18:00",
    "o": 1.35396,
    "h": 1.35746,
    "l": 1.35354,
    "c": 1.35696,
    "v": 4246
  },
  {
    "dt": "2021.10.01 19:00",
    "o": 1.35696,
    "h": 1.35744,
    "l": 1.35582,
    "c": 1.35602,
    "v": 3191
  },
  {
    "dt": "2021.10.01 20:00",
    "o": 1.35602,
    "h": 1.35651,
    "l": 1.35567,
    "c": 1.35603,
    "v": 2529
  },
  {
    "dt": "2021.10.01 21:00",
    "o": 1.35603,
    "h": 1.35623,
    "l": 1.35502,
    "c": 1.35533,
    "v": 2037
  },
  {
    "dt": "2021.10.01 22:00",
    "o": 1.35537,
    "h": 1.35563,
    "l": 1.35461,
    "c": 1.35508,
    "v": 1920
  },
  {
    "dt": "2021.10.01 23:00",
    "o": 1.35505,
    "h": 1.35524,
    "l": 1.35413,
    "c": 1.35437,
    "v": 909
  },
  {
    "dt": "2021.10.04 00:00",
    "o": 1.35613,
    "h": 1.35613,
    "l": 1.35388,
    "c": 1.35402,
    "v": 133
  },
  {
    "dt": "2021.10.04 01:00",
    "o": 1.35411,
    "h": 1.3571,
    "l": 1.35411,
    "c": 1.35687,
    "v": 1359
  },
  {
    "dt": "2021.10.04 02:00",
    "o": 1.35695,
    "h": 1.35743,
    "l": 1.35677,
    "c": 1.35687,
    "v": 766
  },
  {
    "dt": "2021.10.04 03:00",
    "o": 1.35687,
    "h": 1.3576,
    "l": 1.35571,
    "c": 1.35572,
    "v": 1042
  },
  {
    "dt": "2021.10.04 04:00",
    "o": 1.35572,
    "h": 1.35575,
    "l": 1.35342,
    "c": 1.3539,
    "v": 1763
  },
  {
    "dt": "2021.10.04 05:00",
    "o": 1.3539,
    "h": 1.35441,
    "l": 1.35331,
    "c": 1.35371,
    "v": 1572
  },
  {
    "dt": "2021.10.04 06:00",
    "o": 1.35371,
    "h": 1.35397,
    "l": 1.3533,
    "c": 1.35339,
    "v": 1621
  },
  {
    "dt": "2021.10.04 07:00",
    "o": 1.35335,
    "h": 1.35478,
    "l": 1.35331,
    "c": 1.35468,
    "v": 1125
  },
  {
    "dt": "2021.10.04 08:00",
    "o": 1.3547,
    "h": 1.35509,
    "l": 1.35377,
    "c": 1.35388,
    "v": 1471
  },
  {
    "dt": "2021.10.04 09:00",
    "o": 1.35389,
    "h": 1.35543,
    "l": 1.35372,
    "c": 1.35488,
    "v": 2882
  },
  {
    "dt": "2021.10.04 10:00",
    "o": 1.3548,
    "h": 1.35634,
    "l": 1.35309,
    "c": 1.35616,
    "v": 4139
  },
  {
    "dt": "2021.10.04 11:00",
    "o": 1.35619,
    "h": 1.35672,
    "l": 1.35426,
    "c": 1.35588,
    "v": 3168
  },
  {
    "dt": "2021.10.04 12:00",
    "o": 1.35588,
    "h": 1.35885,
    "l": 1.35565,
    "c": 1.35843,
    "v": 3235
  },
  {
    "dt": "2021.10.04 13:00",
    "o": 1.35826,
    "h": 1.35913,
    "l": 1.35725,
    "c": 1.35899,
    "v": 2791
  },
  {
    "dt": "2021.10.04 14:00",
    "o": 1.35905,
    "h": 1.36057,
    "l": 1.35828,
    "c": 1.36041,
    "v": 3339
  },
  {
    "dt": "2021.10.04 15:00",
    "o": 1.36045,
    "h": 1.36101,
    "l": 1.35938,
    "c": 1.36046,
    "v": 2604
  },
  {
    "dt": "2021.10.04 16:00",
    "o": 1.36045,
    "h": 1.36222,
    "l": 1.35948,
    "c": 1.36211,
    "v": 3658
  },
  {
    "dt": "2021.10.04 17:00",
    "o": 1.36206,
    "h": 1.36392,
    "l": 1.3601,
    "c": 1.36034,
    "v": 4329
  },
  {
    "dt": "2021.10.04 18:00",
    "o": 1.36031,
    "h": 1.36079,
    "l": 1.35938,
    "c": 1.35998,
    "v": 4108
  },
  {
    "dt": "2021.10.04 19:00",
    "o": 1.35999,
    "h": 1.3615,
    "l": 1.35981,
    "c": 1.36067,
    "v": 2831
  },
  {
    "dt": "2021.10.04 20:00",
    "o": 1.36066,
    "h": 1.36175,
    "l": 1.36055,
    "c": 1.36102,
    "v": 2644
  },
  {
    "dt": "2021.10.04 21:00",
    "o": 1.36102,
    "h": 1.3617,
    "l": 1.36049,
    "c": 1.36136,
    "v": 2647
  },
  {
    "dt": "2021.10.04 22:00",
    "o": 1.36136,
    "h": 1.36147,
    "l": 1.36026,
    "c": 1.36121,
    "v": 2353
  },
  {
    "dt": "2021.10.04 23:00",
    "o": 1.36121,
    "h": 1.36152,
    "l": 1.36006,
    "c": 1.36092,
    "v": 770
  },
  {
    "dt": "2021.10.05 00:00",
    "o": 1.36012,
    "h": 1.36066,
    "l": 1.36012,
    "c": 1.36059,
    "v": 183
  },
  {
    "dt": "2021.10.05 01:00",
    "o": 1.36062,
    "h": 1.3612,
    "l": 1.36049,
    "c": 1.36072,
    "v": 569
  },
  {
    "dt": "2021.10.05 02:00",
    "o": 1.36073,
    "h": 1.36112,
    "l": 1.36038,
    "c": 1.36059,
    "v": 782
  },
  {
    "dt": "2021.10.05 03:00",
    "o": 1.36056,
    "h": 1.36115,
    "l": 1.35924,
    "c": 1.35942,
    "v": 1985
  },
  {
    "dt": "2021.10.05 04:00",
    "o": 1.35942,
    "h": 1.35954,
    "l": 1.35836,
    "c": 1.35912,
    "v": 1756
  },
  {
    "dt": "2021.10.05 05:00",
    "o": 1.35912,
    "h": 1.36054,
    "l": 1.35892,
    "c": 1.36015,
    "v": 1527
  },
  {
    "dt": "2021.10.05 06:00",
    "o": 1.36015,
    "h": 1.3602,
    "l": 1.35913,
    "c": 1.35947,
    "v": 1137
  },
  {
    "dt": "2021.10.05 07:00",
    "o": 1.35943,
    "h": 1.35949,
    "l": 1.35851,
    "c": 1.35885,
    "v": 1013
  },
  {
    "dt": "2021.10.05 08:00",
    "o": 1.35883,
    "h": 1.35941,
    "l": 1.35857,
    "c": 1.35906,
    "v": 1431
  },
  {
    "dt": "2021.10.05 09:00",
    "o": 1.35907,
    "h": 1.36056,
    "l": 1.35842,
    "c": 1.36004,
    "v": 2874
  },
  {
    "dt": "2021.10.05 10:00",
    "o": 1.36004,
    "h": 1.36163,
    "l": 1.35888,
    "c": 1.36073,
    "v": 3728
  },
  {
    "dt": "2021.10.05 11:00",
    "o": 1.36072,
    "h": 1.3626,
    "l": 1.36051,
    "c": 1.36191,
    "v": 2884
  },
  {
    "dt": "2021.10.05 12:00",
    "o": 1.3619,
    "h": 1.36242,
    "l": 1.36122,
    "c": 1.36242,
    "v": 2320
  },
  {
    "dt": "2021.10.05 13:00",
    "o": 1.36243,
    "h": 1.36282,
    "l": 1.36137,
    "c": 1.36243,
    "v": 2747
  },
  {
    "dt": "2021.10.05 14:00",
    "o": 1.36242,
    "h": 1.36421,
    "l": 1.3616,
    "c": 1.36189,
    "v": 3031
  },
  {
    "dt": "2021.10.05 15:00",
    "o": 1.36184,
    "h": 1.36344,
    "l": 1.36176,
    "c": 1.3622,
    "v": 2758
  },
  {
    "dt": "2021.10.05 16:00",
    "o": 1.36217,
    "h": 1.36264,
    "l": 1.35988,
    "c": 1.36233,
    "v": 4125
  },
  {
    "dt": "2021.10.05 17:00",
    "o": 1.36215,
    "h": 1.36311,
    "l": 1.36062,
    "c": 1.36228,
    "v": 4302
  },
  {
    "dt": "2021.10.05 18:00",
    "o": 1.36226,
    "h": 1.3647,
    "l": 1.36205,
    "c": 1.36388,
    "v": 3764
  },
  {
    "dt": "2021.10.05 19:00",
    "o": 1.36389,
    "h": 1.3643,
    "l": 1.36322,
    "c": 1.36403,
    "v": 2698
  },
  {
    "dt": "2021.10.05 20:00",
    "o": 1.36404,
    "h": 1.36407,
    "l": 1.3632,
    "c": 1.36395,
    "v": 2145
  },
  {
    "dt": "2021.10.05 21:00",
    "o": 1.36393,
    "h": 1.36438,
    "l": 1.36282,
    "c": 1.36284,
    "v": 1886
  },
  {
    "dt": "2021.10.05 22:00",
    "o": 1.36282,
    "h": 1.36284,
    "l": 1.36212,
    "c": 1.36231,
    "v": 1951
  },
  {
    "dt": "2021.10.05 23:00",
    "o": 1.36231,
    "h": 1.36252,
    "l": 1.36201,
    "c": 1.36241,
    "v": 1045
  },
  {
    "dt": "2021.10.06 00:00",
    "o": 1.36254,
    "h": 1.36287,
    "l": 1.362,
    "c": 1.3623,
    "v": 475
  },
  {
    "dt": "2021.10.06 01:00",
    "o": 1.36239,
    "h": 1.36291,
    "l": 1.36225,
    "c": 1.36267,
    "v": 728
  },
  {
    "dt": "2021.10.06 02:00",
    "o": 1.3627,
    "h": 1.36293,
    "l": 1.36249,
    "c": 1.36251,
    "v": 617
  },
  {
    "dt": "2021.10.06 03:00",
    "o": 1.3625,
    "h": 1.36302,
    "l": 1.36213,
    "c": 1.36232,
    "v": 1432
  },
  {
    "dt": "2021.10.06 04:00",
    "o": 1.36232,
    "h": 1.36283,
    "l": 1.36111,
    "c": 1.36146,
    "v": 1796
  },
  {
    "dt": "2021.10.06 05:00",
    "o": 1.36144,
    "h": 1.36223,
    "l": 1.36102,
    "c": 1.36145,
    "v": 1366
  },
  {
    "dt": "2021.10.06 06:00",
    "o": 1.36145,
    "h": 1.36153,
    "l": 1.36083,
    "c": 1.36135,
    "v": 1219
  },
  {
    "dt": "2021.10.06 07:00",
    "o": 1.36134,
    "h": 1.36137,
    "l": 1.35983,
    "c": 1.36045,
    "v": 1319
  },
  {
    "dt": "2021.10.06 08:00",
    "o": 1.36045,
    "h": 1.36142,
    "l": 1.36019,
    "c": 1.36022,
    "v": 1657
  },
  {
    "dt": "2021.10.06 09:00",
    "o": 1.36023,
    "h": 1.36134,
    "l": 1.3596,
    "c": 1.35993,
    "v": 3023
  },
  {
    "dt": "2021.10.06 10:00",
    "o": 1.35992,
    "h": 1.36053,
    "l": 1.35625,
    "c": 1.35627,
    "v": 4378
  },
  {
    "dt": "2021.10.06 11:00",
    "o": 1.35626,
    "h": 1.35754,
    "l": 1.35492,
    "c": 1.355,
    "v": 3936
  },
  {
    "dt": "2021.10.06 12:00",
    "o": 1.35507,
    "h": 1.35594,
    "l": 1.35433,
    "c": 1.35501,
    "v": 3649
  },
  {
    "dt": "2021.10.06 13:00",
    "o": 1.35501,
    "h": 1.3573,
    "l": 1.3543,
    "c": 1.35722,
    "v": 3299
  },
  {
    "dt": "2021.10.06 14:00",
    "o": 1.35721,
    "h": 1.35775,
    "l": 1.3559,
    "c": 1.35705,
    "v": 3237
  },
  {
    "dt": "2021.10.06 15:00",
    "o": 1.35703,
    "h": 1.35894,
    "l": 1.35702,
    "c": 1.35823,
    "v": 3747
  },
  {
    "dt": "2021.10.06 16:00",
    "o": 1.35821,
    "h": 1.35901,
    "l": 1.35602,
    "c": 1.35646,
    "v": 4088
  },
  {
    "dt": "2021.10.06 17:00",
    "o": 1.35641,
    "h": 1.35817,
    "l": 1.35491,
    "c": 1.3567,
    "v": 4692
  },
  {
    "dt": "2021.10.06 18:00",
    "o": 1.35671,
    "h": 1.35716,
    "l": 1.35492,
    "c": 1.35655,
    "v": 3974
  },
  {
    "dt": "2021.10.06 19:00",
    "o": 1.35655,
    "h": 1.35723,
    "l": 1.35525,
    "c": 1.35533,
    "v": 3200
  },
  {
    "dt": "2021.10.06 20:00",
    "o": 1.35534,
    "h": 1.35762,
    "l": 1.35528,
    "c": 1.35714,
    "v": 2829
  },
  {
    "dt": "2021.10.06 21:00",
    "o": 1.35718,
    "h": 1.35852,
    "l": 1.35698,
    "c": 1.35792,
    "v": 3325
  },
  {
    "dt": "2021.10.06 22:00",
    "o": 1.35792,
    "h": 1.35884,
    "l": 1.35792,
    "c": 1.35878,
    "v": 2506
  },
  {
    "dt": "2021.10.06 23:00",
    "o": 1.35876,
    "h": 1.35903,
    "l": 1.35767,
    "c": 1.35767,
    "v": 989
  },
  {
    "dt": "2021.10.07 00:00",
    "o": 1.35792,
    "h": 1.35825,
    "l": 1.3576,
    "c": 1.35823,
    "v": 216
  },
  {
    "dt": "2021.10.07 01:00",
    "o": 1.35822,
    "h": 1.35882,
    "l": 1.35822,
    "c": 1.35869,
    "v": 613
  },
  {
    "dt": "2021.10.07 02:00",
    "o": 1.3587,
    "h": 1.35917,
    "l": 1.35848,
    "c": 1.35912,
    "v": 838
  },
  {
    "dt": "2021.10.07 03:00",
    "o": 1.3591,
    "h": 1.35966,
    "l": 1.35857,
    "c": 1.35926,
    "v": 1850
  },
  {
    "dt": "2021.10.07 04:00",
    "o": 1.35923,
    "h": 1.35944,
    "l": 1.35818,
    "c": 1.35851,
    "v": 1144
  },
  {
    "dt": "2021.10.07 05:00",
    "o": 1.35851,
    "h": 1.35851,
    "l": 1.35798,
    "c": 1.35809,
    "v": 763
  },
  {
    "dt": "2021.10.07 06:00",
    "o": 1.35809,
    "h": 1.3584,
    "l": 1.35765,
    "c": 1.35832,
    "v": 815
  },
  {
    "dt": "2021.10.07 07:00",
    "o": 1.35832,
    "h": 1.3587,
    "l": 1.35807,
    "c": 1.3581,
    "v": 810
  },
  {
    "dt": "2021.10.07 08:00",
    "o": 1.3581,
    "h": 1.35841,
    "l": 1.35719,
    "c": 1.3575,
    "v": 1856
  },
  {
    "dt": "2021.10.07 09:00",
    "o": 1.3575,
    "h": 1.36043,
    "l": 1.35737,
    "c": 1.36022,
    "v": 2496
  },
  {
    "dt": "2021.10.07 10:00",
    "o": 1.3602,
    "h": 1.36041,
    "l": 1.35807,
    "c": 1.35814,
    "v": 3782
  },
  {
    "dt": "2021.10.07 11:00",
    "o": 1.3581,
    "h": 1.35917,
    "l": 1.35695,
    "c": 1.35865,
    "v": 3146
  },
  {
    "dt": "2021.10.07 12:00",
    "o": 1.35863,
    "h": 1.36064,
    "l": 1.358,
    "c": 1.35903,
    "v": 2962
  },
  {
    "dt": "2021.10.07 13:00",
    "o": 1.35906,
    "h": 1.3596,
    "l": 1.35843,
    "c": 1.35931,
    "v": 2480
  },
  {
    "dt": "2021.10.07 14:00",
    "o": 1.35933,
    "h": 1.3617,
    "l": 1.35924,
    "c": 1.36057,
    "v": 2778
  },
  {
    "dt": "2021.10.07 15:00",
    "o": 1.36058,
    "h": 1.36075,
    "l": 1.35891,
    "c": 1.35939,
    "v": 2911
  },
  {
    "dt": "2021.10.07 16:00",
    "o": 1.35942,
    "h": 1.36098,
    "l": 1.35847,
    "c": 1.36076,
    "v": 3874
  },
  {
    "dt": "2021.10.07 17:00",
    "o": 1.36075,
    "h": 1.36353,
    "l": 1.3607,
    "c": 1.36217,
    "v": 3611
  },
  {
    "dt": "2021.10.07 18:00",
    "o": 1.36217,
    "h": 1.36373,
    "l": 1.36213,
    "c": 1.36311,
    "v": 2868
  },
  {
    "dt": "2021.10.07 19:00",
    "o": 1.36311,
    "h": 1.36363,
    "l": 1.36207,
    "c": 1.36207,
    "v": 2213
  },
  {
    "dt": "2021.10.07 20:00",
    "o": 1.36207,
    "h": 1.36243,
    "l": 1.36154,
    "c": 1.36206,
    "v": 2029
  },
  {
    "dt": "2021.10.07 21:00",
    "o": 1.36204,
    "h": 1.36221,
    "l": 1.36126,
    "c": 1.362,
    "v": 2357
  },
  {
    "dt": "2021.10.07 22:00",
    "o": 1.36199,
    "h": 1.3622,
    "l": 1.36122,
    "c": 1.36157,
    "v": 1814
  },
  {
    "dt": "2021.10.07 23:00",
    "o": 1.36156,
    "h": 1.36177,
    "l": 1.36107,
    "c": 1.36145,
    "v": 1075
  },
  {
    "dt": "2021.10.08 00:00",
    "o": 1.36122,
    "h": 1.36138,
    "l": 1.36081,
    "c": 1.3613,
    "v": 269
  },
  {
    "dt": "2021.10.08 01:00",
    "o": 1.36114,
    "h": 1.36168,
    "l": 1.36101,
    "c": 1.36155,
    "v": 588
  },
  {
    "dt": "2021.10.08 02:00",
    "o": 1.36155,
    "h": 1.36186,
    "l": 1.36105,
    "c": 1.3618,
    "v": 643
  },
  {
    "dt": "2021.10.08 03:00",
    "o": 1.36181,
    "h": 1.36213,
    "l": 1.36096,
    "c": 1.36177,
    "v": 1226
  },
  {
    "dt": "2021.10.08 04:00",
    "o": 1.36175,
    "h": 1.362,
    "l": 1.36127,
    "c": 1.36155,
    "v": 1445
  },
  {
    "dt": "2021.10.08 05:00",
    "o": 1.36154,
    "h": 1.36183,
    "l": 1.36112,
    "c": 1.36145,
    "v": 1269
  },
  {
    "dt": "2021.10.08 06:00",
    "o": 1.36145,
    "h": 1.36145,
    "l": 1.36055,
    "c": 1.36087,
    "v": 1021
  },
  {
    "dt": "2021.10.08 07:00",
    "o": 1.36086,
    "h": 1.36121,
    "l": 1.36013,
    "c": 1.36015,
    "v": 728
  },
  {
    "dt": "2021.10.08 08:00",
    "o": 1.36015,
    "h": 1.36066,
    "l": 1.35958,
    "c": 1.35959,
    "v": 1335
  },
  {
    "dt": "2021.10.08 09:00",
    "o": 1.35958,
    "h": 1.36042,
    "l": 1.35925,
    "c": 1.35943,
    "v": 2350
  },
  {
    "dt": "2021.10.08 10:00",
    "o": 1.35945,
    "h": 1.36001,
    "l": 1.35827,
    "c": 1.35907,
    "v": 3431
  },
  {
    "dt": "2021.10.08 11:00",
    "o": 1.35917,
    "h": 1.36049,
    "l": 1.35858,
    "c": 1.3599,
    "v": 2364
  },
  {
    "dt": "2021.10.08 12:00",
    "o": 1.35992,
    "h": 1.36234,
    "l": 1.35967,
    "c": 1.36226,
    "v": 2595
  },
  {
    "dt": "2021.10.08 13:00",
    "o": 1.3623,
    "h": 1.36369,
    "l": 1.3623,
    "c": 1.36267,
    "v": 2264
  },
  {
    "dt": "2021.10.08 14:00",
    "o": 1.36267,
    "h": 1.36307,
    "l": 1.36192,
    "c": 1.36227,
    "v": 1785
  },
  {
    "dt": "2021.10.08 15:00",
    "o": 1.36227,
    "h": 1.3657,
    "l": 1.36185,
    "c": 1.36395,
    "v": 4084
  },
  {
    "dt": "2021.10.08 16:00",
    "o": 1.36398,
    "h": 1.36471,
    "l": 1.36108,
    "c": 1.36269,
    "v": 4767
  },
  {
    "dt": "2021.10.08 17:00",
    "o": 1.36267,
    "h": 1.36463,
    "l": 1.36257,
    "c": 1.36366,
    "v": 4685
  },
  {
    "dt": "2021.10.08 18:00",
    "o": 1.36368,
    "h": 1.36479,
    "l": 1.36276,
    "c": 1.36287,
    "v": 3881
  },
  {
    "dt": "2021.10.08 19:00",
    "o": 1.36284,
    "h": 1.36285,
    "l": 1.361,
    "c": 1.3616,
    "v": 2718
  },
  {
    "dt": "2021.10.08 20:00",
    "o": 1.3616,
    "h": 1.36199,
    "l": 1.36087,
    "c": 1.36188,
    "v": 2352
  },
  {
    "dt": "2021.10.08 21:00",
    "o": 1.36188,
    "h": 1.3625,
    "l": 1.36186,
    "c": 1.36202,
    "v": 1977
  },
  {
    "dt": "2021.10.08 22:00",
    "o": 1.36201,
    "h": 1.36237,
    "l": 1.36137,
    "c": 1.36188,
    "v": 1807
  },
  {
    "dt": "2021.10.08 23:00",
    "o": 1.36187,
    "h": 1.36199,
    "l": 1.36106,
    "c": 1.36127,
    "v": 938
  },
  {
    "dt": "2021.10.11 00:00",
    "o": 1.36216,
    "h": 1.3623,
    "l": 1.36076,
    "c": 1.36107,
    "v": 166
  },
  {
    "dt": "2021.10.11 01:00",
    "o": 1.36144,
    "h": 1.36259,
    "l": 1.36134,
    "c": 1.3617,
    "v": 592
  },
  {
    "dt": "2021.10.11 02:00",
    "o": 1.36171,
    "h": 1.36179,
    "l": 1.3611,
    "c": 1.36147,
    "v": 535
  },
  {
    "dt": "2021.10.11 03:00",
    "o": 1.36147,
    "h": 1.36413,
    "l": 1.36141,
    "c": 1.36379,
    "v": 1328
  },
  {
    "dt": "2021.10.11 04:00",
    "o": 1.36379,
    "h": 1.36547,
    "l": 1.36367,
    "c": 1.36421,
    "v": 1576
  },
  {
    "dt": "2021.10.11 05:00",
    "o": 1.3642,
    "h": 1.36463,
    "l": 1.36401,
    "c": 1.36413,
    "v": 1232
  },
  {
    "dt": "2021.10.11 06:00",
    "o": 1.36414,
    "h": 1.36437,
    "l": 1.36335,
    "c": 1.36357,
    "v": 1136
  },
  {
    "dt": "2021.10.11 07:00",
    "o": 1.36357,
    "h": 1.36402,
    "l": 1.36333,
    "c": 1.36396,
    "v": 664
  },
  {
    "dt": "2021.10.11 08:00",
    "o": 1.36395,
    "h": 1.3653,
    "l": 1.36376,
    "c": 1.36529,
    "v": 1267
  },
  {
    "dt": "2021.10.11 09:00",
    "o": 1.36537,
    "h": 1.36728,
    "l": 1.36497,
    "c": 1.36641,
    "v": 3077
  },
  {
    "dt": "2021.10.11 10:00",
    "o": 1.36641,
    "h": 1.36679,
    "l": 1.36366,
    "c": 1.36472,
    "v": 3687
  },
  {
    "dt": "2021.10.11 11:00",
    "o": 1.36474,
    "h": 1.36561,
    "l": 1.36308,
    "c": 1.36465,
    "v": 3092
  },
  {
    "dt": "2021.10.11 12:00",
    "o": 1.36465,
    "h": 1.3647,
    "l": 1.361,
    "c": 1.36172,
    "v": 2687
  },
  {
    "dt": "2021.10.11 13:00",
    "o": 1.36172,
    "h": 1.36325,
    "l": 1.36141,
    "c": 1.36302,
    "v": 2435
  },
  {
    "dt": "2021.10.11 14:00",
    "o": 1.36298,
    "h": 1.36349,
    "l": 1.36232,
    "c": 1.36288,
    "v": 2449
  },
  {
    "dt": "2021.10.11 15:00",
    "o": 1.36286,
    "h": 1.36385,
    "l": 1.36181,
    "c": 1.36193,
    "v": 2613
  },
  {
    "dt": "2021.10.11 16:00",
    "o": 1.36193,
    "h": 1.36454,
    "l": 1.36178,
    "c": 1.36425,
    "v": 3359
  },
  {
    "dt": "2021.10.11 17:00",
    "o": 1.36434,
    "h": 1.365,
    "l": 1.36222,
    "c": 1.36257,
    "v": 2647
  },
  {
    "dt": "2021.10.11 18:00",
    "o": 1.36257,
    "h": 1.36336,
    "l": 1.36215,
    "c": 1.36236,
    "v": 2162
  },
  {
    "dt": "2021.10.11 19:00",
    "o": 1.36235,
    "h": 1.36239,
    "l": 1.36087,
    "c": 1.36093,
    "v": 1967
  },
  {
    "dt": "2021.10.11 20:00",
    "o": 1.36094,
    "h": 1.36098,
    "l": 1.36008,
    "c": 1.36067,
    "v": 2438
  },
  {
    "dt": "2021.10.11 21:00",
    "o": 1.36068,
    "h": 1.36093,
    "l": 1.3604,
    "c": 1.3608,
    "v": 2031
  },
  {
    "dt": "2021.10.11 22:00",
    "o": 1.36078,
    "h": 1.36085,
    "l": 1.35852,
    "c": 1.35861,
    "v": 2252
  },
  {
    "dt": "2021.10.11 23:00",
    "o": 1.35853,
    "h": 1.3594,
    "l": 1.35836,
    "c": 1.35925,
    "v": 911
  },
  {
    "dt": "2021.10.12 00:00",
    "o": 1.35922,
    "h": 1.35949,
    "l": 1.35884,
    "c": 1.35936,
    "v": 127
  },
  {
    "dt": "2021.10.12 01:00",
    "o": 1.35936,
    "h": 1.35951,
    "l": 1.35839,
    "c": 1.35846,
    "v": 920
  },
  {
    "dt": "2021.10.12 02:00",
    "o": 1.3585,
    "h": 1.3591,
    "l": 1.35838,
    "c": 1.35901,
    "v": 681
  },
  {
    "dt": "2021.10.12 03:00",
    "o": 1.35907,
    "h": 1.35932,
    "l": 1.35811,
    "c": 1.35839,
    "v": 1994
  },
  {
    "dt": "2021.10.12 04:00",
    "o": 1.35842,
    "h": 1.359,
    "l": 1.358,
    "c": 1.3589,
    "v": 1963
  },
  {
    "dt": "2021.10.12 05:00",
    "o": 1.35892,
    "h": 1.35992,
    "l": 1.3588,
    "c": 1.35985,
    "v": 1652
  },
  {
    "dt": "2021.10.12 06:00",
    "o": 1.35983,
    "h": 1.36016,
    "l": 1.35952,
    "c": 1.35961,
    "v": 1124
  },
  {
    "dt": "2021.10.12 07:00",
    "o": 1.35957,
    "h": 1.35984,
    "l": 1.35941,
    "c": 1.35959,
    "v": 1233
  },
  {
    "dt": "2021.10.12 08:00",
    "o": 1.35959,
    "h": 1.3609,
    "l": 1.35955,
    "c": 1.36057,
    "v": 1238
  },
  {
    "dt": "2021.10.12 09:00",
    "o": 1.36056,
    "h": 1.36111,
    "l": 1.35984,
    "c": 1.36062,
    "v": 2923
  },
  {
    "dt": "2021.10.12 10:00",
    "o": 1.36061,
    "h": 1.36061,
    "l": 1.35827,
    "c": 1.35839,
    "v": 3480
  },
  {
    "dt": "2021.10.12 11:00",
    "o": 1.35839,
    "h": 1.3603,
    "l": 1.35678,
    "c": 1.35991,
    "v": 3117
  },
  {
    "dt": "2021.10.12 12:00",
    "o": 1.35994,
    "h": 1.36196,
    "l": 1.35961,
    "c": 1.35984,
    "v": 2972
  },
  {
    "dt": "2021.10.12 13:00",
    "o": 1.35984,
    "h": 1.36187,
    "l": 1.35984,
    "c": 1.36147,
    "v": 2504
  },
  {
    "dt": "2021.10.12 14:00",
    "o": 1.36146,
    "h": 1.36292,
    "l": 1.36108,
    "c": 1.36242,
    "v": 2263
  },
  {
    "dt": "2021.10.12 15:00",
    "o": 1.36239,
    "h": 1.36365,
    "l": 1.35945,
    "c": 1.36065,
    "v": 3406
  },
  {
    "dt": "2021.10.12 16:00",
    "o": 1.3607,
    "h": 1.36208,
    "l": 1.35886,
    "c": 1.35945,
    "v": 4022
  },
  {
    "dt": "2021.10.12 17:00",
    "o": 1.35944,
    "h": 1.36031,
    "l": 1.35683,
    "c": 1.35993,
    "v": 4586
  },
  {
    "dt": "2021.10.12 18:00",
    "o": 1.35995,
    "h": 1.36038,
    "l": 1.35905,
    "c": 1.36022,
    "v": 3839
  },
  {
    "dt": "2021.10.12 19:00",
    "o": 1.36023,
    "h": 1.36046,
    "l": 1.35836,
    "c": 1.35862,
    "v": 2741
  },
  {
    "dt": "2021.10.12 20:00",
    "o": 1.3586,
    "h": 1.35878,
    "l": 1.35756,
    "c": 1.3584,
    "v": 2534
  },
  {
    "dt": "2021.10.12 21:00",
    "o": 1.35837,
    "h": 1.35965,
    "l": 1.35814,
    "c": 1.35923,
    "v": 2107
  },
  {
    "dt": "2021.10.12 22:00",
    "o": 1.35926,
    "h": 1.35954,
    "l": 1.35871,
    "c": 1.35921,
    "v": 1888
  },
  {
    "dt": "2021.10.12 23:00",
    "o": 1.35922,
    "h": 1.35925,
    "l": 1.35824,
    "c": 1.35824,
    "v": 854
  },
  {
    "dt": "2021.10.13 00:00",
    "o": 1.35836,
    "h": 1.35872,
    "l": 1.35792,
    "c": 1.35855,
    "v": 373
  },
  {
    "dt": "2021.10.13 01:00",
    "o": 1.35855,
    "h": 1.35896,
    "l": 1.35846,
    "c": 1.35867,
    "v": 765
  },
  {
    "dt": "2021.10.13 02:00",
    "o": 1.35866,
    "h": 1.35872,
    "l": 1.35749,
    "c": 1.35759,
    "v": 778
  },
  {
    "dt": "2021.10.13 03:00",
    "o": 1.35757,
    "h": 1.35959,
    "l": 1.35748,
    "c": 1.35957,
    "v": 1518
  },
  {
    "dt": "2021.10.13 04:00",
    "o": 1.35955,
    "h": 1.36122,
    "l": 1.35943,
    "c": 1.36104,
    "v": 1261
  },
  {
    "dt": "2021.10.13 05:00",
    "o": 1.36104,
    "h": 1.36174,
    "l": 1.36102,
    "c": 1.36132,
    "v": 1152
  },
  {
    "dt": "2021.10.13 06:00",
    "o": 1.36133,
    "h": 1.36155,
    "l": 1.3611,
    "c": 1.3613,
    "v": 1019
  },
  {
    "dt": "2021.10.13 07:00",
    "o": 1.3613,
    "h": 1.36173,
    "l": 1.36125,
    "c": 1.36172,
    "v": 1134
  },
  {
    "dt": "2021.10.13 08:00",
    "o": 1.36172,
    "h": 1.36174,
    "l": 1.36059,
    "c": 1.36102,
    "v": 1172
  },
  {
    "dt": "2021.10.13 09:00",
    "o": 1.36084,
    "h": 1.36176,
    "l": 1.36021,
    "c": 1.36159,
    "v": 2784
  },
  {
    "dt": "2021.10.13 10:00",
    "o": 1.36158,
    "h": 1.36268,
    "l": 1.3601,
    "c": 1.362,
    "v": 3728
  },
  {
    "dt": "2021.10.13 11:00",
    "o": 1.36199,
    "h": 1.36375,
    "l": 1.36197,
    "c": 1.36266,
    "v": 3167
  },
  {
    "dt": "2021.10.13 12:00",
    "o": 1.36266,
    "h": 1.36344,
    "l": 1.36158,
    "c": 1.36301,
    "v": 3079
  },
  {
    "dt": "2021.10.13 13:00",
    "o": 1.36297,
    "h": 1.36435,
    "l": 1.3621,
    "c": 1.36219,
    "v": 2777
  },
  {
    "dt": "2021.10.13 14:00",
    "o": 1.36219,
    "h": 1.36285,
    "l": 1.36158,
    "c": 1.36198,
    "v": 3344
  },
  {
    "dt": "2021.10.13 15:00",
    "o": 1.36195,
    "h": 1.362,
    "l": 1.35866,
    "c": 1.35944,
    "v": 4216
  },
  {
    "dt": "2021.10.13 16:00",
    "o": 1.35943,
    "h": 1.36461,
    "l": 1.35933,
    "c": 1.36385,
    "v": 4879
  },
  {
    "dt": "2021.10.13 17:00",
    "o": 1.36383,
    "h": 1.36452,
    "l": 1.36206,
    "c": 1.36316,
    "v": 4390
  },
  {
    "dt": "2021.10.13 18:00",
    "o": 1.36317,
    "h": 1.36475,
    "l": 1.36312,
    "c": 1.36432,
    "v": 3437
  },
  {
    "dt": "2021.10.13 19:00",
    "o": 1.36434,
    "h": 1.36508,
    "l": 1.3641,
    "c": 1.36411,
    "v": 2423
  },
  {
    "dt": "2021.10.13 20:00",
    "o": 1.36409,
    "h": 1.36583,
    "l": 1.36395,
    "c": 1.36451,
    "v": 2423
  },
  {
    "dt": "2021.10.13 21:00",
    "o": 1.36452,
    "h": 1.36486,
    "l": 1.36308,
    "c": 1.36417,
    "v": 3132
  },
  {
    "dt": "2021.10.13 22:00",
    "o": 1.36413,
    "h": 1.36639,
    "l": 1.36399,
    "c": 1.36604,
    "v": 2083
  },
  {
    "dt": "2021.10.13 23:00",
    "o": 1.36605,
    "h": 1.36628,
    "l": 1.36541,
    "c": 1.36541,
    "v": 827
  },
  {
    "dt": "2021.10.14 00:00",
    "o": 1.36509,
    "h": 1.36592,
    "l": 1.36509,
    "c": 1.36571,
    "v": 469
  },
  {
    "dt": "2021.10.14 01:00",
    "o": 1.3657,
    "h": 1.36679,
    "l": 1.3657,
    "c": 1.36651,
    "v": 484
  },
  {
    "dt": "2021.10.14 02:00",
    "o": 1.36651,
    "h": 1.36675,
    "l": 1.36628,
    "c": 1.36671,
    "v": 734
  },
  {
    "dt": "2021.10.14 03:00",
    "o": 1.36671,
    "h": 1.3669,
    "l": 1.36641,
    "c": 1.36662,
    "v": 1124
  },
  {
    "dt": "2021.10.14 04:00",
    "o": 1.36663,
    "h": 1.36682,
    "l": 1.36572,
    "c": 1.36593,
    "v": 1133
  },
  {
    "dt": "2021.10.14 05:00",
    "o": 1.36592,
    "h": 1.36674,
    "l": 1.3659,
    "c": 1.36666,
    "v": 858
  },
  {
    "dt": "2021.10.14 06:00",
    "o": 1.36663,
    "h": 1.36717,
    "l": 1.36657,
    "c": 1.36687,
    "v": 813
  },
  {
    "dt": "2021.10.14 07:00",
    "o": 1.36687,
    "h": 1.36697,
    "l": 1.36629,
    "c": 1.36633,
    "v": 741
  },
  {
    "dt": "2021.10.14 08:00",
    "o": 1.36635,
    "h": 1.36677,
    "l": 1.36601,
    "c": 1.36658,
    "v": 706
  },
  {
    "dt": "2021.10.14 09:00",
    "o": 1.36661,
    "h": 1.36878,
    "l": 1.36642,
    "c": 1.3687,
    "v": 2842
  },
  {
    "dt": "2021.10.14 10:00",
    "o": 1.36871,
    "h": 1.36982,
    "l": 1.36827,
    "c": 1.36965,
    "v": 3033
  },
  {
    "dt": "2021.10.14 11:00",
    "o": 1.36965,
    "h": 1.37174,
    "l": 1.36949,
    "c": 1.37116,
    "v": 2875
  },
  {
    "dt": "2021.10.14 12:00",
    "o": 1.37116,
    "h": 1.37241,
    "l": 1.37099,
    "c": 1.37219,
    "v": 2829
  },
  {
    "dt": "2021.10.14 13:00",
    "o": 1.37219,
    "h": 1.37335,
    "l": 1.37075,
    "c": 1.37095,
    "v": 2429
  },
  {
    "dt": "2021.10.14 14:00",
    "o": 1.37093,
    "h": 1.37248,
    "l": 1.37065,
    "c": 1.37151,
    "v": 2541
  },
  {
    "dt": "2021.10.14 15:00",
    "o": 1.37149,
    "h": 1.37189,
    "l": 1.36983,
    "c": 1.37151,
    "v": 3248
  },
  {
    "dt": "2021.10.14 16:00",
    "o": 1.37151,
    "h": 1.37182,
    "l": 1.3692,
    "c": 1.37004,
    "v": 3822
  },
  {
    "dt": "2021.10.14 17:00",
    "o": 1.37002,
    "h": 1.37115,
    "l": 1.36777,
    "c": 1.36827,
    "v": 3418
  },
  {
    "dt": "2021.10.14 18:00",
    "o": 1.36823,
    "h": 1.36855,
    "l": 1.36743,
    "c": 1.36836,
    "v": 3285
  },
  {
    "dt": "2021.10.14 19:00",
    "o": 1.36835,
    "h": 1.36904,
    "l": 1.3677,
    "c": 1.36842,
    "v": 2498
  },
  {
    "dt": "2021.10.14 20:00",
    "o": 1.36836,
    "h": 1.36839,
    "l": 1.36772,
    "c": 1.36796,
    "v": 1666
  },
  {
    "dt": "2021.10.14 21:00",
    "o": 1.36796,
    "h": 1.36865,
    "l": 1.36783,
    "c": 1.36856,
    "v": 1708
  },
  {
    "dt": "2021.10.14 22:00",
    "o": 1.36855,
    "h": 1.36866,
    "l": 1.36698,
    "c": 1.36706,
    "v": 2019
  },
  {
    "dt": "2021.10.14 23:00",
    "o": 1.36707,
    "h": 1.36759,
    "l": 1.36667,
    "c": 1.36688,
    "v": 894
  },
  {
    "dt": "2021.10.15 00:00",
    "o": 1.36688,
    "h": 1.36728,
    "l": 1.36684,
    "c": 1.3671,
    "v": 181
  },
  {
    "dt": "2021.10.15 01:00",
    "o": 1.36718,
    "h": 1.36753,
    "l": 1.36714,
    "c": 1.36729,
    "v": 500
  },
  {
    "dt": "2021.10.15 02:00",
    "o": 1.36728,
    "h": 1.36754,
    "l": 1.36665,
    "c": 1.36673,
    "v": 688
  },
  {
    "dt": "2021.10.15 03:00",
    "o": 1.36672,
    "h": 1.36763,
    "l": 1.36672,
    "c": 1.36759,
    "v": 1037
  },
  {
    "dt": "2021.10.15 04:00",
    "o": 1.36763,
    "h": 1.36802,
    "l": 1.36715,
    "c": 1.36731,
    "v": 1330
  },
  {
    "dt": "2021.10.15 05:00",
    "o": 1.36731,
    "h": 1.36863,
    "l": 1.367,
    "c": 1.36854,
    "v": 1098
  },
  {
    "dt": "2021.10.15 06:00",
    "o": 1.36853,
    "h": 1.36876,
    "l": 1.3683,
    "c": 1.36845,
    "v": 751
  },
  {
    "dt": "2021.10.15 07:00",
    "o": 1.36845,
    "h": 1.36882,
    "l": 1.36834,
    "c": 1.36854,
    "v": 766
  },
  {
    "dt": "2021.10.15 08:00",
    "o": 1.36855,
    "h": 1.36864,
    "l": 1.36735,
    "c": 1.36765,
    "v": 1142
  },
  {
    "dt": "2021.10.15 09:00",
    "o": 1.36765,
    "h": 1.36987,
    "l": 1.36741,
    "c": 1.36976,
    "v": 2700
  },
  {
    "dt": "2021.10.15 10:00",
    "o": 1.36975,
    "h": 1.37276,
    "l": 1.36953,
    "c": 1.37192,
    "v": 3427
  },
  {
    "dt": "2021.10.15 11:00",
    "o": 1.37195,
    "h": 1.37381,
    "l": 1.3715,
    "c": 1.37206,
    "v": 3015
  },
  {
    "dt": "2021.10.15 12:00",
    "o": 1.37205,
    "h": 1.37329,
    "l": 1.37164,
    "c": 1.37268,
    "v": 2723
  },
  {
    "dt": "2021.10.15 13:00",
    "o": 1.37266,
    "h": 1.37444,
    "l": 1.37244,
    "c": 1.3744,
    "v": 2424
  },
  {
    "dt": "2021.10.15 14:00",
    "o": 1.37443,
    "h": 1.37571,
    "l": 1.37414,
    "c": 1.375,
    "v": 2822
  },
  {
    "dt": "2021.10.15 15:00",
    "o": 1.37499,
    "h": 1.37534,
    "l": 1.37324,
    "c": 1.37329,
    "v": 3529
  },
  {
    "dt": "2021.10.15 16:00",
    "o": 1.37329,
    "h": 1.37566,
    "l": 1.37318,
    "c": 1.3754,
    "v": 3579
  },
  {
    "dt": "2021.10.15 17:00",
    "o": 1.3754,
    "h": 1.37725,
    "l": 1.37426,
    "c": 1.37685,
    "v": 3683
  },
  {
    "dt": "2021.10.15 18:00",
    "o": 1.37684,
    "h": 1.377,
    "l": 1.3752,
    "c": 1.37547,
    "v": 3140
  },
  {
    "dt": "2021.10.15 19:00",
    "o": 1.37548,
    "h": 1.37636,
    "l": 1.37531,
    "c": 1.37572,
    "v": 2037
  },
  {
    "dt": "2021.10.15 20:00",
    "o": 1.3758,
    "h": 1.3758,
    "l": 1.37536,
    "c": 1.37544,
    "v": 1688
  },
  {
    "dt": "2021.10.15 21:00",
    "o": 1.37545,
    "h": 1.37611,
    "l": 1.3746,
    "c": 1.37475,
    "v": 1763
  },
  {
    "dt": "2021.10.15 22:00",
    "o": 1.37474,
    "h": 1.37508,
    "l": 1.37393,
    "c": 1.37422,
    "v": 1468
  },
  {
    "dt": "2021.10.15 23:00",
    "o": 1.37418,
    "h": 1.37469,
    "l": 1.37386,
    "c": 1.37447,
    "v": 962
  },
  {
    "dt": "2021.10.18 00:00",
    "o": 1.37566,
    "h": 1.37566,
    "l": 1.3742,
    "c": 1.37505,
    "v": 344
  },
  {
    "dt": "2021.10.18 01:00",
    "o": 1.37518,
    "h": 1.37609,
    "l": 1.37485,
    "c": 1.37596,
    "v": 1525
  },
  {
    "dt": "2021.10.18 02:00",
    "o": 1.37601,
    "h": 1.37644,
    "l": 1.37567,
    "c": 1.37599,
    "v": 1343
  },
  {
    "dt": "2021.10.18 03:00",
    "o": 1.37604,
    "h": 1.37629,
    "l": 1.37412,
    "c": 1.37424,
    "v": 1335
  },
  {
    "dt": "2021.10.18 04:00",
    "o": 1.37424,
    "h": 1.37455,
    "l": 1.37335,
    "c": 1.37342,
    "v": 1233
  },
  {
    "dt": "2021.10.18 05:00",
    "o": 1.37344,
    "h": 1.37417,
    "l": 1.37341,
    "c": 1.37397,
    "v": 806
  },
  {
    "dt": "2021.10.18 06:00",
    "o": 1.37398,
    "h": 1.37416,
    "l": 1.37265,
    "c": 1.3729,
    "v": 1040
  },
  {
    "dt": "2021.10.18 07:00",
    "o": 1.37291,
    "h": 1.37338,
    "l": 1.37291,
    "c": 1.37297,
    "v": 741
  },
  {
    "dt": "2021.10.18 08:00",
    "o": 1.37297,
    "h": 1.37318,
    "l": 1.37232,
    "c": 1.37259,
    "v": 1138
  },
  {
    "dt": "2021.10.18 09:00",
    "o": 1.3726,
    "h": 1.37373,
    "l": 1.37186,
    "c": 1.37353,
    "v": 2637
  },
  {
    "dt": "2021.10.18 10:00",
    "o": 1.37351,
    "h": 1.37465,
    "l": 1.37275,
    "c": 1.37463,
    "v": 3095
  },
  {
    "dt": "2021.10.18 11:00",
    "o": 1.37463,
    "h": 1.37467,
    "l": 1.37156,
    "c": 1.37185,
    "v": 2982
  },
  {
    "dt": "2021.10.18 12:00",
    "o": 1.37185,
    "h": 1.37385,
    "l": 1.37178,
    "c": 1.37314,
    "v": 2623
  },
  {
    "dt": "2021.10.18 13:00",
    "o": 1.37315,
    "h": 1.37355,
    "l": 1.37229,
    "c": 1.37263,
    "v": 2318
  },
  {
    "dt": "2021.10.18 14:00",
    "o": 1.37264,
    "h": 1.37372,
    "l": 1.3722,
    "c": 1.37332,
    "v": 2739
  },
  {
    "dt": "2021.10.18 15:00",
    "o": 1.37326,
    "h": 1.37449,
    "l": 1.37265,
    "c": 1.37322,
    "v": 3528
  },
  {
    "dt": "2021.10.18 16:00",
    "o": 1.3732,
    "h": 1.37384,
    "l": 1.37207,
    "c": 1.37296,
    "v": 3982
  },
  {
    "dt": "2021.10.18 17:00",
    "o": 1.37297,
    "h": 1.37337,
    "l": 1.37181,
    "c": 1.37193,
    "v": 3454
  },
  {
    "dt": "2021.10.18 18:00",
    "o": 1.3719,
    "h": 1.37264,
    "l": 1.37083,
    "c": 1.3726,
    "v": 2809
  },
  {
    "dt": "2021.10.18 19:00",
    "o": 1.37261,
    "h": 1.37346,
    "l": 1.37227,
    "c": 1.37321,
    "v": 2055
  },
  {
    "dt": "2021.10.18 20:00",
    "o": 1.3732,
    "h": 1.37391,
    "l": 1.37303,
    "c": 1.37358,
    "v": 1633
  },
  {
    "dt": "2021.10.18 21:00",
    "o": 1.37358,
    "h": 1.37366,
    "l": 1.37283,
    "c": 1.37284,
    "v": 1483
  },
  {
    "dt": "2021.10.18 22:00",
    "o": 1.37283,
    "h": 1.37328,
    "l": 1.37253,
    "c": 1.37308,
    "v": 1581
  },
  {
    "dt": "2021.10.18 23:00",
    "o": 1.37307,
    "h": 1.37307,
    "l": 1.37215,
    "c": 1.37215,
    "v": 776
  },
  {
    "dt": "2021.10.19 00:00",
    "o": 1.3721,
    "h": 1.37284,
    "l": 1.37204,
    "c": 1.37259,
    "v": 372
  },
  {
    "dt": "2021.10.19 01:00",
    "o": 1.37263,
    "h": 1.37303,
    "l": 1.37263,
    "c": 1.3729,
    "v": 1461
  },
  {
    "dt": "2021.10.19 02:00",
    "o": 1.3729,
    "h": 1.37355,
    "l": 1.37277,
    "c": 1.37347,
    "v": 629
  },
  {
    "dt": "2021.10.19 03:00",
    "o": 1.37349,
    "h": 1.37507,
    "l": 1.37349,
    "c": 1.37505,
    "v": 1009
  },
  {
    "dt": "2021.10.19 04:00",
    "o": 1.37505,
    "h": 1.3763,
    "l": 1.37465,
    "c": 1.37569,
    "v": 1674
  },
  {
    "dt": "2021.10.19 05:00",
    "o": 1.37567,
    "h": 1.37627,
    "l": 1.37531,
    "c": 1.37626,
    "v": 1085
  },
  {
    "dt": "2021.10.19 06:00",
    "o": 1.37626,
    "h": 1.37655,
    "l": 1.37592,
    "c": 1.37645,
    "v": 885
  },
  {
    "dt": "2021.10.19 07:00",
    "o": 1.37645,
    "h": 1.37737,
    "l": 1.37644,
    "c": 1.37683,
    "v": 1003
  },
  {
    "dt": "2021.10.19 08:00",
    "o": 1.37685,
    "h": 1.37781,
    "l": 1.37674,
    "c": 1.37732,
    "v": 1078
  },
  {
    "dt": "2021.10.19 09:00",
    "o": 1.3773,
    "h": 1.37794,
    "l": 1.37682,
    "c": 1.37719,
    "v": 2514
  },
  {
    "dt": "2021.10.19 10:00",
    "o": 1.37719,
    "h": 1.37871,
    "l": 1.37681,
    "c": 1.37788,
    "v": 3411
  },
  {
    "dt": "2021.10.19 11:00",
    "o": 1.37787,
    "h": 1.37938,
    "l": 1.37776,
    "c": 1.37928,
    "v": 2680
  },
  {
    "dt": "2021.10.19 12:00",
    "o": 1.37927,
    "h": 1.38151,
    "l": 1.37868,
    "c": 1.38148,
    "v": 2770
  },
  {
    "dt": "2021.10.19 13:00",
    "o": 1.38142,
    "h": 1.3831,
    "l": 1.38075,
    "c": 1.38244,
    "v": 2896
  },
  {
    "dt": "2021.10.19 14:00",
    "o": 1.38245,
    "h": 1.38329,
    "l": 1.38176,
    "c": 1.38238,
    "v": 2520
  },
  {
    "dt": "2021.10.19 15:00",
    "o": 1.38244,
    "h": 1.38312,
    "l": 1.38056,
    "c": 1.38127,
    "v": 2963
  },
  {
    "dt": "2021.10.19 16:00",
    "o": 1.38127,
    "h": 1.38183,
    "l": 1.3804,
    "c": 1.38131,
    "v": 3519
  },
  {
    "dt": "2021.10.19 17:00",
    "o": 1.38131,
    "h": 1.38167,
    "l": 1.37906,
    "c": 1.37983,
    "v": 3529
  },
  {
    "dt": "2021.10.19 18:00",
    "o": 1.37982,
    "h": 1.38063,
    "l": 1.37928,
    "c": 1.38049,
    "v": 2827
  },
  {
    "dt": "2021.10.19 19:00",
    "o": 1.3805,
    "h": 1.38057,
    "l": 1.37917,
    "c": 1.37959,
    "v": 1677
  },
  {
    "dt": "2021.10.19 20:00",
    "o": 1.37959,
    "h": 1.3809,
    "l": 1.37957,
    "c": 1.38062,
    "v": 1545
  },
  {
    "dt": "2021.10.19 21:00",
    "o": 1.38061,
    "h": 1.38116,
    "l": 1.37958,
    "c": 1.37981,
    "v": 1662
  },
  {
    "dt": "2021.10.19 22:00",
    "o": 1.37981,
    "h": 1.37981,
    "l": 1.37906,
    "c": 1.37911,
    "v": 1648
  },
  {
    "dt": "2021.10.19 23:00",
    "o": 1.37912,
    "h": 1.37928,
    "l": 1.37876,
    "c": 1.37918,
    "v": 819
  },
  {
    "dt": "2021.10.20 00:00",
    "o": 1.37919,
    "h": 1.37965,
    "l": 1.37861,
    "c": 1.37906,
    "v": 216
  },
  {
    "dt": "2021.10.20 01:00",
    "o": 1.37908,
    "h": 1.37942,
    "l": 1.37903,
    "c": 1.37936,
    "v": 451
  },
  {
    "dt": "2021.10.20 02:00",
    "o": 1.37939,
    "h": 1.37941,
    "l": 1.37897,
    "c": 1.37911,
    "v": 550
  },
  {
    "dt": "2021.10.20 03:00",
    "o": 1.37914,
    "h": 1.37991,
    "l": 1.37871,
    "c": 1.3798,
    "v": 1795
  },
  {
    "dt": "2021.10.20 04:00",
    "o": 1.3798,
    "h": 1.38142,
    "l": 1.37905,
    "c": 1.38065,
    "v": 2115
  },
  {
    "dt": "2021.10.20 05:00",
    "o": 1.38057,
    "h": 1.38086,
    "l": 1.37991,
    "c": 1.38039,
    "v": 1419
  },
  {
    "dt": "2021.10.20 06:00",
    "o": 1.3804,
    "h": 1.38088,
    "l": 1.38002,
    "c": 1.38066,
    "v": 799
  },
  {
    "dt": "2021.10.20 07:00",
    "o": 1.38064,
    "h": 1.38124,
    "l": 1.38056,
    "c": 1.38067,
    "v": 1240
  },
  {
    "dt": "2021.10.20 08:00",
    "o": 1.38067,
    "h": 1.38089,
    "l": 1.37987,
    "c": 1.38044,
    "v": 1356
  },
  {
    "dt": "2021.10.20 09:00",
    "o": 1.38046,
    "h": 1.38064,
    "l": 1.37797,
    "c": 1.37814,
    "v": 2464
  },
  {
    "dt": "2021.10.20 10:00",
    "o": 1.37815,
    "h": 1.37913,
    "l": 1.37676,
    "c": 1.37726,
    "v": 3536
  },
  {
    "dt": "2021.10.20 11:00",
    "o": 1.37726,
    "h": 1.37885,
    "l": 1.37716,
    "c": 1.37776,
    "v": 2543
  },
  {
    "dt": "2021.10.20 12:00",
    "o": 1.37767,
    "h": 1.37799,
    "l": 1.37633,
    "c": 1.37717,
    "v": 1845
  },
  {
    "dt": "2021.10.20 13:00",
    "o": 1.37715,
    "h": 1.37717,
    "l": 1.3751,
    "c": 1.37607,
    "v": 2353
  },
  {
    "dt": "2021.10.20 14:00",
    "o": 1.37606,
    "h": 1.37647,
    "l": 1.37415,
    "c": 1.37419,
    "v": 2258
  },
  {
    "dt": "2021.10.20 15:00",
    "o": 1.37419,
    "h": 1.37852,
    "l": 1.37419,
    "c": 1.37805,
    "v": 3476
  },
  {
    "dt": "2021.10.20 16:00",
    "o": 1.37807,
    "h": 1.37907,
    "l": 1.37739,
    "c": 1.37846,
    "v": 3277
  },
  {
    "dt": "2021.10.20 17:00",
    "o": 1.37846,
    "h": 1.3821,
    "l": 1.3779,
    "c": 1.38144,
    "v": 3547
  },
  {
    "dt": "2021.10.20 18:00",
    "o": 1.38134,
    "h": 1.38235,
    "l": 1.38085,
    "c": 1.38197,
    "v": 2851
  },
  {
    "dt": "2021.10.20 19:00",
    "o": 1.38193,
    "h": 1.38297,
    "l": 1.38162,
    "c": 1.38287,
    "v": 2018
  },
  {
    "dt": "2021.10.20 20:00",
    "o": 1.38286,
    "h": 1.38302,
    "l": 1.382,
    "c": 1.38286,
    "v": 2428
  },
  {
    "dt": "2021.10.20 21:00",
    "o": 1.38285,
    "h": 1.38335,
    "l": 1.38237,
    "c": 1.3831,
    "v": 1937
  },
  {
    "dt": "2021.10.20 22:00",
    "o": 1.38309,
    "h": 1.38319,
    "l": 1.38229,
    "c": 1.38248,
    "v": 1555
  },
  {
    "dt": "2021.10.20 23:00",
    "o": 1.3825,
    "h": 1.38268,
    "l": 1.3821,
    "c": 1.38212,
    "v": 873
  },
  {
    "dt": "2021.10.21 00:00",
    "o": 1.38095,
    "h": 1.38232,
    "l": 1.38076,
    "c": 1.38215,
    "v": 214
  },
  {
    "dt": "2021.10.21 01:00",
    "o": 1.38205,
    "h": 1.38271,
    "l": 1.38203,
    "c": 1.38233,
    "v": 530
  },
  {
    "dt": "2021.10.21 02:00",
    "o": 1.38229,
    "h": 1.3826,
    "l": 1.38209,
    "c": 1.38209,
    "v": 659
  },
  {
    "dt": "2021.10.21 03:00",
    "o": 1.38209,
    "h": 1.3827,
    "l": 1.38209,
    "c": 1.38261,
    "v": 1297
  },
  {
    "dt": "2021.10.21 04:00",
    "o": 1.38261,
    "h": 1.38277,
    "l": 1.38206,
    "c": 1.38267,
    "v": 1641
  },
  {
    "dt": "2021.10.21 05:00",
    "o": 1.38266,
    "h": 1.383,
    "l": 1.38245,
    "c": 1.38254,
    "v": 1623
  },
  {
    "dt": "2021.10.21 06:00",
    "o": 1.38258,
    "h": 1.38323,
    "l": 1.38252,
    "c": 1.38309,
    "v": 1050
  },
  {
    "dt": "2021.10.21 07:00",
    "o": 1.38308,
    "h": 1.38316,
    "l": 1.38122,
    "c": 1.3815,
    "v": 1696
  },
  {
    "dt": "2021.10.21 08:00",
    "o": 1.38147,
    "h": 1.38189,
    "l": 1.3805,
    "c": 1.38074,
    "v": 1561
  },
  {
    "dt": "2021.10.21 09:00",
    "o": 1.38072,
    "h": 1.38192,
    "l": 1.37949,
    "c": 1.38053,
    "v": 2837
  },
  {
    "dt": "2021.10.21 10:00",
    "o": 1.3805,
    "h": 1.38148,
    "l": 1.37908,
    "c": 1.38147,
    "v": 2926
  },
  {
    "dt": "2021.10.21 11:00",
    "o": 1.38148,
    "h": 1.38162,
    "l": 1.37979,
    "c": 1.38028,
    "v": 2432
  },
  {
    "dt": "2021.10.21 12:00",
    "o": 1.38027,
    "h": 1.38079,
    "l": 1.37851,
    "c": 1.37985,
    "v": 2158
  },
  {
    "dt": "2021.10.21 13:00",
    "o": 1.37984,
    "h": 1.38041,
    "l": 1.37878,
    "c": 1.3803,
    "v": 2186
  },
  {
    "dt": "2021.10.21 14:00",
    "o": 1.38036,
    "h": 1.38148,
    "l": 1.37984,
    "c": 1.38105,
    "v": 2361
  },
  {
    "dt": "2021.10.21 15:00",
    "o": 1.38103,
    "h": 1.38153,
    "l": 1.37945,
    "c": 1.38067,
    "v": 3555
  },
  {
    "dt": "2021.10.21 16:00",
    "o": 1.38071,
    "h": 1.38186,
    "l": 1.37947,
    "c": 1.38146,
    "v": 3791
  },
  {
    "dt": "2021.10.21 17:00",
    "o": 1.3814,
    "h": 1.38236,
    "l": 1.38046,
    "c": 1.38195,
    "v": 4048
  },
  {
    "dt": "2021.10.21 18:00",
    "o": 1.38198,
    "h": 1.38198,
    "l": 1.38024,
    "c": 1.38093,
    "v": 3141
  },
  {
    "dt": "2021.10.21 19:00",
    "o": 1.38093,
    "h": 1.38124,
    "l": 1.37963,
    "c": 1.37982,
    "v": 2095
  },
  {
    "dt": "2021.10.21 20:00",
    "o": 1.37978,
    "h": 1.37978,
    "l": 1.37799,
    "c": 1.37806,
    "v": 2348
  },
  {
    "dt": "2021.10.21 21:00",
    "o": 1.37807,
    "h": 1.37856,
    "l": 1.37752,
    "c": 1.37834,
    "v": 2101
  },
  {
    "dt": "2021.10.21 22:00",
    "o": 1.37835,
    "h": 1.37883,
    "l": 1.37813,
    "c": 1.37864,
    "v": 1729
  },
  {
    "dt": "2021.10.21 23:00",
    "o": 1.37863,
    "h": 1.37933,
    "l": 1.37838,
    "c": 1.37891,
    "v": 1436
  },
  {
    "dt": "2021.10.22 00:00",
    "o": 1.37909,
    "h": 1.37944,
    "l": 1.3786,
    "c": 1.37913,
    "v": 370
  },
  {
    "dt": "2021.10.22 01:00",
    "o": 1.3792,
    "h": 1.37939,
    "l": 1.37912,
    "c": 1.37922,
    "v": 394
  },
  {
    "dt": "2021.10.22 02:00",
    "o": 1.37923,
    "h": 1.37942,
    "l": 1.37897,
    "c": 1.37902,
    "v": 915
  },
  {
    "dt": "2021.10.22 03:00",
    "o": 1.37898,
    "h": 1.37944,
    "l": 1.37817,
    "c": 1.37896,
    "v": 1227
  },
  {
    "dt": "2021.10.22 04:00",
    "o": 1.37895,
    "h": 1.3808,
    "l": 1.37893,
    "c": 1.38009,
    "v": 1952
  },
  {
    "dt": "2021.10.22 05:00",
    "o": 1.3801,
    "h": 1.38015,
    "l": 1.37886,
    "c": 1.37917,
    "v": 1258
  },
  {
    "dt": "2021.10.22 06:00",
    "o": 1.37917,
    "h": 1.37966,
    "l": 1.37904,
    "c": 1.37948,
    "v": 1082
  },
  {
    "dt": "2021.10.22 07:00",
    "o": 1.37946,
    "h": 1.37986,
    "l": 1.37923,
    "c": 1.37977,
    "v": 864
  },
  {
    "dt": "2021.10.22 08:00",
    "o": 1.37979,
    "h": 1.38025,
    "l": 1.37933,
    "c": 1.37945,
    "v": 1374
  },
  {
    "dt": "2021.10.22 09:00",
    "o": 1.37935,
    "h": 1.38013,
    "l": 1.37841,
    "c": 1.37928,
    "v": 2836
  },
  {
    "dt": "2021.10.22 10:00",
    "o": 1.37919,
    "h": 1.37987,
    "l": 1.37764,
    "c": 1.37766,
    "v": 3328
  },
  {
    "dt": "2021.10.22 11:00",
    "o": 1.37766,
    "h": 1.38103,
    "l": 1.377,
    "c": 1.38092,
    "v": 3153
  },
  {
    "dt": "2021.10.22 12:00",
    "o": 1.38091,
    "h": 1.38137,
    "l": 1.37955,
    "c": 1.38024,
    "v": 2588
  },
  {
    "dt": "2021.10.22 13:00",
    "o": 1.38024,
    "h": 1.38034,
    "l": 1.37808,
    "c": 1.37835,
    "v": 2462
  },
  {
    "dt": "2021.10.22 14:00",
    "o": 1.37832,
    "h": 1.37994,
    "l": 1.37788,
    "c": 1.37822,
    "v": 2494
  },
  {
    "dt": "2021.10.22 15:00",
    "o": 1.37823,
    "h": 1.37928,
    "l": 1.37795,
    "c": 1.37864,
    "v": 3524
  },
  {
    "dt": "2021.10.22 16:00",
    "o": 1.37862,
    "h": 1.37916,
    "l": 1.37735,
    "c": 1.37863,
    "v": 3482
  },
  {
    "dt": "2021.10.22 17:00",
    "o": 1.37857,
    "h": 1.37895,
    "l": 1.37599,
    "c": 1.37707,
    "v": 3690
  },
  {
    "dt": "2021.10.22 18:00",
    "o": 1.37706,
    "h": 1.37825,
    "l": 1.37365,
    "c": 1.37422,
    "v": 4524
  },
  {
    "dt": "2021.10.22 19:00",
    "o": 1.37418,
    "h": 1.3756,
    "l": 1.37349,
    "c": 1.37541,
    "v": 3764
  },
  {
    "dt": "2021.10.22 20:00",
    "o": 1.37542,
    "h": 1.37582,
    "l": 1.37399,
    "c": 1.37423,
    "v": 2667
  },
  {
    "dt": "2021.10.22 21:00",
    "o": 1.37423,
    "h": 1.3757,
    "l": 1.3741,
    "c": 1.37555,
    "v": 2380
  },
  {
    "dt": "2021.10.22 22:00",
    "o": 1.37555,
    "h": 1.37612,
    "l": 1.37493,
    "c": 1.37612,
    "v": 1623
  },
  {
    "dt": "2021.10.22 23:00",
    "o": 1.37608,
    "h": 1.37618,
    "l": 1.3751,
    "c": 1.3751,
    "v": 1072
  },
  {
    "dt": "2021.10.25 00:00",
    "o": 1.37455,
    "h": 1.37544,
    "l": 1.37407,
    "c": 1.37464,
    "v": 107
  },
  {
    "dt": "2021.10.25 01:00",
    "o": 1.37484,
    "h": 1.37631,
    "l": 1.37484,
    "c": 1.37631,
    "v": 670
  },
  {
    "dt": "2021.10.25 02:00",
    "o": 1.37631,
    "h": 1.37638,
    "l": 1.37529,
    "c": 1.37607,
    "v": 1319
  },
  {
    "dt": "2021.10.25 03:00",
    "o": 1.3761,
    "h": 1.37751,
    "l": 1.37599,
    "c": 1.37709,
    "v": 2089
  },
  {
    "dt": "2021.10.25 04:00",
    "o": 1.3771,
    "h": 1.3775,
    "l": 1.37585,
    "c": 1.37667,
    "v": 2044
  },
  {
    "dt": "2021.10.25 05:00",
    "o": 1.37666,
    "h": 1.37737,
    "l": 1.37636,
    "c": 1.37729,
    "v": 1609
  },
  {
    "dt": "2021.10.25 06:00",
    "o": 1.37725,
    "h": 1.37838,
    "l": 1.37724,
    "c": 1.37805,
    "v": 1646
  },
  {
    "dt": "2021.10.25 07:00",
    "o": 1.37803,
    "h": 1.37839,
    "l": 1.37798,
    "c": 1.37816,
    "v": 1026
  },
  {
    "dt": "2021.10.25 08:00",
    "o": 1.37816,
    "h": 1.37827,
    "l": 1.37735,
    "c": 1.37797,
    "v": 1351
  },
  {
    "dt": "2021.10.25 09:00",
    "o": 1.37795,
    "h": 1.37825,
    "l": 1.37585,
    "c": 1.37692,
    "v": 3009
  },
  {
    "dt": "2021.10.25 10:00",
    "o": 1.377,
    "h": 1.37898,
    "l": 1.3767,
    "c": 1.37867,
    "v": 3849
  },
  {
    "dt": "2021.10.25 11:00",
    "o": 1.37867,
    "h": 1.3791,
    "l": 1.37695,
    "c": 1.37695,
    "v": 3566
  },
  {
    "dt": "2021.10.25 12:00",
    "o": 1.37697,
    "h": 1.37754,
    "l": 1.37418,
    "c": 1.37507,
    "v": 3360
  },
  {
    "dt": "2021.10.25 13:00",
    "o": 1.37506,
    "h": 1.37734,
    "l": 1.37492,
    "c": 1.37698,
    "v": 2831
  },
  {
    "dt": "2021.10.25 14:00",
    "o": 1.37699,
    "h": 1.37741,
    "l": 1.37507,
    "c": 1.37535,
    "v": 2846
  },
  {
    "dt": "2021.10.25 15:00",
    "o": 1.37531,
    "h": 1.37597,
    "l": 1.37408,
    "c": 1.37475,
    "v": 3488
  },
  {
    "dt": "2021.10.25 16:00",
    "o": 1.37475,
    "h": 1.37718,
    "l": 1.37446,
    "c": 1.37581,
    "v": 4230
  },
  {
    "dt": "2021.10.25 17:00",
    "o": 1.37578,
    "h": 1.3772,
    "l": 1.37518,
    "c": 1.37677,
    "v": 4354
  },
  {
    "dt": "2021.10.25 18:00",
    "o": 1.37675,
    "h": 1.3779,
    "l": 1.37644,
    "c": 1.37722,
    "v": 2967
  },
  {
    "dt": "2021.10.25 19:00",
    "o": 1.37719,
    "h": 1.37719,
    "l": 1.37556,
    "c": 1.3758,
    "v": 2223
  },
  {
    "dt": "2021.10.25 20:00",
    "o": 1.3758,
    "h": 1.37702,
    "l": 1.3758,
    "c": 1.37677,
    "v": 1919
  },
  {
    "dt": "2021.10.25 21:00",
    "o": 1.37675,
    "h": 1.37748,
    "l": 1.37675,
    "c": 1.37699,
    "v": 1864
  },
  {
    "dt": "2021.10.25 22:00",
    "o": 1.37703,
    "h": 1.37703,
    "l": 1.37622,
    "c": 1.37654,
    "v": 1332
  },
  {
    "dt": "2021.10.25 23:00",
    "o": 1.37655,
    "h": 1.37687,
    "l": 1.37625,
    "c": 1.37641,
    "v": 835
  },
  {
    "dt": "2021.10.26 00:00",
    "o": 1.37642,
    "h": 1.37657,
    "l": 1.37628,
    "c": 1.37654,
    "v": 108
  },
  {
    "dt": "2021.10.26 01:00",
    "o": 1.37649,
    "h": 1.37656,
    "l": 1.37614,
    "c": 1.37615,
    "v": 322
  },
  {
    "dt": "2021.10.26 02:00",
    "o": 1.37615,
    "h": 1.37632,
    "l": 1.37576,
    "c": 1.37624,
    "v": 447
  },
  {
    "dt": "2021.10.26 03:00",
    "o": 1.37625,
    "h": 1.37654,
    "l": 1.37561,
    "c": 1.37587,
    "v": 1456
  },
  {
    "dt": "2021.10.26 04:00",
    "o": 1.37586,
    "h": 1.3771,
    "l": 1.37564,
    "c": 1.37636,
    "v": 2018
  },
  {
    "dt": "2021.10.26 05:00",
    "o": 1.37635,
    "h": 1.37678,
    "l": 1.37607,
    "c": 1.37647,
    "v": 1601
  },
  {
    "dt": "2021.10.26 06:00",
    "o": 1.37645,
    "h": 1.37656,
    "l": 1.37605,
    "c": 1.37647,
    "v": 923
  },
  {
    "dt": "2021.10.26 07:00",
    "o": 1.37647,
    "h": 1.37648,
    "l": 1.37568,
    "c": 1.37603,
    "v": 1224
  },
  {
    "dt": "2021.10.26 08:00",
    "o": 1.37604,
    "h": 1.37617,
    "l": 1.37561,
    "c": 1.37569,
    "v": 1637
  },
  {
    "dt": "2021.10.26 09:00",
    "o": 1.37572,
    "h": 1.37806,
    "l": 1.37566,
    "c": 1.37789,
    "v": 2715
  },
  {
    "dt": "2021.10.26 10:00",
    "o": 1.37795,
    "h": 1.37871,
    "l": 1.37608,
    "c": 1.37697,
    "v": 3619
  },
  {
    "dt": "2021.10.26 11:00",
    "o": 1.37698,
    "h": 1.37855,
    "l": 1.37646,
    "c": 1.37835,
    "v": 3495
  },
  {
    "dt": "2021.10.26 12:00",
    "o": 1.37833,
    "h": 1.37956,
    "l": 1.37789,
    "c": 1.37922,
    "v": 2847
  },
  {
    "dt": "2021.10.26 13:00",
    "o": 1.37918,
    "h": 1.3828,
    "l": 1.37912,
    "c": 1.38243,
    "v": 2794
  },
  {
    "dt": "2021.10.26 14:00",
    "o": 1.38243,
    "h": 1.38287,
    "l": 1.38059,
    "c": 1.38059,
    "v": 2737
  },
  {
    "dt": "2021.10.26 15:00",
    "o": 1.38059,
    "h": 1.38089,
    "l": 1.37897,
    "c": 1.38047,
    "v": 3697
  },
  {
    "dt": "2021.10.26 16:00",
    "o": 1.38048,
    "h": 1.38061,
    "l": 1.37846,
    "c": 1.37956,
    "v": 3735
  },
  {
    "dt": "2021.10.26 17:00",
    "o": 1.37956,
    "h": 1.38027,
    "l": 1.37868,
    "c": 1.379,
    "v": 4063
  },
  {
    "dt": "2021.10.26 18:00",
    "o": 1.37896,
    "h": 1.37936,
    "l": 1.37646,
    "c": 1.37688,
    "v": 3611
  },
  {
    "dt": "2021.10.26 19:00",
    "o": 1.37691,
    "h": 1.37696,
    "l": 1.37576,
    "c": 1.37594,
    "v": 2846
  },
  {
    "dt": "2021.10.26 20:00",
    "o": 1.37595,
    "h": 1.37659,
    "l": 1.37575,
    "c": 1.3764,
    "v": 2674
  },
  {
    "dt": "2021.10.26 21:00",
    "o": 1.3764,
    "h": 1.377,
    "l": 1.37615,
    "c": 1.37649,
    "v": 2103
  },
  {
    "dt": "2021.10.26 22:00",
    "o": 1.3765,
    "h": 1.37664,
    "l": 1.37598,
    "c": 1.37628,
    "v": 2036
  },
  {
    "dt": "2021.10.26 23:00",
    "o": 1.37627,
    "h": 1.37657,
    "l": 1.37595,
    "c": 1.37632,
    "v": 1113
  },
  {
    "dt": "2021.10.27 00:00",
    "o": 1.37636,
    "h": 1.37658,
    "l": 1.37587,
    "c": 1.37632,
    "v": 255
  },
  {
    "dt": "2021.10.27 01:00",
    "o": 1.37627,
    "h": 1.37647,
    "l": 1.37627,
    "c": 1.37636,
    "v": 621
  },
  {
    "dt": "2021.10.27 02:00",
    "o": 1.37636,
    "h": 1.37665,
    "l": 1.37616,
    "c": 1.37642,
    "v": 466
  },
  {
    "dt": "2021.10.27 03:00",
    "o": 1.37643,
    "h": 1.37774,
    "l": 1.37643,
    "c": 1.37669,
    "v": 1875
  },
  {
    "dt": "2021.10.27 04:00",
    "o": 1.37664,
    "h": 1.37734,
    "l": 1.37644,
    "c": 1.37651,
    "v": 1332
  },
  {
    "dt": "2021.10.27 05:00",
    "o": 1.37652,
    "h": 1.37738,
    "l": 1.37652,
    "c": 1.37726,
    "v": 1237
  },
  {
    "dt": "2021.10.27 06:00",
    "o": 1.37726,
    "h": 1.37749,
    "l": 1.37683,
    "c": 1.37686,
    "v": 1318
  },
  {
    "dt": "2021.10.27 07:00",
    "o": 1.37688,
    "h": 1.37737,
    "l": 1.37664,
    "c": 1.37737,
    "v": 756
  },
  {
    "dt": "2021.10.27 08:00",
    "o": 1.37735,
    "h": 1.37741,
    "l": 1.37585,
    "c": 1.37595,
    "v": 1434
  },
  {
    "dt": "2021.10.27 09:00",
    "o": 1.37597,
    "h": 1.3778,
    "l": 1.37576,
    "c": 1.37729,
    "v": 2559
  },
  {
    "dt": "2021.10.27 10:00",
    "o": 1.37728,
    "h": 1.37801,
    "l": 1.37424,
    "c": 1.37454,
    "v": 3727
  },
  {
    "dt": "2021.10.27 11:00",
    "o": 1.37455,
    "h": 1.3759,
    "l": 1.37215,
    "c": 1.37226,
    "v": 3600
  },
  {
    "dt": "2021.10.27 12:00",
    "o": 1.37226,
    "h": 1.37371,
    "l": 1.37184,
    "c": 1.37324,
    "v": 3278
  },
  {
    "dt": "2021.10.27 13:00",
    "o": 1.37326,
    "h": 1.37373,
    "l": 1.37115,
    "c": 1.37116,
    "v": 3117
  },
  {
    "dt": "2021.10.27 14:00",
    "o": 1.37117,
    "h": 1.37337,
    "l": 1.37094,
    "c": 1.37319,
    "v": 3101
  },
  {
    "dt": "2021.10.27 15:00",
    "o": 1.37315,
    "h": 1.37535,
    "l": 1.37258,
    "c": 1.37377,
    "v": 3847
  },
  {
    "dt": "2021.10.27 16:00",
    "o": 1.37378,
    "h": 1.37438,
    "l": 1.37216,
    "c": 1.37423,
    "v": 4317
  },
  {
    "dt": "2021.10.27 17:00",
    "o": 1.37428,
    "h": 1.37513,
    "l": 1.37084,
    "c": 1.37145,
    "v": 5476
  },
  {
    "dt": "2021.10.27 18:00",
    "o": 1.37145,
    "h": 1.37376,
    "l": 1.37113,
    "c": 1.37374,
    "v": 3970
  },
  {
    "dt": "2021.10.27 19:00",
    "o": 1.37379,
    "h": 1.37509,
    "l": 1.37358,
    "c": 1.37466,
    "v": 2993
  },
  {
    "dt": "2021.10.27 20:00",
    "o": 1.37465,
    "h": 1.37583,
    "l": 1.37454,
    "c": 1.37549,
    "v": 2982
  },
  {
    "dt": "2021.10.27 21:00",
    "o": 1.37552,
    "h": 1.37577,
    "l": 1.37445,
    "c": 1.37448,
    "v": 2288
  },
  {
    "dt": "2021.10.27 22:00",
    "o": 1.37453,
    "h": 1.3746,
    "l": 1.37311,
    "c": 1.37362,
    "v": 2388
  },
  {
    "dt": "2021.10.27 23:00",
    "o": 1.37358,
    "h": 1.37402,
    "l": 1.37351,
    "c": 1.374,
    "v": 882
  },
  {
    "dt": "2021.10.28 00:00",
    "o": 1.37397,
    "h": 1.37397,
    "l": 1.37358,
    "c": 1.37368,
    "v": 134
  },
  {
    "dt": "2021.10.28 01:00",
    "o": 1.37388,
    "h": 1.37403,
    "l": 1.3737,
    "c": 1.37382,
    "v": 565
  },
  {
    "dt": "2021.10.28 02:00",
    "o": 1.37369,
    "h": 1.37377,
    "l": 1.37298,
    "c": 1.3731,
    "v": 969
  },
  {
    "dt": "2021.10.28 03:00",
    "o": 1.37309,
    "h": 1.37358,
    "l": 1.37229,
    "c": 1.37269,
    "v": 1808
  },
  {
    "dt": "2021.10.28 04:00",
    "o": 1.3727,
    "h": 1.37364,
    "l": 1.37212,
    "c": 1.37347,
    "v": 1782
  },
  {
    "dt": "2021.10.28 05:00",
    "o": 1.37346,
    "h": 1.37435,
    "l": 1.37342,
    "c": 1.37415,
    "v": 2145
  },
  {
    "dt": "2021.10.28 06:00",
    "o": 1.37412,
    "h": 1.37454,
    "l": 1.37381,
    "c": 1.37448,
    "v": 1600
  },
  {
    "dt": "2021.10.28 07:00",
    "o": 1.37448,
    "h": 1.37464,
    "l": 1.37372,
    "c": 1.37444,
    "v": 1199
  },
  {
    "dt": "2021.10.28 08:00",
    "o": 1.37447,
    "h": 1.37462,
    "l": 1.37393,
    "c": 1.37421,
    "v": 1411
  },
  {
    "dt": "2021.10.28 09:00",
    "o": 1.37423,
    "h": 1.37547,
    "l": 1.37342,
    "c": 1.37491,
    "v": 2992
  },
  {
    "dt": "2021.10.28 10:00",
    "o": 1.37486,
    "h": 1.37731,
    "l": 1.37475,
    "c": 1.37585,
    "v": 3910
  },
  {
    "dt": "2021.10.28 11:00",
    "o": 1.37586,
    "h": 1.37658,
    "l": 1.3742,
    "c": 1.37491,
    "v": 3557
  },
  {
    "dt": "2021.10.28 12:00",
    "o": 1.3749,
    "h": 1.37573,
    "l": 1.37379,
    "c": 1.37546,
    "v": 3166
  },
  {
    "dt": "2021.10.28 13:00",
    "o": 1.37547,
    "h": 1.37601,
    "l": 1.37497,
    "c": 1.37598,
    "v": 2814
  },
  {
    "dt": "2021.10.28 14:00",
    "o": 1.37604,
    "h": 1.37632,
    "l": 1.37434,
    "c": 1.37486,
    "v": 3400
  },
  {
    "dt": "2021.10.28 15:00",
    "o": 1.37485,
    "h": 1.37588,
    "l": 1.37294,
    "c": 1.37579,
    "v": 4838
  },
  {
    "dt": "2021.10.28 16:00",
    "o": 1.37579,
    "h": 1.37864,
    "l": 1.37545,
    "c": 1.3782,
    "v": 5467
  },
  {
    "dt": "2021.10.28 17:00",
    "o": 1.3781,
    "h": 1.38067,
    "l": 1.37807,
    "c": 1.37979,
    "v": 4810
  },
  {
    "dt": "2021.10.28 18:00",
    "o": 1.37977,
    "h": 1.38143,
    "l": 1.37957,
    "c": 1.38032,
    "v": 4104
  },
  {
    "dt": "2021.10.28 19:00",
    "o": 1.38031,
    "h": 1.38059,
    "l": 1.37878,
    "c": 1.37911,
    "v": 3149
  },
  {
    "dt": "2021.10.28 20:00",
    "o": 1.37908,
    "h": 1.37963,
    "l": 1.37848,
    "c": 1.37898,
    "v": 3097
  },
  {
    "dt": "2021.10.28 21:00",
    "o": 1.37897,
    "h": 1.37933,
    "l": 1.37853,
    "c": 1.3787,
    "v": 2460
  },
  {
    "dt": "2021.10.28 22:00",
    "o": 1.3787,
    "h": 1.37931,
    "l": 1.37847,
    "c": 1.37878,
    "v": 2498
  },
  {
    "dt": "2021.10.28 23:00",
    "o": 1.37877,
    "h": 1.37959,
    "l": 1.37827,
    "c": 1.37827,
    "v": 1136
  },
  {
    "dt": "2021.10.29 00:00",
    "o": 1.37829,
    "h": 1.37935,
    "l": 1.37829,
    "c": 1.37934,
    "v": 179
  },
  {
    "dt": "2021.10.29 01:00",
    "o": 1.37931,
    "h": 1.3798,
    "l": 1.37905,
    "c": 1.3798,
    "v": 743
  },
  {
    "dt": "2021.10.29 02:00",
    "o": 1.37977,
    "h": 1.37997,
    "l": 1.3794,
    "c": 1.37976,
    "v": 983
  },
  {
    "dt": "2021.10.29 03:00",
    "o": 1.37977,
    "h": 1.38031,
    "l": 1.37901,
    "c": 1.37941,
    "v": 2170
  },
  {
    "dt": "2021.10.29 04:00",
    "o": 1.3794,
    "h": 1.37951,
    "l": 1.37872,
    "c": 1.37922,
    "v": 1830
  },
  {
    "dt": "2021.10.29 05:00",
    "o": 1.37924,
    "h": 1.37951,
    "l": 1.37867,
    "c": 1.37949,
    "v": 1711
  },
  {
    "dt": "2021.10.29 06:00",
    "o": 1.3795,
    "h": 1.37963,
    "l": 1.3792,
    "c": 1.37939,
    "v": 1288
  },
  {
    "dt": "2021.10.29 07:00",
    "o": 1.37939,
    "h": 1.37982,
    "l": 1.37871,
    "c": 1.37871,
    "v": 1176
  },
  {
    "dt": "2021.10.29 08:00",
    "o": 1.37872,
    "h": 1.3794,
    "l": 1.37856,
    "c": 1.37876,
    "v": 1896
  },
  {
    "dt": "2021.10.29 09:00",
    "o": 1.37883,
    "h": 1.37932,
    "l": 1.37776,
    "c": 1.37786,
    "v": 2967
  },
  {
    "dt": "2021.10.29 10:00",
    "o": 1.37785,
    "h": 1.3801,
    "l": 1.37767,
    "c": 1.37886,
    "v": 3400
  },
  {
    "dt": "2021.10.29 11:00",
    "o": 1.37887,
    "h": 1.37889,
    "l": 1.37683,
    "c": 1.37709,
    "v": 3305
  },
  {
    "dt": "2021.10.29 12:00",
    "o": 1.37723,
    "h": 1.37904,
    "l": 1.37634,
    "c": 1.37904,
    "v": 3345
  },
  {
    "dt": "2021.10.29 13:00",
    "o": 1.37904,
    "h": 1.37997,
    "l": 1.37815,
    "c": 1.37839,
    "v": 3236
  },
  {
    "dt": "2021.10.29 14:00",
    "o": 1.3784,
    "h": 1.37948,
    "l": 1.37774,
    "c": 1.37886,
    "v": 2787
  },
  {
    "dt": "2021.10.29 15:00",
    "o": 1.37888,
    "h": 1.37892,
    "l": 1.3754,
    "c": 1.37583,
    "v": 4233
  },
  {
    "dt": "2021.10.29 16:00",
    "o": 1.37579,
    "h": 1.37745,
    "l": 1.37486,
    "c": 1.3753,
    "v": 4375
  },
  {
    "dt": "2021.10.29 17:00",
    "o": 1.37529,
    "h": 1.37531,
    "l": 1.37014,
    "c": 1.37054,
    "v": 4714
  },
  {
    "dt": "2021.10.29 18:00",
    "o": 1.37055,
    "h": 1.37129,
    "l": 1.36797,
    "c": 1.36836,
    "v": 4605
  },
  {
    "dt": "2021.10.29 19:00",
    "o": 1.36848,
    "h": 1.36859,
    "l": 1.36672,
    "c": 1.36722,
    "v": 3453
  },
  {
    "dt": "2021.10.29 20:00",
    "o": 1.36718,
    "h": 1.36925,
    "l": 1.36703,
    "c": 1.36925,
    "v": 2552
  },
  {
    "dt": "2021.10.29 21:00",
    "o": 1.36923,
    "h": 1.36976,
    "l": 1.36874,
    "c": 1.36885,
    "v": 2345
  },
  {
    "dt": "2021.10.29 22:00",
    "o": 1.36886,
    "h": 1.36898,
    "l": 1.36732,
    "c": 1.36843,
    "v": 2328
  },
  {
    "dt": "2021.10.29 23:00",
    "o": 1.36843,
    "h": 1.36941,
    "l": 1.36744,
    "c": 1.36744,
    "v": 1538
  }
]