[
  {
    "dt": "2023.04.03 00:00",
    "o": 1.62081,
    "h": 1.62271,
    "l": 1.62023,
    "c": 1.62239,
    "v": 228
  },
  {
    "dt": "2023.04.03 01:00",
    "o": 1.6224,
    "h": 1.62304,
    "l": 1.6178,
    "c": 1.61953,
    "v": 3339
  },
  {
    "dt": "2023.04.03 02:00",
    "o": 1.61962,
    "h": 1.62277,
    "l": 1.61962,
    "c": 1.62219,
    "v": 2869
  },
  {
    "dt": "2023.04.03 03:00",
    "o": 1.62218,
    "h": 1.62381,
    "l": 1.62083,
    "c": 1.62185,
    "v": 3943
  },
  {
    "dt": "2023.04.03 04:00",
    "o": 1.62188,
    "h": 1.62215,
    "l": 1.61748,
    "c": 1.61803,
    "v": 4195
  },
  {
    "dt": "2023.04.03 05:00",
    "o": 1.61805,
    "h": 1.61921,
    "l": 1.61744,
    "c": 1.61878,
    "v": 3281
  },
  {
    "dt": "2023.04.03 06:00",
    "o": 1.61879,
    "h": 1.61945,
    "l": 1.6182,
    "c": 1.61921,
    "v": 3033
  },
  {
    "dt": "2023.04.03 07:00",
    "o": 1.61916,
    "h": 1.61953,
    "l": 1.61843,
    "c": 1.61881,
    "v": 2425
  },
  {
    "dt": "2023.04.03 08:00",
    "o": 1.6188,
    "h": 1.6203,
    "l": 1.6183,
    "c": 1.61993,
    "v": 2892
  },
  {
    "dt": "2023.04.03 09:00",
    "o": 1.61994,
    "h": 1.62165,
    "l": 1.61904,
    "c": 1.61904,
    "v": 3821
  },
  {
    "dt": "2023.04.03 10:00",
    "o": 1.61905,
    "h": 1.6195,
    "l": 1.61814,
    "c": 1.61864,
    "v": 4002
  },
  {
    "dt": "2023.04.03 11:00",
    "o": 1.61858,
    "h": 1.61915,
    "l": 1.61781,
    "c": 1.61836,
    "v": 3257
  },
  {
    "dt": "2023.04.03 12:00",
    "o": 1.61842,
    "h": 1.61842,
    "l": 1.61575,
    "c": 1.61636,
    "v": 3260
  },
  {
    "dt": "2023.04.03 13:00",
    "o": 1.61637,
    "h": 1.61828,
    "l": 1.61531,
    "c": 1.61596,
    "v": 3072
  },
  {
    "dt": "2023.04.03 14:00",
    "o": 1.61593,
    "h": 1.61626,
    "l": 1.60785,
    "c": 1.60821,
    "v": 4049
  },
  {
    "dt": "2023.04.03 15:00",
    "o": 1.60815,
    "h": 1.60932,
    "l": 1.60582,
    "c": 1.60647,
    "v": 3937
  },
  {
    "dt": "2023.04.03 16:00",
    "o": 1.60648,
    "h": 1.60892,
    "l": 1.60602,
    "c": 1.60827,
    "v": 3922
  },
  {
    "dt": "2023.04.03 17:00",
    "o": 1.60814,
    "h": 1.60876,
    "l": 1.60479,
    "c": 1.6051,
    "v": 4380
  },
  {
    "dt": "2023.04.03 18:00",
    "o": 1.60519,
    "h": 1.60713,
    "l": 1.60475,
    "c": 1.60547,
    "v": 4210
  },
  {
    "dt": "2023.04.03 19:00",
    "o": 1.60549,
    "h": 1.60549,
    "l": 1.60341,
    "c": 1.60439,
    "v": 3312
  },
  {
    "dt": "2023.04.03 20:00",
    "o": 1.60449,
    "h": 1.60677,
    "l": 1.60433,
    "c": 1.60583,
    "v": 3125
  },
  {
    "dt": "2023.04.03 21:00",
    "o": 1.60583,
    "h": 1.60758,
    "l": 1.60525,
    "c": 1.60573,
    "v": 2956
  },
  {
    "dt": "2023.04.03 22:00",
    "o": 1.60577,
    "h": 1.60656,
    "l": 1.60516,
    "c": 1.60634,
    "v": 2523
  },
  {
    "dt": "2023.04.03 23:00",
    "o": 1.6063,
    "h": 1.60713,
    "l": 1.60614,
    "c": 1.60643,
    "v": 1656
  },
  {
    "dt": "2023.04.04 00:00",
    "o": 1.609,
    "h": 1.60901,
    "l": 1.606,
    "c": 1.60664,
    "v": 390
  },
  {
    "dt": "2023.04.04 01:00",
    "o": 1.60676,
    "h": 1.60736,
    "l": 1.60649,
    "c": 1.60663,
    "v": 1264
  },
  {
    "dt": "2023.04.04 02:00",
    "o": 1.60662,
    "h": 1.60716,
    "l": 1.60565,
    "c": 1.60698,
    "v": 1489
  },
  {
    "dt": "2023.04.04 03:00",
    "o": 1.60687,
    "h": 1.60697,
    "l": 1.60541,
    "c": 1.60615,
    "v": 2815
  },
  {
    "dt": "2023.04.04 04:00",
    "o": 1.60615,
    "h": 1.60708,
    "l": 1.60585,
    "c": 1.60694,
    "v": 2884
  },
  {
    "dt": "2023.04.04 05:00",
    "o": 1.60693,
    "h": 1.60752,
    "l": 1.60637,
    "c": 1.60698,
    "v": 2671
  },
  {
    "dt": "2023.04.04 06:00",
    "o": 1.60702,
    "h": 1.60735,
    "l": 1.60586,
    "c": 1.60592,
    "v": 2045
  },
  {
    "dt": "2023.04.04 07:00",
    "o": 1.60592,
    "h": 1.61167,
    "l": 1.60446,
    "c": 1.61106,
    "v": 3066
  },
  {
    "dt": "2023.04.04 08:00",
    "o": 1.6111,
    "h": 1.61173,
    "l": 1.6087,
    "c": 1.60892,
    "v": 2698
  },
  {
    "dt": "2023.04.04 09:00",
    "o": 1.60884,
    "h": 1.6127,
    "l": 1.60873,
    "c": 1.61158,
    "v": 4049
  },
  {
    "dt": "2023.04.04 10:00",
    "o": 1.61156,
    "h": 1.6186,
    "l": 1.61156,
    "c": 1.617,
    "v": 4740
  },
  {
    "dt": "2023.04.04 11:00",
    "o": 1.61703,
    "h": 1.62039,
    "l": 1.616,
    "c": 1.61846,
    "v": 4352
  },
  {
    "dt": "2023.04.04 12:00",
    "o": 1.61853,
    "h": 1.61981,
    "l": 1.61715,
    "c": 1.61773,
    "v": 4367
  },
  {
    "dt": "2023.04.04 13:00",
    "o": 1.61776,
    "h": 1.61911,
    "l": 1.61553,
    "c": 1.61609,
    "v": 3729
  },
  {
    "dt": "2023.04.04 14:00",
    "o": 1.61617,
    "h": 1.61705,
    "l": 1.61435,
    "c": 1.61437,
    "v": 3725
  },
  {
    "dt": "2023.04.04 15:00",
    "o": 1.61437,
    "h": 1.61985,
    "l": 1.61436,
    "c": 1.61961,
    "v": 4109
  },
  {
    "dt": "2023.04.04 16:00",
    "o": 1.61963,
    "h": 1.62027,
    "l": 1.61799,
    "c": 1.6198,
    "v": 4620
  },
  {
    "dt": "2023.04.04 17:00",
    "o": 1.61977,
    "h": 1.6264,
    "l": 1.61777,
    "c": 1.62503,
    "v": 6099
  },
  {
    "dt": "2023.04.04 18:00",
    "o": 1.62497,
    "h": 1.62717,
    "l": 1.62375,
    "c": 1.62395,
    "v": 5107
  },
  {
    "dt": "2023.04.04 19:00",
    "o": 1.62399,
    "h": 1.62554,
    "l": 1.62391,
    "c": 1.6245,
    "v": 3716
  },
  {
    "dt": "2023.04.04 20:00",
    "o": 1.62451,
    "h": 1.6246,
    "l": 1.62246,
    "c": 1.62384,
    "v": 2847
  },
  {
    "dt": "2023.04.04 21:00",
    "o": 1.62384,
    "h": 1.62488,
    "l": 1.62303,
    "c": 1.62474,
    "v": 2718
  },
  {
    "dt": "2023.04.04 22:00",
    "o": 1.62476,
    "h": 1.6252,
    "l": 1.62301,
    "c": 1.62302,
    "v": 2796
  },
  {
    "dt": "2023.04.04 23:00",
    "o": 1.62301,
    "h": 1.62315,
    "l": 1.62208,
    "c": 1.62254,
    "v": 1472
  },
  {
    "dt": "2023.04.05 00:00",
    "o": 1.62134,
    "h": 1.62217,
    "l": 1.62123,
    "c": 1.62208,
    "v": 229
  },
  {
    "dt": "2023.04.05 01:00",
    "o": 1.62207,
    "h": 1.62246,
    "l": 1.62081,
    "c": 1.62204,
    "v": 1843
  },
  {
    "dt": "2023.04.05 02:00",
    "o": 1.62204,
    "h": 1.62223,
    "l": 1.62071,
    "c": 1.62071,
    "v": 1642
  },
  {
    "dt": "2023.04.05 03:00",
    "o": 1.62081,
    "h": 1.6221,
    "l": 1.62012,
    "c": 1.6216,
    "v": 2975
  },
  {
    "dt": "2023.04.05 04:00",
    "o": 1.6216,
    "h": 1.6223,
    "l": 1.62001,
    "c": 1.62197,
    "v": 2435
  },
  {
    "dt": "2023.04.05 05:00",
    "o": 1.62197,
    "h": 1.622,
    "l": 1.6164,
    "c": 1.61988,
    "v": 3525
  },
  {
    "dt": "2023.04.05 06:00",
    "o": 1.6199,
    "h": 1.62285,
    "l": 1.6199,
    "c": 1.62236,
    "v": 2700
  },
  {
    "dt": "2023.04.05 07:00",
    "o": 1.62238,
    "h": 1.62447,
    "l": 1.62227,
    "c": 1.62399,
    "v": 2449
  },
  {
    "dt": "2023.04.05 08:00",
    "o": 1.624,
    "h": 1.62735,
    "l": 1.62332,
    "c": 1.62651,
    "v": 2628
  },
  {
    "dt": "2023.04.05 09:00",
    "o": 1.62657,
    "h": 1.62888,
    "l": 1.62542,
    "c": 1.62852,
    "v": 3963
  },
  {
    "dt": "2023.04.05 10:00",
    "o": 1.62869,
    "h": 1.63348,
    "l": 1.62813,
    "c": 1.63155,
    "v": 4727
  },
  {
    "dt": "2023.04.05 11:00",
    "o": 1.63153,
    "h": 1.6348,
    "l": 1.631,
    "c": 1.6348,
    "v": 4388
  },
  {
    "dt": "2023.04.05 12:00",
    "o": 1.63481,
    "h": 1.63869,
    "l": 1.63474,
    "c": 1.63706,
    "v": 3741
  },
  {
    "dt": "2023.04.05 13:00",
    "o": 1.63705,
    "h": 1.63852,
    "l": 1.63641,
    "c": 1.63679,
    "v": 3358
  },
  {
    "dt": "2023.04.05 14:00",
    "o": 1.6369,
    "h": 1.63796,
    "l": 1.63274,
    "c": 1.63347,
    "v": 3603
  },
  {
    "dt": "2023.04.05 15:00",
    "o": 1.63345,
    "h": 1.63387,
    "l": 1.62967,
    "c": 1.63278,
    "v": 5061
  },
  {
    "dt": "2023.04.05 16:00",
    "o": 1.63281,
    "h": 1.63281,
    "l": 1.63034,
    "c": 1.63041,
    "v": 4943
  },
  {
    "dt": "2023.04.05 17:00",
    "o": 1.63016,
    "h": 1.63112,
    "l": 1.62485,
    "c": 1.62563,
    "v": 5957
  },
  {
    "dt": "2023.04.05 18:00",
    "o": 1.62566,
    "h": 1.62619,
    "l": 1.62233,
    "c": 1.62266,
    "v": 4466
  },
  {
    "dt": "2023.04.05 19:00",
    "o": 1.62265,
    "h": 1.62484,
    "l": 1.62265,
    "c": 1.62401,
    "v": 3333
  },
  {
    "dt": "2023.04.05 20:00",
    "o": 1.62405,
    "h": 1.62474,
    "l": 1.6223,
    "c": 1.62283,
    "v": 2878
  },
  {
    "dt": "2023.04.05 21:00",
    "o": 1.62277,
    "h": 1.62324,
    "l": 1.62228,
    "c": 1.62261,
    "v": 2278
  },
  {
    "dt": "2023.04.05 22:00",
    "o": 1.62257,
    "h": 1.62326,
    "l": 1.62217,
    "c": 1.62237,
    "v": 2288
  },
  {
    "dt": "2023.04.05 23:00",
    "o": 1.62245,
    "h": 1.62271,
    "l": 1.62205,
    "c": 1.62264,
    "v": 1240
  },
  {
    "dt": "2023.04.06 00:00",
    "o": 1.62211,
    "h": 1.62258,
    "l": 1.62123,
    "c": 1.6223,
    "v": 474
  },
  {
    "dt": "2023.04.06 01:00",
    "o": 1.62236,
    "h": 1.62282,
    "l": 1.62182,
    "c": 1.6222,
    "v": 1045
  },
  {
    "dt": "2023.04.06 02:00",
    "o": 1.62229,
    "h": 1.62322,
    "l": 1.6221,
    "c": 1.62322,
    "v": 1494
  },
  {
    "dt": "2023.04.06 03:00",
    "o": 1.6232,
    "h": 1.62424,
    "l": 1.62256,
    "c": 1.62401,
    "v": 2522
  },
  {
    "dt": "2023.04.06 04:00",
    "o": 1.62402,
    "h": 1.6254,
    "l": 1.62352,
    "c": 1.62481,
    "v": 3505
  },
  {
    "dt": "2023.04.06 05:00",
    "o": 1.62491,
    "h": 1.62569,
    "l": 1.62439,
    "c": 1.62492,
    "v": 2698
  },
  {
    "dt": "2023.04.06 06:00",
    "o": 1.62493,
    "h": 1.62608,
    "l": 1.62473,
    "c": 1.62553,
    "v": 2029
  },
  {
    "dt": "2023.04.06 07:00",
    "o": 1.62556,
    "h": 1.62665,
    "l": 1.62556,
    "c": 1.62658,
    "v": 1765
  },
  {
    "dt": "2023.04.06 08:00",
    "o": 1.62656,
    "h": 1.62834,
    "l": 1.62656,
    "c": 1.62739,
    "v": 2402
  },
  {
    "dt": "2023.04.06 09:00",
    "o": 1.62737,
    "h": 1.62816,
    "l": 1.62524,
    "c": 1.62576,
    "v": 3665
  },
  {
    "dt": "2023.04.06 10:00",
    "o": 1.62577,
    "h": 1.62909,
    "l": 1.62543,
    "c": 1.62577,
    "v": 4447
  },
  {
    "dt": "2023.04.06 11:00",
    "o": 1.62576,
    "h": 1.62742,
    "l": 1.62535,
    "c": 1.62682,
    "v": 4027
  },
  {
    "dt": "2023.04.06 12:00",
    "o": 1.62681,
    "h": 1.62876,
    "l": 1.62595,
    "c": 1.62868,
    "v": 3222
  },
  {
    "dt": "2023.04.06 13:00",
    "o": 1.6287,
    "h": 1.62954,
    "l": 1.62825,
    "c": 1.62841,
    "v": 3094
  },
  {
    "dt": "2023.04.06 14:00",
    "o": 1.62842,
    "h": 1.63154,
    "l": 1.6284,
    "c": 1.63039,
    "v": 2942
  },
  {
    "dt": "2023.04.06 15:00",
    "o": 1.63034,
    "h": 1.63337,
    "l": 1.6286,
    "c": 1.63274,
    "v": 4510
  },
  {
    "dt": "2023.04.06 16:00",
    "o": 1.63275,
    "h": 1.63726,
    "l": 1.63232,
    "c": 1.63693,
    "v": 4696
  },
  {
    "dt": "2023.04.06 17:00",
    "o": 1.637,
    "h": 1.63901,
    "l": 1.63595,
    "c": 1.6384,
    "v": 4979
  },
  {
    "dt": "2023.04.06 18:00",
    "o": 1.6384,
    "h": 1.63876,
    "l": 1.63715,
    "c": 1.63722,
    "v": 3904
  },
  {
    "dt": "2023.04.06 19:00",
    "o": 1.63715,
    "h": 1.63753,
    "l": 1.63619,
    "c": 1.63708,
    "v": 2755
  },
  {
    "dt": "2023.04.06 20:00",
    "o": 1.63709,
    "h": 1.63713,
    "l": 1.63606,
    "c": 1.63687,
    "v": 2198
  },
  {
    "dt": "2023.04.06 21:00",
    "o": 1.63684,
    "h": 1.63747,
    "l": 1.63616,
    "c": 1.63626,
    "v": 2006
  },
  {
    "dt": "2023.04.06 22:00",
    "o": 1.63627,
    "h": 1.63692,
    "l": 1.63608,
    "c": 1.6369,
    "v": 1934
  },
  {
    "dt": "2023.04.06 23:00",
    "o": 1.63689,
    "h": 1.63719,
    "l": 1.63627,
    "c": 1.63655,
    "v": 1104
  },
  {
    "dt": "2023.04.07 00:00",
    "o": 1.63647,
    "h": 1.63666,
    "l": 1.63611,
    "c": 1.63619,
    "v": 111
  },
  {
    "dt": "2023.04.07 01:00",
    "o": 1.63619,
    "h": 1.63657,
    "l": 1.63598,
    "c": 1.63639,
    "v": 1698
  },
  {
    "dt": "2023.04.07 02:00",
    "o": 1.63646,
    "h": 1.63718,
    "l": 1.63579,
    "c": 1.63585,
    "v": 1074
  },
  {
    "dt": "2023.04.07 03:00",
    "o": 1.63586,
    "h": 1.63661,
    "l": 1.63527,
    "c": 1.63555,
    "v": 1774
  },
  {
    "dt": "2023.04.07 04:00",
    "o": 1.63557,
    "h": 1.63574,
    "l": 1.63393,
    "c": 1.6345,
    "v": 1607
  },
  {
    "dt": "2023.04.07 05:00",
    "o": 1.63444,
    "h": 1.6351,
    "l": 1.63388,
    "c": 1.63421,
    "v": 1370
  },
  {
    "dt": "2023.04.07 06:00",
    "o": 1.63421,
    "h": 1.63475,
    "l": 1.63393,
    "c": 1.63423,
    "v": 1278
  },
  {
    "dt": "2023.04.07 07:00",
    "o": 1.63423,
    "h": 1.63425,
    "l": 1.63258,
    "c": 1.63258,
    "v": 1119
  },
  {
    "dt": "2023.04.07 08:00",
    "o": 1.63254,
    "h": 1.63306,
    "l": 1.63129,
    "c": 1.6328,
    "v": 1729
  },
  {
    "dt": "2023.04.07 09:00",
    "o": 1.63281,
    "h": 1.63398,
    "l": 1.63172,
    "c": 1.63398,
    "v": 1779
  },
  {
    "dt": "2023.04.07 10:00",
    "o": 1.63389,
    "h": 1.63407,
    "l": 1.63309,
    "c": 1.63358,
    "v": 1656
  },
  {
    "dt": "2023.04.07 11:00",
    "o": 1.63359,
    "h": 1.63491,
    "l": 1.63356,
    "c": 1.63424,
    "v": 1319
  },
  {
    "dt": "2023.04.07 12:00",
    "o": 1.63424,
    "h": 1.63445,
    "l": 1.63245,
    "c": 1.6327,
    "v": 1782
  },
  {
    "dt": "2023.04.07 13:00",
    "o": 1.6327,
    "h": 1.63454,
    "l": 1.63205,
    "c": 1.63453,
    "v": 1426
  },
  {
    "dt": "2023.04.07 14:00",
    "o": 1.63453,
    "h": 1.63522,
    "l": 1.63409,
    "c": 1.63513,
    "v": 1255
  },
  {
    "dt": "2023.04.07 15:00",
    "o": 1.63521,
    "h": 1.63919,
    "l": 1.63339,
    "c": 1.63369,
    "v": 3790
  },
  {
    "dt": "2023.04.07 16:00",
    "o": 1.63376,
    "h": 1.63438,
    "l": 1.63269,
    "c": 1.63426,
    "v": 2517
  },
  {
    "dt": "2023.04.07 17:00",
    "o": 1.63425,
    "h": 1.63747,
    "l": 1.63414,
    "c": 1.63739,
    "v": 1767
  },
  {
    "dt": "2023.04.07 18:00",
    "o": 1.63747,
    "h": 1.63818,
    "l": 1.63578,
    "c": 1.63676,
    "v": 1222
  },
  {
    "dt": "2023.04.07 19:00",
    "o": 1.63671,
    "h": 1.63741,
    "l": 1.63456,
    "c": 1.63611,
    "v": 983
  },
  {
    "dt": "2023.04.07 20:00",
    "o": 1.63601,
    "h": 1.63675,
    "l": 1.63472,
    "c": 1.63475,
    "v": 581
  },
  {
    "dt": "2023.04.07 21:00",
    "o": 1.63475,
    "h": 1.63583,
    "l": 1.63354,
    "c": 1.63407,
    "v": 1097
  },
  {
    "dt": "2023.04.07 22:00",
    "o": 1.634,
    "h": 1.637,
    "l": 1.63355,
    "c": 1.63531,
    "v": 746
  },
  {
    "dt": "2023.04.07 23:00",
    "o": 1.63533,
    "h": 1.63784,
    "l": 1.63393,
    "c": 1.63451,
    "v": 597
  },
  {
    "dt": "2023.04.10 00:00",
    "o": 1.63597,
    "h": 1.63678,
    "l": 1.63503,
    "c": 1.63596,
    "v": 149
  },
  {
    "dt": "2023.04.10 01:00",
    "o": 1.63534,
    "h": 1.63645,
    "l": 1.63501,
    "c": 1.63516,
    "v": 1744
  },
  {
    "dt": "2023.04.10 02:00",
    "o": 1.63516,
    "h": 1.63564,
    "l": 1.63468,
    "c": 1.63524,
    "v": 1645
  },
  {
    "dt": "2023.04.10 03:00",
    "o": 1.63521,
    "h": 1.63718,
    "l": 1.63498,
    "c": 1.63712,
    "v": 2767
  },
  {
    "dt": "2023.04.10 04:00",
    "o": 1.63717,
    "h": 1.63745,
    "l": 1.63572,
    "c": 1.63575,
    "v": 2519
  },
  {
    "dt": "2023.04.10 05:00",
    "o": 1.63581,
    "h": 1.63671,
    "l": 1.63577,
    "c": 1.63621,
    "v": 2189
  },
  {
    "dt": "2023.04.10 06:00",
    "o": 1.6362,
    "h": 1.63643,
    "l": 1.63557,
    "c": 1.63578,
    "v": 1630
  },
  {
    "dt": "2023.04.10 07:00",
    "o": 1.63582,
    "h": 1.63603,
    "l": 1.63495,
    "c": 1.63586,
    "v": 1872
  },
  {
    "dt": "2023.04.10 08:00",
    "o": 1.63589,
    "h": 1.63728,
    "l": 1.63589,
    "c": 1.63659,
    "v": 2433
  },
  {
    "dt": "2023.04.10 09:00",
    "o": 1.63667,
    "h": 1.63729,
    "l": 1.63476,
    "c": 1.63496,
    "v": 2454
  },
  {
    "dt": "2023.04.10 10:00",
    "o": 1.63493,
    "h": 1.63683,
    "l": 1.63444,
    "c": 1.63641,
    "v": 2787
  },
  {
    "dt": "2023.04.10 11:00",
    "o": 1.63639,
    "h": 1.63704,
    "l": 1.63528,
    "c": 1.63618,
    "v": 2293
  },
  {
    "dt": "2023.04.10 12:00",
    "o": 1.63618,
    "h": 1.63657,
    "l": 1.63326,
    "c": 1.6335,
    "v": 2326
  },
  {
    "dt": "2023.04.10 13:00",
    "o": 1.63354,
    "h": 1.63539,
    "l": 1.63325,
    "c": 1.63517,
    "v": 2237
  },
  {
    "dt": "2023.04.10 14:00",
    "o": 1.63525,
    "h": 1.63655,
    "l": 1.63388,
    "c": 1.6352,
    "v": 2984
  },
  {
    "dt": "2023.04.10 15:00",
    "o": 1.6352,
    "h": 1.63849,
    "l": 1.63387,
    "c": 1.63773,
    "v": 4451
  },
  {
    "dt": "2023.04.10 16:00",
    "o": 1.63777,
    "h": 1.6386,
    "l": 1.6362,
    "c": 1.63621,
    "v": 4156
  },
  {
    "dt": "2023.04.10 17:00",
    "o": 1.63616,
    "h": 1.63658,
    "l": 1.6346,
    "c": 1.63566,
    "v": 3474
  },
  {
    "dt": "2023.04.10 18:00",
    "o": 1.63562,
    "h": 1.6362,
    "l": 1.63485,
    "c": 1.63595,
    "v": 3191
  },
  {
    "dt": "2023.04.10 19:00",
    "o": 1.63597,
    "h": 1.63638,
    "l": 1.63505,
    "c": 1.6351,
    "v": 2228
  },
  {
    "dt": "2023.04.10 20:00",
    "o": 1.63508,
    "h": 1.63558,
    "l": 1.63456,
    "c": 1.63459,
    "v": 2284
  },
  {
    "dt": "2023.04.10 21:00",
    "o": 1.63452,
    "h": 1.63556,
    "l": 1.63452,
    "c": 1.63532,
    "v": 2170
  },
  {
    "dt": "2023.04.10 22:00",
    "o": 1.6353,
    "h": 1.63559,
    "l": 1.63496,
    "c": 1.63516,
    "v": 2594
  },
  {
    "dt": "2023.04.10 23:00",
    "o": 1.63513,
    "h": 1.63535,
    "l": 1.63468,
    "c": 1.635,
    "v": 1137
  },
  {
    "dt": "2023.04.11 00:00",
    "o": 1.63693,
    "h": 1.63747,
    "l": 1.63476,
    "c": 1.63564,
    "v": 463
  },
  {
    "dt": "2023.04.11 01:00",
    "o": 1.63512,
    "h": 1.63572,
    "l": 1.63413,
    "c": 1.63473,
    "v": 1384
  },
  {
    "dt": "2023.04.11 02:00",
    "o": 1.63483,
    "h": 1.6352,
    "l": 1.63434,
    "c": 1.63477,
    "v": 1078
  },
  {
    "dt": "2023.04.11 03:00",
    "o": 1.63472,
    "h": 1.63534,
    "l": 1.63364,
    "c": 1.63395,
    "v": 2558
  },
  {
    "dt": "2023.04.11 04:00",
    "o": 1.63396,
    "h": 1.63602,
    "l": 1.63369,
    "c": 1.63444,
    "v": 3649
  },
  {
    "dt": "2023.04.11 05:00",
    "o": 1.63452,
    "h": 1.63452,
    "l": 1.63099,
    "c": 1.63236,
    "v": 3560
  },
  {
    "dt": "2023.04.11 06:00",
    "o": 1.63236,
    "h": 1.63249,
    "l": 1.63109,
    "c": 1.63168,
    "v": 2871
  },
  {
    "dt": "2023.04.11 07:00",
    "o": 1.63162,
    "h": 1.63217,
    "l": 1.63081,
    "c": 1.63189,
    "v": 2240
  },
  {
    "dt": "2023.04.11 08:00",
    "o": 1.63189,
    "h": 1.63232,
    "l": 1.63104,
    "c": 1.63156,
    "v": 2873
  },
  {
    "dt": "2023.04.11 09:00",
    "o": 1.63163,
    "h": 1.63205,
    "l": 1.62994,
    "c": 1.63205,
    "v": 3672
  },
  {
    "dt": "2023.04.11 10:00",
    "o": 1.63202,
    "h": 1.63456,
    "l": 1.63198,
    "c": 1.63449,
    "v": 4472
  },
  {
    "dt": "2023.04.11 11:00",
    "o": 1.63451,
    "h": 1.63625,
    "l": 1.63365,
    "c": 1.63531,
    "v": 3820
  },
  {
    "dt": "2023.04.11 12:00",
    "o": 1.6353,
    "h": 1.63901,
    "l": 1.63521,
    "c": 1.63829,
    "v": 3936
  },
  {
    "dt": "2023.04.11 13:00",
    "o": 1.63831,
    "h": 1.64031,
    "l": 1.63797,
    "c": 1.63985,
    "v": 3721
  },
  {
    "dt": "2023.04.11 14:00",
    "o": 1.63985,
    "h": 1.64093,
    "l": 1.63867,
    "c": 1.63869,
    "v": 3894
  },
  {
    "dt": "2023.04.11 15:00",
    "o": 1.63869,
    "h": 1.63984,
    "l": 1.63799,
    "c": 1.63907,
    "v": 3783
  },
  {
    "dt": "2023.04.11 16:00",
    "o": 1.63906,
    "h": 1.64061,
    "l": 1.63845,
    "c": 1.63928,
    "v": 4596
  },
  {
    "dt": "2023.04.11 17:00",
    "o": 1.63927,
    "h": 1.64043,
    "l": 1.63788,
    "c": 1.63967,
    "v": 4438
  },
  {
    "dt": "2023.04.11 18:00",
    "o": 1.63969,
    "h": 1.64063,
    "l": 1.63895,
    "c": 1.64019,
    "v": 3708
  },
  {
    "dt": "2023.04.11 19:00",
    "o": 1.64012,
    "h": 1.64028,
    "l": 1.63924,
    "c": 1.63957,
    "v": 3010
  },
  {
    "dt": "2023.04.11 20:00",
    "o": 1.63958,
    "h": 1.63996,
    "l": 1.63925,
    "c": 1.63981,
    "v": 2332
  },
  {
    "dt": "2023.04.11 21:00",
    "o": 1.63984,
    "h": 1.64021,
    "l": 1.63926,
    "c": 1.63968,
    "v": 2032
  },
  {
    "dt": "2023.04.11 22:00",
    "o": 1.63976,
    "h": 1.64038,
    "l": 1.63931,
    "c": 1.6403,
    "v": 2251
  },
  {
    "dt": "2023.04.11 23:00",
    "o": 1.6403,
    "h": 1.64038,
    "l": 1.63966,
    "c": 1.64002,
    "v": 1091
  },
  {
    "dt": "2023.04.12 00:00",
    "o": 1.64012,
    "h": 1.64021,
    "l": 1.63914,
    "c": 1.63971,
    "v": 252
  },
  {
    "dt": "2023.04.12 01:00",
    "o": 1.63975,
    "h": 1.64164,
    "l": 1.63975,
    "c": 1.64058,
    "v": 1178
  },
  {
    "dt": "2023.04.12 02:00",
    "o": 1.64073,
    "h": 1.64141,
    "l": 1.64038,
    "c": 1.64059,
    "v": 1392
  },
  {
    "dt": "2023.04.12 03:00",
    "o": 1.64059,
    "h": 1.64106,
    "l": 1.63935,
    "c": 1.64104,
    "v": 2522
  },
  {
    "dt": "2023.04.12 04:00",
    "o": 1.64105,
    "h": 1.64157,
    "l": 1.6396,
    "c": 1.63965,
    "v": 2755
  },
  {
    "dt": "2023.04.12 05:00",
    "o": 1.63967,
    "h": 1.64157,
    "l": 1.63904,
    "c": 1.64057,
    "v": 3117
  },
  {
    "dt": "2023.04.12 06:00",
    "o": 1.64049,
    "h": 1.64095,
    "l": 1.63881,
    "c": 1.63888,
    "v": 2447
  },
  {
    "dt": "2023.04.12 07:00",
    "o": 1.63887,
    "h": 1.63894,
    "l": 1.63634,
    "c": 1.63681,
    "v": 2000
  },
  {
    "dt": "2023.04.12 08:00",
    "o": 1.63681,
    "h": 1.63929,
    "l": 1.63668,
    "c": 1.63928,
    "v": 2208
  },
  {
    "dt": "2023.04.12 09:00",
    "o": 1.63938,
    "h": 1.64213,
    "l": 1.63848,
    "c": 1.64194,
    "v": 3383
  },
  {
    "dt": "2023.04.12 10:00",
    "o": 1.64193,
    "h": 1.64256,
    "l": 1.63976,
    "c": 1.64002,
    "v": 3929
  },
  {
    "dt": "2023.04.12 11:00",
    "o": 1.64003,
    "h": 1.6411,
    "l": 1.63948,
    "c": 1.64028,
    "v": 3506
  },
  {
    "dt": "2023.04.12 12:00",
    "o": 1.64026,
    "h": 1.64172,
    "l": 1.63851,
    "c": 1.63851,
    "v": 3118
  },
  {
    "dt": "2023.04.12 13:00",
    "o": 1.63852,
    "h": 1.63889,
    "l": 1.63617,
    "c": 1.63749,
    "v": 3009
  },
  {
    "dt": "2023.04.12 14:00",
    "o": 1.6374,
    "h": 1.63905,
    "l": 1.6365,
    "c": 1.63652,
    "v": 3185
  },
  {
    "dt": "2023.04.12 15:00",
    "o": 1.63653,
    "h": 1.63858,
    "l": 1.63306,
    "c": 1.63478,
    "v": 5137
  },
  {
    "dt": "2023.04.12 16:00",
    "o": 1.63478,
    "h": 1.64001,
    "l": 1.63408,
    "c": 1.63834,
    "v": 5806
  },
  {
    "dt": "2023.04.12 17:00",
    "o": 1.63837,
    "h": 1.64362,
    "l": 1.63835,
    "c": 1.64084,
    "v": 5800
  },
  {
    "dt": "2023.04.12 18:00",
    "o": 1.64089,
    "h": 1.64368,
    "l": 1.64046,
    "c": 1.64283,
    "v": 4658
  },
  {
    "dt": "2023.04.12 19:00",
    "o": 1.64281,
    "h": 1.64296,
    "l": 1.64111,
    "c": 1.6415,
    "v": 3537
  },
  {
    "dt": "2023.04.12 20:00",
    "o": 1.64149,
    "h": 1.64216,
    "l": 1.64081,
    "c": 1.64197,
    "v": 3058
  },
  {
    "dt": "2023.04.12 21:00",
    "o": 1.64197,
    "h": 1.6423,
    "l": 1.64039,
    "c": 1.64132,
    "v": 4109
  },
  {
    "dt": "2023.04.12 22:00",
    "o": 1.64132,
    "h": 1.64256,
    "l": 1.64089,
    "c": 1.64172,
    "v": 3413
  },
  {
    "dt": "2023.04.12 23:00",
    "o": 1.64171,
    "h": 1.64238,
    "l": 1.6416,
    "c": 1.64193,
    "v": 1392
  },
  {
    "dt": "2023.04.13 00:00",
    "o": 1.64197,
    "h": 1.64215,
    "l": 1.64087,
    "c": 1.64203,
    "v": 310
  },
  {
    "dt": "2023.04.13 01:00",
    "o": 1.64203,
    "h": 1.64224,
    "l": 1.64119,
    "c": 1.6414,
    "v": 1137
  },
  {
    "dt": "2023.04.13 02:00",
    "o": 1.64141,
    "h": 1.64204,
    "l": 1.64137,
    "c": 1.64201,
    "v": 1489
  },
  {
    "dt": "2023.04.13 03:00",
    "o": 1.64201,
    "h": 1.64435,
    "l": 1.64158,
    "c": 1.64401,
    "v": 3047
  },
  {
    "dt": "2023.04.13 04:00",
    "o": 1.64399,
    "h": 1.6445,
    "l": 1.63629,
    "c": 1.63715,
    "v": 3737
  },
  {
    "dt": "2023.04.13 05:00",
    "o": 1.63716,
    "h": 1.6394,
    "l": 1.63659,
    "c": 1.63733,
    "v": 3205
  },
  {
    "dt": "2023.04.13 06:00",
    "o": 1.6374,
    "h": 1.6384,
    "l": 1.63613,
    "c": 1.63753,
    "v": 2648
  },
  {
    "dt": "2023.04.13 07:00",
    "o": 1.63755,
    "h": 1.63838,
    "l": 1.63725,
    "c": 1.63747,
    "v": 1804
  },
  {
    "dt": "2023.04.13 08:00",
    "o": 1.63747,
    "h": 1.63955,
    "l": 1.63737,
    "c": 1.63888,
    "v": 2089
  },
  {
    "dt": "2023.04.13 09:00",
    "o": 1.6388,
    "h": 1.64032,
    "l": 1.63499,
    "c": 1.63556,
    "v": 3462
  },
  {
    "dt": "2023.04.13 10:00",
    "o": 1.63562,
    "h": 1.63791,
    "l": 1.63457,
    "c": 1.63579,
    "v": 4464
  },
  {
    "dt": "2023.04.13 11:00",
    "o": 1.6358,
    "h": 1.63845,
    "l": 1.63559,
    "c": 1.63809,
    "v": 4252
  },
  {
    "dt": "2023.04.13 12:00",
    "o": 1.63805,
    "h": 1.63889,
    "l": 1.637,
    "c": 1.63789,
    "v": 3624
  },
  {
    "dt": "2023.04.13 13:00",
    "o": 1.63787,
    "h": 1.63825,
    "l": 1.63648,
    "c": 1.6365,
    "v": 3461
  },
  {
    "dt": "2023.04.13 14:00",
    "o": 1.63653,
    "h": 1.63673,
    "l": 1.6335,
    "c": 1.6343,
    "v": 3523
  },
  {
    "dt": "2023.04.13 15:00",
    "o": 1.63427,
    "h": 1.63637,
    "l": 1.63303,
    "c": 1.63511,
    "v": 4997
  },
  {
    "dt": "2023.04.13 16:00",
    "o": 1.63514,
    "h": 1.63676,
    "l": 1.63398,
    "c": 1.63464,
    "v": 5393
  },
  {
    "dt": "2023.04.13 17:00",
    "o": 1.63464,
    "h": 1.63503,
    "l": 1.63218,
    "c": 1.6323,
    "v": 4994
  },
  {
    "dt": "2023.04.13 18:00",
    "o": 1.63232,
    "h": 1.6328,
    "l": 1.63053,
    "c": 1.63055,
    "v": 3980
  },
  {
    "dt": "2023.04.13 19:00",
    "o": 1.63054,
    "h": 1.63114,
    "l": 1.62883,
    "c": 1.62898,
    "v": 2964
  },
  {
    "dt": "2023.04.13 20:00",
    "o": 1.62899,
    "h": 1.62901,
    "l": 1.62646,
    "c": 1.62701,
    "v": 2932
  },
  {
    "dt": "2023.04.13 21:00",
    "o": 1.62701,
    "h": 1.62724,
    "l": 1.6263,
    "c": 1.62716,
    "v": 2569
  },
  {
    "dt": "2023.04.13 22:00",
    "o": 1.62718,
    "h": 1.62787,
    "l": 1.62697,
    "c": 1.62761,
    "v": 2259
  },
  {
    "dt": "2023.04.13 23:00",
    "o": 1.62763,
    "h": 1.62847,
    "l": 1.62715,
    "c": 1.62836,
    "v": 1310
  },
  {
    "dt": "2023.04.14 00:00",
    "o": 1.62849,
    "h": 1.62852,
    "l": 1.62779,
    "c": 1.62808,
    "v": 416
  },
  {
    "dt": "2023.04.14 01:00",
    "o": 1.62801,
    "h": 1.6289,
    "l": 1.62773,
    "c": 1.62851,
    "v": 1042
  },
  {
    "dt": "2023.04.14 02:00",
    "o": 1.62855,
    "h": 1.6293,
    "l": 1.62814,
    "c": 1.6289,
    "v": 1305
  },
  {
    "dt": "2023.04.14 03:00",
    "o": 1.62892,
    "h": 1.62981,
    "l": 1.62784,
    "c": 1.62951,
    "v": 3020
  },
  {
    "dt": "2023.04.14 04:00",
    "o": 1.6295,
    "h": 1.63004,
    "l": 1.62864,
    "c": 1.62931,
    "v": 3047
  },
  {
    "dt": "2023.04.14 05:00",
    "o": 1.6293,
    "h": 1.63194,
    "l": 1.62915,
    "c": 1.63186,
    "v": 3282
  },
  {
    "dt": "2023.04.14 06:00",
    "o": 1.63186,
    "h": 1.63238,
    "l": 1.63019,
    "c": 1.63148,
    "v": 2551
  },
  {
    "dt": "2023.04.14 07:00",
    "o": 1.63148,
    "h": 1.63351,
    "l": 1.63104,
    "c": 1.63183,
    "v": 2448
  },
  {
    "dt": "2023.04.14 08:00",
    "o": 1.63183,
    "h": 1.63273,
    "l": 1.63169,
    "c": 1.63257,
    "v": 2787
  },
  {
    "dt": "2023.04.14 09:00",
    "o": 1.63259,
    "h": 1.63399,
    "l": 1.63195,
    "c": 1.63379,
    "v": 3358
  },
  {
    "dt": "2023.04.14 10:00",
    "o": 1.63377,
    "h": 1.63469,
    "l": 1.63246,
    "c": 1.63259,
    "v": 3747
  },
  {
    "dt": "2023.04.14 11:00",
    "o": 1.63259,
    "h": 1.63497,
    "l": 1.63224,
    "c": 1.63452,
    "v": 3625
  },
  {
    "dt": "2023.04.14 12:00",
    "o": 1.63455,
    "h": 1.6347,
    "l": 1.63236,
    "c": 1.63304,
    "v": 2940
  },
  {
    "dt": "2023.04.14 13:00",
    "o": 1.63304,
    "h": 1.63305,
    "l": 1.63063,
    "c": 1.63084,
    "v": 2990
  },
  {
    "dt": "2023.04.14 14:00",
    "o": 1.63079,
    "h": 1.63257,
    "l": 1.63054,
    "c": 1.63177,
    "v": 3491
  },
  {
    "dt": "2023.04.14 15:00",
    "o": 1.63173,
    "h": 1.63218,
    "l": 1.62661,
    "c": 1.63099,
    "v": 5186
  },
  {
    "dt": "2023.04.14 16:00",
    "o": 1.63101,
    "h": 1.63198,
    "l": 1.62944,
    "c": 1.63015,
    "v": 5330
  },
  {
    "dt": "2023.04.14 17:00",
    "o": 1.63019,
    "h": 1.63879,
    "l": 1.63019,
    "c": 1.63852,
    "v": 5669
  },
  {
    "dt": "2023.04.14 18:00",
    "o": 1.63847,
    "h": 1.63957,
    "l": 1.63794,
    "c": 1.63812,
    "v": 5083
  },
  {
    "dt": "2023.04.14 19:00",
    "o": 1.63813,
    "h": 1.63907,
    "l": 1.63781,
    "c": 1.63886,
    "v": 3837
  },
  {
    "dt": "2023.04.14 20:00",
    "o": 1.63887,
    "h": 1.6402,
    "l": 1.63765,
    "c": 1.6402,
    "v": 3266
  },
  {
    "dt": "2023.04.14 21:00",
    "o": 1.64017,
    "h": 1.64017,
    "l": 1.6392,
    "c": 1.63995,
    "v": 2758
  },
  {
    "dt": "2023.04.14 22:00",
    "o": 1.63995,
    "h": 1.64028,
    "l": 1.63927,
    "c": 1.6393,
    "v": 2381
  },
  {
    "dt": "2023.04.14 23:00",
    "o": 1.6393,
    "h": 1.6393,
    "l": 1.6376,
    "c": 1.63812,
    "v": 1491
  },
  {
    "dt": "2023.04.17 00:00",
    "o": 1.63858,
    "h": 1.63949,
    "l": 1.63773,
    "c": 1.63868,
    "v": 247
  },
  {
    "dt": "2023.04.17 01:00",
    "o": 1.63881,
    "h": 1.63923,
    "l": 1.63821,
    "c": 1.63822,
    "v": 1695
  },
  {
    "dt": "2023.04.17 02:00",
    "o": 1.63821,
    "h": 1.63869,
    "l": 1.63781,
    "c": 1.63786,
    "v": 1265
  },
  {
    "dt": "2023.04.17 03:00",
    "o": 1.63791,
    "h": 1.63906,
    "l": 1.637,
    "c": 1.63891,
    "v": 2319
  },
  {
    "dt": "2023.04.17 04:00",
    "o": 1.63903,
    "h": 1.63911,
    "l": 1.63531,
    "c": 1.63603,
    "v": 3113
  },
  {
    "dt": "2023.04.17 05:00",
    "o": 1.63604,
    "h": 1.63712,
    "l": 1.63559,
    "c": 1.63664,
    "v": 2621
  },
  {
    "dt": "2023.04.17 06:00",
    "o": 1.63665,
    "h": 1.63718,
    "l": 1.63614,
    "c": 1.63618,
    "v": 2165
  },
  {
    "dt": "2023.04.17 07:00",
    "o": 1.63618,
    "h": 1.63762,
    "l": 1.63597,
    "c": 1.63721,
    "v": 1917
  },
  {
    "dt": "2023.04.17 08:00",
    "o": 1.63726,
    "h": 1.63801,
    "l": 1.6367,
    "c": 1.63712,
    "v": 2691
  },
  {
    "dt": "2023.04.17 09:00",
    "o": 1.63714,
    "h": 1.6373,
    "l": 1.63602,
    "c": 1.63609,
    "v": 3608
  },
  {
    "dt": "2023.04.17 10:00",
    "o": 1.63609,
    "h": 1.63964,
    "l": 1.63604,
    "c": 1.63932,
    "v": 4162
  },
  {
    "dt": "2023.04.17 11:00",
    "o": 1.63934,
    "h": 1.63999,
    "l": 1.63676,
    "c": 1.63687,
    "v": 4314
  },
  {
    "dt": "2023.04.17 12:00",
    "o": 1.63687,
    "h": 1.6385,
    "l": 1.6368,
    "c": 1.63815,
    "v": 3654
  },
  {
    "dt": "2023.04.17 13:00",
    "o": 1.63817,
    "h": 1.63832,
    "l": 1.6367,
    "c": 1.63672,
    "v": 3404
  },
  {
    "dt": "2023.04.17 14:00",
    "o": 1.63671,
    "h": 1.63711,
    "l": 1.63578,
    "c": 1.63598,
    "v": 3454
  },
  {
    "dt": "2023.04.17 15:00",
    "o": 1.63605,
    "h": 1.63737,
    "l": 1.63487,
    "c": 1.63647,
    "v": 4538
  },
  {
    "dt": "2023.04.17 16:00",
    "o": 1.63648,
    "h": 1.63653,
    "l": 1.63256,
    "c": 1.63459,
    "v": 5245
  },
  {
    "dt": "2023.04.17 17:00",
    "o": 1.63455,
    "h": 1.63493,
    "l": 1.6308,
    "c": 1.63111,
    "v": 5486
  },
  {
    "dt": "2023.04.17 18:00",
    "o": 1.63111,
    "h": 1.63191,
    "l": 1.63062,
    "c": 1.63084,
    "v": 4416
  },
  {
    "dt": "2023.04.17 19:00",
    "o": 1.63083,
    "h": 1.63122,
    "l": 1.63014,
    "c": 1.63015,
    "v": 3126
  },
  {
    "dt": "2023.04.17 20:00",
    "o": 1.63014,
    "h": 1.63132,
    "l": 1.63005,
    "c": 1.63132,
    "v": 2575
  },
  {
    "dt": "2023.04.17 21:00",
    "o": 1.6313,
    "h": 1.63147,
    "l": 1.62991,
    "c": 1.63036,
    "v": 2311
  },
  {
    "dt": "2023.04.17 22:00",
    "o": 1.63031,
    "h": 1.63062,
    "l": 1.63001,
    "c": 1.63005,
    "v": 1946
  },
  {
    "dt": "2023.04.17 23:00",
    "o": 1.63009,
    "h": 1.6305,
    "l": 1.62979,
    "c": 1.63039,
    "v": 1312
  },
  {
    "dt": "2023.04.18 00:00",
    "o": 1.63065,
    "h": 1.63065,
    "l": 1.62953,
    "c": 1.6298,
    "v": 316
  },
  {
    "dt": "2023.04.18 01:00",
    "o": 1.62994,
    "h": 1.63068,
    "l": 1.62993,
    "c": 1.63022,
    "v": 699
  },
  {
    "dt": "2023.04.18 02:00",
    "o": 1.63015,
    "h": 1.63079,
    "l": 1.62978,
    "c": 1.63071,
    "v": 1143
  },
  {
    "dt": "2023.04.18 03:00",
    "o": 1.6307,
    "h": 1.63075,
    "l": 1.62987,
    "c": 1.63031,
    "v": 2206
  },
  {
    "dt": "2023.04.18 04:00",
    "o": 1.63029,
    "h": 1.63079,
    "l": 1.62844,
    "c": 1.62927,
    "v": 3224
  },
  {
    "dt": "2023.04.18 05:00",
    "o": 1.62843,
    "h": 1.62932,
    "l": 1.62671,
    "c": 1.62726,
    "v": 3587
  },
  {
    "dt": "2023.04.18 06:00",
    "o": 1.62726,
    "h": 1.62881,
    "l": 1.62597,
    "c": 1.62873,
    "v": 2268
  },
  {
    "dt": "2023.04.18 07:00",
    "o": 1.62882,
    "h": 1.62895,
    "l": 1.62751,
    "c": 1.62811,
    "v": 1774
  },
  {
    "dt": "2023.04.18 08:00",
    "o": 1.62813,
    "h": 1.62816,
    "l": 1.6246,
    "c": 1.6247,
    "v": 2405
  },
  {
    "dt": "2023.04.18 09:00",
    "o": 1.62487,
    "h": 1.62638,
    "l": 1.62448,
    "c": 1.62631,
    "v": 3830
  },
  {
    "dt": "2023.04.18 10:00",
    "o": 1.62628,
    "h": 1.63028,
    "l": 1.62593,
    "c": 1.62997,
    "v": 4335
  },
  {
    "dt": "2023.04.18 11:00",
    "o": 1.62997,
    "h": 1.63025,
    "l": 1.62794,
    "c": 1.62979,
    "v": 3859
  },
  {
    "dt": "2023.04.18 12:00",
    "o": 1.62982,
    "h": 1.62982,
    "l": 1.62745,
    "c": 1.62854,
    "v": 3631
  },
  {
    "dt": "2023.04.18 13:00",
    "o": 1.62853,
    "h": 1.62924,
    "l": 1.62736,
    "c": 1.62828,
    "v": 3109
  },
  {
    "dt": "2023.04.18 14:00",
    "o": 1.62827,
    "h": 1.62914,
    "l": 1.6271,
    "c": 1.62736,
    "v": 3565
  },
  {
    "dt": "2023.04.18 15:00",
    "o": 1.6274,
    "h": 1.6282,
    "l": 1.62666,
    "c": 1.62791,
    "v": 4280
  },
  {
    "dt": "2023.04.18 16:00",
    "o": 1.62789,
    "h": 1.62966,
    "l": 1.62711,
    "c": 1.62873,
    "v": 4939
  },
  {
    "dt": "2023.04.18 17:00",
    "o": 1.62872,
    "h": 1.63123,
    "l": 1.6273,
    "c": 1.62771,
    "v": 5137
  },
  {
    "dt": "2023.04.18 18:00",
    "o": 1.62771,
    "h": 1.63086,
    "l": 1.62761,
    "c": 1.63084,
    "v": 3890
  },
  {
    "dt": "2023.04.18 19:00",
    "o": 1.63083,
    "h": 1.63085,
    "l": 1.62887,
    "c": 1.62992,
    "v": 3011
  },
  {
    "dt": "2023.04.18 20:00",
    "o": 1.62993,
    "h": 1.63063,
    "l": 1.62972,
    "c": 1.63023,
    "v": 2432
  },
  {
    "dt": "2023.04.18 21:00",
    "o": 1.63023,
    "h": 1.63148,
    "l": 1.63007,
    "c": 1.6307,
    "v": 2390
  },
  {
    "dt": "2023.04.18 22:00",
    "o": 1.6307,
    "h": 1.63102,
    "l": 1.63002,
    "c": 1.63039,
    "v": 2452
  },
  {
    "dt": "2023.04.18 23:00",
    "o": 1.63038,
    "h": 1.63087,
    "l": 1.63027,
    "c": 1.6308,
    "v": 1357
  },
  {
    "dt": "2023.04.19 00:00",
    "o": 1.63132,
    "h": 1.63135,
    "l": 1.62963,
    "c": 1.6304,
    "v": 577
  },
  {
    "dt": "2023.04.19 01:00",
    "o": 1.63046,
    "h": 1.63096,
    "l": 1.6302,
    "c": 1.63039,
    "v": 748
  },
  {
    "dt": "2023.04.19 02:00",
    "o": 1.63033,
    "h": 1.63063,
    "l": 1.62874,
    "c": 1.62923,
    "v": 1169
  },
  {
    "dt": "2023.04.19 03:00",
    "o": 1.62925,
    "h": 1.63017,
    "l": 1.62849,
    "c": 1.62987,
    "v": 2252
  },
  {
    "dt": "2023.04.19 04:00",
    "o": 1.62991,
    "h": 1.6311,
    "l": 1.62896,
    "c": 1.63085,
    "v": 2851
  },
  {
    "dt": "2023.04.19 05:00",
    "o": 1.63086,
    "h": 1.63265,
    "l": 1.63072,
    "c": 1.63097,
    "v": 2756
  },
  {
    "dt": "2023.04.19 06:00",
    "o": 1.63098,
    "h": 1.63168,
    "l": 1.63006,
    "c": 1.63023,
    "v": 2008
  },
  {
    "dt": "2023.04.19 07:00",
    "o": 1.63026,
    "h": 1.63054,
    "l": 1.62918,
    "c": 1.62942,
    "v": 1606
  },
  {
    "dt": "2023.04.19 08:00",
    "o": 1.62941,
    "h": 1.6303,
    "l": 1.6292,
    "c": 1.62964,
    "v": 2105
  },
  {
    "dt": "2023.04.19 09:00",
    "o": 1.62964,
    "h": 1.63296,
    "l": 1.62904,
    "c": 1.63109,
    "v": 5048
  },
  {
    "dt": "2023.04.19 10:00",
    "o": 1.63109,
    "h": 1.63271,
    "l": 1.63029,
    "c": 1.63198,
    "v": 4666
  },
  {
    "dt": "2023.04.19 11:00",
    "o": 1.63198,
    "h": 1.63384,
    "l": 1.63175,
    "c": 1.63344,
    "v": 4283
  },
  {
    "dt": "2023.04.19 12:00",
    "o": 1.63344,
    "h": 1.63459,
    "l": 1.63113,
    "c": 1.63168,
    "v": 4341
  },
  {
    "dt": "2023.04.19 13:00",
    "o": 1.63168,
    "h": 1.63327,
    "l": 1.6315,
    "c": 1.63156,
    "v": 3840
  },
  {
    "dt": "2023.04.19 14:00",
    "o": 1.63151,
    "h": 1.63266,
    "l": 1.62908,
    "c": 1.63011,
    "v": 4081
  },
  {
    "dt": "2023.04.19 15:00",
    "o": 1.63013,
    "h": 1.63067,
    "l": 1.62779,
    "c": 1.62963,
    "v": 4119
  },
  {
    "dt": "2023.04.19 16:00",
    "o": 1.62957,
    "h": 1.63085,
    "l": 1.62875,
    "c": 1.63077,
    "v": 4248
  },
  {
    "dt": "2023.04.19 17:00",
    "o": 1.63081,
    "h": 1.63091,
    "l": 1.62923,
    "c": 1.63027,
    "v": 4474
  },
  {
    "dt": "2023.04.19 18:00",
    "o": 1.6303,
    "h": 1.63091,
    "l": 1.6294,
    "c": 1.63062,
    "v": 3726
  },
  {
    "dt": "2023.04.19 19:00",
    "o": 1.63054,
    "h": 1.63163,
    "l": 1.63032,
    "c": 1.63098,
    "v": 2688
  },
  {
    "dt": "2023.04.19 20:00",
    "o": 1.6309,
    "h": 1.6311,
    "l": 1.62978,
    "c": 1.63089,
    "v": 2355
  },
  {
    "dt": "2023.04.19 21:00",
    "o": 1.63089,
    "h": 1.63153,
    "l": 1.63048,
    "c": 1.63083,
    "v": 2305
  },
  {
    "dt": "2023.04.19 22:00",
    "o": 1.63085,
    "h": 1.63137,
    "l": 1.63063,
    "c": 1.63125,
    "v": 1970
  },
  {
    "dt": "2023.04.19 23:00",
    "o": 1.63124,
    "h": 1.63179,
    "l": 1.63108,
    "c": 1.63155,
    "v": 1231
  },
  {
    "dt": "2023.04.20 00:00",
    "o": 1.62969,
    "h": 1.63189,
    "l": 1.6296,
    "c": 1.63104,
    "v": 612
  },
  {
    "dt": "2023.04.20 01:00",
    "o": 1.63111,
    "h": 1.63325,
    "l": 1.63111,
    "c": 1.63262,
    "v": 1177
  },
  {
    "dt": "2023.04.20 02:00",
    "o": 1.6326,
    "h": 1.63395,
    "l": 1.63227,
    "c": 1.63315,
    "v": 1492
  },
  {
    "dt": "2023.04.20 03:00",
    "o": 1.63318,
    "h": 1.63401,
    "l": 1.6326,
    "c": 1.634,
    "v": 2352
  },
  {
    "dt": "2023.04.20 04:00",
    "o": 1.63403,
    "h": 1.6351,
    "l": 1.63321,
    "c": 1.63422,
    "v": 3323
  },
  {
    "dt": "2023.04.20 05:00",
    "o": 1.63422,
    "h": 1.63484,
    "l": 1.6332,
    "c": 1.6335,
    "v": 2683
  },
  {
    "dt": "2023.04.20 06:00",
    "o": 1.63353,
    "h": 1.63517,
    "l": 1.63353,
    "c": 1.63448,
    "v": 2267
  },
  {
    "dt": "2023.04.20 07:00",
    "o": 1.63445,
    "h": 1.63493,
    "l": 1.63375,
    "c": 1.63451,
    "v": 1795
  },
  {
    "dt": "2023.04.20 08:00",
    "o": 1.63451,
    "h": 1.63454,
    "l": 1.63251,
    "c": 1.63251,
    "v": 2140
  },
  {
    "dt": "2023.04.20 09:00",
    "o": 1.63251,
    "h": 1.63255,
    "l": 1.63107,
    "c": 1.63163,
    "v": 3549
  },
  {
    "dt": "2023.04.20 10:00",
    "o": 1.63164,
    "h": 1.63366,
    "l": 1.62985,
    "c": 1.63334,
    "v": 4293
  },
  {
    "dt": "2023.04.20 11:00",
    "o": 1.63332,
    "h": 1.63561,
    "l": 1.63275,
    "c": 1.63503,
    "v": 4063
  },
  {
    "dt": "2023.04.20 12:00",
    "o": 1.63497,
    "h": 1.63597,
    "l": 1.63146,
    "c": 1.63147,
    "v": 3480
  },
  {
    "dt": "2023.04.20 13:00",
    "o": 1.63155,
    "h": 1.63181,
    "l": 1.62857,
    "c": 1.62858,
    "v": 3070
  },
  {
    "dt": "2023.04.20 14:00",
    "o": 1.62863,
    "h": 1.63021,
    "l": 1.62842,
    "c": 1.62988,
    "v": 3358
  },
  {
    "dt": "2023.04.20 15:00",
    "o": 1.62986,
    "h": 1.63037,
    "l": 1.62635,
    "c": 1.62635,
    "v": 5106
  },
  {
    "dt": "2023.04.20 16:00",
    "o": 1.6264,
    "h": 1.6268,
    "l": 1.62494,
    "c": 1.62504,
    "v": 4921
  },
  {
    "dt": "2023.04.20 17:00",
    "o": 1.62494,
    "h": 1.62529,
    "l": 1.62197,
    "c": 1.62257,
    "v": 5090
  },
  {
    "dt": "2023.04.20 18:00",
    "o": 1.62262,
    "h": 1.62463,
    "l": 1.62235,
    "c": 1.62429,
    "v": 3867
  },
  {
    "dt": "2023.04.20 19:00",
    "o": 1.62426,
    "h": 1.62463,
    "l": 1.62367,
    "c": 1.62439,
    "v": 2895
  },
  {
    "dt": "2023.04.20 20:00",
    "o": 1.62435,
    "h": 1.62479,
    "l": 1.62373,
    "c": 1.62476,
    "v": 1988
  },
  {
    "dt": "2023.04.20 21:00",
    "o": 1.62476,
    "h": 1.62689,
    "l": 1.62471,
    "c": 1.62609,
    "v": 2448
  },
  {
    "dt": "2023.04.20 22:00",
    "o": 1.6261,
    "h": 1.62756,
    "l": 1.62585,
    "c": 1.62722,
    "v": 2575
  },
  {
    "dt": "2023.04.20 23:00",
    "o": 1.62722,
    "h": 1.62732,
    "l": 1.62631,
    "c": 1.62697,
    "v": 1436
  },
  {
    "dt": "2023.04.21 00:00",
    "o": 1.62631,
    "h": 1.62686,
    "l": 1.62506,
    "c": 1.62643,
    "v": 394
  },
  {
    "dt": "2023.04.21 01:00",
    "o": 1.62651,
    "h": 1.62712,
    "l": 1.62645,
    "c": 1.62672,
    "v": 904
  },
  {
    "dt": "2023.04.21 02:00",
    "o": 1.62671,
    "h": 1.6269,
    "l": 1.62587,
    "c": 1.62651,
    "v": 1270
  },
  {
    "dt": "2023.04.21 03:00",
    "o": 1.62653,
    "h": 1.62812,
    "l": 1.62644,
    "c": 1.62705,
    "v": 2319
  },
  {
    "dt": "2023.04.21 04:00",
    "o": 1.62694,
    "h": 1.63171,
    "l": 1.62681,
    "c": 1.63055,
    "v": 2903
  },
  {
    "dt": "2023.04.21 05:00",
    "o": 1.63052,
    "h": 1.63212,
    "l": 1.63026,
    "c": 1.63026,
    "v": 2662
  },
  {
    "dt": "2023.04.21 06:00",
    "o": 1.63026,
    "h": 1.6325,
    "l": 1.63014,
    "c": 1.63195,
    "v": 1865
  },
  {
    "dt": "2023.04.21 07:00",
    "o": 1.63195,
    "h": 1.63273,
    "l": 1.63159,
    "c": 1.63228,
    "v": 1785
  },
  {
    "dt": "2023.04.21 08:00",
    "o": 1.63228,
    "h": 1.63375,
    "l": 1.63155,
    "c": 1.6335,
    "v": 2165
  },
  {
    "dt": "2023.04.21 09:00",
    "o": 1.63359,
    "h": 1.63729,
    "l": 1.63353,
    "c": 1.63597,
    "v": 3976
  },
  {
    "dt": "2023.04.21 10:00",
    "o": 1.63597,
    "h": 1.63879,
    "l": 1.63497,
    "c": 1.63833,
    "v": 4271
  },
  {
    "dt": "2023.04.21 11:00",
    "o": 1.63833,
    "h": 1.64009,
    "l": 1.63798,
    "c": 1.63853,
    "v": 4240
  },
  {
    "dt": "2023.04.21 12:00",
    "o": 1.63856,
    "h": 1.63867,
    "l": 1.63682,
    "c": 1.63807,
    "v": 3555
  },
  {
    "dt": "2023.04.21 13:00",
    "o": 1.63807,
    "h": 1.6387,
    "l": 1.63664,
    "c": 1.63833,
    "v": 3108
  },
  {
    "dt": "2023.04.21 14:00",
    "o": 1.63832,
    "h": 1.64061,
    "l": 1.63827,
    "c": 1.63961,
    "v": 3452
  },
  {
    "dt": "2023.04.21 15:00",
    "o": 1.63963,
    "h": 1.63985,
    "l": 1.63818,
    "c": 1.63927,
    "v": 3897
  },
  {
    "dt": "2023.04.21 16:00",
    "o": 1.63931,
    "h": 1.6398,
    "l": 1.6372,
    "c": 1.63829,
    "v": 4917
  },
  {
    "dt": "2023.04.21 17:00",
    "o": 1.63834,
    "h": 1.64191,
    "l": 1.63671,
    "c": 1.64131,
    "v": 5424
  },
  {
    "dt": "2023.04.21 18:00",
    "o": 1.64129,
    "h": 1.64154,
    "l": 1.63991,
    "c": 1.64011,
    "v": 4222
  },
  {
    "dt": "2023.04.21 19:00",
    "o": 1.64008,
    "h": 1.6422,
    "l": 1.64005,
    "c": 1.64108,
    "v": 3082
  },
  {
    "dt": "2023.04.21 20:00",
    "o": 1.64094,
    "h": 1.64103,
    "l": 1.63939,
    "c": 1.63955,
    "v": 2392
  },
  {
    "dt": "2023.04.21 21:00",
    "o": 1.63954,
    "h": 1.64213,
    "l": 1.63934,
    "c": 1.64187,
    "v": 2608
  },
  {
    "dt": "2023.04.21 22:00",
    "o": 1.64188,
    "h": 1.64278,
    "l": 1.6414,
    "c": 1.6421,
    "v": 2326
  },
  {
    "dt": "2023.04.21 23:00",
    "o": 1.64204,
    "h": 1.64233,
    "l": 1.64119,
    "c": 1.64152,
    "v": 1395
  },
  {
    "dt": "2023.04.24 00:00",
    "o": 1.64079,
    "h": 1.64151,
    "l": 1.64044,
    "c": 1.64104,
    "v": 203
  },
  {
    "dt": "2023.04.24 01:00",
    "o": 1.64072,
    "h": 1.64278,
    "l": 1.64072,
    "c": 1.64175,
    "v": 1096
  },
  {
    "dt": "2023.04.24 02:00",
    "o": 1.64169,
    "h": 1.64269,
    "l": 1.64143,
    "c": 1.64269,
    "v": 1202
  },
  {
    "dt": "2023.04.24 03:00",
    "o": 1.64272,
    "h": 1.64421,
    "l": 1.64197,
    "c": 1.64216,
    "v": 2378
  },
  {
    "dt": "2023.04.24 04:00",
    "o": 1.64216,
    "h": 1.64431,
    "l": 1.64175,
    "c": 1.64392,
    "v": 2796
  },
  {
    "dt": "2023.04.24 05:00",
    "o": 1.64392,
    "h": 1.64422,
    "l": 1.64296,
    "c": 1.64365,
    "v": 3074
  },
  {
    "dt": "2023.04.24 06:00",
    "o": 1.64369,
    "h": 1.64429,
    "l": 1.64316,
    "c": 1.64396,
    "v": 2595
  },
  {
    "dt": "2023.04.24 07:00",
    "o": 1.64394,
    "h": 1.64575,
    "l": 1.64369,
    "c": 1.64477,
    "v": 1930
  },
  {
    "dt": "2023.04.24 08:00",
    "o": 1.64473,
    "h": 1.64532,
    "l": 1.64429,
    "c": 1.64438,
    "v": 2718
  },
  {
    "dt": "2023.04.24 09:00",
    "o": 1.64445,
    "h": 1.64667,
    "l": 1.64442,
    "c": 1.64532,
    "v": 3634
  },
  {
    "dt": "2023.04.24 10:00",
    "o": 1.64531,
    "h": 1.64582,
    "l": 1.64255,
    "c": 1.64363,
    "v": 3793
  },
  {
    "dt": "2023.04.24 11:00",
    "o": 1.64357,
    "h": 1.64617,
    "l": 1.64283,
    "c": 1.64594,
    "v": 3904
  },
  {
    "dt": "2023.04.24 12:00",
    "o": 1.64592,
    "h": 1.64772,
    "l": 1.64578,
    "c": 1.64621,
    "v": 3736
  },
  {
    "dt": "2023.04.24 13:00",
    "o": 1.64623,
    "h": 1.64896,
    "l": 1.6461,
    "c": 1.64886,
    "v": 3497
  },
  {
    "dt": "2023.04.24 14:00",
    "o": 1.64887,
    "h": 1.64911,
    "l": 1.64629,
    "c": 1.64655,
    "v": 3320
  },
  {
    "dt": "2023.04.24 15:00",
    "o": 1.64653,
    "h": 1.64874,
    "l": 1.64644,
    "c": 1.64867,
    "v": 4123
  },
  {
    "dt": "2023.04.24 16:00",
    "o": 1.64871,
    "h": 1.65078,
    "l": 1.64865,
    "c": 1.64942,
    "v": 4665
  },
  {
    "dt": "2023.04.24 17:00",
    "o": 1.64942,
    "h": 1.64995,
    "l": 1.64685,
    "c": 1.64754,
    "v": 4739
  },
  {
    "dt": "2023.04.24 18:00",
    "o": 1.64753,
    "h": 1.6509,
    "l": 1.64714,
    "c": 1.65066,
    "v": 4045
  },
  {
    "dt": "2023.04.24 19:00",
    "o": 1.65061,
    "h": 1.65115,
    "l": 1.6499,
    "c": 1.65036,
    "v": 2669
  },
  {
    "dt": "2023.04.24 20:00",
    "o": 1.6503,
    "h": 1.65133,
    "l": 1.64986,
    "c": 1.65029,
    "v": 2508
  },
  {
    "dt": "2023.04.24 21:00",
    "o": 1.65029,
    "h": 1.6513,
    "l": 1.65003,
    "c": 1.65049,
    "v": 1901
  },
  {
    "dt": "2023.04.24 22:00",
    "o": 1.65045,
    "h": 1.65045,
    "l": 1.64948,
    "c": 1.64952,
    "v": 2063
  },
  {
    "dt": "2023.04.24 23:00",
    "o": 1.6495,
    "h": 1.64971,
    "l": 1.64928,
    "c": 1.64945,
    "v": 1212
  },
  {
    "dt": "2023.04.25 00:00",
    "o": 1.64942,
    "h": 1.64999,
    "l": 1.649,
    "c": 1.64954,
    "v": 610
  },
  {
    "dt": "2023.04.25 01:00",
    "o": 1.64953,
    "h": 1.64993,
    "l": 1.649,
    "c": 1.64933,
    "v": 889
  },
  {
    "dt": "2023.04.25 02:00",
    "o": 1.6493,
    "h": 1.64971,
    "l": 1.64863,
    "c": 1.64927,
    "v": 1254
  },
  {
    "dt": "2023.04.25 03:00",
    "o": 1.64942,
    "h": 1.65176,
    "l": 1.64921,
    "c": 1.65155,
    "v": 2330
  },
  {
    "dt": "2023.04.25 04:00",
    "o": 1.65152,
    "h": 1.65252,
    "l": 1.65028,
    "c": 1.65246,
    "v": 3179
  },
  {
    "dt": "2023.04.25 05:00",
    "o": 1.65246,
    "h": 1.65462,
    "l": 1.65234,
    "c": 1.65417,
    "v": 3004
  },
  {
    "dt": "2023.04.25 06:00",
    "o": 1.65421,
    "h": 1.65496,
    "l": 1.65376,
    "c": 1.65466,
    "v": 2500
  },
  {
    "dt": "2023.04.25 07:00",
    "o": 1.65467,
    "h": 1.65609,
    "l": 1.65455,
    "c": 1.65462,
    "v": 2048
  },
  {
    "dt": "2023.04.25 08:00",
    "o": 1.65462,
    "h": 1.65592,
    "l": 1.65405,
    "c": 1.6543,
    "v": 3048
  },
  {
    "dt": "2023.04.25 09:00",
    "o": 1.65446,
    "h": 1.65496,
    "l": 1.65305,
    "c": 1.65487,
    "v": 4153
  },
  {
    "dt": "2023.04.25 10:00",
    "o": 1.65484,
    "h": 1.65681,
    "l": 1.65096,
    "c": 1.65661,
    "v": 5048
  },
  {
    "dt": "2023.04.25 11:00",
    "o": 1.6566,
    "h": 1.65791,
    "l": 1.65567,
    "c": 1.65607,
    "v": 4318
  },
  {
    "dt": "2023.04.25 12:00",
    "o": 1.65602,
    "h": 1.65659,
    "l": 1.65431,
    "c": 1.65449,
    "v": 3568
  },
  {
    "dt": "2023.04.25 13:00",
    "o": 1.65448,
    "h": 1.6552,
    "l": 1.65372,
    "c": 1.65433,
    "v": 3322
  },
  {
    "dt": "2023.04.25 14:00",
    "o": 1.65431,
    "h": 1.65624,
    "l": 1.65397,
    "c": 1.65585,
    "v": 4018
  },
  {
    "dt": "2023.04.25 15:00",
    "o": 1.65584,
    "h": 1.65661,
    "l": 1.65506,
    "c": 1.65567,
    "v": 4075
  },
  {
    "dt": "2023.04.25 16:00",
    "o": 1.65561,
    "h": 1.65864,
    "l": 1.65524,
    "c": 1.65814,
    "v": 4798
  },
  {
    "dt": "2023.04.25 17:00",
    "o": 1.65808,
    "h": 1.65819,
    "l": 1.65433,
    "c": 1.65479,
    "v": 5298
  },
  {
    "dt": "2023.04.25 18:00",
    "o": 1.65475,
    "h": 1.65625,
    "l": 1.65464,
    "c": 1.65534,
    "v": 4021
  },
  {
    "dt": "2023.04.25 19:00",
    "o": 1.65532,
    "h": 1.65657,
    "l": 1.65484,
    "c": 1.65567,
    "v": 3111
  },
  {
    "dt": "2023.04.25 20:00",
    "o": 1.65572,
    "h": 1.65751,
    "l": 1.65534,
    "c": 1.65732,
    "v": 3268
  },
  {
    "dt": "2023.04.25 21:00",
    "o": 1.65732,
    "h": 1.65793,
    "l": 1.65688,
    "c": 1.65772,
    "v": 3049
  },
  {
    "dt": "2023.04.25 22:00",
    "o": 1.65774,
    "h": 1.65791,
    "l": 1.65645,
    "c": 1.65654,
    "v": 2484
  },
  {
    "dt": "2023.04.25 23:00",
    "o": 1.6566,
    "h": 1.65676,
    "l": 1.65581,
    "c": 1.65597,
    "v": 1411
  },
  {
    "dt": "2023.04.26 00:00",
    "o": 1.65507,
    "h": 1.65597,
    "l": 1.65352,
    "c": 1.65551,
    "v": 570
  },
  {
    "dt": "2023.04.26 01:00",
    "o": 1.65571,
    "h": 1.6562,
    "l": 1.65383,
    "c": 1.65403,
    "v": 1564
  },
  {
    "dt": "2023.04.26 02:00",
    "o": 1.65398,
    "h": 1.65536,
    "l": 1.6538,
    "c": 1.6541,
    "v": 1961
  },
  {
    "dt": "2023.04.26 03:00",
    "o": 1.65407,
    "h": 1.65518,
    "l": 1.6533,
    "c": 1.65488,
    "v": 3093
  },
  {
    "dt": "2023.04.26 04:00",
    "o": 1.65488,
    "h": 1.65928,
    "l": 1.65417,
    "c": 1.65618,
    "v": 3783
  },
  {
    "dt": "2023.04.26 05:00",
    "o": 1.65617,
    "h": 1.65949,
    "l": 1.65608,
    "c": 1.65805,
    "v": 3256
  },
  {
    "dt": "2023.04.26 06:00",
    "o": 1.65806,
    "h": 1.66113,
    "l": 1.65796,
    "c": 1.66109,
    "v": 2795
  },
  {
    "dt": "2023.04.26 07:00",
    "o": 1.66109,
    "h": 1.6617,
    "l": 1.66036,
    "c": 1.66088,
    "v": 2278
  },
  {
    "dt": "2023.04.26 08:00",
    "o": 1.66088,
    "h": 1.6629,
    "l": 1.66088,
    "c": 1.66285,
    "v": 2917
  },
  {
    "dt": "2023.04.26 09:00",
    "o": 1.66283,
    "h": 1.66462,
    "l": 1.66273,
    "c": 1.66394,
    "v": 3679
  },
  {
    "dt": "2023.04.26 10:00",
    "o": 1.66383,
    "h": 1.66821,
    "l": 1.66359,
    "c": 1.6668,
    "v": 4829
  },
  {
    "dt": "2023.04.26 11:00",
    "o": 1.66677,
    "h": 1.67205,
    "l": 1.66648,
    "c": 1.67165,
    "v": 4522
  },
  {
    "dt": "2023.04.26 12:00",
    "o": 1.67167,
    "h": 1.67408,
    "l": 1.67136,
    "c": 1.67322,
    "v": 4522
  },
  {
    "dt": "2023.04.26 13:00",
    "o": 1.67321,
    "h": 1.67387,
    "l": 1.67111,
    "c": 1.67267,
    "v": 4082
  },
  {
    "dt": "2023.04.26 14:00",
    "o": 1.67267,
    "h": 1.67421,
    "l": 1.6714,
    "c": 1.67299,
    "v": 5103
  },
  {
    "dt": "2023.04.26 15:00",
    "o": 1.67299,
    "h": 1.67397,
    "l": 1.6713,
    "c": 1.67363,
    "v": 4984
  },
  {
    "dt": "2023.04.26 16:00",
    "o": 1.67367,
    "h": 1.67851,
    "l": 1.67198,
    "c": 1.6754,
    "v": 5538
  },
  {
    "dt": "2023.04.26 17:00",
    "o": 1.6754,
    "h": 1.67609,
    "l": 1.67087,
    "c": 1.67117,
    "v": 5342
  },
  {
    "dt": "2023.04.26 18:00",
    "o": 1.67123,
    "h": 1.67203,
    "l": 1.66947,
    "c": 1.67037,
    "v": 4438
  },
  {
    "dt": "2023.04.26 19:00",
    "o": 1.67036,
    "h": 1.67146,
    "l": 1.66985,
    "c": 1.67079,
    "v": 3670
  },
  {
    "dt": "2023.04.26 20:00",
    "o": 1.67079,
    "h": 1.67178,
    "l": 1.66938,
    "c": 1.67166,
    "v": 2908
  },
  {
    "dt": "2023.04.26 21:00",
    "o": 1.67167,
    "h": 1.67433,
    "l": 1.67162,
    "c": 1.67433,
    "v": 2897
  },
  {
    "dt": "2023.04.26 22:00",
    "o": 1.67418,
    "h": 1.67423,
    "l": 1.67213,
    "c": 1.67286,
    "v": 3099
  },
  {
    "dt": "2023.04.26 23:00",
    "o": 1.67283,
    "h": 1.67339,
    "l": 1.67148,
    "c": 1.67158,
    "v": 1638
  },
  {
    "dt": "2023.04.27 00:00",
    "o": 1.67186,
    "h": 1.67215,
    "l": 1.67081,
    "c": 1.67116,
    "v": 331
  },
  {
    "dt": "2023.04.27 01:00",
    "o": 1.67121,
    "h": 1.672,
    "l": 1.67018,
    "c": 1.67034,
    "v": 1393
  },
  {
    "dt": "2023.04.27 02:00",
    "o": 1.67036,
    "h": 1.67132,
    "l": 1.67006,
    "c": 1.67123,
    "v": 1516
  },
  {
    "dt": "2023.04.27 03:00",
    "o": 1.67124,
    "h": 1.67291,
    "l": 1.67099,
    "c": 1.67113,
    "v": 2757
  },
  {
    "dt": "2023.04.27 04:00",
    "o": 1.67112,
    "h": 1.67275,
    "l": 1.67074,
    "c": 1.6713,
    "v": 3406
  },
  {
    "dt": "2023.04.27 05:00",
    "o": 1.67136,
    "h": 1.6733,
    "l": 1.67078,
    "c": 1.67251,
    "v": 3274
  },
  {
    "dt": "2023.04.27 06:00",
    "o": 1.6725,
    "h": 1.67298,
    "l": 1.6713,
    "c": 1.67159,
    "v": 2832
  },
  {
    "dt": "2023.04.27 07:00",
    "o": 1.6716,
    "h": 1.67233,
    "l": 1.66999,
    "c": 1.66999,
    "v": 2541
  },
  {
    "dt": "2023.04.27 08:00",
    "o": 1.66998,
    "h": 1.67065,
    "l": 1.66669,
    "c": 1.66813,
    "v": 3380
  },
  {
    "dt": "2023.04.27 09:00",
    "o": 1.66814,
    "h": 1.66879,
    "l": 1.6666,
    "c": 1.66804,
    "v": 4414
  },
  {
    "dt": "2023.04.27 10:00",
    "o": 1.66802,
    "h": 1.6696,
    "l": 1.66681,
    "c": 1.66897,
    "v": 4847
  },
  {
    "dt": "2023.04.27 11:00",
    "o": 1.66896,
    "h": 1.67068,
    "l": 1.66785,
    "c": 1.66963,
    "v": 4012
  },
  {
    "dt": "2023.04.27 12:00",
    "o": 1.66963,
    "h": 1.67099,
    "l": 1.66882,
    "c": 1.6699,
    "v": 3995
  },
  {
    "dt": "2023.04.27 13:00",
    "o": 1.6699,
    "h": 1.67029,
    "l": 1.6683,
    "c": 1.66839,
    "v": 3333
  },
  {
    "dt": "2023.04.27 14:00",
    "o": 1.66838,
    "h": 1.66864,
    "l": 1.6662,
    "c": 1.66704,
    "v": 4171
  },
  {
    "dt": "2023.04.27 15:00",
    "o": 1.667,
    "h": 1.66836,
    "l": 1.66507,
    "c": 1.66581,
    "v": 5178
  },
  {
    "dt": "2023.04.27 16:00",
    "o": 1.66573,
    "h": 1.66695,
    "l": 1.66474,
    "c": 1.66583,
    "v": 5676
  },
  {
    "dt": "2023.04.27 17:00",
    "o": 1.66598,
    "h": 1.66628,
    "l": 1.66381,
    "c": 1.66435,
    "v": 5345
  },
  {
    "dt": "2023.04.27 18:00",
    "o": 1.66442,
    "h": 1.66616,
    "l": 1.66375,
    "c": 1.66559,
    "v": 4557
  },
  {
    "dt": "2023.04.27 19:00",
    "o": 1.6656,
    "h": 1.66584,
    "l": 1.66397,
    "c": 1.66407,
    "v": 2993
  },
  {
    "dt": "2023.04.27 20:00",
    "o": 1.66409,
    "h": 1.66409,
    "l": 1.66235,
    "c": 1.66326,
    "v": 3019
  },
  {
    "dt": "2023.04.27 21:00",
    "o": 1.66328,
    "h": 1.66365,
    "l": 1.66241,
    "c": 1.6629,
    "v": 2462
  },
  {
    "dt": "2023.04.27 22:00",
    "o": 1.6629,
    "h": 1.66334,
    "l": 1.66236,
    "c": 1.66286,
    "v": 2674
  },
  {
    "dt": "2023.04.27 23:00",
    "o": 1.66286,
    "h": 1.66369,
    "l": 1.66244,
    "c": 1.66313,
    "v": 1902
  },
  {
    "dt": "2023.04.28 00:00",
    "o": 1.66242,
    "h": 1.66499,
    "l": 1.66242,
    "c": 1.66303,
    "v": 315
  },
  {
    "dt": "2023.04.28 01:00",
    "o": 1.66314,
    "h": 1.66423,
    "l": 1.66297,
    "c": 1.66377,
    "v": 1282
  },
  {
    "dt": "2023.04.28 02:00",
    "o": 1.66375,
    "h": 1.66423,
    "l": 1.66333,
    "c": 1.66358,
    "v": 1587
  },
  {
    "dt": "2023.04.28 03:00",
    "o": 1.66359,
    "h": 1.66407,
    "l": 1.66246,
    "c": 1.66288,
    "v": 2561
  },
  {
    "dt": "2023.04.28 04:00",
    "o": 1.66288,
    "h": 1.66331,
    "l": 1.66059,
    "c": 1.66096,
    "v": 3595
  },
  {
    "dt": "2023.04.28 05:00",
    "o": 1.66096,
    "h": 1.66253,
    "l": 1.66076,
    "c": 1.66154,
    "v": 3053
  },
  {
    "dt": "2023.04.28 06:00",
    "o": 1.66158,
    "h": 1.66281,
    "l": 1.66054,
    "c": 1.66213,
    "v": 3169
  },
  {
    "dt": "2023.04.28 07:00",
    "o": 1.66212,
    "h": 1.66472,
    "l": 1.66187,
    "c": 1.66467,
    "v": 3757
  },
  {
    "dt": "2023.04.28 08:00",
    "o": 1.66467,
    "h": 1.66583,
    "l": 1.66401,
    "c": 1.66565,
    "v": 3602
  },
  {
    "dt": "2023.04.28 09:00",
    "o": 1.66562,
    "h": 1.67025,
    "l": 1.66444,
    "c": 1.66928,
    "v": 4916
  },
  {
    "dt": "2023.04.28 10:00",
    "o": 1.66926,
    "h": 1.66962,
    "l": 1.66731,
    "c": 1.66891,
    "v": 4883
  },
  {
    "dt": "2023.04.28 11:00",
    "o": 1.66875,
    "h": 1.66982,
    "l": 1.66687,
    "c": 1.66941,
    "v": 4958
  },
  {
    "dt": "2023.04.28 12:00",
    "o": 1.66932,
    "h": 1.66961,
    "l": 1.66817,
    "c": 1.66941,
    "v": 4116
  },
  {
    "dt": "2023.04.28 13:00",
    "o": 1.66943,
    "h": 1.6695,
    "l": 1.66722,
    "c": 1.66824,
    "v": 3613
  },
  {
    "dt": "2023.04.28 14:00",
    "o": 1.6682,
    "h": 1.669,
    "l": 1.66578,
    "c": 1.66592,
    "v": 3733
  },
  {
    "dt": "2023.04.28 15:00",
    "o": 1.6659,
    "h": 1.6684,
    "l": 1.66518,
    "c": 1.66746,
    "v": 5177
  },
  {
    "dt": "2023.04.28 16:00",
    "o": 1.66749,
    "h": 1.67099,
    "l": 1.66669,
    "c": 1.66977,
    "v": 5570
  },
  {
    "dt": "2023.04.28 17:00",
    "o": 1.66995,
    "h": 1.67141,
    "l": 1.66883,
    "c": 1.67012,
    "v": 5765
  },
  {
    "dt": "2023.04.28 18:00",
    "o": 1.67013,
    "h": 1.6712,
    "l": 1.66821,
    "c": 1.66821,
    "v": 4853
  },
  {
    "dt": "2023.04.28 19:00",
    "o": 1.66821,
    "h": 1.66877,
    "l": 1.66663,
    "c": 1.66681,
    "v": 3662
  },
  {
    "dt": "2023.04.28 20:00",
    "o": 1.66679,
    "h": 1.66768,
    "l": 1.66618,
    "c": 1.66651,
    "v": 2894
  },
  {
    "dt": "2023.04.28 21:00",
    "o": 1.66652,
    "h": 1.66687,
    "l": 1.66519,
    "c": 1.66538,
    "v": 2657
  },
  {
    "dt": "2023.04.28 22:00",
    "o": 1.66547,
    "h": 1.66574,
    "l": 1.66486,
    "c": 1.66508,
    "v": 2449
  },
  {
    "dt": "2023.04.28 23:00",
    "o": 1.66501,
    "h": 1.66536,
    "l": 1.66404,
    "c": 1.6647,
    "v": 1776
  }
]