[
  {
    "dt": "2023.12.01 00:00",
    "o": 1.64744,
    "h": 1.64893,
    "l": 1.64697,
    "c": 1.64809,
    "v": 929
  },
  {
    "dt": "2023.12.01 01:00",
    "o": 1.64809,
    "h": 1.64887,
    "l": 1.64782,
    "c": 1.64841,
    "v": 1243
  },
  {
    "dt": "2023.12.01 02:00",
    "o": 1.64842,
    "h": 1.64868,
    "l": 1.6476,
    "c": 1.64804,
    "v": 2526
  },
  {
    "dt": "2023.12.01 03:00",
    "o": 1.64803,
    "h": 1.64819,
    "l": 1.64553,
    "c": 1.64573,
    "v": 3571
  },
  {
    "dt": "2023.12.01 04:00",
    "o": 1.64577,
    "h": 1.64879,
    "l": 1.64532,
    "c": 1.64872,
    "v": 3041
  },
  {
    "dt": "2023.12.01 05:00",
    "o": 1.64874,
    "h": 1.6513,
    "l": 1.64864,
    "c": 1.65046,
    "v": 2586
  },
  {
    "dt": "2023.12.01 06:00",
    "o": 1.65039,
    "h": 1.65063,
    "l": 1.64899,
    "c": 1.64978,
    "v": 1631
  },
  {
    "dt": "2023.12.01 07:00",
    "o": 1.64975,
    "h": 1.65121,
    "l": 1.64929,
    "c": 1.6499,
    "v": 3099
  },
  {
    "dt": "2023.12.01 08:00",
    "o": 1.64982,
    "h": 1.65199,
    "l": 1.64926,
    "c": 1.6517,
    "v": 2871
  },
  {
    "dt": "2023.12.01 09:00",
    "o": 1.65149,
    "h": 1.65261,
    "l": 1.64947,
    "c": 1.64963,
    "v": 3294
  },
  {
    "dt": "2023.12.01 10:00",
    "o": 1.6497,
    "h": 1.6497,
    "l": 1.64463,
    "c": 1.64465,
    "v": 4088
  },
  {
    "dt": "2023.12.01 11:00",
    "o": 1.64461,
    "h": 1.6455,
    "l": 1.64249,
    "c": 1.64333,
    "v": 3583
  },
  {
    "dt": "2023.12.01 12:00",
    "o": 1.64335,
    "h": 1.64537,
    "l": 1.64318,
    "c": 1.64488,
    "v": 2944
  },
  {
    "dt": "2023.12.01 13:00",
    "o": 1.6449,
    "h": 1.64661,
    "l": 1.64432,
    "c": 1.64648,
    "v": 3124
  },
  {
    "dt": "2023.12.01 14:00",
    "o": 1.64649,
    "h": 1.64673,
    "l": 1.64515,
    "c": 1.64531,
    "v": 3244
  },
  {
    "dt": "2023.12.01 15:00",
    "o": 1.64531,
    "h": 1.64567,
    "l": 1.64308,
    "c": 1.6437,
    "v": 4595
  },
  {
    "dt": "2023.12.01 16:00",
    "o": 1.64369,
    "h": 1.6438,
    "l": 1.63813,
    "c": 1.63859,
    "v": 4792
  },
  {
    "dt": "2023.12.01 17:00",
    "o": 1.63776,
    "h": 1.63788,
    "l": 1.632,
    "c": 1.63223,
    "v": 6390
  },
  {
    "dt": "2023.12.01 18:00",
    "o": 1.63218,
    "h": 1.63439,
    "l": 1.63135,
    "c": 1.63329,
    "v": 6313
  },
  {
    "dt": "2023.12.01 19:00",
    "o": 1.63327,
    "h": 1.63362,
    "l": 1.63072,
    "c": 1.6309,
    "v": 4157
  },
  {
    "dt": "2023.12.01 20:00",
    "o": 1.63091,
    "h": 1.63309,
    "l": 1.63035,
    "c": 1.63238,
    "v": 3710
  },
  {
    "dt": "2023.12.01 21:00",
    "o": 1.63239,
    "h": 1.6326,
    "l": 1.62949,
    "c": 1.62962,
    "v": 2929
  },
  {
    "dt": "2023.12.01 22:00",
    "o": 1.62962,
    "h": 1.63012,
    "l": 1.62904,
    "c": 1.6301,
    "v": 2742
  },
  {
    "dt": "2023.12.01 23:00",
    "o": 1.6301,
    "h": 1.63072,
    "l": 1.62927,
    "c": 1.62986,
    "v": 1100
  },
  {
    "dt": "2023.12.04 00:00",
    "o": 1.6308,
    "h": 1.63232,
    "l": 1.6298,
    "c": 1.63149,
    "v": 479
  },
  {
    "dt": "2023.12.04 01:00",
    "o": 1.63056,
    "h": 1.63097,
    "l": 1.62785,
    "c": 1.62874,
    "v": 2778
  },
  {
    "dt": "2023.12.04 02:00",
    "o": 1.62873,
    "h": 1.62933,
    "l": 1.62675,
    "c": 1.62756,
    "v": 3287
  },
  {
    "dt": "2023.12.04 03:00",
    "o": 1.62755,
    "h": 1.62916,
    "l": 1.62725,
    "c": 1.62845,
    "v": 4302
  },
  {
    "dt": "2023.12.04 04:00",
    "o": 1.62845,
    "h": 1.63077,
    "l": 1.62787,
    "c": 1.63076,
    "v": 3178
  },
  {
    "dt": "2023.12.04 05:00",
    "o": 1.6308,
    "h": 1.63437,
    "l": 1.63006,
    "c": 1.63424,
    "v": 2771
  },
  {
    "dt": "2023.12.04 06:00",
    "o": 1.63424,
    "h": 1.63467,
    "l": 1.63258,
    "c": 1.63306,
    "v": 2670
  },
  {
    "dt": "2023.12.04 07:00",
    "o": 1.63305,
    "h": 1.6337,
    "l": 1.63206,
    "c": 1.6326,
    "v": 2931
  },
  {
    "dt": "2023.12.04 08:00",
    "o": 1.63258,
    "h": 1.63459,
    "l": 1.6316,
    "c": 1.63437,
    "v": 3255
  },
  {
    "dt": "2023.12.04 09:00",
    "o": 1.63437,
    "h": 1.63468,
    "l": 1.63308,
    "c": 1.63453,
    "v": 3583
  },
  {
    "dt": "2023.12.04 10:00",
    "o": 1.63455,
    "h": 1.63774,
    "l": 1.6344,
    "c": 1.63444,
    "v": 4664
  },
  {
    "dt": "2023.12.04 11:00",
    "o": 1.63442,
    "h": 1.63699,
    "l": 1.63367,
    "c": 1.63454,
    "v": 3805
  },
  {
    "dt": "2023.12.04 12:00",
    "o": 1.63453,
    "h": 1.63501,
    "l": 1.63316,
    "c": 1.63365,
    "v": 2999
  },
  {
    "dt": "2023.12.04 13:00",
    "o": 1.63364,
    "h": 1.63548,
    "l": 1.63349,
    "c": 1.63382,
    "v": 3052
  },
  {
    "dt": "2023.12.04 14:00",
    "o": 1.63388,
    "h": 1.63453,
    "l": 1.63303,
    "c": 1.63377,
    "v": 3227
  },
  {
    "dt": "2023.12.04 15:00",
    "o": 1.63368,
    "h": 1.63544,
    "l": 1.63301,
    "c": 1.63324,
    "v": 4364
  },
  {
    "dt": "2023.12.04 16:00",
    "o": 1.63325,
    "h": 1.63421,
    "l": 1.632,
    "c": 1.63365,
    "v": 5724
  },
  {
    "dt": "2023.12.04 17:00",
    "o": 1.63364,
    "h": 1.63566,
    "l": 1.63121,
    "c": 1.63452,
    "v": 6301
  },
  {
    "dt": "2023.12.04 18:00",
    "o": 1.63456,
    "h": 1.63616,
    "l": 1.63377,
    "c": 1.63496,
    "v": 4913
  },
  {
    "dt": "2023.12.04 19:00",
    "o": 1.63495,
    "h": 1.63532,
    "l": 1.63392,
    "c": 1.635,
    "v": 3122
  },
  {
    "dt": "2023.12.04 20:00",
    "o": 1.63501,
    "h": 1.63761,
    "l": 1.63493,
    "c": 1.63726,
    "v": 3145
  },
  {
    "dt": "2023.12.04 21:00",
    "o": 1.63727,
    "h": 1.63753,
    "l": 1.63613,
    "c": 1.63617,
    "v": 2785
  },
  {
    "dt": "2023.12.04 22:00",
    "o": 1.63619,
    "h": 1.63729,
    "l": 1.63619,
    "c": 1.63692,
    "v": 3047
  },
  {
    "dt": "2023.12.04 23:00",
    "o": 1.6369,
    "h": 1.63728,
    "l": 1.63657,
    "c": 1.63668,
    "v": 1027
  },
  {
    "dt": "2023.12.05 00:00",
    "o": 1.63665,
    "h": 1.63697,
    "l": 1.63526,
    "c": 1.63615,
    "v": 726
  },
  {
    "dt": "2023.12.05 01:00",
    "o": 1.63602,
    "h": 1.63888,
    "l": 1.63602,
    "c": 1.63762,
    "v": 982
  },
  {
    "dt": "2023.12.05 02:00",
    "o": 1.63766,
    "h": 1.63868,
    "l": 1.63742,
    "c": 1.63831,
    "v": 2103
  },
  {
    "dt": "2023.12.05 03:00",
    "o": 1.63831,
    "h": 1.63974,
    "l": 1.63757,
    "c": 1.63923,
    "v": 3291
  },
  {
    "dt": "2023.12.05 04:00",
    "o": 1.63921,
    "h": 1.64257,
    "l": 1.63895,
    "c": 1.64238,
    "v": 2661
  },
  {
    "dt": "2023.12.05 05:00",
    "o": 1.64236,
    "h": 1.64924,
    "l": 1.64037,
    "c": 1.64818,
    "v": 2941
  },
  {
    "dt": "2023.12.05 06:00",
    "o": 1.64818,
    "h": 1.64877,
    "l": 1.64652,
    "c": 1.64736,
    "v": 1703
  },
  {
    "dt": "2023.12.05 07:00",
    "o": 1.64735,
    "h": 1.64797,
    "l": 1.6467,
    "c": 1.64756,
    "v": 2491
  },
  {
    "dt": "2023.12.05 08:00",
    "o": 1.64757,
    "h": 1.64778,
    "l": 1.64544,
    "c": 1.64575,
    "v": 3124
  },
  {
    "dt": "2023.12.05 09:00",
    "o": 1.64575,
    "h": 1.64595,
    "l": 1.64267,
    "c": 1.64427,
    "v": 4159
  },
  {
    "dt": "2023.12.05 10:00",
    "o": 1.64429,
    "h": 1.64755,
    "l": 1.64239,
    "c": 1.64687,
    "v": 4334
  },
  {
    "dt": "2023.12.05 11:00",
    "o": 1.64684,
    "h": 1.64852,
    "l": 1.64652,
    "c": 1.64679,
    "v": 3853
  },
  {
    "dt": "2023.12.05 12:00",
    "o": 1.64677,
    "h": 1.64878,
    "l": 1.64646,
    "c": 1.64739,
    "v": 3494
  },
  {
    "dt": "2023.12.05 13:00",
    "o": 1.64739,
    "h": 1.6506,
    "l": 1.64647,
    "c": 1.64869,
    "v": 3384
  },
  {
    "dt": "2023.12.05 14:00",
    "o": 1.64871,
    "h": 1.64981,
    "l": 1.6477,
    "c": 1.64818,
    "v": 3363
  },
  {
    "dt": "2023.12.05 15:00",
    "o": 1.6482,
    "h": 1.65154,
    "l": 1.64798,
    "c": 1.65067,
    "v": 4618
  },
  {
    "dt": "2023.12.05 16:00",
    "o": 1.65069,
    "h": 1.65078,
    "l": 1.64844,
    "c": 1.64935,
    "v": 5047
  },
  {
    "dt": "2023.12.05 17:00",
    "o": 1.64958,
    "h": 1.65055,
    "l": 1.64627,
    "c": 1.64627,
    "v": 6791
  },
  {
    "dt": "2023.12.05 18:00",
    "o": 1.6463,
    "h": 1.64786,
    "l": 1.6458,
    "c": 1.64683,
    "v": 4891
  },
  {
    "dt": "2023.12.05 19:00",
    "o": 1.64684,
    "h": 1.64684,
    "l": 1.64449,
    "c": 1.64555,
    "v": 3462
  },
  {
    "dt": "2023.12.05 20:00",
    "o": 1.64554,
    "h": 1.64576,
    "l": 1.64442,
    "c": 1.64546,
    "v": 2632
  },
  {
    "dt": "2023.12.05 21:00",
    "o": 1.64544,
    "h": 1.64604,
    "l": 1.64507,
    "c": 1.646,
    "v": 2394
  },
  {
    "dt": "2023.12.05 22:00",
    "o": 1.64597,
    "h": 1.64746,
    "l": 1.64552,
    "c": 1.64711,
    "v": 2021
  },
  {
    "dt": "2023.12.05 23:00",
    "o": 1.64714,
    "h": 1.64811,
    "l": 1.64699,
    "c": 1.64768,
    "v": 811
  },
  {
    "dt": "2023.12.06 00:00",
    "o": 1.64654,
    "h": 1.6477,
    "l": 1.6459,
    "c": 1.64694,
    "v": 758
  },
  {
    "dt": "2023.12.06 01:00",
    "o": 1.64687,
    "h": 1.64772,
    "l": 1.64628,
    "c": 1.64651,
    "v": 927
  },
  {
    "dt": "2023.12.06 02:00",
    "o": 1.64652,
    "h": 1.64652,
    "l": 1.64171,
    "c": 1.6421,
    "v": 3000
  },
  {
    "dt": "2023.12.06 03:00",
    "o": 1.64212,
    "h": 1.64235,
    "l": 1.638,
    "c": 1.63811,
    "v": 3687
  },
  {
    "dt": "2023.12.06 04:00",
    "o": 1.6381,
    "h": 1.63908,
    "l": 1.63732,
    "c": 1.63818,
    "v": 2895
  },
  {
    "dt": "2023.12.06 05:00",
    "o": 1.63818,
    "h": 1.63848,
    "l": 1.637,
    "c": 1.63713,
    "v": 2113
  },
  {
    "dt": "2023.12.06 06:00",
    "o": 1.63714,
    "h": 1.64005,
    "l": 1.63654,
    "c": 1.63999,
    "v": 2128
  },
  {
    "dt": "2023.12.06 07:00",
    "o": 1.63993,
    "h": 1.641,
    "l": 1.63837,
    "c": 1.63922,
    "v": 2790
  },
  {
    "dt": "2023.12.06 08:00",
    "o": 1.63922,
    "h": 1.63954,
    "l": 1.63805,
    "c": 1.63805,
    "v": 2652
  },
  {
    "dt": "2023.12.06 09:00",
    "o": 1.63798,
    "h": 1.6381,
    "l": 1.6358,
    "c": 1.63662,
    "v": 3849
  },
  {
    "dt": "2023.12.06 10:00",
    "o": 1.63663,
    "h": 1.63988,
    "l": 1.63613,
    "c": 1.63983,
    "v": 4601
  },
  {
    "dt": "2023.12.06 11:00",
    "o": 1.63979,
    "h": 1.64266,
    "l": 1.63908,
    "c": 1.64137,
    "v": 4138
  },
  {
    "dt": "2023.12.06 12:00",
    "o": 1.6414,
    "h": 1.6425,
    "l": 1.6411,
    "c": 1.64136,
    "v": 3529
  },
  {
    "dt": "2023.12.06 13:00",
    "o": 1.64135,
    "h": 1.64327,
    "l": 1.63954,
    "c": 1.63965,
    "v": 2914
  },
  {
    "dt": "2023.12.06 14:00",
    "o": 1.63962,
    "h": 1.63964,
    "l": 1.63817,
    "c": 1.63911,
    "v": 3217
  },
  {
    "dt": "2023.12.06 15:00",
    "o": 1.63913,
    "h": 1.63984,
    "l": 1.63788,
    "c": 1.63938,
    "v": 5478
  },
  {
    "dt": "2023.12.06 16:00",
    "o": 1.63934,
    "h": 1.6405,
    "l": 1.63822,
    "c": 1.63935,
    "v": 5374
  },
  {
    "dt": "2023.12.06 17:00",
    "o": 1.63936,
    "h": 1.63981,
    "l": 1.63821,
    "c": 1.63971,
    "v": 5423
  },
  {
    "dt": "2023.12.06 18:00",
    "o": 1.63968,
    "h": 1.64299,
    "l": 1.63936,
    "c": 1.64265,
    "v": 4362
  },
  {
    "dt": "2023.12.06 19:00",
    "o": 1.64264,
    "h": 1.64386,
    "l": 1.64259,
    "c": 1.64315,
    "v": 3041
  },
  {
    "dt": "2023.12.06 20:00",
    "o": 1.64317,
    "h": 1.6435,
    "l": 1.64156,
    "c": 1.64166,
    "v": 2826
  },
  {
    "dt": "2023.12.06 21:00",
    "o": 1.64165,
    "h": 1.64315,
    "l": 1.64128,
    "c": 1.64295,
    "v": 2836
  },
  {
    "dt": "2023.12.06 22:00",
    "o": 1.64287,
    "h": 1.64341,
    "l": 1.64261,
    "c": 1.64283,
    "v": 2455
  },
  {
    "dt": "2023.12.06 23:00",
    "o": 1.64285,
    "h": 1.64373,
    "l": 1.64283,
    "c": 1.64344,
    "v": 1022
  },
  {
    "dt": "2023.12.07 00:00",
    "o": 1.64266,
    "h": 1.64374,
    "l": 1.64212,
    "c": 1.64346,
    "v": 1042
  },
  {
    "dt": "2023.12.07 01:00",
    "o": 1.64357,
    "h": 1.64401,
    "l": 1.64303,
    "c": 1.64322,
    "v": 1149
  },
  {
    "dt": "2023.12.07 02:00",
    "o": 1.64318,
    "h": 1.64382,
    "l": 1.64214,
    "c": 1.64311,
    "v": 2324
  },
  {
    "dt": "2023.12.07 03:00",
    "o": 1.64313,
    "h": 1.64461,
    "l": 1.64208,
    "c": 1.64354,
    "v": 3223
  },
  {
    "dt": "2023.12.07 04:00",
    "o": 1.64348,
    "h": 1.64752,
    "l": 1.64319,
    "c": 1.6473,
    "v": 3118
  },
  {
    "dt": "2023.12.07 05:00",
    "o": 1.64727,
    "h": 1.64873,
    "l": 1.64666,
    "c": 1.64802,
    "v": 2573
  },
  {
    "dt": "2023.12.07 06:00",
    "o": 1.648,
    "h": 1.6484,
    "l": 1.64698,
    "c": 1.64821,
    "v": 2045
  },
  {
    "dt": "2023.12.07 07:00",
    "o": 1.64819,
    "h": 1.64821,
    "l": 1.64604,
    "c": 1.64669,
    "v": 3310
  },
  {
    "dt": "2023.12.07 08:00",
    "o": 1.64663,
    "h": 1.64694,
    "l": 1.64337,
    "c": 1.64416,
    "v": 3374
  },
  {
    "dt": "2023.12.07 09:00",
    "o": 1.64402,
    "h": 1.64402,
    "l": 1.64141,
    "c": 1.64318,
    "v": 4870
  },
  {
    "dt": "2023.12.07 10:00",
    "o": 1.6432,
    "h": 1.64396,
    "l": 1.64127,
    "c": 1.64381,
    "v": 5797
  },
  {
    "dt": "2023.12.07 11:00",
    "o": 1.64394,
    "h": 1.64399,
    "l": 1.64024,
    "c": 1.64032,
    "v": 4548
  },
  {
    "dt": "2023.12.07 12:00",
    "o": 1.64032,
    "h": 1.64132,
    "l": 1.63937,
    "c": 1.64029,
    "v": 3975
  },
  {
    "dt": "2023.12.07 13:00",
    "o": 1.64024,
    "h": 1.64093,
    "l": 1.63983,
    "c": 1.64033,
    "v": 3924
  },
  {
    "dt": "2023.12.07 14:00",
    "o": 1.64034,
    "h": 1.64179,
    "l": 1.63957,
    "c": 1.64056,
    "v": 3808
  },
  {
    "dt": "2023.12.07 15:00",
    "o": 1.64055,
    "h": 1.6414,
    "l": 1.63795,
    "c": 1.63878,
    "v": 6579
  },
  {
    "dt": "2023.12.07 16:00",
    "o": 1.63877,
    "h": 1.63969,
    "l": 1.63748,
    "c": 1.63921,
    "v": 6873
  },
  {
    "dt": "2023.12.07 17:00",
    "o": 1.63917,
    "h": 1.63945,
    "l": 1.63525,
    "c": 1.6361,
    "v": 7307
  },
  {
    "dt": "2023.12.07 18:00",
    "o": 1.63607,
    "h": 1.63664,
    "l": 1.63486,
    "c": 1.63529,
    "v": 5377
  },
  {
    "dt": "2023.12.07 19:00",
    "o": 1.63527,
    "h": 1.63722,
    "l": 1.63343,
    "c": 1.63608,
    "v": 4538
  },
  {
    "dt": "2023.12.07 20:00",
    "o": 1.63608,
    "h": 1.63641,
    "l": 1.63506,
    "c": 1.6358,
    "v": 3756
  },
  {
    "dt": "2023.12.07 21:00",
    "o": 1.63576,
    "h": 1.63623,
    "l": 1.63482,
    "c": 1.63499,
    "v": 2254
  },
  {
    "dt": "2023.12.07 22:00",
    "o": 1.63498,
    "h": 1.63561,
    "l": 1.63441,
    "c": 1.63458,
    "v": 2107
  },
  {
    "dt": "2023.12.07 23:00",
    "o": 1.63459,
    "h": 1.63545,
    "l": 1.63416,
    "c": 1.63463,
    "v": 1216
  },
  {
    "dt": "2023.12.08 00:00",
    "o": 1.63485,
    "h": 1.63643,
    "l": 1.63398,
    "c": 1.6352,
    "v": 734
  },
  {
    "dt": "2023.12.08 01:00",
    "o": 1.6352,
    "h": 1.63667,
    "l": 1.63519,
    "c": 1.63613,
    "v": 1106
  },
  {
    "dt": "2023.12.08 02:00",
    "o": 1.63606,
    "h": 1.63644,
    "l": 1.63408,
    "c": 1.63491,
    "v": 3635
  },
  {
    "dt": "2023.12.08 03:00",
    "o": 1.63496,
    "h": 1.63541,
    "l": 1.63301,
    "c": 1.63319,
    "v": 3798
  },
  {
    "dt": "2023.12.08 04:00",
    "o": 1.63318,
    "h": 1.63413,
    "l": 1.63163,
    "c": 1.63337,
    "v": 2759
  },
  {
    "dt": "2023.12.08 05:00",
    "o": 1.63336,
    "h": 1.63395,
    "l": 1.6321,
    "c": 1.63232,
    "v": 2641
  },
  {
    "dt": "2023.12.08 06:00",
    "o": 1.63231,
    "h": 1.63236,
    "l": 1.62921,
    "c": 1.62924,
    "v": 2306
  },
  {
    "dt": "2023.12.08 07:00",
    "o": 1.62921,
    "h": 1.63102,
    "l": 1.6289,
    "c": 1.63049,
    "v": 2914
  },
  {
    "dt": "2023.12.08 08:00",
    "o": 1.63048,
    "h": 1.63116,
    "l": 1.62975,
    "c": 1.63048,
    "v": 2934
  },
  {
    "dt": "2023.12.08 09:00",
    "o": 1.63045,
    "h": 1.63181,
    "l": 1.6301,
    "c": 1.63067,
    "v": 3713
  },
  {
    "dt": "2023.12.08 10:00",
    "o": 1.63064,
    "h": 1.63346,
    "l": 1.63005,
    "c": 1.63301,
    "v": 4578
  },
  {
    "dt": "2023.12.08 11:00",
    "o": 1.63298,
    "h": 1.63312,
    "l": 1.63063,
    "c": 1.63107,
    "v": 4002
  },
  {
    "dt": "2023.12.08 12:00",
    "o": 1.63102,
    "h": 1.63211,
    "l": 1.62993,
    "c": 1.63185,
    "v": 3528
  },
  {
    "dt": "2023.12.08 13:00",
    "o": 1.63185,
    "h": 1.63242,
    "l": 1.63081,
    "c": 1.63223,
    "v": 3364
  },
  {
    "dt": "2023.12.08 14:00",
    "o": 1.63221,
    "h": 1.63319,
    "l": 1.63161,
    "c": 1.63305,
    "v": 3229
  },
  {
    "dt": "2023.12.08 15:00",
    "o": 1.63306,
    "h": 1.63402,
    "l": 1.62942,
    "c": 1.63138,
    "v": 6602
  },
  {
    "dt": "2023.12.08 16:00",
    "o": 1.63138,
    "h": 1.63629,
    "l": 1.63131,
    "c": 1.633,
    "v": 7091
  },
  {
    "dt": "2023.12.08 17:00",
    "o": 1.63198,
    "h": 1.63585,
    "l": 1.63196,
    "c": 1.63479,
    "v": 6158
  },
  {
    "dt": "2023.12.08 18:00",
    "o": 1.63475,
    "h": 1.63631,
    "l": 1.6344,
    "c": 1.63586,
    "v": 4197
  },
  {
    "dt": "2023.12.08 19:00",
    "o": 1.63579,
    "h": 1.63768,
    "l": 1.63551,
    "c": 1.63558,
    "v": 3850
  },
  {
    "dt": "2023.12.08 20:00",
    "o": 1.63559,
    "h": 1.63564,
    "l": 1.6347,
    "c": 1.63517,
    "v": 3200
  },
  {
    "dt": "2023.12.08 21:00",
    "o": 1.63518,
    "h": 1.63547,
    "l": 1.63454,
    "c": 1.63486,
    "v": 2724
  },
  {
    "dt": "2023.12.08 22:00",
    "o": 1.63488,
    "h": 1.63633,
    "l": 1.63476,
    "c": 1.63613,
    "v": 2748
  },
  {
    "dt": "2023.12.08 23:00",
    "o": 1.63609,
    "h": 1.63625,
    "l": 1.63542,
    "c": 1.63622,
    "v": 950
  }
]