[
  {
    "dt": "2020.10.01 00:00",
    "o": 1.29151,
    "h": 1.29209,
    "l": 1.29139,
    "c": 1.29143,
    "v": 123
  },
  {
    "dt": "2020.10.01 01:00",
    "o": 1.29146,
    "h": 1.29271,
    "l": 1.29135,
    "c": 1.29244,
    "v": 674
  },
  {
    "dt": "2020.10.01 02:00",
    "o": 1.29251,
    "h": 1.29252,
    "l": 1.29145,
    "c": 1.29152,
    "v": 992
  },
  {
    "dt": "2020.10.01 03:00",
    "o": 1.29159,
    "h": 1.29227,
    "l": 1.29123,
    "c": 1.29141,
    "v": 1499
  },
  {
    "dt": "2020.10.01 04:00",
    "o": 1.29146,
    "h": 1.29375,
    "l": 1.29141,
    "c": 1.2934,
    "v": 2146
  },
  {
    "dt": "2020.10.01 05:00",
    "o": 1.29341,
    "h": 1.29383,
    "l": 1.29332,
    "c": 1.29358,
    "v": 1625
  },
  {
    "dt": "2020.10.01 06:00",
    "o": 1.29362,
    "h": 1.29407,
    "l": 1.29313,
    "c": 1.29352,
    "v": 1190
  },
  {
    "dt": "2020.10.01 07:00",
    "o": 1.29351,
    "h": 1.29397,
    "l": 1.29322,
    "c": 1.29367,
    "v": 1087
  },
  {
    "dt": "2020.10.01 08:00",
    "o": 1.29369,
    "h": 1.29454,
    "l": 1.2934,
    "c": 1.29418,
    "v": 1493
  },
  {
    "dt": "2020.10.01 09:00",
    "o": 1.29415,
    "h": 1.2949,
    "l": 1.29383,
    "c": 1.29414,
    "v": 2473
  },
  {
    "dt": "2020.10.01 10:00",
    "o": 1.29408,
    "h": 1.29446,
    "l": 1.28726,
    "c": 1.28896,
    "v": 3926
  },
  {
    "dt": "2020.10.01 11:00",
    "o": 1.28897,
    "h": 1.28953,
    "l": 1.28188,
    "c": 1.28234,
    "v": 4249
  },
  {
    "dt": "2020.10.01 12:00",
    "o": 1.28237,
    "h": 1.2853,
    "l": 1.28211,
    "c": 1.28492,
    "v": 3512
  },
  {
    "dt": "2020.10.01 13:00",
    "o": 1.28492,
    "h": 1.28546,
    "l": 1.28245,
    "c": 1.28341,
    "v": 2980
  },
  {
    "dt": "2020.10.01 14:00",
    "o": 1.28343,
    "h": 1.29755,
    "l": 1.2827,
    "c": 1.29646,
    "v": 4832
  },
  {
    "dt": "2020.10.01 15:00",
    "o": 1.29647,
    "h": 1.29777,
    "l": 1.29489,
    "c": 1.29492,
    "v": 3769
  },
  {
    "dt": "2020.10.01 16:00",
    "o": 1.29493,
    "h": 1.29602,
    "l": 1.28674,
    "c": 1.28687,
    "v": 4828
  },
  {
    "dt": "2020.10.01 17:00",
    "o": 1.28689,
    "h": 1.28978,
    "l": 1.28596,
    "c": 1.28677,
    "v": 4624
  },
  {
    "dt": "2020.10.01 18:00",
    "o": 1.2869,
    "h": 1.29047,
    "l": 1.28607,
    "c": 1.28996,
    "v": 3831
  },
  {
    "dt": "2020.10.01 19:00",
    "o": 1.28993,
    "h": 1.29,
    "l": 1.28766,
    "c": 1.28931,
    "v": 3126
  },
  {
    "dt": "2020.10.01 20:00",
    "o": 1.28933,
    "h": 1.2898,
    "l": 1.28715,
    "c": 1.28753,
    "v": 2191
  },
  {
    "dt": "2020.10.01 21:00",
    "o": 1.28752,
    "h": 1.28927,
    "l": 1.28708,
    "c": 1.28915,
    "v": 3016
  },
  {
    "dt": "2020.10.01 22:00",
    "o": 1.28914,
    "h": 1.28949,
    "l": 1.28804,
    "c": 1.28872,
    "v": 2595
  },
  {
    "dt": "2020.10.01 23:00",
    "o": 1.28872,
    "h": 1.28942,
    "l": 1.28838,
    "c": 1.28848,
    "v": 1126
  },
  {
    "dt": "2020.10.02 00:00",
    "o": 1.28854,
    "h": 1.28888,
    "l": 1.28746,
    "c": 1.28788,
    "v": 125
  },
  {
    "dt": "2020.10.02 01:00",
    "o": 1.28803,
    "h": 1.28882,
    "l": 1.28803,
    "c": 1.28865,
    "v": 715
  },
  {
    "dt": "2020.10.02 02:00",
    "o": 1.28865,
    "h": 1.28868,
    "l": 1.28833,
    "c": 1.28847,
    "v": 545
  },
  {
    "dt": "2020.10.02 03:00",
    "o": 1.28847,
    "h": 1.28879,
    "l": 1.28716,
    "c": 1.28748,
    "v": 1716
  },
  {
    "dt": "2020.10.02 04:00",
    "o": 1.28749,
    "h": 1.28802,
    "l": 1.28712,
    "c": 1.28728,
    "v": 1516
  },
  {
    "dt": "2020.10.02 05:00",
    "o": 1.28728,
    "h": 1.28729,
    "l": 1.28547,
    "c": 1.28601,
    "v": 1541
  },
  {
    "dt": "2020.10.02 06:00",
    "o": 1.28601,
    "h": 1.28646,
    "l": 1.28579,
    "c": 1.28617,
    "v": 1868
  },
  {
    "dt": "2020.10.02 07:00",
    "o": 1.28617,
    "h": 1.28658,
    "l": 1.28371,
    "c": 1.28425,
    "v": 1952
  },
  {
    "dt": "2020.10.02 08:00",
    "o": 1.28425,
    "h": 1.28817,
    "l": 1.28365,
    "c": 1.28686,
    "v": 4358
  },
  {
    "dt": "2020.10.02 09:00",
    "o": 1.28685,
    "h": 1.28847,
    "l": 1.28639,
    "c": 1.2877,
    "v": 3592
  },
  {
    "dt": "2020.10.02 10:00",
    "o": 1.2877,
    "h": 1.29399,
    "l": 1.28603,
    "c": 1.29147,
    "v": 4371
  },
  {
    "dt": "2020.10.02 11:00",
    "o": 1.29145,
    "h": 1.2953,
    "l": 1.28944,
    "c": 1.2945,
    "v": 4054
  },
  {
    "dt": "2020.10.02 12:00",
    "o": 1.29451,
    "h": 1.29515,
    "l": 1.29134,
    "c": 1.29152,
    "v": 3506
  },
  {
    "dt": "2020.10.02 13:00",
    "o": 1.29148,
    "h": 1.29252,
    "l": 1.29024,
    "c": 1.29161,
    "v": 3120
  },
  {
    "dt": "2020.10.02 14:00",
    "o": 1.2916,
    "h": 1.29479,
    "l": 1.2903,
    "c": 1.29393,
    "v": 3617
  },
  {
    "dt": "2020.10.02 15:00",
    "o": 1.29394,
    "h": 1.29479,
    "l": 1.29197,
    "c": 1.29278,
    "v": 3958
  },
  {
    "dt": "2020.10.02 16:00",
    "o": 1.29277,
    "h": 1.29391,
    "l": 1.28925,
    "c": 1.29278,
    "v": 4722
  },
  {
    "dt": "2020.10.02 17:00",
    "o": 1.29278,
    "h": 1.29456,
    "l": 1.29131,
    "c": 1.29313,
    "v": 4329
  },
  {
    "dt": "2020.10.02 18:00",
    "o": 1.29309,
    "h": 1.29454,
    "l": 1.29204,
    "c": 1.29266,
    "v": 3794
  },
  {
    "dt": "2020.10.02 19:00",
    "o": 1.2926,
    "h": 1.29442,
    "l": 1.29183,
    "c": 1.29305,
    "v": 3977
  },
  {
    "dt": "2020.10.02 20:00",
    "o": 1.29304,
    "h": 1.2941,
    "l": 1.29246,
    "c": 1.29332,
    "v": 2933
  },
  {
    "dt": "2020.10.02 21:00",
    "o": 1.29324,
    "h": 1.29397,
    "l": 1.29291,
    "c": 1.29328,
    "v": 2426
  },
  {
    "dt": "2020.10.02 22:00",
    "o": 1.29328,
    "h": 1.29358,
    "l": 1.2926,
    "c": 1.29333,
    "v": 2563
  },
  {
    "dt": "2020.10.02 23:00",
    "o": 1.29329,
    "h": 1.29419,
    "l": 1.29262,
    "c": 1.29309,
    "v": 1286
  },
  {
    "dt": "2020.10.05 00:00",
    "o": 1.29362,
    "h": 1.29363,
    "l": 1.2912,
    "c": 1.29125,
    "v": 174
  },
  {
    "dt": "2020.10.05 01:00",
    "o": 1.29149,
    "h": 1.29311,
    "l": 1.29142,
    "c": 1.29296,
    "v": 881
  },
  {
    "dt": "2020.10.05 02:00",
    "o": 1.29305,
    "h": 1.29305,
    "l": 1.29234,
    "c": 1.29278,
    "v": 1342
  },
  {
    "dt": "2020.10.05 03:00",
    "o": 1.2928,
    "h": 1.29528,
    "l": 1.29259,
    "c": 1.29421,
    "v": 1931
  },
  {
    "dt": "2020.10.05 04:00",
    "o": 1.29419,
    "h": 1.29483,
    "l": 1.29354,
    "c": 1.29452,
    "v": 1962
  },
  {
    "dt": "2020.10.05 05:00",
    "o": 1.29453,
    "h": 1.29481,
    "l": 1.29434,
    "c": 1.29455,
    "v": 1631
  },
  {
    "dt": "2020.10.05 06:00",
    "o": 1.29452,
    "h": 1.29488,
    "l": 1.29362,
    "c": 1.29371,
    "v": 1075
  },
  {
    "dt": "2020.10.05 07:00",
    "o": 1.29371,
    "h": 1.29397,
    "l": 1.29356,
    "c": 1.29371,
    "v": 1114
  },
  {
    "dt": "2020.10.05 08:00",
    "o": 1.29372,
    "h": 1.29385,
    "l": 1.29319,
    "c": 1.2934,
    "v": 1158
  },
  {
    "dt": "2020.10.05 09:00",
    "o": 1.2934,
    "h": 1.29349,
    "l": 1.29115,
    "c": 1.29152,
    "v": 2297
  },
  {
    "dt": "2020.10.05 10:00",
    "o": 1.29146,
    "h": 1.29407,
    "l": 1.28988,
    "c": 1.2931,
    "v": 3499
  },
  {
    "dt": "2020.10.05 11:00",
    "o": 1.29308,
    "h": 1.29639,
    "l": 1.29275,
    "c": 1.29521,
    "v": 3212
  },
  {
    "dt": "2020.10.05 12:00",
    "o": 1.29518,
    "h": 1.29638,
    "l": 1.29435,
    "c": 1.29513,
    "v": 2895
  },
  {
    "dt": "2020.10.05 13:00",
    "o": 1.29516,
    "h": 1.29595,
    "l": 1.29327,
    "c": 1.29463,
    "v": 2692
  },
  {
    "dt": "2020.10.05 14:00",
    "o": 1.29461,
    "h": 1.29563,
    "l": 1.29346,
    "c": 1.29518,
    "v": 2909
  },
  {
    "dt": "2020.10.05 15:00",
    "o": 1.29518,
    "h": 1.29685,
    "l": 1.29461,
    "c": 1.29647,
    "v": 3083
  },
  {
    "dt": "2020.10.05 16:00",
    "o": 1.29656,
    "h": 1.29906,
    "l": 1.29652,
    "c": 1.29722,
    "v": 3788
  },
  {
    "dt": "2020.10.05 17:00",
    "o": 1.2972,
    "h": 1.29815,
    "l": 1.2966,
    "c": 1.29733,
    "v": 3770
  },
  {
    "dt": "2020.10.05 18:00",
    "o": 1.29734,
    "h": 1.29803,
    "l": 1.29631,
    "c": 1.29687,
    "v": 2730
  },
  {
    "dt": "2020.10.05 19:00",
    "o": 1.29691,
    "h": 1.29826,
    "l": 1.29649,
    "c": 1.29784,
    "v": 2053
  },
  {
    "dt": "2020.10.05 20:00",
    "o": 1.29785,
    "h": 1.29896,
    "l": 1.29717,
    "c": 1.29729,
    "v": 1712
  },
  {
    "dt": "2020.10.05 21:00",
    "o": 1.29729,
    "h": 1.2981,
    "l": 1.29701,
    "c": 1.29706,
    "v": 1615
  },
  {
    "dt": "2020.10.05 22:00",
    "o": 1.29707,
    "h": 1.29859,
    "l": 1.29696,
    "c": 1.29823,
    "v": 1625
  },
  {
    "dt": "2020.10.05 23:00",
    "o": 1.29822,
    "h": 1.29836,
    "l": 1.29782,
    "c": 1.29809,
    "v": 1041
  },
  {
    "dt": "2020.10.06 00:00",
    "o": 1.29732,
    "h": 1.29803,
    "l": 1.29671,
    "c": 1.2973,
    "v": 187
  },
  {
    "dt": "2020.10.06 01:00",
    "o": 1.29756,
    "h": 1.29916,
    "l": 1.29756,
    "c": 1.2988,
    "v": 768
  },
  {
    "dt": "2020.10.06 02:00",
    "o": 1.29888,
    "h": 1.29928,
    "l": 1.29821,
    "c": 1.29918,
    "v": 800
  },
  {
    "dt": "2020.10.06 03:00",
    "o": 1.29919,
    "h": 1.29948,
    "l": 1.29876,
    "c": 1.29912,
    "v": 1430
  },
  {
    "dt": "2020.10.06 04:00",
    "o": 1.29909,
    "h": 1.29938,
    "l": 1.29805,
    "c": 1.29807,
    "v": 1669
  },
  {
    "dt": "2020.10.06 05:00",
    "o": 1.29808,
    "h": 1.29874,
    "l": 1.29802,
    "c": 1.29855,
    "v": 1008
  },
  {
    "dt": "2020.10.06 06:00",
    "o": 1.29856,
    "h": 1.29998,
    "l": 1.29833,
    "c": 1.29878,
    "v": 1576
  },
  {
    "dt": "2020.10.06 07:00",
    "o": 1.29878,
    "h": 1.29908,
    "l": 1.29848,
    "c": 1.29883,
    "v": 927
  },
  {
    "dt": "2020.10.06 08:00",
    "o": 1.29882,
    "h": 1.29899,
    "l": 1.29818,
    "c": 1.29836,
    "v": 1363
  },
  {
    "dt": "2020.10.06 09:00",
    "o": 1.29836,
    "h": 1.29903,
    "l": 1.29805,
    "c": 1.29892,
    "v": 2184
  },
  {
    "dt": "2020.10.06 10:00",
    "o": 1.29891,
    "h": 1.30062,
    "l": 1.29738,
    "c": 1.29786,
    "v": 3593
  },
  {
    "dt": "2020.10.06 11:00",
    "o": 1.29784,
    "h": 1.2998,
    "l": 1.29573,
    "c": 1.29908,
    "v": 3460
  },
  {
    "dt": "2020.10.06 12:00",
    "o": 1.29909,
    "h": 1.29953,
    "l": 1.29689,
    "c": 1.29695,
    "v": 2666
  },
  {
    "dt": "2020.10.06 13:00",
    "o": 1.29695,
    "h": 1.29835,
    "l": 1.29155,
    "c": 1.29313,
    "v": 3127
  },
  {
    "dt": "2020.10.06 14:00",
    "o": 1.29306,
    "h": 1.29595,
    "l": 1.29199,
    "c": 1.29511,
    "v": 3558
  },
  {
    "dt": "2020.10.06 15:00",
    "o": 1.29507,
    "h": 1.29588,
    "l": 1.29284,
    "c": 1.29309,
    "v": 3159
  },
  {
    "dt": "2020.10.06 16:00",
    "o": 1.29307,
    "h": 1.29846,
    "l": 1.29237,
    "c": 1.29557,
    "v": 4067
  },
  {
    "dt": "2020.10.06 17:00",
    "o": 1.29555,
    "h": 1.29814,
    "l": 1.29545,
    "c": 1.29707,
    "v": 3879
  },
  {
    "dt": "2020.10.06 18:00",
    "o": 1.29705,
    "h": 1.29769,
    "l": 1.29402,
    "c": 1.29431,
    "v": 3465
  },
  {
    "dt": "2020.10.06 19:00",
    "o": 1.29433,
    "h": 1.29558,
    "l": 1.29346,
    "c": 1.29541,
    "v": 2712
  },
  {
    "dt": "2020.10.06 20:00",
    "o": 1.29542,
    "h": 1.29543,
    "l": 1.29299,
    "c": 1.29392,
    "v": 2235
  },
  {
    "dt": "2020.10.06 21:00",
    "o": 1.29391,
    "h": 1.29506,
    "l": 1.2891,
    "c": 1.29022,
    "v": 2624
  },
  {
    "dt": "2020.10.06 22:00",
    "o": 1.29023,
    "h": 1.29297,
    "l": 1.28877,
    "c": 1.29064,
    "v": 4985
  },
  {
    "dt": "2020.10.06 23:00",
    "o": 1.29067,
    "h": 1.29094,
    "l": 1.2866,
    "c": 1.28717,
    "v": 1650
  },
  {
    "dt": "2020.10.07 00:00",
    "o": 1.28719,
    "h": 1.2888,
    "l": 1.28657,
    "c": 1.287,
    "v": 609
  },
  {
    "dt": "2020.10.07 01:00",
    "o": 1.28732,
    "h": 1.2884,
    "l": 1.28716,
    "c": 1.28766,
    "v": 1324
  },
  {
    "dt": "2020.10.07 02:00",
    "o": 1.28763,
    "h": 1.28834,
    "l": 1.28735,
    "c": 1.28825,
    "v": 1224
  },
  {
    "dt": "2020.10.07 03:00",
    "o": 1.28827,
    "h": 1.28887,
    "l": 1.28726,
    "c": 1.28804,
    "v": 1737
  },
  {
    "dt": "2020.10.07 04:00",
    "o": 1.28801,
    "h": 1.28852,
    "l": 1.28689,
    "c": 1.28797,
    "v": 1947
  },
  {
    "dt": "2020.10.07 05:00",
    "o": 1.28796,
    "h": 1.28852,
    "l": 1.28766,
    "c": 1.28844,
    "v": 1846
  },
  {
    "dt": "2020.10.07 06:00",
    "o": 1.28839,
    "h": 1.28861,
    "l": 1.28803,
    "c": 1.28821,
    "v": 1247
  },
  {
    "dt": "2020.10.07 07:00",
    "o": 1.2882,
    "h": 1.28888,
    "l": 1.28817,
    "c": 1.28867,
    "v": 1261
  },
  {
    "dt": "2020.10.07 08:00",
    "o": 1.28869,
    "h": 1.29041,
    "l": 1.28832,
    "c": 1.28965,
    "v": 1771
  },
  {
    "dt": "2020.10.07 09:00",
    "o": 1.28973,
    "h": 1.29092,
    "l": 1.28908,
    "c": 1.29055,
    "v": 2755
  },
  {
    "dt": "2020.10.07 10:00",
    "o": 1.29055,
    "h": 1.29287,
    "l": 1.2903,
    "c": 1.29265,
    "v": 3734
  },
  {
    "dt": "2020.10.07 11:00",
    "o": 1.29265,
    "h": 1.29284,
    "l": 1.29029,
    "c": 1.29031,
    "v": 2870
  },
  {
    "dt": "2020.10.07 12:00",
    "o": 1.29038,
    "h": 1.29056,
    "l": 1.28762,
    "c": 1.28839,
    "v": 2939
  },
  {
    "dt": "2020.10.07 13:00",
    "o": 1.28839,
    "h": 1.28899,
    "l": 1.2853,
    "c": 1.28636,
    "v": 3232
  },
  {
    "dt": "2020.10.07 14:00",
    "o": 1.28636,
    "h": 1.28819,
    "l": 1.2848,
    "c": 1.28766,
    "v": 3402
  },
  {
    "dt": "2020.10.07 15:00",
    "o": 1.28761,
    "h": 1.29026,
    "l": 1.28703,
    "c": 1.28971,
    "v": 3221
  },
  {
    "dt": "2020.10.07 16:00",
    "o": 1.28969,
    "h": 1.29002,
    "l": 1.28455,
    "c": 1.28737,
    "v": 4006
  },
  {
    "dt": "2020.10.07 17:00",
    "o": 1.28738,
    "h": 1.29016,
    "l": 1.28634,
    "c": 1.28975,
    "v": 3996
  },
  {
    "dt": "2020.10.07 18:00",
    "o": 1.28978,
    "h": 1.29278,
    "l": 1.28938,
    "c": 1.29103,
    "v": 3396
  },
  {
    "dt": "2020.10.07 19:00",
    "o": 1.29104,
    "h": 1.2922,
    "l": 1.29026,
    "c": 1.29178,
    "v": 2605
  },
  {
    "dt": "2020.10.07 20:00",
    "o": 1.29178,
    "h": 1.29241,
    "l": 1.29112,
    "c": 1.29169,
    "v": 1644
  },
  {
    "dt": "2020.10.07 21:00",
    "o": 1.29162,
    "h": 1.29218,
    "l": 1.29027,
    "c": 1.29101,
    "v": 2485
  },
  {
    "dt": "2020.10.07 22:00",
    "o": 1.29099,
    "h": 1.29192,
    "l": 1.29079,
    "c": 1.29081,
    "v": 2031
  },
  {
    "dt": "2020.10.07 23:00",
    "o": 1.29079,
    "h": 1.2919,
    "l": 1.29071,
    "c": 1.29159,
    "v": 941
  },
  {
    "dt": "2020.10.08 00:00",
    "o": 1.29144,
    "h": 1.29178,
    "l": 1.29064,
    "c": 1.291,
    "v": 235
  },
  {
    "dt": "2020.10.08 01:00",
    "o": 1.29124,
    "h": 1.29218,
    "l": 1.2911,
    "c": 1.29185,
    "v": 623
  },
  {
    "dt": "2020.10.08 02:00",
    "o": 1.29186,
    "h": 1.29203,
    "l": 1.29149,
    "c": 1.29156,
    "v": 764
  },
  {
    "dt": "2020.10.08 03:00",
    "o": 1.29155,
    "h": 1.29269,
    "l": 1.29135,
    "c": 1.29189,
    "v": 1510
  },
  {
    "dt": "2020.10.08 04:00",
    "o": 1.29188,
    "h": 1.29317,
    "l": 1.29118,
    "c": 1.29258,
    "v": 1900
  },
  {
    "dt": "2020.10.08 05:00",
    "o": 1.29258,
    "h": 1.29331,
    "l": 1.29215,
    "c": 1.29316,
    "v": 1430
  },
  {
    "dt": "2020.10.08 06:00",
    "o": 1.29316,
    "h": 1.29335,
    "l": 1.29259,
    "c": 1.29289,
    "v": 1277
  },
  {
    "dt": "2020.10.08 07:00",
    "o": 1.29294,
    "h": 1.29333,
    "l": 1.2923,
    "c": 1.29312,
    "v": 1427
  },
  {
    "dt": "2020.10.08 08:00",
    "o": 1.29312,
    "h": 1.29382,
    "l": 1.2931,
    "c": 1.29359,
    "v": 1538
  },
  {
    "dt": "2020.10.08 09:00",
    "o": 1.29356,
    "h": 1.29544,
    "l": 1.29259,
    "c": 1.29488,
    "v": 2558
  },
  {
    "dt": "2020.10.08 10:00",
    "o": 1.29497,
    "h": 1.29556,
    "l": 1.29387,
    "c": 1.29387,
    "v": 3295
  },
  {
    "dt": "2020.10.08 11:00",
    "o": 1.29384,
    "h": 1.29695,
    "l": 1.29374,
    "c": 1.29536,
    "v": 3136
  },
  {
    "dt": "2020.10.08 12:00",
    "o": 1.29524,
    "h": 1.29613,
    "l": 1.29157,
    "c": 1.2923,
    "v": 2743
  },
  {
    "dt": "2020.10.08 13:00",
    "o": 1.29226,
    "h": 1.29265,
    "l": 1.28905,
    "c": 1.28939,
    "v": 2699
  },
  {
    "dt": "2020.10.08 14:00",
    "o": 1.28938,
    "h": 1.29153,
    "l": 1.28938,
    "c": 1.29033,
    "v": 2916
  },
  {
    "dt": "2020.10.08 15:00",
    "o": 1.2903,
    "h": 1.29253,
    "l": 1.28988,
    "c": 1.29086,
    "v": 3091
  },
  {
    "dt": "2020.10.08 16:00",
    "o": 1.29076,
    "h": 1.29387,
    "l": 1.29003,
    "c": 1.293,
    "v": 3797
  },
  {
    "dt": "2020.10.08 17:00",
    "o": 1.29308,
    "h": 1.29324,
    "l": 1.29093,
    "c": 1.29264,
    "v": 3822
  },
  {
    "dt": "2020.10.08 18:00",
    "o": 1.29262,
    "h": 1.29465,
    "l": 1.29183,
    "c": 1.29418,
    "v": 2859
  },
  {
    "dt": "2020.10.08 19:00",
    "o": 1.29417,
    "h": 1.29469,
    "l": 1.29345,
    "c": 1.29379,
    "v": 2306
  },
  {
    "dt": "2020.10.08 20:00",
    "o": 1.29381,
    "h": 1.29448,
    "l": 1.29327,
    "c": 1.29438,
    "v": 1971
  },
  {
    "dt": "2020.10.08 21:00",
    "o": 1.29442,
    "h": 1.29442,
    "l": 1.2929,
    "c": 1.29308,
    "v": 1621
  },
  {
    "dt": "2020.10.08 22:00",
    "o": 1.29303,
    "h": 1.29363,
    "l": 1.2928,
    "c": 1.29314,
    "v": 1519
  },
  {
    "dt": "2020.10.08 23:00",
    "o": 1.29311,
    "h": 1.29364,
    "l": 1.29298,
    "c": 1.29344,
    "v": 934
  },
  {
    "dt": "2020.10.09 00:00",
    "o": 1.2919,
    "h": 1.29364,
    "l": 1.29158,
    "c": 1.2927,
    "v": 342
  },
  {
    "dt": "2020.10.09 01:00",
    "o": 1.29288,
    "h": 1.29383,
    "l": 1.29285,
    "c": 1.29352,
    "v": 932
  },
  {
    "dt": "2020.10.09 02:00",
    "o": 1.29357,
    "h": 1.29389,
    "l": 1.29317,
    "c": 1.29385,
    "v": 811
  },
  {
    "dt": "2020.10.09 03:00",
    "o": 1.29385,
    "h": 1.2942,
    "l": 1.29344,
    "c": 1.29399,
    "v": 1266
  },
  {
    "dt": "2020.10.09 04:00",
    "o": 1.29398,
    "h": 1.29552,
    "l": 1.29398,
    "c": 1.29514,
    "v": 2015
  },
  {
    "dt": "2020.10.09 05:00",
    "o": 1.29513,
    "h": 1.29576,
    "l": 1.29499,
    "c": 1.29571,
    "v": 1095
  },
  {
    "dt": "2020.10.09 06:00",
    "o": 1.29571,
    "h": 1.29581,
    "l": 1.2953,
    "c": 1.2955,
    "v": 1165
  },
  {
    "dt": "2020.10.09 07:00",
    "o": 1.2955,
    "h": 1.29555,
    "l": 1.2951,
    "c": 1.2953,
    "v": 665
  },
  {
    "dt": "2020.10.09 08:00",
    "o": 1.29533,
    "h": 1.29555,
    "l": 1.29471,
    "c": 1.29492,
    "v": 1253
  },
  {
    "dt": "2020.10.09 09:00",
    "o": 1.29493,
    "h": 1.29522,
    "l": 1.29379,
    "c": 1.29521,
    "v": 2376
  },
  {
    "dt": "2020.10.09 10:00",
    "o": 1.2952,
    "h": 1.29679,
    "l": 1.29497,
    "c": 1.29573,
    "v": 3090
  },
  {
    "dt": "2020.10.09 11:00",
    "o": 1.29572,
    "h": 1.29721,
    "l": 1.29304,
    "c": 1.29459,
    "v": 3394
  },
  {
    "dt": "2020.10.09 12:00",
    "o": 1.29461,
    "h": 1.29484,
    "l": 1.29242,
    "c": 1.29381,
    "v": 3053
  },
  {
    "dt": "2020.10.09 13:00",
    "o": 1.29379,
    "h": 1.29562,
    "l": 1.29313,
    "c": 1.29475,
    "v": 2713
  },
  {
    "dt": "2020.10.09 14:00",
    "o": 1.29476,
    "h": 1.29538,
    "l": 1.29215,
    "c": 1.29421,
    "v": 2773
  },
  {
    "dt": "2020.10.09 15:00",
    "o": 1.29423,
    "h": 1.29678,
    "l": 1.29311,
    "c": 1.29659,
    "v": 2905
  },
  {
    "dt": "2020.10.09 16:00",
    "o": 1.29659,
    "h": 1.29767,
    "l": 1.29558,
    "c": 1.29707,
    "v": 2917
  },
  {
    "dt": "2020.10.09 17:00",
    "o": 1.29688,
    "h": 1.30006,
    "l": 1.29687,
    "c": 1.2995,
    "v": 3305
  },
  {
    "dt": "2020.10.09 18:00",
    "o": 1.29968,
    "h": 1.30134,
    "l": 1.2989,
    "c": 1.29996,
    "v": 3185
  },
  {
    "dt": "2020.10.09 19:00",
    "o": 1.29984,
    "h": 1.30289,
    "l": 1.29952,
    "c": 1.30189,
    "v": 2589
  },
  {
    "dt": "2020.10.09 20:00",
    "o": 1.30193,
    "h": 1.30384,
    "l": 1.30174,
    "c": 1.30295,
    "v": 1807
  },
  {
    "dt": "2020.10.09 21:00",
    "o": 1.30294,
    "h": 1.30395,
    "l": 1.30257,
    "c": 1.30369,
    "v": 1422
  },
  {
    "dt": "2020.10.09 22:00",
    "o": 1.30367,
    "h": 1.30442,
    "l": 1.3036,
    "c": 1.30417,
    "v": 1526
  },
  {
    "dt": "2020.10.09 23:00",
    "o": 1.30416,
    "h": 1.30484,
    "l": 1.30325,
    "c": 1.30446,
    "v": 1337
  },
  {
    "dt": "2020.10.12 00:00",
    "o": 1.30246,
    "h": 1.3029,
    "l": 1.30235,
    "c": 1.30261,
    "v": 291
  },
  {
    "dt": "2020.10.12 01:00",
    "o": 1.30308,
    "h": 1.30339,
    "l": 1.30273,
    "c": 1.30332,
    "v": 1176
  },
  {
    "dt": "2020.10.12 02:00",
    "o": 1.30328,
    "h": 1.30368,
    "l": 1.3027,
    "c": 1.30293,
    "v": 990
  },
  {
    "dt": "2020.10.12 03:00",
    "o": 1.30294,
    "h": 1.30331,
    "l": 1.30219,
    "c": 1.30278,
    "v": 1632
  },
  {
    "dt": "2020.10.12 04:00",
    "o": 1.30277,
    "h": 1.30328,
    "l": 1.30193,
    "c": 1.30274,
    "v": 1997
  },
  {
    "dt": "2020.10.12 05:00",
    "o": 1.30273,
    "h": 1.30296,
    "l": 1.30234,
    "c": 1.3027,
    "v": 962
  },
  {
    "dt": "2020.10.12 06:00",
    "o": 1.30269,
    "h": 1.30319,
    "l": 1.30254,
    "c": 1.30309,
    "v": 908
  },
  {
    "dt": "2020.10.12 07:00",
    "o": 1.30308,
    "h": 1.30401,
    "l": 1.30308,
    "c": 1.30395,
    "v": 731
  },
  {
    "dt": "2020.10.12 08:00",
    "o": 1.30393,
    "h": 1.30458,
    "l": 1.30383,
    "c": 1.30425,
    "v": 1082
  },
  {
    "dt": "2020.10.12 09:00",
    "o": 1.30426,
    "h": 1.30563,
    "l": 1.30387,
    "c": 1.30494,
    "v": 2112
  },
  {
    "dt": "2020.10.12 10:00",
    "o": 1.30496,
    "h": 1.30587,
    "l": 1.30239,
    "c": 1.30306,
    "v": 3097
  },
  {
    "dt": "2020.10.12 11:00",
    "o": 1.30301,
    "h": 1.30367,
    "l": 1.30126,
    "c": 1.30135,
    "v": 2583
  },
  {
    "dt": "2020.10.12 12:00",
    "o": 1.30134,
    "h": 1.30265,
    "l": 1.30076,
    "c": 1.30264,
    "v": 2441
  },
  {
    "dt": "2020.10.12 13:00",
    "o": 1.30263,
    "h": 1.30263,
    "l": 1.30045,
    "c": 1.30115,
    "v": 2051
  },
  {
    "dt": "2020.10.12 14:00",
    "o": 1.30114,
    "h": 1.30256,
    "l": 1.3008,
    "c": 1.30203,
    "v": 2381
  },
  {
    "dt": "2020.10.12 15:00",
    "o": 1.30201,
    "h": 1.30441,
    "l": 1.30199,
    "c": 1.30412,
    "v": 2674
  },
  {
    "dt": "2020.10.12 16:00",
    "o": 1.30412,
    "h": 1.30434,
    "l": 1.30321,
    "c": 1.30427,
    "v": 2742
  },
  {
    "dt": "2020.10.12 17:00",
    "o": 1.30428,
    "h": 1.30713,
    "l": 1.30306,
    "c": 1.30633,
    "v": 3123
  },
  {
    "dt": "2020.10.12 18:00",
    "o": 1.30626,
    "h": 1.30818,
    "l": 1.30579,
    "c": 1.30612,
    "v": 2617
  },
  {
    "dt": "2020.10.12 19:00",
    "o": 1.30611,
    "h": 1.30687,
    "l": 1.3056,
    "c": 1.30618,
    "v": 2326
  },
  {
    "dt": "2020.10.12 20:00",
    "o": 1.30618,
    "h": 1.30682,
    "l": 1.30587,
    "c": 1.3068,
    "v": 1638
  },
  {
    "dt": "2020.10.12 21:00",
    "o": 1.30681,
    "h": 1.30712,
    "l": 1.30589,
    "c": 1.30609,
    "v": 1790
  },
  {
    "dt": "2020.10.12 22:00",
    "o": 1.3061,
    "h": 1.30665,
    "l": 1.3061,
    "c": 1.3064,
    "v": 1605
  },
  {
    "dt": "2020.10.12 23:00",
    "o": 1.30638,
    "h": 1.30668,
    "l": 1.3063,
    "c": 1.30639,
    "v": 823
  },
  {
    "dt": "2020.10.13 00:00",
    "o": 1.30655,
    "h": 1.3066,
    "l": 1.30561,
    "c": 1.30605,
    "v": 309
  },
  {
    "dt": "2020.10.13 01:00",
    "o": 1.30612,
    "h": 1.30673,
    "l": 1.30612,
    "c": 1.30633,
    "v": 820
  },
  {
    "dt": "2020.10.13 02:00",
    "o": 1.30636,
    "h": 1.30657,
    "l": 1.30623,
    "c": 1.30636,
    "v": 704
  },
  {
    "dt": "2020.10.13 03:00",
    "o": 1.30635,
    "h": 1.30666,
    "l": 1.3039,
    "c": 1.30465,
    "v": 2306
  },
  {
    "dt": "2020.10.13 04:00",
    "o": 1.30464,
    "h": 1.30547,
    "l": 1.30406,
    "c": 1.30444,
    "v": 2035
  },
  {
    "dt": "2020.10.13 05:00",
    "o": 1.30444,
    "h": 1.30448,
    "l": 1.30364,
    "c": 1.30438,
    "v": 1782
  },
  {
    "dt": "2020.10.13 06:00",
    "o": 1.30437,
    "h": 1.3045,
    "l": 1.30399,
    "c": 1.30425,
    "v": 1195
  },
  {
    "dt": "2020.10.13 07:00",
    "o": 1.30423,
    "h": 1.30494,
    "l": 1.30387,
    "c": 1.30491,
    "v": 1083
  },
  {
    "dt": "2020.10.13 08:00",
    "o": 1.30492,
    "h": 1.30531,
    "l": 1.30414,
    "c": 1.30474,
    "v": 2025
  },
  {
    "dt": "2020.10.13 09:00",
    "o": 1.3047,
    "h": 1.30564,
    "l": 1.3042,
    "c": 1.30442,
    "v": 2872
  },
  {
    "dt": "2020.10.13 10:00",
    "o": 1.30446,
    "h": 1.30468,
    "l": 1.30217,
    "c": 1.30217,
    "v": 3177
  },
  {
    "dt": "2020.10.13 11:00",
    "o": 1.30217,
    "h": 1.30641,
    "l": 1.30152,
    "c": 1.30617,
    "v": 3126
  },
  {
    "dt": "2020.10.13 12:00",
    "o": 1.30616,
    "h": 1.30671,
    "l": 1.30418,
    "c": 1.30497,
    "v": 2941
  },
  {
    "dt": "2020.10.13 13:00",
    "o": 1.30497,
    "h": 1.30559,
    "l": 1.30405,
    "c": 1.30535,
    "v": 2409
  },
  {
    "dt": "2020.10.13 14:00",
    "o": 1.30526,
    "h": 1.30583,
    "l": 1.30167,
    "c": 1.30303,
    "v": 3125
  },
  {
    "dt": "2020.10.13 15:00",
    "o": 1.30299,
    "h": 1.30305,
    "l": 1.30051,
    "c": 1.30116,
    "v": 3333
  },
  {
    "dt": "2020.10.13 16:00",
    "o": 1.30114,
    "h": 1.30114,
    "l": 1.29644,
    "c": 1.29774,
    "v": 4398
  },
  {
    "dt": "2020.10.13 17:00",
    "o": 1.29763,
    "h": 1.29922,
    "l": 1.29592,
    "c": 1.29845,
    "v": 4191
  },
  {
    "dt": "2020.10.13 18:00",
    "o": 1.29854,
    "h": 1.29912,
    "l": 1.29652,
    "c": 1.29689,
    "v": 3282
  },
  {
    "dt": "2020.10.13 19:00",
    "o": 1.29692,
    "h": 1.29704,
    "l": 1.2952,
    "c": 1.29566,
    "v": 2759
  },
  {
    "dt": "2020.10.13 20:00",
    "o": 1.29561,
    "h": 1.29568,
    "l": 1.29318,
    "c": 1.29353,
    "v": 2420
  },
  {
    "dt": "2020.10.13 21:00",
    "o": 1.29354,
    "h": 1.29425,
    "l": 1.29212,
    "c": 1.29379,
    "v": 2470
  },
  {
    "dt": "2020.10.13 22:00",
    "o": 1.29378,
    "h": 1.29419,
    "l": 1.29284,
    "c": 1.29393,
    "v": 2125
  },
  {
    "dt": "2020.10.13 23:00",
    "o": 1.29391,
    "h": 1.29391,
    "l": 1.29326,
    "c": 1.29328,
    "v": 926
  },
  {
    "dt": "2020.10.14 00:00",
    "o": 1.29315,
    "h": 1.29372,
    "l": 1.29285,
    "c": 1.29328,
    "v": 167
  },
  {
    "dt": "2020.10.14 01:00",
    "o": 1.29329,
    "h": 1.2937,
    "l": 1.29326,
    "c": 1.29336,
    "v": 685
  },
  {
    "dt": "2020.10.14 02:00",
    "o": 1.29337,
    "h": 1.29348,
    "l": 1.29324,
    "c": 1.29335,
    "v": 623
  },
  {
    "dt": "2020.10.14 03:00",
    "o": 1.29336,
    "h": 1.2943,
    "l": 1.29264,
    "c": 1.29363,
    "v": 1362
  },
  {
    "dt": "2020.10.14 04:00",
    "o": 1.29363,
    "h": 1.29373,
    "l": 1.29194,
    "c": 1.2931,
    "v": 2292
  },
  {
    "dt": "2020.10.14 05:00",
    "o": 1.2931,
    "h": 1.29401,
    "l": 1.29292,
    "c": 1.2935,
    "v": 1693
  },
  {
    "dt": "2020.10.14 06:00",
    "o": 1.29351,
    "h": 1.29407,
    "l": 1.29335,
    "c": 1.2934,
    "v": 1211
  },
  {
    "dt": "2020.10.14 07:00",
    "o": 1.2934,
    "h": 1.29384,
    "l": 1.29138,
    "c": 1.29214,
    "v": 1366
  },
  {
    "dt": "2020.10.14 08:00",
    "o": 1.29217,
    "h": 1.29236,
    "l": 1.29104,
    "c": 1.29156,
    "v": 1777
  },
  {
    "dt": "2020.10.14 09:00",
    "o": 1.29154,
    "h": 1.29163,
    "l": 1.28929,
    "c": 1.28932,
    "v": 2585
  },
  {
    "dt": "2020.10.14 10:00",
    "o": 1.28931,
    "h": 1.28998,
    "l": 1.2862,
    "c": 1.28866,
    "v": 3439
  },
  {
    "dt": "2020.10.14 11:00",
    "o": 1.28862,
    "h": 1.29145,
    "l": 1.28844,
    "c": 1.29045,
    "v": 2996
  },
  {
    "dt": "2020.10.14 12:00",
    "o": 1.29045,
    "h": 1.29778,
    "l": 1.2899,
    "c": 1.29363,
    "v": 3708
  },
  {
    "dt": "2020.10.14 13:00",
    "o": 1.29362,
    "h": 1.29663,
    "l": 1.29361,
    "c": 1.29489,
    "v": 3288
  },
  {
    "dt": "2020.10.14 14:00",
    "o": 1.29489,
    "h": 1.29879,
    "l": 1.29479,
    "c": 1.29815,
    "v": 3297
  },
  {
    "dt": "2020.10.14 15:00",
    "o": 1.29813,
    "h": 1.30427,
    "l": 1.2967,
    "c": 1.30279,
    "v": 3829
  },
  {
    "dt": "2020.10.14 16:00",
    "o": 1.30282,
    "h": 1.30393,
    "l": 1.302,
    "c": 1.30375,
    "v": 3086
  },
  {
    "dt": "2020.10.14 17:00",
    "o": 1.30367,
    "h": 1.30635,
    "l": 1.30338,
    "c": 1.304,
    "v": 3996
  },
  {
    "dt": "2020.10.14 18:00",
    "o": 1.30397,
    "h": 1.30475,
    "l": 1.30192,
    "c": 1.30205,
    "v": 3375
  },
  {
    "dt": "2020.10.14 19:00",
    "o": 1.30208,
    "h": 1.30319,
    "l": 1.30063,
    "c": 1.30148,
    "v": 3076
  },
  {
    "dt": "2020.10.14 20:00",
    "o": 1.30149,
    "h": 1.30313,
    "l": 1.30147,
    "c": 1.30289,
    "v": 2223
  },
  {
    "dt": "2020.10.14 21:00",
    "o": 1.30287,
    "h": 1.30322,
    "l": 1.30179,
    "c": 1.30228,
    "v": 2227
  },
  {
    "dt": "2020.10.14 22:00",
    "o": 1.30231,
    "h": 1.30334,
    "l": 1.30199,
    "c": 1.30288,
    "v": 2406
  },
  {
    "dt": "2020.10.14 23:00",
    "o": 1.30286,
    "h": 1.30304,
    "l": 1.30074,
    "c": 1.30074,
    "v": 1334
  },
  {
    "dt": "2020.10.15 00:00",
    "o": 1.30074,
    "h": 1.30182,
    "l": 1.30056,
    "c": 1.30083,
    "v": 704
  },
  {
    "dt": "2020.10.15 01:00",
    "o": 1.30124,
    "h": 1.30172,
    "l": 1.30055,
    "c": 1.30074,
    "v": 1093
  },
  {
    "dt": "2020.10.15 02:00",
    "o": 1.30077,
    "h": 1.30133,
    "l": 1.30074,
    "c": 1.30106,
    "v": 991
  },
  {
    "dt": "2020.10.15 03:00",
    "o": 1.3011,
    "h": 1.30245,
    "l": 1.301,
    "c": 1.30218,
    "v": 1886
  },
  {
    "dt": "2020.10.15 04:00",
    "o": 1.30217,
    "h": 1.3029,
    "l": 1.30144,
    "c": 1.30182,
    "v": 2194
  },
  {
    "dt": "2020.10.15 05:00",
    "o": 1.30182,
    "h": 1.30184,
    "l": 1.3009,
    "c": 1.30092,
    "v": 1455
  },
  {
    "dt": "2020.10.15 06:00",
    "o": 1.3009,
    "h": 1.30156,
    "l": 1.30085,
    "c": 1.3011,
    "v": 1362
  },
  {
    "dt": "2020.10.15 07:00",
    "o": 1.3011,
    "h": 1.30198,
    "l": 1.3009,
    "c": 1.30195,
    "v": 1093
  },
  {
    "dt": "2020.10.15 08:00",
    "o": 1.3019,
    "h": 1.30245,
    "l": 1.30149,
    "c": 1.30179,
    "v": 1243
  },
  {
    "dt": "2020.10.15 09:00",
    "o": 1.30179,
    "h": 1.30179,
    "l": 1.29928,
    "c": 1.29996,
    "v": 2939
  },
  {
    "dt": "2020.10.15 10:00",
    "o": 1.30002,
    "h": 1.30143,
    "l": 1.29853,
    "c": 1.30028,
    "v": 3479
  },
  {
    "dt": "2020.10.15 11:00",
    "o": 1.30021,
    "h": 1.30095,
    "l": 1.29354,
    "c": 1.29466,
    "v": 3856
  },
  {
    "dt": "2020.10.15 12:00",
    "o": 1.29464,
    "h": 1.29737,
    "l": 1.29359,
    "c": 1.29706,
    "v": 3252
  },
  {
    "dt": "2020.10.15 13:00",
    "o": 1.29722,
    "h": 1.29722,
    "l": 1.29302,
    "c": 1.29519,
    "v": 3208
  },
  {
    "dt": "2020.10.15 14:00",
    "o": 1.29517,
    "h": 1.2962,
    "l": 1.29083,
    "c": 1.29262,
    "v": 3595
  },
  {
    "dt": "2020.10.15 15:00",
    "o": 1.29257,
    "h": 1.29344,
    "l": 1.29085,
    "c": 1.29235,
    "v": 3769
  },
  {
    "dt": "2020.10.15 16:00",
    "o": 1.2924,
    "h": 1.29569,
    "l": 1.28985,
    "c": 1.29426,
    "v": 4039
  },
  {
    "dt": "2020.10.15 17:00",
    "o": 1.29425,
    "h": 1.29437,
    "l": 1.28897,
    "c": 1.29041,
    "v": 4362
  },
  {
    "dt": "2020.10.15 18:00",
    "o": 1.2904,
    "h": 1.29285,
    "l": 1.28986,
    "c": 1.29149,
    "v": 3770
  },
  {
    "dt": "2020.10.15 19:00",
    "o": 1.29153,
    "h": 1.2936,
    "l": 1.29075,
    "c": 1.29211,
    "v": 3054
  },
  {
    "dt": "2020.10.15 20:00",
    "o": 1.29212,
    "h": 1.29297,
    "l": 1.29013,
    "c": 1.29024,
    "v": 2851
  },
  {
    "dt": "2020.10.15 21:00",
    "o": 1.29032,
    "h": 1.29064,
    "l": 1.28971,
    "c": 1.2899,
    "v": 2378
  },
  {
    "dt": "2020.10.15 22:00",
    "o": 1.28993,
    "h": 1.29024,
    "l": 1.28914,
    "c": 1.28992,
    "v": 1986
  },
  {
    "dt": "2020.10.15 23:00",
    "o": 1.28992,
    "h": 1.29051,
    "l": 1.28952,
    "c": 1.29016,
    "v": 1032
  },
  {
    "dt": "2020.10.16 00:00",
    "o": 1.28997,
    "h": 1.29189,
    "l": 1.28982,
    "c": 1.29027,
    "v": 249
  },
  {
    "dt": "2020.10.16 01:00",
    "o": 1.29034,
    "h": 1.29087,
    "l": 1.28963,
    "c": 1.28998,
    "v": 1047
  },
  {
    "dt": "2020.10.16 02:00",
    "o": 1.29004,
    "h": 1.29044,
    "l": 1.28979,
    "c": 1.29024,
    "v": 941
  },
  {
    "dt": "2020.10.16 03:00",
    "o": 1.29025,
    "h": 1.29069,
    "l": 1.28939,
    "c": 1.29046,
    "v": 1894
  },
  {
    "dt": "2020.10.16 04:00",
    "o": 1.29046,
    "h": 1.29075,
    "l": 1.28944,
    "c": 1.28975,
    "v": 2135
  },
  {
    "dt": "2020.10.16 05:00",
    "o": 1.28979,
    "h": 1.28979,
    "l": 1.28859,
    "c": 1.28897,
    "v": 1475
  },
  {
    "dt": "2020.10.16 06:00",
    "o": 1.289,
    "h": 1.28988,
    "l": 1.28892,
    "c": 1.28932,
    "v": 1706
  },
  {
    "dt": "2020.10.16 07:00",
    "o": 1.28933,
    "h": 1.2895,
    "l": 1.28894,
    "c": 1.28904,
    "v": 1296
  },
  {
    "dt": "2020.10.16 08:00",
    "o": 1.28908,
    "h": 1.28972,
    "l": 1.28892,
    "c": 1.28966,
    "v": 1288
  },
  {
    "dt": "2020.10.16 09:00",
    "o": 1.28965,
    "h": 1.29204,
    "l": 1.28824,
    "c": 1.29163,
    "v": 2317
  },
  {
    "dt": "2020.10.16 10:00",
    "o": 1.29161,
    "h": 1.29406,
    "l": 1.29042,
    "c": 1.29335,
    "v": 3645
  },
  {
    "dt": "2020.10.16 11:00",
    "o": 1.29329,
    "h": 1.29478,
    "l": 1.29282,
    "c": 1.29314,
    "v": 2905
  },
  {
    "dt": "2020.10.16 12:00",
    "o": 1.29315,
    "h": 1.29435,
    "l": 1.2923,
    "c": 1.29396,
    "v": 2592
  },
  {
    "dt": "2020.10.16 13:00",
    "o": 1.29401,
    "h": 1.29616,
    "l": 1.28617,
    "c": 1.2891,
    "v": 3133
  },
  {
    "dt": "2020.10.16 14:00",
    "o": 1.28911,
    "h": 1.29256,
    "l": 1.28662,
    "c": 1.29125,
    "v": 4396
  },
  {
    "dt": "2020.10.16 15:00",
    "o": 1.29124,
    "h": 1.2935,
    "l": 1.289,
    "c": 1.29087,
    "v": 3751
  },
  {
    "dt": "2020.10.16 16:00",
    "o": 1.29083,
    "h": 1.29132,
    "l": 1.28713,
    "c": 1.29055,
    "v": 4122
  },
  {
    "dt": "2020.10.16 17:00",
    "o": 1.29043,
    "h": 1.29363,
    "l": 1.29013,
    "c": 1.29284,
    "v": 4281
  },
  {
    "dt": "2020.10.16 18:00",
    "o": 1.29283,
    "h": 1.29314,
    "l": 1.29135,
    "c": 1.29283,
    "v": 3359
  },
  {
    "dt": "2020.10.16 19:00",
    "o": 1.29284,
    "h": 1.29451,
    "l": 1.29149,
    "c": 1.29232,
    "v": 2985
  },
  {
    "dt": "2020.10.16 20:00",
    "o": 1.29232,
    "h": 1.29253,
    "l": 1.29057,
    "c": 1.29072,
    "v": 2077
  },
  {
    "dt": "2020.10.16 21:00",
    "o": 1.29076,
    "h": 1.29313,
    "l": 1.29055,
    "c": 1.293,
    "v": 2132
  },
  {
    "dt": "2020.10.16 22:00",
    "o": 1.29304,
    "h": 1.29306,
    "l": 1.29185,
    "c": 1.29274,
    "v": 2250
  },
  {
    "dt": "2020.10.16 23:00",
    "o": 1.29269,
    "h": 1.2927,
    "l": 1.29047,
    "c": 1.29146,
    "v": 1445
  },
  {
    "dt": "2020.10.19 00:00",
    "o": 1.28989,
    "h": 1.29194,
    "l": 1.28986,
    "c": 1.2907,
    "v": 230
  },
  {
    "dt": "2020.10.19 01:00",
    "o": 1.29052,
    "h": 1.29274,
    "l": 1.29012,
    "c": 1.29162,
    "v": 1293
  },
  {
    "dt": "2020.10.19 02:00",
    "o": 1.29166,
    "h": 1.29277,
    "l": 1.29166,
    "c": 1.29249,
    "v": 1117
  },
  {
    "dt": "2020.10.19 03:00",
    "o": 1.29248,
    "h": 1.29406,
    "l": 1.29246,
    "c": 1.29402,
    "v": 1584
  },
  {
    "dt": "2020.10.19 04:00",
    "o": 1.29412,
    "h": 1.29453,
    "l": 1.29289,
    "c": 1.29309,
    "v": 1828
  },
  {
    "dt": "2020.10.19 05:00",
    "o": 1.29303,
    "h": 1.29369,
    "l": 1.29238,
    "c": 1.29335,
    "v": 1512
  },
  {
    "dt": "2020.10.19 06:00",
    "o": 1.29332,
    "h": 1.29349,
    "l": 1.29232,
    "c": 1.29266,
    "v": 1340
  },
  {
    "dt": "2020.10.19 07:00",
    "o": 1.29268,
    "h": 1.29293,
    "l": 1.29242,
    "c": 1.29251,
    "v": 1111
  },
  {
    "dt": "2020.10.19 08:00",
    "o": 1.29252,
    "h": 1.29381,
    "l": 1.29216,
    "c": 1.29371,
    "v": 1300
  },
  {
    "dt": "2020.10.19 09:00",
    "o": 1.29368,
    "h": 1.29492,
    "l": 1.29319,
    "c": 1.29466,
    "v": 2120
  },
  {
    "dt": "2020.10.19 10:00",
    "o": 1.29468,
    "h": 1.29793,
    "l": 1.29453,
    "c": 1.29689,
    "v": 3237
  },
  {
    "dt": "2020.10.19 11:00",
    "o": 1.2969,
    "h": 1.30048,
    "l": 1.29627,
    "c": 1.29955,
    "v": 3012
  },
  {
    "dt": "2020.10.19 12:00",
    "o": 1.29958,
    "h": 1.30134,
    "l": 1.29917,
    "c": 1.29963,
    "v": 2825
  },
  {
    "dt": "2020.10.19 13:00",
    "o": 1.29964,
    "h": 1.30088,
    "l": 1.29718,
    "c": 1.29947,
    "v": 2699
  },
  {
    "dt": "2020.10.19 14:00",
    "o": 1.29954,
    "h": 1.30162,
    "l": 1.29919,
    "c": 1.30115,
    "v": 2754
  },
  {
    "dt": "2020.10.19 15:00",
    "o": 1.30118,
    "h": 1.30152,
    "l": 1.29897,
    "c": 1.29913,
    "v": 2644
  },
  {
    "dt": "2020.10.19 16:00",
    "o": 1.29914,
    "h": 1.30237,
    "l": 1.29675,
    "c": 1.30026,
    "v": 3498
  },
  {
    "dt": "2020.10.19 17:00",
    "o": 1.30026,
    "h": 1.3016,
    "l": 1.2979,
    "c": 1.2997,
    "v": 4227
  },
  {
    "dt": "2020.10.19 18:00",
    "o": 1.29969,
    "h": 1.30044,
    "l": 1.2982,
    "c": 1.29956,
    "v": 3310
  },
  {
    "dt": "2020.10.19 19:00",
    "o": 1.29957,
    "h": 1.30038,
    "l": 1.29794,
    "c": 1.29812,
    "v": 3107
  },
  {
    "dt": "2020.10.19 20:00",
    "o": 1.29812,
    "h": 1.2986,
    "l": 1.29622,
    "c": 1.29643,
    "v": 2318
  },
  {
    "dt": "2020.10.19 21:00",
    "o": 1.29642,
    "h": 1.29694,
    "l": 1.29415,
    "c": 1.29436,
    "v": 2799
  },
  {
    "dt": "2020.10.19 22:00",
    "o": 1.29435,
    "h": 1.29488,
    "l": 1.29396,
    "c": 1.2941,
    "v": 2912
  },
  {
    "dt": "2020.10.19 23:00",
    "o": 1.29407,
    "h": 1.29499,
    "l": 1.29357,
    "c": 1.29478,
    "v": 1528
  },
  {
    "dt": "2020.10.20 00:00",
    "o": 1.29454,
    "h": 1.29468,
    "l": 1.29387,
    "c": 1.29409,
    "v": 1122
  },
  {
    "dt": "2020.10.20 01:00",
    "o": 1.29412,
    "h": 1.29545,
    "l": 1.29408,
    "c": 1.29456,
    "v": 728
  },
  {
    "dt": "2020.10.20 02:00",
    "o": 1.29461,
    "h": 1.295,
    "l": 1.29446,
    "c": 1.29465,
    "v": 975
  },
  {
    "dt": "2020.10.20 03:00",
    "o": 1.29465,
    "h": 1.29525,
    "l": 1.2945,
    "c": 1.29497,
    "v": 1477
  },
  {
    "dt": "2020.10.20 04:00",
    "o": 1.29494,
    "h": 1.29572,
    "l": 1.29357,
    "c": 1.29388,
    "v": 2879
  },
  {
    "dt": "2020.10.20 05:00",
    "o": 1.29385,
    "h": 1.29437,
    "l": 1.29343,
    "c": 1.2943,
    "v": 1775
  },
  {
    "dt": "2020.10.20 06:00",
    "o": 1.2943,
    "h": 1.2951,
    "l": 1.29421,
    "c": 1.29501,
    "v": 950
  },
  {
    "dt": "2020.10.20 07:00",
    "o": 1.29501,
    "h": 1.29513,
    "l": 1.29435,
    "c": 1.29437,
    "v": 1111
  },
  {
    "dt": "2020.10.20 08:00",
    "o": 1.29438,
    "h": 1.29486,
    "l": 1.29372,
    "c": 1.29464,
    "v": 1539
  },
  {
    "dt": "2020.10.20 09:00",
    "o": 1.29488,
    "h": 1.29562,
    "l": 1.29366,
    "c": 1.29391,
    "v": 2475
  },
  {
    "dt": "2020.10.20 10:00",
    "o": 1.29395,
    "h": 1.2951,
    "l": 1.29182,
    "c": 1.29432,
    "v": 3401
  },
  {
    "dt": "2020.10.20 11:00",
    "o": 1.29432,
    "h": 1.29726,
    "l": 1.29389,
    "c": 1.29636,
    "v": 2966
  },
  {
    "dt": "2020.10.20 12:00",
    "o": 1.29637,
    "h": 1.29785,
    "l": 1.29597,
    "c": 1.29603,
    "v": 2820
  },
  {
    "dt": "2020.10.20 13:00",
    "o": 1.29601,
    "h": 1.2972,
    "l": 1.29424,
    "c": 1.29518,
    "v": 2913
  },
  {
    "dt": "2020.10.20 14:00",
    "o": 1.29512,
    "h": 1.29587,
    "l": 1.29242,
    "c": 1.29362,
    "v": 2857
  },
  {
    "dt": "2020.10.20 15:00",
    "o": 1.29356,
    "h": 1.29372,
    "l": 1.29102,
    "c": 1.29259,
    "v": 3258
  },
  {
    "dt": "2020.10.20 16:00",
    "o": 1.29254,
    "h": 1.29724,
    "l": 1.29185,
    "c": 1.29685,
    "v": 3882
  },
  {
    "dt": "2020.10.20 17:00",
    "o": 1.29686,
    "h": 1.29741,
    "l": 1.2956,
    "c": 1.29611,
    "v": 3755
  },
  {
    "dt": "2020.10.20 18:00",
    "o": 1.29609,
    "h": 1.29635,
    "l": 1.29463,
    "c": 1.29493,
    "v": 3081
  },
  {
    "dt": "2020.10.20 19:00",
    "o": 1.29494,
    "h": 1.29546,
    "l": 1.29331,
    "c": 1.29387,
    "v": 2664
  },
  {
    "dt": "2020.10.20 20:00",
    "o": 1.29389,
    "h": 1.29456,
    "l": 1.29361,
    "c": 1.29383,
    "v": 2198
  },
  {
    "dt": "2020.10.20 21:00",
    "o": 1.29384,
    "h": 1.29441,
    "l": 1.29375,
    "c": 1.29412,
    "v": 2092
  },
  {
    "dt": "2020.10.20 22:00",
    "o": 1.29413,
    "h": 1.29423,
    "l": 1.29298,
    "c": 1.29397,
    "v": 2557
  },
  {
    "dt": "2020.10.20 23:00",
    "o": 1.29395,
    "h": 1.29504,
    "l": 1.29375,
    "c": 1.29451,
    "v": 1188
  },
  {
    "dt": "2020.10.21 00:00",
    "o": 1.29403,
    "h": 1.29449,
    "l": 1.29389,
    "c": 1.2942,
    "v": 282
  },
  {
    "dt": "2020.10.21 01:00",
    "o": 1.29422,
    "h": 1.29543,
    "l": 1.29422,
    "c": 1.29482,
    "v": 1013
  },
  {
    "dt": "2020.10.21 02:00",
    "o": 1.29483,
    "h": 1.29563,
    "l": 1.29463,
    "c": 1.2955,
    "v": 1145
  },
  {
    "dt": "2020.10.21 03:00",
    "o": 1.2955,
    "h": 1.29648,
    "l": 1.29531,
    "c": 1.29593,
    "v": 1573
  },
  {
    "dt": "2020.10.21 04:00",
    "o": 1.29592,
    "h": 1.29701,
    "l": 1.29585,
    "c": 1.29632,
    "v": 1843
  },
  {
    "dt": "2020.10.21 05:00",
    "o": 1.29631,
    "h": 1.29734,
    "l": 1.29631,
    "c": 1.29675,
    "v": 1601
  },
  {
    "dt": "2020.10.21 06:00",
    "o": 1.29675,
    "h": 1.29779,
    "l": 1.29672,
    "c": 1.29771,
    "v": 1744
  },
  {
    "dt": "2020.10.21 07:00",
    "o": 1.29774,
    "h": 1.29811,
    "l": 1.29743,
    "c": 1.2979,
    "v": 1227
  },
  {
    "dt": "2020.10.21 08:00",
    "o": 1.29796,
    "h": 1.29827,
    "l": 1.29699,
    "c": 1.29755,
    "v": 1485
  },
  {
    "dt": "2020.10.21 09:00",
    "o": 1.29754,
    "h": 1.30003,
    "l": 1.29734,
    "c": 1.2988,
    "v": 2821
  },
  {
    "dt": "2020.10.21 10:00",
    "o": 1.29878,
    "h": 1.30503,
    "l": 1.29878,
    "c": 1.30457,
    "v": 4164
  },
  {
    "dt": "2020.10.21 11:00",
    "o": 1.30463,
    "h": 1.30637,
    "l": 1.30354,
    "c": 1.30387,
    "v": 3656
  },
  {
    "dt": "2020.10.21 12:00",
    "o": 1.30384,
    "h": 1.3064,
    "l": 1.30346,
    "c": 1.30526,
    "v": 3186
  },
  {
    "dt": "2020.10.21 13:00",
    "o": 1.30525,
    "h": 1.30711,
    "l": 1.30446,
    "c": 1.3071,
    "v": 2690
  },
  {
    "dt": "2020.10.21 14:00",
    "o": 1.30708,
    "h": 1.30708,
    "l": 1.30436,
    "c": 1.30575,
    "v": 2727
  },
  {
    "dt": "2020.10.21 15:00",
    "o": 1.30579,
    "h": 1.30959,
    "l": 1.30549,
    "c": 1.30937,
    "v": 3333
  },
  {
    "dt": "2020.10.21 16:00",
    "o": 1.30937,
    "h": 1.313,
    "l": 1.30742,
    "c": 1.31128,
    "v": 3679
  },
  {
    "dt": "2020.10.21 17:00",
    "o": 1.31136,
    "h": 1.31707,
    "l": 1.31126,
    "c": 1.3157,
    "v": 4296
  },
  {
    "dt": "2020.10.21 18:00",
    "o": 1.31569,
    "h": 1.31571,
    "l": 1.31338,
    "c": 1.31413,
    "v": 3603
  },
  {
    "dt": "2020.10.21 19:00",
    "o": 1.31414,
    "h": 1.3176,
    "l": 1.31377,
    "c": 1.3156,
    "v": 3649
  },
  {
    "dt": "2020.10.21 20:00",
    "o": 1.31567,
    "h": 1.31685,
    "l": 1.31508,
    "c": 1.31622,
    "v": 2618
  },
  {
    "dt": "2020.10.21 21:00",
    "o": 1.31623,
    "h": 1.31663,
    "l": 1.31551,
    "c": 1.31584,
    "v": 2424
  },
  {
    "dt": "2020.10.21 22:00",
    "o": 1.31584,
    "h": 1.31626,
    "l": 1.31429,
    "c": 1.31444,
    "v": 2894
  },
  {
    "dt": "2020.10.21 23:00",
    "o": 1.31443,
    "h": 1.31473,
    "l": 1.3133,
    "c": 1.3146,
    "v": 1626
  },
  {
    "dt": "2020.10.22 00:00",
    "o": 1.31442,
    "h": 1.31512,
    "l": 1.31392,
    "c": 1.31425,
    "v": 470
  },
  {
    "dt": "2020.10.22 01:00",
    "o": 1.3142,
    "h": 1.31507,
    "l": 1.31381,
    "c": 1.31396,
    "v": 839
  },
  {
    "dt": "2020.10.22 02:00",
    "o": 1.31395,
    "h": 1.31408,
    "l": 1.31256,
    "c": 1.31284,
    "v": 1677
  },
  {
    "dt": "2020.10.22 03:00",
    "o": 1.31282,
    "h": 1.31415,
    "l": 1.31272,
    "c": 1.31366,
    "v": 2080
  },
  {
    "dt": "2020.10.22 04:00",
    "o": 1.31368,
    "h": 1.31432,
    "l": 1.31312,
    "c": 1.31332,
    "v": 2351
  },
  {
    "dt": "2020.10.22 05:00",
    "o": 1.31333,
    "h": 1.31342,
    "l": 1.31242,
    "c": 1.31275,
    "v": 2091
  },
  {
    "dt": "2020.10.22 06:00",
    "o": 1.31274,
    "h": 1.31318,
    "l": 1.31233,
    "c": 1.31243,
    "v": 1157
  },
  {
    "dt": "2020.10.22 07:00",
    "o": 1.31244,
    "h": 1.31328,
    "l": 1.31241,
    "c": 1.31301,
    "v": 1001
  },
  {
    "dt": "2020.10.22 08:00",
    "o": 1.313,
    "h": 1.31397,
    "l": 1.31282,
    "c": 1.31354,
    "v": 1441
  },
  {
    "dt": "2020.10.22 09:00",
    "o": 1.31353,
    "h": 1.31486,
    "l": 1.31303,
    "c": 1.31345,
    "v": 2300
  },
  {
    "dt": "2020.10.22 10:00",
    "o": 1.31332,
    "h": 1.31485,
    "l": 1.31162,
    "c": 1.31394,
    "v": 3787
  },
  {
    "dt": "2020.10.22 11:00",
    "o": 1.31396,
    "h": 1.31407,
    "l": 1.31035,
    "c": 1.31069,
    "v": 2999
  },
  {
    "dt": "2020.10.22 12:00",
    "o": 1.31061,
    "h": 1.3112,
    "l": 1.3083,
    "c": 1.30966,
    "v": 3074
  },
  {
    "dt": "2020.10.22 13:00",
    "o": 1.30964,
    "h": 1.31216,
    "l": 1.30881,
    "c": 1.30998,
    "v": 2921
  },
  {
    "dt": "2020.10.22 14:00",
    "o": 1.30994,
    "h": 1.31105,
    "l": 1.30914,
    "c": 1.30965,
    "v": 3213
  },
  {
    "dt": "2020.10.22 15:00",
    "o": 1.30963,
    "h": 1.31115,
    "l": 1.30837,
    "c": 1.31014,
    "v": 3260
  },
  {
    "dt": "2020.10.22 16:00",
    "o": 1.31015,
    "h": 1.31176,
    "l": 1.30917,
    "c": 1.31013,
    "v": 3932
  },
  {
    "dt": "2020.10.22 17:00",
    "o": 1.31018,
    "h": 1.3103,
    "l": 1.30696,
    "c": 1.3095,
    "v": 4248
  },
  {
    "dt": "2020.10.22 18:00",
    "o": 1.30947,
    "h": 1.30972,
    "l": 1.30796,
    "c": 1.30862,
    "v": 3390
  },
  {
    "dt": "2020.10.22 19:00",
    "o": 1.30862,
    "h": 1.31022,
    "l": 1.30802,
    "c": 1.3095,
    "v": 2405
  },
  {
    "dt": "2020.10.22 20:00",
    "o": 1.30949,
    "h": 1.30975,
    "l": 1.30857,
    "c": 1.30867,
    "v": 2088
  },
  {
    "dt": "2020.10.22 21:00",
    "o": 1.30866,
    "h": 1.30889,
    "l": 1.30743,
    "c": 1.30769,
    "v": 1858
  },
  {
    "dt": "2020.10.22 22:00",
    "o": 1.30768,
    "h": 1.30805,
    "l": 1.30727,
    "c": 1.30752,
    "v": 1660
  },
  {
    "dt": "2020.10.22 23:00",
    "o": 1.30753,
    "h": 1.3084,
    "l": 1.30737,
    "c": 1.30824,
    "v": 1148
  },
  {
    "dt": "2020.10.23 00:00",
    "o": 1.30839,
    "h": 1.30912,
    "l": 1.30745,
    "c": 1.30789,
    "v": 392
  },
  {
    "dt": "2020.10.23 01:00",
    "o": 1.30794,
    "h": 1.30861,
    "l": 1.30768,
    "c": 1.30792,
    "v": 882
  },
  {
    "dt": "2020.10.23 02:00",
    "o": 1.30793,
    "h": 1.3081,
    "l": 1.30744,
    "c": 1.3077,
    "v": 856
  },
  {
    "dt": "2020.10.23 03:00",
    "o": 1.30764,
    "h": 1.30772,
    "l": 1.30555,
    "c": 1.30711,
    "v": 2285
  },
  {
    "dt": "2020.10.23 04:00",
    "o": 1.30707,
    "h": 1.30717,
    "l": 1.30634,
    "c": 1.30712,
    "v": 1755
  },
  {
    "dt": "2020.10.23 05:00",
    "o": 1.30712,
    "h": 1.30723,
    "l": 1.30651,
    "c": 1.30715,
    "v": 1576
  },
  {
    "dt": "2020.10.23 06:00",
    "o": 1.30714,
    "h": 1.30719,
    "l": 1.30642,
    "c": 1.30661,
    "v": 1284
  },
  {
    "dt": "2020.10.23 07:00",
    "o": 1.30658,
    "h": 1.30667,
    "l": 1.30563,
    "c": 1.30611,
    "v": 1223
  },
  {
    "dt": "2020.10.23 08:00",
    "o": 1.30607,
    "h": 1.30639,
    "l": 1.30559,
    "c": 1.30602,
    "v": 1122
  },
  {
    "dt": "2020.10.23 09:00",
    "o": 1.30603,
    "h": 1.30613,
    "l": 1.30499,
    "c": 1.30556,
    "v": 2124
  },
  {
    "dt": "2020.10.23 10:00",
    "o": 1.30557,
    "h": 1.30968,
    "l": 1.30516,
    "c": 1.3091,
    "v": 3389
  },
  {
    "dt": "2020.10.23 11:00",
    "o": 1.30908,
    "h": 1.31122,
    "l": 1.30842,
    "c": 1.30883,
    "v": 3016
  },
  {
    "dt": "2020.10.23 12:00",
    "o": 1.30879,
    "h": 1.31028,
    "l": 1.30784,
    "c": 1.30822,
    "v": 2751
  },
  {
    "dt": "2020.10.23 13:00",
    "o": 1.30822,
    "h": 1.3091,
    "l": 1.30584,
    "c": 1.30743,
    "v": 2716
  },
  {
    "dt": "2020.10.23 14:00",
    "o": 1.30743,
    "h": 1.30753,
    "l": 1.30598,
    "c": 1.30663,
    "v": 2522
  },
  {
    "dt": "2020.10.23 15:00",
    "o": 1.30663,
    "h": 1.31214,
    "l": 1.30639,
    "c": 1.30903,
    "v": 3560
  },
  {
    "dt": "2020.10.23 16:00",
    "o": 1.30903,
    "h": 1.30916,
    "l": 1.30612,
    "c": 1.30656,
    "v": 3464
  },
  {
    "dt": "2020.10.23 17:00",
    "o": 1.30661,
    "h": 1.30674,
    "l": 1.30183,
    "c": 1.30395,
    "v": 3876
  },
  {
    "dt": "2020.10.23 18:00",
    "o": 1.30393,
    "h": 1.30567,
    "l": 1.30335,
    "c": 1.30378,
    "v": 2993
  },
  {
    "dt": "2020.10.23 19:00",
    "o": 1.30377,
    "h": 1.30379,
    "l": 1.30194,
    "c": 1.30308,
    "v": 2444
  },
  {
    "dt": "2020.10.23 20:00",
    "o": 1.30307,
    "h": 1.30367,
    "l": 1.30216,
    "c": 1.30255,
    "v": 1936
  },
  {
    "dt": "2020.10.23 21:00",
    "o": 1.30251,
    "h": 1.30353,
    "l": 1.30195,
    "c": 1.30337,
    "v": 1427
  },
  {
    "dt": "2020.10.23 22:00",
    "o": 1.30335,
    "h": 1.3045,
    "l": 1.30311,
    "c": 1.30446,
    "v": 1487
  },
  {
    "dt": "2020.10.23 23:00",
    "o": 1.30443,
    "h": 1.30535,
    "l": 1.30323,
    "c": 1.30354,
    "v": 1349
  },
  {
    "dt": "2020.10.26 00:00",
    "o": 1.30544,
    "h": 1.30549,
    "l": 1.30324,
    "c": 1.30448,
    "v": 131
  },
  {
    "dt": "2020.10.26 01:00",
    "o": 1.3049,
    "h": 1.3057,
    "l": 1.30392,
    "c": 1.30414,
    "v": 2092
  },
  {
    "dt": "2020.10.26 02:00",
    "o": 1.30417,
    "h": 1.30528,
    "l": 1.30411,
    "c": 1.30524,
    "v": 1096
  },
  {
    "dt": "2020.10.26 03:00",
    "o": 1.30519,
    "h": 1.30538,
    "l": 1.30457,
    "c": 1.3046,
    "v": 1691
  },
  {
    "dt": "2020.10.26 04:00",
    "o": 1.30467,
    "h": 1.3054,
    "l": 1.30276,
    "c": 1.30352,
    "v": 1985
  },
  {
    "dt": "2020.10.26 05:00",
    "o": 1.30351,
    "h": 1.3039,
    "l": 1.30278,
    "c": 1.30279,
    "v": 1515
  },
  {
    "dt": "2020.10.26 06:00",
    "o": 1.30278,
    "h": 1.30292,
    "l": 1.30227,
    "c": 1.30256,
    "v": 1422
  },
  {
    "dt": "2020.10.26 07:00",
    "o": 1.30248,
    "h": 1.30272,
    "l": 1.30205,
    "c": 1.30228,
    "v": 1107
  },
  {
    "dt": "2020.10.26 08:00",
    "o": 1.30227,
    "h": 1.30289,
    "l": 1.30194,
    "c": 1.30232,
    "v": 1353
  },
  {
    "dt": "2020.10.26 09:00",
    "o": 1.30237,
    "h": 1.30273,
    "l": 1.30187,
    "c": 1.3021,
    "v": 1415
  },
  {
    "dt": "2020.10.26 10:00",
    "o": 1.30212,
    "h": 1.30212,
    "l": 1.29919,
    "c": 1.30097,
    "v": 2685
  },
  {
    "dt": "2020.10.26 11:00",
    "o": 1.301,
    "h": 1.30319,
    "l": 1.29942,
    "c": 1.30161,
    "v": 3565
  },
  {
    "dt": "2020.10.26 12:00",
    "o": 1.30162,
    "h": 1.30538,
    "l": 1.30147,
    "c": 1.30486,
    "v": 3213
  },
  {
    "dt": "2020.10.26 13:00",
    "o": 1.30484,
    "h": 1.30736,
    "l": 1.3042,
    "c": 1.30633,
    "v": 2872
  },
  {
    "dt": "2020.10.26 14:00",
    "o": 1.30637,
    "h": 1.30661,
    "l": 1.3047,
    "c": 1.30517,
    "v": 2762
  },
  {
    "dt": "2020.10.26 15:00",
    "o": 1.30517,
    "h": 1.30549,
    "l": 1.3009,
    "c": 1.30231,
    "v": 3112
  },
  {
    "dt": "2020.10.26 16:00",
    "o": 1.3023,
    "h": 1.30354,
    "l": 1.30133,
    "c": 1.30176,
    "v": 3292
  },
  {
    "dt": "2020.10.26 17:00",
    "o": 1.30177,
    "h": 1.30177,
    "l": 1.29941,
    "c": 1.29992,
    "v": 3455
  },
  {
    "dt": "2020.10.26 18:00",
    "o": 1.2999,
    "h": 1.30227,
    "l": 1.29976,
    "c": 1.30193,
    "v": 3325
  },
  {
    "dt": "2020.10.26 19:00",
    "o": 1.3019,
    "h": 1.30276,
    "l": 1.30127,
    "c": 1.3022,
    "v": 2524
  },
  {
    "dt": "2020.10.26 20:00",
    "o": 1.30221,
    "h": 1.30295,
    "l": 1.30143,
    "c": 1.30222,
    "v": 2216
  },
  {
    "dt": "2020.10.26 21:00",
    "o": 1.30223,
    "h": 1.30271,
    "l": 1.30177,
    "c": 1.30178,
    "v": 1910
  },
  {
    "dt": "2020.10.26 22:00",
    "o": 1.30182,
    "h": 1.30257,
    "l": 1.30168,
    "c": 1.3018,
    "v": 2047
  },
  {
    "dt": "2020.10.26 23:00",
    "o": 1.30183,
    "h": 1.30228,
    "l": 1.30179,
    "c": 1.30221,
    "v": 946
  },
  {
    "dt": "2020.10.27 00:00",
    "o": 1.30199,
    "h": 1.30218,
    "l": 1.30064,
    "c": 1.30167,
    "v": 472
  },
  {
    "dt": "2020.10.27 01:00",
    "o": 1.30168,
    "h": 1.30211,
    "l": 1.30141,
    "c": 1.30148,
    "v": 1281
  },
  {
    "dt": "2020.10.27 02:00",
    "o": 1.30139,
    "h": 1.30181,
    "l": 1.30128,
    "c": 1.30143,
    "v": 1058
  },
  {
    "dt": "2020.10.27 03:00",
    "o": 1.30141,
    "h": 1.30252,
    "l": 1.30133,
    "c": 1.30247,
    "v": 1390
  },
  {
    "dt": "2020.10.27 04:00",
    "o": 1.3025,
    "h": 1.30311,
    "l": 1.30222,
    "c": 1.30289,
    "v": 1539
  },
  {
    "dt": "2020.10.27 05:00",
    "o": 1.30291,
    "h": 1.30391,
    "l": 1.30291,
    "c": 1.30385,
    "v": 1363
  },
  {
    "dt": "2020.10.27 06:00",
    "o": 1.30383,
    "h": 1.30383,
    "l": 1.30311,
    "c": 1.30327,
    "v": 908
  },
  {
    "dt": "2020.10.27 07:00",
    "o": 1.30331,
    "h": 1.30382,
    "l": 1.30321,
    "c": 1.3033,
    "v": 842
  },
  {
    "dt": "2020.10.27 08:00",
    "o": 1.30331,
    "h": 1.30401,
    "l": 1.30331,
    "c": 1.30381,
    "v": 1340
  },
  {
    "dt": "2020.10.27 09:00",
    "o": 1.30376,
    "h": 1.30437,
    "l": 1.30312,
    "c": 1.30328,
    "v": 1706
  },
  {
    "dt": "2020.10.27 10:00",
    "o": 1.30324,
    "h": 1.30327,
    "l": 1.3011,
    "c": 1.30195,
    "v": 2774
  },
  {
    "dt": "2020.10.27 11:00",
    "o": 1.30202,
    "h": 1.30232,
    "l": 1.30001,
    "c": 1.30159,
    "v": 3443
  },
  {
    "dt": "2020.10.27 12:00",
    "o": 1.30155,
    "h": 1.30248,
    "l": 1.30091,
    "c": 1.30227,
    "v": 2817
  },
  {
    "dt": "2020.10.27 13:00",
    "o": 1.30226,
    "h": 1.30361,
    "l": 1.30141,
    "c": 1.30355,
    "v": 2372
  },
  {
    "dt": "2020.10.27 14:00",
    "o": 1.3035,
    "h": 1.30498,
    "l": 1.30267,
    "c": 1.30481,
    "v": 2638
  },
  {
    "dt": "2020.10.27 15:00",
    "o": 1.30483,
    "h": 1.3058,
    "l": 1.3022,
    "c": 1.30288,
    "v": 2531
  },
  {
    "dt": "2020.10.27 16:00",
    "o": 1.30289,
    "h": 1.30471,
    "l": 1.30275,
    "c": 1.30347,
    "v": 3076
  },
  {
    "dt": "2020.10.27 17:00",
    "o": 1.30345,
    "h": 1.30482,
    "l": 1.30267,
    "c": 1.30425,
    "v": 3388
  },
  {
    "dt": "2020.10.27 18:00",
    "o": 1.30427,
    "h": 1.30787,
    "l": 1.30349,
    "c": 1.30651,
    "v": 3366
  },
  {
    "dt": "2020.10.27 19:00",
    "o": 1.30653,
    "h": 1.30736,
    "l": 1.30595,
    "c": 1.30714,
    "v": 2437
  },
  {
    "dt": "2020.10.27 20:00",
    "o": 1.30717,
    "h": 1.30759,
    "l": 1.30607,
    "c": 1.30637,
    "v": 1771
  },
  {
    "dt": "2020.10.27 21:00",
    "o": 1.3064,
    "h": 1.30642,
    "l": 1.30544,
    "c": 1.30555,
    "v": 1321
  },
  {
    "dt": "2020.10.27 22:00",
    "o": 1.30554,
    "h": 1.3058,
    "l": 1.30508,
    "c": 1.30527,
    "v": 1391
  },
  {
    "dt": "2020.10.27 23:00",
    "o": 1.30531,
    "h": 1.30592,
    "l": 1.30452,
    "c": 1.30452,
    "v": 1310
  },
  {
    "dt": "2020.10.28 00:00",
    "o": 1.30407,
    "h": 1.30434,
    "l": 1.30355,
    "c": 1.30395,
    "v": 772
  },
  {
    "dt": "2020.10.28 01:00",
    "o": 1.30393,
    "h": 1.30431,
    "l": 1.30218,
    "c": 1.3026,
    "v": 1756
  },
  {
    "dt": "2020.10.28 02:00",
    "o": 1.30264,
    "h": 1.30301,
    "l": 1.3024,
    "c": 1.30295,
    "v": 1193
  },
  {
    "dt": "2020.10.28 03:00",
    "o": 1.30304,
    "h": 1.30391,
    "l": 1.30196,
    "c": 1.3032,
    "v": 1539
  },
  {
    "dt": "2020.10.28 04:00",
    "o": 1.30319,
    "h": 1.30404,
    "l": 1.30249,
    "c": 1.30342,
    "v": 1673
  },
  {
    "dt": "2020.10.28 05:00",
    "o": 1.30343,
    "h": 1.30398,
    "l": 1.30319,
    "c": 1.30335,
    "v": 1757
  },
  {
    "dt": "2020.10.28 06:00",
    "o": 1.30332,
    "h": 1.30369,
    "l": 1.30315,
    "c": 1.30333,
    "v": 1094
  },
  {
    "dt": "2020.10.28 07:00",
    "o": 1.30332,
    "h": 1.30414,
    "l": 1.30319,
    "c": 1.30403,
    "v": 1032
  },
  {
    "dt": "2020.10.28 08:00",
    "o": 1.30402,
    "h": 1.30464,
    "l": 1.30387,
    "c": 1.3044,
    "v": 1435
  },
  {
    "dt": "2020.10.28 09:00",
    "o": 1.30438,
    "h": 1.30626,
    "l": 1.30394,
    "c": 1.30498,
    "v": 2031
  },
  {
    "dt": "2020.10.28 10:00",
    "o": 1.30499,
    "h": 1.30606,
    "l": 1.30294,
    "c": 1.30296,
    "v": 3066
  },
  {
    "dt": "2020.10.28 11:00",
    "o": 1.30293,
    "h": 1.30305,
    "l": 1.29876,
    "c": 1.30002,
    "v": 3900
  },
  {
    "dt": "2020.10.28 12:00",
    "o": 1.29998,
    "h": 1.30029,
    "l": 1.29626,
    "c": 1.29713,
    "v": 3854
  },
  {
    "dt": "2020.10.28 13:00",
    "o": 1.29713,
    "h": 1.29829,
    "l": 1.29657,
    "c": 1.29696,
    "v": 3248
  },
  {
    "dt": "2020.10.28 14:00",
    "o": 1.29695,
    "h": 1.29799,
    "l": 1.29508,
    "c": 1.29557,
    "v": 3419
  },
  {
    "dt": "2020.10.28 15:00",
    "o": 1.29552,
    "h": 1.29558,
    "l": 1.29158,
    "c": 1.29405,
    "v": 3547
  },
  {
    "dt": "2020.10.28 16:00",
    "o": 1.29404,
    "h": 1.29656,
    "l": 1.29294,
    "c": 1.29549,
    "v": 4039
  },
  {
    "dt": "2020.10.28 17:00",
    "o": 1.29552,
    "h": 1.30116,
    "l": 1.29532,
    "c": 1.29799,
    "v": 4694
  },
  {
    "dt": "2020.10.28 18:00",
    "o": 1.29797,
    "h": 1.30124,
    "l": 1.29778,
    "c": 1.29961,
    "v": 4075
  },
  {
    "dt": "2020.10.28 19:00",
    "o": 1.29959,
    "h": 1.29984,
    "l": 1.29722,
    "c": 1.29801,
    "v": 3229
  },
  {
    "dt": "2020.10.28 20:00",
    "o": 1.29803,
    "h": 1.29895,
    "l": 1.29763,
    "c": 1.29891,
    "v": 2566
  },
  {
    "dt": "2020.10.28 21:00",
    "o": 1.2989,
    "h": 1.29996,
    "l": 1.29834,
    "c": 1.29912,
    "v": 2098
  },
  {
    "dt": "2020.10.28 22:00",
    "o": 1.29913,
    "h": 1.2994,
    "l": 1.29785,
    "c": 1.298,
    "v": 2605
  },
  {
    "dt": "2020.10.28 23:00",
    "o": 1.29805,
    "h": 1.29872,
    "l": 1.29782,
    "c": 1.29813,
    "v": 1045
  },
  {
    "dt": "2020.10.29 00:00",
    "o": 1.29808,
    "h": 1.29847,
    "l": 1.29789,
    "c": 1.29826,
    "v": 119
  },
  {
    "dt": "2020.10.29 01:00",
    "o": 1.29831,
    "h": 1.29935,
    "l": 1.29822,
    "c": 1.29861,
    "v": 1151
  },
  {
    "dt": "2020.10.29 02:00",
    "o": 1.29856,
    "h": 1.29891,
    "l": 1.298,
    "c": 1.29882,
    "v": 1086
  },
  {
    "dt": "2020.10.29 03:00",
    "o": 1.29881,
    "h": 1.29966,
    "l": 1.29828,
    "c": 1.29891,
    "v": 1730
  },
  {
    "dt": "2020.10.29 04:00",
    "o": 1.29894,
    "h": 1.29971,
    "l": 1.29876,
    "c": 1.29947,
    "v": 1919
  },
  {
    "dt": "2020.10.29 05:00",
    "o": 1.29951,
    "h": 1.29959,
    "l": 1.29885,
    "c": 1.29901,
    "v": 1345
  },
  {
    "dt": "2020.10.29 06:00",
    "o": 1.29905,
    "h": 1.30021,
    "l": 1.29876,
    "c": 1.30009,
    "v": 1196
  },
  {
    "dt": "2020.10.29 07:00",
    "o": 1.30009,
    "h": 1.30071,
    "l": 1.30005,
    "c": 1.30012,
    "v": 976
  },
  {
    "dt": "2020.10.29 08:00",
    "o": 1.30017,
    "h": 1.30204,
    "l": 1.29996,
    "c": 1.30203,
    "v": 1636
  },
  {
    "dt": "2020.10.29 09:00",
    "o": 1.30202,
    "h": 1.30243,
    "l": 1.30072,
    "c": 1.30096,
    "v": 1906
  },
  {
    "dt": "2020.10.29 10:00",
    "o": 1.30093,
    "h": 1.30132,
    "l": 1.29963,
    "c": 1.30015,
    "v": 3113
  },
  {
    "dt": "2020.10.29 11:00",
    "o": 1.30016,
    "h": 1.30063,
    "l": 1.2981,
    "c": 1.29916,
    "v": 4027
  },
  {
    "dt": "2020.10.29 12:00",
    "o": 1.29914,
    "h": 1.30249,
    "l": 1.29914,
    "c": 1.30092,
    "v": 3444
  },
  {
    "dt": "2020.10.29 13:00",
    "o": 1.30088,
    "h": 1.30169,
    "l": 1.29816,
    "c": 1.29868,
    "v": 3465
  },
  {
    "dt": "2020.10.29 14:00",
    "o": 1.29865,
    "h": 1.29877,
    "l": 1.29369,
    "c": 1.29403,
    "v": 3731
  },
  {
    "dt": "2020.10.29 15:00",
    "o": 1.29404,
    "h": 1.29509,
    "l": 1.29298,
    "c": 1.29348,
    "v": 3928
  },
  {
    "dt": "2020.10.29 16:00",
    "o": 1.29347,
    "h": 1.29461,
    "l": 1.29037,
    "c": 1.29335,
    "v": 4732
  },
  {
    "dt": "2020.10.29 17:00",
    "o": 1.29339,
    "h": 1.29479,
    "l": 1.29156,
    "c": 1.29249,
    "v": 4677
  },
  {
    "dt": "2020.10.29 18:00",
    "o": 1.29248,
    "h": 1.29273,
    "l": 1.28801,
    "c": 1.28887,
    "v": 4239
  },
  {
    "dt": "2020.10.29 19:00",
    "o": 1.28888,
    "h": 1.29172,
    "l": 1.28821,
    "c": 1.29146,
    "v": 3627
  },
  {
    "dt": "2020.10.29 20:00",
    "o": 1.29146,
    "h": 1.29161,
    "l": 1.29009,
    "c": 1.29053,
    "v": 2488
  },
  {
    "dt": "2020.10.29 21:00",
    "o": 1.29053,
    "h": 1.2931,
    "l": 1.29052,
    "c": 1.29256,
    "v": 2258
  },
  {
    "dt": "2020.10.29 22:00",
    "o": 1.29256,
    "h": 1.29356,
    "l": 1.29244,
    "c": 1.29307,
    "v": 2348
  },
  {
    "dt": "2020.10.29 23:00",
    "o": 1.29313,
    "h": 1.29334,
    "l": 1.29237,
    "c": 1.29271,
    "v": 1275
  },
  {
    "dt": "2020.10.30 00:00",
    "o": 1.29176,
    "h": 1.29272,
    "l": 1.29091,
    "c": 1.29232,
    "v": 393
  },
  {
    "dt": "2020.10.30 01:00",
    "o": 1.29227,
    "h": 1.29286,
    "l": 1.29223,
    "c": 1.29266,
    "v": 1174
  },
  {
    "dt": "2020.10.30 02:00",
    "o": 1.29268,
    "h": 1.29357,
    "l": 1.29266,
    "c": 1.29301,
    "v": 1134
  },
  {
    "dt": "2020.10.30 03:00",
    "o": 1.29301,
    "h": 1.29306,
    "l": 1.29214,
    "c": 1.29257,
    "v": 1646
  },
  {
    "dt": "2020.10.30 04:00",
    "o": 1.29257,
    "h": 1.29385,
    "l": 1.29246,
    "c": 1.29352,
    "v": 1923
  },
  {
    "dt": "2020.10.30 05:00",
    "o": 1.29352,
    "h": 1.29384,
    "l": 1.29283,
    "c": 1.29287,
    "v": 1395
  },
  {
    "dt": "2020.10.30 06:00",
    "o": 1.29286,
    "h": 1.29346,
    "l": 1.29273,
    "c": 1.29323,
    "v": 1315
  },
  {
    "dt": "2020.10.30 07:00",
    "o": 1.29325,
    "h": 1.29329,
    "l": 1.29161,
    "c": 1.29164,
    "v": 1204
  },
  {
    "dt": "2020.10.30 08:00",
    "o": 1.29164,
    "h": 1.29179,
    "l": 1.29019,
    "c": 1.29079,
    "v": 2512
  },
  {
    "dt": "2020.10.30 09:00",
    "o": 1.29077,
    "h": 1.29164,
    "l": 1.29015,
    "c": 1.29044,
    "v": 2651
  },
  {
    "dt": "2020.10.30 10:00",
    "o": 1.2904,
    "h": 1.29275,
    "l": 1.28981,
    "c": 1.29151,
    "v": 3169
  },
  {
    "dt": "2020.10.30 11:00",
    "o": 1.29147,
    "h": 1.29384,
    "l": 1.29128,
    "c": 1.29277,
    "v": 3939
  },
  {
    "dt": "2020.10.30 12:00",
    "o": 1.2927,
    "h": 1.29605,
    "l": 1.29262,
    "c": 1.29563,
    "v": 3800
  },
  {
    "dt": "2020.10.30 13:00",
    "o": 1.29565,
    "h": 1.2978,
    "l": 1.29413,
    "c": 1.29758,
    "v": 3414
  },
  {
    "dt": "2020.10.30 14:00",
    "o": 1.29758,
    "h": 1.29856,
    "l": 1.29625,
    "c": 1.29839,
    "v": 3898
  },
  {
    "dt": "2020.10.30 15:00",
    "o": 1.29844,
    "h": 1.29872,
    "l": 1.29585,
    "c": 1.29722,
    "v": 3799
  },
  {
    "dt": "2020.10.30 16:00",
    "o": 1.29724,
    "h": 1.29874,
    "l": 1.29602,
    "c": 1.29656,
    "v": 4027
  },
  {
    "dt": "2020.10.30 17:00",
    "o": 1.29658,
    "h": 1.29676,
    "l": 1.29299,
    "c": 1.29342,
    "v": 4333
  },
  {
    "dt": "2020.10.30 18:00",
    "o": 1.29343,
    "h": 1.29514,
    "l": 1.29231,
    "c": 1.29313,
    "v": 4958
  },
  {
    "dt": "2020.10.30 19:00",
    "o": 1.29314,
    "h": 1.29621,
    "l": 1.29282,
    "c": 1.29523,
    "v": 3876
  },
  {
    "dt": "2020.10.30 20:00",
    "o": 1.29522,
    "h": 1.29562,
    "l": 1.29411,
    "c": 1.29413,
    "v": 2634
  },
  {
    "dt": "2020.10.30 21:00",
    "o": 1.29412,
    "h": 1.29643,
    "l": 1.29372,
    "c": 1.29569,
    "v": 2576
  },
  {
    "dt": "2020.10.30 22:00",
    "o": 1.29566,
    "h": 1.29598,
    "l": 1.29512,
    "c": 1.29535,
    "v": 2218
  },
  {
    "dt": "2020.10.30 23:00",
    "o": 1.29533,
    "h": 1.29611,
    "l": 1.29448,
    "c": 1.29491,
    "v": 1931
  }
]