[
  {
    "dt": "2023.10.02 00:00",
    "o": 0.86578,
    "h": 0.86627,
    "l": 0.86515,
    "c": 0.86624,
    "v": 361
  },
  {
    "dt": "2023.10.02 01:00",
    "o": 0.86621,
    "h": 0.86707,
    "l": 0.86578,
    "c": 0.86656,
    "v": 903
  },
  {
    "dt": "2023.10.02 02:00",
    "o": 0.86656,
    "h": 0.86665,
    "l": 0.86617,
    "c": 0.86631,
    "v": 636
  },
  {
    "dt": "2023.10.02 03:00",
    "o": 0.86632,
    "h": 0.86667,
    "l": 0.86622,
    "c": 0.86664,
    "v": 951
  },
  {
    "dt": "2023.10.02 04:00",
    "o": 0.86664,
    "h": 0.8667,
    "l": 0.86642,
    "c": 0.86665,
    "v": 767
  },
  {
    "dt": "2023.10.02 05:00",
    "o": 0.86666,
    "h": 0.86698,
    "l": 0.86662,
    "c": 0.86696,
    "v": 669
  },
  {
    "dt": "2023.10.02 06:00",
    "o": 0.86696,
    "h": 0.86697,
    "l": 0.8668,
    "c": 0.86694,
    "v": 530
  },
  {
    "dt": "2023.10.02 07:00",
    "o": 0.86695,
    "h": 0.86713,
    "l": 0.86693,
    "c": 0.86713,
    "v": 412
  },
  {
    "dt": "2023.10.02 08:00",
    "o": 0.86714,
    "h": 0.86728,
    "l": 0.86695,
    "c": 0.86716,
    "v": 673
  },
  {
    "dt": "2023.10.02 09:00",
    "o": 0.86717,
    "h": 0.86719,
    "l": 0.866,
    "c": 0.86691,
    "v": 1885
  },
  {
    "dt": "2023.10.02 10:00",
    "o": 0.86684,
    "h": 0.86725,
    "l": 0.86614,
    "c": 0.86691,
    "v": 2523
  },
  {
    "dt": "2023.10.02 11:00",
    "o": 0.86692,
    "h": 0.86743,
    "l": 0.86625,
    "c": 0.86653,
    "v": 2140
  },
  {
    "dt": "2023.10.02 12:00",
    "o": 0.86652,
    "h": 0.86666,
    "l": 0.86565,
    "c": 0.86633,
    "v": 1862
  },
  {
    "dt": "2023.10.02 13:00",
    "o": 0.86631,
    "h": 0.86711,
    "l": 0.86614,
    "c": 0.86691,
    "v": 1830
  },
  {
    "dt": "2023.10.02 14:00",
    "o": 0.86692,
    "h": 0.86699,
    "l": 0.86651,
    "c": 0.86652,
    "v": 1987
  },
  {
    "dt": "2023.10.02 15:00",
    "o": 0.86654,
    "h": 0.86661,
    "l": 0.86568,
    "c": 0.86642,
    "v": 2345
  },
  {
    "dt": "2023.10.02 16:00",
    "o": 0.86643,
    "h": 0.86689,
    "l": 0.86633,
    "c": 0.86654,
    "v": 2574
  },
  {
    "dt": "2023.10.02 17:00",
    "o": 0.86643,
    "h": 0.86662,
    "l": 0.8653,
    "c": 0.86584,
    "v": 3651
  },
  {
    "dt": "2023.10.02 18:00",
    "o": 0.86584,
    "h": 0.86624,
    "l": 0.86521,
    "c": 0.86563,
    "v": 2630
  },
  {
    "dt": "2023.10.02 19:00",
    "o": 0.86562,
    "h": 0.86622,
    "l": 0.86546,
    "c": 0.8662,
    "v": 1790
  },
  {
    "dt": "2023.10.02 20:00",
    "o": 0.8662,
    "h": 0.86642,
    "l": 0.86595,
    "c": 0.86638,
    "v": 1542
  },
  {
    "dt": "2023.10.02 21:00",
    "o": 0.86637,
    "h": 0.86672,
    "l": 0.86622,
    "c": 0.86665,
    "v": 1392
  },
  {
    "dt": "2023.10.02 22:00",
    "o": 0.86667,
    "h": 0.86689,
    "l": 0.8666,
    "c": 0.86665,
    "v": 1404
  },
  {
    "dt": "2023.10.02 23:00",
    "o": 0.86665,
    "h": 0.86689,
    "l": 0.86652,
    "c": 0.8667,
    "v": 817
  },
  {
    "dt": "2023.10.03 00:00",
    "o": 0.86619,
    "h": 0.86687,
    "l": 0.86593,
    "c": 0.86673,
    "v": 564
  },
  {
    "dt": "2023.10.03 01:00",
    "o": 0.86678,
    "h": 0.86698,
    "l": 0.86664,
    "c": 0.86672,
    "v": 859
  },
  {
    "dt": "2023.10.03 02:00",
    "o": 0.86671,
    "h": 0.86686,
    "l": 0.86662,
    "c": 0.86673,
    "v": 785
  },
  {
    "dt": "2023.10.03 03:00",
    "o": 0.86672,
    "h": 0.86681,
    "l": 0.8663,
    "c": 0.86642,
    "v": 1472
  },
  {
    "dt": "2023.10.03 04:00",
    "o": 0.86641,
    "h": 0.86682,
    "l": 0.86638,
    "c": 0.86682,
    "v": 1046
  },
  {
    "dt": "2023.10.03 05:00",
    "o": 0.86678,
    "h": 0.86691,
    "l": 0.86668,
    "c": 0.86677,
    "v": 1021
  },
  {
    "dt": "2023.10.03 06:00",
    "o": 0.86676,
    "h": 0.86683,
    "l": 0.86653,
    "c": 0.86669,
    "v": 758
  },
  {
    "dt": "2023.10.03 07:00",
    "o": 0.8667,
    "h": 0.86733,
    "l": 0.86659,
    "c": 0.86719,
    "v": 774
  },
  {
    "dt": "2023.10.03 08:00",
    "o": 0.86721,
    "h": 0.86748,
    "l": 0.867,
    "c": 0.86745,
    "v": 1042
  },
  {
    "dt": "2023.10.03 09:00",
    "o": 0.86743,
    "h": 0.86749,
    "l": 0.8664,
    "c": 0.86653,
    "v": 1820
  },
  {
    "dt": "2023.10.03 10:00",
    "o": 0.86652,
    "h": 0.86793,
    "l": 0.86651,
    "c": 0.86744,
    "v": 2351
  },
  {
    "dt": "2023.10.03 11:00",
    "o": 0.86745,
    "h": 0.86764,
    "l": 0.86702,
    "c": 0.86739,
    "v": 1939
  },
  {
    "dt": "2023.10.03 12:00",
    "o": 0.86742,
    "h": 0.86802,
    "l": 0.86717,
    "c": 0.86768,
    "v": 1947
  },
  {
    "dt": "2023.10.03 13:00",
    "o": 0.86767,
    "h": 0.86903,
    "l": 0.86766,
    "c": 0.86883,
    "v": 1751
  },
  {
    "dt": "2023.10.03 14:00",
    "o": 0.86877,
    "h": 0.86877,
    "l": 0.86773,
    "c": 0.86795,
    "v": 2092
  },
  {
    "dt": "2023.10.03 15:00",
    "o": 0.86794,
    "h": 0.86799,
    "l": 0.86673,
    "c": 0.86675,
    "v": 2642
  },
  {
    "dt": "2023.10.03 16:00",
    "o": 0.86673,
    "h": 0.86698,
    "l": 0.86611,
    "c": 0.86624,
    "v": 2851
  },
  {
    "dt": "2023.10.03 17:00",
    "o": 0.86619,
    "h": 0.86719,
    "l": 0.86609,
    "c": 0.86718,
    "v": 4592
  },
  {
    "dt": "2023.10.03 18:00",
    "o": 0.86713,
    "h": 0.86742,
    "l": 0.86591,
    "c": 0.86617,
    "v": 3213
  },
  {
    "dt": "2023.10.03 19:00",
    "o": 0.86617,
    "h": 0.86654,
    "l": 0.86579,
    "c": 0.86631,
    "v": 2145
  },
  {
    "dt": "2023.10.03 20:00",
    "o": 0.86631,
    "h": 0.86653,
    "l": 0.8661,
    "c": 0.86647,
    "v": 1644
  },
  {
    "dt": "2023.10.03 21:00",
    "o": 0.86648,
    "h": 0.86692,
    "l": 0.8664,
    "c": 0.86655,
    "v": 1709
  },
  {
    "dt": "2023.10.03 22:00",
    "o": 0.86657,
    "h": 0.86728,
    "l": 0.86644,
    "c": 0.86688,
    "v": 1617
  },
  {
    "dt": "2023.10.03 23:00",
    "o": 0.86689,
    "h": 0.86694,
    "l": 0.8663,
    "c": 0.86651,
    "v": 586
  },
  {
    "dt": "2023.10.04 00:00",
    "o": 0.86636,
    "h": 0.86655,
    "l": 0.86602,
    "c": 0.8664,
    "v": 552
  },
  {
    "dt": "2023.10.04 01:00",
    "o": 0.86641,
    "h": 0.86666,
    "l": 0.86631,
    "c": 0.86664,
    "v": 481
  },
  {
    "dt": "2023.10.04 02:00",
    "o": 0.86664,
    "h": 0.86671,
    "l": 0.86655,
    "c": 0.86669,
    "v": 558
  },
  {
    "dt": "2023.10.04 03:00",
    "o": 0.8667,
    "h": 0.86688,
    "l": 0.86661,
    "c": 0.86671,
    "v": 1032
  },
  {
    "dt": "2023.10.04 04:00",
    "o": 0.8667,
    "h": 0.86725,
    "l": 0.86666,
    "c": 0.86711,
    "v": 1322
  },
  {
    "dt": "2023.10.04 05:00",
    "o": 0.86711,
    "h": 0.86717,
    "l": 0.86685,
    "c": 0.8669,
    "v": 938
  },
  {
    "dt": "2023.10.04 06:00",
    "o": 0.8669,
    "h": 0.86702,
    "l": 0.86679,
    "c": 0.86699,
    "v": 813
  },
  {
    "dt": "2023.10.04 07:00",
    "o": 0.86697,
    "h": 0.86707,
    "l": 0.86646,
    "c": 0.86649,
    "v": 746
  },
  {
    "dt": "2023.10.04 08:00",
    "o": 0.8665,
    "h": 0.86677,
    "l": 0.8663,
    "c": 0.86677,
    "v": 794
  },
  {
    "dt": "2023.10.04 09:00",
    "o": 0.8668,
    "h": 0.86768,
    "l": 0.86668,
    "c": 0.86765,
    "v": 1673
  },
  {
    "dt": "2023.10.04 10:00",
    "o": 0.86763,
    "h": 0.86814,
    "l": 0.86715,
    "c": 0.86759,
    "v": 2638
  },
  {
    "dt": "2023.10.04 11:00",
    "o": 0.8676,
    "h": 0.86766,
    "l": 0.86543,
    "c": 0.86555,
    "v": 2369
  },
  {
    "dt": "2023.10.04 12:00",
    "o": 0.86555,
    "h": 0.86569,
    "l": 0.86489,
    "c": 0.86553,
    "v": 2063
  },
  {
    "dt": "2023.10.04 13:00",
    "o": 0.86552,
    "h": 0.86635,
    "l": 0.8655,
    "c": 0.86628,
    "v": 1835
  },
  {
    "dt": "2023.10.04 14:00",
    "o": 0.86626,
    "h": 0.8664,
    "l": 0.86567,
    "c": 0.86614,
    "v": 1922
  },
  {
    "dt": "2023.10.04 15:00",
    "o": 0.86617,
    "h": 0.86623,
    "l": 0.86465,
    "c": 0.86476,
    "v": 3576
  },
  {
    "dt": "2023.10.04 16:00",
    "o": 0.86475,
    "h": 0.86505,
    "l": 0.86389,
    "c": 0.86464,
    "v": 2978
  },
  {
    "dt": "2023.10.04 17:00",
    "o": 0.86446,
    "h": 0.86625,
    "l": 0.86439,
    "c": 0.866,
    "v": 3602
  },
  {
    "dt": "2023.10.04 18:00",
    "o": 0.866,
    "h": 0.8663,
    "l": 0.86518,
    "c": 0.86524,
    "v": 3194
  },
  {
    "dt": "2023.10.04 19:00",
    "o": 0.86524,
    "h": 0.86549,
    "l": 0.86459,
    "c": 0.86495,
    "v": 1832
  },
  {
    "dt": "2023.10.04 20:00",
    "o": 0.86496,
    "h": 0.86541,
    "l": 0.86488,
    "c": 0.86528,
    "v": 1713
  },
  {
    "dt": "2023.10.04 21:00",
    "o": 0.8653,
    "h": 0.86543,
    "l": 0.86508,
    "c": 0.86523,
    "v": 1745
  },
  {
    "dt": "2023.10.04 22:00",
    "o": 0.86522,
    "h": 0.86551,
    "l": 0.86519,
    "c": 0.86531,
    "v": 1369
  },
  {
    "dt": "2023.10.04 23:00",
    "o": 0.86531,
    "h": 0.86551,
    "l": 0.86522,
    "c": 0.86541,
    "v": 649
  },
  {
    "dt": "2023.10.05 00:00",
    "o": 0.86405,
    "h": 0.8655,
    "l": 0.86398,
    "c": 0.8654,
    "v": 537
  },
  {
    "dt": "2023.10.05 01:00",
    "o": 0.86549,
    "h": 0.86566,
    "l": 0.86542,
    "c": 0.86543,
    "v": 501
  },
  {
    "dt": "2023.10.05 02:00",
    "o": 0.86543,
    "h": 0.86563,
    "l": 0.86543,
    "c": 0.86558,
    "v": 354
  },
  {
    "dt": "2023.10.05 03:00",
    "o": 0.86557,
    "h": 0.86608,
    "l": 0.86554,
    "c": 0.86577,
    "v": 1013
  },
  {
    "dt": "2023.10.05 04:00",
    "o": 0.86575,
    "h": 0.86588,
    "l": 0.86545,
    "c": 0.86561,
    "v": 1318
  },
  {
    "dt": "2023.10.05 05:00",
    "o": 0.86559,
    "h": 0.86562,
    "l": 0.86531,
    "c": 0.86544,
    "v": 968
  },
  {
    "dt": "2023.10.05 06:00",
    "o": 0.86545,
    "h": 0.86564,
    "l": 0.86543,
    "c": 0.86548,
    "v": 927
  },
  {
    "dt": "2023.10.05 07:00",
    "o": 0.86549,
    "h": 0.86552,
    "l": 0.8653,
    "c": 0.86535,
    "v": 802
  },
  {
    "dt": "2023.10.05 08:00",
    "o": 0.86536,
    "h": 0.86549,
    "l": 0.86515,
    "c": 0.86518,
    "v": 848
  },
  {
    "dt": "2023.10.05 09:00",
    "o": 0.86517,
    "h": 0.86555,
    "l": 0.86495,
    "c": 0.86546,
    "v": 1592
  },
  {
    "dt": "2023.10.05 10:00",
    "o": 0.86537,
    "h": 0.86633,
    "l": 0.8652,
    "c": 0.86618,
    "v": 2383
  },
  {
    "dt": "2023.10.05 11:00",
    "o": 0.86617,
    "h": 0.86726,
    "l": 0.86591,
    "c": 0.86642,
    "v": 2141
  },
  {
    "dt": "2023.10.05 12:00",
    "o": 0.86641,
    "h": 0.86693,
    "l": 0.86613,
    "c": 0.86666,
    "v": 1712
  },
  {
    "dt": "2023.10.05 13:00",
    "o": 0.86665,
    "h": 0.86693,
    "l": 0.86605,
    "c": 0.86643,
    "v": 1806
  },
  {
    "dt": "2023.10.05 14:00",
    "o": 0.86645,
    "h": 0.86687,
    "l": 0.86594,
    "c": 0.86612,
    "v": 1854
  },
  {
    "dt": "2023.10.05 15:00",
    "o": 0.86612,
    "h": 0.86733,
    "l": 0.86593,
    "c": 0.86668,
    "v": 3050
  },
  {
    "dt": "2023.10.05 16:00",
    "o": 0.86667,
    "h": 0.867,
    "l": 0.86566,
    "c": 0.86593,
    "v": 3078
  },
  {
    "dt": "2023.10.05 17:00",
    "o": 0.86594,
    "h": 0.86639,
    "l": 0.86562,
    "c": 0.86592,
    "v": 3163
  },
  {
    "dt": "2023.10.05 18:00",
    "o": 0.86589,
    "h": 0.86592,
    "l": 0.86487,
    "c": 0.86492,
    "v": 3204
  },
  {
    "dt": "2023.10.05 19:00",
    "o": 0.86491,
    "h": 0.86511,
    "l": 0.86462,
    "c": 0.86493,
    "v": 2096
  },
  {
    "dt": "2023.10.05 20:00",
    "o": 0.86493,
    "h": 0.86509,
    "l": 0.86475,
    "c": 0.86492,
    "v": 1604
  },
  {
    "dt": "2023.10.05 21:00",
    "o": 0.86494,
    "h": 0.8652,
    "l": 0.86477,
    "c": 0.86514,
    "v": 1567
  },
  {
    "dt": "2023.10.05 22:00",
    "o": 0.86515,
    "h": 0.86515,
    "l": 0.86482,
    "c": 0.86505,
    "v": 1360
  },
  {
    "dt": "2023.10.05 23:00",
    "o": 0.86504,
    "h": 0.86537,
    "l": 0.86501,
    "c": 0.86521,
    "v": 535
  },
  {
    "dt": "2023.10.06 00:00",
    "o": 0.86471,
    "h": 0.8653,
    "l": 0.86471,
    "c": 0.86515,
    "v": 1037
  },
  {
    "dt": "2023.10.06 01:00",
    "o": 0.86507,
    "h": 0.86532,
    "l": 0.86499,
    "c": 0.86522,
    "v": 404
  },
  {
    "dt": "2023.10.06 02:00",
    "o": 0.86527,
    "h": 0.86528,
    "l": 0.86512,
    "c": 0.86526,
    "v": 319
  },
  {
    "dt": "2023.10.06 03:00",
    "o": 0.8653,
    "h": 0.86536,
    "l": 0.86516,
    "c": 0.86531,
    "v": 733
  },
  {
    "dt": "2023.10.06 04:00",
    "o": 0.86531,
    "h": 0.86545,
    "l": 0.86521,
    "c": 0.86539,
    "v": 925
  },
  {
    "dt": "2023.10.06 05:00",
    "o": 0.86539,
    "h": 0.86546,
    "l": 0.8652,
    "c": 0.86525,
    "v": 730
  },
  {
    "dt": "2023.10.06 06:00",
    "o": 0.86526,
    "h": 0.86545,
    "l": 0.8652,
    "c": 0.8654,
    "v": 640
  },
  {
    "dt": "2023.10.06 07:00",
    "o": 0.86541,
    "h": 0.86552,
    "l": 0.86538,
    "c": 0.86551,
    "v": 663
  },
  {
    "dt": "2023.10.06 08:00",
    "o": 0.86552,
    "h": 0.86566,
    "l": 0.86532,
    "c": 0.8654,
    "v": 660
  },
  {
    "dt": "2023.10.06 09:00",
    "o": 0.8654,
    "h": 0.86593,
    "l": 0.86535,
    "c": 0.86553,
    "v": 1363
  },
  {
    "dt": "2023.10.06 10:00",
    "o": 0.86553,
    "h": 0.86558,
    "l": 0.86423,
    "c": 0.86439,
    "v": 1980
  },
  {
    "dt": "2023.10.06 11:00",
    "o": 0.86439,
    "h": 0.86486,
    "l": 0.86422,
    "c": 0.86461,
    "v": 1882
  },
  {
    "dt": "2023.10.06 12:00",
    "o": 0.8646,
    "h": 0.86504,
    "l": 0.86414,
    "c": 0.86464,
    "v": 1716
  },
  {
    "dt": "2023.10.06 13:00",
    "o": 0.86464,
    "h": 0.86482,
    "l": 0.86416,
    "c": 0.86418,
    "v": 1687
  },
  {
    "dt": "2023.10.06 14:00",
    "o": 0.86419,
    "h": 0.86534,
    "l": 0.86417,
    "c": 0.86513,
    "v": 1616
  },
  {
    "dt": "2023.10.06 15:00",
    "o": 0.86512,
    "h": 0.86621,
    "l": 0.8639,
    "c": 0.86578,
    "v": 4186
  },
  {
    "dt": "2023.10.06 16:00",
    "o": 0.86579,
    "h": 0.86579,
    "l": 0.86435,
    "c": 0.86491,
    "v": 3992
  },
  {
    "dt": "2023.10.06 17:00",
    "o": 0.86492,
    "h": 0.86497,
    "l": 0.86397,
    "c": 0.86451,
    "v": 3729
  },
  {
    "dt": "2023.10.06 18:00",
    "o": 0.86451,
    "h": 0.86497,
    "l": 0.86419,
    "c": 0.86455,
    "v": 3775
  },
  {
    "dt": "2023.10.06 19:00",
    "o": 0.86455,
    "h": 0.86466,
    "l": 0.86414,
    "c": 0.86463,
    "v": 2614
  },
  {
    "dt": "2023.10.06 20:00",
    "o": 0.86462,
    "h": 0.86506,
    "l": 0.86449,
    "c": 0.86503,
    "v": 1952
  },
  {
    "dt": "2023.10.06 21:00",
    "o": 0.86502,
    "h": 0.86521,
    "l": 0.8647,
    "c": 0.86495,
    "v": 1586
  },
  {
    "dt": "2023.10.06 22:00",
    "o": 0.86496,
    "h": 0.86501,
    "l": 0.86474,
    "c": 0.86492,
    "v": 1503
  },
  {
    "dt": "2023.10.06 23:00",
    "o": 0.86491,
    "h": 0.86517,
    "l": 0.86474,
    "c": 0.86485,
    "v": 864
  },
  {
    "dt": "2023.10.09 00:00",
    "o": 0.86398,
    "h": 0.86492,
    "l": 0.8639,
    "c": 0.86468,
    "v": 715
  },
  {
    "dt": "2023.10.09 01:00",
    "o": 0.86472,
    "h": 0.86515,
    "l": 0.86427,
    "c": 0.86438,
    "v": 1631
  },
  {
    "dt": "2023.10.09 02:00",
    "o": 0.86437,
    "h": 0.8647,
    "l": 0.86437,
    "c": 0.86459,
    "v": 989
  },
  {
    "dt": "2023.10.09 03:00",
    "o": 0.8646,
    "h": 0.86498,
    "l": 0.86449,
    "c": 0.86496,
    "v": 931
  },
  {
    "dt": "2023.10.09 04:00",
    "o": 0.86498,
    "h": 0.86504,
    "l": 0.86453,
    "c": 0.86469,
    "v": 1104
  },
  {
    "dt": "2023.10.09 05:00",
    "o": 0.8647,
    "h": 0.86485,
    "l": 0.86458,
    "c": 0.86476,
    "v": 766
  },
  {
    "dt": "2023.10.09 06:00",
    "o": 0.86475,
    "h": 0.86502,
    "l": 0.86468,
    "c": 0.86496,
    "v": 608
  },
  {
    "dt": "2023.10.09 07:00",
    "o": 0.86495,
    "h": 0.86513,
    "l": 0.86486,
    "c": 0.86509,
    "v": 601
  },
  {
    "dt": "2023.10.09 08:00",
    "o": 0.86512,
    "h": 0.86523,
    "l": 0.86466,
    "c": 0.86475,
    "v": 1021
  },
  {
    "dt": "2023.10.09 09:00",
    "o": 0.86475,
    "h": 0.86502,
    "l": 0.86379,
    "c": 0.86501,
    "v": 2358
  },
  {
    "dt": "2023.10.09 10:00",
    "o": 0.86495,
    "h": 0.86502,
    "l": 0.8641,
    "c": 0.86455,
    "v": 2708
  },
  {
    "dt": "2023.10.09 11:00",
    "o": 0.86454,
    "h": 0.86558,
    "l": 0.8644,
    "c": 0.86555,
    "v": 1989
  },
  {
    "dt": "2023.10.09 12:00",
    "o": 0.86555,
    "h": 0.8657,
    "l": 0.86396,
    "c": 0.86414,
    "v": 1706
  },
  {
    "dt": "2023.10.09 13:00",
    "o": 0.86412,
    "h": 0.86529,
    "l": 0.86388,
    "c": 0.86495,
    "v": 1696
  },
  {
    "dt": "2023.10.09 14:00",
    "o": 0.86494,
    "h": 0.86553,
    "l": 0.86487,
    "c": 0.86509,
    "v": 1334
  },
  {
    "dt": "2023.10.09 15:00",
    "o": 0.86507,
    "h": 0.86536,
    "l": 0.8644,
    "c": 0.86443,
    "v": 2080
  },
  {
    "dt": "2023.10.09 16:00",
    "o": 0.86442,
    "h": 0.86493,
    "l": 0.8638,
    "c": 0.86409,
    "v": 2801
  },
  {
    "dt": "2023.10.09 17:00",
    "o": 0.86408,
    "h": 0.86417,
    "l": 0.86334,
    "c": 0.86352,
    "v": 2219
  },
  {
    "dt": "2023.10.09 18:00",
    "o": 0.86352,
    "h": 0.86372,
    "l": 0.86324,
    "c": 0.86356,
    "v": 1935
  },
  {
    "dt": "2023.10.09 19:00",
    "o": 0.86356,
    "h": 0.86384,
    "l": 0.86352,
    "c": 0.86364,
    "v": 1354
  },
  {
    "dt": "2023.10.09 20:00",
    "o": 0.86366,
    "h": 0.86367,
    "l": 0.86334,
    "c": 0.86344,
    "v": 1620
  },
  {
    "dt": "2023.10.09 21:00",
    "o": 0.86343,
    "h": 0.86353,
    "l": 0.8631,
    "c": 0.86343,
    "v": 1608
  },
  {
    "dt": "2023.10.09 22:00",
    "o": 0.86344,
    "h": 0.86352,
    "l": 0.86322,
    "c": 0.86323,
    "v": 1155
  },
  {
    "dt": "2023.10.09 23:00",
    "o": 0.86321,
    "h": 0.86349,
    "l": 0.86318,
    "c": 0.86333,
    "v": 605
  },
  {
    "dt": "2023.10.10 00:00",
    "o": 0.86317,
    "h": 0.86338,
    "l": 0.86275,
    "c": 0.86301,
    "v": 963
  },
  {
    "dt": "2023.10.10 01:00",
    "o": 0.86302,
    "h": 0.86357,
    "l": 0.86302,
    "c": 0.86335,
    "v": 880
  },
  {
    "dt": "2023.10.10 02:00",
    "o": 0.86355,
    "h": 0.86365,
    "l": 0.86345,
    "c": 0.8635,
    "v": 232
  },
  {
    "dt": "2023.10.10 03:00",
    "o": 0.86352,
    "h": 0.8636,
    "l": 0.86318,
    "c": 0.8632,
    "v": 1403
  },
  {
    "dt": "2023.10.10 04:00",
    "o": 0.86319,
    "h": 0.86345,
    "l": 0.86304,
    "c": 0.86341,
    "v": 1197
  },
  {
    "dt": "2023.10.10 05:00",
    "o": 0.86343,
    "h": 0.8636,
    "l": 0.8634,
    "c": 0.86343,
    "v": 831
  },
  {
    "dt": "2023.10.10 06:00",
    "o": 0.86344,
    "h": 0.86365,
    "l": 0.86335,
    "c": 0.86363,
    "v": 886
  },
  {
    "dt": "2023.10.10 07:00",
    "o": 0.86362,
    "h": 0.86381,
    "l": 0.8635,
    "c": 0.8637,
    "v": 727
  },
  {
    "dt": "2023.10.10 08:00",
    "o": 0.86372,
    "h": 0.86383,
    "l": 0.86356,
    "c": 0.86368,
    "v": 859
  },
  {
    "dt": "2023.10.10 09:00",
    "o": 0.86367,
    "h": 0.86411,
    "l": 0.86355,
    "c": 0.86406,
    "v": 2117
  },
  {
    "dt": "2023.10.10 10:00",
    "o": 0.86408,
    "h": 0.86467,
    "l": 0.86372,
    "c": 0.86423,
    "v": 1974
  },
  {
    "dt": "2023.10.10 11:00",
    "o": 0.86424,
    "h": 0.86483,
    "l": 0.86373,
    "c": 0.86409,
    "v": 2599
  },
  {
    "dt": "2023.10.10 12:00",
    "o": 0.86409,
    "h": 0.86533,
    "l": 0.86382,
    "c": 0.86414,
    "v": 2788
  },
  {
    "dt": "2023.10.10 13:00",
    "o": 0.86412,
    "h": 0.86415,
    "l": 0.86354,
    "c": 0.86402,
    "v": 1851
  },
  {
    "dt": "2023.10.10 14:00",
    "o": 0.86399,
    "h": 0.86442,
    "l": 0.86387,
    "c": 0.864,
    "v": 1989
  },
  {
    "dt": "2023.10.10 15:00",
    "o": 0.86393,
    "h": 0.86481,
    "l": 0.86342,
    "c": 0.86472,
    "v": 2796
  },
  {
    "dt": "2023.10.10 16:00",
    "o": 0.86471,
    "h": 0.86491,
    "l": 0.86452,
    "c": 0.86465,
    "v": 2885
  },
  {
    "dt": "2023.10.10 17:00",
    "o": 0.86463,
    "h": 0.86502,
    "l": 0.86418,
    "c": 0.86446,
    "v": 2581
  },
  {
    "dt": "2023.10.10 18:00",
    "o": 0.86444,
    "h": 0.86468,
    "l": 0.86399,
    "c": 0.86402,
    "v": 2407
  },
  {
    "dt": "2023.10.10 19:00",
    "o": 0.86401,
    "h": 0.86413,
    "l": 0.86373,
    "c": 0.86374,
    "v": 1927
  },
  {
    "dt": "2023.10.10 20:00",
    "o": 0.86373,
    "h": 0.86401,
    "l": 0.8633,
    "c": 0.8633,
    "v": 2301
  },
  {
    "dt": "2023.10.10 21:00",
    "o": 0.8633,
    "h": 0.86342,
    "l": 0.863,
    "c": 0.863,
    "v": 1640
  },
  {
    "dt": "2023.10.10 22:00",
    "o": 0.86299,
    "h": 0.86327,
    "l": 0.86285,
    "c": 0.86316,
    "v": 1388
  },
  {
    "dt": "2023.10.10 23:00",
    "o": 0.86315,
    "h": 0.86317,
    "l": 0.86289,
    "c": 0.86304,
    "v": 814
  },
  {
    "dt": "2023.10.11 00:00",
    "o": 0.86309,
    "h": 0.8634,
    "l": 0.86279,
    "c": 0.86307,
    "v": 1000
  },
  {
    "dt": "2023.10.11 01:00",
    "o": 0.86306,
    "h": 0.86325,
    "l": 0.86274,
    "c": 0.86306,
    "v": 225
  },
  {
    "dt": "2023.10.11 02:00",
    "o": 0.86296,
    "h": 0.86298,
    "l": 0.86262,
    "c": 0.86278,
    "v": 429
  },
  {
    "dt": "2023.10.11 03:00",
    "o": 0.86279,
    "h": 0.86284,
    "l": 0.86249,
    "c": 0.86265,
    "v": 1029
  },
  {
    "dt": "2023.10.11 04:00",
    "o": 0.86267,
    "h": 0.8627,
    "l": 0.86235,
    "c": 0.86252,
    "v": 1014
  },
  {
    "dt": "2023.10.11 05:00",
    "o": 0.86252,
    "h": 0.86267,
    "l": 0.86247,
    "c": 0.86258,
    "v": 777
  },
  {
    "dt": "2023.10.11 06:00",
    "o": 0.8626,
    "h": 0.86273,
    "l": 0.86256,
    "c": 0.8626,
    "v": 604
  },
  {
    "dt": "2023.10.11 07:00",
    "o": 0.86257,
    "h": 0.86283,
    "l": 0.86244,
    "c": 0.86245,
    "v": 606
  },
  {
    "dt": "2023.10.11 08:00",
    "o": 0.86244,
    "h": 0.86289,
    "l": 0.86239,
    "c": 0.86279,
    "v": 956
  },
  {
    "dt": "2023.10.11 09:00",
    "o": 0.86278,
    "h": 0.86356,
    "l": 0.86271,
    "c": 0.86349,
    "v": 1756
  },
  {
    "dt": "2023.10.11 10:00",
    "o": 0.86353,
    "h": 0.86391,
    "l": 0.86325,
    "c": 0.86333,
    "v": 2921
  },
  {
    "dt": "2023.10.11 11:00",
    "o": 0.86336,
    "h": 0.86417,
    "l": 0.86313,
    "c": 0.86379,
    "v": 2781
  },
  {
    "dt": "2023.10.11 12:00",
    "o": 0.86379,
    "h": 0.86407,
    "l": 0.86311,
    "c": 0.86313,
    "v": 1957
  },
  {
    "dt": "2023.10.11 13:00",
    "o": 0.86312,
    "h": 0.86315,
    "l": 0.86245,
    "c": 0.86245,
    "v": 1913
  },
  {
    "dt": "2023.10.11 14:00",
    "o": 0.86246,
    "h": 0.86276,
    "l": 0.86213,
    "c": 0.86273,
    "v": 1951
  },
  {
    "dt": "2023.10.11 15:00",
    "o": 0.86274,
    "h": 0.86274,
    "l": 0.86161,
    "c": 0.86198,
    "v": 3028
  },
  {
    "dt": "2023.10.11 16:00",
    "o": 0.86197,
    "h": 0.86247,
    "l": 0.86155,
    "c": 0.86193,
    "v": 3123
  },
  {
    "dt": "2023.10.11 17:00",
    "o": 0.86192,
    "h": 0.86296,
    "l": 0.8619,
    "c": 0.86277,
    "v": 2776
  },
  {
    "dt": "2023.10.11 18:00",
    "o": 0.86276,
    "h": 0.8633,
    "l": 0.86255,
    "c": 0.86259,
    "v": 2474
  },
  {
    "dt": "2023.10.11 19:00",
    "o": 0.8626,
    "h": 0.86281,
    "l": 0.86219,
    "c": 0.86252,
    "v": 1814
  },
  {
    "dt": "2023.10.11 20:00",
    "o": 0.86251,
    "h": 0.86277,
    "l": 0.86195,
    "c": 0.86196,
    "v": 1985
  },
  {
    "dt": "2023.10.11 21:00",
    "o": 0.86195,
    "h": 0.86212,
    "l": 0.8618,
    "c": 0.86195,
    "v": 2429
  },
  {
    "dt": "2023.10.11 22:00",
    "o": 0.86195,
    "h": 0.86216,
    "l": 0.86189,
    "c": 0.86208,
    "v": 1502
  },
  {
    "dt": "2023.10.11 23:00",
    "o": 0.86208,
    "h": 0.86237,
    "l": 0.86197,
    "c": 0.86232,
    "v": 691
  },
  {
    "dt": "2023.10.12 00:00",
    "o": 0.8614,
    "h": 0.86249,
    "l": 0.86139,
    "c": 0.86238,
    "v": 442
  },
  {
    "dt": "2023.10.12 01:00",
    "o": 0.86246,
    "h": 0.86268,
    "l": 0.86227,
    "c": 0.86236,
    "v": 452
  },
  {
    "dt": "2023.10.12 02:00",
    "o": 0.86229,
    "h": 0.86256,
    "l": 0.86229,
    "c": 0.86251,
    "v": 669
  },
  {
    "dt": "2023.10.12 03:00",
    "o": 0.86251,
    "h": 0.86276,
    "l": 0.86237,
    "c": 0.86257,
    "v": 905
  },
  {
    "dt": "2023.10.12 04:00",
    "o": 0.86257,
    "h": 0.86258,
    "l": 0.86225,
    "c": 0.86247,
    "v": 785
  },
  {
    "dt": "2023.10.12 05:00",
    "o": 0.86246,
    "h": 0.86267,
    "l": 0.8623,
    "c": 0.86257,
    "v": 540
  },
  {
    "dt": "2023.10.12 06:00",
    "o": 0.8626,
    "h": 0.86285,
    "l": 0.86244,
    "c": 0.86276,
    "v": 470
  },
  {
    "dt": "2023.10.12 07:00",
    "o": 0.86276,
    "h": 0.8629,
    "l": 0.86269,
    "c": 0.86288,
    "v": 480
  },
  {
    "dt": "2023.10.12 08:00",
    "o": 0.86287,
    "h": 0.86299,
    "l": 0.86245,
    "c": 0.86264,
    "v": 780
  },
  {
    "dt": "2023.10.12 09:00",
    "o": 0.86259,
    "h": 0.8631,
    "l": 0.86258,
    "c": 0.86291,
    "v": 2230
  },
  {
    "dt": "2023.10.12 10:00",
    "o": 0.86291,
    "h": 0.86375,
    "l": 0.86286,
    "c": 0.86366,
    "v": 2368
  },
  {
    "dt": "2023.10.12 11:00",
    "o": 0.86365,
    "h": 0.86411,
    "l": 0.86315,
    "c": 0.86411,
    "v": 1832
  },
  {
    "dt": "2023.10.12 12:00",
    "o": 0.86415,
    "h": 0.86416,
    "l": 0.86311,
    "c": 0.86319,
    "v": 1652
  },
  {
    "dt": "2023.10.12 13:00",
    "o": 0.86319,
    "h": 0.86394,
    "l": 0.86305,
    "c": 0.8636,
    "v": 1588
  },
  {
    "dt": "2023.10.12 14:00",
    "o": 0.86358,
    "h": 0.8636,
    "l": 0.86232,
    "c": 0.8624,
    "v": 1581
  },
  {
    "dt": "2023.10.12 15:00",
    "o": 0.8624,
    "h": 0.86323,
    "l": 0.86228,
    "c": 0.86284,
    "v": 3776
  },
  {
    "dt": "2023.10.12 16:00",
    "o": 0.86284,
    "h": 0.86294,
    "l": 0.86204,
    "c": 0.86232,
    "v": 3686
  },
  {
    "dt": "2023.10.12 17:00",
    "o": 0.86233,
    "h": 0.86422,
    "l": 0.86208,
    "c": 0.86415,
    "v": 3074
  },
  {
    "dt": "2023.10.12 18:00",
    "o": 0.86416,
    "h": 0.8642,
    "l": 0.8636,
    "c": 0.86398,
    "v": 2670
  },
  {
    "dt": "2023.10.12 19:00",
    "o": 0.86399,
    "h": 0.86446,
    "l": 0.8637,
    "c": 0.86443,
    "v": 1987
  },
  {
    "dt": "2023.10.12 20:00",
    "o": 0.86446,
    "h": 0.86509,
    "l": 0.86436,
    "c": 0.86442,
    "v": 2578
  },
  {
    "dt": "2023.10.12 21:00",
    "o": 0.86443,
    "h": 0.86468,
    "l": 0.86431,
    "c": 0.86464,
    "v": 1945
  },
  {
    "dt": "2023.10.12 22:00",
    "o": 0.86464,
    "h": 0.86485,
    "l": 0.8646,
    "c": 0.86478,
    "v": 1542
  },
  {
    "dt": "2023.10.12 23:00",
    "o": 0.8648,
    "h": 0.86492,
    "l": 0.86459,
    "c": 0.86459,
    "v": 898
  },
  {
    "dt": "2023.10.13 00:00",
    "o": 0.86404,
    "h": 0.86466,
    "l": 0.86385,
    "c": 0.86449,
    "v": 1006
  },
  {
    "dt": "2023.10.13 01:00",
    "o": 0.86461,
    "h": 0.8648,
    "l": 0.8645,
    "c": 0.86462,
    "v": 513
  },
  {
    "dt": "2023.10.13 02:00",
    "o": 0.86462,
    "h": 0.86486,
    "l": 0.86456,
    "c": 0.86475,
    "v": 509
  },
  {
    "dt": "2023.10.13 03:00",
    "o": 0.86474,
    "h": 0.86475,
    "l": 0.86443,
    "c": 0.86464,
    "v": 894
  },
  {
    "dt": "2023.10.13 04:00",
    "o": 0.86465,
    "h": 0.86467,
    "l": 0.86421,
    "c": 0.86434,
    "v": 1030
  },
  {
    "dt": "2023.10.13 05:00",
    "o": 0.86434,
    "h": 0.86437,
    "l": 0.8637,
    "c": 0.86405,
    "v": 1040
  },
  {
    "dt": "2023.10.13 06:00",
    "o": 0.86405,
    "h": 0.86405,
    "l": 0.86386,
    "c": 0.86405,
    "v": 680
  },
  {
    "dt": "2023.10.13 07:00",
    "o": 0.86403,
    "h": 0.86445,
    "l": 0.864,
    "c": 0.86442,
    "v": 512
  },
  {
    "dt": "2023.10.13 08:00",
    "o": 0.86442,
    "h": 0.86447,
    "l": 0.86393,
    "c": 0.86413,
    "v": 1034
  },
  {
    "dt": "2023.10.13 09:00",
    "o": 0.86415,
    "h": 0.86475,
    "l": 0.86411,
    "c": 0.86445,
    "v": 1920
  },
  {
    "dt": "2023.10.13 10:00",
    "o": 0.86441,
    "h": 0.86442,
    "l": 0.86333,
    "c": 0.86398,
    "v": 2687
  },
  {
    "dt": "2023.10.13 11:00",
    "o": 0.86399,
    "h": 0.8644,
    "l": 0.86378,
    "c": 0.86397,
    "v": 2350
  },
  {
    "dt": "2023.10.13 12:00",
    "o": 0.86398,
    "h": 0.86437,
    "l": 0.86328,
    "c": 0.86359,
    "v": 2132
  },
  {
    "dt": "2023.10.13 13:00",
    "o": 0.86354,
    "h": 0.86432,
    "l": 0.86332,
    "c": 0.86432,
    "v": 2064
  },
  {
    "dt": "2023.10.13 14:00",
    "o": 0.8643,
    "h": 0.86457,
    "l": 0.86367,
    "c": 0.86369,
    "v": 2212
  },
  {
    "dt": "2023.10.13 15:00",
    "o": 0.86369,
    "h": 0.86458,
    "l": 0.86343,
    "c": 0.86445,
    "v": 2608
  },
  {
    "dt": "2023.10.13 16:00",
    "o": 0.86446,
    "h": 0.86483,
    "l": 0.86422,
    "c": 0.86462,
    "v": 2850
  },
  {
    "dt": "2023.10.13 17:00",
    "o": 0.86462,
    "h": 0.86542,
    "l": 0.8644,
    "c": 0.86506,
    "v": 3514
  },
  {
    "dt": "2023.10.13 18:00",
    "o": 0.86506,
    "h": 0.86551,
    "l": 0.86458,
    "c": 0.86513,
    "v": 2492
  },
  {
    "dt": "2023.10.13 19:00",
    "o": 0.86513,
    "h": 0.86592,
    "l": 0.8651,
    "c": 0.86578,
    "v": 1942
  },
  {
    "dt": "2023.10.13 20:00",
    "o": 0.86577,
    "h": 0.86638,
    "l": 0.86573,
    "c": 0.86578,
    "v": 1715
  },
  {
    "dt": "2023.10.13 21:00",
    "o": 0.86577,
    "h": 0.86609,
    "l": 0.86552,
    "c": 0.86605,
    "v": 1478
  },
  {
    "dt": "2023.10.13 22:00",
    "o": 0.86606,
    "h": 0.86613,
    "l": 0.86581,
    "c": 0.86595,
    "v": 1519
  },
  {
    "dt": "2023.10.13 23:00",
    "o": 0.86594,
    "h": 0.86595,
    "l": 0.86496,
    "c": 0.86518,
    "v": 776
  },
  {
    "dt": "2023.10.16 00:00",
    "o": 0.86494,
    "h": 0.86594,
    "l": 0.8642,
    "c": 0.8656,
    "v": 676
  },
  {
    "dt": "2023.10.16 01:00",
    "o": 0.86569,
    "h": 0.866,
    "l": 0.8652,
    "c": 0.86586,
    "v": 905
  },
  {
    "dt": "2023.10.16 02:00",
    "o": 0.86567,
    "h": 0.86582,
    "l": 0.86541,
    "c": 0.86559,
    "v": 697
  },
  {
    "dt": "2023.10.16 03:00",
    "o": 0.86558,
    "h": 0.86582,
    "l": 0.86537,
    "c": 0.86577,
    "v": 1014
  },
  {
    "dt": "2023.10.16 04:00",
    "o": 0.86576,
    "h": 0.86597,
    "l": 0.86564,
    "c": 0.86571,
    "v": 870
  },
  {
    "dt": "2023.10.16 05:00",
    "o": 0.8657,
    "h": 0.86574,
    "l": 0.86541,
    "c": 0.86545,
    "v": 820
  },
  {
    "dt": "2023.10.16 06:00",
    "o": 0.86544,
    "h": 0.86576,
    "l": 0.86544,
    "c": 0.86563,
    "v": 874
  },
  {
    "dt": "2023.10.16 07:00",
    "o": 0.86561,
    "h": 0.86566,
    "l": 0.86539,
    "c": 0.86554,
    "v": 718
  },
  {
    "dt": "2023.10.16 08:00",
    "o": 0.86555,
    "h": 0.86564,
    "l": 0.86539,
    "c": 0.86544,
    "v": 1004
  },
  {
    "dt": "2023.10.16 09:00",
    "o": 0.86543,
    "h": 0.86576,
    "l": 0.86524,
    "c": 0.86557,
    "v": 2089
  },
  {
    "dt": "2023.10.16 10:00",
    "o": 0.8656,
    "h": 0.8657,
    "l": 0.86458,
    "c": 0.86512,
    "v": 2558
  },
  {
    "dt": "2023.10.16 11:00",
    "o": 0.86512,
    "h": 0.86701,
    "l": 0.86505,
    "c": 0.8668,
    "v": 2178
  },
  {
    "dt": "2023.10.16 12:00",
    "o": 0.86679,
    "h": 0.86706,
    "l": 0.86629,
    "c": 0.86699,
    "v": 1883
  },
  {
    "dt": "2023.10.16 13:00",
    "o": 0.86699,
    "h": 0.86704,
    "l": 0.86638,
    "c": 0.86664,
    "v": 1717
  },
  {
    "dt": "2023.10.16 14:00",
    "o": 0.86663,
    "h": 0.86666,
    "l": 0.86502,
    "c": 0.86508,
    "v": 1851
  },
  {
    "dt": "2023.10.16 15:00",
    "o": 0.86509,
    "h": 0.866,
    "l": 0.86499,
    "c": 0.86567,
    "v": 2327
  },
  {
    "dt": "2023.10.16 16:00",
    "o": 0.86568,
    "h": 0.86598,
    "l": 0.86527,
    "c": 0.86578,
    "v": 2475
  },
  {
    "dt": "2023.10.16 17:00",
    "o": 0.86577,
    "h": 0.86607,
    "l": 0.86525,
    "c": 0.86542,
    "v": 2581
  },
  {
    "dt": "2023.10.16 18:00",
    "o": 0.86543,
    "h": 0.86548,
    "l": 0.8643,
    "c": 0.86449,
    "v": 2219
  },
  {
    "dt": "2023.10.16 19:00",
    "o": 0.86448,
    "h": 0.86463,
    "l": 0.86402,
    "c": 0.86445,
    "v": 1573
  },
  {
    "dt": "2023.10.16 20:00",
    "o": 0.86446,
    "h": 0.86449,
    "l": 0.864,
    "c": 0.86405,
    "v": 1592
  },
  {
    "dt": "2023.10.16 21:00",
    "o": 0.86403,
    "h": 0.86418,
    "l": 0.86396,
    "c": 0.8641,
    "v": 1065
  },
  {
    "dt": "2023.10.16 22:00",
    "o": 0.86408,
    "h": 0.86448,
    "l": 0.86408,
    "c": 0.86445,
    "v": 1118
  },
  {
    "dt": "2023.10.16 23:00",
    "o": 0.86444,
    "h": 0.86445,
    "l": 0.86409,
    "c": 0.86418,
    "v": 625
  },
  {
    "dt": "2023.10.17 00:00",
    "o": 0.86441,
    "h": 0.86447,
    "l": 0.86399,
    "c": 0.86416,
    "v": 1018
  },
  {
    "dt": "2023.10.17 01:00",
    "o": 0.8642,
    "h": 0.8644,
    "l": 0.86411,
    "c": 0.86424,
    "v": 320
  },
  {
    "dt": "2023.10.17 02:00",
    "o": 0.86427,
    "h": 0.86431,
    "l": 0.86402,
    "c": 0.86417,
    "v": 508
  },
  {
    "dt": "2023.10.17 03:00",
    "o": 0.86419,
    "h": 0.86459,
    "l": 0.86419,
    "c": 0.86446,
    "v": 909
  },
  {
    "dt": "2023.10.17 04:00",
    "o": 0.86446,
    "h": 0.86481,
    "l": 0.8644,
    "c": 0.86471,
    "v": 1071
  },
  {
    "dt": "2023.10.17 05:00",
    "o": 0.86471,
    "h": 0.86501,
    "l": 0.86468,
    "c": 0.86476,
    "v": 1033
  },
  {
    "dt": "2023.10.17 06:00",
    "o": 0.86474,
    "h": 0.8648,
    "l": 0.86444,
    "c": 0.86445,
    "v": 717
  },
  {
    "dt": "2023.10.17 07:00",
    "o": 0.86445,
    "h": 0.86477,
    "l": 0.86438,
    "c": 0.86467,
    "v": 709
  },
  {
    "dt": "2023.10.17 08:00",
    "o": 0.86465,
    "h": 0.86481,
    "l": 0.86444,
    "c": 0.86444,
    "v": 900
  },
  {
    "dt": "2023.10.17 09:00",
    "o": 0.86443,
    "h": 0.86584,
    "l": 0.8644,
    "c": 0.86576,
    "v": 1811
  },
  {
    "dt": "2023.10.17 10:00",
    "o": 0.86577,
    "h": 0.86656,
    "l": 0.8656,
    "c": 0.86623,
    "v": 2444
  },
  {
    "dt": "2023.10.17 11:00",
    "o": 0.86624,
    "h": 0.8669,
    "l": 0.86607,
    "c": 0.86668,
    "v": 2100
  },
  {
    "dt": "2023.10.17 12:00",
    "o": 0.86667,
    "h": 0.86769,
    "l": 0.86666,
    "c": 0.86741,
    "v": 1913
  },
  {
    "dt": "2023.10.17 13:00",
    "o": 0.86741,
    "h": 0.86804,
    "l": 0.86732,
    "c": 0.86794,
    "v": 2218
  },
  {
    "dt": "2023.10.17 14:00",
    "o": 0.86797,
    "h": 0.86805,
    "l": 0.86763,
    "c": 0.86784,
    "v": 2145
  },
  {
    "dt": "2023.10.17 15:00",
    "o": 0.86784,
    "h": 0.86898,
    "l": 0.86772,
    "c": 0.86862,
    "v": 3721
  },
  {
    "dt": "2023.10.17 16:00",
    "o": 0.86863,
    "h": 0.86874,
    "l": 0.86772,
    "c": 0.8682,
    "v": 3315
  },
  {
    "dt": "2023.10.17 17:00",
    "o": 0.86819,
    "h": 0.86857,
    "l": 0.86796,
    "c": 0.86803,
    "v": 3471
  },
  {
    "dt": "2023.10.17 18:00",
    "o": 0.86804,
    "h": 0.86841,
    "l": 0.86767,
    "c": 0.86788,
    "v": 2884
  },
  {
    "dt": "2023.10.17 19:00",
    "o": 0.86788,
    "h": 0.86805,
    "l": 0.86706,
    "c": 0.86766,
    "v": 2153
  },
  {
    "dt": "2023.10.17 20:00",
    "o": 0.86766,
    "h": 0.86801,
    "l": 0.8675,
    "c": 0.86799,
    "v": 1804
  },
  {
    "dt": "2023.10.17 21:00",
    "o": 0.86799,
    "h": 0.86805,
    "l": 0.86785,
    "c": 0.86803,
    "v": 1713
  },
  {
    "dt": "2023.10.17 22:00",
    "o": 0.86804,
    "h": 0.8681,
    "l": 0.86788,
    "c": 0.86796,
    "v": 1423
  },
  {
    "dt": "2023.10.17 23:00",
    "o": 0.86795,
    "h": 0.86817,
    "l": 0.86783,
    "c": 0.868,
    "v": 896
  },
  {
    "dt": "2023.10.18 00:00",
    "o": 0.86799,
    "h": 0.86805,
    "l": 0.86737,
    "c": 0.86777,
    "v": 989
  },
  {
    "dt": "2023.10.18 01:00",
    "o": 0.86783,
    "h": 0.8683,
    "l": 0.86783,
    "c": 0.8682,
    "v": 570
  },
  {
    "dt": "2023.10.18 02:00",
    "o": 0.86813,
    "h": 0.86819,
    "l": 0.868,
    "c": 0.8681,
    "v": 443
  },
  {
    "dt": "2023.10.18 03:00",
    "o": 0.8681,
    "h": 0.86868,
    "l": 0.86792,
    "c": 0.86852,
    "v": 934
  },
  {
    "dt": "2023.10.18 04:00",
    "o": 0.86851,
    "h": 0.86875,
    "l": 0.86837,
    "c": 0.8687,
    "v": 1224
  },
  {
    "dt": "2023.10.18 05:00",
    "o": 0.86868,
    "h": 0.8687,
    "l": 0.86845,
    "c": 0.86847,
    "v": 1253
  },
  {
    "dt": "2023.10.18 06:00",
    "o": 0.86847,
    "h": 0.86856,
    "l": 0.86834,
    "c": 0.86848,
    "v": 838
  },
  {
    "dt": "2023.10.18 07:00",
    "o": 0.86848,
    "h": 0.86848,
    "l": 0.86804,
    "c": 0.86814,
    "v": 683
  },
  {
    "dt": "2023.10.18 08:00",
    "o": 0.86813,
    "h": 0.86848,
    "l": 0.86809,
    "c": 0.86832,
    "v": 865
  },
  {
    "dt": "2023.10.18 09:00",
    "o": 0.86824,
    "h": 0.86832,
    "l": 0.86716,
    "c": 0.86754,
    "v": 2258
  },
  {
    "dt": "2023.10.18 10:00",
    "o": 0.86752,
    "h": 0.86782,
    "l": 0.86654,
    "c": 0.86778,
    "v": 2274
  },
  {
    "dt": "2023.10.18 11:00",
    "o": 0.86777,
    "h": 0.86824,
    "l": 0.86699,
    "c": 0.8674,
    "v": 2006
  },
  {
    "dt": "2023.10.18 12:00",
    "o": 0.86739,
    "h": 0.86753,
    "l": 0.86643,
    "c": 0.86647,
    "v": 2199
  },
  {
    "dt": "2023.10.18 13:00",
    "o": 0.86646,
    "h": 0.86694,
    "l": 0.86607,
    "c": 0.86644,
    "v": 1992
  },
  {
    "dt": "2023.10.18 14:00",
    "o": 0.86645,
    "h": 0.86658,
    "l": 0.86606,
    "c": 0.86632,
    "v": 2066
  },
  {
    "dt": "2023.10.18 15:00",
    "o": 0.86632,
    "h": 0.86691,
    "l": 0.86596,
    "c": 0.86688,
    "v": 2441
  },
  {
    "dt": "2023.10.18 16:00",
    "o": 0.86689,
    "h": 0.86743,
    "l": 0.86653,
    "c": 0.86706,
    "v": 2942
  },
  {
    "dt": "2023.10.18 17:00",
    "o": 0.86711,
    "h": 0.86772,
    "l": 0.86694,
    "c": 0.86745,
    "v": 3233
  },
  {
    "dt": "2023.10.18 18:00",
    "o": 0.86746,
    "h": 0.86759,
    "l": 0.86673,
    "c": 0.8668,
    "v": 3074
  },
  {
    "dt": "2023.10.18 19:00",
    "o": 0.86682,
    "h": 0.86714,
    "l": 0.86664,
    "c": 0.86695,
    "v": 2121
  },
  {
    "dt": "2023.10.18 20:00",
    "o": 0.86694,
    "h": 0.86705,
    "l": 0.8666,
    "c": 0.86704,
    "v": 2244
  },
  {
    "dt": "2023.10.18 21:00",
    "o": 0.86703,
    "h": 0.8675,
    "l": 0.86687,
    "c": 0.8675,
    "v": 1883
  },
  {
    "dt": "2023.10.18 22:00",
    "o": 0.86745,
    "h": 0.86776,
    "l": 0.86745,
    "c": 0.86772,
    "v": 1671
  },
  {
    "dt": "2023.10.18 23:00",
    "o": 0.86773,
    "h": 0.86788,
    "l": 0.86757,
    "c": 0.86772,
    "v": 840
  },
  {
    "dt": "2023.10.19 00:00",
    "o": 0.86741,
    "h": 0.86773,
    "l": 0.86711,
    "c": 0.86755,
    "v": 587
  },
  {
    "dt": "2023.10.19 01:00",
    "o": 0.86754,
    "h": 0.86784,
    "l": 0.86754,
    "c": 0.86775,
    "v": 338
  },
  {
    "dt": "2023.10.19 02:00",
    "o": 0.86776,
    "h": 0.86786,
    "l": 0.86771,
    "c": 0.86783,
    "v": 681
  },
  {
    "dt": "2023.10.19 03:00",
    "o": 0.86784,
    "h": 0.86793,
    "l": 0.86765,
    "c": 0.86788,
    "v": 891
  },
  {
    "dt": "2023.10.19 04:00",
    "o": 0.86787,
    "h": 0.8682,
    "l": 0.86782,
    "c": 0.86816,
    "v": 1046
  },
  {
    "dt": "2023.10.19 05:00",
    "o": 0.86816,
    "h": 0.8683,
    "l": 0.86812,
    "c": 0.86821,
    "v": 557
  },
  {
    "dt": "2023.10.19 06:00",
    "o": 0.8682,
    "h": 0.86849,
    "l": 0.86814,
    "c": 0.86846,
    "v": 639
  },
  {
    "dt": "2023.10.19 07:00",
    "o": 0.86847,
    "h": 0.86858,
    "l": 0.86834,
    "c": 0.86858,
    "v": 745
  },
  {
    "dt": "2023.10.19 08:00",
    "o": 0.86857,
    "h": 0.86906,
    "l": 0.86856,
    "c": 0.86902,
    "v": 777
  },
  {
    "dt": "2023.10.19 09:00",
    "o": 0.869,
    "h": 0.86927,
    "l": 0.86819,
    "c": 0.8686,
    "v": 1754
  },
  {
    "dt": "2023.10.19 10:00",
    "o": 0.86859,
    "h": 0.86958,
    "l": 0.86823,
    "c": 0.8695,
    "v": 2651
  },
  {
    "dt": "2023.10.19 11:00",
    "o": 0.86949,
    "h": 0.87037,
    "l": 0.8693,
    "c": 0.87014,
    "v": 2371
  },
  {
    "dt": "2023.10.19 12:00",
    "o": 0.87018,
    "h": 0.87167,
    "l": 0.87014,
    "c": 0.87094,
    "v": 2054
  },
  {
    "dt": "2023.10.19 13:00",
    "o": 0.87093,
    "h": 0.87111,
    "l": 0.87036,
    "c": 0.87043,
    "v": 1896
  },
  {
    "dt": "2023.10.19 14:00",
    "o": 0.87042,
    "h": 0.87125,
    "l": 0.87034,
    "c": 0.87094,
    "v": 1847
  },
  {
    "dt": "2023.10.19 15:00",
    "o": 0.87093,
    "h": 0.87126,
    "l": 0.87053,
    "c": 0.87099,
    "v": 2974
  },
  {
    "dt": "2023.10.19 16:00",
    "o": 0.87098,
    "h": 0.87101,
    "l": 0.86993,
    "c": 0.87061,
    "v": 2655
  },
  {
    "dt": "2023.10.19 17:00",
    "o": 0.87063,
    "h": 0.87076,
    "l": 0.8696,
    "c": 0.87023,
    "v": 3107
  },
  {
    "dt": "2023.10.19 18:00",
    "o": 0.87024,
    "h": 0.87074,
    "l": 0.87021,
    "c": 0.87035,
    "v": 2387
  },
  {
    "dt": "2023.10.19 19:00",
    "o": 0.87037,
    "h": 0.8707,
    "l": 0.86976,
    "c": 0.87029,
    "v": 4573
  },
  {
    "dt": "2023.10.19 20:00",
    "o": 0.87026,
    "h": 0.87128,
    "l": 0.87022,
    "c": 0.87102,
    "v": 3599
  },
  {
    "dt": "2023.10.19 21:00",
    "o": 0.87103,
    "h": 0.8714,
    "l": 0.87078,
    "c": 0.87134,
    "v": 2782
  },
  {
    "dt": "2023.10.19 22:00",
    "o": 0.87134,
    "h": 0.87145,
    "l": 0.87117,
    "c": 0.87141,
    "v": 2395
  },
  {
    "dt": "2023.10.19 23:00",
    "o": 0.87139,
    "h": 0.87162,
    "l": 0.87124,
    "c": 0.8713,
    "v": 1214
  },
  {
    "dt": "2023.10.20 00:00",
    "o": 0.87094,
    "h": 0.8714,
    "l": 0.87093,
    "c": 0.87122,
    "v": 651
  },
  {
    "dt": "2023.10.20 01:00",
    "o": 0.87116,
    "h": 0.87157,
    "l": 0.87116,
    "c": 0.87149,
    "v": 606
  },
  {
    "dt": "2023.10.20 02:00",
    "o": 0.87153,
    "h": 0.87239,
    "l": 0.87138,
    "c": 0.87229,
    "v": 884
  },
  {
    "dt": "2023.10.20 03:00",
    "o": 0.87226,
    "h": 0.87229,
    "l": 0.87207,
    "c": 0.87211,
    "v": 1438
  },
  {
    "dt": "2023.10.20 04:00",
    "o": 0.8721,
    "h": 0.87214,
    "l": 0.87163,
    "c": 0.87179,
    "v": 1389
  },
  {
    "dt": "2023.10.20 05:00",
    "o": 0.87178,
    "h": 0.8718,
    "l": 0.87114,
    "c": 0.87114,
    "v": 1080
  },
  {
    "dt": "2023.10.20 06:00",
    "o": 0.87114,
    "h": 0.87132,
    "l": 0.87103,
    "c": 0.87126,
    "v": 984
  },
  {
    "dt": "2023.10.20 07:00",
    "o": 0.87124,
    "h": 0.87163,
    "l": 0.87123,
    "c": 0.87141,
    "v": 1041
  },
  {
    "dt": "2023.10.20 08:00",
    "o": 0.87143,
    "h": 0.87194,
    "l": 0.87131,
    "c": 0.8717,
    "v": 1207
  },
  {
    "dt": "2023.10.20 09:00",
    "o": 0.87159,
    "h": 0.87357,
    "l": 0.87159,
    "c": 0.87309,
    "v": 2590
  },
  {
    "dt": "2023.10.20 10:00",
    "o": 0.87307,
    "h": 0.8733,
    "l": 0.87247,
    "c": 0.87324,
    "v": 2588
  },
  {
    "dt": "2023.10.20 11:00",
    "o": 0.87329,
    "h": 0.87395,
    "l": 0.87313,
    "c": 0.87321,
    "v": 2429
  },
  {
    "dt": "2023.10.20 12:00",
    "o": 0.87321,
    "h": 0.8737,
    "l": 0.87269,
    "c": 0.87323,
    "v": 2076
  },
  {
    "dt": "2023.10.20 13:00",
    "o": 0.87323,
    "h": 0.87342,
    "l": 0.87266,
    "c": 0.87307,
    "v": 1934
  },
  {
    "dt": "2023.10.20 14:00",
    "o": 0.87306,
    "h": 0.87311,
    "l": 0.87207,
    "c": 0.87224,
    "v": 1968
  },
  {
    "dt": "2023.10.20 15:00",
    "o": 0.87223,
    "h": 0.87228,
    "l": 0.87105,
    "c": 0.87165,
    "v": 2973
  },
  {
    "dt": "2023.10.20 16:00",
    "o": 0.87167,
    "h": 0.87198,
    "l": 0.87074,
    "c": 0.87097,
    "v": 3004
  },
  {
    "dt": "2023.10.20 17:00",
    "o": 0.87096,
    "h": 0.87208,
    "l": 0.87087,
    "c": 0.87143,
    "v": 3402
  },
  {
    "dt": "2023.10.20 18:00",
    "o": 0.87147,
    "h": 0.87171,
    "l": 0.87119,
    "c": 0.87157,
    "v": 2730
  },
  {
    "dt": "2023.10.20 19:00",
    "o": 0.87156,
    "h": 0.87192,
    "l": 0.87106,
    "c": 0.87115,
    "v": 2070
  },
  {
    "dt": "2023.10.20 20:00",
    "o": 0.87116,
    "h": 0.8713,
    "l": 0.87078,
    "c": 0.87115,
    "v": 2164
  },
  {
    "dt": "2023.10.20 21:00",
    "o": 0.87114,
    "h": 0.87134,
    "l": 0.87108,
    "c": 0.8712,
    "v": 1656
  },
  {
    "dt": "2023.10.20 22:00",
    "o": 0.87119,
    "h": 0.87128,
    "l": 0.87092,
    "c": 0.87092,
    "v": 1453
  },
  {
    "dt": "2023.10.20 23:00",
    "o": 0.87094,
    "h": 0.87103,
    "l": 0.87057,
    "c": 0.87066,
    "v": 1021
  },
  {
    "dt": "2023.10.23 00:00",
    "o": 0.87108,
    "h": 0.87116,
    "l": 0.87062,
    "c": 0.87078,
    "v": 414
  },
  {
    "dt": "2023.10.23 01:00",
    "o": 0.87086,
    "h": 0.871,
    "l": 0.8705,
    "c": 0.87074,
    "v": 661
  },
  {
    "dt": "2023.10.23 02:00",
    "o": 0.87072,
    "h": 0.87079,
    "l": 0.87051,
    "c": 0.87052,
    "v": 670
  },
  {
    "dt": "2023.10.23 03:00",
    "o": 0.87052,
    "h": 0.87076,
    "l": 0.8703,
    "c": 0.87038,
    "v": 1049
  },
  {
    "dt": "2023.10.23 04:00",
    "o": 0.87039,
    "h": 0.87058,
    "l": 0.87021,
    "c": 0.87029,
    "v": 958
  },
  {
    "dt": "2023.10.23 05:00",
    "o": 0.87028,
    "h": 0.87042,
    "l": 0.87014,
    "c": 0.87019,
    "v": 797
  },
  {
    "dt": "2023.10.23 06:00",
    "o": 0.87018,
    "h": 0.87045,
    "l": 0.86993,
    "c": 0.87042,
    "v": 785
  },
  {
    "dt": "2023.10.23 07:00",
    "o": 0.87044,
    "h": 0.87075,
    "l": 0.87039,
    "c": 0.87045,
    "v": 855
  },
  {
    "dt": "2023.10.23 08:00",
    "o": 0.87044,
    "h": 0.87061,
    "l": 0.8703,
    "c": 0.87051,
    "v": 941
  },
  {
    "dt": "2023.10.23 09:00",
    "o": 0.87058,
    "h": 0.87058,
    "l": 0.86997,
    "c": 0.87032,
    "v": 1528
  },
  {
    "dt": "2023.10.23 10:00",
    "o": 0.87033,
    "h": 0.87087,
    "l": 0.86984,
    "c": 0.87082,
    "v": 2403
  },
  {
    "dt": "2023.10.23 11:00",
    "o": 0.87087,
    "h": 0.87192,
    "l": 0.87044,
    "c": 0.87172,
    "v": 2387
  },
  {
    "dt": "2023.10.23 12:00",
    "o": 0.87173,
    "h": 0.87215,
    "l": 0.87152,
    "c": 0.87184,
    "v": 2033
  },
  {
    "dt": "2023.10.23 13:00",
    "o": 0.87184,
    "h": 0.87248,
    "l": 0.87173,
    "c": 0.8723,
    "v": 2016
  },
  {
    "dt": "2023.10.23 14:00",
    "o": 0.8723,
    "h": 0.87245,
    "l": 0.87105,
    "c": 0.87105,
    "v": 1816
  },
  {
    "dt": "2023.10.23 15:00",
    "o": 0.87108,
    "h": 0.87224,
    "l": 0.87105,
    "c": 0.87211,
    "v": 2388
  },
  {
    "dt": "2023.10.23 16:00",
    "o": 0.87211,
    "h": 0.87211,
    "l": 0.87101,
    "c": 0.87113,
    "v": 2692
  },
  {
    "dt": "2023.10.23 17:00",
    "o": 0.87112,
    "h": 0.87139,
    "l": 0.86973,
    "c": 0.87055,
    "v": 3515
  },
  {
    "dt": "2023.10.23 18:00",
    "o": 0.87053,
    "h": 0.87068,
    "l": 0.86991,
    "c": 0.87014,
    "v": 2481
  },
  {
    "dt": "2023.10.23 19:00",
    "o": 0.87015,
    "h": 0.87177,
    "l": 0.87004,
    "c": 0.87162,
    "v": 1917
  },
  {
    "dt": "2023.10.23 20:00",
    "o": 0.87162,
    "h": 0.87189,
    "l": 0.87089,
    "c": 0.87106,
    "v": 1817
  },
  {
    "dt": "2023.10.23 21:00",
    "o": 0.87106,
    "h": 0.87114,
    "l": 0.87071,
    "c": 0.8709,
    "v": 1663
  },
  {
    "dt": "2023.10.23 22:00",
    "o": 0.87091,
    "h": 0.87106,
    "l": 0.87079,
    "c": 0.87096,
    "v": 1743
  },
  {
    "dt": "2023.10.23 23:00",
    "o": 0.87096,
    "h": 0.87105,
    "l": 0.87069,
    "c": 0.87095,
    "v": 806
  },
  {
    "dt": "2023.10.24 00:00",
    "o": 0.87061,
    "h": 0.87117,
    "l": 0.87048,
    "c": 0.87089,
    "v": 775
  },
  {
    "dt": "2023.10.24 01:00",
    "o": 0.87102,
    "h": 0.8711,
    "l": 0.87052,
    "c": 0.87062,
    "v": 471
  },
  {
    "dt": "2023.10.24 02:00",
    "o": 0.87078,
    "h": 0.87099,
    "l": 0.87075,
    "c": 0.87097,
    "v": 767
  },
  {
    "dt": "2023.10.24 03:00",
    "o": 0.87098,
    "h": 0.87107,
    "l": 0.87065,
    "c": 0.87076,
    "v": 954
  },
  {
    "dt": "2023.10.24 04:00",
    "o": 0.87075,
    "h": 0.87091,
    "l": 0.8704,
    "c": 0.87076,
    "v": 1229
  },
  {
    "dt": "2023.10.24 05:00",
    "o": 0.87076,
    "h": 0.87084,
    "l": 0.87045,
    "c": 0.87078,
    "v": 1217
  },
  {
    "dt": "2023.10.24 06:00",
    "o": 0.87078,
    "h": 0.87107,
    "l": 0.87073,
    "c": 0.87084,
    "v": 935
  },
  {
    "dt": "2023.10.24 07:00",
    "o": 0.87085,
    "h": 0.87087,
    "l": 0.87059,
    "c": 0.87059,
    "v": 836
  },
  {
    "dt": "2023.10.24 08:00",
    "o": 0.8706,
    "h": 0.87072,
    "l": 0.87016,
    "c": 0.87017,
    "v": 989
  },
  {
    "dt": "2023.10.24 09:00",
    "o": 0.87014,
    "h": 0.87073,
    "l": 0.86958,
    "c": 0.8697,
    "v": 1895
  },
  {
    "dt": "2023.10.24 10:00",
    "o": 0.8697,
    "h": 0.87053,
    "l": 0.86896,
    "c": 0.86943,
    "v": 2957
  },
  {
    "dt": "2023.10.24 11:00",
    "o": 0.86936,
    "h": 0.86975,
    "l": 0.86821,
    "c": 0.86832,
    "v": 2711
  },
  {
    "dt": "2023.10.24 12:00",
    "o": 0.86826,
    "h": 0.8694,
    "l": 0.86823,
    "c": 0.86883,
    "v": 1772
  },
  {
    "dt": "2023.10.24 13:00",
    "o": 0.86886,
    "h": 0.87007,
    "l": 0.86871,
    "c": 0.86998,
    "v": 2073
  },
  {
    "dt": "2023.10.24 14:00",
    "o": 0.86998,
    "h": 0.87036,
    "l": 0.86918,
    "c": 0.87026,
    "v": 2026
  },
  {
    "dt": "2023.10.24 15:00",
    "o": 0.87029,
    "h": 0.87031,
    "l": 0.86967,
    "c": 0.86983,
    "v": 2252
  },
  {
    "dt": "2023.10.24 16:00",
    "o": 0.8698,
    "h": 0.87067,
    "l": 0.86951,
    "c": 0.8706,
    "v": 3049
  },
  {
    "dt": "2023.10.24 17:00",
    "o": 0.87058,
    "h": 0.87111,
    "l": 0.87003,
    "c": 0.8703,
    "v": 2867
  },
  {
    "dt": "2023.10.24 18:00",
    "o": 0.8703,
    "h": 0.8707,
    "l": 0.87007,
    "c": 0.87052,
    "v": 2723
  },
  {
    "dt": "2023.10.24 19:00",
    "o": 0.87052,
    "h": 0.87124,
    "l": 0.87047,
    "c": 0.87064,
    "v": 1902
  },
  {
    "dt": "2023.10.24 20:00",
    "o": 0.87065,
    "h": 0.8708,
    "l": 0.87043,
    "c": 0.87052,
    "v": 1767
  },
  {
    "dt": "2023.10.24 21:00",
    "o": 0.87052,
    "h": 0.87082,
    "l": 0.87041,
    "c": 0.87059,
    "v": 1532
  },
  {
    "dt": "2023.10.24 22:00",
    "o": 0.87057,
    "h": 0.87083,
    "l": 0.87052,
    "c": 0.87074,
    "v": 1263
  },
  {
    "dt": "2023.10.24 23:00",
    "o": 0.87072,
    "h": 0.87088,
    "l": 0.87061,
    "c": 0.87076,
    "v": 874
  },
  {
    "dt": "2023.10.25 00:00",
    "o": 0.86989,
    "h": 0.8709,
    "l": 0.86989,
    "c": 0.87073,
    "v": 1037
  },
  {
    "dt": "2023.10.25 01:00",
    "o": 0.87067,
    "h": 0.87118,
    "l": 0.87066,
    "c": 0.87113,
    "v": 611
  },
  {
    "dt": "2023.10.25 02:00",
    "o": 0.87113,
    "h": 0.87117,
    "l": 0.87096,
    "c": 0.87106,
    "v": 579
  },
  {
    "dt": "2023.10.25 03:00",
    "o": 0.87106,
    "h": 0.87106,
    "l": 0.8705,
    "c": 0.87057,
    "v": 1311
  },
  {
    "dt": "2023.10.25 04:00",
    "o": 0.87062,
    "h": 0.87075,
    "l": 0.87046,
    "c": 0.8705,
    "v": 1217
  },
  {
    "dt": "2023.10.25 05:00",
    "o": 0.87051,
    "h": 0.87107,
    "l": 0.87051,
    "c": 0.87101,
    "v": 1103
  },
  {
    "dt": "2023.10.25 06:00",
    "o": 0.871,
    "h": 0.87104,
    "l": 0.8708,
    "c": 0.87098,
    "v": 1006
  },
  {
    "dt": "2023.10.25 07:00",
    "o": 0.87097,
    "h": 0.87105,
    "l": 0.87083,
    "c": 0.87103,
    "v": 912
  },
  {
    "dt": "2023.10.25 08:00",
    "o": 0.87104,
    "h": 0.87107,
    "l": 0.87077,
    "c": 0.87102,
    "v": 1208
  },
  {
    "dt": "2023.10.25 09:00",
    "o": 0.87101,
    "h": 0.87137,
    "l": 0.87088,
    "c": 0.87091,
    "v": 1756
  },
  {
    "dt": "2023.10.25 10:00",
    "o": 0.87092,
    "h": 0.87206,
    "l": 0.87035,
    "c": 0.8719,
    "v": 2079
  },
  {
    "dt": "2023.10.25 11:00",
    "o": 0.8719,
    "h": 0.87242,
    "l": 0.87167,
    "c": 0.87196,
    "v": 2027
  },
  {
    "dt": "2023.10.25 12:00",
    "o": 0.87193,
    "h": 0.87242,
    "l": 0.87165,
    "c": 0.87199,
    "v": 1824
  },
  {
    "dt": "2023.10.25 13:00",
    "o": 0.87196,
    "h": 0.87241,
    "l": 0.87184,
    "c": 0.87214,
    "v": 1373
  },
  {
    "dt": "2023.10.25 14:00",
    "o": 0.87215,
    "h": 0.87241,
    "l": 0.87169,
    "c": 0.87236,
    "v": 1491
  },
  {
    "dt": "2023.10.25 15:00",
    "o": 0.87236,
    "h": 0.87257,
    "l": 0.87156,
    "c": 0.87166,
    "v": 1973
  },
  {
    "dt": "2023.10.25 16:00",
    "o": 0.87166,
    "h": 0.87225,
    "l": 0.87134,
    "c": 0.87186,
    "v": 2705
  },
  {
    "dt": "2023.10.25 17:00",
    "o": 0.87187,
    "h": 0.87191,
    "l": 0.87089,
    "c": 0.87167,
    "v": 3387
  },
  {
    "dt": "2023.10.25 18:00",
    "o": 0.87167,
    "h": 0.87206,
    "l": 0.87154,
    "c": 0.87181,
    "v": 3153
  },
  {
    "dt": "2023.10.25 19:00",
    "o": 0.8718,
    "h": 0.87222,
    "l": 0.87152,
    "c": 0.87186,
    "v": 1980
  },
  {
    "dt": "2023.10.25 20:00",
    "o": 0.87185,
    "h": 0.87221,
    "l": 0.87177,
    "c": 0.87205,
    "v": 2306
  },
  {
    "dt": "2023.10.25 21:00",
    "o": 0.87205,
    "h": 0.87222,
    "l": 0.87192,
    "c": 0.87202,
    "v": 1472
  },
  {
    "dt": "2023.10.25 22:00",
    "o": 0.87204,
    "h": 0.87238,
    "l": 0.87191,
    "c": 0.87238,
    "v": 1396
  },
  {
    "dt": "2023.10.25 23:00",
    "o": 0.87237,
    "h": 0.87259,
    "l": 0.87217,
    "c": 0.87224,
    "v": 1136
  },
  {
    "dt": "2023.10.26 00:00",
    "o": 0.87175,
    "h": 0.87255,
    "l": 0.87175,
    "c": 0.87254,
    "v": 1099
  },
  {
    "dt": "2023.10.26 01:00",
    "o": 0.87249,
    "h": 0.87293,
    "l": 0.87241,
    "c": 0.87286,
    "v": 577
  },
  {
    "dt": "2023.10.26 02:00",
    "o": 0.87285,
    "h": 0.87331,
    "l": 0.87284,
    "c": 0.87299,
    "v": 669
  },
  {
    "dt": "2023.10.26 03:00",
    "o": 0.87299,
    "h": 0.87338,
    "l": 0.87287,
    "c": 0.87328,
    "v": 1109
  },
  {
    "dt": "2023.10.26 04:00",
    "o": 0.87329,
    "h": 0.87334,
    "l": 0.87258,
    "c": 0.87265,
    "v": 1275
  },
  {
    "dt": "2023.10.26 05:00",
    "o": 0.87266,
    "h": 0.87286,
    "l": 0.87248,
    "c": 0.87264,
    "v": 1124
  },
  {
    "dt": "2023.10.26 06:00",
    "o": 0.87265,
    "h": 0.87302,
    "l": 0.8726,
    "c": 0.87294,
    "v": 841
  },
  {
    "dt": "2023.10.26 07:00",
    "o": 0.87295,
    "h": 0.87296,
    "l": 0.87259,
    "c": 0.87289,
    "v": 1028
  },
  {
    "dt": "2023.10.26 08:00",
    "o": 0.8729,
    "h": 0.87299,
    "l": 0.87245,
    "c": 0.87267,
    "v": 1159
  },
  {
    "dt": "2023.10.26 09:00",
    "o": 0.87269,
    "h": 0.87289,
    "l": 0.87224,
    "c": 0.87259,
    "v": 2002
  },
  {
    "dt": "2023.10.26 10:00",
    "o": 0.87259,
    "h": 0.87275,
    "l": 0.87177,
    "c": 0.87241,
    "v": 2217
  },
  {
    "dt": "2023.10.26 11:00",
    "o": 0.87242,
    "h": 0.87295,
    "l": 0.87218,
    "c": 0.87291,
    "v": 1668
  },
  {
    "dt": "2023.10.26 12:00",
    "o": 0.87289,
    "h": 0.87299,
    "l": 0.87198,
    "c": 0.87225,
    "v": 1582
  },
  {
    "dt": "2023.10.26 13:00",
    "o": 0.87224,
    "h": 0.87253,
    "l": 0.87213,
    "c": 0.87249,
    "v": 1326
  },
  {
    "dt": "2023.10.26 14:00",
    "o": 0.8725,
    "h": 0.87252,
    "l": 0.87142,
    "c": 0.87167,
    "v": 1765
  },
  {
    "dt": "2023.10.26 15:00",
    "o": 0.87168,
    "h": 0.87185,
    "l": 0.87052,
    "c": 0.87082,
    "v": 3742
  },
  {
    "dt": "2023.10.26 16:00",
    "o": 0.8708,
    "h": 0.8711,
    "l": 0.86983,
    "c": 0.86998,
    "v": 3146
  },
  {
    "dt": "2023.10.26 17:00",
    "o": 0.87,
    "h": 0.87024,
    "l": 0.86912,
    "c": 0.86926,
    "v": 3036
  },
  {
    "dt": "2023.10.26 18:00",
    "o": 0.86926,
    "h": 0.86953,
    "l": 0.86904,
    "c": 0.8695,
    "v": 2268
  },
  {
    "dt": "2023.10.26 19:00",
    "o": 0.8695,
    "h": 0.86999,
    "l": 0.86942,
    "c": 0.86969,
    "v": 1940
  },
  {
    "dt": "2023.10.26 20:00",
    "o": 0.8697,
    "h": 0.86989,
    "l": 0.86958,
    "c": 0.86981,
    "v": 1872
  },
  {
    "dt": "2023.10.26 21:00",
    "o": 0.86982,
    "h": 0.87039,
    "l": 0.86964,
    "c": 0.87017,
    "v": 1573
  },
  {
    "dt": "2023.10.26 22:00",
    "o": 0.87017,
    "h": 0.8708,
    "l": 0.87008,
    "c": 0.87078,
    "v": 1578
  },
  {
    "dt": "2023.10.26 23:00",
    "o": 0.87078,
    "h": 0.871,
    "l": 0.87055,
    "c": 0.87085,
    "v": 891
  },
  {
    "dt": "2023.10.27 00:00",
    "o": 0.86968,
    "h": 0.87087,
    "l": 0.86968,
    "c": 0.87058,
    "v": 1044
  },
  {
    "dt": "2023.10.27 01:00",
    "o": 0.8706,
    "h": 0.87082,
    "l": 0.87039,
    "c": 0.8705,
    "v": 504
  },
  {
    "dt": "2023.10.27 02:00",
    "o": 0.87052,
    "h": 0.87054,
    "l": 0.87024,
    "c": 0.87036,
    "v": 752
  },
  {
    "dt": "2023.10.27 03:00",
    "o": 0.87038,
    "h": 0.87056,
    "l": 0.87026,
    "c": 0.87049,
    "v": 1348
  },
  {
    "dt": "2023.10.27 04:00",
    "o": 0.87049,
    "h": 0.87057,
    "l": 0.87031,
    "c": 0.87042,
    "v": 1143
  },
  {
    "dt": "2023.10.27 05:00",
    "o": 0.87043,
    "h": 0.87051,
    "l": 0.8703,
    "c": 0.87039,
    "v": 1173
  },
  {
    "dt": "2023.10.27 06:00",
    "o": 0.8704,
    "h": 0.87064,
    "l": 0.87027,
    "c": 0.87052,
    "v": 924
  },
  {
    "dt": "2023.10.27 07:00",
    "o": 0.87053,
    "h": 0.87058,
    "l": 0.87048,
    "c": 0.87051,
    "v": 813
  },
  {
    "dt": "2023.10.27 08:00",
    "o": 0.87052,
    "h": 0.8708,
    "l": 0.87038,
    "c": 0.87077,
    "v": 1064
  },
  {
    "dt": "2023.10.27 09:00",
    "o": 0.87072,
    "h": 0.87124,
    "l": 0.87063,
    "c": 0.87081,
    "v": 1756
  },
  {
    "dt": "2023.10.27 10:00",
    "o": 0.87086,
    "h": 0.87141,
    "l": 0.87056,
    "c": 0.87113,
    "v": 2120
  },
  {
    "dt": "2023.10.27 11:00",
    "o": 0.87111,
    "h": 0.87154,
    "l": 0.87071,
    "c": 0.87076,
    "v": 1720
  },
  {
    "dt": "2023.10.27 12:00",
    "o": 0.87077,
    "h": 0.87094,
    "l": 0.86979,
    "c": 0.87039,
    "v": 1657
  },
  {
    "dt": "2023.10.27 13:00",
    "o": 0.87035,
    "h": 0.87119,
    "l": 0.8703,
    "c": 0.87062,
    "v": 1544
  },
  {
    "dt": "2023.10.27 14:00",
    "o": 0.87059,
    "h": 0.87071,
    "l": 0.8698,
    "c": 0.87009,
    "v": 1633
  },
  {
    "dt": "2023.10.27 15:00",
    "o": 0.87013,
    "h": 0.87036,
    "l": 0.86947,
    "c": 0.87006,
    "v": 2917
  },
  {
    "dt": "2023.10.27 16:00",
    "o": 0.87005,
    "h": 0.87121,
    "l": 0.87,
    "c": 0.8709,
    "v": 3386
  },
  {
    "dt": "2023.10.27 17:00",
    "o": 0.87092,
    "h": 0.87168,
    "l": 0.87075,
    "c": 0.87098,
    "v": 3686
  },
  {
    "dt": "2023.10.27 18:00",
    "o": 0.87097,
    "h": 0.87201,
    "l": 0.87095,
    "c": 0.87163,
    "v": 2652
  },
  {
    "dt": "2023.10.27 19:00",
    "o": 0.87162,
    "h": 0.87259,
    "l": 0.87161,
    "c": 0.87221,
    "v": 2041
  },
  {
    "dt": "2023.10.27 20:00",
    "o": 0.87222,
    "h": 0.8724,
    "l": 0.87138,
    "c": 0.8718,
    "v": 2203
  },
  {
    "dt": "2023.10.27 21:00",
    "o": 0.87179,
    "h": 0.87226,
    "l": 0.8717,
    "c": 0.87222,
    "v": 2452
  },
  {
    "dt": "2023.10.27 22:00",
    "o": 0.87222,
    "h": 0.87232,
    "l": 0.872,
    "c": 0.87204,
    "v": 1893
  },
  {
    "dt": "2023.10.27 23:00",
    "o": 0.87206,
    "h": 0.87206,
    "l": 0.87099,
    "c": 0.87125,
    "v": 1142
  },
  {
    "dt": "2023.10.30 00:00",
    "o": 0.8712,
    "h": 0.87151,
    "l": 0.87078,
    "c": 0.8711,
    "v": 497
  },
  {
    "dt": "2023.10.30 01:00",
    "o": 0.87107,
    "h": 0.87171,
    "l": 0.87107,
    "c": 0.87142,
    "v": 825
  },
  {
    "dt": "2023.10.30 02:00",
    "o": 0.87147,
    "h": 0.87196,
    "l": 0.87145,
    "c": 0.87185,
    "v": 793
  },
  {
    "dt": "2023.10.30 03:00",
    "o": 0.87186,
    "h": 0.87217,
    "l": 0.87163,
    "c": 0.8721,
    "v": 1192
  },
  {
    "dt": "2023.10.30 04:00",
    "o": 0.87209,
    "h": 0.87222,
    "l": 0.87189,
    "c": 0.87197,
    "v": 1312
  },
  {
    "dt": "2023.10.30 05:00",
    "o": 0.87198,
    "h": 0.87211,
    "l": 0.87184,
    "c": 0.87188,
    "v": 1080
  },
  {
    "dt": "2023.10.30 06:00",
    "o": 0.87188,
    "h": 0.8719,
    "l": 0.87117,
    "c": 0.8712,
    "v": 825
  },
  {
    "dt": "2023.10.30 07:00",
    "o": 0.87119,
    "h": 0.87154,
    "l": 0.87112,
    "c": 0.87153,
    "v": 642
  },
  {
    "dt": "2023.10.30 08:00",
    "o": 0.87154,
    "h": 0.87182,
    "l": 0.87151,
    "c": 0.87177,
    "v": 730
  },
  {
    "dt": "2023.10.30 09:00",
    "o": 0.87176,
    "h": 0.87177,
    "l": 0.87067,
    "c": 0.87085,
    "v": 1090
  },
  {
    "dt": "2023.10.30 10:00",
    "o": 0.87081,
    "h": 0.87284,
    "l": 0.87064,
    "c": 0.87243,
    "v": 1865
  },
  {
    "dt": "2023.10.30 11:00",
    "o": 0.87247,
    "h": 0.8726,
    "l": 0.87182,
    "c": 0.87228,
    "v": 2229
  },
  {
    "dt": "2023.10.30 12:00",
    "o": 0.87228,
    "h": 0.87257,
    "l": 0.87154,
    "c": 0.87245,
    "v": 2054
  },
  {
    "dt": "2023.10.30 13:00",
    "o": 0.87245,
    "h": 0.87248,
    "l": 0.87179,
    "c": 0.87219,
    "v": 1660
  },
  {
    "dt": "2023.10.30 14:00",
    "o": 0.8722,
    "h": 0.87286,
    "l": 0.87208,
    "c": 0.87285,
    "v": 1787
  },
  {
    "dt": "2023.10.30 15:00",
    "o": 0.87285,
    "h": 0.87345,
    "l": 0.87264,
    "c": 0.87338,
    "v": 2272
  },
  {
    "dt": "2023.10.30 16:00",
    "o": 0.87336,
    "h": 0.87398,
    "l": 0.87317,
    "c": 0.87398,
    "v": 2502
  },
  {
    "dt": "2023.10.30 17:00",
    "o": 0.87397,
    "h": 0.87398,
    "l": 0.87308,
    "c": 0.87341,
    "v": 3104
  },
  {
    "dt": "2023.10.30 18:00",
    "o": 0.87342,
    "h": 0.87379,
    "l": 0.8731,
    "c": 0.8735,
    "v": 2296
  },
  {
    "dt": "2023.10.30 19:00",
    "o": 0.87349,
    "h": 0.87365,
    "l": 0.87297,
    "c": 0.87299,
    "v": 1937
  },
  {
    "dt": "2023.10.30 20:00",
    "o": 0.87299,
    "h": 0.87327,
    "l": 0.8727,
    "c": 0.8729,
    "v": 1456
  },
  {
    "dt": "2023.10.30 21:00",
    "o": 0.87291,
    "h": 0.873,
    "l": 0.87273,
    "c": 0.87294,
    "v": 1334
  },
  {
    "dt": "2023.10.30 22:00",
    "o": 0.87293,
    "h": 0.87295,
    "l": 0.8719,
    "c": 0.87205,
    "v": 1501
  },
  {
    "dt": "2023.10.30 23:00",
    "o": 0.87204,
    "h": 0.8723,
    "l": 0.87204,
    "c": 0.87217,
    "v": 822
  },
  {
    "dt": "2023.10.31 00:00",
    "o": 0.87225,
    "h": 0.87241,
    "l": 0.87207,
    "c": 0.87225,
    "v": 689
  },
  {
    "dt": "2023.10.31 01:00",
    "o": 0.87225,
    "h": 0.87244,
    "l": 0.87217,
    "c": 0.87228,
    "v": 815
  },
  {
    "dt": "2023.10.31 02:00",
    "o": 0.87221,
    "h": 0.8725,
    "l": 0.87219,
    "c": 0.8725,
    "v": 509
  },
  {
    "dt": "2023.10.31 03:00",
    "o": 0.8725,
    "h": 0.87274,
    "l": 0.87243,
    "c": 0.87258,
    "v": 1015
  },
  {
    "dt": "2023.10.31 04:00",
    "o": 0.87257,
    "h": 0.87269,
    "l": 0.87239,
    "c": 0.87269,
    "v": 1622
  },
  {
    "dt": "2023.10.31 05:00",
    "o": 0.87269,
    "h": 0.8728,
    "l": 0.87235,
    "c": 0.87257,
    "v": 1206
  },
  {
    "dt": "2023.10.31 06:00",
    "o": 0.87257,
    "h": 0.87275,
    "l": 0.87227,
    "c": 0.87228,
    "v": 1852
  },
  {
    "dt": "2023.10.31 07:00",
    "o": 0.87228,
    "h": 0.87255,
    "l": 0.87207,
    "c": 0.8725,
    "v": 1034
  },
  {
    "dt": "2023.10.31 08:00",
    "o": 0.87251,
    "h": 0.87271,
    "l": 0.87227,
    "c": 0.87235,
    "v": 1141
  },
  {
    "dt": "2023.10.31 09:00",
    "o": 0.87235,
    "h": 0.87321,
    "l": 0.87227,
    "c": 0.8731,
    "v": 1241
  },
  {
    "dt": "2023.10.31 10:00",
    "o": 0.87309,
    "h": 0.87382,
    "l": 0.87287,
    "c": 0.87363,
    "v": 2023
  },
  {
    "dt": "2023.10.31 11:00",
    "o": 0.87361,
    "h": 0.87449,
    "l": 0.87361,
    "c": 0.87446,
    "v": 2370
  },
  {
    "dt": "2023.10.31 12:00",
    "o": 0.87447,
    "h": 0.87532,
    "l": 0.87307,
    "c": 0.87488,
    "v": 2560
  },
  {
    "dt": "2023.10.31 13:00",
    "o": 0.87485,
    "h": 0.87504,
    "l": 0.87405,
    "c": 0.87421,
    "v": 2114
  },
  {
    "dt": "2023.10.31 14:00",
    "o": 0.87421,
    "h": 0.87519,
    "l": 0.874,
    "c": 0.87478,
    "v": 1723
  },
  {
    "dt": "2023.10.31 15:00",
    "o": 0.87479,
    "h": 0.87499,
    "l": 0.87354,
    "c": 0.87366,
    "v": 2925
  },
  {
    "dt": "2023.10.31 16:00",
    "o": 0.87368,
    "h": 0.87396,
    "l": 0.87309,
    "c": 0.87337,
    "v": 3283
  },
  {
    "dt": "2023.10.31 17:00",
    "o": 0.87338,
    "h": 0.87369,
    "l": 0.87294,
    "c": 0.87344,
    "v": 3040
  },
  {
    "dt": "2023.10.31 18:00",
    "o": 0.87344,
    "h": 0.8735,
    "l": 0.87081,
    "c": 0.87082,
    "v": 3396
  },
  {
    "dt": "2023.10.31 19:00",
    "o": 0.87081,
    "h": 0.87115,
    "l": 0.87034,
    "c": 0.8708,
    "v": 2942
  },
  {
    "dt": "2023.10.31 20:00",
    "o": 0.87079,
    "h": 0.87084,
    "l": 0.86997,
    "c": 0.87041,
    "v": 2203
  },
  {
    "dt": "2023.10.31 21:00",
    "o": 0.8704,
    "h": 0.87087,
    "l": 0.87033,
    "c": 0.87079,
    "v": 1594
  },
  {
    "dt": "2023.10.31 22:00",
    "o": 0.87076,
    "h": 0.87095,
    "l": 0.87043,
    "c": 0.87051,
    "v": 1456
  },
  {
    "dt": "2023.10.31 23:00",
    "o": 0.87052,
    "h": 0.87087,
    "l": 0.87029,
    "c": 0.87041,
    "v": 1063
  }
]