[
  {
    "dt": "2023.07.03 00:00",
    "o": 1.13539,
    "h": 1.13624,
    "l": 1.13481,
    "c": 1.13538,
    "v": 101
  },
  {
    "dt": "2023.07.03 01:00",
    "o": 1.13531,
    "h": 1.13658,
    "l": 1.13531,
    "c": 1.13638,
    "v": 506
  },
  {
    "dt": "2023.07.03 02:00",
    "o": 1.13636,
    "h": 1.13675,
    "l": 1.13597,
    "c": 1.13624,
    "v": 801
  },
  {
    "dt": "2023.07.03 03:00",
    "o": 1.13626,
    "h": 1.13663,
    "l": 1.13614,
    "c": 1.13647,
    "v": 1424
  },
  {
    "dt": "2023.07.03 04:00",
    "o": 1.13648,
    "h": 1.13706,
    "l": 1.13613,
    "c": 1.13666,
    "v": 1475
  },
  {
    "dt": "2023.07.03 05:00",
    "o": 1.13666,
    "h": 1.1369,
    "l": 1.13644,
    "c": 1.1367,
    "v": 968
  },
  {
    "dt": "2023.07.03 06:00",
    "o": 1.13668,
    "h": 1.1371,
    "l": 1.13651,
    "c": 1.13653,
    "v": 1004
  },
  {
    "dt": "2023.07.03 07:00",
    "o": 1.13652,
    "h": 1.13692,
    "l": 1.13638,
    "c": 1.1365,
    "v": 1116
  },
  {
    "dt": "2023.07.03 08:00",
    "o": 1.1365,
    "h": 1.13742,
    "l": 1.13547,
    "c": 1.1371,
    "v": 1582
  },
  {
    "dt": "2023.07.03 09:00",
    "o": 1.13716,
    "h": 1.13963,
    "l": 1.13625,
    "c": 1.13888,
    "v": 2641
  },
  {
    "dt": "2023.07.03 10:00",
    "o": 1.13888,
    "h": 1.13909,
    "l": 1.13744,
    "c": 1.13849,
    "v": 2862
  },
  {
    "dt": "2023.07.03 11:00",
    "o": 1.13849,
    "h": 1.13952,
    "l": 1.13785,
    "c": 1.13887,
    "v": 2503
  },
  {
    "dt": "2023.07.03 12:00",
    "o": 1.13888,
    "h": 1.14067,
    "l": 1.13888,
    "c": 1.13971,
    "v": 2404
  },
  {
    "dt": "2023.07.03 13:00",
    "o": 1.1397,
    "h": 1.14079,
    "l": 1.13936,
    "c": 1.13986,
    "v": 2259
  },
  {
    "dt": "2023.07.03 14:00",
    "o": 1.13987,
    "h": 1.14016,
    "l": 1.13834,
    "c": 1.13942,
    "v": 2429
  },
  {
    "dt": "2023.07.03 15:00",
    "o": 1.13939,
    "h": 1.14027,
    "l": 1.13916,
    "c": 1.14013,
    "v": 2474
  },
  {
    "dt": "2023.07.03 16:00",
    "o": 1.14017,
    "h": 1.14041,
    "l": 1.13842,
    "c": 1.139,
    "v": 3069
  },
  {
    "dt": "2023.07.03 17:00",
    "o": 1.13883,
    "h": 1.13967,
    "l": 1.13672,
    "c": 1.13694,
    "v": 3843
  },
  {
    "dt": "2023.07.03 18:00",
    "o": 1.13707,
    "h": 1.13763,
    "l": 1.13622,
    "c": 1.13682,
    "v": 2796
  },
  {
    "dt": "2023.07.03 19:00",
    "o": 1.13681,
    "h": 1.13801,
    "l": 1.13673,
    "c": 1.13774,
    "v": 1755
  },
  {
    "dt": "2023.07.03 20:00",
    "o": 1.13775,
    "h": 1.138,
    "l": 1.13693,
    "c": 1.13696,
    "v": 887
  },
  {
    "dt": "2023.07.03 21:00",
    "o": 1.13697,
    "h": 1.13758,
    "l": 1.13682,
    "c": 1.13744,
    "v": 842
  },
  {
    "dt": "2023.07.03 22:00",
    "o": 1.13744,
    "h": 1.13774,
    "l": 1.13713,
    "c": 1.13759,
    "v": 549
  },
  {
    "dt": "2023.07.03 23:00",
    "o": 1.13757,
    "h": 1.13771,
    "l": 1.13704,
    "c": 1.13709,
    "v": 437
  },
  {
    "dt": "2023.07.04 00:00",
    "o": 1.13685,
    "h": 1.13717,
    "l": 1.1364,
    "c": 1.13676,
    "v": 125
  },
  {
    "dt": "2023.07.04 01:00",
    "o": 1.13682,
    "h": 1.13763,
    "l": 1.13665,
    "c": 1.13716,
    "v": 653
  },
  {
    "dt": "2023.07.04 02:00",
    "o": 1.13716,
    "h": 1.13767,
    "l": 1.13702,
    "c": 1.13702,
    "v": 1046
  },
  {
    "dt": "2023.07.04 03:00",
    "o": 1.13704,
    "h": 1.13802,
    "l": 1.13686,
    "c": 1.13802,
    "v": 926
  },
  {
    "dt": "2023.07.04 04:00",
    "o": 1.13802,
    "h": 1.13803,
    "l": 1.13722,
    "c": 1.13799,
    "v": 1202
  },
  {
    "dt": "2023.07.04 05:00",
    "o": 1.138,
    "h": 1.13809,
    "l": 1.13711,
    "c": 1.13718,
    "v": 887
  },
  {
    "dt": "2023.07.04 06:00",
    "o": 1.13719,
    "h": 1.13751,
    "l": 1.13699,
    "c": 1.13734,
    "v": 836
  },
  {
    "dt": "2023.07.04 07:00",
    "o": 1.13735,
    "h": 1.13818,
    "l": 1.13735,
    "c": 1.13785,
    "v": 1408
  },
  {
    "dt": "2023.07.04 08:00",
    "o": 1.13782,
    "h": 1.1382,
    "l": 1.13768,
    "c": 1.13787,
    "v": 1190
  },
  {
    "dt": "2023.07.04 09:00",
    "o": 1.13786,
    "h": 1.13854,
    "l": 1.13729,
    "c": 1.13738,
    "v": 2051
  },
  {
    "dt": "2023.07.04 10:00",
    "o": 1.13738,
    "h": 1.13827,
    "l": 1.13708,
    "c": 1.13806,
    "v": 2011
  },
  {
    "dt": "2023.07.04 11:00",
    "o": 1.13805,
    "h": 1.13846,
    "l": 1.13672,
    "c": 1.13719,
    "v": 2044
  },
  {
    "dt": "2023.07.04 12:00",
    "o": 1.13718,
    "h": 1.1374,
    "l": 1.13601,
    "c": 1.13671,
    "v": 1945
  },
  {
    "dt": "2023.07.04 13:00",
    "o": 1.1367,
    "h": 1.13839,
    "l": 1.13663,
    "c": 1.13807,
    "v": 1657
  },
  {
    "dt": "2023.07.04 14:00",
    "o": 1.13804,
    "h": 1.13969,
    "l": 1.13797,
    "c": 1.13921,
    "v": 1632
  },
  {
    "dt": "2023.07.04 15:00",
    "o": 1.13925,
    "h": 1.14035,
    "l": 1.13908,
    "c": 1.14009,
    "v": 1738
  },
  {
    "dt": "2023.07.04 16:00",
    "o": 1.14011,
    "h": 1.14019,
    "l": 1.13905,
    "c": 1.1394,
    "v": 1775
  },
  {
    "dt": "2023.07.04 17:00",
    "o": 1.13943,
    "h": 1.14023,
    "l": 1.1393,
    "c": 1.13993,
    "v": 1681
  },
  {
    "dt": "2023.07.04 18:00",
    "o": 1.13992,
    "h": 1.14064,
    "l": 1.13962,
    "c": 1.1402,
    "v": 1381
  },
  {
    "dt": "2023.07.04 19:00",
    "o": 1.14019,
    "h": 1.14049,
    "l": 1.13958,
    "c": 1.13993,
    "v": 1025
  },
  {
    "dt": "2023.07.04 20:00",
    "o": 1.13993,
    "h": 1.14035,
    "l": 1.13964,
    "c": 1.1403,
    "v": 541
  },
  {
    "dt": "2023.07.04 21:00",
    "o": 1.14031,
    "h": 1.14088,
    "l": 1.13999,
    "c": 1.14009,
    "v": 865
  },
  {
    "dt": "2023.07.04 22:00",
    "o": 1.14013,
    "h": 1.14116,
    "l": 1.14013,
    "c": 1.14076,
    "v": 753
  },
  {
    "dt": "2023.07.04 23:00",
    "o": 1.14076,
    "h": 1.14099,
    "l": 1.14037,
    "c": 1.14039,
    "v": 764
  },
  {
    "dt": "2023.07.05 00:00",
    "o": 1.13973,
    "h": 1.14014,
    "l": 1.13935,
    "c": 1.14011,
    "v": 109
  },
  {
    "dt": "2023.07.05 01:00",
    "o": 1.14016,
    "h": 1.14044,
    "l": 1.13989,
    "c": 1.14035,
    "v": 751
  },
  {
    "dt": "2023.07.05 02:00",
    "o": 1.14036,
    "h": 1.14045,
    "l": 1.14018,
    "c": 1.14039,
    "v": 507
  },
  {
    "dt": "2023.07.05 03:00",
    "o": 1.1404,
    "h": 1.14048,
    "l": 1.13971,
    "c": 1.13977,
    "v": 981
  },
  {
    "dt": "2023.07.05 04:00",
    "o": 1.13976,
    "h": 1.14026,
    "l": 1.13961,
    "c": 1.13994,
    "v": 1301
  },
  {
    "dt": "2023.07.05 05:00",
    "o": 1.13993,
    "h": 1.14008,
    "l": 1.13979,
    "c": 1.13997,
    "v": 951
  },
  {
    "dt": "2023.07.05 06:00",
    "o": 1.13996,
    "h": 1.14016,
    "l": 1.13964,
    "c": 1.14014,
    "v": 779
  },
  {
    "dt": "2023.07.05 07:00",
    "o": 1.14013,
    "h": 1.14047,
    "l": 1.14006,
    "c": 1.1403,
    "v": 726
  },
  {
    "dt": "2023.07.05 08:00",
    "o": 1.14029,
    "h": 1.14086,
    "l": 1.1397,
    "c": 1.13979,
    "v": 1354
  },
  {
    "dt": "2023.07.05 09:00",
    "o": 1.13982,
    "h": 1.14137,
    "l": 1.13965,
    "c": 1.14111,
    "v": 2183
  },
  {
    "dt": "2023.07.05 10:00",
    "o": 1.14106,
    "h": 1.14157,
    "l": 1.13933,
    "c": 1.14024,
    "v": 2656
  },
  {
    "dt": "2023.07.05 11:00",
    "o": 1.14025,
    "h": 1.1418,
    "l": 1.13987,
    "c": 1.14146,
    "v": 3025
  },
  {
    "dt": "2023.07.05 12:00",
    "o": 1.14148,
    "h": 1.14247,
    "l": 1.14099,
    "c": 1.14222,
    "v": 2448
  },
  {
    "dt": "2023.07.05 13:00",
    "o": 1.14219,
    "h": 1.14253,
    "l": 1.14072,
    "c": 1.14072,
    "v": 1945
  },
  {
    "dt": "2023.07.05 14:00",
    "o": 1.14068,
    "h": 1.1417,
    "l": 1.14032,
    "c": 1.14157,
    "v": 1791
  },
  {
    "dt": "2023.07.05 15:00",
    "o": 1.14163,
    "h": 1.14193,
    "l": 1.14068,
    "c": 1.14114,
    "v": 2623
  },
  {
    "dt": "2023.07.05 16:00",
    "o": 1.14114,
    "h": 1.14158,
    "l": 1.14066,
    "c": 1.14132,
    "v": 2957
  },
  {
    "dt": "2023.07.05 17:00",
    "o": 1.14122,
    "h": 1.14239,
    "l": 1.14114,
    "c": 1.14139,
    "v": 3197
  },
  {
    "dt": "2023.07.05 18:00",
    "o": 1.14147,
    "h": 1.14168,
    "l": 1.14079,
    "c": 1.1411,
    "v": 2365
  },
  {
    "dt": "2023.07.05 19:00",
    "o": 1.14112,
    "h": 1.1422,
    "l": 1.14075,
    "c": 1.14153,
    "v": 1446
  },
  {
    "dt": "2023.07.05 20:00",
    "o": 1.14151,
    "h": 1.14167,
    "l": 1.14095,
    "c": 1.14106,
    "v": 1272
  },
  {
    "dt": "2023.07.05 21:00",
    "o": 1.14107,
    "h": 1.14134,
    "l": 1.1406,
    "c": 1.141,
    "v": 2269
  },
  {
    "dt": "2023.07.05 22:00",
    "o": 1.14102,
    "h": 1.14166,
    "l": 1.14081,
    "c": 1.14142,
    "v": 1520
  },
  {
    "dt": "2023.07.05 23:00",
    "o": 1.14141,
    "h": 1.14173,
    "l": 1.14134,
    "c": 1.14169,
    "v": 889
  },
  {
    "dt": "2023.07.06 00:00",
    "o": 1.13994,
    "h": 1.14128,
    "l": 1.13991,
    "c": 1.1408,
    "v": 270
  },
  {
    "dt": "2023.07.06 01:00",
    "o": 1.14083,
    "h": 1.14165,
    "l": 1.14083,
    "c": 1.14133,
    "v": 457
  },
  {
    "dt": "2023.07.06 02:00",
    "o": 1.14132,
    "h": 1.14171,
    "l": 1.14122,
    "c": 1.14143,
    "v": 507
  },
  {
    "dt": "2023.07.06 03:00",
    "o": 1.14147,
    "h": 1.14162,
    "l": 1.14084,
    "c": 1.14105,
    "v": 1111
  },
  {
    "dt": "2023.07.06 04:00",
    "o": 1.14106,
    "h": 1.14132,
    "l": 1.14069,
    "c": 1.1412,
    "v": 1466
  },
  {
    "dt": "2023.07.06 05:00",
    "o": 1.14121,
    "h": 1.14163,
    "l": 1.14103,
    "c": 1.1413,
    "v": 1300
  },
  {
    "dt": "2023.07.06 06:00",
    "o": 1.1413,
    "h": 1.14135,
    "l": 1.14049,
    "c": 1.14049,
    "v": 1387
  },
  {
    "dt": "2023.07.06 07:00",
    "o": 1.14049,
    "h": 1.14152,
    "l": 1.1404,
    "c": 1.14131,
    "v": 1740
  },
  {
    "dt": "2023.07.06 08:00",
    "o": 1.14133,
    "h": 1.14146,
    "l": 1.14046,
    "c": 1.14058,
    "v": 1516
  },
  {
    "dt": "2023.07.06 09:00",
    "o": 1.14064,
    "h": 1.14092,
    "l": 1.1398,
    "c": 1.14063,
    "v": 2658
  },
  {
    "dt": "2023.07.06 10:00",
    "o": 1.14062,
    "h": 1.14264,
    "l": 1.1397,
    "c": 1.14234,
    "v": 3126
  },
  {
    "dt": "2023.07.06 11:00",
    "o": 1.14235,
    "h": 1.14304,
    "l": 1.14069,
    "c": 1.14069,
    "v": 2884
  },
  {
    "dt": "2023.07.06 12:00",
    "o": 1.14072,
    "h": 1.14299,
    "l": 1.13979,
    "c": 1.14285,
    "v": 2523
  },
  {
    "dt": "2023.07.06 13:00",
    "o": 1.14284,
    "h": 1.14489,
    "l": 1.14247,
    "c": 1.14433,
    "v": 2676
  },
  {
    "dt": "2023.07.06 14:00",
    "o": 1.14433,
    "h": 1.14443,
    "l": 1.14259,
    "c": 1.14371,
    "v": 2228
  },
  {
    "dt": "2023.07.06 15:00",
    "o": 1.14372,
    "h": 1.14469,
    "l": 1.14307,
    "c": 1.14406,
    "v": 4677
  },
  {
    "dt": "2023.07.06 16:00",
    "o": 1.14403,
    "h": 1.14521,
    "l": 1.14144,
    "c": 1.14185,
    "v": 4380
  },
  {
    "dt": "2023.07.06 17:00",
    "o": 1.14128,
    "h": 1.14236,
    "l": 1.13805,
    "c": 1.1384,
    "v": 4599
  },
  {
    "dt": "2023.07.06 18:00",
    "o": 1.13841,
    "h": 1.14046,
    "l": 1.13809,
    "c": 1.14025,
    "v": 3359
  },
  {
    "dt": "2023.07.06 19:00",
    "o": 1.14025,
    "h": 1.14102,
    "l": 1.13997,
    "c": 1.14075,
    "v": 2493
  },
  {
    "dt": "2023.07.06 20:00",
    "o": 1.14073,
    "h": 1.1409,
    "l": 1.14025,
    "c": 1.14055,
    "v": 1872
  },
  {
    "dt": "2023.07.06 21:00",
    "o": 1.14053,
    "h": 1.14164,
    "l": 1.1405,
    "c": 1.14157,
    "v": 1471
  },
  {
    "dt": "2023.07.06 22:00",
    "o": 1.14155,
    "h": 1.14155,
    "l": 1.14096,
    "c": 1.141,
    "v": 1370
  },
  {
    "dt": "2023.07.06 23:00",
    "o": 1.14098,
    "h": 1.14112,
    "l": 1.14012,
    "c": 1.14032,
    "v": 1053
  },
  {
    "dt": "2023.07.07 00:00",
    "o": 1.13973,
    "h": 1.14048,
    "l": 1.13964,
    "c": 1.14013,
    "v": 155
  },
  {
    "dt": "2023.07.07 01:00",
    "o": 1.14019,
    "h": 1.14065,
    "l": 1.14002,
    "c": 1.14058,
    "v": 600
  },
  {
    "dt": "2023.07.07 02:00",
    "o": 1.14059,
    "h": 1.14082,
    "l": 1.14039,
    "c": 1.14074,
    "v": 493
  },
  {
    "dt": "2023.07.07 03:00",
    "o": 1.14074,
    "h": 1.14147,
    "l": 1.14065,
    "c": 1.14131,
    "v": 1230
  },
  {
    "dt": "2023.07.07 04:00",
    "o": 1.1413,
    "h": 1.14138,
    "l": 1.14105,
    "c": 1.14131,
    "v": 1096
  },
  {
    "dt": "2023.07.07 05:00",
    "o": 1.1413,
    "h": 1.14136,
    "l": 1.14026,
    "c": 1.1403,
    "v": 918
  },
  {
    "dt": "2023.07.07 06:00",
    "o": 1.1403,
    "h": 1.14117,
    "l": 1.14017,
    "c": 1.14115,
    "v": 846
  },
  {
    "dt": "2023.07.07 07:00",
    "o": 1.14117,
    "h": 1.14135,
    "l": 1.14095,
    "c": 1.14124,
    "v": 1002
  },
  {
    "dt": "2023.07.07 08:00",
    "o": 1.14125,
    "h": 1.14163,
    "l": 1.14092,
    "c": 1.14152,
    "v": 1632
  },
  {
    "dt": "2023.07.07 09:00",
    "o": 1.1415,
    "h": 1.14159,
    "l": 1.1403,
    "c": 1.14067,
    "v": 2197
  },
  {
    "dt": "2023.07.07 10:00",
    "o": 1.1407,
    "h": 1.14103,
    "l": 1.13982,
    "c": 1.14041,
    "v": 2963
  },
  {
    "dt": "2023.07.07 11:00",
    "o": 1.14044,
    "h": 1.14161,
    "l": 1.14028,
    "c": 1.1406,
    "v": 2871
  },
  {
    "dt": "2023.07.07 12:00",
    "o": 1.14062,
    "h": 1.14207,
    "l": 1.13999,
    "c": 1.14192,
    "v": 2813
  },
  {
    "dt": "2023.07.07 13:00",
    "o": 1.14192,
    "h": 1.14303,
    "l": 1.14158,
    "c": 1.14248,
    "v": 2211
  },
  {
    "dt": "2023.07.07 14:00",
    "o": 1.14248,
    "h": 1.14331,
    "l": 1.14207,
    "c": 1.14279,
    "v": 2470
  },
  {
    "dt": "2023.07.07 15:00",
    "o": 1.14277,
    "h": 1.14421,
    "l": 1.14122,
    "c": 1.14144,
    "v": 4338
  },
  {
    "dt": "2023.07.07 16:00",
    "o": 1.14149,
    "h": 1.14189,
    "l": 1.14056,
    "c": 1.14157,
    "v": 4588
  },
  {
    "dt": "2023.07.07 17:00",
    "o": 1.14158,
    "h": 1.1421,
    "l": 1.14038,
    "c": 1.14127,
    "v": 4126
  },
  {
    "dt": "2023.07.07 18:00",
    "o": 1.14125,
    "h": 1.14203,
    "l": 1.14085,
    "c": 1.14093,
    "v": 2929
  },
  {
    "dt": "2023.07.07 19:00",
    "o": 1.14091,
    "h": 1.14117,
    "l": 1.13985,
    "c": 1.14087,
    "v": 2327
  },
  {
    "dt": "2023.07.07 20:00",
    "o": 1.14086,
    "h": 1.14089,
    "l": 1.13993,
    "c": 1.1402,
    "v": 1814
  },
  {
    "dt": "2023.07.07 21:00",
    "o": 1.14019,
    "h": 1.14073,
    "l": 1.1401,
    "c": 1.14067,
    "v": 1520
  },
  {
    "dt": "2023.07.07 22:00",
    "o": 1.14068,
    "h": 1.14096,
    "l": 1.14036,
    "c": 1.14042,
    "v": 1195
  },
  {
    "dt": "2023.07.07 23:00",
    "o": 1.1404,
    "h": 1.14158,
    "l": 1.14034,
    "c": 1.14135,
    "v": 846
  },
  {
    "dt": "2023.07.10 00:00",
    "o": 1.14077,
    "h": 1.14077,
    "l": 1.13984,
    "c": 1.13999,
    "v": 173
  },
  {
    "dt": "2023.07.10 01:00",
    "o": 1.14009,
    "h": 1.14124,
    "l": 1.14009,
    "c": 1.141,
    "v": 941
  },
  {
    "dt": "2023.07.10 02:00",
    "o": 1.14099,
    "h": 1.14147,
    "l": 1.14094,
    "c": 1.14119,
    "v": 606
  },
  {
    "dt": "2023.07.10 03:00",
    "o": 1.14117,
    "h": 1.1415,
    "l": 1.14069,
    "c": 1.14076,
    "v": 1428
  },
  {
    "dt": "2023.07.10 04:00",
    "o": 1.14076,
    "h": 1.14141,
    "l": 1.1407,
    "c": 1.14097,
    "v": 1746
  },
  {
    "dt": "2023.07.10 05:00",
    "o": 1.14095,
    "h": 1.14132,
    "l": 1.14073,
    "c": 1.14089,
    "v": 1471
  },
  {
    "dt": "2023.07.10 06:00",
    "o": 1.14091,
    "h": 1.14107,
    "l": 1.14065,
    "c": 1.14085,
    "v": 1226
  },
  {
    "dt": "2023.07.10 07:00",
    "o": 1.14083,
    "h": 1.14132,
    "l": 1.14062,
    "c": 1.14102,
    "v": 996
  },
  {
    "dt": "2023.07.10 08:00",
    "o": 1.14101,
    "h": 1.14146,
    "l": 1.14065,
    "c": 1.14106,
    "v": 1475
  },
  {
    "dt": "2023.07.10 09:00",
    "o": 1.14109,
    "h": 1.14116,
    "l": 1.14037,
    "c": 1.14088,
    "v": 2162
  },
  {
    "dt": "2023.07.10 10:00",
    "o": 1.1409,
    "h": 1.14101,
    "l": 1.13953,
    "c": 1.14101,
    "v": 2662
  },
  {
    "dt": "2023.07.10 11:00",
    "o": 1.14096,
    "h": 1.14125,
    "l": 1.13926,
    "c": 1.13992,
    "v": 2272
  },
  {
    "dt": "2023.07.10 12:00",
    "o": 1.13994,
    "h": 1.14022,
    "l": 1.13832,
    "c": 1.13875,
    "v": 2038
  },
  {
    "dt": "2023.07.10 13:00",
    "o": 1.13878,
    "h": 1.13914,
    "l": 1.13753,
    "c": 1.13782,
    "v": 2075
  },
  {
    "dt": "2023.07.10 14:00",
    "o": 1.13776,
    "h": 1.13829,
    "l": 1.13682,
    "c": 1.13759,
    "v": 2243
  },
  {
    "dt": "2023.07.10 15:00",
    "o": 1.13758,
    "h": 1.13786,
    "l": 1.13665,
    "c": 1.13691,
    "v": 3015
  },
  {
    "dt": "2023.07.10 16:00",
    "o": 1.13693,
    "h": 1.13797,
    "l": 1.13683,
    "c": 1.1371,
    "v": 3443
  },
  {
    "dt": "2023.07.10 17:00",
    "o": 1.13711,
    "h": 1.13869,
    "l": 1.1359,
    "c": 1.1384,
    "v": 3331
  },
  {
    "dt": "2023.07.10 18:00",
    "o": 1.13842,
    "h": 1.13895,
    "l": 1.13764,
    "c": 1.13827,
    "v": 2768
  },
  {
    "dt": "2023.07.10 19:00",
    "o": 1.13828,
    "h": 1.13901,
    "l": 1.13826,
    "c": 1.13875,
    "v": 2162
  },
  {
    "dt": "2023.07.10 20:00",
    "o": 1.13873,
    "h": 1.13895,
    "l": 1.13829,
    "c": 1.13836,
    "v": 1325
  },
  {
    "dt": "2023.07.10 21:00",
    "o": 1.13837,
    "h": 1.13863,
    "l": 1.13802,
    "c": 1.13824,
    "v": 1397
  },
  {
    "dt": "2023.07.10 22:00",
    "o": 1.13821,
    "h": 1.13947,
    "l": 1.13814,
    "c": 1.13903,
    "v": 1321
  },
  {
    "dt": "2023.07.10 23:00",
    "o": 1.13902,
    "h": 1.13906,
    "l": 1.1383,
    "c": 1.13851,
    "v": 698
  },
  {
    "dt": "2023.07.11 00:00",
    "o": 1.13874,
    "h": 1.13927,
    "l": 1.13772,
    "c": 1.1382,
    "v": 194
  },
  {
    "dt": "2023.07.11 01:00",
    "o": 1.13833,
    "h": 1.13896,
    "l": 1.13789,
    "c": 1.13885,
    "v": 647
  },
  {
    "dt": "2023.07.11 02:00",
    "o": 1.13883,
    "h": 1.13895,
    "l": 1.13853,
    "c": 1.13857,
    "v": 546
  },
  {
    "dt": "2023.07.11 03:00",
    "o": 1.13858,
    "h": 1.13886,
    "l": 1.13808,
    "c": 1.13881,
    "v": 1206
  },
  {
    "dt": "2023.07.11 04:00",
    "o": 1.1388,
    "h": 1.13892,
    "l": 1.13849,
    "c": 1.13858,
    "v": 1198
  },
  {
    "dt": "2023.07.11 05:00",
    "o": 1.13858,
    "h": 1.13871,
    "l": 1.13784,
    "c": 1.13846,
    "v": 1297
  },
  {
    "dt": "2023.07.11 06:00",
    "o": 1.13849,
    "h": 1.13889,
    "l": 1.13838,
    "c": 1.13871,
    "v": 1138
  },
  {
    "dt": "2023.07.11 07:00",
    "o": 1.13871,
    "h": 1.13905,
    "l": 1.13848,
    "c": 1.13873,
    "v": 1031
  },
  {
    "dt": "2023.07.11 08:00",
    "o": 1.13877,
    "h": 1.13934,
    "l": 1.13813,
    "c": 1.13859,
    "v": 1607
  },
  {
    "dt": "2023.07.11 09:00",
    "o": 1.13874,
    "h": 1.14001,
    "l": 1.13781,
    "c": 1.1382,
    "v": 3111
  },
  {
    "dt": "2023.07.11 10:00",
    "o": 1.1382,
    "h": 1.13865,
    "l": 1.13533,
    "c": 1.13588,
    "v": 3340
  },
  {
    "dt": "2023.07.11 11:00",
    "o": 1.13587,
    "h": 1.13669,
    "l": 1.13531,
    "c": 1.13622,
    "v": 2508
  },
  {
    "dt": "2023.07.11 12:00",
    "o": 1.13625,
    "h": 1.13977,
    "l": 1.1362,
    "c": 1.13964,
    "v": 2510
  },
  {
    "dt": "2023.07.11 13:00",
    "o": 1.13962,
    "h": 1.1401,
    "l": 1.13816,
    "c": 1.13833,
    "v": 2028
  },
  {
    "dt": "2023.07.11 14:00",
    "o": 1.13832,
    "h": 1.13917,
    "l": 1.13756,
    "c": 1.13891,
    "v": 2278
  },
  {
    "dt": "2023.07.11 15:00",
    "o": 1.13891,
    "h": 1.13946,
    "l": 1.13783,
    "c": 1.13907,
    "v": 2973
  },
  {
    "dt": "2023.07.11 16:00",
    "o": 1.13907,
    "h": 1.13931,
    "l": 1.13814,
    "c": 1.13838,
    "v": 3215
  },
  {
    "dt": "2023.07.11 17:00",
    "o": 1.13839,
    "h": 1.13839,
    "l": 1.13681,
    "c": 1.13754,
    "v": 3117
  },
  {
    "dt": "2023.07.11 18:00",
    "o": 1.13758,
    "h": 1.13785,
    "l": 1.13542,
    "c": 1.13582,
    "v": 2750
  },
  {
    "dt": "2023.07.11 19:00",
    "o": 1.13581,
    "h": 1.13707,
    "l": 1.13534,
    "c": 1.13707,
    "v": 2146
  },
  {
    "dt": "2023.07.11 20:00",
    "o": 1.13706,
    "h": 1.1374,
    "l": 1.13634,
    "c": 1.1366,
    "v": 1230
  },
  {
    "dt": "2023.07.11 21:00",
    "o": 1.13664,
    "h": 1.13751,
    "l": 1.13656,
    "c": 1.13745,
    "v": 1175
  },
  {
    "dt": "2023.07.11 22:00",
    "o": 1.13743,
    "h": 1.13753,
    "l": 1.13714,
    "c": 1.13748,
    "v": 1226
  },
  {
    "dt": "2023.07.11 23:00",
    "o": 1.1375,
    "h": 1.13759,
    "l": 1.13693,
    "c": 1.1371,
    "v": 744
  },
  {
    "dt": "2023.07.12 00:00",
    "o": 1.13704,
    "h": 1.13715,
    "l": 1.1362,
    "c": 1.13655,
    "v": 233
  },
  {
    "dt": "2023.07.12 01:00",
    "o": 1.13655,
    "h": 1.13718,
    "l": 1.13651,
    "c": 1.13703,
    "v": 501
  },
  {
    "dt": "2023.07.12 02:00",
    "o": 1.13707,
    "h": 1.13717,
    "l": 1.13649,
    "c": 1.13653,
    "v": 523
  },
  {
    "dt": "2023.07.12 03:00",
    "o": 1.13652,
    "h": 1.13719,
    "l": 1.1364,
    "c": 1.13708,
    "v": 1813
  },
  {
    "dt": "2023.07.12 04:00",
    "o": 1.13706,
    "h": 1.13805,
    "l": 1.13697,
    "c": 1.13795,
    "v": 1885
  },
  {
    "dt": "2023.07.12 05:00",
    "o": 1.13795,
    "h": 1.1384,
    "l": 1.13784,
    "c": 1.13821,
    "v": 1754
  },
  {
    "dt": "2023.07.12 06:00",
    "o": 1.13821,
    "h": 1.13839,
    "l": 1.13771,
    "c": 1.13815,
    "v": 1243
  },
  {
    "dt": "2023.07.12 07:00",
    "o": 1.13818,
    "h": 1.1383,
    "l": 1.13765,
    "c": 1.1377,
    "v": 1313
  },
  {
    "dt": "2023.07.12 08:00",
    "o": 1.1377,
    "h": 1.13799,
    "l": 1.13689,
    "c": 1.137,
    "v": 1690
  },
  {
    "dt": "2023.07.12 09:00",
    "o": 1.13698,
    "h": 1.13729,
    "l": 1.13591,
    "c": 1.13596,
    "v": 2289
  },
  {
    "dt": "2023.07.12 10:00",
    "o": 1.13599,
    "h": 1.13708,
    "l": 1.13512,
    "c": 1.137,
    "v": 2634
  },
  {
    "dt": "2023.07.12 11:00",
    "o": 1.13699,
    "h": 1.13725,
    "l": 1.13534,
    "c": 1.13536,
    "v": 2830
  },
  {
    "dt": "2023.07.12 12:00",
    "o": 1.13536,
    "h": 1.13587,
    "l": 1.13474,
    "c": 1.13532,
    "v": 2513
  },
  {
    "dt": "2023.07.12 13:00",
    "o": 1.1353,
    "h": 1.13544,
    "l": 1.13418,
    "c": 1.13439,
    "v": 2118
  },
  {
    "dt": "2023.07.12 14:00",
    "o": 1.13439,
    "h": 1.1351,
    "l": 1.13385,
    "c": 1.13437,
    "v": 2458
  },
  {
    "dt": "2023.07.12 15:00",
    "o": 1.13442,
    "h": 1.13545,
    "l": 1.13074,
    "c": 1.1326,
    "v": 4499
  },
  {
    "dt": "2023.07.12 16:00",
    "o": 1.13256,
    "h": 1.13304,
    "l": 1.12949,
    "c": 1.12963,
    "v": 4806
  },
  {
    "dt": "2023.07.12 17:00",
    "o": 1.12967,
    "h": 1.12999,
    "l": 1.12554,
    "c": 1.12691,
    "v": 4398
  },
  {
    "dt": "2023.07.12 18:00",
    "o": 1.12694,
    "h": 1.12908,
    "l": 1.12665,
    "c": 1.12711,
    "v": 3269
  },
  {
    "dt": "2023.07.12 19:00",
    "o": 1.12711,
    "h": 1.12777,
    "l": 1.12671,
    "c": 1.12763,
    "v": 2390
  },
  {
    "dt": "2023.07.12 20:00",
    "o": 1.12761,
    "h": 1.12792,
    "l": 1.12617,
    "c": 1.12634,
    "v": 2343
  },
  {
    "dt": "2023.07.12 21:00",
    "o": 1.12635,
    "h": 1.12681,
    "l": 1.12611,
    "c": 1.12619,
    "v": 1721
  },
  {
    "dt": "2023.07.12 22:00",
    "o": 1.12621,
    "h": 1.12704,
    "l": 1.12605,
    "c": 1.1269,
    "v": 2068
  },
  {
    "dt": "2023.07.12 23:00",
    "o": 1.12686,
    "h": 1.1269,
    "l": 1.12641,
    "c": 1.1267,
    "v": 787
  },
  {
    "dt": "2023.07.13 00:00",
    "o": 1.12673,
    "h": 1.12673,
    "l": 1.1252,
    "c": 1.12579,
    "v": 105
  },
  {
    "dt": "2023.07.13 01:00",
    "o": 1.12604,
    "h": 1.12651,
    "l": 1.12599,
    "c": 1.1263,
    "v": 879
  },
  {
    "dt": "2023.07.13 02:00",
    "o": 1.12631,
    "h": 1.1265,
    "l": 1.12616,
    "c": 1.12624,
    "v": 650
  },
  {
    "dt": "2023.07.13 03:00",
    "o": 1.12624,
    "h": 1.12659,
    "l": 1.12567,
    "c": 1.12592,
    "v": 1370
  },
  {
    "dt": "2023.07.13 04:00",
    "o": 1.12602,
    "h": 1.12647,
    "l": 1.12592,
    "c": 1.12635,
    "v": 1520
  },
  {
    "dt": "2023.07.13 05:00",
    "o": 1.12629,
    "h": 1.12666,
    "l": 1.12585,
    "c": 1.12644,
    "v": 1330
  },
  {
    "dt": "2023.07.13 06:00",
    "o": 1.12643,
    "h": 1.12673,
    "l": 1.12614,
    "c": 1.12618,
    "v": 1173
  },
  {
    "dt": "2023.07.13 07:00",
    "o": 1.12618,
    "h": 1.1264,
    "l": 1.12594,
    "c": 1.12613,
    "v": 1056
  },
  {
    "dt": "2023.07.13 08:00",
    "o": 1.12614,
    "h": 1.12649,
    "l": 1.1248,
    "c": 1.12538,
    "v": 1602
  },
  {
    "dt": "2023.07.13 09:00",
    "o": 1.12535,
    "h": 1.12675,
    "l": 1.12269,
    "c": 1.12328,
    "v": 3070
  },
  {
    "dt": "2023.07.13 10:00",
    "o": 1.12336,
    "h": 1.12611,
    "l": 1.12323,
    "c": 1.12465,
    "v": 3468
  },
  {
    "dt": "2023.07.13 11:00",
    "o": 1.12464,
    "h": 1.12708,
    "l": 1.12433,
    "c": 1.12554,
    "v": 3160
  },
  {
    "dt": "2023.07.13 12:00",
    "o": 1.12552,
    "h": 1.12907,
    "l": 1.125,
    "c": 1.12794,
    "v": 2505
  },
  {
    "dt": "2023.07.13 13:00",
    "o": 1.12793,
    "h": 1.12837,
    "l": 1.12667,
    "c": 1.12739,
    "v": 2202
  },
  {
    "dt": "2023.07.13 14:00",
    "o": 1.1274,
    "h": 1.128,
    "l": 1.12696,
    "c": 1.12699,
    "v": 2280
  },
  {
    "dt": "2023.07.13 15:00",
    "o": 1.127,
    "h": 1.12847,
    "l": 1.12612,
    "c": 1.12794,
    "v": 4092
  },
  {
    "dt": "2023.07.13 16:00",
    "o": 1.12799,
    "h": 1.12924,
    "l": 1.12664,
    "c": 1.12685,
    "v": 4162
  },
  {
    "dt": "2023.07.13 17:00",
    "o": 1.12686,
    "h": 1.12696,
    "l": 1.12456,
    "c": 1.12646,
    "v": 3550
  },
  {
    "dt": "2023.07.13 18:00",
    "o": 1.12647,
    "h": 1.12707,
    "l": 1.12512,
    "c": 1.12559,
    "v": 2680
  },
  {
    "dt": "2023.07.13 19:00",
    "o": 1.12559,
    "h": 1.12603,
    "l": 1.1251,
    "c": 1.12585,
    "v": 1983
  },
  {
    "dt": "2023.07.13 20:00",
    "o": 1.1259,
    "h": 1.12687,
    "l": 1.12539,
    "c": 1.12683,
    "v": 1426
  },
  {
    "dt": "2023.07.13 21:00",
    "o": 1.12683,
    "h": 1.12752,
    "l": 1.1264,
    "c": 1.1275,
    "v": 1797
  },
  {
    "dt": "2023.07.13 22:00",
    "o": 1.12749,
    "h": 1.12825,
    "l": 1.12722,
    "c": 1.12808,
    "v": 1537
  },
  {
    "dt": "2023.07.13 23:00",
    "o": 1.12807,
    "h": 1.12823,
    "l": 1.12758,
    "c": 1.12789,
    "v": 901
  },
  {
    "dt": "2023.07.14 00:00",
    "o": 1.12832,
    "h": 1.1284,
    "l": 1.12673,
    "c": 1.12723,
    "v": 258
  },
  {
    "dt": "2023.07.14 01:00",
    "o": 1.12734,
    "h": 1.12811,
    "l": 1.12734,
    "c": 1.12794,
    "v": 805
  },
  {
    "dt": "2023.07.14 02:00",
    "o": 1.12799,
    "h": 1.1281,
    "l": 1.12748,
    "c": 1.12779,
    "v": 646
  },
  {
    "dt": "2023.07.14 03:00",
    "o": 1.12784,
    "h": 1.12803,
    "l": 1.12665,
    "c": 1.12669,
    "v": 1619
  },
  {
    "dt": "2023.07.14 04:00",
    "o": 1.12665,
    "h": 1.12712,
    "l": 1.12594,
    "c": 1.12603,
    "v": 1768
  },
  {
    "dt": "2023.07.14 05:00",
    "o": 1.12604,
    "h": 1.12621,
    "l": 1.12567,
    "c": 1.12611,
    "v": 1263
  },
  {
    "dt": "2023.07.14 06:00",
    "o": 1.12611,
    "h": 1.12638,
    "l": 1.12584,
    "c": 1.12614,
    "v": 1151
  },
  {
    "dt": "2023.07.14 07:00",
    "o": 1.12614,
    "h": 1.1262,
    "l": 1.12551,
    "c": 1.1262,
    "v": 1057
  },
  {
    "dt": "2023.07.14 08:00",
    "o": 1.12615,
    "h": 1.12637,
    "l": 1.12553,
    "c": 1.12621,
    "v": 1600
  },
  {
    "dt": "2023.07.14 09:00",
    "o": 1.12618,
    "h": 1.12648,
    "l": 1.12519,
    "c": 1.12604,
    "v": 2550
  },
  {
    "dt": "2023.07.14 10:00",
    "o": 1.12608,
    "h": 1.1266,
    "l": 1.12515,
    "c": 1.12539,
    "v": 2783
  },
  {
    "dt": "2023.07.14 11:00",
    "o": 1.12539,
    "h": 1.1254,
    "l": 1.12396,
    "c": 1.125,
    "v": 2421
  },
  {
    "dt": "2023.07.14 12:00",
    "o": 1.12501,
    "h": 1.12648,
    "l": 1.12478,
    "c": 1.12563,
    "v": 2277
  },
  {
    "dt": "2023.07.14 13:00",
    "o": 1.12567,
    "h": 1.1266,
    "l": 1.12504,
    "c": 1.12623,
    "v": 2503
  },
  {
    "dt": "2023.07.14 14:00",
    "o": 1.12622,
    "h": 1.12734,
    "l": 1.12594,
    "c": 1.127,
    "v": 2082
  },
  {
    "dt": "2023.07.14 15:00",
    "o": 1.12688,
    "h": 1.12909,
    "l": 1.12632,
    "c": 1.12873,
    "v": 3018
  },
  {
    "dt": "2023.07.14 16:00",
    "o": 1.12871,
    "h": 1.13049,
    "l": 1.12814,
    "c": 1.12999,
    "v": 3204
  },
  {
    "dt": "2023.07.14 17:00",
    "o": 1.12999,
    "h": 1.13043,
    "l": 1.12777,
    "c": 1.12807,
    "v": 4719
  },
  {
    "dt": "2023.07.14 18:00",
    "o": 1.12809,
    "h": 1.13035,
    "l": 1.12795,
    "c": 1.12965,
    "v": 2356
  },
  {
    "dt": "2023.07.14 19:00",
    "o": 1.12966,
    "h": 1.13014,
    "l": 1.1291,
    "c": 1.1295,
    "v": 1785
  },
  {
    "dt": "2023.07.14 20:00",
    "o": 1.1295,
    "h": 1.12999,
    "l": 1.12941,
    "c": 1.12943,
    "v": 1229
  },
  {
    "dt": "2023.07.14 21:00",
    "o": 1.12941,
    "h": 1.12999,
    "l": 1.12924,
    "c": 1.12925,
    "v": 959
  },
  {
    "dt": "2023.07.14 22:00",
    "o": 1.12929,
    "h": 1.12947,
    "l": 1.12883,
    "c": 1.1289,
    "v": 1189
  },
  {
    "dt": "2023.07.14 23:00",
    "o": 1.12892,
    "h": 1.12902,
    "l": 1.12808,
    "c": 1.12814,
    "v": 1120
  },
  {
    "dt": "2023.07.17 00:00",
    "o": 1.12745,
    "h": 1.12821,
    "l": 1.12546,
    "c": 1.12815,
    "v": 112
  },
  {
    "dt": "2023.07.17 01:00",
    "o": 1.12818,
    "h": 1.12933,
    "l": 1.12751,
    "c": 1.12831,
    "v": 1015
  },
  {
    "dt": "2023.07.17 02:00",
    "o": 1.12831,
    "h": 1.1284,
    "l": 1.12806,
    "c": 1.12824,
    "v": 865
  },
  {
    "dt": "2023.07.17 03:00",
    "o": 1.12823,
    "h": 1.12848,
    "l": 1.12782,
    "c": 1.12816,
    "v": 1073
  },
  {
    "dt": "2023.07.17 04:00",
    "o": 1.12817,
    "h": 1.12828,
    "l": 1.12733,
    "c": 1.12742,
    "v": 1413
  },
  {
    "dt": "2023.07.17 05:00",
    "o": 1.12736,
    "h": 1.12748,
    "l": 1.12667,
    "c": 1.12715,
    "v": 1119
  },
  {
    "dt": "2023.07.17 06:00",
    "o": 1.12715,
    "h": 1.12734,
    "l": 1.12703,
    "c": 1.12716,
    "v": 846
  },
  {
    "dt": "2023.07.17 07:00",
    "o": 1.12716,
    "h": 1.1273,
    "l": 1.12682,
    "c": 1.12685,
    "v": 788
  },
  {
    "dt": "2023.07.17 08:00",
    "o": 1.12684,
    "h": 1.12706,
    "l": 1.12614,
    "c": 1.12686,
    "v": 1385
  },
  {
    "dt": "2023.07.17 09:00",
    "o": 1.12686,
    "h": 1.12723,
    "l": 1.12443,
    "c": 1.12515,
    "v": 2392
  },
  {
    "dt": "2023.07.17 10:00",
    "o": 1.1252,
    "h": 1.1263,
    "l": 1.1249,
    "c": 1.12586,
    "v": 2441
  },
  {
    "dt": "2023.07.17 11:00",
    "o": 1.12584,
    "h": 1.12586,
    "l": 1.12349,
    "c": 1.12473,
    "v": 2327
  },
  {
    "dt": "2023.07.17 12:00",
    "o": 1.12477,
    "h": 1.12501,
    "l": 1.12258,
    "c": 1.1234,
    "v": 2343
  },
  {
    "dt": "2023.07.17 13:00",
    "o": 1.12339,
    "h": 1.12443,
    "l": 1.12313,
    "c": 1.12343,
    "v": 1615
  },
  {
    "dt": "2023.07.17 14:00",
    "o": 1.12341,
    "h": 1.12434,
    "l": 1.12292,
    "c": 1.12432,
    "v": 1891
  },
  {
    "dt": "2023.07.17 15:00",
    "o": 1.12429,
    "h": 1.12518,
    "l": 1.12371,
    "c": 1.12427,
    "v": 3241
  },
  {
    "dt": "2023.07.17 16:00",
    "o": 1.12426,
    "h": 1.12677,
    "l": 1.12417,
    "c": 1.12567,
    "v": 3286
  },
  {
    "dt": "2023.07.17 17:00",
    "o": 1.12564,
    "h": 1.12624,
    "l": 1.12509,
    "c": 1.12528,
    "v": 2748
  },
  {
    "dt": "2023.07.17 18:00",
    "o": 1.12525,
    "h": 1.12612,
    "l": 1.1246,
    "c": 1.12477,
    "v": 1827
  },
  {
    "dt": "2023.07.17 19:00",
    "o": 1.12474,
    "h": 1.12521,
    "l": 1.12468,
    "c": 1.12501,
    "v": 1159
  },
  {
    "dt": "2023.07.17 20:00",
    "o": 1.125,
    "h": 1.12566,
    "l": 1.12494,
    "c": 1.12523,
    "v": 1142
  },
  {
    "dt": "2023.07.17 21:00",
    "o": 1.12524,
    "h": 1.12535,
    "l": 1.12452,
    "c": 1.12486,
    "v": 1005
  },
  {
    "dt": "2023.07.17 22:00",
    "o": 1.12485,
    "h": 1.12521,
    "l": 1.12439,
    "c": 1.12459,
    "v": 811
  },
  {
    "dt": "2023.07.17 23:00",
    "o": 1.12458,
    "h": 1.12504,
    "l": 1.12406,
    "c": 1.12447,
    "v": 966
  },
  {
    "dt": "2023.07.18 00:00",
    "o": 1.12449,
    "h": 1.12476,
    "l": 1.12356,
    "c": 1.12417,
    "v": 207
  },
  {
    "dt": "2023.07.18 01:00",
    "o": 1.12413,
    "h": 1.12495,
    "l": 1.12404,
    "c": 1.12487,
    "v": 570
  },
  {
    "dt": "2023.07.18 02:00",
    "o": 1.12488,
    "h": 1.12496,
    "l": 1.12445,
    "c": 1.12452,
    "v": 365
  },
  {
    "dt": "2023.07.18 03:00",
    "o": 1.12453,
    "h": 1.12499,
    "l": 1.12449,
    "c": 1.12468,
    "v": 1197
  },
  {
    "dt": "2023.07.18 04:00",
    "o": 1.1247,
    "h": 1.12496,
    "l": 1.12439,
    "c": 1.12448,
    "v": 1786
  },
  {
    "dt": "2023.07.18 05:00",
    "o": 1.12443,
    "h": 1.12456,
    "l": 1.12421,
    "c": 1.12446,
    "v": 1268
  },
  {
    "dt": "2023.07.18 06:00",
    "o": 1.12448,
    "h": 1.12475,
    "l": 1.12423,
    "c": 1.12435,
    "v": 982
  },
  {
    "dt": "2023.07.18 07:00",
    "o": 1.12435,
    "h": 1.12458,
    "l": 1.12419,
    "c": 1.12422,
    "v": 861
  },
  {
    "dt": "2023.07.18 08:00",
    "o": 1.12421,
    "h": 1.12447,
    "l": 1.12351,
    "c": 1.12416,
    "v": 1349
  },
  {
    "dt": "2023.07.18 09:00",
    "o": 1.12415,
    "h": 1.12494,
    "l": 1.12296,
    "c": 1.12297,
    "v": 2388
  },
  {
    "dt": "2023.07.18 10:00",
    "o": 1.12293,
    "h": 1.12396,
    "l": 1.1223,
    "c": 1.12237,
    "v": 3168
  },
  {
    "dt": "2023.07.18 11:00",
    "o": 1.12238,
    "h": 1.12402,
    "l": 1.12234,
    "c": 1.12367,
    "v": 2997
  },
  {
    "dt": "2023.07.18 12:00",
    "o": 1.12366,
    "h": 1.12483,
    "l": 1.12365,
    "c": 1.1245,
    "v": 2106
  },
  {
    "dt": "2023.07.18 13:00",
    "o": 1.12451,
    "h": 1.1257,
    "l": 1.12449,
    "c": 1.12561,
    "v": 2051
  },
  {
    "dt": "2023.07.18 14:00",
    "o": 1.12562,
    "h": 1.12566,
    "l": 1.12378,
    "c": 1.12397,
    "v": 2333
  },
  {
    "dt": "2023.07.18 15:00",
    "o": 1.12396,
    "h": 1.12407,
    "l": 1.12212,
    "c": 1.12224,
    "v": 4207
  },
  {
    "dt": "2023.07.18 16:00",
    "o": 1.12227,
    "h": 1.12364,
    "l": 1.12169,
    "c": 1.12256,
    "v": 4511
  },
  {
    "dt": "2023.07.18 17:00",
    "o": 1.1226,
    "h": 1.12441,
    "l": 1.12177,
    "c": 1.12191,
    "v": 4189
  },
  {
    "dt": "2023.07.18 18:00",
    "o": 1.12192,
    "h": 1.122,
    "l": 1.12001,
    "c": 1.12001,
    "v": 2620
  },
  {
    "dt": "2023.07.18 19:00",
    "o": 1.12004,
    "h": 1.12023,
    "l": 1.11887,
    "c": 1.12023,
    "v": 1722
  },
  {
    "dt": "2023.07.18 20:00",
    "o": 1.12024,
    "h": 1.12029,
    "l": 1.11911,
    "c": 1.11932,
    "v": 1131
  },
  {
    "dt": "2023.07.18 21:00",
    "o": 1.11933,
    "h": 1.11947,
    "l": 1.11823,
    "c": 1.11844,
    "v": 1091
  },
  {
    "dt": "2023.07.18 22:00",
    "o": 1.11844,
    "h": 1.11899,
    "l": 1.11822,
    "c": 1.1185,
    "v": 1435
  },
  {
    "dt": "2023.07.18 23:00",
    "o": 1.11849,
    "h": 1.11854,
    "l": 1.11759,
    "c": 1.11768,
    "v": 762
  },
  {
    "dt": "2023.07.19 00:00",
    "o": 1.11834,
    "h": 1.11873,
    "l": 1.11702,
    "c": 1.11749,
    "v": 475
  },
  {
    "dt": "2023.07.19 01:00",
    "o": 1.11765,
    "h": 1.11814,
    "l": 1.11739,
    "c": 1.1181,
    "v": 599
  },
  {
    "dt": "2023.07.19 02:00",
    "o": 1.11816,
    "h": 1.11816,
    "l": 1.11758,
    "c": 1.11786,
    "v": 822
  },
  {
    "dt": "2023.07.19 03:00",
    "o": 1.11786,
    "h": 1.11794,
    "l": 1.11746,
    "c": 1.11757,
    "v": 1149
  },
  {
    "dt": "2023.07.19 04:00",
    "o": 1.11757,
    "h": 1.11783,
    "l": 1.11717,
    "c": 1.11749,
    "v": 1689
  },
  {
    "dt": "2023.07.19 05:00",
    "o": 1.11748,
    "h": 1.11753,
    "l": 1.11668,
    "c": 1.1169,
    "v": 1556
  },
  {
    "dt": "2023.07.19 06:00",
    "o": 1.11691,
    "h": 1.11729,
    "l": 1.11669,
    "c": 1.11724,
    "v": 933
  },
  {
    "dt": "2023.07.19 07:00",
    "o": 1.11721,
    "h": 1.11732,
    "l": 1.11693,
    "c": 1.11702,
    "v": 1243
  },
  {
    "dt": "2023.07.19 08:00",
    "o": 1.11703,
    "h": 1.11738,
    "l": 1.11659,
    "c": 1.11659,
    "v": 1619
  },
  {
    "dt": "2023.07.19 09:00",
    "o": 1.11697,
    "h": 1.11697,
    "l": 1.10875,
    "c": 1.112,
    "v": 4424
  },
  {
    "dt": "2023.07.19 10:00",
    "o": 1.11199,
    "h": 1.11227,
    "l": 1.10956,
    "c": 1.11162,
    "v": 3815
  },
  {
    "dt": "2023.07.19 11:00",
    "o": 1.11163,
    "h": 1.11262,
    "l": 1.11027,
    "c": 1.11079,
    "v": 2938
  },
  {
    "dt": "2023.07.19 12:00",
    "o": 1.11083,
    "h": 1.11129,
    "l": 1.11005,
    "c": 1.11096,
    "v": 2818
  },
  {
    "dt": "2023.07.19 13:00",
    "o": 1.11095,
    "h": 1.11121,
    "l": 1.10891,
    "c": 1.10917,
    "v": 2563
  },
  {
    "dt": "2023.07.19 14:00",
    "o": 1.10926,
    "h": 1.10951,
    "l": 1.10706,
    "c": 1.10708,
    "v": 2594
  },
  {
    "dt": "2023.07.19 15:00",
    "o": 1.10709,
    "h": 1.1083,
    "l": 1.10692,
    "c": 1.10782,
    "v": 3206
  },
  {
    "dt": "2023.07.19 16:00",
    "o": 1.10783,
    "h": 1.10795,
    "l": 1.10591,
    "c": 1.10691,
    "v": 3418
  },
  {
    "dt": "2023.07.19 17:00",
    "o": 1.10691,
    "h": 1.10964,
    "l": 1.10686,
    "c": 1.10758,
    "v": 3863
  },
  {
    "dt": "2023.07.19 18:00",
    "o": 1.10755,
    "h": 1.10888,
    "l": 1.10714,
    "c": 1.1087,
    "v": 2883
  },
  {
    "dt": "2023.07.19 19:00",
    "o": 1.10872,
    "h": 1.10966,
    "l": 1.10861,
    "c": 1.10954,
    "v": 2152
  },
  {
    "dt": "2023.07.19 20:00",
    "o": 1.10957,
    "h": 1.11063,
    "l": 1.10957,
    "c": 1.11036,
    "v": 1981
  },
  {
    "dt": "2023.07.19 21:00",
    "o": 1.11038,
    "h": 1.11048,
    "l": 1.1098,
    "c": 1.1102,
    "v": 1223
  },
  {
    "dt": "2023.07.19 22:00",
    "o": 1.11019,
    "h": 1.11088,
    "l": 1.10979,
    "c": 1.11079,
    "v": 1341
  },
  {
    "dt": "2023.07.19 23:00",
    "o": 1.11078,
    "h": 1.11083,
    "l": 1.11044,
    "c": 1.11064,
    "v": 802
  },
  {
    "dt": "2023.07.20 00:00",
    "o": 1.11103,
    "h": 1.11103,
    "l": 1.10968,
    "c": 1.1107,
    "v": 435
  },
  {
    "dt": "2023.07.20 01:00",
    "o": 1.11066,
    "h": 1.11089,
    "l": 1.11,
    "c": 1.1101,
    "v": 739
  },
  {
    "dt": "2023.07.20 02:00",
    "o": 1.1101,
    "h": 1.11011,
    "l": 1.10974,
    "c": 1.10991,
    "v": 438
  },
  {
    "dt": "2023.07.20 03:00",
    "o": 1.10991,
    "h": 1.11009,
    "l": 1.10954,
    "c": 1.10971,
    "v": 1655
  },
  {
    "dt": "2023.07.20 04:00",
    "o": 1.10972,
    "h": 1.11029,
    "l": 1.10961,
    "c": 1.10988,
    "v": 2097
  },
  {
    "dt": "2023.07.20 05:00",
    "o": 1.10991,
    "h": 1.10999,
    "l": 1.10921,
    "c": 1.10948,
    "v": 1527
  },
  {
    "dt": "2023.07.20 06:00",
    "o": 1.10957,
    "h": 1.1096,
    "l": 1.10884,
    "c": 1.10888,
    "v": 1423
  },
  {
    "dt": "2023.07.20 07:00",
    "o": 1.10886,
    "h": 1.10895,
    "l": 1.1082,
    "c": 1.10848,
    "v": 843
  },
  {
    "dt": "2023.07.20 08:00",
    "o": 1.10848,
    "h": 1.10852,
    "l": 1.10733,
    "c": 1.10772,
    "v": 1678
  },
  {
    "dt": "2023.07.20 09:00",
    "o": 1.10766,
    "h": 1.10852,
    "l": 1.10672,
    "c": 1.1069,
    "v": 2508
  },
  {
    "dt": "2023.07.20 10:00",
    "o": 1.10689,
    "h": 1.10877,
    "l": 1.10626,
    "c": 1.1082,
    "v": 3367
  },
  {
    "dt": "2023.07.20 11:00",
    "o": 1.10819,
    "h": 1.10956,
    "l": 1.10783,
    "c": 1.10892,
    "v": 2482
  },
  {
    "dt": "2023.07.20 12:00",
    "o": 1.10895,
    "h": 1.10912,
    "l": 1.1075,
    "c": 1.10809,
    "v": 2510
  },
  {
    "dt": "2023.07.20 13:00",
    "o": 1.10808,
    "h": 1.1085,
    "l": 1.10657,
    "c": 1.10713,
    "v": 2212
  },
  {
    "dt": "2023.07.20 14:00",
    "o": 1.1071,
    "h": 1.10802,
    "l": 1.10669,
    "c": 1.10733,
    "v": 2536
  },
  {
    "dt": "2023.07.20 15:00",
    "o": 1.10732,
    "h": 1.10999,
    "l": 1.1073,
    "c": 1.10998,
    "v": 4018
  },
  {
    "dt": "2023.07.20 16:00",
    "o": 1.10999,
    "h": 1.1102,
    "l": 1.10866,
    "c": 1.10907,
    "v": 3810
  },
  {
    "dt": "2023.07.20 17:00",
    "o": 1.10908,
    "h": 1.11345,
    "l": 1.10908,
    "c": 1.11218,
    "v": 4335
  },
  {
    "dt": "2023.07.20 18:00",
    "o": 1.11217,
    "h": 1.11435,
    "l": 1.11189,
    "c": 1.11402,
    "v": 2795
  },
  {
    "dt": "2023.07.20 19:00",
    "o": 1.114,
    "h": 1.11527,
    "l": 1.11352,
    "c": 1.11495,
    "v": 1973
  },
  {
    "dt": "2023.07.20 20:00",
    "o": 1.11495,
    "h": 1.11626,
    "l": 1.11489,
    "c": 1.11552,
    "v": 1509
  },
  {
    "dt": "2023.07.20 21:00",
    "o": 1.11552,
    "h": 1.11567,
    "l": 1.1149,
    "c": 1.11504,
    "v": 1082
  },
  {
    "dt": "2023.07.20 22:00",
    "o": 1.11505,
    "h": 1.11512,
    "l": 1.11425,
    "c": 1.11475,
    "v": 990
  },
  {
    "dt": "2023.07.20 23:00",
    "o": 1.11475,
    "h": 1.11525,
    "l": 1.11474,
    "c": 1.11499,
    "v": 588
  },
  {
    "dt": "2023.07.21 00:00",
    "o": 1.115,
    "h": 1.11555,
    "l": 1.1142,
    "c": 1.11425,
    "v": 249
  },
  {
    "dt": "2023.07.21 01:00",
    "o": 1.11438,
    "h": 1.11519,
    "l": 1.11438,
    "c": 1.115,
    "v": 651
  },
  {
    "dt": "2023.07.21 02:00",
    "o": 1.11503,
    "h": 1.11515,
    "l": 1.11478,
    "c": 1.11501,
    "v": 723
  },
  {
    "dt": "2023.07.21 03:00",
    "o": 1.11502,
    "h": 1.11547,
    "l": 1.1144,
    "c": 1.11474,
    "v": 1299
  },
  {
    "dt": "2023.07.21 04:00",
    "o": 1.11471,
    "h": 1.11534,
    "l": 1.11436,
    "c": 1.11518,
    "v": 1974
  },
  {
    "dt": "2023.07.21 05:00",
    "o": 1.11517,
    "h": 1.1156,
    "l": 1.11497,
    "c": 1.1155,
    "v": 1225
  },
  {
    "dt": "2023.07.21 06:00",
    "o": 1.11549,
    "h": 1.11578,
    "l": 1.11507,
    "c": 1.11534,
    "v": 972
  },
  {
    "dt": "2023.07.21 07:00",
    "o": 1.11536,
    "h": 1.11563,
    "l": 1.11527,
    "c": 1.1156,
    "v": 663
  },
  {
    "dt": "2023.07.21 08:00",
    "o": 1.11561,
    "h": 1.11586,
    "l": 1.11481,
    "c": 1.11481,
    "v": 1504
  },
  {
    "dt": "2023.07.21 09:00",
    "o": 1.11476,
    "h": 1.11703,
    "l": 1.11476,
    "c": 1.11607,
    "v": 2457
  },
  {
    "dt": "2023.07.21 10:00",
    "o": 1.11604,
    "h": 1.11635,
    "l": 1.11487,
    "c": 1.11507,
    "v": 3435
  },
  {
    "dt": "2023.07.21 11:00",
    "o": 1.11506,
    "h": 1.11541,
    "l": 1.11144,
    "c": 1.1139,
    "v": 3537
  },
  {
    "dt": "2023.07.21 12:00",
    "o": 1.11395,
    "h": 1.11523,
    "l": 1.11338,
    "c": 1.11473,
    "v": 2784
  },
  {
    "dt": "2023.07.21 13:00",
    "o": 1.11476,
    "h": 1.11477,
    "l": 1.11262,
    "c": 1.11285,
    "v": 2231
  },
  {
    "dt": "2023.07.21 14:00",
    "o": 1.11291,
    "h": 1.11377,
    "l": 1.1108,
    "c": 1.11089,
    "v": 2375
  },
  {
    "dt": "2023.07.21 15:00",
    "o": 1.11092,
    "h": 1.11109,
    "l": 1.10846,
    "c": 1.10968,
    "v": 3253
  },
  {
    "dt": "2023.07.21 16:00",
    "o": 1.10966,
    "h": 1.11209,
    "l": 1.10963,
    "c": 1.11147,
    "v": 3658
  },
  {
    "dt": "2023.07.21 17:00",
    "o": 1.11148,
    "h": 1.11254,
    "l": 1.11122,
    "c": 1.11224,
    "v": 2750
  },
  {
    "dt": "2023.07.21 18:00",
    "o": 1.11218,
    "h": 1.11286,
    "l": 1.1116,
    "c": 1.11266,
    "v": 2171
  },
  {
    "dt": "2023.07.21 19:00",
    "o": 1.11266,
    "h": 1.11322,
    "l": 1.11241,
    "c": 1.11299,
    "v": 1486
  },
  {
    "dt": "2023.07.21 20:00",
    "o": 1.11298,
    "h": 1.11355,
    "l": 1.1129,
    "c": 1.11325,
    "v": 1184
  },
  {
    "dt": "2023.07.21 21:00",
    "o": 1.11325,
    "h": 1.11367,
    "l": 1.11297,
    "c": 1.11348,
    "v": 984
  },
  {
    "dt": "2023.07.21 22:00",
    "o": 1.1135,
    "h": 1.1137,
    "l": 1.11277,
    "c": 1.1134,
    "v": 926
  },
  {
    "dt": "2023.07.21 23:00",
    "o": 1.11337,
    "h": 1.11368,
    "l": 1.11226,
    "c": 1.11251,
    "v": 815
  },
  {
    "dt": "2023.07.24 00:00",
    "o": 1.11175,
    "h": 1.11261,
    "l": 1.11109,
    "c": 1.11179,
    "v": 189
  },
  {
    "dt": "2023.07.24 01:00",
    "o": 1.11212,
    "h": 1.11325,
    "l": 1.11208,
    "c": 1.11301,
    "v": 667
  },
  {
    "dt": "2023.07.24 02:00",
    "o": 1.11299,
    "h": 1.11333,
    "l": 1.11295,
    "c": 1.11326,
    "v": 490
  },
  {
    "dt": "2023.07.24 03:00",
    "o": 1.11324,
    "h": 1.1141,
    "l": 1.11323,
    "c": 1.1141,
    "v": 1211
  },
  {
    "dt": "2023.07.24 04:00",
    "o": 1.11409,
    "h": 1.1141,
    "l": 1.11356,
    "c": 1.1139,
    "v": 1867
  },
  {
    "dt": "2023.07.24 05:00",
    "o": 1.1139,
    "h": 1.11413,
    "l": 1.11373,
    "c": 1.11378,
    "v": 1311
  },
  {
    "dt": "2023.07.24 06:00",
    "o": 1.11378,
    "h": 1.1141,
    "l": 1.11377,
    "c": 1.11401,
    "v": 1014
  },
  {
    "dt": "2023.07.24 07:00",
    "o": 1.11402,
    "h": 1.11486,
    "l": 1.11392,
    "c": 1.11486,
    "v": 1006
  },
  {
    "dt": "2023.07.24 08:00",
    "o": 1.11485,
    "h": 1.11547,
    "l": 1.11478,
    "c": 1.11495,
    "v": 1330
  },
  {
    "dt": "2023.07.24 09:00",
    "o": 1.11493,
    "h": 1.1153,
    "l": 1.11437,
    "c": 1.11459,
    "v": 2411
  },
  {
    "dt": "2023.07.24 10:00",
    "o": 1.11453,
    "h": 1.11565,
    "l": 1.11341,
    "c": 1.11482,
    "v": 3846
  },
  {
    "dt": "2023.07.24 11:00",
    "o": 1.11489,
    "h": 1.11555,
    "l": 1.11135,
    "c": 1.11202,
    "v": 3633
  },
  {
    "dt": "2023.07.24 12:00",
    "o": 1.11201,
    "h": 1.11274,
    "l": 1.11082,
    "c": 1.11107,
    "v": 3130
  },
  {
    "dt": "2023.07.24 13:00",
    "o": 1.11101,
    "h": 1.11127,
    "l": 1.10951,
    "c": 1.10956,
    "v": 2425
  },
  {
    "dt": "2023.07.24 14:00",
    "o": 1.10951,
    "h": 1.11102,
    "l": 1.10928,
    "c": 1.11079,
    "v": 2339
  },
  {
    "dt": "2023.07.24 15:00",
    "o": 1.1108,
    "h": 1.11139,
    "l": 1.10973,
    "c": 1.11008,
    "v": 3019
  },
  {
    "dt": "2023.07.24 16:00",
    "o": 1.11007,
    "h": 1.11091,
    "l": 1.1091,
    "c": 1.10924,
    "v": 3669
  },
  {
    "dt": "2023.07.24 17:00",
    "o": 1.10915,
    "h": 1.11017,
    "l": 1.10905,
    "c": 1.10967,
    "v": 3882
  },
  {
    "dt": "2023.07.24 18:00",
    "o": 1.10973,
    "h": 1.11159,
    "l": 1.10959,
    "c": 1.11127,
    "v": 2300
  },
  {
    "dt": "2023.07.24 19:00",
    "o": 1.11126,
    "h": 1.11312,
    "l": 1.11096,
    "c": 1.11304,
    "v": 1931
  },
  {
    "dt": "2023.07.24 20:00",
    "o": 1.11308,
    "h": 1.11439,
    "l": 1.11301,
    "c": 1.11383,
    "v": 1691
  },
  {
    "dt": "2023.07.24 21:00",
    "o": 1.11383,
    "h": 1.11401,
    "l": 1.11315,
    "c": 1.11316,
    "v": 1158
  },
  {
    "dt": "2023.07.24 22:00",
    "o": 1.11318,
    "h": 1.11355,
    "l": 1.11306,
    "c": 1.11349,
    "v": 1521
  },
  {
    "dt": "2023.07.24 23:00",
    "o": 1.11345,
    "h": 1.11513,
    "l": 1.11341,
    "c": 1.11509,
    "v": 1341
  },
  {
    "dt": "2023.07.25 00:00",
    "o": 1.11434,
    "h": 1.11495,
    "l": 1.11374,
    "c": 1.11466,
    "v": 369
  },
  {
    "dt": "2023.07.25 01:00",
    "o": 1.1145,
    "h": 1.11507,
    "l": 1.11427,
    "c": 1.11485,
    "v": 798
  },
  {
    "dt": "2023.07.25 02:00",
    "o": 1.11488,
    "h": 1.11494,
    "l": 1.11435,
    "c": 1.11448,
    "v": 637
  },
  {
    "dt": "2023.07.25 03:00",
    "o": 1.11449,
    "h": 1.11452,
    "l": 1.1139,
    "c": 1.11421,
    "v": 1275
  },
  {
    "dt": "2023.07.25 04:00",
    "o": 1.11423,
    "h": 1.11573,
    "l": 1.11414,
    "c": 1.11571,
    "v": 1834
  },
  {
    "dt": "2023.07.25 05:00",
    "o": 1.11568,
    "h": 1.11577,
    "l": 1.11507,
    "c": 1.11517,
    "v": 1196
  },
  {
    "dt": "2023.07.25 06:00",
    "o": 1.11519,
    "h": 1.11535,
    "l": 1.11491,
    "c": 1.11531,
    "v": 957
  },
  {
    "dt": "2023.07.25 07:00",
    "o": 1.1153,
    "h": 1.11563,
    "l": 1.11512,
    "c": 1.11548,
    "v": 733
  },
  {
    "dt": "2023.07.25 08:00",
    "o": 1.11551,
    "h": 1.11627,
    "l": 1.1154,
    "c": 1.11553,
    "v": 1619
  },
  {
    "dt": "2023.07.25 09:00",
    "o": 1.11549,
    "h": 1.11625,
    "l": 1.11438,
    "c": 1.11526,
    "v": 2386
  },
  {
    "dt": "2023.07.25 10:00",
    "o": 1.11525,
    "h": 1.11656,
    "l": 1.11501,
    "c": 1.11611,
    "v": 3043
  },
  {
    "dt": "2023.07.25 11:00",
    "o": 1.11613,
    "h": 1.11743,
    "l": 1.11528,
    "c": 1.11542,
    "v": 2992
  },
  {
    "dt": "2023.07.25 12:00",
    "o": 1.11543,
    "h": 1.1159,
    "l": 1.11478,
    "c": 1.11582,
    "v": 2116
  },
  {
    "dt": "2023.07.25 13:00",
    "o": 1.11585,
    "h": 1.11699,
    "l": 1.11544,
    "c": 1.11548,
    "v": 1855
  },
  {
    "dt": "2023.07.25 14:00",
    "o": 1.11547,
    "h": 1.11655,
    "l": 1.11399,
    "c": 1.11404,
    "v": 1913
  },
  {
    "dt": "2023.07.25 15:00",
    "o": 1.11412,
    "h": 1.11467,
    "l": 1.11345,
    "c": 1.11387,
    "v": 2556
  },
  {
    "dt": "2023.07.25 16:00",
    "o": 1.1138,
    "h": 1.11446,
    "l": 1.11304,
    "c": 1.11306,
    "v": 3195
  },
  {
    "dt": "2023.07.25 17:00",
    "o": 1.11322,
    "h": 1.11501,
    "l": 1.1127,
    "c": 1.11305,
    "v": 3598
  },
  {
    "dt": "2023.07.25 18:00",
    "o": 1.11304,
    "h": 1.11344,
    "l": 1.11179,
    "c": 1.11269,
    "v": 2254
  },
  {
    "dt": "2023.07.25 19:00",
    "o": 1.11275,
    "h": 1.11353,
    "l": 1.11207,
    "c": 1.11339,
    "v": 1587
  },
  {
    "dt": "2023.07.25 20:00",
    "o": 1.11336,
    "h": 1.11464,
    "l": 1.11329,
    "c": 1.11434,
    "v": 1364
  },
  {
    "dt": "2023.07.25 21:00",
    "o": 1.11434,
    "h": 1.11485,
    "l": 1.114,
    "c": 1.11476,
    "v": 1312
  },
  {
    "dt": "2023.07.25 22:00",
    "o": 1.11474,
    "h": 1.11531,
    "l": 1.11437,
    "c": 1.11504,
    "v": 1154
  },
  {
    "dt": "2023.07.25 23:00",
    "o": 1.11506,
    "h": 1.11517,
    "l": 1.11439,
    "c": 1.11451,
    "v": 1078
  },
  {
    "dt": "2023.07.26 00:00",
    "o": 1.11381,
    "h": 1.11515,
    "l": 1.11348,
    "c": 1.11384,
    "v": 106
  },
  {
    "dt": "2023.07.26 01:00",
    "o": 1.11398,
    "h": 1.11476,
    "l": 1.11393,
    "c": 1.1145,
    "v": 747
  },
  {
    "dt": "2023.07.26 02:00",
    "o": 1.11451,
    "h": 1.11482,
    "l": 1.11442,
    "c": 1.11461,
    "v": 469
  },
  {
    "dt": "2023.07.26 03:00",
    "o": 1.11463,
    "h": 1.1153,
    "l": 1.11448,
    "c": 1.11483,
    "v": 1314
  },
  {
    "dt": "2023.07.26 04:00",
    "o": 1.11483,
    "h": 1.11504,
    "l": 1.11428,
    "c": 1.11464,
    "v": 1674
  },
  {
    "dt": "2023.07.26 05:00",
    "o": 1.11462,
    "h": 1.11496,
    "l": 1.11433,
    "c": 1.11439,
    "v": 1327
  },
  {
    "dt": "2023.07.26 06:00",
    "o": 1.1144,
    "h": 1.11452,
    "l": 1.11403,
    "c": 1.11431,
    "v": 810
  },
  {
    "dt": "2023.07.26 07:00",
    "o": 1.1143,
    "h": 1.11468,
    "l": 1.11417,
    "c": 1.11467,
    "v": 807
  },
  {
    "dt": "2023.07.26 08:00",
    "o": 1.11469,
    "h": 1.115,
    "l": 1.11334,
    "c": 1.11335,
    "v": 1343
  },
  {
    "dt": "2023.07.26 09:00",
    "o": 1.11334,
    "h": 1.1139,
    "l": 1.11121,
    "c": 1.11156,
    "v": 2677
  },
  {
    "dt": "2023.07.26 10:00",
    "o": 1.11152,
    "h": 1.11234,
    "l": 1.11089,
    "c": 1.11188,
    "v": 3243
  },
  {
    "dt": "2023.07.26 11:00",
    "o": 1.11189,
    "h": 1.11363,
    "l": 1.11159,
    "c": 1.11349,
    "v": 2725
  },
  {
    "dt": "2023.07.26 12:00",
    "o": 1.11348,
    "h": 1.11358,
    "l": 1.11118,
    "c": 1.11223,
    "v": 2074
  },
  {
    "dt": "2023.07.26 13:00",
    "o": 1.11226,
    "h": 1.11414,
    "l": 1.11184,
    "c": 1.11395,
    "v": 2037
  },
  {
    "dt": "2023.07.26 14:00",
    "o": 1.11395,
    "h": 1.11407,
    "l": 1.11323,
    "c": 1.11378,
    "v": 2188
  },
  {
    "dt": "2023.07.26 15:00",
    "o": 1.11374,
    "h": 1.11487,
    "l": 1.11292,
    "c": 1.11336,
    "v": 2598
  },
  {
    "dt": "2023.07.26 16:00",
    "o": 1.11331,
    "h": 1.11543,
    "l": 1.11309,
    "c": 1.11526,
    "v": 3273
  },
  {
    "dt": "2023.07.26 17:00",
    "o": 1.11517,
    "h": 1.11601,
    "l": 1.11413,
    "c": 1.11541,
    "v": 3225
  },
  {
    "dt": "2023.07.26 18:00",
    "o": 1.11542,
    "h": 1.11542,
    "l": 1.11453,
    "c": 1.1151,
    "v": 2522
  },
  {
    "dt": "2023.07.26 19:00",
    "o": 1.1151,
    "h": 1.11515,
    "l": 1.11432,
    "c": 1.11473,
    "v": 1310
  },
  {
    "dt": "2023.07.26 20:00",
    "o": 1.11472,
    "h": 1.11507,
    "l": 1.11377,
    "c": 1.11377,
    "v": 1382
  },
  {
    "dt": "2023.07.26 21:00",
    "o": 1.11393,
    "h": 1.11523,
    "l": 1.11323,
    "c": 1.1141,
    "v": 5342
  },
  {
    "dt": "2023.07.26 22:00",
    "o": 1.11407,
    "h": 1.11453,
    "l": 1.11325,
    "c": 1.11344,
    "v": 4047
  },
  {
    "dt": "2023.07.26 23:00",
    "o": 1.11342,
    "h": 1.11411,
    "l": 1.11322,
    "c": 1.11388,
    "v": 1340
  },
  {
    "dt": "2023.07.27 00:00",
    "o": 1.11437,
    "h": 1.11437,
    "l": 1.11229,
    "c": 1.11343,
    "v": 112
  },
  {
    "dt": "2023.07.27 01:00",
    "o": 1.11342,
    "h": 1.11376,
    "l": 1.11288,
    "c": 1.11348,
    "v": 791
  },
  {
    "dt": "2023.07.27 02:00",
    "o": 1.11353,
    "h": 1.11389,
    "l": 1.11316,
    "c": 1.11368,
    "v": 685
  },
  {
    "dt": "2023.07.27 03:00",
    "o": 1.11368,
    "h": 1.11395,
    "l": 1.11326,
    "c": 1.11391,
    "v": 1315
  },
  {
    "dt": "2023.07.27 04:00",
    "o": 1.11392,
    "h": 1.11403,
    "l": 1.11332,
    "c": 1.11385,
    "v": 1611
  },
  {
    "dt": "2023.07.27 05:00",
    "o": 1.11384,
    "h": 1.11398,
    "l": 1.11337,
    "c": 1.11376,
    "v": 1822
  },
  {
    "dt": "2023.07.27 06:00",
    "o": 1.11379,
    "h": 1.114,
    "l": 1.11365,
    "c": 1.11387,
    "v": 1126
  },
  {
    "dt": "2023.07.27 07:00",
    "o": 1.1139,
    "h": 1.11448,
    "l": 1.11362,
    "c": 1.11447,
    "v": 1285
  },
  {
    "dt": "2023.07.27 08:00",
    "o": 1.11449,
    "h": 1.11484,
    "l": 1.11353,
    "c": 1.11483,
    "v": 1578
  },
  {
    "dt": "2023.07.27 09:00",
    "o": 1.11483,
    "h": 1.11485,
    "l": 1.11289,
    "c": 1.11392,
    "v": 3055
  },
  {
    "dt": "2023.07.27 10:00",
    "o": 1.11399,
    "h": 1.11443,
    "l": 1.1115,
    "c": 1.11236,
    "v": 3695
  },
  {
    "dt": "2023.07.27 11:00",
    "o": 1.11238,
    "h": 1.11281,
    "l": 1.11105,
    "c": 1.11191,
    "v": 2983
  },
  {
    "dt": "2023.07.27 12:00",
    "o": 1.11189,
    "h": 1.11236,
    "l": 1.10989,
    "c": 1.1108,
    "v": 2356
  },
  {
    "dt": "2023.07.27 13:00",
    "o": 1.1108,
    "h": 1.11081,
    "l": 1.10874,
    "c": 1.10997,
    "v": 2331
  },
  {
    "dt": "2023.07.27 14:00",
    "o": 1.11,
    "h": 1.11113,
    "l": 1.10925,
    "c": 1.11106,
    "v": 2455
  },
  {
    "dt": "2023.07.27 15:00",
    "o": 1.11105,
    "h": 1.11206,
    "l": 1.11003,
    "c": 1.11102,
    "v": 5011
  },
  {
    "dt": "2023.07.27 16:00",
    "o": 1.11103,
    "h": 1.11393,
    "l": 1.11087,
    "c": 1.11379,
    "v": 5300
  },
  {
    "dt": "2023.07.27 17:00",
    "o": 1.1138,
    "h": 1.11633,
    "l": 1.11277,
    "c": 1.11625,
    "v": 4488
  },
  {
    "dt": "2023.07.27 18:00",
    "o": 1.11621,
    "h": 1.1177,
    "l": 1.116,
    "c": 1.11763,
    "v": 3292
  },
  {
    "dt": "2023.07.27 19:00",
    "o": 1.11764,
    "h": 1.11779,
    "l": 1.1143,
    "c": 1.11446,
    "v": 2347
  },
  {
    "dt": "2023.07.27 20:00",
    "o": 1.11449,
    "h": 1.1146,
    "l": 1.11215,
    "c": 1.11267,
    "v": 3639
  },
  {
    "dt": "2023.07.27 21:00",
    "o": 1.11276,
    "h": 1.11338,
    "l": 1.11222,
    "c": 1.11264,
    "v": 2581
  },
  {
    "dt": "2023.07.27 22:00",
    "o": 1.11263,
    "h": 1.1131,
    "l": 1.11129,
    "c": 1.1118,
    "v": 2095
  },
  {
    "dt": "2023.07.27 23:00",
    "o": 1.11179,
    "h": 1.11249,
    "l": 1.11171,
    "c": 1.11209,
    "v": 1178
  },
  {
    "dt": "2023.07.28 00:00",
    "o": 1.11126,
    "h": 1.11213,
    "l": 1.11125,
    "c": 1.11184,
    "v": 222
  },
  {
    "dt": "2023.07.28 01:00",
    "o": 1.112,
    "h": 1.11202,
    "l": 1.1112,
    "c": 1.11144,
    "v": 865
  },
  {
    "dt": "2023.07.28 02:00",
    "o": 1.11146,
    "h": 1.11195,
    "l": 1.11137,
    "c": 1.11151,
    "v": 759
  },
  {
    "dt": "2023.07.28 03:00",
    "o": 1.1115,
    "h": 1.11202,
    "l": 1.11116,
    "c": 1.11201,
    "v": 1373
  },
  {
    "dt": "2023.07.28 04:00",
    "o": 1.11202,
    "h": 1.11241,
    "l": 1.11153,
    "c": 1.11178,
    "v": 1705
  },
  {
    "dt": "2023.07.28 05:00",
    "o": 1.11171,
    "h": 1.11226,
    "l": 1.11148,
    "c": 1.11226,
    "v": 1475
  },
  {
    "dt": "2023.07.28 06:00",
    "o": 1.11225,
    "h": 1.11303,
    "l": 1.11202,
    "c": 1.1121,
    "v": 3072
  },
  {
    "dt": "2023.07.28 07:00",
    "o": 1.11208,
    "h": 1.11235,
    "l": 1.10948,
    "c": 1.11023,
    "v": 3575
  },
  {
    "dt": "2023.07.28 08:00",
    "o": 1.1102,
    "h": 1.1117,
    "l": 1.10998,
    "c": 1.1109,
    "v": 3090
  },
  {
    "dt": "2023.07.28 09:00",
    "o": 1.11089,
    "h": 1.11388,
    "l": 1.11043,
    "c": 1.11349,
    "v": 4074
  },
  {
    "dt": "2023.07.28 10:00",
    "o": 1.11354,
    "h": 1.1162,
    "l": 1.11274,
    "c": 1.11514,
    "v": 4553
  },
  {
    "dt": "2023.07.28 11:00",
    "o": 1.11515,
    "h": 1.11606,
    "l": 1.11475,
    "c": 1.11545,
    "v": 3334
  },
  {
    "dt": "2023.07.28 12:00",
    "o": 1.11555,
    "h": 1.11705,
    "l": 1.11498,
    "c": 1.11573,
    "v": 2624
  },
  {
    "dt": "2023.07.28 13:00",
    "o": 1.11571,
    "h": 1.11743,
    "l": 1.11517,
    "c": 1.11736,
    "v": 2026
  },
  {
    "dt": "2023.07.28 14:00",
    "o": 1.11733,
    "h": 1.11771,
    "l": 1.11603,
    "c": 1.11694,
    "v": 2598
  },
  {
    "dt": "2023.07.28 15:00",
    "o": 1.11695,
    "h": 1.11793,
    "l": 1.11625,
    "c": 1.1174,
    "v": 3865
  },
  {
    "dt": "2023.07.28 16:00",
    "o": 1.11738,
    "h": 1.11792,
    "l": 1.11576,
    "c": 1.11605,
    "v": 4091
  },
  {
    "dt": "2023.07.28 17:00",
    "o": 1.11581,
    "h": 1.11662,
    "l": 1.11537,
    "c": 1.11595,
    "v": 3722
  },
  {
    "dt": "2023.07.28 18:00",
    "o": 1.11593,
    "h": 1.11791,
    "l": 1.11576,
    "c": 1.11763,
    "v": 2864
  },
  {
    "dt": "2023.07.28 19:00",
    "o": 1.11766,
    "h": 1.11924,
    "l": 1.11739,
    "c": 1.11755,
    "v": 2315
  },
  {
    "dt": "2023.07.28 20:00",
    "o": 1.1176,
    "h": 1.11842,
    "l": 1.11735,
    "c": 1.11774,
    "v": 1886
  },
  {
    "dt": "2023.07.28 21:00",
    "o": 1.11776,
    "h": 1.11794,
    "l": 1.11711,
    "c": 1.11741,
    "v": 1549
  },
  {
    "dt": "2023.07.28 22:00",
    "o": 1.11742,
    "h": 1.11793,
    "l": 1.11715,
    "c": 1.11759,
    "v": 1292
  },
  {
    "dt": "2023.07.28 23:00",
    "o": 1.11759,
    "h": 1.1186,
    "l": 1.11755,
    "c": 1.11809,
    "v": 1194
  },
  {
    "dt": "2023.07.31 00:00",
    "o": 1.11591,
    "h": 1.11806,
    "l": 1.11497,
    "c": 1.11733,
    "v": 69
  },
  {
    "dt": "2023.07.31 01:00",
    "o": 1.11735,
    "h": 1.11779,
    "l": 1.11688,
    "c": 1.11766,
    "v": 913
  },
  {
    "dt": "2023.07.31 02:00",
    "o": 1.11762,
    "h": 1.11849,
    "l": 1.1175,
    "c": 1.11799,
    "v": 906
  },
  {
    "dt": "2023.07.31 03:00",
    "o": 1.11801,
    "h": 1.11867,
    "l": 1.11801,
    "c": 1.1183,
    "v": 1519
  },
  {
    "dt": "2023.07.31 04:00",
    "o": 1.11829,
    "h": 1.11927,
    "l": 1.11789,
    "c": 1.11916,
    "v": 1859
  },
  {
    "dt": "2023.07.31 05:00",
    "o": 1.11918,
    "h": 1.11992,
    "l": 1.11859,
    "c": 1.11981,
    "v": 1630
  },
  {
    "dt": "2023.07.31 06:00",
    "o": 1.11984,
    "h": 1.11995,
    "l": 1.1195,
    "c": 1.11967,
    "v": 1132
  },
  {
    "dt": "2023.07.31 07:00",
    "o": 1.11965,
    "h": 1.12023,
    "l": 1.11943,
    "c": 1.12023,
    "v": 1174
  },
  {
    "dt": "2023.07.31 08:00",
    "o": 1.12021,
    "h": 1.1203,
    "l": 1.11955,
    "c": 1.11988,
    "v": 1522
  },
  {
    "dt": "2023.07.31 09:00",
    "o": 1.11988,
    "h": 1.12041,
    "l": 1.11893,
    "c": 1.11985,
    "v": 2725
  },
  {
    "dt": "2023.07.31 10:00",
    "o": 1.1198,
    "h": 1.1198,
    "l": 1.11792,
    "c": 1.1186,
    "v": 3458
  },
  {
    "dt": "2023.07.31 11:00",
    "o": 1.11859,
    "h": 1.11909,
    "l": 1.11781,
    "c": 1.11866,
    "v": 2771
  },
  {
    "dt": "2023.07.31 12:00",
    "o": 1.1187,
    "h": 1.11891,
    "l": 1.11762,
    "c": 1.11867,
    "v": 2077
  },
  {
    "dt": "2023.07.31 13:00",
    "o": 1.11867,
    "h": 1.1192,
    "l": 1.11817,
    "c": 1.1192,
    "v": 1999
  },
  {
    "dt": "2023.07.31 14:00",
    "o": 1.1192,
    "h": 1.12113,
    "l": 1.11895,
    "c": 1.12047,
    "v": 1803
  },
  {
    "dt": "2023.07.31 15:00",
    "o": 1.12051,
    "h": 1.12177,
    "l": 1.11991,
    "c": 1.12002,
    "v": 2644
  },
  {
    "dt": "2023.07.31 16:00",
    "o": 1.12001,
    "h": 1.12012,
    "l": 1.11685,
    "c": 1.11714,
    "v": 3300
  },
  {
    "dt": "2023.07.31 17:00",
    "o": 1.11711,
    "h": 1.11713,
    "l": 1.11478,
    "c": 1.1153,
    "v": 3648
  },
  {
    "dt": "2023.07.31 18:00",
    "o": 1.11535,
    "h": 1.11759,
    "l": 1.11483,
    "c": 1.11684,
    "v": 3066
  },
  {
    "dt": "2023.07.31 19:00",
    "o": 1.11684,
    "h": 1.11866,
    "l": 1.11675,
    "c": 1.11786,
    "v": 1887
  },
  {
    "dt": "2023.07.31 20:00",
    "o": 1.11785,
    "h": 1.11856,
    "l": 1.1176,
    "c": 1.11835,
    "v": 1376
  },
  {
    "dt": "2023.07.31 21:00",
    "o": 1.11833,
    "h": 1.11927,
    "l": 1.11777,
    "c": 1.11873,
    "v": 1474
  },
  {
    "dt": "2023.07.31 22:00",
    "o": 1.11874,
    "h": 1.11957,
    "l": 1.1187,
    "c": 1.11918,
    "v": 1637
  },
  {
    "dt": "2023.07.31 23:00",
    "o": 1.11918,
    "h": 1.11933,
    "l": 1.11838,
    "c": 1.11872,
    "v": 1154
  }
]