[
  {
    "dt": "2023.08.01 00:00",
    "o": 1.11738,
    "h": 1.119,
    "l": 1.11732,
    "c": 1.11828,
    "v": 162
  },
  {
    "dt": "2023.08.01 01:00",
    "o": 1.1183,
    "h": 1.11921,
    "l": 1.1183,
    "c": 1.1187,
    "v": 619
  },
  {
    "dt": "2023.08.01 02:00",
    "o": 1.11869,
    "h": 1.11885,
    "l": 1.11844,
    "c": 1.11852,
    "v": 449
  },
  {
    "dt": "2023.08.01 03:00",
    "o": 1.11849,
    "h": 1.11921,
    "l": 1.11807,
    "c": 1.11917,
    "v": 1236
  },
  {
    "dt": "2023.08.01 04:00",
    "o": 1.11921,
    "h": 1.11931,
    "l": 1.11854,
    "c": 1.11858,
    "v": 1857
  },
  {
    "dt": "2023.08.01 05:00",
    "o": 1.1186,
    "h": 1.11904,
    "l": 1.11847,
    "c": 1.11853,
    "v": 1018
  },
  {
    "dt": "2023.08.01 06:00",
    "o": 1.11851,
    "h": 1.11862,
    "l": 1.11791,
    "c": 1.11795,
    "v": 1055
  },
  {
    "dt": "2023.08.01 07:00",
    "o": 1.11794,
    "h": 1.11957,
    "l": 1.11792,
    "c": 1.11931,
    "v": 1175
  },
  {
    "dt": "2023.08.01 08:00",
    "o": 1.1193,
    "h": 1.11965,
    "l": 1.11763,
    "c": 1.11772,
    "v": 1349
  },
  {
    "dt": "2023.08.01 09:00",
    "o": 1.11779,
    "h": 1.1194,
    "l": 1.11771,
    "c": 1.11881,
    "v": 2022
  },
  {
    "dt": "2023.08.01 10:00",
    "o": 1.11889,
    "h": 1.1216,
    "l": 1.11866,
    "c": 1.11993,
    "v": 3067
  },
  {
    "dt": "2023.08.01 11:00",
    "o": 1.1199,
    "h": 1.12227,
    "l": 1.1198,
    "c": 1.12199,
    "v": 2647
  },
  {
    "dt": "2023.08.01 12:00",
    "o": 1.122,
    "h": 1.12282,
    "l": 1.12168,
    "c": 1.12185,
    "v": 2155
  },
  {
    "dt": "2023.08.01 13:00",
    "o": 1.12186,
    "h": 1.12206,
    "l": 1.12039,
    "c": 1.12045,
    "v": 2021
  },
  {
    "dt": "2023.08.01 14:00",
    "o": 1.12042,
    "h": 1.12043,
    "l": 1.1185,
    "c": 1.1191,
    "v": 2100
  },
  {
    "dt": "2023.08.01 15:00",
    "o": 1.11909,
    "h": 1.12005,
    "l": 1.11855,
    "c": 1.11984,
    "v": 2858
  },
  {
    "dt": "2023.08.01 16:00",
    "o": 1.11983,
    "h": 1.12017,
    "l": 1.11865,
    "c": 1.11868,
    "v": 3123
  },
  {
    "dt": "2023.08.01 17:00",
    "o": 1.11861,
    "h": 1.11965,
    "l": 1.11654,
    "c": 1.11663,
    "v": 4194
  },
  {
    "dt": "2023.08.01 18:00",
    "o": 1.11665,
    "h": 1.11782,
    "l": 1.11617,
    "c": 1.11703,
    "v": 2809
  },
  {
    "dt": "2023.08.01 19:00",
    "o": 1.11701,
    "h": 1.11778,
    "l": 1.11657,
    "c": 1.11753,
    "v": 1684
  },
  {
    "dt": "2023.08.01 20:00",
    "o": 1.11751,
    "h": 1.11796,
    "l": 1.11734,
    "c": 1.11791,
    "v": 1314
  },
  {
    "dt": "2023.08.01 21:00",
    "o": 1.11789,
    "h": 1.11852,
    "l": 1.11778,
    "c": 1.11852,
    "v": 1051
  },
  {
    "dt": "2023.08.01 22:00",
    "o": 1.11855,
    "h": 1.11858,
    "l": 1.11775,
    "c": 1.11801,
    "v": 1081
  },
  {
    "dt": "2023.08.01 23:00",
    "o": 1.11799,
    "h": 1.11823,
    "l": 1.1177,
    "c": 1.1179,
    "v": 1016
  },
  {
    "dt": "2023.08.02 00:00",
    "o": 1.11774,
    "h": 1.11777,
    "l": 1.11406,
    "c": 1.11462,
    "v": 770
  },
  {
    "dt": "2023.08.02 01:00",
    "o": 1.11516,
    "h": 1.11775,
    "l": 1.11513,
    "c": 1.11658,
    "v": 1607
  },
  {
    "dt": "2023.08.02 02:00",
    "o": 1.11663,
    "h": 1.11703,
    "l": 1.11575,
    "c": 1.11636,
    "v": 1046
  },
  {
    "dt": "2023.08.02 03:00",
    "o": 1.11641,
    "h": 1.11705,
    "l": 1.11541,
    "c": 1.11563,
    "v": 1652
  },
  {
    "dt": "2023.08.02 04:00",
    "o": 1.11561,
    "h": 1.11728,
    "l": 1.1154,
    "c": 1.11714,
    "v": 1573
  },
  {
    "dt": "2023.08.02 05:00",
    "o": 1.11716,
    "h": 1.11723,
    "l": 1.11552,
    "c": 1.11681,
    "v": 1543
  },
  {
    "dt": "2023.08.02 06:00",
    "o": 1.11679,
    "h": 1.11762,
    "l": 1.11664,
    "c": 1.11757,
    "v": 1323
  },
  {
    "dt": "2023.08.02 07:00",
    "o": 1.11759,
    "h": 1.11833,
    "l": 1.11755,
    "c": 1.11829,
    "v": 1313
  },
  {
    "dt": "2023.08.02 08:00",
    "o": 1.1183,
    "h": 1.11846,
    "l": 1.11662,
    "c": 1.11674,
    "v": 1887
  },
  {
    "dt": "2023.08.02 09:00",
    "o": 1.11662,
    "h": 1.11762,
    "l": 1.11608,
    "c": 1.11727,
    "v": 2860
  },
  {
    "dt": "2023.08.02 10:00",
    "o": 1.11729,
    "h": 1.12182,
    "l": 1.11729,
    "c": 1.12159,
    "v": 3605
  },
  {
    "dt": "2023.08.02 11:00",
    "o": 1.12164,
    "h": 1.12346,
    "l": 1.12145,
    "c": 1.12145,
    "v": 3420
  },
  {
    "dt": "2023.08.02 12:00",
    "o": 1.12146,
    "h": 1.12179,
    "l": 1.12023,
    "c": 1.12046,
    "v": 2610
  },
  {
    "dt": "2023.08.02 13:00",
    "o": 1.12047,
    "h": 1.12229,
    "l": 1.12022,
    "c": 1.12181,
    "v": 2621
  },
  {
    "dt": "2023.08.02 14:00",
    "o": 1.12178,
    "h": 1.12219,
    "l": 1.121,
    "c": 1.12102,
    "v": 2441
  },
  {
    "dt": "2023.08.02 15:00",
    "o": 1.12102,
    "h": 1.12134,
    "l": 1.11884,
    "c": 1.11889,
    "v": 3952
  },
  {
    "dt": "2023.08.02 16:00",
    "o": 1.11886,
    "h": 1.119,
    "l": 1.11673,
    "c": 1.11751,
    "v": 3458
  },
  {
    "dt": "2023.08.02 17:00",
    "o": 1.11752,
    "h": 1.11781,
    "l": 1.11284,
    "c": 1.11309,
    "v": 4036
  },
  {
    "dt": "2023.08.02 18:00",
    "o": 1.1131,
    "h": 1.116,
    "l": 1.11276,
    "c": 1.11592,
    "v": 2751
  },
  {
    "dt": "2023.08.02 19:00",
    "o": 1.11592,
    "h": 1.1167,
    "l": 1.11503,
    "c": 1.11503,
    "v": 2261
  },
  {
    "dt": "2023.08.02 20:00",
    "o": 1.11503,
    "h": 1.11635,
    "l": 1.11497,
    "c": 1.11575,
    "v": 1831
  },
  {
    "dt": "2023.08.02 21:00",
    "o": 1.11577,
    "h": 1.11653,
    "l": 1.11539,
    "c": 1.11586,
    "v": 1167
  },
  {
    "dt": "2023.08.02 22:00",
    "o": 1.11587,
    "h": 1.11649,
    "l": 1.11584,
    "c": 1.11598,
    "v": 955
  },
  {
    "dt": "2023.08.02 23:00",
    "o": 1.11595,
    "h": 1.11617,
    "l": 1.11514,
    "c": 1.11523,
    "v": 543
  },
  {
    "dt": "2023.08.03 00:00",
    "o": 1.11519,
    "h": 1.11536,
    "l": 1.11442,
    "c": 1.11495,
    "v": 210
  },
  {
    "dt": "2023.08.03 01:00",
    "o": 1.11461,
    "h": 1.11572,
    "l": 1.11461,
    "c": 1.11534,
    "v": 635
  },
  {
    "dt": "2023.08.03 02:00",
    "o": 1.11537,
    "h": 1.11594,
    "l": 1.1151,
    "c": 1.11586,
    "v": 481
  },
  {
    "dt": "2023.08.03 03:00",
    "o": 1.11588,
    "h": 1.116,
    "l": 1.11517,
    "c": 1.11546,
    "v": 1240
  },
  {
    "dt": "2023.08.03 04:00",
    "o": 1.11541,
    "h": 1.11599,
    "l": 1.11527,
    "c": 1.11592,
    "v": 1593
  },
  {
    "dt": "2023.08.03 05:00",
    "o": 1.1159,
    "h": 1.116,
    "l": 1.11515,
    "c": 1.11564,
    "v": 1620
  },
  {
    "dt": "2023.08.03 06:00",
    "o": 1.11566,
    "h": 1.11637,
    "l": 1.1156,
    "c": 1.11622,
    "v": 1372
  },
  {
    "dt": "2023.08.03 07:00",
    "o": 1.11623,
    "h": 1.11624,
    "l": 1.11556,
    "c": 1.11587,
    "v": 1310
  },
  {
    "dt": "2023.08.03 08:00",
    "o": 1.11589,
    "h": 1.11645,
    "l": 1.11501,
    "c": 1.11505,
    "v": 2363
  },
  {
    "dt": "2023.08.03 09:00",
    "o": 1.11517,
    "h": 1.11605,
    "l": 1.11496,
    "c": 1.116,
    "v": 3545
  },
  {
    "dt": "2023.08.03 10:00",
    "o": 1.11602,
    "h": 1.11707,
    "l": 1.11436,
    "c": 1.11447,
    "v": 3793
  },
  {
    "dt": "2023.08.03 11:00",
    "o": 1.11445,
    "h": 1.11467,
    "l": 1.11175,
    "c": 1.11182,
    "v": 3108
  },
  {
    "dt": "2023.08.03 12:00",
    "o": 1.11181,
    "h": 1.11268,
    "l": 1.10981,
    "c": 1.11043,
    "v": 2743
  },
  {
    "dt": "2023.08.03 13:00",
    "o": 1.11036,
    "h": 1.11062,
    "l": 1.10829,
    "c": 1.10849,
    "v": 2494
  },
  {
    "dt": "2023.08.03 14:00",
    "o": 1.10844,
    "h": 1.10973,
    "l": 1.10555,
    "c": 1.10797,
    "v": 4629
  },
  {
    "dt": "2023.08.03 15:00",
    "o": 1.10794,
    "h": 1.10914,
    "l": 1.10715,
    "c": 1.10893,
    "v": 4522
  },
  {
    "dt": "2023.08.03 16:00",
    "o": 1.10891,
    "h": 1.11044,
    "l": 1.10825,
    "c": 1.11021,
    "v": 3704
  },
  {
    "dt": "2023.08.03 17:00",
    "o": 1.11015,
    "h": 1.11276,
    "l": 1.10877,
    "c": 1.11152,
    "v": 4420
  },
  {
    "dt": "2023.08.03 18:00",
    "o": 1.11152,
    "h": 1.11208,
    "l": 1.11086,
    "c": 1.11087,
    "v": 3268
  },
  {
    "dt": "2023.08.03 19:00",
    "o": 1.11088,
    "h": 1.11154,
    "l": 1.11058,
    "c": 1.11132,
    "v": 2022
  },
  {
    "dt": "2023.08.03 20:00",
    "o": 1.11133,
    "h": 1.11201,
    "l": 1.11057,
    "c": 1.11068,
    "v": 1462
  },
  {
    "dt": "2023.08.03 21:00",
    "o": 1.11065,
    "h": 1.11149,
    "l": 1.11057,
    "c": 1.11111,
    "v": 1442
  },
  {
    "dt": "2023.08.03 22:00",
    "o": 1.11109,
    "h": 1.11185,
    "l": 1.11106,
    "c": 1.11144,
    "v": 863
  },
  {
    "dt": "2023.08.03 23:00",
    "o": 1.11145,
    "h": 1.11147,
    "l": 1.11079,
    "c": 1.1108,
    "v": 1010
  },
  {
    "dt": "2023.08.04 00:00",
    "o": 1.11175,
    "h": 1.11175,
    "l": 1.11015,
    "c": 1.11106,
    "v": 430
  },
  {
    "dt": "2023.08.04 01:00",
    "o": 1.11084,
    "h": 1.11129,
    "l": 1.11075,
    "c": 1.11116,
    "v": 749
  },
  {
    "dt": "2023.08.04 02:00",
    "o": 1.11121,
    "h": 1.11169,
    "l": 1.11116,
    "c": 1.11167,
    "v": 474
  },
  {
    "dt": "2023.08.04 03:00",
    "o": 1.11169,
    "h": 1.11243,
    "l": 1.11157,
    "c": 1.1121,
    "v": 1442
  },
  {
    "dt": "2023.08.04 04:00",
    "o": 1.11209,
    "h": 1.11273,
    "l": 1.1117,
    "c": 1.11272,
    "v": 2051
  },
  {
    "dt": "2023.08.04 05:00",
    "o": 1.1127,
    "h": 1.11314,
    "l": 1.11246,
    "c": 1.1127,
    "v": 1937
  },
  {
    "dt": "2023.08.04 06:00",
    "o": 1.11269,
    "h": 1.11325,
    "l": 1.11267,
    "c": 1.11317,
    "v": 1400
  },
  {
    "dt": "2023.08.04 07:00",
    "o": 1.11316,
    "h": 1.11347,
    "l": 1.11295,
    "c": 1.11298,
    "v": 1374
  },
  {
    "dt": "2023.08.04 08:00",
    "o": 1.11297,
    "h": 1.11317,
    "l": 1.11225,
    "c": 1.11238,
    "v": 1461
  },
  {
    "dt": "2023.08.04 09:00",
    "o": 1.1123,
    "h": 1.11261,
    "l": 1.11172,
    "c": 1.11215,
    "v": 2098
  },
  {
    "dt": "2023.08.04 10:00",
    "o": 1.11205,
    "h": 1.11436,
    "l": 1.11201,
    "c": 1.11398,
    "v": 2860
  },
  {
    "dt": "2023.08.04 11:00",
    "o": 1.11395,
    "h": 1.11493,
    "l": 1.11339,
    "c": 1.11443,
    "v": 2361
  },
  {
    "dt": "2023.08.04 12:00",
    "o": 1.11442,
    "h": 1.11544,
    "l": 1.11429,
    "c": 1.11518,
    "v": 1833
  },
  {
    "dt": "2023.08.04 13:00",
    "o": 1.11521,
    "h": 1.11549,
    "l": 1.1141,
    "c": 1.11429,
    "v": 1877
  },
  {
    "dt": "2023.08.04 14:00",
    "o": 1.1143,
    "h": 1.11455,
    "l": 1.11391,
    "c": 1.11394,
    "v": 1704
  },
  {
    "dt": "2023.08.04 15:00",
    "o": 1.11394,
    "h": 1.11437,
    "l": 1.11212,
    "c": 1.11251,
    "v": 4500
  },
  {
    "dt": "2023.08.04 16:00",
    "o": 1.11251,
    "h": 1.11304,
    "l": 1.11145,
    "c": 1.11156,
    "v": 4968
  },
  {
    "dt": "2023.08.04 17:00",
    "o": 1.11153,
    "h": 1.11275,
    "l": 1.1111,
    "c": 1.11214,
    "v": 4289
  },
  {
    "dt": "2023.08.04 18:00",
    "o": 1.11219,
    "h": 1.11347,
    "l": 1.11199,
    "c": 1.11283,
    "v": 2659
  },
  {
    "dt": "2023.08.04 19:00",
    "o": 1.11284,
    "h": 1.11336,
    "l": 1.11269,
    "c": 1.11319,
    "v": 1518
  },
  {
    "dt": "2023.08.04 20:00",
    "o": 1.1132,
    "h": 1.11423,
    "l": 1.11308,
    "c": 1.114,
    "v": 1029
  },
  {
    "dt": "2023.08.04 21:00",
    "o": 1.11401,
    "h": 1.11406,
    "l": 1.11263,
    "c": 1.11302,
    "v": 1420
  },
  {
    "dt": "2023.08.04 22:00",
    "o": 1.11302,
    "h": 1.11328,
    "l": 1.11243,
    "c": 1.11253,
    "v": 1354
  },
  {
    "dt": "2023.08.04 23:00",
    "o": 1.1126,
    "h": 1.11284,
    "l": 1.11166,
    "c": 1.11214,
    "v": 1053
  },
  {
    "dt": "2023.08.07 00:00",
    "o": 1.11095,
    "h": 1.113,
    "l": 1.11095,
    "c": 1.11157,
    "v": 297
  },
  {
    "dt": "2023.08.07 01:00",
    "o": 1.11162,
    "h": 1.11425,
    "l": 1.11143,
    "c": 1.1142,
    "v": 1186
  },
  {
    "dt": "2023.08.07 02:00",
    "o": 1.11416,
    "h": 1.11471,
    "l": 1.11398,
    "c": 1.11439,
    "v": 756
  },
  {
    "dt": "2023.08.07 03:00",
    "o": 1.1144,
    "h": 1.11503,
    "l": 1.11422,
    "c": 1.11472,
    "v": 1571
  },
  {
    "dt": "2023.08.07 04:00",
    "o": 1.11471,
    "h": 1.11517,
    "l": 1.11426,
    "c": 1.11512,
    "v": 1627
  },
  {
    "dt": "2023.08.07 05:00",
    "o": 1.11514,
    "h": 1.11534,
    "l": 1.11469,
    "c": 1.1148,
    "v": 1111
  },
  {
    "dt": "2023.08.07 06:00",
    "o": 1.11482,
    "h": 1.11484,
    "l": 1.11404,
    "c": 1.11428,
    "v": 612
  },
  {
    "dt": "2023.08.07 07:00",
    "o": 1.11428,
    "h": 1.11437,
    "l": 1.11338,
    "c": 1.11343,
    "v": 934
  },
  {
    "dt": "2023.08.07 08:00",
    "o": 1.11343,
    "h": 1.11391,
    "l": 1.11309,
    "c": 1.11345,
    "v": 1674
  },
  {
    "dt": "2023.08.07 09:00",
    "o": 1.11352,
    "h": 1.11524,
    "l": 1.11338,
    "c": 1.11427,
    "v": 2420
  },
  {
    "dt": "2023.08.07 10:00",
    "o": 1.11423,
    "h": 1.1147,
    "l": 1.11318,
    "c": 1.11351,
    "v": 2311
  },
  {
    "dt": "2023.08.07 11:00",
    "o": 1.11351,
    "h": 1.11544,
    "l": 1.11318,
    "c": 1.11453,
    "v": 2330
  },
  {
    "dt": "2023.08.07 12:00",
    "o": 1.11435,
    "h": 1.11561,
    "l": 1.11423,
    "c": 1.11534,
    "v": 2091
  },
  {
    "dt": "2023.08.07 13:00",
    "o": 1.11534,
    "h": 1.11641,
    "l": 1.11509,
    "c": 1.1164,
    "v": 1941
  },
  {
    "dt": "2023.08.07 14:00",
    "o": 1.11644,
    "h": 1.1173,
    "l": 1.11604,
    "c": 1.11632,
    "v": 1949
  },
  {
    "dt": "2023.08.07 15:00",
    "o": 1.1163,
    "h": 1.11755,
    "l": 1.11628,
    "c": 1.11728,
    "v": 2122
  },
  {
    "dt": "2023.08.07 16:00",
    "o": 1.11727,
    "h": 1.1173,
    "l": 1.11615,
    "c": 1.11676,
    "v": 2850
  },
  {
    "dt": "2023.08.07 17:00",
    "o": 1.11677,
    "h": 1.11721,
    "l": 1.11603,
    "c": 1.11668,
    "v": 2473
  },
  {
    "dt": "2023.08.07 18:00",
    "o": 1.1167,
    "h": 1.11686,
    "l": 1.11595,
    "c": 1.11605,
    "v": 1954
  },
  {
    "dt": "2023.08.07 19:00",
    "o": 1.11611,
    "h": 1.11637,
    "l": 1.11588,
    "c": 1.11636,
    "v": 1735
  },
  {
    "dt": "2023.08.07 20:00",
    "o": 1.11635,
    "h": 1.1168,
    "l": 1.11616,
    "c": 1.11673,
    "v": 1432
  },
  {
    "dt": "2023.08.07 21:00",
    "o": 1.11672,
    "h": 1.1168,
    "l": 1.11576,
    "c": 1.11582,
    "v": 1383
  },
  {
    "dt": "2023.08.07 22:00",
    "o": 1.11583,
    "h": 1.11636,
    "l": 1.11578,
    "c": 1.11605,
    "v": 1057
  },
  {
    "dt": "2023.08.07 23:00",
    "o": 1.11604,
    "h": 1.11625,
    "l": 1.11563,
    "c": 1.11571,
    "v": 728
  },
  {
    "dt": "2023.08.08 00:00",
    "o": 1.11514,
    "h": 1.11586,
    "l": 1.11479,
    "c": 1.11538,
    "v": 564
  },
  {
    "dt": "2023.08.08 01:00",
    "o": 1.11525,
    "h": 1.1156,
    "l": 1.11515,
    "c": 1.11535,
    "v": 436
  },
  {
    "dt": "2023.08.08 02:00",
    "o": 1.11534,
    "h": 1.11568,
    "l": 1.11522,
    "c": 1.11564,
    "v": 301
  },
  {
    "dt": "2023.08.08 03:00",
    "o": 1.11567,
    "h": 1.1163,
    "l": 1.1156,
    "c": 1.11576,
    "v": 986
  },
  {
    "dt": "2023.08.08 04:00",
    "o": 1.1158,
    "h": 1.11581,
    "l": 1.11523,
    "c": 1.11528,
    "v": 2093
  },
  {
    "dt": "2023.08.08 05:00",
    "o": 1.11526,
    "h": 1.11536,
    "l": 1.11465,
    "c": 1.11472,
    "v": 1617
  },
  {
    "dt": "2023.08.08 06:00",
    "o": 1.11474,
    "h": 1.11509,
    "l": 1.11461,
    "c": 1.11499,
    "v": 1370
  },
  {
    "dt": "2023.08.08 07:00",
    "o": 1.11496,
    "h": 1.11521,
    "l": 1.1148,
    "c": 1.1149,
    "v": 888
  },
  {
    "dt": "2023.08.08 08:00",
    "o": 1.11488,
    "h": 1.11491,
    "l": 1.11349,
    "c": 1.11349,
    "v": 1653
  },
  {
    "dt": "2023.08.08 09:00",
    "o": 1.11342,
    "h": 1.11465,
    "l": 1.11313,
    "c": 1.11418,
    "v": 3165
  },
  {
    "dt": "2023.08.08 10:00",
    "o": 1.11425,
    "h": 1.11584,
    "l": 1.11397,
    "c": 1.11577,
    "v": 3817
  },
  {
    "dt": "2023.08.08 11:00",
    "o": 1.11562,
    "h": 1.1158,
    "l": 1.11382,
    "c": 1.11417,
    "v": 2876
  },
  {
    "dt": "2023.08.08 12:00",
    "o": 1.11421,
    "h": 1.11467,
    "l": 1.11371,
    "c": 1.11422,
    "v": 2595
  },
  {
    "dt": "2023.08.08 13:00",
    "o": 1.11422,
    "h": 1.11529,
    "l": 1.11373,
    "c": 1.11502,
    "v": 2728
  },
  {
    "dt": "2023.08.08 14:00",
    "o": 1.115,
    "h": 1.11558,
    "l": 1.11377,
    "c": 1.11389,
    "v": 3185
  },
  {
    "dt": "2023.08.08 15:00",
    "o": 1.11391,
    "h": 1.11428,
    "l": 1.11259,
    "c": 1.11423,
    "v": 3786
  },
  {
    "dt": "2023.08.08 16:00",
    "o": 1.11421,
    "h": 1.11485,
    "l": 1.11272,
    "c": 1.11285,
    "v": 4055
  },
  {
    "dt": "2023.08.08 17:00",
    "o": 1.11285,
    "h": 1.11487,
    "l": 1.11272,
    "c": 1.11386,
    "v": 3773
  },
  {
    "dt": "2023.08.08 18:00",
    "o": 1.11387,
    "h": 1.11479,
    "l": 1.11367,
    "c": 1.11445,
    "v": 2688
  },
  {
    "dt": "2023.08.08 19:00",
    "o": 1.11445,
    "h": 1.11534,
    "l": 1.1144,
    "c": 1.11505,
    "v": 1653
  },
  {
    "dt": "2023.08.08 20:00",
    "o": 1.11504,
    "h": 1.11599,
    "l": 1.11488,
    "c": 1.11598,
    "v": 2007
  },
  {
    "dt": "2023.08.08 21:00",
    "o": 1.11598,
    "h": 1.11635,
    "l": 1.11564,
    "c": 1.11596,
    "v": 1640
  },
  {
    "dt": "2023.08.08 22:00",
    "o": 1.11595,
    "h": 1.11603,
    "l": 1.11561,
    "c": 1.11571,
    "v": 1253
  },
  {
    "dt": "2023.08.08 23:00",
    "o": 1.11569,
    "h": 1.11651,
    "l": 1.11564,
    "c": 1.1162,
    "v": 778
  },
  {
    "dt": "2023.08.09 00:00",
    "o": 1.11571,
    "h": 1.11571,
    "l": 1.11467,
    "c": 1.11507,
    "v": 514
  },
  {
    "dt": "2023.08.09 01:00",
    "o": 1.11506,
    "h": 1.11638,
    "l": 1.11506,
    "c": 1.11606,
    "v": 1059
  },
  {
    "dt": "2023.08.09 02:00",
    "o": 1.11607,
    "h": 1.1164,
    "l": 1.11558,
    "c": 1.11574,
    "v": 576
  },
  {
    "dt": "2023.08.09 03:00",
    "o": 1.1158,
    "h": 1.1158,
    "l": 1.11494,
    "c": 1.11511,
    "v": 1038
  },
  {
    "dt": "2023.08.09 04:00",
    "o": 1.11512,
    "h": 1.11568,
    "l": 1.11492,
    "c": 1.11566,
    "v": 1841
  },
  {
    "dt": "2023.08.09 05:00",
    "o": 1.11567,
    "h": 1.11585,
    "l": 1.11539,
    "c": 1.11563,
    "v": 1496
  },
  {
    "dt": "2023.08.09 06:00",
    "o": 1.11563,
    "h": 1.11566,
    "l": 1.11522,
    "c": 1.11542,
    "v": 1190
  },
  {
    "dt": "2023.08.09 07:00",
    "o": 1.11545,
    "h": 1.11567,
    "l": 1.11524,
    "c": 1.11563,
    "v": 1005
  },
  {
    "dt": "2023.08.09 08:00",
    "o": 1.11564,
    "h": 1.11581,
    "l": 1.11497,
    "c": 1.11497,
    "v": 1559
  },
  {
    "dt": "2023.08.09 09:00",
    "o": 1.11494,
    "h": 1.11632,
    "l": 1.11454,
    "c": 1.11626,
    "v": 2607
  },
  {
    "dt": "2023.08.09 10:00",
    "o": 1.11623,
    "h": 1.11674,
    "l": 1.11519,
    "c": 1.11549,
    "v": 2930
  },
  {
    "dt": "2023.08.09 11:00",
    "o": 1.11546,
    "h": 1.11597,
    "l": 1.11465,
    "c": 1.11561,
    "v": 2408
  },
  {
    "dt": "2023.08.09 12:00",
    "o": 1.11562,
    "h": 1.11625,
    "l": 1.11465,
    "c": 1.11514,
    "v": 2368
  },
  {
    "dt": "2023.08.09 13:00",
    "o": 1.11515,
    "h": 1.1166,
    "l": 1.11482,
    "c": 1.1166,
    "v": 2142
  },
  {
    "dt": "2023.08.09 14:00",
    "o": 1.11661,
    "h": 1.1175,
    "l": 1.11631,
    "c": 1.11716,
    "v": 2372
  },
  {
    "dt": "2023.08.09 15:00",
    "o": 1.11711,
    "h": 1.11732,
    "l": 1.11541,
    "c": 1.11568,
    "v": 3191
  },
  {
    "dt": "2023.08.09 16:00",
    "o": 1.11567,
    "h": 1.11669,
    "l": 1.11538,
    "c": 1.11602,
    "v": 3399
  },
  {
    "dt": "2023.08.09 17:00",
    "o": 1.11603,
    "h": 1.11666,
    "l": 1.11545,
    "c": 1.11624,
    "v": 3549
  },
  {
    "dt": "2023.08.09 18:00",
    "o": 1.11629,
    "h": 1.11629,
    "l": 1.11477,
    "c": 1.11497,
    "v": 2908
  },
  {
    "dt": "2023.08.09 19:00",
    "o": 1.11497,
    "h": 1.11602,
    "l": 1.11438,
    "c": 1.11554,
    "v": 2223
  },
  {
    "dt": "2023.08.09 20:00",
    "o": 1.11555,
    "h": 1.11615,
    "l": 1.11529,
    "c": 1.116,
    "v": 2001
  },
  {
    "dt": "2023.08.09 21:00",
    "o": 1.116,
    "h": 1.11651,
    "l": 1.11578,
    "c": 1.11619,
    "v": 1717
  },
  {
    "dt": "2023.08.09 22:00",
    "o": 1.11619,
    "h": 1.11664,
    "l": 1.11593,
    "c": 1.11598,
    "v": 1616
  },
  {
    "dt": "2023.08.09 23:00",
    "o": 1.11596,
    "h": 1.11604,
    "l": 1.11529,
    "c": 1.11554,
    "v": 892
  },
  {
    "dt": "2023.08.10 00:00",
    "o": 1.11471,
    "h": 1.11522,
    "l": 1.11396,
    "c": 1.11488,
    "v": 377
  },
  {
    "dt": "2023.08.10 01:00",
    "o": 1.11487,
    "h": 1.11535,
    "l": 1.11464,
    "c": 1.11514,
    "v": 521
  },
  {
    "dt": "2023.08.10 02:00",
    "o": 1.11514,
    "h": 1.11562,
    "l": 1.11514,
    "c": 1.1154,
    "v": 392
  },
  {
    "dt": "2023.08.10 03:00",
    "o": 1.11536,
    "h": 1.11546,
    "l": 1.11487,
    "c": 1.11498,
    "v": 1079
  },
  {
    "dt": "2023.08.10 04:00",
    "o": 1.11498,
    "h": 1.1156,
    "l": 1.11484,
    "c": 1.11526,
    "v": 1367
  },
  {
    "dt": "2023.08.10 05:00",
    "o": 1.11525,
    "h": 1.11546,
    "l": 1.11445,
    "c": 1.1148,
    "v": 1086
  },
  {
    "dt": "2023.08.10 06:00",
    "o": 1.11478,
    "h": 1.11505,
    "l": 1.11465,
    "c": 1.11471,
    "v": 696
  },
  {
    "dt": "2023.08.10 07:00",
    "o": 1.11471,
    "h": 1.11481,
    "l": 1.11423,
    "c": 1.11475,
    "v": 965
  },
  {
    "dt": "2023.08.10 08:00",
    "o": 1.11473,
    "h": 1.11558,
    "l": 1.11471,
    "c": 1.11511,
    "v": 1324
  },
  {
    "dt": "2023.08.10 09:00",
    "o": 1.11508,
    "h": 1.11562,
    "l": 1.11482,
    "c": 1.11562,
    "v": 2269
  },
  {
    "dt": "2023.08.10 10:00",
    "o": 1.11561,
    "h": 1.11574,
    "l": 1.11369,
    "c": 1.11377,
    "v": 3259
  },
  {
    "dt": "2023.08.10 11:00",
    "o": 1.11375,
    "h": 1.1143,
    "l": 1.11352,
    "c": 1.11391,
    "v": 2846
  },
  {
    "dt": "2023.08.10 12:00",
    "o": 1.11391,
    "h": 1.11482,
    "l": 1.11391,
    "c": 1.1145,
    "v": 2098
  },
  {
    "dt": "2023.08.10 13:00",
    "o": 1.11449,
    "h": 1.1151,
    "l": 1.1141,
    "c": 1.1149,
    "v": 1952
  },
  {
    "dt": "2023.08.10 14:00",
    "o": 1.11487,
    "h": 1.11523,
    "l": 1.11411,
    "c": 1.11418,
    "v": 1876
  },
  {
    "dt": "2023.08.10 15:00",
    "o": 1.11416,
    "h": 1.11595,
    "l": 1.11352,
    "c": 1.11427,
    "v": 4537
  },
  {
    "dt": "2023.08.10 16:00",
    "o": 1.11427,
    "h": 1.11537,
    "l": 1.1139,
    "c": 1.11428,
    "v": 5183
  },
  {
    "dt": "2023.08.10 17:00",
    "o": 1.11426,
    "h": 1.11513,
    "l": 1.11219,
    "c": 1.11247,
    "v": 4429
  },
  {
    "dt": "2023.08.10 18:00",
    "o": 1.11238,
    "h": 1.11267,
    "l": 1.11092,
    "c": 1.11151,
    "v": 3419
  },
  {
    "dt": "2023.08.10 19:00",
    "o": 1.11151,
    "h": 1.11164,
    "l": 1.11036,
    "c": 1.1111,
    "v": 3119
  },
  {
    "dt": "2023.08.10 20:00",
    "o": 1.11109,
    "h": 1.11263,
    "l": 1.11096,
    "c": 1.11116,
    "v": 3744
  },
  {
    "dt": "2023.08.10 21:00",
    "o": 1.11118,
    "h": 1.11158,
    "l": 1.11097,
    "c": 1.11153,
    "v": 3561
  },
  {
    "dt": "2023.08.10 22:00",
    "o": 1.11153,
    "h": 1.11165,
    "l": 1.11101,
    "c": 1.11134,
    "v": 2841
  },
  {
    "dt": "2023.08.10 23:00",
    "o": 1.11135,
    "h": 1.1114,
    "l": 1.11102,
    "c": 1.11128,
    "v": 1408
  },
  {
    "dt": "2023.08.11 00:00",
    "o": 1.10963,
    "h": 1.11113,
    "l": 1.10963,
    "c": 1.11044,
    "v": 601
  },
  {
    "dt": "2023.08.11 01:00",
    "o": 1.11048,
    "h": 1.11129,
    "l": 1.11045,
    "c": 1.1109,
    "v": 551
  },
  {
    "dt": "2023.08.11 02:00",
    "o": 1.11088,
    "h": 1.11123,
    "l": 1.11079,
    "c": 1.1109,
    "v": 409
  },
  {
    "dt": "2023.08.11 03:00",
    "o": 1.11089,
    "h": 1.11135,
    "l": 1.11073,
    "c": 1.11132,
    "v": 947
  },
  {
    "dt": "2023.08.11 04:00",
    "o": 1.11133,
    "h": 1.11165,
    "l": 1.1112,
    "c": 1.11134,
    "v": 1662
  },
  {
    "dt": "2023.08.11 05:00",
    "o": 1.11134,
    "h": 1.11137,
    "l": 1.11081,
    "c": 1.11091,
    "v": 1325
  },
  {
    "dt": "2023.08.11 06:00",
    "o": 1.1109,
    "h": 1.11125,
    "l": 1.11085,
    "c": 1.11116,
    "v": 1045
  },
  {
    "dt": "2023.08.11 07:00",
    "o": 1.11118,
    "h": 1.11137,
    "l": 1.1109,
    "c": 1.1113,
    "v": 900
  },
  {
    "dt": "2023.08.11 08:00",
    "o": 1.11131,
    "h": 1.11176,
    "l": 1.11101,
    "c": 1.11148,
    "v": 1791
  },
  {
    "dt": "2023.08.11 09:00",
    "o": 1.1115,
    "h": 1.11475,
    "l": 1.1115,
    "c": 1.11435,
    "v": 2799
  },
  {
    "dt": "2023.08.11 10:00",
    "o": 1.11424,
    "h": 1.11485,
    "l": 1.11322,
    "c": 1.11382,
    "v": 3292
  },
  {
    "dt": "2023.08.11 11:00",
    "o": 1.11384,
    "h": 1.11485,
    "l": 1.11357,
    "c": 1.11361,
    "v": 2672
  },
  {
    "dt": "2023.08.11 12:00",
    "o": 1.11359,
    "h": 1.11462,
    "l": 1.11333,
    "c": 1.11338,
    "v": 2619
  },
  {
    "dt": "2023.08.11 13:00",
    "o": 1.11335,
    "h": 1.11377,
    "l": 1.11263,
    "c": 1.1136,
    "v": 2391
  },
  {
    "dt": "2023.08.11 14:00",
    "o": 1.1136,
    "h": 1.11448,
    "l": 1.11326,
    "c": 1.1136,
    "v": 2439
  },
  {
    "dt": "2023.08.11 15:00",
    "o": 1.11364,
    "h": 1.11373,
    "l": 1.11134,
    "c": 1.11207,
    "v": 4118
  },
  {
    "dt": "2023.08.11 16:00",
    "o": 1.11204,
    "h": 1.11464,
    "l": 1.11196,
    "c": 1.11417,
    "v": 4276
  },
  {
    "dt": "2023.08.11 17:00",
    "o": 1.11319,
    "h": 1.11438,
    "l": 1.11279,
    "c": 1.11295,
    "v": 4828
  },
  {
    "dt": "2023.08.11 18:00",
    "o": 1.11296,
    "h": 1.11372,
    "l": 1.11217,
    "c": 1.11248,
    "v": 2860
  },
  {
    "dt": "2023.08.11 19:00",
    "o": 1.1125,
    "h": 1.11331,
    "l": 1.11246,
    "c": 1.11329,
    "v": 2084
  },
  {
    "dt": "2023.08.11 20:00",
    "o": 1.11326,
    "h": 1.11343,
    "l": 1.11261,
    "c": 1.1129,
    "v": 2057
  },
  {
    "dt": "2023.08.11 21:00",
    "o": 1.11288,
    "h": 1.11331,
    "l": 1.11212,
    "c": 1.11238,
    "v": 1728
  },
  {
    "dt": "2023.08.11 22:00",
    "o": 1.11237,
    "h": 1.11314,
    "l": 1.11227,
    "c": 1.11302,
    "v": 1554
  },
  {
    "dt": "2023.08.11 23:00",
    "o": 1.11305,
    "h": 1.1134,
    "l": 1.1118,
    "c": 1.11205,
    "v": 1085
  },
  {
    "dt": "2023.08.14 00:00",
    "o": 1.11213,
    "h": 1.11337,
    "l": 1.11205,
    "c": 1.11218,
    "v": 316
  },
  {
    "dt": "2023.08.14 01:00",
    "o": 1.11214,
    "h": 1.11298,
    "l": 1.11205,
    "c": 1.11254,
    "v": 758
  },
  {
    "dt": "2023.08.14 02:00",
    "o": 1.11253,
    "h": 1.11295,
    "l": 1.11251,
    "c": 1.11286,
    "v": 481
  },
  {
    "dt": "2023.08.14 03:00",
    "o": 1.11286,
    "h": 1.11326,
    "l": 1.1127,
    "c": 1.11274,
    "v": 1377
  },
  {
    "dt": "2023.08.14 04:00",
    "o": 1.11273,
    "h": 1.11278,
    "l": 1.1122,
    "c": 1.11248,
    "v": 1983
  },
  {
    "dt": "2023.08.14 05:00",
    "o": 1.11247,
    "h": 1.1126,
    "l": 1.11176,
    "c": 1.11201,
    "v": 1663
  },
  {
    "dt": "2023.08.14 06:00",
    "o": 1.112,
    "h": 1.11218,
    "l": 1.11164,
    "c": 1.11164,
    "v": 1361
  },
  {
    "dt": "2023.08.14 07:00",
    "o": 1.11164,
    "h": 1.11179,
    "l": 1.11127,
    "c": 1.11161,
    "v": 1300
  },
  {
    "dt": "2023.08.14 08:00",
    "o": 1.11162,
    "h": 1.1123,
    "l": 1.11158,
    "c": 1.11187,
    "v": 1454
  },
  {
    "dt": "2023.08.14 09:00",
    "o": 1.11184,
    "h": 1.11262,
    "l": 1.11123,
    "c": 1.11137,
    "v": 2584
  },
  {
    "dt": "2023.08.14 10:00",
    "o": 1.11135,
    "h": 1.11252,
    "l": 1.1107,
    "c": 1.11184,
    "v": 3158
  },
  {
    "dt": "2023.08.14 11:00",
    "o": 1.11188,
    "h": 1.11346,
    "l": 1.11163,
    "c": 1.11337,
    "v": 2894
  },
  {
    "dt": "2023.08.14 12:00",
    "o": 1.11336,
    "h": 1.1139,
    "l": 1.11239,
    "c": 1.11318,
    "v": 2882
  },
  {
    "dt": "2023.08.14 13:00",
    "o": 1.11318,
    "h": 1.11442,
    "l": 1.11302,
    "c": 1.11358,
    "v": 2302
  },
  {
    "dt": "2023.08.14 14:00",
    "o": 1.1136,
    "h": 1.11456,
    "l": 1.11318,
    "c": 1.11444,
    "v": 2367
  },
  {
    "dt": "2023.08.14 15:00",
    "o": 1.11446,
    "h": 1.11519,
    "l": 1.11365,
    "c": 1.11452,
    "v": 3565
  },
  {
    "dt": "2023.08.14 16:00",
    "o": 1.11453,
    "h": 1.11518,
    "l": 1.11325,
    "c": 1.11355,
    "v": 3754
  },
  {
    "dt": "2023.08.14 17:00",
    "o": 1.11356,
    "h": 1.11386,
    "l": 1.11153,
    "c": 1.11314,
    "v": 4314
  },
  {
    "dt": "2023.08.14 18:00",
    "o": 1.11315,
    "h": 1.11435,
    "l": 1.11287,
    "c": 1.11339,
    "v": 3539
  },
  {
    "dt": "2023.08.14 19:00",
    "o": 1.11338,
    "h": 1.11384,
    "l": 1.11272,
    "c": 1.11343,
    "v": 2732
  },
  {
    "dt": "2023.08.14 20:00",
    "o": 1.11346,
    "h": 1.11435,
    "l": 1.11312,
    "c": 1.11427,
    "v": 2049
  },
  {
    "dt": "2023.08.14 21:00",
    "o": 1.11425,
    "h": 1.11444,
    "l": 1.11394,
    "c": 1.11398,
    "v": 1697
  },
  {
    "dt": "2023.08.14 22:00",
    "o": 1.11399,
    "h": 1.11413,
    "l": 1.1136,
    "c": 1.11383,
    "v": 1588
  },
  {
    "dt": "2023.08.14 23:00",
    "o": 1.11378,
    "h": 1.11444,
    "l": 1.11332,
    "c": 1.114,
    "v": 899
  },
  {
    "dt": "2023.08.15 00:00",
    "o": 1.11408,
    "h": 1.11408,
    "l": 1.11326,
    "c": 1.11362,
    "v": 513
  },
  {
    "dt": "2023.08.15 01:00",
    "o": 1.11365,
    "h": 1.1142,
    "l": 1.11346,
    "c": 1.11375,
    "v": 585
  },
  {
    "dt": "2023.08.15 02:00",
    "o": 1.11376,
    "h": 1.11395,
    "l": 1.11357,
    "c": 1.11377,
    "v": 486
  },
  {
    "dt": "2023.08.15 03:00",
    "o": 1.11378,
    "h": 1.11386,
    "l": 1.11343,
    "c": 1.11356,
    "v": 1266
  },
  {
    "dt": "2023.08.15 04:00",
    "o": 1.11355,
    "h": 1.1139,
    "l": 1.11318,
    "c": 1.11371,
    "v": 2503
  },
  {
    "dt": "2023.08.15 05:00",
    "o": 1.11372,
    "h": 1.11385,
    "l": 1.11264,
    "c": 1.11272,
    "v": 1677
  },
  {
    "dt": "2023.08.15 06:00",
    "o": 1.11272,
    "h": 1.11286,
    "l": 1.11246,
    "c": 1.11255,
    "v": 922
  },
  {
    "dt": "2023.08.15 07:00",
    "o": 1.11258,
    "h": 1.11332,
    "l": 1.11255,
    "c": 1.11317,
    "v": 850
  },
  {
    "dt": "2023.08.15 08:00",
    "o": 1.11318,
    "h": 1.11388,
    "l": 1.11315,
    "c": 1.11336,
    "v": 1622
  },
  {
    "dt": "2023.08.15 09:00",
    "o": 1.11324,
    "h": 1.11565,
    "l": 1.11282,
    "c": 1.11502,
    "v": 3442
  },
  {
    "dt": "2023.08.15 10:00",
    "o": 1.11506,
    "h": 1.11506,
    "l": 1.11304,
    "c": 1.11344,
    "v": 3757
  },
  {
    "dt": "2023.08.15 11:00",
    "o": 1.11345,
    "h": 1.11349,
    "l": 1.11189,
    "c": 1.11331,
    "v": 3288
  },
  {
    "dt": "2023.08.15 12:00",
    "o": 1.11327,
    "h": 1.11346,
    "l": 1.11241,
    "c": 1.11341,
    "v": 3317
  },
  {
    "dt": "2023.08.15 13:00",
    "o": 1.1134,
    "h": 1.11392,
    "l": 1.1128,
    "c": 1.11322,
    "v": 3248
  },
  {
    "dt": "2023.08.15 14:00",
    "o": 1.11321,
    "h": 1.11463,
    "l": 1.11264,
    "c": 1.11456,
    "v": 3029
  },
  {
    "dt": "2023.08.15 15:00",
    "o": 1.11456,
    "h": 1.11572,
    "l": 1.11403,
    "c": 1.11512,
    "v": 4735
  },
  {
    "dt": "2023.08.15 16:00",
    "o": 1.11509,
    "h": 1.11622,
    "l": 1.11469,
    "c": 1.11553,
    "v": 5281
  },
  {
    "dt": "2023.08.15 17:00",
    "o": 1.1155,
    "h": 1.117,
    "l": 1.11537,
    "c": 1.11618,
    "v": 4754
  },
  {
    "dt": "2023.08.15 18:00",
    "o": 1.11616,
    "h": 1.11785,
    "l": 1.1161,
    "c": 1.11739,
    "v": 3560
  },
  {
    "dt": "2023.08.15 19:00",
    "o": 1.11741,
    "h": 1.11781,
    "l": 1.117,
    "c": 1.11742,
    "v": 2603
  },
  {
    "dt": "2023.08.15 20:00",
    "o": 1.11737,
    "h": 1.11745,
    "l": 1.11573,
    "c": 1.1159,
    "v": 2608
  },
  {
    "dt": "2023.08.15 21:00",
    "o": 1.11597,
    "h": 1.11651,
    "l": 1.11577,
    "c": 1.11643,
    "v": 1972
  },
  {
    "dt": "2023.08.15 22:00",
    "o": 1.11646,
    "h": 1.11655,
    "l": 1.11542,
    "c": 1.11597,
    "v": 2325
  },
  {
    "dt": "2023.08.15 23:00",
    "o": 1.11595,
    "h": 1.11603,
    "l": 1.11535,
    "c": 1.11594,
    "v": 990
  },
  {
    "dt": "2023.08.16 00:00",
    "o": 1.11506,
    "h": 1.11548,
    "l": 1.11458,
    "c": 1.11498,
    "v": 721
  },
  {
    "dt": "2023.08.16 01:00",
    "o": 1.11501,
    "h": 1.11598,
    "l": 1.11501,
    "c": 1.11595,
    "v": 748
  },
  {
    "dt": "2023.08.16 02:00",
    "o": 1.11595,
    "h": 1.11623,
    "l": 1.11577,
    "c": 1.11585,
    "v": 506
  },
  {
    "dt": "2023.08.16 03:00",
    "o": 1.11587,
    "h": 1.11595,
    "l": 1.11539,
    "c": 1.11574,
    "v": 1457
  },
  {
    "dt": "2023.08.16 04:00",
    "o": 1.11568,
    "h": 1.11576,
    "l": 1.115,
    "c": 1.11528,
    "v": 2317
  },
  {
    "dt": "2023.08.16 05:00",
    "o": 1.11539,
    "h": 1.11562,
    "l": 1.11496,
    "c": 1.11539,
    "v": 1544
  },
  {
    "dt": "2023.08.16 06:00",
    "o": 1.11538,
    "h": 1.11561,
    "l": 1.1152,
    "c": 1.11533,
    "v": 1291
  },
  {
    "dt": "2023.08.16 07:00",
    "o": 1.1153,
    "h": 1.11581,
    "l": 1.11526,
    "c": 1.11576,
    "v": 907
  },
  {
    "dt": "2023.08.16 08:00",
    "o": 1.11574,
    "h": 1.11589,
    "l": 1.1152,
    "c": 1.11541,
    "v": 1567
  },
  {
    "dt": "2023.08.16 09:00",
    "o": 1.1156,
    "h": 1.11769,
    "l": 1.1156,
    "c": 1.11721,
    "v": 3429
  },
  {
    "dt": "2023.08.16 10:00",
    "o": 1.11726,
    "h": 1.11939,
    "l": 1.11726,
    "c": 1.11912,
    "v": 3467
  },
  {
    "dt": "2023.08.16 11:00",
    "o": 1.11916,
    "h": 1.12093,
    "l": 1.11894,
    "c": 1.12003,
    "v": 3105
  },
  {
    "dt": "2023.08.16 12:00",
    "o": 1.12002,
    "h": 1.1209,
    "l": 1.11988,
    "c": 1.12074,
    "v": 2782
  },
  {
    "dt": "2023.08.16 13:00",
    "o": 1.12075,
    "h": 1.12089,
    "l": 1.11933,
    "c": 1.12005,
    "v": 2411
  },
  {
    "dt": "2023.08.16 14:00",
    "o": 1.12012,
    "h": 1.12159,
    "l": 1.12009,
    "c": 1.12125,
    "v": 2642
  },
  {
    "dt": "2023.08.16 15:00",
    "o": 1.12125,
    "h": 1.12169,
    "l": 1.12066,
    "c": 1.12094,
    "v": 3508
  },
  {
    "dt": "2023.08.16 16:00",
    "o": 1.12093,
    "h": 1.12125,
    "l": 1.1193,
    "c": 1.12124,
    "v": 4464
  },
  {
    "dt": "2023.08.16 17:00",
    "o": 1.12121,
    "h": 1.12177,
    "l": 1.12047,
    "c": 1.12085,
    "v": 4393
  },
  {
    "dt": "2023.08.16 18:00",
    "o": 1.12083,
    "h": 1.12091,
    "l": 1.11989,
    "c": 1.11993,
    "v": 3341
  },
  {
    "dt": "2023.08.16 19:00",
    "o": 1.11994,
    "h": 1.12045,
    "l": 1.11882,
    "c": 1.11957,
    "v": 2705
  },
  {
    "dt": "2023.08.16 20:00",
    "o": 1.11957,
    "h": 1.1196,
    "l": 1.1186,
    "c": 1.11923,
    "v": 2262
  },
  {
    "dt": "2023.08.16 21:00",
    "o": 1.11907,
    "h": 1.11998,
    "l": 1.11896,
    "c": 1.11921,
    "v": 4086
  },
  {
    "dt": "2023.08.16 22:00",
    "o": 1.11923,
    "h": 1.11988,
    "l": 1.11889,
    "c": 1.1196,
    "v": 2732
  },
  {
    "dt": "2023.08.16 23:00",
    "o": 1.1196,
    "h": 1.12029,
    "l": 1.11955,
    "c": 1.12021,
    "v": 1249
  },
  {
    "dt": "2023.08.17 00:00",
    "o": 1.12083,
    "h": 1.1209,
    "l": 1.11915,
    "c": 1.11994,
    "v": 819
  },
  {
    "dt": "2023.08.17 01:00",
    "o": 1.11991,
    "h": 1.12025,
    "l": 1.1195,
    "c": 1.12005,
    "v": 689
  },
  {
    "dt": "2023.08.17 02:00",
    "o": 1.12001,
    "h": 1.1203,
    "l": 1.11991,
    "c": 1.12012,
    "v": 580
  },
  {
    "dt": "2023.08.17 03:00",
    "o": 1.12013,
    "h": 1.12024,
    "l": 1.11974,
    "c": 1.11998,
    "v": 1749
  },
  {
    "dt": "2023.08.17 04:00",
    "o": 1.11996,
    "h": 1.12,
    "l": 1.11938,
    "c": 1.1199,
    "v": 2406
  },
  {
    "dt": "2023.08.17 05:00",
    "o": 1.11989,
    "h": 1.11991,
    "l": 1.11928,
    "c": 1.11948,
    "v": 1498
  },
  {
    "dt": "2023.08.17 06:00",
    "o": 1.11947,
    "h": 1.11949,
    "l": 1.11917,
    "c": 1.11948,
    "v": 1494
  },
  {
    "dt": "2023.08.17 07:00",
    "o": 1.11949,
    "h": 1.11993,
    "l": 1.11933,
    "c": 1.11989,
    "v": 1246
  },
  {
    "dt": "2023.08.17 08:00",
    "o": 1.11991,
    "h": 1.12029,
    "l": 1.11927,
    "c": 1.11927,
    "v": 1791
  },
  {
    "dt": "2023.08.17 09:00",
    "o": 1.11931,
    "h": 1.12083,
    "l": 1.1193,
    "c": 1.12055,
    "v": 3097
  },
  {
    "dt": "2023.08.17 10:00",
    "o": 1.1205,
    "h": 1.12092,
    "l": 1.1197,
    "c": 1.1202,
    "v": 3419
  },
  {
    "dt": "2023.08.17 11:00",
    "o": 1.12022,
    "h": 1.12079,
    "l": 1.11755,
    "c": 1.11774,
    "v": 2601
  },
  {
    "dt": "2023.08.17 12:00",
    "o": 1.11774,
    "h": 1.11843,
    "l": 1.11706,
    "c": 1.1184,
    "v": 3033
  },
  {
    "dt": "2023.08.17 13:00",
    "o": 1.11839,
    "h": 1.12074,
    "l": 1.11818,
    "c": 1.12027,
    "v": 3302
  },
  {
    "dt": "2023.08.17 14:00",
    "o": 1.12026,
    "h": 1.12062,
    "l": 1.11915,
    "c": 1.11945,
    "v": 3111
  },
  {
    "dt": "2023.08.17 15:00",
    "o": 1.11944,
    "h": 1.12034,
    "l": 1.11852,
    "c": 1.11987,
    "v": 4334
  },
  {
    "dt": "2023.08.17 16:00",
    "o": 1.11983,
    "h": 1.12105,
    "l": 1.11964,
    "c": 1.12008,
    "v": 4591
  },
  {
    "dt": "2023.08.17 17:00",
    "o": 1.1201,
    "h": 1.12037,
    "l": 1.11941,
    "c": 1.12035,
    "v": 4157
  },
  {
    "dt": "2023.08.17 18:00",
    "o": 1.12036,
    "h": 1.12107,
    "l": 1.1199,
    "c": 1.12093,
    "v": 3426
  },
  {
    "dt": "2023.08.17 19:00",
    "o": 1.12093,
    "h": 1.12168,
    "l": 1.12093,
    "c": 1.12166,
    "v": 3153
  },
  {
    "dt": "2023.08.17 20:00",
    "o": 1.12166,
    "h": 1.12193,
    "l": 1.12052,
    "c": 1.12058,
    "v": 2626
  },
  {
    "dt": "2023.08.17 21:00",
    "o": 1.12056,
    "h": 1.12058,
    "l": 1.1198,
    "c": 1.11992,
    "v": 2519
  },
  {
    "dt": "2023.08.17 22:00",
    "o": 1.11991,
    "h": 1.12034,
    "l": 1.11925,
    "c": 1.11926,
    "v": 2848
  },
  {
    "dt": "2023.08.17 23:00",
    "o": 1.11926,
    "h": 1.11974,
    "l": 1.11919,
    "c": 1.1195,
    "v": 748
  },
  {
    "dt": "2023.08.18 00:00",
    "o": 1.11873,
    "h": 1.1199,
    "l": 1.11781,
    "c": 1.11921,
    "v": 456
  },
  {
    "dt": "2023.08.18 01:00",
    "o": 1.11908,
    "h": 1.11936,
    "l": 1.1185,
    "c": 1.1192,
    "v": 815
  },
  {
    "dt": "2023.08.18 02:00",
    "o": 1.1192,
    "h": 1.11964,
    "l": 1.1191,
    "c": 1.11951,
    "v": 646
  },
  {
    "dt": "2023.08.18 03:00",
    "o": 1.11952,
    "h": 1.12049,
    "l": 1.11933,
    "c": 1.11939,
    "v": 1397
  },
  {
    "dt": "2023.08.18 04:00",
    "o": 1.11946,
    "h": 1.12039,
    "l": 1.11946,
    "c": 1.12037,
    "v": 1949
  },
  {
    "dt": "2023.08.18 05:00",
    "o": 1.12037,
    "h": 1.12042,
    "l": 1.11934,
    "c": 1.11941,
    "v": 1359
  },
  {
    "dt": "2023.08.18 06:00",
    "o": 1.11936,
    "h": 1.11992,
    "l": 1.11936,
    "c": 1.11948,
    "v": 1480
  },
  {
    "dt": "2023.08.18 07:00",
    "o": 1.11952,
    "h": 1.11974,
    "l": 1.11912,
    "c": 1.11974,
    "v": 1111
  },
  {
    "dt": "2023.08.18 08:00",
    "o": 1.11974,
    "h": 1.12016,
    "l": 1.11937,
    "c": 1.11986,
    "v": 1498
  },
  {
    "dt": "2023.08.18 09:00",
    "o": 1.12025,
    "h": 1.12025,
    "l": 1.11706,
    "c": 1.11781,
    "v": 3336
  },
  {
    "dt": "2023.08.18 10:00",
    "o": 1.11782,
    "h": 1.11933,
    "l": 1.11782,
    "c": 1.11846,
    "v": 3856
  },
  {
    "dt": "2023.08.18 11:00",
    "o": 1.11847,
    "h": 1.12039,
    "l": 1.11821,
    "c": 1.11966,
    "v": 2925
  },
  {
    "dt": "2023.08.18 12:00",
    "o": 1.11967,
    "h": 1.12021,
    "l": 1.1186,
    "c": 1.12006,
    "v": 2467
  },
  {
    "dt": "2023.08.18 13:00",
    "o": 1.12003,
    "h": 1.12084,
    "l": 1.11959,
    "c": 1.1202,
    "v": 2711
  },
  {
    "dt": "2023.08.18 14:00",
    "o": 1.12021,
    "h": 1.12022,
    "l": 1.11858,
    "c": 1.11858,
    "v": 2621
  },
  {
    "dt": "2023.08.18 15:00",
    "o": 1.11856,
    "h": 1.12034,
    "l": 1.11855,
    "c": 1.12023,
    "v": 3708
  },
  {
    "dt": "2023.08.18 16:00",
    "o": 1.12026,
    "h": 1.12157,
    "l": 1.1199,
    "c": 1.12132,
    "v": 4360
  },
  {
    "dt": "2023.08.18 17:00",
    "o": 1.12133,
    "h": 1.12201,
    "l": 1.12066,
    "c": 1.12159,
    "v": 3748
  },
  {
    "dt": "2023.08.18 18:00",
    "o": 1.12162,
    "h": 1.12346,
    "l": 1.12113,
    "c": 1.12291,
    "v": 2962
  },
  {
    "dt": "2023.08.18 19:00",
    "o": 1.1229,
    "h": 1.12373,
    "l": 1.1226,
    "c": 1.1237,
    "v": 2554
  },
  {
    "dt": "2023.08.18 20:00",
    "o": 1.1237,
    "h": 1.12395,
    "l": 1.1232,
    "c": 1.12374,
    "v": 2333
  },
  {
    "dt": "2023.08.18 21:00",
    "o": 1.1238,
    "h": 1.12427,
    "l": 1.12357,
    "c": 1.12385,
    "v": 1517
  },
  {
    "dt": "2023.08.18 22:00",
    "o": 1.12385,
    "h": 1.12414,
    "l": 1.12308,
    "c": 1.12366,
    "v": 2054
  },
  {
    "dt": "2023.08.18 23:00",
    "o": 1.1236,
    "h": 1.12394,
    "l": 1.12289,
    "c": 1.12327,
    "v": 1311
  },
  {
    "dt": "2023.08.21 00:00",
    "o": 1.12216,
    "h": 1.12344,
    "l": 1.12216,
    "c": 1.1226,
    "v": 186
  },
  {
    "dt": "2023.08.21 01:00",
    "o": 1.12234,
    "h": 1.12358,
    "l": 1.12228,
    "c": 1.1233,
    "v": 891
  },
  {
    "dt": "2023.08.21 02:00",
    "o": 1.12349,
    "h": 1.1242,
    "l": 1.12343,
    "c": 1.12419,
    "v": 709
  },
  {
    "dt": "2023.08.21 03:00",
    "o": 1.12415,
    "h": 1.12415,
    "l": 1.12334,
    "c": 1.12357,
    "v": 1238
  },
  {
    "dt": "2023.08.21 04:00",
    "o": 1.12353,
    "h": 1.12393,
    "l": 1.12343,
    "c": 1.12374,
    "v": 1842
  },
  {
    "dt": "2023.08.21 05:00",
    "o": 1.12375,
    "h": 1.12388,
    "l": 1.12321,
    "c": 1.1233,
    "v": 1235
  },
  {
    "dt": "2023.08.21 06:00",
    "o": 1.1233,
    "h": 1.12364,
    "l": 1.12324,
    "c": 1.1234,
    "v": 861
  },
  {
    "dt": "2023.08.21 07:00",
    "o": 1.12341,
    "h": 1.12365,
    "l": 1.12334,
    "c": 1.12359,
    "v": 1090
  },
  {
    "dt": "2023.08.21 08:00",
    "o": 1.12355,
    "h": 1.12371,
    "l": 1.12328,
    "c": 1.12364,
    "v": 1301
  },
  {
    "dt": "2023.08.21 09:00",
    "o": 1.12366,
    "h": 1.12404,
    "l": 1.12125,
    "c": 1.12125,
    "v": 2443
  },
  {
    "dt": "2023.08.21 10:00",
    "o": 1.12124,
    "h": 1.12174,
    "l": 1.11906,
    "c": 1.11906,
    "v": 3431
  },
  {
    "dt": "2023.08.21 11:00",
    "o": 1.11909,
    "h": 1.11979,
    "l": 1.11841,
    "c": 1.11973,
    "v": 2763
  },
  {
    "dt": "2023.08.21 12:00",
    "o": 1.11977,
    "h": 1.12052,
    "l": 1.11881,
    "c": 1.12038,
    "v": 2889
  },
  {
    "dt": "2023.08.21 13:00",
    "o": 1.12042,
    "h": 1.1212,
    "l": 1.12012,
    "c": 1.12118,
    "v": 2474
  },
  {
    "dt": "2023.08.21 14:00",
    "o": 1.12117,
    "h": 1.12226,
    "l": 1.12115,
    "c": 1.12171,
    "v": 3002
  },
  {
    "dt": "2023.08.21 15:00",
    "o": 1.1217,
    "h": 1.12211,
    "l": 1.12099,
    "c": 1.12112,
    "v": 3356
  },
  {
    "dt": "2023.08.21 16:00",
    "o": 1.12112,
    "h": 1.12216,
    "l": 1.121,
    "c": 1.12162,
    "v": 4017
  },
  {
    "dt": "2023.08.21 17:00",
    "o": 1.12166,
    "h": 1.12171,
    "l": 1.12069,
    "c": 1.12077,
    "v": 3749
  },
  {
    "dt": "2023.08.21 18:00",
    "o": 1.12077,
    "h": 1.12096,
    "l": 1.12003,
    "c": 1.12057,
    "v": 2455
  },
  {
    "dt": "2023.08.21 19:00",
    "o": 1.12059,
    "h": 1.1211,
    "l": 1.11977,
    "c": 1.12074,
    "v": 2166
  },
  {
    "dt": "2023.08.21 20:00",
    "o": 1.12073,
    "h": 1.12116,
    "l": 1.12054,
    "c": 1.12089,
    "v": 1885
  },
  {
    "dt": "2023.08.21 21:00",
    "o": 1.12092,
    "h": 1.12117,
    "l": 1.12058,
    "c": 1.12117,
    "v": 1734
  },
  {
    "dt": "2023.08.21 22:00",
    "o": 1.12114,
    "h": 1.12121,
    "l": 1.12042,
    "c": 1.12051,
    "v": 1830
  },
  {
    "dt": "2023.08.21 23:00",
    "o": 1.12049,
    "h": 1.12075,
    "l": 1.12031,
    "c": 1.12063,
    "v": 826
  },
  {
    "dt": "2023.08.22 00:00",
    "o": 1.12067,
    "h": 1.12089,
    "l": 1.11993,
    "c": 1.1202,
    "v": 670
  },
  {
    "dt": "2023.08.22 01:00",
    "o": 1.12001,
    "h": 1.12073,
    "l": 1.12001,
    "c": 1.12067,
    "v": 450
  },
  {
    "dt": "2023.08.22 02:00",
    "o": 1.12065,
    "h": 1.12102,
    "l": 1.12065,
    "c": 1.12089,
    "v": 461
  },
  {
    "dt": "2023.08.22 03:00",
    "o": 1.12094,
    "h": 1.12141,
    "l": 1.12061,
    "c": 1.12087,
    "v": 1135
  },
  {
    "dt": "2023.08.22 04:00",
    "o": 1.12085,
    "h": 1.12099,
    "l": 1.12022,
    "c": 1.12052,
    "v": 1672
  },
  {
    "dt": "2023.08.22 05:00",
    "o": 1.12051,
    "h": 1.12066,
    "l": 1.12029,
    "c": 1.12064,
    "v": 1350
  },
  {
    "dt": "2023.08.22 06:00",
    "o": 1.12063,
    "h": 1.121,
    "l": 1.1205,
    "c": 1.12071,
    "v": 1504
  },
  {
    "dt": "2023.08.22 07:00",
    "o": 1.12069,
    "h": 1.12124,
    "l": 1.12068,
    "c": 1.12105,
    "v": 882
  },
  {
    "dt": "2023.08.22 08:00",
    "o": 1.12108,
    "h": 1.1215,
    "l": 1.12105,
    "c": 1.12131,
    "v": 1815
  },
  {
    "dt": "2023.08.22 09:00",
    "o": 1.12127,
    "h": 1.12219,
    "l": 1.12107,
    "c": 1.12134,
    "v": 2837
  },
  {
    "dt": "2023.08.22 10:00",
    "o": 1.12126,
    "h": 1.12299,
    "l": 1.12092,
    "c": 1.12294,
    "v": 3076
  },
  {
    "dt": "2023.08.22 11:00",
    "o": 1.12293,
    "h": 1.12306,
    "l": 1.12123,
    "c": 1.1216,
    "v": 2358
  },
  {
    "dt": "2023.08.22 12:00",
    "o": 1.12158,
    "h": 1.12209,
    "l": 1.12077,
    "c": 1.12126,
    "v": 2377
  },
  {
    "dt": "2023.08.22 13:00",
    "o": 1.12124,
    "h": 1.12171,
    "l": 1.1199,
    "c": 1.12034,
    "v": 2648
  },
  {
    "dt": "2023.08.22 14:00",
    "o": 1.12035,
    "h": 1.12108,
    "l": 1.11984,
    "c": 1.12085,
    "v": 2554
  },
  {
    "dt": "2023.08.22 15:00",
    "o": 1.12089,
    "h": 1.12158,
    "l": 1.12002,
    "c": 1.12051,
    "v": 3658
  },
  {
    "dt": "2023.08.22 16:00",
    "o": 1.1205,
    "h": 1.12155,
    "l": 1.11938,
    "c": 1.12011,
    "v": 4007
  },
  {
    "dt": "2023.08.22 17:00",
    "o": 1.12009,
    "h": 1.12081,
    "l": 1.11952,
    "c": 1.12045,
    "v": 3792
  },
  {
    "dt": "2023.08.22 18:00",
    "o": 1.12045,
    "h": 1.12082,
    "l": 1.11985,
    "c": 1.12027,
    "v": 2791
  },
  {
    "dt": "2023.08.22 19:00",
    "o": 1.12024,
    "h": 1.1206,
    "l": 1.11994,
    "c": 1.12023,
    "v": 2064
  },
  {
    "dt": "2023.08.22 20:00",
    "o": 1.12019,
    "h": 1.12083,
    "l": 1.12002,
    "c": 1.12075,
    "v": 1608
  },
  {
    "dt": "2023.08.22 21:00",
    "o": 1.12075,
    "h": 1.12121,
    "l": 1.12062,
    "c": 1.12091,
    "v": 1232
  },
  {
    "dt": "2023.08.22 22:00",
    "o": 1.12089,
    "h": 1.121,
    "l": 1.12076,
    "c": 1.12086,
    "v": 1173
  },
  {
    "dt": "2023.08.22 23:00",
    "o": 1.12085,
    "h": 1.12107,
    "l": 1.12042,
    "c": 1.12093,
    "v": 887
  },
  {
    "dt": "2023.08.23 00:00",
    "o": 1.12005,
    "h": 1.12066,
    "l": 1.11965,
    "c": 1.12005,
    "v": 365
  },
  {
    "dt": "2023.08.23 01:00",
    "o": 1.11988,
    "h": 1.12089,
    "l": 1.11988,
    "c": 1.12029,
    "v": 686
  },
  {
    "dt": "2023.08.23 02:00",
    "o": 1.12028,
    "h": 1.12049,
    "l": 1.12019,
    "c": 1.12046,
    "v": 233
  },
  {
    "dt": "2023.08.23 03:00",
    "o": 1.12045,
    "h": 1.12119,
    "l": 1.12033,
    "c": 1.12118,
    "v": 1231
  },
  {
    "dt": "2023.08.23 04:00",
    "o": 1.12116,
    "h": 1.12145,
    "l": 1.12097,
    "c": 1.12126,
    "v": 1902
  },
  {
    "dt": "2023.08.23 05:00",
    "o": 1.12124,
    "h": 1.12158,
    "l": 1.12092,
    "c": 1.12135,
    "v": 1277
  },
  {
    "dt": "2023.08.23 06:00",
    "o": 1.12135,
    "h": 1.12157,
    "l": 1.1211,
    "c": 1.12143,
    "v": 941
  },
  {
    "dt": "2023.08.23 07:00",
    "o": 1.12145,
    "h": 1.12174,
    "l": 1.12139,
    "c": 1.12144,
    "v": 735
  },
  {
    "dt": "2023.08.23 08:00",
    "o": 1.12141,
    "h": 1.12191,
    "l": 1.12134,
    "c": 1.12149,
    "v": 1400
  },
  {
    "dt": "2023.08.23 09:00",
    "o": 1.12157,
    "h": 1.12208,
    "l": 1.12099,
    "c": 1.12135,
    "v": 2098
  },
  {
    "dt": "2023.08.23 10:00",
    "o": 1.12129,
    "h": 1.12207,
    "l": 1.11874,
    "c": 1.11973,
    "v": 3911
  },
  {
    "dt": "2023.08.23 11:00",
    "o": 1.11979,
    "h": 1.12002,
    "l": 1.1158,
    "c": 1.11613,
    "v": 3768
  },
  {
    "dt": "2023.08.23 12:00",
    "o": 1.11614,
    "h": 1.11615,
    "l": 1.11312,
    "c": 1.11378,
    "v": 3303
  },
  {
    "dt": "2023.08.23 13:00",
    "o": 1.1137,
    "h": 1.11443,
    "l": 1.11271,
    "c": 1.11307,
    "v": 2818
  },
  {
    "dt": "2023.08.23 14:00",
    "o": 1.11308,
    "h": 1.11421,
    "l": 1.11209,
    "c": 1.11267,
    "v": 3101
  },
  {
    "dt": "2023.08.23 15:00",
    "o": 1.11266,
    "h": 1.11302,
    "l": 1.11147,
    "c": 1.11299,
    "v": 3479
  },
  {
    "dt": "2023.08.23 16:00",
    "o": 1.11299,
    "h": 1.11349,
    "l": 1.11164,
    "c": 1.11341,
    "v": 4433
  },
  {
    "dt": "2023.08.23 17:00",
    "o": 1.11341,
    "h": 1.11559,
    "l": 1.11252,
    "c": 1.11516,
    "v": 4477
  },
  {
    "dt": "2023.08.23 18:00",
    "o": 1.1152,
    "h": 1.1169,
    "l": 1.1148,
    "c": 1.11682,
    "v": 3424
  },
  {
    "dt": "2023.08.23 19:00",
    "o": 1.1168,
    "h": 1.11771,
    "l": 1.11655,
    "c": 1.11727,
    "v": 1996
  },
  {
    "dt": "2023.08.23 20:00",
    "o": 1.11729,
    "h": 1.11776,
    "l": 1.11665,
    "c": 1.11732,
    "v": 1648
  },
  {
    "dt": "2023.08.23 21:00",
    "o": 1.11732,
    "h": 1.11835,
    "l": 1.11626,
    "c": 1.11639,
    "v": 1715
  },
  {
    "dt": "2023.08.23 22:00",
    "o": 1.1164,
    "h": 1.1167,
    "l": 1.11582,
    "c": 1.11624,
    "v": 1831
  },
  {
    "dt": "2023.08.23 23:00",
    "o": 1.11625,
    "h": 1.11704,
    "l": 1.11608,
    "c": 1.11704,
    "v": 1636
  },
  {
    "dt": "2023.08.24 00:00",
    "o": 1.11592,
    "h": 1.11651,
    "l": 1.11533,
    "c": 1.1162,
    "v": 617
  },
  {
    "dt": "2023.08.24 01:00",
    "o": 1.11595,
    "h": 1.11678,
    "l": 1.11582,
    "c": 1.1162,
    "v": 800
  },
  {
    "dt": "2023.08.24 02:00",
    "o": 1.1162,
    "h": 1.11638,
    "l": 1.11577,
    "c": 1.11592,
    "v": 524
  },
  {
    "dt": "2023.08.24 03:00",
    "o": 1.11593,
    "h": 1.11595,
    "l": 1.11507,
    "c": 1.11527,
    "v": 1179
  },
  {
    "dt": "2023.08.24 04:00",
    "o": 1.11531,
    "h": 1.11553,
    "l": 1.11512,
    "c": 1.11523,
    "v": 1540
  },
  {
    "dt": "2023.08.24 05:00",
    "o": 1.11523,
    "h": 1.11571,
    "l": 1.11508,
    "c": 1.11535,
    "v": 1368
  },
  {
    "dt": "2023.08.24 06:00",
    "o": 1.11536,
    "h": 1.11537,
    "l": 1.11454,
    "c": 1.11511,
    "v": 1234
  },
  {
    "dt": "2023.08.24 07:00",
    "o": 1.11511,
    "h": 1.11597,
    "l": 1.11508,
    "c": 1.11572,
    "v": 1025
  },
  {
    "dt": "2023.08.24 08:00",
    "o": 1.11568,
    "h": 1.11573,
    "l": 1.11488,
    "c": 1.11523,
    "v": 1197
  },
  {
    "dt": "2023.08.24 09:00",
    "o": 1.11508,
    "h": 1.11544,
    "l": 1.11412,
    "c": 1.11461,
    "v": 2430
  },
  {
    "dt": "2023.08.24 10:00",
    "o": 1.11464,
    "h": 1.11781,
    "l": 1.11442,
    "c": 1.11693,
    "v": 3320
  },
  {
    "dt": "2023.08.24 11:00",
    "o": 1.11693,
    "h": 1.11765,
    "l": 1.11593,
    "c": 1.1164,
    "v": 2831
  },
  {
    "dt": "2023.08.24 12:00",
    "o": 1.11639,
    "h": 1.11708,
    "l": 1.11558,
    "c": 1.11599,
    "v": 2707
  },
  {
    "dt": "2023.08.24 13:00",
    "o": 1.11596,
    "h": 1.11668,
    "l": 1.11512,
    "c": 1.11609,
    "v": 2281
  },
  {
    "dt": "2023.08.24 14:00",
    "o": 1.1161,
    "h": 1.11728,
    "l": 1.1158,
    "c": 1.11595,
    "v": 2619
  },
  {
    "dt": "2023.08.24 15:00",
    "o": 1.11595,
    "h": 1.11715,
    "l": 1.11515,
    "c": 1.11552,
    "v": 3638
  },
  {
    "dt": "2023.08.24 16:00",
    "o": 1.11553,
    "h": 1.11571,
    "l": 1.1132,
    "c": 1.11374,
    "v": 3743
  },
  {
    "dt": "2023.08.24 17:00",
    "o": 1.11377,
    "h": 1.1161,
    "l": 1.11359,
    "c": 1.11548,
    "v": 3888
  },
  {
    "dt": "2023.08.24 18:00",
    "o": 1.1155,
    "h": 1.11552,
    "l": 1.11441,
    "c": 1.11464,
    "v": 2708
  },
  {
    "dt": "2023.08.24 19:00",
    "o": 1.11471,
    "h": 1.11525,
    "l": 1.11437,
    "c": 1.1147,
    "v": 2054
  },
  {
    "dt": "2023.08.24 20:00",
    "o": 1.11467,
    "h": 1.11508,
    "l": 1.11433,
    "c": 1.11464,
    "v": 1801
  },
  {
    "dt": "2023.08.24 21:00",
    "o": 1.11463,
    "h": 1.1153,
    "l": 1.11455,
    "c": 1.11488,
    "v": 1805
  },
  {
    "dt": "2023.08.24 22:00",
    "o": 1.1149,
    "h": 1.11539,
    "l": 1.11405,
    "c": 1.11423,
    "v": 1709
  },
  {
    "dt": "2023.08.24 23:00",
    "o": 1.11421,
    "h": 1.11432,
    "l": 1.11374,
    "c": 1.1142,
    "v": 1076
  },
  {
    "dt": "2023.08.25 00:00",
    "o": 1.1127,
    "h": 1.11417,
    "l": 1.1127,
    "c": 1.1138,
    "v": 623
  },
  {
    "dt": "2023.08.25 01:00",
    "o": 1.11386,
    "h": 1.11455,
    "l": 1.11372,
    "c": 1.11453,
    "v": 625
  },
  {
    "dt": "2023.08.25 02:00",
    "o": 1.11452,
    "h": 1.11462,
    "l": 1.11418,
    "c": 1.11455,
    "v": 696
  },
  {
    "dt": "2023.08.25 03:00",
    "o": 1.11454,
    "h": 1.11478,
    "l": 1.11418,
    "c": 1.11434,
    "v": 1372
  },
  {
    "dt": "2023.08.25 04:00",
    "o": 1.11434,
    "h": 1.11454,
    "l": 1.1139,
    "c": 1.11402,
    "v": 1423
  },
  {
    "dt": "2023.08.25 05:00",
    "o": 1.11401,
    "h": 1.11439,
    "l": 1.11355,
    "c": 1.11366,
    "v": 1284
  },
  {
    "dt": "2023.08.25 06:00",
    "o": 1.11367,
    "h": 1.11403,
    "l": 1.11303,
    "c": 1.11354,
    "v": 1001
  },
  {
    "dt": "2023.08.25 07:00",
    "o": 1.11355,
    "h": 1.11369,
    "l": 1.11304,
    "c": 1.11346,
    "v": 915
  },
  {
    "dt": "2023.08.25 08:00",
    "o": 1.11348,
    "h": 1.11433,
    "l": 1.1134,
    "c": 1.11399,
    "v": 1532
  },
  {
    "dt": "2023.08.25 09:00",
    "o": 1.11395,
    "h": 1.11395,
    "l": 1.11277,
    "c": 1.11314,
    "v": 2552
  },
  {
    "dt": "2023.08.25 10:00",
    "o": 1.11313,
    "h": 1.1151,
    "l": 1.11311,
    "c": 1.11477,
    "v": 2867
  },
  {
    "dt": "2023.08.25 11:00",
    "o": 1.11475,
    "h": 1.11568,
    "l": 1.1141,
    "c": 1.11443,
    "v": 2713
  },
  {
    "dt": "2023.08.25 12:00",
    "o": 1.11438,
    "h": 1.11526,
    "l": 1.11425,
    "c": 1.11485,
    "v": 2285
  },
  {
    "dt": "2023.08.25 13:00",
    "o": 1.11484,
    "h": 1.11658,
    "l": 1.11433,
    "c": 1.11658,
    "v": 2086
  },
  {
    "dt": "2023.08.25 14:00",
    "o": 1.11657,
    "h": 1.11721,
    "l": 1.11618,
    "c": 1.11648,
    "v": 2085
  },
  {
    "dt": "2023.08.25 15:00",
    "o": 1.11646,
    "h": 1.11679,
    "l": 1.11585,
    "c": 1.11618,
    "v": 2295
  },
  {
    "dt": "2023.08.25 16:00",
    "o": 1.11623,
    "h": 1.1164,
    "l": 1.11417,
    "c": 1.11474,
    "v": 3001
  },
  {
    "dt": "2023.08.25 17:00",
    "o": 1.11496,
    "h": 1.11648,
    "l": 1.11304,
    "c": 1.11308,
    "v": 5720
  },
  {
    "dt": "2023.08.25 18:00",
    "o": 1.11324,
    "h": 1.11368,
    "l": 1.11261,
    "c": 1.11343,
    "v": 3892
  },
  {
    "dt": "2023.08.25 19:00",
    "o": 1.11344,
    "h": 1.11424,
    "l": 1.11336,
    "c": 1.11387,
    "v": 2779
  },
  {
    "dt": "2023.08.25 20:00",
    "o": 1.11384,
    "h": 1.11384,
    "l": 1.11244,
    "c": 1.11319,
    "v": 2394
  },
  {
    "dt": "2023.08.25 21:00",
    "o": 1.11319,
    "h": 1.11338,
    "l": 1.11289,
    "c": 1.11306,
    "v": 2251
  },
  {
    "dt": "2023.08.25 22:00",
    "o": 1.11307,
    "h": 1.11326,
    "l": 1.11245,
    "c": 1.11271,
    "v": 1630
  },
  {
    "dt": "2023.08.25 23:00",
    "o": 1.11271,
    "h": 1.1132,
    "l": 1.11209,
    "c": 1.11239,
    "v": 1186
  },
  {
    "dt": "2023.08.28 00:00",
    "o": 1.11356,
    "h": 1.11356,
    "l": 1.11148,
    "c": 1.11156,
    "v": 188
  },
  {
    "dt": "2023.08.28 01:00",
    "o": 1.11137,
    "h": 1.11328,
    "l": 1.11137,
    "c": 1.11326,
    "v": 701
  },
  {
    "dt": "2023.08.28 02:00",
    "o": 1.1132,
    "h": 1.11384,
    "l": 1.11304,
    "c": 1.11383,
    "v": 1050
  },
  {
    "dt": "2023.08.28 03:00",
    "o": 1.11382,
    "h": 1.11393,
    "l": 1.11325,
    "c": 1.11332,
    "v": 1223
  },
  {
    "dt": "2023.08.28 04:00",
    "o": 1.11333,
    "h": 1.11381,
    "l": 1.11326,
    "c": 1.11336,
    "v": 1735
  },
  {
    "dt": "2023.08.28 05:00",
    "o": 1.11338,
    "h": 1.11338,
    "l": 1.11288,
    "c": 1.11298,
    "v": 1164
  },
  {
    "dt": "2023.08.28 06:00",
    "o": 1.11298,
    "h": 1.11318,
    "l": 1.11284,
    "c": 1.11292,
    "v": 782
  },
  {
    "dt": "2023.08.28 07:00",
    "o": 1.11292,
    "h": 1.11309,
    "l": 1.11266,
    "c": 1.11271,
    "v": 675
  },
  {
    "dt": "2023.08.28 08:00",
    "o": 1.11273,
    "h": 1.11299,
    "l": 1.11247,
    "c": 1.11279,
    "v": 1175
  },
  {
    "dt": "2023.08.28 09:00",
    "o": 1.11281,
    "h": 1.11336,
    "l": 1.11256,
    "c": 1.11295,
    "v": 2144
  },
  {
    "dt": "2023.08.28 10:00",
    "o": 1.11299,
    "h": 1.1131,
    "l": 1.1104,
    "c": 1.11077,
    "v": 2622
  },
  {
    "dt": "2023.08.28 11:00",
    "o": 1.11077,
    "h": 1.11204,
    "l": 1.11072,
    "c": 1.11192,
    "v": 2281
  },
  {
    "dt": "2023.08.28 12:00",
    "o": 1.11186,
    "h": 1.11205,
    "l": 1.11068,
    "c": 1.11172,
    "v": 1737
  },
  {
    "dt": "2023.08.28 13:00",
    "o": 1.11176,
    "h": 1.11191,
    "l": 1.11067,
    "c": 1.1116,
    "v": 1806
  },
  {
    "dt": "2023.08.28 14:00",
    "o": 1.11161,
    "h": 1.11363,
    "l": 1.11141,
    "c": 1.11345,
    "v": 2236
  },
  {
    "dt": "2023.08.28 15:00",
    "o": 1.11355,
    "h": 1.11415,
    "l": 1.11228,
    "c": 1.11292,
    "v": 2537
  },
  {
    "dt": "2023.08.28 16:00",
    "o": 1.11293,
    "h": 1.11421,
    "l": 1.11279,
    "c": 1.11396,
    "v": 3015
  },
  {
    "dt": "2023.08.28 17:00",
    "o": 1.11399,
    "h": 1.11416,
    "l": 1.11202,
    "c": 1.11255,
    "v": 2836
  },
  {
    "dt": "2023.08.28 18:00",
    "o": 1.11257,
    "h": 1.11286,
    "l": 1.11161,
    "c": 1.11184,
    "v": 2567
  },
  {
    "dt": "2023.08.28 19:00",
    "o": 1.11185,
    "h": 1.11321,
    "l": 1.11179,
    "c": 1.11319,
    "v": 1791
  },
  {
    "dt": "2023.08.28 20:00",
    "o": 1.11317,
    "h": 1.11389,
    "l": 1.11309,
    "c": 1.11356,
    "v": 2300
  },
  {
    "dt": "2023.08.28 21:00",
    "o": 1.11355,
    "h": 1.1137,
    "l": 1.11334,
    "c": 1.11366,
    "v": 1320
  },
  {
    "dt": "2023.08.28 22:00",
    "o": 1.11367,
    "h": 1.11395,
    "l": 1.11342,
    "c": 1.11364,
    "v": 1108
  },
  {
    "dt": "2023.08.28 23:00",
    "o": 1.11361,
    "h": 1.11374,
    "l": 1.11325,
    "c": 1.11373,
    "v": 731
  },
  {
    "dt": "2023.08.29 00:00",
    "o": 1.11225,
    "h": 1.11337,
    "l": 1.11225,
    "c": 1.1129,
    "v": 659
  },
  {
    "dt": "2023.08.29 01:00",
    "o": 1.11282,
    "h": 1.11358,
    "l": 1.11282,
    "c": 1.11336,
    "v": 653
  },
  {
    "dt": "2023.08.29 02:00",
    "o": 1.11335,
    "h": 1.11423,
    "l": 1.11324,
    "c": 1.11403,
    "v": 686
  },
  {
    "dt": "2023.08.29 03:00",
    "o": 1.11404,
    "h": 1.1141,
    "l": 1.11352,
    "c": 1.11408,
    "v": 908
  },
  {
    "dt": "2023.08.29 04:00",
    "o": 1.11409,
    "h": 1.11451,
    "l": 1.11374,
    "c": 1.11443,
    "v": 1171
  },
  {
    "dt": "2023.08.29 05:00",
    "o": 1.11442,
    "h": 1.11503,
    "l": 1.11431,
    "c": 1.11492,
    "v": 1167
  },
  {
    "dt": "2023.08.29 06:00",
    "o": 1.11491,
    "h": 1.11503,
    "l": 1.11467,
    "c": 1.11476,
    "v": 951
  },
  {
    "dt": "2023.08.29 07:00",
    "o": 1.11478,
    "h": 1.11505,
    "l": 1.11455,
    "c": 1.11504,
    "v": 620
  },
  {
    "dt": "2023.08.29 08:00",
    "o": 1.11504,
    "h": 1.1155,
    "l": 1.1147,
    "c": 1.11484,
    "v": 1296
  },
  {
    "dt": "2023.08.29 09:00",
    "o": 1.1149,
    "h": 1.11645,
    "l": 1.11488,
    "c": 1.1155,
    "v": 2254
  },
  {
    "dt": "2023.08.29 10:00",
    "o": 1.11555,
    "h": 1.11617,
    "l": 1.11437,
    "c": 1.11461,
    "v": 3144
  },
  {
    "dt": "2023.08.29 11:00",
    "o": 1.11461,
    "h": 1.11594,
    "l": 1.11446,
    "c": 1.11569,
    "v": 2472
  },
  {
    "dt": "2023.08.29 12:00",
    "o": 1.11568,
    "h": 1.11638,
    "l": 1.11475,
    "c": 1.11498,
    "v": 2094
  },
  {
    "dt": "2023.08.29 13:00",
    "o": 1.11498,
    "h": 1.11555,
    "l": 1.11379,
    "c": 1.11432,
    "v": 2096
  },
  {
    "dt": "2023.08.29 14:00",
    "o": 1.11434,
    "h": 1.11504,
    "l": 1.11366,
    "c": 1.11399,
    "v": 2672
  },
  {
    "dt": "2023.08.29 15:00",
    "o": 1.114,
    "h": 1.11409,
    "l": 1.11229,
    "c": 1.11269,
    "v": 3143
  },
  {
    "dt": "2023.08.29 16:00",
    "o": 1.1127,
    "h": 1.11307,
    "l": 1.11211,
    "c": 1.11213,
    "v": 3622
  },
  {
    "dt": "2023.08.29 17:00",
    "o": 1.1122,
    "h": 1.11335,
    "l": 1.10918,
    "c": 1.10965,
    "v": 5182
  },
  {
    "dt": "2023.08.29 18:00",
    "o": 1.10961,
    "h": 1.11066,
    "l": 1.10903,
    "c": 1.10956,
    "v": 3722
  },
  {
    "dt": "2023.08.29 19:00",
    "o": 1.10951,
    "h": 1.11033,
    "l": 1.10883,
    "c": 1.10927,
    "v": 2554
  },
  {
    "dt": "2023.08.29 20:00",
    "o": 1.10929,
    "h": 1.10969,
    "l": 1.10869,
    "c": 1.10938,
    "v": 2605
  },
  {
    "dt": "2023.08.29 21:00",
    "o": 1.10932,
    "h": 1.11022,
    "l": 1.10929,
    "c": 1.1099,
    "v": 1924
  },
  {
    "dt": "2023.08.29 22:00",
    "o": 1.10989,
    "h": 1.11089,
    "l": 1.10988,
    "c": 1.11033,
    "v": 2367
  },
  {
    "dt": "2023.08.29 23:00",
    "o": 1.11032,
    "h": 1.11063,
    "l": 1.11009,
    "c": 1.11055,
    "v": 900
  },
  {
    "dt": "2023.08.30 00:00",
    "o": 1.10947,
    "h": 1.11077,
    "l": 1.10917,
    "c": 1.11037,
    "v": 891
  },
  {
    "dt": "2023.08.30 01:00",
    "o": 1.11036,
    "h": 1.11086,
    "l": 1.11025,
    "c": 1.1106,
    "v": 625
  },
  {
    "dt": "2023.08.30 02:00",
    "o": 1.11061,
    "h": 1.11084,
    "l": 1.11049,
    "c": 1.11055,
    "v": 607
  },
  {
    "dt": "2023.08.30 03:00",
    "o": 1.11054,
    "h": 1.11076,
    "l": 1.11032,
    "c": 1.11044,
    "v": 1151
  },
  {
    "dt": "2023.08.30 04:00",
    "o": 1.11048,
    "h": 1.11081,
    "l": 1.10985,
    "c": 1.10993,
    "v": 1390
  },
  {
    "dt": "2023.08.30 05:00",
    "o": 1.10989,
    "h": 1.11018,
    "l": 1.10967,
    "c": 1.10987,
    "v": 1192
  },
  {
    "dt": "2023.08.30 06:00",
    "o": 1.10987,
    "h": 1.10996,
    "l": 1.10966,
    "c": 1.10978,
    "v": 907
  },
  {
    "dt": "2023.08.30 07:00",
    "o": 1.1098,
    "h": 1.1103,
    "l": 1.10969,
    "c": 1.1103,
    "v": 726
  },
  {
    "dt": "2023.08.30 08:00",
    "o": 1.11031,
    "h": 1.11039,
    "l": 1.10967,
    "c": 1.11001,
    "v": 1586
  },
  {
    "dt": "2023.08.30 09:00",
    "o": 1.10994,
    "h": 1.1108,
    "l": 1.10974,
    "c": 1.11042,
    "v": 2799
  },
  {
    "dt": "2023.08.30 10:00",
    "o": 1.1104,
    "h": 1.11203,
    "l": 1.10983,
    "c": 1.11185,
    "v": 3240
  },
  {
    "dt": "2023.08.30 11:00",
    "o": 1.1118,
    "h": 1.11235,
    "l": 1.11097,
    "c": 1.11142,
    "v": 2867
  },
  {
    "dt": "2023.08.30 12:00",
    "o": 1.11141,
    "h": 1.11388,
    "l": 1.11138,
    "c": 1.11384,
    "v": 2607
  },
  {
    "dt": "2023.08.30 13:00",
    "o": 1.11384,
    "h": 1.11384,
    "l": 1.11197,
    "c": 1.11342,
    "v": 2256
  },
  {
    "dt": "2023.08.30 14:00",
    "o": 1.11342,
    "h": 1.11365,
    "l": 1.112,
    "c": 1.11282,
    "v": 2294
  },
  {
    "dt": "2023.08.30 15:00",
    "o": 1.1128,
    "h": 1.1152,
    "l": 1.11262,
    "c": 1.11447,
    "v": 4803
  },
  {
    "dt": "2023.08.30 16:00",
    "o": 1.11447,
    "h": 1.11492,
    "l": 1.11291,
    "c": 1.11448,
    "v": 4637
  },
  {
    "dt": "2023.08.30 17:00",
    "o": 1.11448,
    "h": 1.1158,
    "l": 1.11318,
    "c": 1.11567,
    "v": 4465
  },
  {
    "dt": "2023.08.30 18:00",
    "o": 1.11568,
    "h": 1.11646,
    "l": 1.11514,
    "c": 1.11603,
    "v": 2656
  },
  {
    "dt": "2023.08.30 19:00",
    "o": 1.11605,
    "h": 1.11709,
    "l": 1.1157,
    "c": 1.11693,
    "v": 2192
  },
  {
    "dt": "2023.08.30 20:00",
    "o": 1.11691,
    "h": 1.11742,
    "l": 1.11664,
    "c": 1.11688,
    "v": 1615
  },
  {
    "dt": "2023.08.30 21:00",
    "o": 1.11686,
    "h": 1.11727,
    "l": 1.11636,
    "c": 1.11677,
    "v": 1792
  },
  {
    "dt": "2023.08.30 22:00",
    "o": 1.11681,
    "h": 1.11738,
    "l": 1.11675,
    "c": 1.11729,
    "v": 1491
  },
  {
    "dt": "2023.08.30 23:00",
    "o": 1.11727,
    "h": 1.11757,
    "l": 1.11714,
    "c": 1.11736,
    "v": 1042
  },
  {
    "dt": "2023.08.31 00:00",
    "o": 1.11673,
    "h": 1.11716,
    "l": 1.11635,
    "c": 1.11694,
    "v": 443
  },
  {
    "dt": "2023.08.31 01:00",
    "o": 1.11688,
    "h": 1.11739,
    "l": 1.11659,
    "c": 1.11729,
    "v": 805
  },
  {
    "dt": "2023.08.31 02:00",
    "o": 1.11727,
    "h": 1.11727,
    "l": 1.11604,
    "c": 1.11607,
    "v": 564
  },
  {
    "dt": "2023.08.31 03:00",
    "o": 1.11608,
    "h": 1.11658,
    "l": 1.11598,
    "c": 1.11651,
    "v": 802
  },
  {
    "dt": "2023.08.31 04:00",
    "o": 1.11652,
    "h": 1.11708,
    "l": 1.11643,
    "c": 1.11683,
    "v": 1272
  },
  {
    "dt": "2023.08.31 05:00",
    "o": 1.11676,
    "h": 1.11747,
    "l": 1.11665,
    "c": 1.11745,
    "v": 1432
  },
  {
    "dt": "2023.08.31 06:00",
    "o": 1.11742,
    "h": 1.11754,
    "l": 1.11719,
    "c": 1.11725,
    "v": 1042
  },
  {
    "dt": "2023.08.31 07:00",
    "o": 1.11725,
    "h": 1.11775,
    "l": 1.11721,
    "c": 1.11771,
    "v": 888
  },
  {
    "dt": "2023.08.31 08:00",
    "o": 1.11773,
    "h": 1.11778,
    "l": 1.11694,
    "c": 1.11694,
    "v": 993
  },
  {
    "dt": "2023.08.31 09:00",
    "o": 1.117,
    "h": 1.11832,
    "l": 1.11689,
    "c": 1.11708,
    "v": 2387
  },
  {
    "dt": "2023.08.31 10:00",
    "o": 1.11709,
    "h": 1.11879,
    "l": 1.11687,
    "c": 1.11844,
    "v": 3460
  },
  {
    "dt": "2023.08.31 11:00",
    "o": 1.11846,
    "h": 1.11916,
    "l": 1.11711,
    "c": 1.11809,
    "v": 2776
  },
  {
    "dt": "2023.08.31 12:00",
    "o": 1.118,
    "h": 1.1194,
    "l": 1.11747,
    "c": 1.11908,
    "v": 3253
  },
  {
    "dt": "2023.08.31 13:00",
    "o": 1.11907,
    "h": 1.11918,
    "l": 1.11715,
    "c": 1.1173,
    "v": 2477
  },
  {
    "dt": "2023.08.31 14:00",
    "o": 1.1173,
    "h": 1.11812,
    "l": 1.11666,
    "c": 1.11763,
    "v": 2742
  },
  {
    "dt": "2023.08.31 15:00",
    "o": 1.11763,
    "h": 1.11928,
    "l": 1.11745,
    "c": 1.11756,
    "v": 4002
  },
  {
    "dt": "2023.08.31 16:00",
    "o": 1.11761,
    "h": 1.11984,
    "l": 1.1172,
    "c": 1.11945,
    "v": 4255
  },
  {
    "dt": "2023.08.31 17:00",
    "o": 1.11948,
    "h": 1.11971,
    "l": 1.11739,
    "c": 1.11929,
    "v": 4189
  },
  {
    "dt": "2023.08.31 18:00",
    "o": 1.11924,
    "h": 1.12067,
    "l": 1.11864,
    "c": 1.11921,
    "v": 3382
  },
  {
    "dt": "2023.08.31 19:00",
    "o": 1.11921,
    "h": 1.11934,
    "l": 1.11733,
    "c": 1.11792,
    "v": 2445
  },
  {
    "dt": "2023.08.31 20:00",
    "o": 1.11788,
    "h": 1.11867,
    "l": 1.11779,
    "c": 1.11852,
    "v": 2018
  },
  {
    "dt": "2023.08.31 21:00",
    "o": 1.11853,
    "h": 1.11896,
    "l": 1.11814,
    "c": 1.11841,
    "v": 1629
  },
  {
    "dt": "2023.08.31 22:00",
    "o": 1.11841,
    "h": 1.11917,
    "l": 1.11826,
    "c": 1.11892,
    "v": 2196
  },
  {
    "dt": "2023.08.31 23:00",
    "o": 1.11891,
    "h": 1.11962,
    "l": 1.11876,
    "c": 1.11926,
    "v": 1282
  }
]