[
  {
    "dt": "2022.06.01 00:00",
    "o": 1.64796,
    "h": 1.64824,
    "l": 1.64647,
    "c": 1.64748,
    "v": 615
  },
  {
    "dt": "2022.06.01 01:00",
    "o": 1.6475,
    "h": 1.64753,
    "l": 1.64637,
    "c": 1.64664,
    "v": 885
  },
  {
    "dt": "2022.06.01 02:00",
    "o": 1.64657,
    "h": 1.64692,
    "l": 1.6459,
    "c": 1.64635,
    "v": 1101
  },
  {
    "dt": "2022.06.01 03:00",
    "o": 1.64626,
    "h": 1.64673,
    "l": 1.64333,
    "c": 1.64419,
    "v": 3038
  },
  {
    "dt": "2022.06.01 04:00",
    "o": 1.64428,
    "h": 1.64501,
    "l": 1.64315,
    "c": 1.64398,
    "v": 3631
  },
  {
    "dt": "2022.06.01 05:00",
    "o": 1.644,
    "h": 1.64564,
    "l": 1.64342,
    "c": 1.64518,
    "v": 3317
  },
  {
    "dt": "2022.06.01 06:00",
    "o": 1.64518,
    "h": 1.64802,
    "l": 1.64513,
    "c": 1.64787,
    "v": 2728
  },
  {
    "dt": "2022.06.01 07:00",
    "o": 1.64789,
    "h": 1.65307,
    "l": 1.64779,
    "c": 1.65017,
    "v": 3015
  },
  {
    "dt": "2022.06.01 08:00",
    "o": 1.65017,
    "h": 1.65035,
    "l": 1.64816,
    "c": 1.64962,
    "v": 2970
  },
  {
    "dt": "2022.06.01 09:00",
    "o": 1.64958,
    "h": 1.65158,
    "l": 1.64923,
    "c": 1.65082,
    "v": 3539
  },
  {
    "dt": "2022.06.01 10:00",
    "o": 1.65078,
    "h": 1.65133,
    "l": 1.64678,
    "c": 1.6468,
    "v": 3877
  },
  {
    "dt": "2022.06.01 11:00",
    "o": 1.64682,
    "h": 1.65106,
    "l": 1.64659,
    "c": 1.64808,
    "v": 3912
  },
  {
    "dt": "2022.06.01 12:00",
    "o": 1.64808,
    "h": 1.64838,
    "l": 1.64602,
    "c": 1.64671,
    "v": 3254
  },
  {
    "dt": "2022.06.01 13:00",
    "o": 1.64672,
    "h": 1.64787,
    "l": 1.646,
    "c": 1.64748,
    "v": 3195
  },
  {
    "dt": "2022.06.01 14:00",
    "o": 1.64758,
    "h": 1.64776,
    "l": 1.64517,
    "c": 1.64548,
    "v": 3343
  },
  {
    "dt": "2022.06.01 15:00",
    "o": 1.64548,
    "h": 1.64566,
    "l": 1.6408,
    "c": 1.64188,
    "v": 3940
  },
  {
    "dt": "2022.06.01 16:00",
    "o": 1.64183,
    "h": 1.64202,
    "l": 1.63967,
    "c": 1.6415,
    "v": 4238
  },
  {
    "dt": "2022.06.01 17:00",
    "o": 1.6419,
    "h": 1.64749,
    "l": 1.63999,
    "c": 1.64331,
    "v": 5378
  },
  {
    "dt": "2022.06.01 18:00",
    "o": 1.64331,
    "h": 1.64554,
    "l": 1.64228,
    "c": 1.64539,
    "v": 4563
  },
  {
    "dt": "2022.06.01 19:00",
    "o": 1.64535,
    "h": 1.64578,
    "l": 1.64189,
    "c": 1.64298,
    "v": 4317
  },
  {
    "dt": "2022.06.01 20:00",
    "o": 1.64297,
    "h": 1.64318,
    "l": 1.64008,
    "c": 1.64138,
    "v": 3592
  },
  {
    "dt": "2022.06.01 21:00",
    "o": 1.64139,
    "h": 1.64199,
    "l": 1.64003,
    "c": 1.64154,
    "v": 3741
  },
  {
    "dt": "2022.06.01 22:00",
    "o": 1.64149,
    "h": 1.64305,
    "l": 1.64084,
    "c": 1.64285,
    "v": 3128
  },
  {
    "dt": "2022.06.01 23:00",
    "o": 1.64283,
    "h": 1.64348,
    "l": 1.64198,
    "c": 1.64288,
    "v": 1561
  },
  {
    "dt": "2022.06.02 00:00",
    "o": 1.64113,
    "h": 1.64283,
    "l": 1.63962,
    "c": 1.64259,
    "v": 232
  },
  {
    "dt": "2022.06.02 01:00",
    "o": 1.64255,
    "h": 1.64306,
    "l": 1.64206,
    "c": 1.64302,
    "v": 627
  },
  {
    "dt": "2022.06.02 02:00",
    "o": 1.6431,
    "h": 1.6444,
    "l": 1.64262,
    "c": 1.64385,
    "v": 1427
  },
  {
    "dt": "2022.06.02 03:00",
    "o": 1.64374,
    "h": 1.64386,
    "l": 1.64245,
    "c": 1.64372,
    "v": 3576
  },
  {
    "dt": "2022.06.02 04:00",
    "o": 1.64367,
    "h": 1.64623,
    "l": 1.64351,
    "c": 1.64602,
    "v": 3487
  },
  {
    "dt": "2022.06.02 05:00",
    "o": 1.64597,
    "h": 1.64678,
    "l": 1.64488,
    "c": 1.64599,
    "v": 3439
  },
  {
    "dt": "2022.06.02 06:00",
    "o": 1.64594,
    "h": 1.64609,
    "l": 1.64377,
    "c": 1.64517,
    "v": 2821
  },
  {
    "dt": "2022.06.02 07:00",
    "o": 1.64514,
    "h": 1.6462,
    "l": 1.64439,
    "c": 1.64458,
    "v": 2248
  },
  {
    "dt": "2022.06.02 08:00",
    "o": 1.64458,
    "h": 1.64878,
    "l": 1.64419,
    "c": 1.64678,
    "v": 3035
  },
  {
    "dt": "2022.06.02 09:00",
    "o": 1.64668,
    "h": 1.64708,
    "l": 1.64384,
    "c": 1.64398,
    "v": 3471
  },
  {
    "dt": "2022.06.02 10:00",
    "o": 1.64397,
    "h": 1.64564,
    "l": 1.64328,
    "c": 1.64537,
    "v": 3956
  },
  {
    "dt": "2022.06.02 11:00",
    "o": 1.64545,
    "h": 1.64649,
    "l": 1.64338,
    "c": 1.6434,
    "v": 3310
  },
  {
    "dt": "2022.06.02 12:00",
    "o": 1.64338,
    "h": 1.64384,
    "l": 1.64249,
    "c": 1.64377,
    "v": 3199
  },
  {
    "dt": "2022.06.02 13:00",
    "o": 1.64378,
    "h": 1.64398,
    "l": 1.64214,
    "c": 1.64248,
    "v": 3098
  },
  {
    "dt": "2022.06.02 14:00",
    "o": 1.64248,
    "h": 1.64262,
    "l": 1.64047,
    "c": 1.64102,
    "v": 2942
  },
  {
    "dt": "2022.06.02 15:00",
    "o": 1.64098,
    "h": 1.6412,
    "l": 1.63892,
    "c": 1.64004,
    "v": 4366
  },
  {
    "dt": "2022.06.02 16:00",
    "o": 1.64004,
    "h": 1.6417,
    "l": 1.63835,
    "c": 1.64041,
    "v": 4884
  },
  {
    "dt": "2022.06.02 17:00",
    "o": 1.64048,
    "h": 1.64071,
    "l": 1.63747,
    "c": 1.63933,
    "v": 5164
  },
  {
    "dt": "2022.06.02 18:00",
    "o": 1.63932,
    "h": 1.6395,
    "l": 1.63705,
    "c": 1.63838,
    "v": 4098
  },
  {
    "dt": "2022.06.02 19:00",
    "o": 1.63838,
    "h": 1.6388,
    "l": 1.63777,
    "c": 1.63873,
    "v": 2772
  },
  {
    "dt": "2022.06.02 20:00",
    "o": 1.63875,
    "h": 1.63948,
    "l": 1.63763,
    "c": 1.63768,
    "v": 2404
  },
  {
    "dt": "2022.06.02 21:00",
    "o": 1.63768,
    "h": 1.63858,
    "l": 1.637,
    "c": 1.63833,
    "v": 2698
  },
  {
    "dt": "2022.06.02 22:00",
    "o": 1.63827,
    "h": 1.63923,
    "l": 1.6381,
    "c": 1.63843,
    "v": 2911
  },
  {
    "dt": "2022.06.02 23:00",
    "o": 1.63847,
    "h": 1.63921,
    "l": 1.63804,
    "c": 1.63808,
    "v": 1322
  },
  {
    "dt": "2022.06.03 00:00",
    "o": 1.63861,
    "h": 1.63876,
    "l": 1.63711,
    "c": 1.63852,
    "v": 233
  },
  {
    "dt": "2022.06.03 01:00",
    "o": 1.63848,
    "h": 1.63916,
    "l": 1.63819,
    "c": 1.63834,
    "v": 996
  },
  {
    "dt": "2022.06.03 02:00",
    "o": 1.6384,
    "h": 1.639,
    "l": 1.63789,
    "c": 1.63878,
    "v": 1574
  },
  {
    "dt": "2022.06.03 03:00",
    "o": 1.63879,
    "h": 1.63952,
    "l": 1.63632,
    "c": 1.6394,
    "v": 3269
  },
  {
    "dt": "2022.06.03 04:00",
    "o": 1.63941,
    "h": 1.64139,
    "l": 1.63889,
    "c": 1.64135,
    "v": 3290
  },
  {
    "dt": "2022.06.03 05:00",
    "o": 1.64138,
    "h": 1.64228,
    "l": 1.64017,
    "c": 1.64069,
    "v": 2465
  },
  {
    "dt": "2022.06.03 06:00",
    "o": 1.64071,
    "h": 1.64138,
    "l": 1.63978,
    "c": 1.64015,
    "v": 2287
  },
  {
    "dt": "2022.06.03 07:00",
    "o": 1.64011,
    "h": 1.64035,
    "l": 1.63935,
    "c": 1.63967,
    "v": 2301
  },
  {
    "dt": "2022.06.03 08:00",
    "o": 1.63966,
    "h": 1.64028,
    "l": 1.63908,
    "c": 1.63989,
    "v": 2444
  },
  {
    "dt": "2022.06.03 09:00",
    "o": 1.63978,
    "h": 1.64163,
    "l": 1.6397,
    "c": 1.64089,
    "v": 3024
  },
  {
    "dt": "2022.06.03 10:00",
    "o": 1.64081,
    "h": 1.64116,
    "l": 1.63949,
    "c": 1.64068,
    "v": 3439
  },
  {
    "dt": "2022.06.03 11:00",
    "o": 1.64071,
    "h": 1.64131,
    "l": 1.63972,
    "c": 1.64058,
    "v": 3091
  },
  {
    "dt": "2022.06.03 12:00",
    "o": 1.6405,
    "h": 1.64277,
    "l": 1.64045,
    "c": 1.64219,
    "v": 2879
  },
  {
    "dt": "2022.06.03 13:00",
    "o": 1.64214,
    "h": 1.64291,
    "l": 1.64075,
    "c": 1.64278,
    "v": 2938
  },
  {
    "dt": "2022.06.03 14:00",
    "o": 1.64273,
    "h": 1.64378,
    "l": 1.64136,
    "c": 1.64166,
    "v": 3112
  },
  {
    "dt": "2022.06.03 15:00",
    "o": 1.64163,
    "h": 1.64474,
    "l": 1.64045,
    "c": 1.64354,
    "v": 4394
  },
  {
    "dt": "2022.06.03 16:00",
    "o": 1.64357,
    "h": 1.64601,
    "l": 1.64283,
    "c": 1.64371,
    "v": 4858
  },
  {
    "dt": "2022.06.03 17:00",
    "o": 1.64378,
    "h": 1.64639,
    "l": 1.6434,
    "c": 1.64479,
    "v": 5020
  },
  {
    "dt": "2022.06.03 18:00",
    "o": 1.64481,
    "h": 1.64678,
    "l": 1.64467,
    "c": 1.64668,
    "v": 2984
  },
  {
    "dt": "2022.06.03 19:00",
    "o": 1.64668,
    "h": 1.64798,
    "l": 1.64621,
    "c": 1.64646,
    "v": 2578
  },
  {
    "dt": "2022.06.03 20:00",
    "o": 1.64647,
    "h": 1.6474,
    "l": 1.6458,
    "c": 1.64712,
    "v": 2505
  },
  {
    "dt": "2022.06.03 21:00",
    "o": 1.64709,
    "h": 1.6479,
    "l": 1.64614,
    "c": 1.64614,
    "v": 2168
  },
  {
    "dt": "2022.06.03 22:00",
    "o": 1.64614,
    "h": 1.6474,
    "l": 1.64608,
    "c": 1.64638,
    "v": 2158
  },
  {
    "dt": "2022.06.03 23:00",
    "o": 1.64639,
    "h": 1.64748,
    "l": 1.64584,
    "c": 1.64748,
    "v": 1068
  },
  {
    "dt": "2022.06.06 00:00",
    "o": 1.64633,
    "h": 1.64724,
    "l": 1.64501,
    "c": 1.64629,
    "v": 369
  },
  {
    "dt": "2022.06.06 01:00",
    "o": 1.64634,
    "h": 1.64782,
    "l": 1.64545,
    "c": 1.64672,
    "v": 1448
  },
  {
    "dt": "2022.06.06 02:00",
    "o": 1.64664,
    "h": 1.64833,
    "l": 1.64645,
    "c": 1.6483,
    "v": 1930
  },
  {
    "dt": "2022.06.06 03:00",
    "o": 1.64844,
    "h": 1.64884,
    "l": 1.64665,
    "c": 1.64738,
    "v": 3393
  },
  {
    "dt": "2022.06.06 04:00",
    "o": 1.64733,
    "h": 1.64864,
    "l": 1.64667,
    "c": 1.64689,
    "v": 3901
  },
  {
    "dt": "2022.06.06 05:00",
    "o": 1.64691,
    "h": 1.64816,
    "l": 1.64638,
    "c": 1.6477,
    "v": 2937
  },
  {
    "dt": "2022.06.06 06:00",
    "o": 1.6477,
    "h": 1.64968,
    "l": 1.64722,
    "c": 1.64958,
    "v": 2187
  },
  {
    "dt": "2022.06.06 07:00",
    "o": 1.64956,
    "h": 1.64983,
    "l": 1.64848,
    "c": 1.64874,
    "v": 2124
  },
  {
    "dt": "2022.06.06 08:00",
    "o": 1.64874,
    "h": 1.65024,
    "l": 1.64808,
    "c": 1.64908,
    "v": 2507
  },
  {
    "dt": "2022.06.06 09:00",
    "o": 1.64901,
    "h": 1.64931,
    "l": 1.6464,
    "c": 1.64668,
    "v": 3438
  },
  {
    "dt": "2022.06.06 10:00",
    "o": 1.64668,
    "h": 1.64848,
    "l": 1.64588,
    "c": 1.64653,
    "v": 3722
  },
  {
    "dt": "2022.06.06 11:00",
    "o": 1.64649,
    "h": 1.64683,
    "l": 1.64409,
    "c": 1.64474,
    "v": 3368
  },
  {
    "dt": "2022.06.06 12:00",
    "o": 1.64478,
    "h": 1.64575,
    "l": 1.64378,
    "c": 1.64541,
    "v": 2658
  },
  {
    "dt": "2022.06.06 13:00",
    "o": 1.6454,
    "h": 1.64582,
    "l": 1.64378,
    "c": 1.64451,
    "v": 2434
  },
  {
    "dt": "2022.06.06 14:00",
    "o": 1.64448,
    "h": 1.64514,
    "l": 1.64268,
    "c": 1.64338,
    "v": 2594
  },
  {
    "dt": "2022.06.06 15:00",
    "o": 1.64338,
    "h": 1.64339,
    "l": 1.64176,
    "c": 1.64229,
    "v": 3215
  },
  {
    "dt": "2022.06.06 16:00",
    "o": 1.6423,
    "h": 1.64245,
    "l": 1.63993,
    "c": 1.64048,
    "v": 3472
  },
  {
    "dt": "2022.06.06 17:00",
    "o": 1.64045,
    "h": 1.64566,
    "l": 1.63997,
    "c": 1.64496,
    "v": 4240
  },
  {
    "dt": "2022.06.06 18:00",
    "o": 1.64497,
    "h": 1.64796,
    "l": 1.64488,
    "c": 1.64608,
    "v": 3749
  },
  {
    "dt": "2022.06.06 19:00",
    "o": 1.64607,
    "h": 1.64778,
    "l": 1.64607,
    "c": 1.64709,
    "v": 2691
  },
  {
    "dt": "2022.06.06 20:00",
    "o": 1.64709,
    "h": 1.64778,
    "l": 1.64547,
    "c": 1.64638,
    "v": 2234
  },
  {
    "dt": "2022.06.06 21:00",
    "o": 1.64638,
    "h": 1.64825,
    "l": 1.64635,
    "c": 1.64763,
    "v": 2201
  },
  {
    "dt": "2022.06.06 22:00",
    "o": 1.64758,
    "h": 1.64819,
    "l": 1.64639,
    "c": 1.64697,
    "v": 2412
  },
  {
    "dt": "2022.06.06 23:00",
    "o": 1.64687,
    "h": 1.64808,
    "l": 1.64681,
    "c": 1.64798,
    "v": 907
  },
  {
    "dt": "2022.06.07 00:00",
    "o": 1.64691,
    "h": 1.64771,
    "l": 1.64606,
    "c": 1.64659,
    "v": 142
  },
  {
    "dt": "2022.06.07 01:00",
    "o": 1.64648,
    "h": 1.64829,
    "l": 1.64628,
    "c": 1.64771,
    "v": 1205
  },
  {
    "dt": "2022.06.07 02:00",
    "o": 1.64775,
    "h": 1.64914,
    "l": 1.64751,
    "c": 1.6487,
    "v": 2386
  },
  {
    "dt": "2022.06.07 03:00",
    "o": 1.64868,
    "h": 1.6503,
    "l": 1.64865,
    "c": 1.64989,
    "v": 3808
  },
  {
    "dt": "2022.06.07 04:00",
    "o": 1.64988,
    "h": 1.6523,
    "l": 1.64958,
    "c": 1.65058,
    "v": 4047
  },
  {
    "dt": "2022.06.07 05:00",
    "o": 1.65063,
    "h": 1.65245,
    "l": 1.65049,
    "c": 1.65136,
    "v": 3392
  },
  {
    "dt": "2022.06.07 06:00",
    "o": 1.65136,
    "h": 1.65148,
    "l": 1.64998,
    "c": 1.65077,
    "v": 2291
  },
  {
    "dt": "2022.06.07 07:00",
    "o": 1.65076,
    "h": 1.65278,
    "l": 1.64678,
    "c": 1.65269,
    "v": 3445
  },
  {
    "dt": "2022.06.07 08:00",
    "o": 1.65244,
    "h": 1.65735,
    "l": 1.65173,
    "c": 1.65636,
    "v": 4114
  },
  {
    "dt": "2022.06.07 09:00",
    "o": 1.65637,
    "h": 1.65638,
    "l": 1.65324,
    "c": 1.65538,
    "v": 3671
  },
  {
    "dt": "2022.06.07 10:00",
    "o": 1.65538,
    "h": 1.65848,
    "l": 1.65438,
    "c": 1.65828,
    "v": 4221
  },
  {
    "dt": "2022.06.07 11:00",
    "o": 1.65815,
    "h": 1.65818,
    "l": 1.65388,
    "c": 1.65493,
    "v": 3877
  },
  {
    "dt": "2022.06.07 12:00",
    "o": 1.65496,
    "h": 1.65558,
    "l": 1.65384,
    "c": 1.65391,
    "v": 3282
  },
  {
    "dt": "2022.06.07 13:00",
    "o": 1.6539,
    "h": 1.6555,
    "l": 1.65278,
    "c": 1.655,
    "v": 3445
  },
  {
    "dt": "2022.06.07 14:00",
    "o": 1.65508,
    "h": 1.6578,
    "l": 1.65444,
    "c": 1.65745,
    "v": 3681
  },
  {
    "dt": "2022.06.07 15:00",
    "o": 1.65748,
    "h": 1.65829,
    "l": 1.65553,
    "c": 1.65763,
    "v": 4198
  },
  {
    "dt": "2022.06.07 16:00",
    "o": 1.65759,
    "h": 1.65851,
    "l": 1.65401,
    "c": 1.65499,
    "v": 4789
  },
  {
    "dt": "2022.06.07 17:00",
    "o": 1.65502,
    "h": 1.6555,
    "l": 1.65166,
    "c": 1.65238,
    "v": 5049
  },
  {
    "dt": "2022.06.07 18:00",
    "o": 1.65238,
    "h": 1.65302,
    "l": 1.65163,
    "c": 1.65198,
    "v": 4126
  },
  {
    "dt": "2022.06.07 19:00",
    "o": 1.65199,
    "h": 1.6537,
    "l": 1.65185,
    "c": 1.65212,
    "v": 3383
  },
  {
    "dt": "2022.06.07 20:00",
    "o": 1.65208,
    "h": 1.65263,
    "l": 1.65113,
    "c": 1.65231,
    "v": 2716
  },
  {
    "dt": "2022.06.07 21:00",
    "o": 1.65237,
    "h": 1.65245,
    "l": 1.64888,
    "c": 1.64901,
    "v": 2941
  },
  {
    "dt": "2022.06.07 22:00",
    "o": 1.64901,
    "h": 1.64934,
    "l": 1.64754,
    "c": 1.64848,
    "v": 2317
  },
  {
    "dt": "2022.06.07 23:00",
    "o": 1.64844,
    "h": 1.64958,
    "l": 1.64839,
    "c": 1.64938,
    "v": 1072
  },
  {
    "dt": "2022.06.08 00:00",
    "o": 1.64776,
    "h": 1.64987,
    "l": 1.64776,
    "c": 1.64924,
    "v": 294
  },
  {
    "dt": "2022.06.08 01:00",
    "o": 1.64906,
    "h": 1.64989,
    "l": 1.64836,
    "c": 1.64948,
    "v": 932
  },
  {
    "dt": "2022.06.08 02:00",
    "o": 1.64958,
    "h": 1.65079,
    "l": 1.64918,
    "c": 1.65056,
    "v": 2123
  },
  {
    "dt": "2022.06.08 03:00",
    "o": 1.65062,
    "h": 1.65158,
    "l": 1.64937,
    "c": 1.65069,
    "v": 3119
  },
  {
    "dt": "2022.06.08 04:00",
    "o": 1.65073,
    "h": 1.65158,
    "l": 1.64948,
    "c": 1.65078,
    "v": 4079
  },
  {
    "dt": "2022.06.08 05:00",
    "o": 1.65068,
    "h": 1.65087,
    "l": 1.64888,
    "c": 1.65038,
    "v": 3092
  },
  {
    "dt": "2022.06.08 06:00",
    "o": 1.65034,
    "h": 1.65388,
    "l": 1.65008,
    "c": 1.65348,
    "v": 3005
  },
  {
    "dt": "2022.06.08 07:00",
    "o": 1.65348,
    "h": 1.6541,
    "l": 1.65255,
    "c": 1.65384,
    "v": 2634
  },
  {
    "dt": "2022.06.08 08:00",
    "o": 1.65389,
    "h": 1.65498,
    "l": 1.65322,
    "c": 1.65488,
    "v": 2888
  },
  {
    "dt": "2022.06.08 09:00",
    "o": 1.65468,
    "h": 1.6559,
    "l": 1.65392,
    "c": 1.65509,
    "v": 3642
  },
  {
    "dt": "2022.06.08 10:00",
    "o": 1.65512,
    "h": 1.65708,
    "l": 1.65364,
    "c": 1.65648,
    "v": 4180
  },
  {
    "dt": "2022.06.08 11:00",
    "o": 1.65648,
    "h": 1.65935,
    "l": 1.65626,
    "c": 1.65805,
    "v": 3954
  },
  {
    "dt": "2022.06.08 12:00",
    "o": 1.65798,
    "h": 1.66058,
    "l": 1.65742,
    "c": 1.66058,
    "v": 3434
  },
  {
    "dt": "2022.06.08 13:00",
    "o": 1.66057,
    "h": 1.66304,
    "l": 1.6604,
    "c": 1.66178,
    "v": 3786
  },
  {
    "dt": "2022.06.08 14:00",
    "o": 1.66188,
    "h": 1.66341,
    "l": 1.66124,
    "c": 1.66268,
    "v": 3615
  },
  {
    "dt": "2022.06.08 15:00",
    "o": 1.66276,
    "h": 1.66515,
    "l": 1.66223,
    "c": 1.66299,
    "v": 4046
  },
  {
    "dt": "2022.06.08 16:00",
    "o": 1.66299,
    "h": 1.66299,
    "l": 1.6597,
    "c": 1.66058,
    "v": 4464
  },
  {
    "dt": "2022.06.08 17:00",
    "o": 1.6605,
    "h": 1.66201,
    "l": 1.65888,
    "c": 1.65978,
    "v": 4620
  },
  {
    "dt": "2022.06.08 18:00",
    "o": 1.65977,
    "h": 1.66068,
    "l": 1.65847,
    "c": 1.65998,
    "v": 3569
  },
  {
    "dt": "2022.06.08 19:00",
    "o": 1.65998,
    "h": 1.66215,
    "l": 1.65939,
    "c": 1.66097,
    "v": 3012
  },
  {
    "dt": "2022.06.08 20:00",
    "o": 1.6609,
    "h": 1.66289,
    "l": 1.66058,
    "c": 1.66168,
    "v": 3050
  },
  {
    "dt": "2022.06.08 21:00",
    "o": 1.66178,
    "h": 1.66218,
    "l": 1.66108,
    "c": 1.66148,
    "v": 2502
  },
  {
    "dt": "2022.06.08 22:00",
    "o": 1.66129,
    "h": 1.66308,
    "l": 1.66099,
    "c": 1.66108,
    "v": 2733
  },
  {
    "dt": "2022.06.08 23:00",
    "o": 1.66119,
    "h": 1.66248,
    "l": 1.66088,
    "c": 1.66216,
    "v": 983
  },
  {
    "dt": "2022.06.09 00:00",
    "o": 1.66206,
    "h": 1.66272,
    "l": 1.66151,
    "c": 1.66201,
    "v": 82
  },
  {
    "dt": "2022.06.09 01:00",
    "o": 1.66184,
    "h": 1.6627,
    "l": 1.66158,
    "c": 1.66252,
    "v": 956
  },
  {
    "dt": "2022.06.09 02:00",
    "o": 1.66257,
    "h": 1.66329,
    "l": 1.6614,
    "c": 1.66321,
    "v": 1378
  },
  {
    "dt": "2022.06.09 03:00",
    "o": 1.66325,
    "h": 1.6643,
    "l": 1.66157,
    "c": 1.66293,
    "v": 2859
  },
  {
    "dt": "2022.06.09 04:00",
    "o": 1.66292,
    "h": 1.66466,
    "l": 1.66286,
    "c": 1.66443,
    "v": 2880
  },
  {
    "dt": "2022.06.09 05:00",
    "o": 1.66448,
    "h": 1.66556,
    "l": 1.66329,
    "c": 1.66377,
    "v": 2631
  },
  {
    "dt": "2022.06.09 06:00",
    "o": 1.66358,
    "h": 1.66404,
    "l": 1.66236,
    "c": 1.66318,
    "v": 2468
  },
  {
    "dt": "2022.06.09 07:00",
    "o": 1.66318,
    "h": 1.66381,
    "l": 1.662,
    "c": 1.66261,
    "v": 2077
  },
  {
    "dt": "2022.06.09 08:00",
    "o": 1.66259,
    "h": 1.66378,
    "l": 1.66175,
    "c": 1.66298,
    "v": 2621
  },
  {
    "dt": "2022.06.09 09:00",
    "o": 1.66288,
    "h": 1.66348,
    "l": 1.66138,
    "c": 1.66148,
    "v": 3185
  },
  {
    "dt": "2022.06.09 10:00",
    "o": 1.66144,
    "h": 1.66323,
    "l": 1.66037,
    "c": 1.66188,
    "v": 4162
  },
  {
    "dt": "2022.06.09 11:00",
    "o": 1.66188,
    "h": 1.66228,
    "l": 1.65878,
    "c": 1.6601,
    "v": 3929
  },
  {
    "dt": "2022.06.09 12:00",
    "o": 1.66011,
    "h": 1.66224,
    "l": 1.66006,
    "c": 1.6617,
    "v": 3375
  },
  {
    "dt": "2022.06.09 13:00",
    "o": 1.66164,
    "h": 1.66169,
    "l": 1.65915,
    "c": 1.66092,
    "v": 3528
  },
  {
    "dt": "2022.06.09 14:00",
    "o": 1.66092,
    "h": 1.66649,
    "l": 1.65836,
    "c": 1.66398,
    "v": 4505
  },
  {
    "dt": "2022.06.09 15:00",
    "o": 1.66407,
    "h": 1.67338,
    "l": 1.66376,
    "c": 1.66776,
    "v": 5827
  },
  {
    "dt": "2022.06.09 16:00",
    "o": 1.66793,
    "h": 1.66853,
    "l": 1.66185,
    "c": 1.66247,
    "v": 5891
  },
  {
    "dt": "2022.06.09 17:00",
    "o": 1.66242,
    "h": 1.66482,
    "l": 1.6603,
    "c": 1.66278,
    "v": 5396
  },
  {
    "dt": "2022.06.09 18:00",
    "o": 1.66268,
    "h": 1.66505,
    "l": 1.66198,
    "c": 1.66371,
    "v": 4359
  },
  {
    "dt": "2022.06.09 19:00",
    "o": 1.66367,
    "h": 1.6647,
    "l": 1.66259,
    "c": 1.66328,
    "v": 3283
  },
  {
    "dt": "2022.06.09 20:00",
    "o": 1.66329,
    "h": 1.6637,
    "l": 1.65898,
    "c": 1.66149,
    "v": 3020
  },
  {
    "dt": "2022.06.09 21:00",
    "o": 1.66149,
    "h": 1.66314,
    "l": 1.66148,
    "c": 1.66238,
    "v": 2890
  },
  {
    "dt": "2022.06.09 22:00",
    "o": 1.66216,
    "h": 1.66304,
    "l": 1.66147,
    "c": 1.66282,
    "v": 3114
  },
  {
    "dt": "2022.06.09 23:00",
    "o": 1.66286,
    "h": 1.66388,
    "l": 1.66248,
    "c": 1.66328,
    "v": 1256
  },
  {
    "dt": "2022.06.10 00:00",
    "o": 1.66086,
    "h": 1.66324,
    "l": 1.66043,
    "c": 1.66223,
    "v": 329
  },
  {
    "dt": "2022.06.10 01:00",
    "o": 1.66246,
    "h": 1.66288,
    "l": 1.6619,
    "c": 1.66258,
    "v": 1244
  },
  {
    "dt": "2022.06.10 02:00",
    "o": 1.66262,
    "h": 1.66308,
    "l": 1.66191,
    "c": 1.66294,
    "v": 1540
  },
  {
    "dt": "2022.06.10 03:00",
    "o": 1.66273,
    "h": 1.66373,
    "l": 1.66118,
    "c": 1.66122,
    "v": 3102
  },
  {
    "dt": "2022.06.10 04:00",
    "o": 1.66122,
    "h": 1.66248,
    "l": 1.66038,
    "c": 1.66063,
    "v": 2950
  },
  {
    "dt": "2022.06.10 05:00",
    "o": 1.66068,
    "h": 1.6623,
    "l": 1.66022,
    "c": 1.66185,
    "v": 2699
  },
  {
    "dt": "2022.06.10 06:00",
    "o": 1.66188,
    "h": 1.6622,
    "l": 1.66085,
    "c": 1.66148,
    "v": 2548
  },
  {
    "dt": "2022.06.10 07:00",
    "o": 1.66146,
    "h": 1.6619,
    "l": 1.65983,
    "c": 1.66137,
    "v": 2224
  },
  {
    "dt": "2022.06.10 08:00",
    "o": 1.66133,
    "h": 1.66147,
    "l": 1.65668,
    "c": 1.65692,
    "v": 3346
  },
  {
    "dt": "2022.06.10 09:00",
    "o": 1.65701,
    "h": 1.65711,
    "l": 1.6546,
    "c": 1.65548,
    "v": 3922
  },
  {
    "dt": "2022.06.10 10:00",
    "o": 1.65541,
    "h": 1.65588,
    "l": 1.65157,
    "c": 1.65429,
    "v": 4524
  },
  {
    "dt": "2022.06.10 11:00",
    "o": 1.65428,
    "h": 1.65458,
    "l": 1.65061,
    "c": 1.65162,
    "v": 3990
  },
  {
    "dt": "2022.06.10 12:00",
    "o": 1.65157,
    "h": 1.6523,
    "l": 1.64979,
    "c": 1.65081,
    "v": 3820
  },
  {
    "dt": "2022.06.10 13:00",
    "o": 1.65083,
    "h": 1.65208,
    "l": 1.64944,
    "c": 1.65039,
    "v": 3433
  },
  {
    "dt": "2022.06.10 14:00",
    "o": 1.6504,
    "h": 1.65108,
    "l": 1.64868,
    "c": 1.64945,
    "v": 3763
  },
  {
    "dt": "2022.06.10 15:00",
    "o": 1.64936,
    "h": 1.65447,
    "l": 1.64698,
    "c": 1.65008,
    "v": 5081
  },
  {
    "dt": "2022.06.10 16:00",
    "o": 1.64998,
    "h": 1.65456,
    "l": 1.64873,
    "c": 1.65068,
    "v": 5841
  },
  {
    "dt": "2022.06.10 17:00",
    "o": 1.65107,
    "h": 1.65621,
    "l": 1.65101,
    "c": 1.65558,
    "v": 5435
  },
  {
    "dt": "2022.06.10 18:00",
    "o": 1.65538,
    "h": 1.65538,
    "l": 1.65288,
    "c": 1.65324,
    "v": 4253
  },
  {
    "dt": "2022.06.10 19:00",
    "o": 1.65324,
    "h": 1.65555,
    "l": 1.65308,
    "c": 1.65468,
    "v": 3182
  },
  {
    "dt": "2022.06.10 20:00",
    "o": 1.65466,
    "h": 1.65603,
    "l": 1.65428,
    "c": 1.65531,
    "v": 3148
  },
  {
    "dt": "2022.06.10 21:00",
    "o": 1.65531,
    "h": 1.65548,
    "l": 1.65278,
    "c": 1.65378,
    "v": 2713
  },
  {
    "dt": "2022.06.10 22:00",
    "o": 1.65368,
    "h": 1.65436,
    "l": 1.65231,
    "c": 1.65404,
    "v": 3241
  },
  {
    "dt": "2022.06.10 23:00",
    "o": 1.65408,
    "h": 1.65651,
    "l": 1.65367,
    "c": 1.65476,
    "v": 1365
  },
  {
    "dt": "2022.06.13 00:00",
    "o": 1.65645,
    "h": 1.65645,
    "l": 1.65545,
    "c": 1.65596,
    "v": 170
  },
  {
    "dt": "2022.06.13 01:00",
    "o": 1.65595,
    "h": 1.65858,
    "l": 1.65466,
    "c": 1.655,
    "v": 2427
  },
  {
    "dt": "2022.06.13 02:00",
    "o": 1.65511,
    "h": 1.65617,
    "l": 1.6541,
    "c": 1.65538,
    "v": 3254
  },
  {
    "dt": "2022.06.13 03:00",
    "o": 1.65528,
    "h": 1.65628,
    "l": 1.65382,
    "c": 1.65499,
    "v": 4136
  },
  {
    "dt": "2022.06.13 04:00",
    "o": 1.65498,
    "h": 1.65768,
    "l": 1.65422,
    "c": 1.65728,
    "v": 4418
  },
  {
    "dt": "2022.06.13 05:00",
    "o": 1.65725,
    "h": 1.65764,
    "l": 1.65595,
    "c": 1.65631,
    "v": 3828
  },
  {
    "dt": "2022.06.13 06:00",
    "o": 1.65628,
    "h": 1.65639,
    "l": 1.65406,
    "c": 1.65458,
    "v": 3069
  },
  {
    "dt": "2022.06.13 07:00",
    "o": 1.65468,
    "h": 1.65613,
    "l": 1.65306,
    "c": 1.65591,
    "v": 3058
  },
  {
    "dt": "2022.06.13 08:00",
    "o": 1.65591,
    "h": 1.65628,
    "l": 1.65223,
    "c": 1.65246,
    "v": 3741
  },
  {
    "dt": "2022.06.13 09:00",
    "o": 1.6525,
    "h": 1.65511,
    "l": 1.65152,
    "c": 1.6527,
    "v": 4642
  },
  {
    "dt": "2022.06.13 10:00",
    "o": 1.65284,
    "h": 1.65768,
    "l": 1.65138,
    "c": 1.65659,
    "v": 4724
  },
  {
    "dt": "2022.06.13 11:00",
    "o": 1.65663,
    "h": 1.66088,
    "l": 1.65552,
    "c": 1.65947,
    "v": 4745
  },
  {
    "dt": "2022.06.13 12:00",
    "o": 1.65953,
    "h": 1.66236,
    "l": 1.65926,
    "c": 1.66217,
    "v": 4635
  },
  {
    "dt": "2022.06.13 13:00",
    "o": 1.6622,
    "h": 1.66248,
    "l": 1.66018,
    "c": 1.66124,
    "v": 4558
  },
  {
    "dt": "2022.06.13 14:00",
    "o": 1.6612,
    "h": 1.66422,
    "l": 1.65988,
    "c": 1.66338,
    "v": 4726
  },
  {
    "dt": "2022.06.13 15:00",
    "o": 1.66333,
    "h": 1.66532,
    "l": 1.66027,
    "c": 1.66127,
    "v": 5401
  },
  {
    "dt": "2022.06.13 16:00",
    "o": 1.66125,
    "h": 1.66298,
    "l": 1.65964,
    "c": 1.66058,
    "v": 5233
  },
  {
    "dt": "2022.06.13 17:00",
    "o": 1.66074,
    "h": 1.66479,
    "l": 1.66038,
    "c": 1.66448,
    "v": 5233
  },
  {
    "dt": "2022.06.13 18:00",
    "o": 1.66451,
    "h": 1.66573,
    "l": 1.66255,
    "c": 1.66292,
    "v": 5105
  },
  {
    "dt": "2022.06.13 19:00",
    "o": 1.66295,
    "h": 1.6651,
    "l": 1.66128,
    "c": 1.66458,
    "v": 4719
  },
  {
    "dt": "2022.06.13 20:00",
    "o": 1.66468,
    "h": 1.66498,
    "l": 1.66298,
    "c": 1.66318,
    "v": 3884
  },
  {
    "dt": "2022.06.13 21:00",
    "o": 1.66319,
    "h": 1.66523,
    "l": 1.66263,
    "c": 1.6649,
    "v": 4892
  },
  {
    "dt": "2022.06.13 22:00",
    "o": 1.66489,
    "h": 1.6664,
    "l": 1.66374,
    "c": 1.66478,
    "v": 4899
  },
  {
    "dt": "2022.06.13 23:00",
    "o": 1.66488,
    "h": 1.6653,
    "l": 1.66178,
    "c": 1.66238,
    "v": 2625
  },
  {
    "dt": "2022.06.14 00:00",
    "o": 1.66121,
    "h": 1.66292,
    "l": 1.66046,
    "c": 1.66111,
    "v": 447
  },
  {
    "dt": "2022.06.14 01:00",
    "o": 1.66101,
    "h": 1.66131,
    "l": 1.659,
    "c": 1.6597,
    "v": 1353
  },
  {
    "dt": "2022.06.14 02:00",
    "o": 1.65967,
    "h": 1.66159,
    "l": 1.6595,
    "c": 1.66013,
    "v": 2021
  },
  {
    "dt": "2022.06.14 03:00",
    "o": 1.66024,
    "h": 1.66114,
    "l": 1.65883,
    "c": 1.66003,
    "v": 4396
  },
  {
    "dt": "2022.06.14 04:00",
    "o": 1.65998,
    "h": 1.66208,
    "l": 1.65948,
    "c": 1.66168,
    "v": 4722
  },
  {
    "dt": "2022.06.14 05:00",
    "o": 1.66166,
    "h": 1.6631,
    "l": 1.65975,
    "c": 1.66202,
    "v": 4163
  },
  {
    "dt": "2022.06.14 06:00",
    "o": 1.66219,
    "h": 1.66374,
    "l": 1.66088,
    "c": 1.66287,
    "v": 4002
  },
  {
    "dt": "2022.06.14 07:00",
    "o": 1.66285,
    "h": 1.66288,
    "l": 1.65892,
    "c": 1.66048,
    "v": 3786
  },
  {
    "dt": "2022.06.14 08:00",
    "o": 1.66039,
    "h": 1.66066,
    "l": 1.65858,
    "c": 1.65963,
    "v": 3723
  },
  {
    "dt": "2022.06.14 09:00",
    "o": 1.65988,
    "h": 1.66131,
    "l": 1.65839,
    "c": 1.66078,
    "v": 4407
  },
  {
    "dt": "2022.06.14 10:00",
    "o": 1.66088,
    "h": 1.66738,
    "l": 1.66087,
    "c": 1.66709,
    "v": 4966
  },
  {
    "dt": "2022.06.14 11:00",
    "o": 1.6671,
    "h": 1.67387,
    "l": 1.66707,
    "c": 1.67118,
    "v": 4786
  },
  {
    "dt": "2022.06.14 12:00",
    "o": 1.67118,
    "h": 1.67169,
    "l": 1.66773,
    "c": 1.66848,
    "v": 4627
  },
  {
    "dt": "2022.06.14 13:00",
    "o": 1.66851,
    "h": 1.672,
    "l": 1.66829,
    "c": 1.6715,
    "v": 4322
  },
  {
    "dt": "2022.06.14 14:00",
    "o": 1.67149,
    "h": 1.67494,
    "l": 1.67116,
    "c": 1.67371,
    "v": 4388
  },
  {
    "dt": "2022.06.14 15:00",
    "o": 1.67388,
    "h": 1.67594,
    "l": 1.67117,
    "c": 1.67343,
    "v": 4891
  },
  {
    "dt": "2022.06.14 16:00",
    "o": 1.67343,
    "h": 1.67621,
    "l": 1.67278,
    "c": 1.67398,
    "v": 5171
  },
  {
    "dt": "2022.06.14 17:00",
    "o": 1.67418,
    "h": 1.67588,
    "l": 1.67088,
    "c": 1.67328,
    "v": 5237
  },
  {
    "dt": "2022.06.14 18:00",
    "o": 1.67327,
    "h": 1.67538,
    "l": 1.67249,
    "c": 1.6735,
    "v": 5128
  },
  {
    "dt": "2022.06.14 19:00",
    "o": 1.67358,
    "h": 1.67848,
    "l": 1.67358,
    "c": 1.67816,
    "v": 3890
  },
  {
    "dt": "2022.06.14 20:00",
    "o": 1.67818,
    "h": 1.67838,
    "l": 1.67468,
    "c": 1.67718,
    "v": 4292
  },
  {
    "dt": "2022.06.14 21:00",
    "o": 1.67711,
    "h": 1.6784,
    "l": 1.67592,
    "c": 1.67593,
    "v": 4186
  },
  {
    "dt": "2022.06.14 22:00",
    "o": 1.67608,
    "h": 1.67905,
    "l": 1.67509,
    "c": 1.67621,
    "v": 4178
  },
  {
    "dt": "2022.06.14 23:00",
    "o": 1.67628,
    "h": 1.67698,
    "l": 1.67503,
    "c": 1.67568,
    "v": 1708
  },
  {
    "dt": "2022.06.15 00:00",
    "o": 1.67551,
    "h": 1.67594,
    "l": 1.67386,
    "c": 1.67456,
    "v": 275
  },
  {
    "dt": "2022.06.15 01:00",
    "o": 1.67467,
    "h": 1.67579,
    "l": 1.67341,
    "c": 1.67564,
    "v": 1392
  },
  {
    "dt": "2022.06.15 02:00",
    "o": 1.67566,
    "h": 1.67678,
    "l": 1.67497,
    "c": 1.67654,
    "v": 2626
  },
  {
    "dt": "2022.06.15 03:00",
    "o": 1.67654,
    "h": 1.6776,
    "l": 1.67395,
    "c": 1.67609,
    "v": 4362
  },
  {
    "dt": "2022.06.15 04:00",
    "o": 1.67622,
    "h": 1.67635,
    "l": 1.67379,
    "c": 1.67397,
    "v": 4375
  },
  {
    "dt": "2022.06.15 05:00",
    "o": 1.67392,
    "h": 1.67444,
    "l": 1.67317,
    "c": 1.67371,
    "v": 3412
  },
  {
    "dt": "2022.06.15 06:00",
    "o": 1.67379,
    "h": 1.67539,
    "l": 1.67369,
    "c": 1.67501,
    "v": 2846
  },
  {
    "dt": "2022.06.15 07:00",
    "o": 1.67518,
    "h": 1.67578,
    "l": 1.67386,
    "c": 1.67548,
    "v": 2573
  },
  {
    "dt": "2022.06.15 08:00",
    "o": 1.67548,
    "h": 1.68194,
    "l": 1.67521,
    "c": 1.68165,
    "v": 3618
  },
  {
    "dt": "2022.06.15 09:00",
    "o": 1.68158,
    "h": 1.68338,
    "l": 1.67863,
    "c": 1.6816,
    "v": 4916
  },
  {
    "dt": "2022.06.15 10:00",
    "o": 1.68161,
    "h": 1.68513,
    "l": 1.68028,
    "c": 1.6826,
    "v": 4942
  },
  {
    "dt": "2022.06.15 11:00",
    "o": 1.68268,
    "h": 1.68408,
    "l": 1.68084,
    "c": 1.68164,
    "v": 4886
  },
  {
    "dt": "2022.06.15 12:00",
    "o": 1.68169,
    "h": 1.68264,
    "l": 1.67818,
    "c": 1.67963,
    "v": 4485
  },
  {
    "dt": "2022.06.15 13:00",
    "o": 1.67962,
    "h": 1.6802,
    "l": 1.67574,
    "c": 1.67728,
    "v": 4419
  },
  {
    "dt": "2022.06.15 14:00",
    "o": 1.6773,
    "h": 1.67768,
    "l": 1.67131,
    "c": 1.67161,
    "v": 4461
  },
  {
    "dt": "2022.06.15 15:00",
    "o": 1.67164,
    "h": 1.67243,
    "l": 1.66575,
    "c": 1.66676,
    "v": 5255
  },
  {
    "dt": "2022.06.15 16:00",
    "o": 1.66676,
    "h": 1.66843,
    "l": 1.66538,
    "c": 1.66608,
    "v": 5254
  },
  {
    "dt": "2022.06.15 17:00",
    "o": 1.66598,
    "h": 1.66771,
    "l": 1.66403,
    "c": 1.66672,
    "v": 5074
  },
  {
    "dt": "2022.06.15 18:00",
    "o": 1.66674,
    "h": 1.66748,
    "l": 1.66335,
    "c": 1.66412,
    "v": 4346
  },
  {
    "dt": "2022.06.15 19:00",
    "o": 1.66412,
    "h": 1.66459,
    "l": 1.66237,
    "c": 1.66389,
    "v": 3750
  },
  {
    "dt": "2022.06.15 20:00",
    "o": 1.66389,
    "h": 1.66589,
    "l": 1.66323,
    "c": 1.6636,
    "v": 3564
  },
  {
    "dt": "2022.06.15 21:00",
    "o": 1.66352,
    "h": 1.66818,
    "l": 1.6595,
    "c": 1.66377,
    "v": 5697
  },
  {
    "dt": "2022.06.15 22:00",
    "o": 1.66342,
    "h": 1.66342,
    "l": 1.65588,
    "c": 1.66048,
    "v": 5436
  },
  {
    "dt": "2022.06.15 23:00",
    "o": 1.66029,
    "h": 1.66257,
    "l": 1.66021,
    "c": 1.66224,
    "v": 2530
  },
  {
    "dt": "2022.06.16 00:00",
    "o": 1.65952,
    "h": 1.66139,
    "l": 1.65821,
    "c": 1.66136,
    "v": 470
  },
  {
    "dt": "2022.06.16 01:00",
    "o": 1.66145,
    "h": 1.66748,
    "l": 1.66058,
    "c": 1.6658,
    "v": 2572
  },
  {
    "dt": "2022.06.16 02:00",
    "o": 1.66562,
    "h": 1.66598,
    "l": 1.66143,
    "c": 1.66205,
    "v": 3378
  },
  {
    "dt": "2022.06.16 03:00",
    "o": 1.66234,
    "h": 1.66317,
    "l": 1.65827,
    "c": 1.66118,
    "v": 4123
  },
  {
    "dt": "2022.06.16 04:00",
    "o": 1.66121,
    "h": 1.66203,
    "l": 1.65892,
    "c": 1.66059,
    "v": 4673
  },
  {
    "dt": "2022.06.16 05:00",
    "o": 1.66063,
    "h": 1.66108,
    "l": 1.65838,
    "c": 1.65928,
    "v": 3660
  },
  {
    "dt": "2022.06.16 06:00",
    "o": 1.65928,
    "h": 1.65988,
    "l": 1.65884,
    "c": 1.65958,
    "v": 3106
  },
  {
    "dt": "2022.06.16 07:00",
    "o": 1.65958,
    "h": 1.66008,
    "l": 1.65823,
    "c": 1.65896,
    "v": 2873
  },
  {
    "dt": "2022.06.16 08:00",
    "o": 1.65904,
    "h": 1.66198,
    "l": 1.65887,
    "c": 1.66048,
    "v": 3635
  },
  {
    "dt": "2022.06.16 09:00",
    "o": 1.66034,
    "h": 1.66282,
    "l": 1.65878,
    "c": 1.66118,
    "v": 4444
  },
  {
    "dt": "2022.06.16 10:00",
    "o": 1.66133,
    "h": 1.66651,
    "l": 1.66128,
    "c": 1.66298,
    "v": 5554
  },
  {
    "dt": "2022.06.16 11:00",
    "o": 1.66296,
    "h": 1.66348,
    "l": 1.65821,
    "c": 1.65982,
    "v": 5464
  },
  {
    "dt": "2022.06.16 12:00",
    "o": 1.65981,
    "h": 1.66279,
    "l": 1.65894,
    "c": 1.65996,
    "v": 5145
  },
  {
    "dt": "2022.06.16 13:00",
    "o": 1.66,
    "h": 1.66238,
    "l": 1.65713,
    "c": 1.66172,
    "v": 4707
  },
  {
    "dt": "2022.06.16 14:00",
    "o": 1.66179,
    "h": 1.66398,
    "l": 1.6599,
    "c": 1.66212,
    "v": 5541
  },
  {
    "dt": "2022.06.16 15:00",
    "o": 1.66217,
    "h": 1.66244,
    "l": 1.65762,
    "c": 1.65914,
    "v": 5097
  },
  {
    "dt": "2022.06.16 16:00",
    "o": 1.65926,
    "h": 1.66538,
    "l": 1.6592,
    "c": 1.66144,
    "v": 5424
  },
  {
    "dt": "2022.06.16 17:00",
    "o": 1.66146,
    "h": 1.66761,
    "l": 1.66141,
    "c": 1.66736,
    "v": 5931
  },
  {
    "dt": "2022.06.16 18:00",
    "o": 1.66736,
    "h": 1.66741,
    "l": 1.66028,
    "c": 1.66098,
    "v": 5687
  },
  {
    "dt": "2022.06.16 19:00",
    "o": 1.66094,
    "h": 1.66249,
    "l": 1.65474,
    "c": 1.65708,
    "v": 5344
  },
  {
    "dt": "2022.06.16 20:00",
    "o": 1.65705,
    "h": 1.65818,
    "l": 1.65458,
    "c": 1.65746,
    "v": 5415
  },
  {
    "dt": "2022.06.16 21:00",
    "o": 1.65749,
    "h": 1.65808,
    "l": 1.65458,
    "c": 1.65729,
    "v": 4707
  },
  {
    "dt": "2022.06.16 22:00",
    "o": 1.65758,
    "h": 1.65962,
    "l": 1.65715,
    "c": 1.65868,
    "v": 4770
  },
  {
    "dt": "2022.06.16 23:00",
    "o": 1.65868,
    "h": 1.65898,
    "l": 1.65678,
    "c": 1.65847,
    "v": 2242
  },
  {
    "dt": "2022.06.17 00:00",
    "o": 1.6562,
    "h": 1.65936,
    "l": 1.65372,
    "c": 1.65936,
    "v": 435
  },
  {
    "dt": "2022.06.17 01:00",
    "o": 1.65931,
    "h": 1.65948,
    "l": 1.65728,
    "c": 1.65878,
    "v": 1401
  },
  {
    "dt": "2022.06.17 02:00",
    "o": 1.65878,
    "h": 1.65878,
    "l": 1.65577,
    "c": 1.65832,
    "v": 2646
  },
  {
    "dt": "2022.06.17 03:00",
    "o": 1.65831,
    "h": 1.66158,
    "l": 1.65813,
    "c": 1.66111,
    "v": 4394
  },
  {
    "dt": "2022.06.17 04:00",
    "o": 1.66109,
    "h": 1.66145,
    "l": 1.65848,
    "c": 1.66058,
    "v": 4282
  },
  {
    "dt": "2022.06.17 05:00",
    "o": 1.66058,
    "h": 1.66068,
    "l": 1.65797,
    "c": 1.6596,
    "v": 4412
  },
  {
    "dt": "2022.06.17 06:00",
    "o": 1.65974,
    "h": 1.66201,
    "l": 1.65955,
    "c": 1.66168,
    "v": 4481
  },
  {
    "dt": "2022.06.17 07:00",
    "o": 1.6617,
    "h": 1.6617,
    "l": 1.65858,
    "c": 1.65929,
    "v": 3704
  },
  {
    "dt": "2022.06.17 08:00",
    "o": 1.65928,
    "h": 1.65942,
    "l": 1.6579,
    "c": 1.65883,
    "v": 3937
  },
  {
    "dt": "2022.06.17 09:00",
    "o": 1.65884,
    "h": 1.66318,
    "l": 1.65874,
    "c": 1.66147,
    "v": 4852
  },
  {
    "dt": "2022.06.17 10:00",
    "o": 1.6615,
    "h": 1.66436,
    "l": 1.66091,
    "c": 1.66136,
    "v": 5089
  },
  {
    "dt": "2022.06.17 11:00",
    "o": 1.66132,
    "h": 1.66288,
    "l": 1.65906,
    "c": 1.66108,
    "v": 4910
  },
  {
    "dt": "2022.06.17 12:00",
    "o": 1.66108,
    "h": 1.66199,
    "l": 1.65951,
    "c": 1.66009,
    "v": 4564
  },
  {
    "dt": "2022.06.17 13:00",
    "o": 1.66014,
    "h": 1.66069,
    "l": 1.659,
    "c": 1.65963,
    "v": 4304
  },
  {
    "dt": "2022.06.17 14:00",
    "o": 1.65971,
    "h": 1.6606,
    "l": 1.65827,
    "c": 1.65862,
    "v": 4395
  },
  {
    "dt": "2022.06.17 15:00",
    "o": 1.65857,
    "h": 1.6606,
    "l": 1.65778,
    "c": 1.6598,
    "v": 4915
  },
  {
    "dt": "2022.06.17 16:00",
    "o": 1.65987,
    "h": 1.66294,
    "l": 1.65972,
    "c": 1.66248,
    "v": 5385
  },
  {
    "dt": "2022.06.17 17:00",
    "o": 1.66248,
    "h": 1.66727,
    "l": 1.66178,
    "c": 1.66665,
    "v": 5852
  },
  {
    "dt": "2022.06.17 18:00",
    "o": 1.66665,
    "h": 1.66768,
    "l": 1.6634,
    "c": 1.66467,
    "v": 4841
  },
  {
    "dt": "2022.06.17 19:00",
    "o": 1.66453,
    "h": 1.66508,
    "l": 1.66185,
    "c": 1.6633,
    "v": 4044
  },
  {
    "dt": "2022.06.17 20:00",
    "o": 1.6633,
    "h": 1.66506,
    "l": 1.66104,
    "c": 1.66333,
    "v": 3909
  },
  {
    "dt": "2022.06.17 21:00",
    "o": 1.66335,
    "h": 1.66414,
    "l": 1.66174,
    "c": 1.66268,
    "v": 3245
  },
  {
    "dt": "2022.06.17 22:00",
    "o": 1.66268,
    "h": 1.66421,
    "l": 1.66221,
    "c": 1.66408,
    "v": 3269
  },
  {
    "dt": "2022.06.17 23:00",
    "o": 1.66408,
    "h": 1.66459,
    "l": 1.66141,
    "c": 1.66188,
    "v": 1353
  },
  {
    "dt": "2022.06.20 00:00",
    "o": 1.66253,
    "h": 1.66548,
    "l": 1.65515,
    "c": 1.66097,
    "v": 787
  },
  {
    "dt": "2022.06.20 01:00",
    "o": 1.66111,
    "h": 1.66151,
    "l": 1.65893,
    "c": 1.65943,
    "v": 1309
  },
  {
    "dt": "2022.06.20 02:00",
    "o": 1.65923,
    "h": 1.66012,
    "l": 1.65734,
    "c": 1.65845,
    "v": 2733
  },
  {
    "dt": "2022.06.20 03:00",
    "o": 1.65855,
    "h": 1.66073,
    "l": 1.65855,
    "c": 1.66044,
    "v": 4159
  },
  {
    "dt": "2022.06.20 04:00",
    "o": 1.66041,
    "h": 1.66388,
    "l": 1.65998,
    "c": 1.66368,
    "v": 4582
  },
  {
    "dt": "2022.06.20 05:00",
    "o": 1.66368,
    "h": 1.66418,
    "l": 1.6616,
    "c": 1.66258,
    "v": 4617
  },
  {
    "dt": "2022.06.20 06:00",
    "o": 1.66248,
    "h": 1.66442,
    "l": 1.66228,
    "c": 1.66442,
    "v": 3778
  },
  {
    "dt": "2022.06.20 07:00",
    "o": 1.66445,
    "h": 1.66448,
    "l": 1.66144,
    "c": 1.66267,
    "v": 3171
  },
  {
    "dt": "2022.06.20 08:00",
    "o": 1.66271,
    "h": 1.66401,
    "l": 1.66205,
    "c": 1.66274,
    "v": 3637
  },
  {
    "dt": "2022.06.20 09:00",
    "o": 1.66273,
    "h": 1.66396,
    "l": 1.65905,
    "c": 1.66012,
    "v": 4688
  },
  {
    "dt": "2022.06.20 10:00",
    "o": 1.66021,
    "h": 1.66071,
    "l": 1.65635,
    "c": 1.65797,
    "v": 5182
  },
  {
    "dt": "2022.06.20 11:00",
    "o": 1.65795,
    "h": 1.65822,
    "l": 1.65499,
    "c": 1.65789,
    "v": 4701
  },
  {
    "dt": "2022.06.20 12:00",
    "o": 1.65787,
    "h": 1.65921,
    "l": 1.65662,
    "c": 1.6568,
    "v": 4728
  },
  {
    "dt": "2022.06.20 13:00",
    "o": 1.65678,
    "h": 1.65714,
    "l": 1.65518,
    "c": 1.65662,
    "v": 4090
  },
  {
    "dt": "2022.06.20 14:00",
    "o": 1.65663,
    "h": 1.65663,
    "l": 1.65385,
    "c": 1.65535,
    "v": 4325
  },
  {
    "dt": "2022.06.20 15:00",
    "o": 1.65533,
    "h": 1.6564,
    "l": 1.65407,
    "c": 1.65611,
    "v": 3995
  },
  {
    "dt": "2022.06.20 16:00",
    "o": 1.65613,
    "h": 1.66029,
    "l": 1.6561,
    "c": 1.65977,
    "v": 4439
  },
  {
    "dt": "2022.06.20 17:00",
    "o": 1.65973,
    "h": 1.66192,
    "l": 1.65947,
    "c": 1.66154,
    "v": 4360
  },
  {
    "dt": "2022.06.20 18:00",
    "o": 1.66153,
    "h": 1.66164,
    "l": 1.65895,
    "c": 1.66054,
    "v": 3272
  },
  {
    "dt": "2022.06.20 19:00",
    "o": 1.66057,
    "h": 1.6607,
    "l": 1.65913,
    "c": 1.66033,
    "v": 3221
  },
  {
    "dt": "2022.06.20 20:00",
    "o": 1.66034,
    "h": 1.66049,
    "l": 1.6595,
    "c": 1.6597,
    "v": 1716
  },
  {
    "dt": "2022.06.20 21:00",
    "o": 1.65971,
    "h": 1.66022,
    "l": 1.65865,
    "c": 1.65895,
    "v": 1626
  },
  {
    "dt": "2022.06.20 22:00",
    "o": 1.65859,
    "h": 1.65967,
    "l": 1.65792,
    "c": 1.65942,
    "v": 783
  },
  {
    "dt": "2022.06.20 23:00",
    "o": 1.65939,
    "h": 1.66021,
    "l": 1.65911,
    "c": 1.65961,
    "v": 853
  },
  {
    "dt": "2022.06.21 00:00",
    "o": 1.6593,
    "h": 1.66,
    "l": 1.65778,
    "c": 1.65994,
    "v": 432
  },
  {
    "dt": "2022.06.21 01:00",
    "o": 1.66022,
    "h": 1.66025,
    "l": 1.65888,
    "c": 1.66012,
    "v": 1024
  },
  {
    "dt": "2022.06.21 02:00",
    "o": 1.66009,
    "h": 1.66088,
    "l": 1.65913,
    "c": 1.65997,
    "v": 1682
  },
  {
    "dt": "2022.06.21 03:00",
    "o": 1.66011,
    "h": 1.6623,
    "l": 1.65907,
    "c": 1.66197,
    "v": 4277
  },
  {
    "dt": "2022.06.21 04:00",
    "o": 1.66191,
    "h": 1.66318,
    "l": 1.66041,
    "c": 1.66198,
    "v": 3631
  },
  {
    "dt": "2022.06.21 05:00",
    "o": 1.66194,
    "h": 1.66234,
    "l": 1.66067,
    "c": 1.66142,
    "v": 3153
  },
  {
    "dt": "2022.06.21 06:00",
    "o": 1.66142,
    "h": 1.66153,
    "l": 1.65909,
    "c": 1.65948,
    "v": 2858
  },
  {
    "dt": "2022.06.21 07:00",
    "o": 1.65945,
    "h": 1.66158,
    "l": 1.65873,
    "c": 1.66148,
    "v": 1948
  },
  {
    "dt": "2022.06.21 08:00",
    "o": 1.66139,
    "h": 1.66313,
    "l": 1.66031,
    "c": 1.66239,
    "v": 2894
  },
  {
    "dt": "2022.06.21 09:00",
    "o": 1.66228,
    "h": 1.66305,
    "l": 1.66138,
    "c": 1.6623,
    "v": 3911
  },
  {
    "dt": "2022.06.21 10:00",
    "o": 1.66233,
    "h": 1.66245,
    "l": 1.65884,
    "c": 1.66038,
    "v": 4416
  },
  {
    "dt": "2022.06.21 11:00",
    "o": 1.66032,
    "h": 1.66291,
    "l": 1.65938,
    "c": 1.66264,
    "v": 3968
  },
  {
    "dt": "2022.06.21 12:00",
    "o": 1.66267,
    "h": 1.66418,
    "l": 1.66188,
    "c": 1.66401,
    "v": 3296
  },
  {
    "dt": "2022.06.21 13:00",
    "o": 1.66408,
    "h": 1.66638,
    "l": 1.66256,
    "c": 1.666,
    "v": 3356
  },
  {
    "dt": "2022.06.21 14:00",
    "o": 1.66601,
    "h": 1.66947,
    "l": 1.66599,
    "c": 1.66771,
    "v": 3805
  },
  {
    "dt": "2022.06.21 15:00",
    "o": 1.66768,
    "h": 1.66869,
    "l": 1.66574,
    "c": 1.66778,
    "v": 4289
  },
  {
    "dt": "2022.06.21 16:00",
    "o": 1.66781,
    "h": 1.66827,
    "l": 1.66349,
    "c": 1.66412,
    "v": 4708
  },
  {
    "dt": "2022.06.21 17:00",
    "o": 1.66408,
    "h": 1.66568,
    "l": 1.66243,
    "c": 1.66428,
    "v": 4819
  },
  {
    "dt": "2022.06.21 18:00",
    "o": 1.66428,
    "h": 1.66428,
    "l": 1.66189,
    "c": 1.66238,
    "v": 3954
  },
  {
    "dt": "2022.06.21 19:00",
    "o": 1.66237,
    "h": 1.66328,
    "l": 1.66105,
    "c": 1.66142,
    "v": 3774
  },
  {
    "dt": "2022.06.21 20:00",
    "o": 1.66138,
    "h": 1.66308,
    "l": 1.66081,
    "c": 1.66298,
    "v": 2904
  },
  {
    "dt": "2022.06.21 21:00",
    "o": 1.66288,
    "h": 1.66318,
    "l": 1.66091,
    "c": 1.66209,
    "v": 2910
  },
  {
    "dt": "2022.06.21 22:00",
    "o": 1.66221,
    "h": 1.6647,
    "l": 1.66221,
    "c": 1.66421,
    "v": 2918
  },
  {
    "dt": "2022.06.21 23:00",
    "o": 1.66419,
    "h": 1.66428,
    "l": 1.66305,
    "c": 1.66329,
    "v": 1099
  },
  {
    "dt": "2022.06.22 00:00",
    "o": 1.66313,
    "h": 1.6639,
    "l": 1.66246,
    "c": 1.66329,
    "v": 648
  },
  {
    "dt": "2022.06.22 01:00",
    "o": 1.66309,
    "h": 1.66487,
    "l": 1.66295,
    "c": 1.66428,
    "v": 1224
  },
  {
    "dt": "2022.06.22 02:00",
    "o": 1.66446,
    "h": 1.6683,
    "l": 1.66444,
    "c": 1.66808,
    "v": 2536
  },
  {
    "dt": "2022.06.22 03:00",
    "o": 1.6678,
    "h": 1.67008,
    "l": 1.66695,
    "c": 1.66928,
    "v": 3876
  },
  {
    "dt": "2022.06.22 04:00",
    "o": 1.66928,
    "h": 1.67016,
    "l": 1.66773,
    "c": 1.6695,
    "v": 4012
  },
  {
    "dt": "2022.06.22 05:00",
    "o": 1.6695,
    "h": 1.67452,
    "l": 1.66916,
    "c": 1.67384,
    "v": 3691
  },
  {
    "dt": "2022.06.22 06:00",
    "o": 1.67372,
    "h": 1.67668,
    "l": 1.67346,
    "c": 1.67622,
    "v": 3404
  },
  {
    "dt": "2022.06.22 07:00",
    "o": 1.67628,
    "h": 1.67638,
    "l": 1.67417,
    "c": 1.67446,
    "v": 2960
  },
  {
    "dt": "2022.06.22 08:00",
    "o": 1.67453,
    "h": 1.67556,
    "l": 1.67288,
    "c": 1.67293,
    "v": 3563
  },
  {
    "dt": "2022.06.22 09:00",
    "o": 1.6729,
    "h": 1.67878,
    "l": 1.67288,
    "c": 1.67658,
    "v": 4514
  },
  {
    "dt": "2022.06.22 10:00",
    "o": 1.67659,
    "h": 1.67875,
    "l": 1.67576,
    "c": 1.67854,
    "v": 5326
  },
  {
    "dt": "2022.06.22 11:00",
    "o": 1.67852,
    "h": 1.68256,
    "l": 1.67778,
    "c": 1.68184,
    "v": 4612
  },
  {
    "dt": "2022.06.22 12:00",
    "o": 1.68189,
    "h": 1.68348,
    "l": 1.67979,
    "c": 1.67998,
    "v": 4521
  },
  {
    "dt": "2022.06.22 13:00",
    "o": 1.67991,
    "h": 1.68432,
    "l": 1.67901,
    "c": 1.68372,
    "v": 4207
  },
  {
    "dt": "2022.06.22 14:00",
    "o": 1.68366,
    "h": 1.68378,
    "l": 1.68081,
    "c": 1.68244,
    "v": 4461
  },
  {
    "dt": "2022.06.22 15:00",
    "o": 1.68242,
    "h": 1.68392,
    "l": 1.68148,
    "c": 1.68178,
    "v": 4672
  },
  {
    "dt": "2022.06.22 16:00",
    "o": 1.68178,
    "h": 1.68481,
    "l": 1.67838,
    "c": 1.67987,
    "v": 5480
  },
  {
    "dt": "2022.06.22 17:00",
    "o": 1.67991,
    "h": 1.68292,
    "l": 1.67869,
    "c": 1.68145,
    "v": 5582
  },
  {
    "dt": "2022.06.22 18:00",
    "o": 1.68144,
    "h": 1.68289,
    "l": 1.6802,
    "c": 1.68188,
    "v": 5111
  },
  {
    "dt": "2022.06.22 19:00",
    "o": 1.68193,
    "h": 1.68388,
    "l": 1.68109,
    "c": 1.68228,
    "v": 4556
  },
  {
    "dt": "2022.06.22 20:00",
    "o": 1.68229,
    "h": 1.68287,
    "l": 1.67995,
    "c": 1.68022,
    "v": 3900
  },
  {
    "dt": "2022.06.22 21:00",
    "o": 1.68023,
    "h": 1.68239,
    "l": 1.67959,
    "c": 1.68178,
    "v": 4024
  },
  {
    "dt": "2022.06.22 22:00",
    "o": 1.68148,
    "h": 1.68244,
    "l": 1.68008,
    "c": 1.68088,
    "v": 3385
  },
  {
    "dt": "2022.06.22 23:00",
    "o": 1.68088,
    "h": 1.68134,
    "l": 1.6801,
    "c": 1.68079,
    "v": 2438
  },
  {
    "dt": "2022.06.23 00:00",
    "o": 1.68478,
    "h": 1.68512,
    "l": 1.67916,
    "c": 1.68012,
    "v": 642
  },
  {
    "dt": "2022.06.23 01:00",
    "o": 1.68026,
    "h": 1.6812,
    "l": 1.68022,
    "c": 1.68068,
    "v": 1242
  },
  {
    "dt": "2022.06.23 02:00",
    "o": 1.68077,
    "h": 1.68508,
    "l": 1.68052,
    "c": 1.68451,
    "v": 2745
  },
  {
    "dt": "2022.06.23 03:00",
    "o": 1.68461,
    "h": 1.68567,
    "l": 1.68322,
    "c": 1.68542,
    "v": 3994
  },
  {
    "dt": "2022.06.23 04:00",
    "o": 1.68539,
    "h": 1.68764,
    "l": 1.68523,
    "c": 1.68653,
    "v": 4397
  },
  {
    "dt": "2022.06.23 05:00",
    "o": 1.68653,
    "h": 1.68783,
    "l": 1.68583,
    "c": 1.68755,
    "v": 4388
  },
  {
    "dt": "2022.06.23 06:00",
    "o": 1.68751,
    "h": 1.6889,
    "l": 1.68679,
    "c": 1.6884,
    "v": 3626
  },
  {
    "dt": "2022.06.23 07:00",
    "o": 1.68831,
    "h": 1.68863,
    "l": 1.68637,
    "c": 1.6866,
    "v": 3238
  },
  {
    "dt": "2022.06.23 08:00",
    "o": 1.68662,
    "h": 1.68819,
    "l": 1.68561,
    "c": 1.68589,
    "v": 3465
  },
  {
    "dt": "2022.06.23 09:00",
    "o": 1.68599,
    "h": 1.68726,
    "l": 1.68488,
    "c": 1.68683,
    "v": 4133
  },
  {
    "dt": "2022.06.23 10:00",
    "o": 1.68686,
    "h": 1.68717,
    "l": 1.67922,
    "c": 1.67997,
    "v": 4918
  },
  {
    "dt": "2022.06.23 11:00",
    "o": 1.68,
    "h": 1.68083,
    "l": 1.67673,
    "c": 1.6779,
    "v": 4495
  },
  {
    "dt": "2022.06.23 12:00",
    "o": 1.67793,
    "h": 1.68116,
    "l": 1.67689,
    "c": 1.68053,
    "v": 4090
  },
  {
    "dt": "2022.06.23 13:00",
    "o": 1.6805,
    "h": 1.68074,
    "l": 1.67468,
    "c": 1.67514,
    "v": 3959
  },
  {
    "dt": "2022.06.23 14:00",
    "o": 1.67516,
    "h": 1.67638,
    "l": 1.67423,
    "c": 1.67475,
    "v": 3795
  },
  {
    "dt": "2022.06.23 15:00",
    "o": 1.67469,
    "h": 1.67497,
    "l": 1.67062,
    "c": 1.67077,
    "v": 4518
  },
  {
    "dt": "2022.06.23 16:00",
    "o": 1.67077,
    "h": 1.67379,
    "l": 1.67062,
    "c": 1.67132,
    "v": 5516
  },
  {
    "dt": "2022.06.23 17:00",
    "o": 1.67136,
    "h": 1.67468,
    "l": 1.67083,
    "c": 1.67088,
    "v": 5696
  },
  {
    "dt": "2022.06.23 18:00",
    "o": 1.67088,
    "h": 1.6743,
    "l": 1.67088,
    "c": 1.67238,
    "v": 5209
  },
  {
    "dt": "2022.06.23 19:00",
    "o": 1.67244,
    "h": 1.67669,
    "l": 1.6722,
    "c": 1.67648,
    "v": 4725
  },
  {
    "dt": "2022.06.23 20:00",
    "o": 1.67648,
    "h": 1.67792,
    "l": 1.67559,
    "c": 1.67672,
    "v": 4388
  },
  {
    "dt": "2022.06.23 21:00",
    "o": 1.67671,
    "h": 1.67788,
    "l": 1.67588,
    "c": 1.67628,
    "v": 3873
  },
  {
    "dt": "2022.06.23 22:00",
    "o": 1.67618,
    "h": 1.67668,
    "l": 1.67398,
    "c": 1.67458,
    "v": 3265
  },
  {
    "dt": "2022.06.23 23:00",
    "o": 1.67456,
    "h": 1.67685,
    "l": 1.67442,
    "c": 1.67473,
    "v": 1593
  },
  {
    "dt": "2022.06.24 00:00",
    "o": 1.67405,
    "h": 1.67809,
    "l": 1.67405,
    "c": 1.67555,
    "v": 410
  },
  {
    "dt": "2022.06.24 01:00",
    "o": 1.67508,
    "h": 1.67612,
    "l": 1.67404,
    "c": 1.67438,
    "v": 992
  },
  {
    "dt": "2022.06.24 02:00",
    "o": 1.67435,
    "h": 1.67489,
    "l": 1.67333,
    "c": 1.67359,
    "v": 1170
  },
  {
    "dt": "2022.06.24 03:00",
    "o": 1.67362,
    "h": 1.67481,
    "l": 1.67074,
    "c": 1.672,
    "v": 4174
  },
  {
    "dt": "2022.06.24 04:00",
    "o": 1.67202,
    "h": 1.67408,
    "l": 1.67146,
    "c": 1.67353,
    "v": 4133
  },
  {
    "dt": "2022.06.24 05:00",
    "o": 1.67355,
    "h": 1.67488,
    "l": 1.67288,
    "c": 1.67488,
    "v": 3543
  },
  {
    "dt": "2022.06.24 06:00",
    "o": 1.67484,
    "h": 1.67568,
    "l": 1.67338,
    "c": 1.67369,
    "v": 3060
  },
  {
    "dt": "2022.06.24 07:00",
    "o": 1.67369,
    "h": 1.67412,
    "l": 1.67214,
    "c": 1.67218,
    "v": 3122
  },
  {
    "dt": "2022.06.24 08:00",
    "o": 1.67226,
    "h": 1.67358,
    "l": 1.67135,
    "c": 1.67338,
    "v": 3247
  },
  {
    "dt": "2022.06.24 09:00",
    "o": 1.67333,
    "h": 1.67418,
    "l": 1.67218,
    "c": 1.6723,
    "v": 3699
  },
  {
    "dt": "2022.06.24 10:00",
    "o": 1.67218,
    "h": 1.67359,
    "l": 1.67008,
    "c": 1.67141,
    "v": 4564
  },
  {
    "dt": "2022.06.24 11:00",
    "o": 1.67138,
    "h": 1.67459,
    "l": 1.67119,
    "c": 1.6736,
    "v": 4024
  },
  {
    "dt": "2022.06.24 12:00",
    "o": 1.6736,
    "h": 1.67419,
    "l": 1.66982,
    "c": 1.67173,
    "v": 3610
  },
  {
    "dt": "2022.06.24 13:00",
    "o": 1.67175,
    "h": 1.6733,
    "l": 1.67137,
    "c": 1.67223,
    "v": 3409
  },
  {
    "dt": "2022.06.24 14:00",
    "o": 1.67228,
    "h": 1.67245,
    "l": 1.67053,
    "c": 1.67205,
    "v": 3489
  },
  {
    "dt": "2022.06.24 15:00",
    "o": 1.67191,
    "h": 1.67348,
    "l": 1.67098,
    "c": 1.67128,
    "v": 3944
  },
  {
    "dt": "2022.06.24 16:00",
    "o": 1.67129,
    "h": 1.67578,
    "l": 1.6705,
    "c": 1.67548,
    "v": 4370
  },
  {
    "dt": "2022.06.24 17:00",
    "o": 1.67498,
    "h": 1.67568,
    "l": 1.66885,
    "c": 1.66998,
    "v": 5328
  },
  {
    "dt": "2022.06.24 18:00",
    "o": 1.66998,
    "h": 1.67058,
    "l": 1.66761,
    "c": 1.66779,
    "v": 4215
  },
  {
    "dt": "2022.06.24 19:00",
    "o": 1.66772,
    "h": 1.6694,
    "l": 1.66766,
    "c": 1.66858,
    "v": 3075
  },
  {
    "dt": "2022.06.24 20:00",
    "o": 1.66848,
    "h": 1.66958,
    "l": 1.66838,
    "c": 1.66892,
    "v": 2334
  },
  {
    "dt": "2022.06.24 21:00",
    "o": 1.66896,
    "h": 1.66992,
    "l": 1.66891,
    "c": 1.66922,
    "v": 2455
  },
  {
    "dt": "2022.06.24 22:00",
    "o": 1.66918,
    "h": 1.66987,
    "l": 1.6685,
    "c": 1.6694,
    "v": 2011
  },
  {
    "dt": "2022.06.24 23:00",
    "o": 1.66938,
    "h": 1.67178,
    "l": 1.66908,
    "c": 1.67118,
    "v": 958
  },
  {
    "dt": "2022.06.27 00:00",
    "o": 1.67141,
    "h": 1.67289,
    "l": 1.6699,
    "c": 1.67063,
    "v": 329
  },
  {
    "dt": "2022.06.27 01:00",
    "o": 1.67055,
    "h": 1.67125,
    "l": 1.6694,
    "c": 1.67097,
    "v": 1714
  },
  {
    "dt": "2022.06.27 02:00",
    "o": 1.67075,
    "h": 1.67358,
    "l": 1.67054,
    "c": 1.67329,
    "v": 2363
  },
  {
    "dt": "2022.06.27 03:00",
    "o": 1.67357,
    "h": 1.676,
    "l": 1.67242,
    "c": 1.6745,
    "v": 3860
  },
  {
    "dt": "2022.06.27 04:00",
    "o": 1.67449,
    "h": 1.67465,
    "l": 1.67285,
    "c": 1.67401,
    "v": 4065
  },
  {
    "dt": "2022.06.27 05:00",
    "o": 1.67396,
    "h": 1.67443,
    "l": 1.67231,
    "c": 1.67377,
    "v": 3926
  },
  {
    "dt": "2022.06.27 06:00",
    "o": 1.67376,
    "h": 1.67538,
    "l": 1.6731,
    "c": 1.67353,
    "v": 2971
  },
  {
    "dt": "2022.06.27 07:00",
    "o": 1.67351,
    "h": 1.67535,
    "l": 1.67319,
    "c": 1.67319,
    "v": 2573
  },
  {
    "dt": "2022.06.27 08:00",
    "o": 1.67317,
    "h": 1.67398,
    "l": 1.67076,
    "c": 1.67119,
    "v": 3176
  },
  {
    "dt": "2022.06.27 09:00",
    "o": 1.67128,
    "h": 1.67518,
    "l": 1.67109,
    "c": 1.67478,
    "v": 4161
  },
  {
    "dt": "2022.06.27 10:00",
    "o": 1.67478,
    "h": 1.67694,
    "l": 1.67305,
    "c": 1.67678,
    "v": 5034
  },
  {
    "dt": "2022.06.27 11:00",
    "o": 1.67682,
    "h": 1.67728,
    "l": 1.67335,
    "c": 1.67356,
    "v": 4595
  },
  {
    "dt": "2022.06.27 12:00",
    "o": 1.6736,
    "h": 1.6763,
    "l": 1.6736,
    "c": 1.67494,
    "v": 4098
  },
  {
    "dt": "2022.06.27 13:00",
    "o": 1.67495,
    "h": 1.67672,
    "l": 1.67398,
    "c": 1.67616,
    "v": 4285
  },
  {
    "dt": "2022.06.27 14:00",
    "o": 1.67606,
    "h": 1.6796,
    "l": 1.67564,
    "c": 1.67808,
    "v": 3673
  },
  {
    "dt": "2022.06.27 15:00",
    "o": 1.67808,
    "h": 1.68055,
    "l": 1.6774,
    "c": 1.67752,
    "v": 4788
  },
  {
    "dt": "2022.06.27 16:00",
    "o": 1.67781,
    "h": 1.67791,
    "l": 1.67563,
    "c": 1.67689,
    "v": 5067
  },
  {
    "dt": "2022.06.27 17:00",
    "o": 1.67699,
    "h": 1.67884,
    "l": 1.67584,
    "c": 1.67764,
    "v": 5292
  },
  {
    "dt": "2022.06.27 18:00",
    "o": 1.67764,
    "h": 1.67908,
    "l": 1.67675,
    "c": 1.67808,
    "v": 4734
  },
  {
    "dt": "2022.06.27 19:00",
    "o": 1.67806,
    "h": 1.68121,
    "l": 1.67783,
    "c": 1.67983,
    "v": 3869
  },
  {
    "dt": "2022.06.27 20:00",
    "o": 1.67977,
    "h": 1.68074,
    "l": 1.67908,
    "c": 1.68051,
    "v": 3502
  },
  {
    "dt": "2022.06.27 21:00",
    "o": 1.68059,
    "h": 1.68153,
    "l": 1.67982,
    "c": 1.67982,
    "v": 3678
  },
  {
    "dt": "2022.06.27 22:00",
    "o": 1.67816,
    "h": 1.68202,
    "l": 1.67816,
    "c": 1.68128,
    "v": 3082
  },
  {
    "dt": "2022.06.27 23:00",
    "o": 1.6813,
    "h": 1.68138,
    "l": 1.67884,
    "c": 1.67924,
    "v": 1256
  },
  {
    "dt": "2022.06.28 00:00",
    "o": 1.67954,
    "h": 1.68009,
    "l": 1.67845,
    "c": 1.67874,
    "v": 414
  },
  {
    "dt": "2022.06.28 01:00",
    "o": 1.67854,
    "h": 1.68038,
    "l": 1.67817,
    "c": 1.68016,
    "v": 1143
  },
  {
    "dt": "2022.06.28 02:00",
    "o": 1.68018,
    "h": 1.68119,
    "l": 1.67983,
    "c": 1.68119,
    "v": 1310
  },
  {
    "dt": "2022.06.28 03:00",
    "o": 1.68123,
    "h": 1.68123,
    "l": 1.67808,
    "c": 1.67825,
    "v": 3472
  },
  {
    "dt": "2022.06.28 04:00",
    "o": 1.67826,
    "h": 1.68025,
    "l": 1.67711,
    "c": 1.67927,
    "v": 3753
  },
  {
    "dt": "2022.06.28 05:00",
    "o": 1.67931,
    "h": 1.68088,
    "l": 1.67885,
    "c": 1.68027,
    "v": 3711
  },
  {
    "dt": "2022.06.28 06:00",
    "o": 1.68038,
    "h": 1.68138,
    "l": 1.67854,
    "c": 1.67908,
    "v": 3051
  },
  {
    "dt": "2022.06.28 07:00",
    "o": 1.67906,
    "h": 1.68059,
    "l": 1.679,
    "c": 1.68006,
    "v": 2936
  },
  {
    "dt": "2022.06.28 08:00",
    "o": 1.68002,
    "h": 1.68184,
    "l": 1.67974,
    "c": 1.68058,
    "v": 2926
  },
  {
    "dt": "2022.06.28 09:00",
    "o": 1.68068,
    "h": 1.68192,
    "l": 1.67781,
    "c": 1.67808,
    "v": 4561
  },
  {
    "dt": "2022.06.28 10:00",
    "o": 1.67795,
    "h": 1.68519,
    "l": 1.6773,
    "c": 1.68258,
    "v": 4618
  },
  {
    "dt": "2022.06.28 11:00",
    "o": 1.68256,
    "h": 1.68318,
    "l": 1.67928,
    "c": 1.68046,
    "v": 4309
  },
  {
    "dt": "2022.06.28 12:00",
    "o": 1.68049,
    "h": 1.68358,
    "l": 1.68003,
    "c": 1.68254,
    "v": 3907
  },
  {
    "dt": "2022.06.28 13:00",
    "o": 1.68262,
    "h": 1.68498,
    "l": 1.68235,
    "c": 1.68394,
    "v": 3579
  },
  {
    "dt": "2022.06.28 14:00",
    "o": 1.68386,
    "h": 1.68582,
    "l": 1.68245,
    "c": 1.68389,
    "v": 3777
  },
  {
    "dt": "2022.06.28 15:00",
    "o": 1.6839,
    "h": 1.68413,
    "l": 1.68049,
    "c": 1.68083,
    "v": 4467
  },
  {
    "dt": "2022.06.28 16:00",
    "o": 1.68072,
    "h": 1.68085,
    "l": 1.6771,
    "c": 1.67917,
    "v": 4652
  },
  {
    "dt": "2022.06.28 17:00",
    "o": 1.67919,
    "h": 1.68225,
    "l": 1.67793,
    "c": 1.68158,
    "v": 4973
  },
  {
    "dt": "2022.06.28 18:00",
    "o": 1.68148,
    "h": 1.68468,
    "l": 1.67981,
    "c": 1.68425,
    "v": 4428
  },
  {
    "dt": "2022.06.28 19:00",
    "o": 1.68428,
    "h": 1.68492,
    "l": 1.68175,
    "c": 1.68212,
    "v": 4030
  },
  {
    "dt": "2022.06.28 20:00",
    "o": 1.68212,
    "h": 1.68413,
    "l": 1.68174,
    "c": 1.68358,
    "v": 3690
  },
  {
    "dt": "2022.06.28 21:00",
    "o": 1.68368,
    "h": 1.68681,
    "l": 1.68288,
    "c": 1.68533,
    "v": 2977
  },
  {
    "dt": "2022.06.28 22:00",
    "o": 1.68489,
    "h": 1.68664,
    "l": 1.68486,
    "c": 1.68565,
    "v": 2596
  },
  {
    "dt": "2022.06.28 23:00",
    "o": 1.68567,
    "h": 1.68664,
    "l": 1.6846,
    "c": 1.6846,
    "v": 1443
  },
  {
    "dt": "2022.06.29 00:00",
    "o": 1.68496,
    "h": 1.68667,
    "l": 1.68477,
    "c": 1.68616,
    "v": 286
  },
  {
    "dt": "2022.06.29 01:00",
    "o": 1.6861,
    "h": 1.68698,
    "l": 1.68547,
    "c": 1.68639,
    "v": 1284
  },
  {
    "dt": "2022.06.29 02:00",
    "o": 1.68639,
    "h": 1.68739,
    "l": 1.68576,
    "c": 1.6873,
    "v": 1924
  },
  {
    "dt": "2022.06.29 03:00",
    "o": 1.68725,
    "h": 1.68747,
    "l": 1.68433,
    "c": 1.68608,
    "v": 3465
  },
  {
    "dt": "2022.06.29 04:00",
    "o": 1.68603,
    "h": 1.68648,
    "l": 1.68299,
    "c": 1.68437,
    "v": 3695
  },
  {
    "dt": "2022.06.29 05:00",
    "o": 1.68433,
    "h": 1.68576,
    "l": 1.68349,
    "c": 1.68402,
    "v": 3384
  },
  {
    "dt": "2022.06.29 06:00",
    "o": 1.68408,
    "h": 1.68638,
    "l": 1.6834,
    "c": 1.68438,
    "v": 2926
  },
  {
    "dt": "2022.06.29 07:00",
    "o": 1.68438,
    "h": 1.68446,
    "l": 1.67809,
    "c": 1.67879,
    "v": 3281
  },
  {
    "dt": "2022.06.29 08:00",
    "o": 1.6788,
    "h": 1.68221,
    "l": 1.67878,
    "c": 1.68082,
    "v": 3620
  },
  {
    "dt": "2022.06.29 09:00",
    "o": 1.68088,
    "h": 1.6829,
    "l": 1.67939,
    "c": 1.68276,
    "v": 4679
  },
  {
    "dt": "2022.06.29 10:00",
    "o": 1.68282,
    "h": 1.68591,
    "l": 1.68228,
    "c": 1.68566,
    "v": 4966
  },
  {
    "dt": "2022.06.29 11:00",
    "o": 1.68568,
    "h": 1.68964,
    "l": 1.68325,
    "c": 1.68883,
    "v": 4562
  },
  {
    "dt": "2022.06.29 12:00",
    "o": 1.68893,
    "h": 1.69295,
    "l": 1.68885,
    "c": 1.69224,
    "v": 4427
  },
  {
    "dt": "2022.06.29 13:00",
    "o": 1.69221,
    "h": 1.69223,
    "l": 1.68809,
    "c": 1.6884,
    "v": 4311
  },
  {
    "dt": "2022.06.29 14:00",
    "o": 1.68828,
    "h": 1.69073,
    "l": 1.68709,
    "c": 1.68728,
    "v": 3979
  },
  {
    "dt": "2022.06.29 15:00",
    "o": 1.68718,
    "h": 1.68989,
    "l": 1.68637,
    "c": 1.68982,
    "v": 4615
  },
  {
    "dt": "2022.06.29 16:00",
    "o": 1.68978,
    "h": 1.68978,
    "l": 1.68681,
    "c": 1.68705,
    "v": 5575
  },
  {
    "dt": "2022.06.29 17:00",
    "o": 1.68719,
    "h": 1.68741,
    "l": 1.68225,
    "c": 1.68519,
    "v": 5632
  },
  {
    "dt": "2022.06.29 18:00",
    "o": 1.68522,
    "h": 1.68548,
    "l": 1.68287,
    "c": 1.68302,
    "v": 4534
  },
  {
    "dt": "2022.06.29 19:00",
    "o": 1.68305,
    "h": 1.6835,
    "l": 1.67979,
    "c": 1.68037,
    "v": 4181
  },
  {
    "dt": "2022.06.29 20:00",
    "o": 1.68036,
    "h": 1.68098,
    "l": 1.67801,
    "c": 1.6784,
    "v": 3639
  },
  {
    "dt": "2022.06.29 21:00",
    "o": 1.6784,
    "h": 1.68038,
    "l": 1.67788,
    "c": 1.68038,
    "v": 3024
  },
  {
    "dt": "2022.06.29 22:00",
    "o": 1.68038,
    "h": 1.68067,
    "l": 1.67798,
    "c": 1.67867,
    "v": 3174
  },
  {
    "dt": "2022.06.29 23:00",
    "o": 1.67865,
    "h": 1.67891,
    "l": 1.67761,
    "c": 1.67814,
    "v": 1488
  },
  {
    "dt": "2022.06.30 00:00",
    "o": 1.67936,
    "h": 1.67936,
    "l": 1.67701,
    "c": 1.67756,
    "v": 310
  },
  {
    "dt": "2022.06.30 01:00",
    "o": 1.67774,
    "h": 1.67843,
    "l": 1.67648,
    "c": 1.67692,
    "v": 1546
  },
  {
    "dt": "2022.06.30 02:00",
    "o": 1.67694,
    "h": 1.67845,
    "l": 1.67682,
    "c": 1.67841,
    "v": 2120
  },
  {
    "dt": "2022.06.30 03:00",
    "o": 1.67841,
    "h": 1.68115,
    "l": 1.67831,
    "c": 1.68038,
    "v": 3414
  },
  {
    "dt": "2022.06.30 04:00",
    "o": 1.68028,
    "h": 1.6835,
    "l": 1.67909,
    "c": 1.67974,
    "v": 4209
  },
  {
    "dt": "2022.06.30 05:00",
    "o": 1.67968,
    "h": 1.68061,
    "l": 1.67835,
    "c": 1.68049,
    "v": 3742
  },
  {
    "dt": "2022.06.30 06:00",
    "o": 1.68048,
    "h": 1.68108,
    "l": 1.67949,
    "c": 1.68054,
    "v": 2945
  },
  {
    "dt": "2022.06.30 07:00",
    "o": 1.68056,
    "h": 1.68158,
    "l": 1.67998,
    "c": 1.68004,
    "v": 1948
  },
  {
    "dt": "2022.06.30 08:00",
    "o": 1.68019,
    "h": 1.68457,
    "l": 1.68011,
    "c": 1.68255,
    "v": 3408
  },
  {
    "dt": "2022.06.30 09:00",
    "o": 1.68241,
    "h": 1.68449,
    "l": 1.67984,
    "c": 1.68016,
    "v": 4685
  },
  {
    "dt": "2022.06.30 10:00",
    "o": 1.68019,
    "h": 1.68043,
    "l": 1.67688,
    "c": 1.67831,
    "v": 5458
  },
  {
    "dt": "2022.06.30 11:00",
    "o": 1.67839,
    "h": 1.67864,
    "l": 1.67445,
    "c": 1.6752,
    "v": 4792
  },
  {
    "dt": "2022.06.30 12:00",
    "o": 1.67506,
    "h": 1.67542,
    "l": 1.67348,
    "c": 1.67413,
    "v": 4141
  },
  {
    "dt": "2022.06.30 13:00",
    "o": 1.67414,
    "h": 1.67618,
    "l": 1.67329,
    "c": 1.67361,
    "v": 3917
  },
  {
    "dt": "2022.06.30 14:00",
    "o": 1.67362,
    "h": 1.67422,
    "l": 1.67118,
    "c": 1.67139,
    "v": 4449
  },
  {
    "dt": "2022.06.30 15:00",
    "o": 1.67139,
    "h": 1.67174,
    "l": 1.66838,
    "c": 1.67002,
    "v": 4720
  },
  {
    "dt": "2022.06.30 16:00",
    "o": 1.66997,
    "h": 1.66998,
    "l": 1.66638,
    "c": 1.66891,
    "v": 5077
  },
  {
    "dt": "2022.06.30 17:00",
    "o": 1.6689,
    "h": 1.68169,
    "l": 1.66846,
    "c": 1.68068,
    "v": 5095
  },
  {
    "dt": "2022.06.30 18:00",
    "o": 1.68066,
    "h": 1.68211,
    "l": 1.67561,
    "c": 1.67616,
    "v": 4716
  },
  {
    "dt": "2022.06.30 19:00",
    "o": 1.67613,
    "h": 1.67706,
    "l": 1.67546,
    "c": 1.67664,
    "v": 4345
  },
  {
    "dt": "2022.06.30 20:00",
    "o": 1.67659,
    "h": 1.67818,
    "l": 1.6765,
    "c": 1.67709,
    "v": 3969
  },
  {
    "dt": "2022.06.30 21:00",
    "o": 1.67689,
    "h": 1.67828,
    "l": 1.67684,
    "c": 1.67742,
    "v": 4015
  },
  {
    "dt": "2022.06.30 22:00",
    "o": 1.67738,
    "h": 1.67838,
    "l": 1.67599,
    "c": 1.67738,
    "v": 3863
  },
  {
    "dt": "2022.06.30 23:00",
    "o": 1.67738,
    "h": 1.67931,
    "l": 1.67728,
    "c": 1.67878,
    "v": 1711
  }
]