[
  {
    "dt": "2022.07.01 00:00",
    "o": 1.67941,
    "h": 1.67956,
    "l": 1.67753,
    "c": 1.67869,
    "v": 567
  },
  {
    "dt": "2022.07.01 01:00",
    "o": 1.67868,
    "h": 1.68068,
    "l": 1.67825,
    "c": 1.67982,
    "v": 1823
  },
  {
    "dt": "2022.07.01 02:00",
    "o": 1.67985,
    "h": 1.6803,
    "l": 1.67781,
    "c": 1.67933,
    "v": 2027
  },
  {
    "dt": "2022.07.01 03:00",
    "o": 1.67943,
    "h": 1.68035,
    "l": 1.67696,
    "c": 1.68028,
    "v": 3641
  },
  {
    "dt": "2022.07.01 04:00",
    "o": 1.6802,
    "h": 1.68111,
    "l": 1.67911,
    "c": 1.68004,
    "v": 3962
  },
  {
    "dt": "2022.07.01 05:00",
    "o": 1.68006,
    "h": 1.68369,
    "l": 1.67993,
    "c": 1.68308,
    "v": 3839
  },
  {
    "dt": "2022.07.01 06:00",
    "o": 1.68308,
    "h": 1.69128,
    "l": 1.68294,
    "c": 1.69038,
    "v": 3920
  },
  {
    "dt": "2022.07.01 07:00",
    "o": 1.6904,
    "h": 1.69329,
    "l": 1.69001,
    "c": 1.6926,
    "v": 3948
  },
  {
    "dt": "2022.07.01 08:00",
    "o": 1.6928,
    "h": 1.69384,
    "l": 1.69058,
    "c": 1.69115,
    "v": 4070
  },
  {
    "dt": "2022.07.01 09:00",
    "o": 1.69115,
    "h": 1.69219,
    "l": 1.68692,
    "c": 1.6903,
    "v": 4425
  },
  {
    "dt": "2022.07.01 10:00",
    "o": 1.69027,
    "h": 1.69328,
    "l": 1.6874,
    "c": 1.69247,
    "v": 5057
  },
  {
    "dt": "2022.07.01 11:00",
    "o": 1.69258,
    "h": 1.69415,
    "l": 1.69112,
    "c": 1.69257,
    "v": 4501
  },
  {
    "dt": "2022.07.01 12:00",
    "o": 1.69257,
    "h": 1.69423,
    "l": 1.69102,
    "c": 1.69312,
    "v": 4367
  },
  {
    "dt": "2022.07.01 13:00",
    "o": 1.69318,
    "h": 1.69656,
    "l": 1.69272,
    "c": 1.69491,
    "v": 4181
  },
  {
    "dt": "2022.07.01 14:00",
    "o": 1.69491,
    "h": 1.69543,
    "l": 1.69216,
    "c": 1.69336,
    "v": 4637
  },
  {
    "dt": "2022.07.01 15:00",
    "o": 1.69336,
    "h": 1.69379,
    "l": 1.69102,
    "c": 1.69108,
    "v": 4848
  },
  {
    "dt": "2022.07.01 16:00",
    "o": 1.69108,
    "h": 1.69188,
    "l": 1.68373,
    "c": 1.68419,
    "v": 5090
  },
  {
    "dt": "2022.07.01 17:00",
    "o": 1.68447,
    "h": 1.68542,
    "l": 1.67798,
    "c": 1.68308,
    "v": 5503
  },
  {
    "dt": "2022.07.01 18:00",
    "o": 1.68312,
    "h": 1.68398,
    "l": 1.68093,
    "c": 1.68208,
    "v": 4723
  },
  {
    "dt": "2022.07.01 19:00",
    "o": 1.68211,
    "h": 1.68276,
    "l": 1.67983,
    "c": 1.68113,
    "v": 4091
  },
  {
    "dt": "2022.07.01 20:00",
    "o": 1.68112,
    "h": 1.68115,
    "l": 1.67718,
    "c": 1.67817,
    "v": 3702
  },
  {
    "dt": "2022.07.01 21:00",
    "o": 1.67816,
    "h": 1.67865,
    "l": 1.67606,
    "c": 1.67783,
    "v": 2758
  },
  {
    "dt": "2022.07.01 22:00",
    "o": 1.67778,
    "h": 1.67976,
    "l": 1.67727,
    "c": 1.67925,
    "v": 2603
  },
  {
    "dt": "2022.07.01 23:00",
    "o": 1.67921,
    "h": 1.68096,
    "l": 1.67891,
    "c": 1.67924,
    "v": 1038
  },
  {
    "dt": "2022.07.04 00:00",
    "o": 1.68179,
    "h": 1.68306,
    "l": 1.6791,
    "c": 1.67944,
    "v": 355
  },
  {
    "dt": "2022.07.04 01:00",
    "o": 1.68007,
    "h": 1.68148,
    "l": 1.67768,
    "c": 1.67893,
    "v": 1439
  },
  {
    "dt": "2022.07.04 02:00",
    "o": 1.67901,
    "h": 1.68066,
    "l": 1.67858,
    "c": 1.68063,
    "v": 2534
  },
  {
    "dt": "2022.07.04 03:00",
    "o": 1.68063,
    "h": 1.68216,
    "l": 1.67801,
    "c": 1.67898,
    "v": 3849
  },
  {
    "dt": "2022.07.04 04:00",
    "o": 1.67898,
    "h": 1.68333,
    "l": 1.67869,
    "c": 1.68055,
    "v": 4533
  },
  {
    "dt": "2022.07.04 05:00",
    "o": 1.68048,
    "h": 1.68183,
    "l": 1.67976,
    "c": 1.68068,
    "v": 4276
  },
  {
    "dt": "2022.07.04 06:00",
    "o": 1.68068,
    "h": 1.68139,
    "l": 1.67956,
    "c": 1.68105,
    "v": 3446
  },
  {
    "dt": "2022.07.04 07:00",
    "o": 1.68105,
    "h": 1.68136,
    "l": 1.67946,
    "c": 1.67982,
    "v": 2397
  },
  {
    "dt": "2022.07.04 08:00",
    "o": 1.67983,
    "h": 1.67983,
    "l": 1.67596,
    "c": 1.67633,
    "v": 3343
  },
  {
    "dt": "2022.07.04 09:00",
    "o": 1.6763,
    "h": 1.67698,
    "l": 1.67251,
    "c": 1.67251,
    "v": 4075
  },
  {
    "dt": "2022.07.04 10:00",
    "o": 1.67245,
    "h": 1.67389,
    "l": 1.6711,
    "c": 1.67239,
    "v": 4639
  },
  {
    "dt": "2022.07.04 11:00",
    "o": 1.67245,
    "h": 1.67525,
    "l": 1.67098,
    "c": 1.67511,
    "v": 3964
  },
  {
    "dt": "2022.07.04 12:00",
    "o": 1.67519,
    "h": 1.6763,
    "l": 1.67077,
    "c": 1.67164,
    "v": 4229
  },
  {
    "dt": "2022.07.04 13:00",
    "o": 1.67163,
    "h": 1.67346,
    "l": 1.67087,
    "c": 1.67228,
    "v": 3581
  },
  {
    "dt": "2022.07.04 14:00",
    "o": 1.67229,
    "h": 1.67478,
    "l": 1.67198,
    "c": 1.674,
    "v": 3588
  },
  {
    "dt": "2022.07.04 15:00",
    "o": 1.67398,
    "h": 1.67529,
    "l": 1.6736,
    "c": 1.67479,
    "v": 3872
  },
  {
    "dt": "2022.07.04 16:00",
    "o": 1.67481,
    "h": 1.679,
    "l": 1.6745,
    "c": 1.67882,
    "v": 3605
  },
  {
    "dt": "2022.07.04 17:00",
    "o": 1.67877,
    "h": 1.68013,
    "l": 1.67768,
    "c": 1.67831,
    "v": 3812
  },
  {
    "dt": "2022.07.04 18:00",
    "o": 1.67823,
    "h": 1.68068,
    "l": 1.67678,
    "c": 1.67726,
    "v": 3859
  },
  {
    "dt": "2022.07.04 19:00",
    "o": 1.67725,
    "h": 1.67804,
    "l": 1.67619,
    "c": 1.67679,
    "v": 3213
  },
  {
    "dt": "2022.07.04 20:00",
    "o": 1.6768,
    "h": 1.67879,
    "l": 1.67676,
    "c": 1.67862,
    "v": 1654
  },
  {
    "dt": "2022.07.04 21:00",
    "o": 1.67862,
    "h": 1.67974,
    "l": 1.67856,
    "c": 1.67921,
    "v": 1273
  },
  {
    "dt": "2022.07.04 22:00",
    "o": 1.67885,
    "h": 1.6803,
    "l": 1.67885,
    "c": 1.67919,
    "v": 1057
  },
  {
    "dt": "2022.07.04 23:00",
    "o": 1.67912,
    "h": 1.67948,
    "l": 1.67729,
    "c": 1.6785,
    "v": 814
  },
  {
    "dt": "2022.07.05 00:00",
    "o": 1.67731,
    "h": 1.67972,
    "l": 1.67721,
    "c": 1.67747,
    "v": 366
  },
  {
    "dt": "2022.07.05 01:00",
    "o": 1.67792,
    "h": 1.68032,
    "l": 1.67729,
    "c": 1.67879,
    "v": 1473
  },
  {
    "dt": "2022.07.05 02:00",
    "o": 1.67882,
    "h": 1.67952,
    "l": 1.67745,
    "c": 1.67871,
    "v": 2388
  },
  {
    "dt": "2022.07.05 03:00",
    "o": 1.67882,
    "h": 1.67943,
    "l": 1.67553,
    "c": 1.67678,
    "v": 3716
  },
  {
    "dt": "2022.07.05 04:00",
    "o": 1.6768,
    "h": 1.6779,
    "l": 1.67515,
    "c": 1.67633,
    "v": 4140
  },
  {
    "dt": "2022.07.05 05:00",
    "o": 1.67629,
    "h": 1.67925,
    "l": 1.676,
    "c": 1.67868,
    "v": 3998
  },
  {
    "dt": "2022.07.05 06:00",
    "o": 1.67868,
    "h": 1.68071,
    "l": 1.67724,
    "c": 1.6801,
    "v": 3436
  },
  {
    "dt": "2022.07.05 07:00",
    "o": 1.68018,
    "h": 1.68272,
    "l": 1.67857,
    "c": 1.67919,
    "v": 3469
  },
  {
    "dt": "2022.07.05 08:00",
    "o": 1.67937,
    "h": 1.6799,
    "l": 1.67766,
    "c": 1.67792,
    "v": 3550
  },
  {
    "dt": "2022.07.05 09:00",
    "o": 1.67795,
    "h": 1.68058,
    "l": 1.67774,
    "c": 1.6805,
    "v": 4117
  },
  {
    "dt": "2022.07.05 10:00",
    "o": 1.68053,
    "h": 1.68301,
    "l": 1.6766,
    "c": 1.67763,
    "v": 5435
  },
  {
    "dt": "2022.07.05 11:00",
    "o": 1.67767,
    "h": 1.67898,
    "l": 1.67282,
    "c": 1.67342,
    "v": 5567
  },
  {
    "dt": "2022.07.05 12:00",
    "o": 1.67341,
    "h": 1.6745,
    "l": 1.67064,
    "c": 1.67192,
    "v": 5109
  },
  {
    "dt": "2022.07.05 13:00",
    "o": 1.67192,
    "h": 1.67405,
    "l": 1.671,
    "c": 1.67298,
    "v": 4497
  },
  {
    "dt": "2022.07.05 14:00",
    "o": 1.67296,
    "h": 1.67791,
    "l": 1.67232,
    "c": 1.67607,
    "v": 4480
  },
  {
    "dt": "2022.07.05 15:00",
    "o": 1.67606,
    "h": 1.67753,
    "l": 1.6736,
    "c": 1.6745,
    "v": 5527
  },
  {
    "dt": "2022.07.05 16:00",
    "o": 1.6746,
    "h": 1.67588,
    "l": 1.6708,
    "c": 1.6737,
    "v": 5648
  },
  {
    "dt": "2022.07.05 17:00",
    "o": 1.67416,
    "h": 1.67486,
    "l": 1.6681,
    "c": 1.66854,
    "v": 5933
  },
  {
    "dt": "2022.07.05 18:00",
    "o": 1.66862,
    "h": 1.67081,
    "l": 1.66699,
    "c": 1.66939,
    "v": 5176
  },
  {
    "dt": "2022.07.05 19:00",
    "o": 1.66943,
    "h": 1.67066,
    "l": 1.66693,
    "c": 1.66902,
    "v": 4343
  },
  {
    "dt": "2022.07.05 20:00",
    "o": 1.66902,
    "h": 1.66978,
    "l": 1.66772,
    "c": 1.66773,
    "v": 4005
  },
  {
    "dt": "2022.07.05 21:00",
    "o": 1.66768,
    "h": 1.66848,
    "l": 1.66381,
    "c": 1.66432,
    "v": 4145
  },
  {
    "dt": "2022.07.05 22:00",
    "o": 1.66422,
    "h": 1.6656,
    "l": 1.66336,
    "c": 1.66371,
    "v": 3937
  },
  {
    "dt": "2022.07.05 23:00",
    "o": 1.66359,
    "h": 1.66462,
    "l": 1.66268,
    "c": 1.66322,
    "v": 1882
  },
  {
    "dt": "2022.07.06 00:00",
    "o": 1.66326,
    "h": 1.66439,
    "l": 1.66276,
    "c": 1.66318,
    "v": 299
  },
  {
    "dt": "2022.07.06 01:00",
    "o": 1.66344,
    "h": 1.66461,
    "l": 1.66293,
    "c": 1.66385,
    "v": 1393
  },
  {
    "dt": "2022.07.06 02:00",
    "o": 1.66385,
    "h": 1.66486,
    "l": 1.66311,
    "c": 1.66331,
    "v": 2354
  },
  {
    "dt": "2022.07.06 03:00",
    "o": 1.66333,
    "h": 1.66458,
    "l": 1.66219,
    "c": 1.66267,
    "v": 4116
  },
  {
    "dt": "2022.07.06 04:00",
    "o": 1.66268,
    "h": 1.66289,
    "l": 1.66083,
    "c": 1.662,
    "v": 4607
  },
  {
    "dt": "2022.07.06 05:00",
    "o": 1.66196,
    "h": 1.66378,
    "l": 1.66062,
    "c": 1.66291,
    "v": 4063
  },
  {
    "dt": "2022.07.06 06:00",
    "o": 1.66288,
    "h": 1.66494,
    "l": 1.6628,
    "c": 1.66428,
    "v": 3610
  },
  {
    "dt": "2022.07.06 07:00",
    "o": 1.66425,
    "h": 1.6653,
    "l": 1.66288,
    "c": 1.66382,
    "v": 3476
  },
  {
    "dt": "2022.07.06 08:00",
    "o": 1.66379,
    "h": 1.666,
    "l": 1.66371,
    "c": 1.66519,
    "v": 3932
  },
  {
    "dt": "2022.07.06 09:00",
    "o": 1.66516,
    "h": 1.6662,
    "l": 1.66273,
    "c": 1.66292,
    "v": 5251
  },
  {
    "dt": "2022.07.06 10:00",
    "o": 1.66288,
    "h": 1.66388,
    "l": 1.65837,
    "c": 1.65997,
    "v": 5504
  },
  {
    "dt": "2022.07.06 11:00",
    "o": 1.65995,
    "h": 1.66093,
    "l": 1.65825,
    "c": 1.65858,
    "v": 5287
  },
  {
    "dt": "2022.07.06 12:00",
    "o": 1.65858,
    "h": 1.65948,
    "l": 1.65673,
    "c": 1.65783,
    "v": 5015
  },
  {
    "dt": "2022.07.06 13:00",
    "o": 1.65788,
    "h": 1.65828,
    "l": 1.65185,
    "c": 1.65222,
    "v": 4611
  },
  {
    "dt": "2022.07.06 14:00",
    "o": 1.65228,
    "h": 1.65448,
    "l": 1.65168,
    "c": 1.65227,
    "v": 4923
  },
  {
    "dt": "2022.07.06 15:00",
    "o": 1.65221,
    "h": 1.65228,
    "l": 1.64598,
    "c": 1.64843,
    "v": 5436
  },
  {
    "dt": "2022.07.06 16:00",
    "o": 1.64849,
    "h": 1.65086,
    "l": 1.64671,
    "c": 1.64977,
    "v": 5687
  },
  {
    "dt": "2022.07.06 17:00",
    "o": 1.64977,
    "h": 1.66068,
    "l": 1.64938,
    "c": 1.65961,
    "v": 6230
  },
  {
    "dt": "2022.07.06 18:00",
    "o": 1.65964,
    "h": 1.66101,
    "l": 1.65589,
    "c": 1.65622,
    "v": 5400
  },
  {
    "dt": "2022.07.06 19:00",
    "o": 1.65628,
    "h": 1.6587,
    "l": 1.65627,
    "c": 1.65724,
    "v": 4323
  },
  {
    "dt": "2022.07.06 20:00",
    "o": 1.65723,
    "h": 1.6574,
    "l": 1.65597,
    "c": 1.65628,
    "v": 3844
  },
  {
    "dt": "2022.07.06 21:00",
    "o": 1.65618,
    "h": 1.65786,
    "l": 1.65369,
    "c": 1.65488,
    "v": 5602
  },
  {
    "dt": "2022.07.06 22:00",
    "o": 1.65485,
    "h": 1.65663,
    "l": 1.65426,
    "c": 1.65634,
    "v": 4169
  },
  {
    "dt": "2022.07.06 23:00",
    "o": 1.65634,
    "h": 1.65688,
    "l": 1.65565,
    "c": 1.6558,
    "v": 1923
  },
  {
    "dt": "2022.07.07 00:00",
    "o": 1.65626,
    "h": 1.65666,
    "l": 1.65474,
    "c": 1.65564,
    "v": 564
  },
  {
    "dt": "2022.07.07 01:00",
    "o": 1.65541,
    "h": 1.65648,
    "l": 1.65509,
    "c": 1.65539,
    "v": 847
  },
  {
    "dt": "2022.07.07 02:00",
    "o": 1.6553,
    "h": 1.65638,
    "l": 1.65479,
    "c": 1.65608,
    "v": 2246
  },
  {
    "dt": "2022.07.07 03:00",
    "o": 1.65618,
    "h": 1.65737,
    "l": 1.65451,
    "c": 1.6554,
    "v": 3948
  },
  {
    "dt": "2022.07.07 04:00",
    "o": 1.65542,
    "h": 1.65594,
    "l": 1.65364,
    "c": 1.65388,
    "v": 4511
  },
  {
    "dt": "2022.07.07 05:00",
    "o": 1.65384,
    "h": 1.65384,
    "l": 1.65057,
    "c": 1.65165,
    "v": 4268
  },
  {
    "dt": "2022.07.07 06:00",
    "o": 1.65164,
    "h": 1.65201,
    "l": 1.65026,
    "c": 1.65099,
    "v": 3495
  },
  {
    "dt": "2022.07.07 07:00",
    "o": 1.65101,
    "h": 1.65101,
    "l": 1.6491,
    "c": 1.64968,
    "v": 2444
  },
  {
    "dt": "2022.07.07 08:00",
    "o": 1.64984,
    "h": 1.65248,
    "l": 1.64858,
    "c": 1.65198,
    "v": 3526
  },
  {
    "dt": "2022.07.07 09:00",
    "o": 1.6517,
    "h": 1.65486,
    "l": 1.65038,
    "c": 1.65208,
    "v": 4398
  },
  {
    "dt": "2022.07.07 10:00",
    "o": 1.65214,
    "h": 1.65279,
    "l": 1.64882,
    "c": 1.65052,
    "v": 5124
  },
  {
    "dt": "2022.07.07 11:00",
    "o": 1.65048,
    "h": 1.6519,
    "l": 1.64938,
    "c": 1.64938,
    "v": 4922
  },
  {
    "dt": "2022.07.07 12:00",
    "o": 1.64937,
    "h": 1.65111,
    "l": 1.64829,
    "c": 1.6504,
    "v": 4997
  },
  {
    "dt": "2022.07.07 13:00",
    "o": 1.6504,
    "h": 1.65131,
    "l": 1.64776,
    "c": 1.64838,
    "v": 4414
  },
  {
    "dt": "2022.07.07 14:00",
    "o": 1.64838,
    "h": 1.64988,
    "l": 1.64711,
    "c": 1.64786,
    "v": 4582
  },
  {
    "dt": "2022.07.07 15:00",
    "o": 1.6478,
    "h": 1.6504,
    "l": 1.64558,
    "c": 1.64859,
    "v": 4809
  },
  {
    "dt": "2022.07.07 16:00",
    "o": 1.64876,
    "h": 1.65003,
    "l": 1.64766,
    "c": 1.64825,
    "v": 5247
  },
  {
    "dt": "2022.07.07 17:00",
    "o": 1.64826,
    "h": 1.6493,
    "l": 1.64477,
    "c": 1.64658,
    "v": 5306
  },
  {
    "dt": "2022.07.07 18:00",
    "o": 1.6465,
    "h": 1.64744,
    "l": 1.64503,
    "c": 1.64628,
    "v": 4509
  },
  {
    "dt": "2022.07.07 19:00",
    "o": 1.64628,
    "h": 1.64645,
    "l": 1.64291,
    "c": 1.64498,
    "v": 3273
  },
  {
    "dt": "2022.07.07 20:00",
    "o": 1.645,
    "h": 1.64508,
    "l": 1.64357,
    "c": 1.64438,
    "v": 2921
  },
  {
    "dt": "2022.07.07 21:00",
    "o": 1.64433,
    "h": 1.64544,
    "l": 1.6438,
    "c": 1.64391,
    "v": 3148
  },
  {
    "dt": "2022.07.07 22:00",
    "o": 1.64358,
    "h": 1.64568,
    "l": 1.64335,
    "c": 1.64568,
    "v": 2629
  },
  {
    "dt": "2022.07.07 23:00",
    "o": 1.64558,
    "h": 1.64584,
    "l": 1.64398,
    "c": 1.64427,
    "v": 1581
  },
  {
    "dt": "2022.07.08 00:00",
    "o": 1.6491,
    "h": 1.6491,
    "l": 1.64454,
    "c": 1.64477,
    "v": 443
  },
  {
    "dt": "2022.07.08 01:00",
    "o": 1.6448,
    "h": 1.64666,
    "l": 1.64423,
    "c": 1.64634,
    "v": 1254
  },
  {
    "dt": "2022.07.08 02:00",
    "o": 1.64641,
    "h": 1.64704,
    "l": 1.64509,
    "c": 1.64575,
    "v": 2514
  },
  {
    "dt": "2022.07.08 03:00",
    "o": 1.64569,
    "h": 1.64733,
    "l": 1.64482,
    "c": 1.64503,
    "v": 3815
  },
  {
    "dt": "2022.07.08 04:00",
    "o": 1.64502,
    "h": 1.64628,
    "l": 1.64485,
    "c": 1.64548,
    "v": 3892
  },
  {
    "dt": "2022.07.08 05:00",
    "o": 1.64548,
    "h": 1.64661,
    "l": 1.64479,
    "c": 1.64604,
    "v": 3872
  },
  {
    "dt": "2022.07.08 06:00",
    "o": 1.64606,
    "h": 1.64732,
    "l": 1.64474,
    "c": 1.64618,
    "v": 4548
  },
  {
    "dt": "2022.07.08 07:00",
    "o": 1.64618,
    "h": 1.64638,
    "l": 1.64436,
    "c": 1.64529,
    "v": 3212
  },
  {
    "dt": "2022.07.08 08:00",
    "o": 1.64533,
    "h": 1.64679,
    "l": 1.64456,
    "c": 1.64649,
    "v": 3725
  },
  {
    "dt": "2022.07.08 09:00",
    "o": 1.64648,
    "h": 1.6482,
    "l": 1.64549,
    "c": 1.64682,
    "v": 3967
  },
  {
    "dt": "2022.07.08 10:00",
    "o": 1.64684,
    "h": 1.64761,
    "l": 1.63952,
    "c": 1.64172,
    "v": 5460
  },
  {
    "dt": "2022.07.08 11:00",
    "o": 1.64188,
    "h": 1.64339,
    "l": 1.64008,
    "c": 1.64336,
    "v": 4895
  },
  {
    "dt": "2022.07.08 12:00",
    "o": 1.6433,
    "h": 1.64405,
    "l": 1.64123,
    "c": 1.64303,
    "v": 4286
  },
  {
    "dt": "2022.07.08 13:00",
    "o": 1.64303,
    "h": 1.64496,
    "l": 1.64264,
    "c": 1.644,
    "v": 4313
  },
  {
    "dt": "2022.07.08 14:00",
    "o": 1.64399,
    "h": 1.64608,
    "l": 1.64316,
    "c": 1.64493,
    "v": 3983
  },
  {
    "dt": "2022.07.08 15:00",
    "o": 1.64493,
    "h": 1.65108,
    "l": 1.64453,
    "c": 1.6508,
    "v": 5504
  },
  {
    "dt": "2022.07.08 16:00",
    "o": 1.65074,
    "h": 1.651,
    "l": 1.64393,
    "c": 1.64436,
    "v": 6136
  },
  {
    "dt": "2022.07.08 17:00",
    "o": 1.64428,
    "h": 1.64618,
    "l": 1.63964,
    "c": 1.6415,
    "v": 5817
  },
  {
    "dt": "2022.07.08 18:00",
    "o": 1.6414,
    "h": 1.64325,
    "l": 1.64068,
    "c": 1.64247,
    "v": 4735
  },
  {
    "dt": "2022.07.08 19:00",
    "o": 1.64245,
    "h": 1.64629,
    "l": 1.64234,
    "c": 1.64596,
    "v": 3990
  },
  {
    "dt": "2022.07.08 20:00",
    "o": 1.64601,
    "h": 1.64662,
    "l": 1.64399,
    "c": 1.64428,
    "v": 2921
  },
  {
    "dt": "2022.07.08 21:00",
    "o": 1.64423,
    "h": 1.64523,
    "l": 1.64354,
    "c": 1.64517,
    "v": 3161
  },
  {
    "dt": "2022.07.08 22:00",
    "o": 1.64519,
    "h": 1.64591,
    "l": 1.64467,
    "c": 1.64555,
    "v": 2695
  },
  {
    "dt": "2022.07.08 23:00",
    "o": 1.64553,
    "h": 1.64621,
    "l": 1.64382,
    "c": 1.64414,
    "v": 1464
  },
  {
    "dt": "2022.07.11 00:00",
    "o": 1.64769,
    "h": 1.64772,
    "l": 1.64506,
    "c": 1.64508,
    "v": 635
  },
  {
    "dt": "2022.07.11 01:00",
    "o": 1.64388,
    "h": 1.64601,
    "l": 1.64355,
    "c": 1.64484,
    "v": 1505
  },
  {
    "dt": "2022.07.11 02:00",
    "o": 1.64471,
    "h": 1.64471,
    "l": 1.64246,
    "c": 1.64374,
    "v": 2751
  },
  {
    "dt": "2022.07.11 03:00",
    "o": 1.64379,
    "h": 1.64433,
    "l": 1.64325,
    "c": 1.64362,
    "v": 3727
  },
  {
    "dt": "2022.07.11 04:00",
    "o": 1.64358,
    "h": 1.64436,
    "l": 1.64239,
    "c": 1.6434,
    "v": 4561
  },
  {
    "dt": "2022.07.11 05:00",
    "o": 1.64343,
    "h": 1.64464,
    "l": 1.64305,
    "c": 1.64436,
    "v": 3727
  },
  {
    "dt": "2022.07.11 06:00",
    "o": 1.64444,
    "h": 1.64517,
    "l": 1.64336,
    "c": 1.64438,
    "v": 3135
  },
  {
    "dt": "2022.07.11 07:00",
    "o": 1.64432,
    "h": 1.64529,
    "l": 1.64389,
    "c": 1.64471,
    "v": 2506
  },
  {
    "dt": "2022.07.11 08:00",
    "o": 1.64471,
    "h": 1.64576,
    "l": 1.64391,
    "c": 1.6441,
    "v": 3198
  },
  {
    "dt": "2022.07.11 09:00",
    "o": 1.64416,
    "h": 1.64466,
    "l": 1.64258,
    "c": 1.64348,
    "v": 4186
  },
  {
    "dt": "2022.07.11 10:00",
    "o": 1.64341,
    "h": 1.64424,
    "l": 1.63983,
    "c": 1.64044,
    "v": 4742
  },
  {
    "dt": "2022.07.11 11:00",
    "o": 1.64055,
    "h": 1.64194,
    "l": 1.6395,
    "c": 1.64084,
    "v": 4687
  },
  {
    "dt": "2022.07.11 12:00",
    "o": 1.64085,
    "h": 1.64393,
    "l": 1.64085,
    "c": 1.64387,
    "v": 3866
  },
  {
    "dt": "2022.07.11 13:00",
    "o": 1.64386,
    "h": 1.64456,
    "l": 1.64271,
    "c": 1.64429,
    "v": 3703
  },
  {
    "dt": "2022.07.11 14:00",
    "o": 1.64433,
    "h": 1.64608,
    "l": 1.64333,
    "c": 1.64593,
    "v": 3859
  },
  {
    "dt": "2022.07.11 15:00",
    "o": 1.64589,
    "h": 1.64919,
    "l": 1.64563,
    "c": 1.64913,
    "v": 4861
  },
  {
    "dt": "2022.07.11 16:00",
    "o": 1.64908,
    "h": 1.64938,
    "l": 1.64661,
    "c": 1.64774,
    "v": 5551
  },
  {
    "dt": "2022.07.11 17:00",
    "o": 1.64773,
    "h": 1.64939,
    "l": 1.64458,
    "c": 1.6459,
    "v": 5470
  },
  {
    "dt": "2022.07.11 18:00",
    "o": 1.64586,
    "h": 1.6476,
    "l": 1.64274,
    "c": 1.64369,
    "v": 5200
  },
  {
    "dt": "2022.07.11 19:00",
    "o": 1.6437,
    "h": 1.64608,
    "l": 1.64366,
    "c": 1.6441,
    "v": 4514
  },
  {
    "dt": "2022.07.11 20:00",
    "o": 1.64412,
    "h": 1.6443,
    "l": 1.64257,
    "c": 1.64302,
    "v": 3887
  },
  {
    "dt": "2022.07.11 21:00",
    "o": 1.64302,
    "h": 1.64409,
    "l": 1.64273,
    "c": 1.64394,
    "v": 4038
  },
  {
    "dt": "2022.07.11 22:00",
    "o": 1.64395,
    "h": 1.64466,
    "l": 1.64214,
    "c": 1.64295,
    "v": 3294
  },
  {
    "dt": "2022.07.11 23:00",
    "o": 1.64295,
    "h": 1.64357,
    "l": 1.64149,
    "c": 1.64206,
    "v": 1930
  },
  {
    "dt": "2022.07.12 00:00",
    "o": 1.64301,
    "h": 1.64366,
    "l": 1.64182,
    "c": 1.64232,
    "v": 402
  },
  {
    "dt": "2022.07.12 01:00",
    "o": 1.64242,
    "h": 1.64318,
    "l": 1.64219,
    "c": 1.64228,
    "v": 1093
  },
  {
    "dt": "2022.07.12 02:00",
    "o": 1.64228,
    "h": 1.64264,
    "l": 1.64089,
    "c": 1.64157,
    "v": 2284
  },
  {
    "dt": "2022.07.12 03:00",
    "o": 1.64157,
    "h": 1.64293,
    "l": 1.64029,
    "c": 1.64157,
    "v": 3884
  },
  {
    "dt": "2022.07.12 04:00",
    "o": 1.64158,
    "h": 1.64236,
    "l": 1.63769,
    "c": 1.63883,
    "v": 4980
  },
  {
    "dt": "2022.07.12 05:00",
    "o": 1.63881,
    "h": 1.64009,
    "l": 1.63814,
    "c": 1.63847,
    "v": 4505
  },
  {
    "dt": "2022.07.12 06:00",
    "o": 1.63844,
    "h": 1.64028,
    "l": 1.63842,
    "c": 1.63916,
    "v": 3832
  },
  {
    "dt": "2022.07.12 07:00",
    "o": 1.63919,
    "h": 1.64067,
    "l": 1.63898,
    "c": 1.64004,
    "v": 2998
  },
  {
    "dt": "2022.07.12 08:00",
    "o": 1.64002,
    "h": 1.64051,
    "l": 1.639,
    "c": 1.64007,
    "v": 4082
  },
  {
    "dt": "2022.07.12 09:00",
    "o": 1.6401,
    "h": 1.64188,
    "l": 1.63862,
    "c": 1.63877,
    "v": 4820
  },
  {
    "dt": "2022.07.12 10:00",
    "o": 1.63867,
    "h": 1.63967,
    "l": 1.63738,
    "c": 1.63824,
    "v": 5167
  },
  {
    "dt": "2022.07.12 11:00",
    "o": 1.63822,
    "h": 1.64029,
    "l": 1.6375,
    "c": 1.6398,
    "v": 4682
  },
  {
    "dt": "2022.07.12 12:00",
    "o": 1.63978,
    "h": 1.64013,
    "l": 1.63755,
    "c": 1.6376,
    "v": 4495
  },
  {
    "dt": "2022.07.12 13:00",
    "o": 1.63757,
    "h": 1.63951,
    "l": 1.63682,
    "c": 1.63898,
    "v": 4150
  },
  {
    "dt": "2022.07.12 14:00",
    "o": 1.639,
    "h": 1.64377,
    "l": 1.63868,
    "c": 1.64073,
    "v": 4772
  },
  {
    "dt": "2022.07.12 15:00",
    "o": 1.64075,
    "h": 1.6408,
    "l": 1.63833,
    "c": 1.63938,
    "v": 4576
  },
  {
    "dt": "2022.07.12 16:00",
    "o": 1.63936,
    "h": 1.64063,
    "l": 1.63709,
    "c": 1.63829,
    "v": 5287
  },
  {
    "dt": "2022.07.12 17:00",
    "o": 1.63828,
    "h": 1.64138,
    "l": 1.63748,
    "c": 1.63815,
    "v": 5267
  },
  {
    "dt": "2022.07.12 18:00",
    "o": 1.63814,
    "h": 1.64015,
    "l": 1.63716,
    "c": 1.63954,
    "v": 4519
  },
  {
    "dt": "2022.07.12 19:00",
    "o": 1.63955,
    "h": 1.64033,
    "l": 1.63816,
    "c": 1.63842,
    "v": 3613
  },
  {
    "dt": "2022.07.12 20:00",
    "o": 1.63844,
    "h": 1.63958,
    "l": 1.63815,
    "c": 1.63834,
    "v": 3350
  },
  {
    "dt": "2022.07.12 21:00",
    "o": 1.63832,
    "h": 1.63928,
    "l": 1.63739,
    "c": 1.63739,
    "v": 3351
  },
  {
    "dt": "2022.07.12 22:00",
    "o": 1.6374,
    "h": 1.63948,
    "l": 1.63673,
    "c": 1.63679,
    "v": 3458
  },
  {
    "dt": "2022.07.12 23:00",
    "o": 1.63679,
    "h": 1.63838,
    "l": 1.63679,
    "c": 1.63726,
    "v": 1622
  },
  {
    "dt": "2022.07.13 00:00",
    "o": 1.63526,
    "h": 1.63706,
    "l": 1.63471,
    "c": 1.63704,
    "v": 411
  },
  {
    "dt": "2022.07.13 01:00",
    "o": 1.63706,
    "h": 1.63834,
    "l": 1.63517,
    "c": 1.63797,
    "v": 1100
  },
  {
    "dt": "2022.07.13 02:00",
    "o": 1.63823,
    "h": 1.63869,
    "l": 1.63721,
    "c": 1.63841,
    "v": 2057
  },
  {
    "dt": "2022.07.13 03:00",
    "o": 1.63852,
    "h": 1.63975,
    "l": 1.63787,
    "c": 1.63843,
    "v": 3597
  },
  {
    "dt": "2022.07.13 04:00",
    "o": 1.63846,
    "h": 1.63884,
    "l": 1.63391,
    "c": 1.63406,
    "v": 4317
  },
  {
    "dt": "2022.07.13 05:00",
    "o": 1.63401,
    "h": 1.64196,
    "l": 1.63304,
    "c": 1.6385,
    "v": 4146
  },
  {
    "dt": "2022.07.13 06:00",
    "o": 1.63855,
    "h": 1.63889,
    "l": 1.63595,
    "c": 1.63728,
    "v": 3299
  },
  {
    "dt": "2022.07.13 07:00",
    "o": 1.63722,
    "h": 1.6381,
    "l": 1.6365,
    "c": 1.63678,
    "v": 2226
  },
  {
    "dt": "2022.07.13 08:00",
    "o": 1.63676,
    "h": 1.63874,
    "l": 1.63656,
    "c": 1.63848,
    "v": 3561
  },
  {
    "dt": "2022.07.13 09:00",
    "o": 1.63838,
    "h": 1.63994,
    "l": 1.6376,
    "c": 1.63788,
    "v": 4460
  },
  {
    "dt": "2022.07.13 10:00",
    "o": 1.63788,
    "h": 1.63943,
    "l": 1.63292,
    "c": 1.63521,
    "v": 5112
  },
  {
    "dt": "2022.07.13 11:00",
    "o": 1.63517,
    "h": 1.6359,
    "l": 1.6338,
    "c": 1.6354,
    "v": 4466
  },
  {
    "dt": "2022.07.13 12:00",
    "o": 1.63541,
    "h": 1.63611,
    "l": 1.63426,
    "c": 1.63565,
    "v": 3759
  },
  {
    "dt": "2022.07.13 13:00",
    "o": 1.63565,
    "h": 1.63868,
    "l": 1.63502,
    "c": 1.63676,
    "v": 4030
  },
  {
    "dt": "2022.07.13 14:00",
    "o": 1.63673,
    "h": 1.63675,
    "l": 1.63431,
    "c": 1.63576,
    "v": 3922
  },
  {
    "dt": "2022.07.13 15:00",
    "o": 1.63576,
    "h": 1.64712,
    "l": 1.63448,
    "c": 1.64218,
    "v": 5138
  },
  {
    "dt": "2022.07.13 16:00",
    "o": 1.64228,
    "h": 1.6434,
    "l": 1.63842,
    "c": 1.64085,
    "v": 5621
  },
  {
    "dt": "2022.07.13 17:00",
    "o": 1.64081,
    "h": 1.64692,
    "l": 1.63997,
    "c": 1.64174,
    "v": 5673
  },
  {
    "dt": "2022.07.13 18:00",
    "o": 1.64173,
    "h": 1.64182,
    "l": 1.6368,
    "c": 1.63776,
    "v": 5128
  },
  {
    "dt": "2022.07.13 19:00",
    "o": 1.63768,
    "h": 1.63993,
    "l": 1.63717,
    "c": 1.63888,
    "v": 4503
  },
  {
    "dt": "2022.07.13 20:00",
    "o": 1.63883,
    "h": 1.6395,
    "l": 1.63758,
    "c": 1.6383,
    "v": 4210
  },
  {
    "dt": "2022.07.13 21:00",
    "o": 1.6383,
    "h": 1.64121,
    "l": 1.63827,
    "c": 1.63898,
    "v": 4641
  },
  {
    "dt": "2022.07.13 22:00",
    "o": 1.63892,
    "h": 1.64136,
    "l": 1.63885,
    "c": 1.64009,
    "v": 3829
  },
  {
    "dt": "2022.07.13 23:00",
    "o": 1.64012,
    "h": 1.6409,
    "l": 1.63986,
    "c": 1.64026,
    "v": 1846
  },
  {
    "dt": "2022.07.14 00:00",
    "o": 1.64028,
    "h": 1.64129,
    "l": 1.63892,
    "c": 1.64012,
    "v": 539
  },
  {
    "dt": "2022.07.14 01:00",
    "o": 1.64003,
    "h": 1.64167,
    "l": 1.64003,
    "c": 1.64098,
    "v": 1279
  },
  {
    "dt": "2022.07.14 02:00",
    "o": 1.64124,
    "h": 1.6434,
    "l": 1.64121,
    "c": 1.64255,
    "v": 2904
  },
  {
    "dt": "2022.07.14 03:00",
    "o": 1.64254,
    "h": 1.64289,
    "l": 1.64021,
    "c": 1.64053,
    "v": 4013
  },
  {
    "dt": "2022.07.14 04:00",
    "o": 1.64059,
    "h": 1.6408,
    "l": 1.63764,
    "c": 1.63895,
    "v": 4446
  },
  {
    "dt": "2022.07.14 05:00",
    "o": 1.63892,
    "h": 1.64014,
    "l": 1.63721,
    "c": 1.63721,
    "v": 4043
  },
  {
    "dt": "2022.07.14 06:00",
    "o": 1.63723,
    "h": 1.63763,
    "l": 1.63627,
    "c": 1.6368,
    "v": 3453
  },
  {
    "dt": "2022.07.14 07:00",
    "o": 1.63668,
    "h": 1.63737,
    "l": 1.63523,
    "c": 1.63563,
    "v": 2776
  },
  {
    "dt": "2022.07.14 08:00",
    "o": 1.63558,
    "h": 1.63838,
    "l": 1.63515,
    "c": 1.63748,
    "v": 3829
  },
  {
    "dt": "2022.07.14 09:00",
    "o": 1.63778,
    "h": 1.63914,
    "l": 1.63626,
    "c": 1.63756,
    "v": 4636
  },
  {
    "dt": "2022.07.14 10:00",
    "o": 1.63758,
    "h": 1.64069,
    "l": 1.63398,
    "c": 1.63999,
    "v": 5264
  },
  {
    "dt": "2022.07.14 11:00",
    "o": 1.63997,
    "h": 1.64469,
    "l": 1.63984,
    "c": 1.64404,
    "v": 4937
  },
  {
    "dt": "2022.07.14 12:00",
    "o": 1.64398,
    "h": 1.64527,
    "l": 1.64232,
    "c": 1.64464,
    "v": 4689
  },
  {
    "dt": "2022.07.14 13:00",
    "o": 1.64464,
    "h": 1.64549,
    "l": 1.64335,
    "c": 1.64536,
    "v": 4518
  },
  {
    "dt": "2022.07.14 14:00",
    "o": 1.64535,
    "h": 1.64707,
    "l": 1.64263,
    "c": 1.64401,
    "v": 4754
  },
  {
    "dt": "2022.07.14 15:00",
    "o": 1.64395,
    "h": 1.64462,
    "l": 1.64141,
    "c": 1.64389,
    "v": 4927
  },
  {
    "dt": "2022.07.14 16:00",
    "o": 1.64393,
    "h": 1.64605,
    "l": 1.63958,
    "c": 1.642,
    "v": 5343
  },
  {
    "dt": "2022.07.14 17:00",
    "o": 1.64208,
    "h": 1.64348,
    "l": 1.63942,
    "c": 1.64174,
    "v": 5516
  },
  {
    "dt": "2022.07.14 18:00",
    "o": 1.64194,
    "h": 1.64478,
    "l": 1.63726,
    "c": 1.63769,
    "v": 5329
  },
  {
    "dt": "2022.07.14 19:00",
    "o": 1.63767,
    "h": 1.63997,
    "l": 1.63668,
    "c": 1.63736,
    "v": 4841
  },
  {
    "dt": "2022.07.14 20:00",
    "o": 1.63735,
    "h": 1.63818,
    "l": 1.63651,
    "c": 1.63784,
    "v": 4735
  },
  {
    "dt": "2022.07.14 21:00",
    "o": 1.63779,
    "h": 1.63808,
    "l": 1.63518,
    "c": 1.63558,
    "v": 4380
  },
  {
    "dt": "2022.07.14 22:00",
    "o": 1.63535,
    "h": 1.63791,
    "l": 1.63533,
    "c": 1.63591,
    "v": 3501
  },
  {
    "dt": "2022.07.14 23:00",
    "o": 1.63585,
    "h": 1.6363,
    "l": 1.63339,
    "c": 1.63387,
    "v": 1229
  },
  {
    "dt": "2022.07.15 00:00",
    "o": 1.63325,
    "h": 1.63995,
    "l": 1.63325,
    "c": 1.63553,
    "v": 432
  },
  {
    "dt": "2022.07.15 01:00",
    "o": 1.63601,
    "h": 1.63611,
    "l": 1.6351,
    "c": 1.63564,
    "v": 1447
  },
  {
    "dt": "2022.07.15 02:00",
    "o": 1.63574,
    "h": 1.63576,
    "l": 1.63366,
    "c": 1.6353,
    "v": 2392
  },
  {
    "dt": "2022.07.15 03:00",
    "o": 1.63534,
    "h": 1.63618,
    "l": 1.63334,
    "c": 1.63618,
    "v": 4046
  },
  {
    "dt": "2022.07.15 04:00",
    "o": 1.6362,
    "h": 1.63649,
    "l": 1.63356,
    "c": 1.63424,
    "v": 4230
  },
  {
    "dt": "2022.07.15 05:00",
    "o": 1.63422,
    "h": 1.63602,
    "l": 1.63367,
    "c": 1.63528,
    "v": 3880
  },
  {
    "dt": "2022.07.15 06:00",
    "o": 1.6353,
    "h": 1.63714,
    "l": 1.63474,
    "c": 1.63507,
    "v": 3174
  },
  {
    "dt": "2022.07.15 07:00",
    "o": 1.63511,
    "h": 1.63594,
    "l": 1.63403,
    "c": 1.63583,
    "v": 2490
  },
  {
    "dt": "2022.07.15 08:00",
    "o": 1.63582,
    "h": 1.63766,
    "l": 1.63572,
    "c": 1.6361,
    "v": 3356
  },
  {
    "dt": "2022.07.15 09:00",
    "o": 1.63621,
    "h": 1.63663,
    "l": 1.63433,
    "c": 1.63491,
    "v": 4489
  },
  {
    "dt": "2022.07.15 10:00",
    "o": 1.63491,
    "h": 1.63722,
    "l": 1.63277,
    "c": 1.63707,
    "v": 4623
  },
  {
    "dt": "2022.07.15 11:00",
    "o": 1.63702,
    "h": 1.63844,
    "l": 1.63458,
    "c": 1.63613,
    "v": 4531
  },
  {
    "dt": "2022.07.15 12:00",
    "o": 1.63613,
    "h": 1.63854,
    "l": 1.63538,
    "c": 1.63761,
    "v": 4296
  },
  {
    "dt": "2022.07.15 13:00",
    "o": 1.63756,
    "h": 1.63768,
    "l": 1.63571,
    "c": 1.63732,
    "v": 4033
  },
  {
    "dt": "2022.07.15 14:00",
    "o": 1.63734,
    "h": 1.63837,
    "l": 1.63651,
    "c": 1.63774,
    "v": 4085
  },
  {
    "dt": "2022.07.15 15:00",
    "o": 1.63766,
    "h": 1.63899,
    "l": 1.63426,
    "c": 1.63481,
    "v": 5006
  },
  {
    "dt": "2022.07.15 16:00",
    "o": 1.6348,
    "h": 1.63664,
    "l": 1.63398,
    "c": 1.63447,
    "v": 5306
  },
  {
    "dt": "2022.07.15 17:00",
    "o": 1.63427,
    "h": 1.63603,
    "l": 1.63164,
    "c": 1.63543,
    "v": 5312
  },
  {
    "dt": "2022.07.15 18:00",
    "o": 1.63545,
    "h": 1.63841,
    "l": 1.63527,
    "c": 1.63829,
    "v": 3946
  },
  {
    "dt": "2022.07.15 19:00",
    "o": 1.63832,
    "h": 1.63832,
    "l": 1.63623,
    "c": 1.63684,
    "v": 2767
  },
  {
    "dt": "2022.07.15 20:00",
    "o": 1.63679,
    "h": 1.63734,
    "l": 1.63528,
    "c": 1.6354,
    "v": 2409
  },
  {
    "dt": "2022.07.15 21:00",
    "o": 1.6354,
    "h": 1.63758,
    "l": 1.6349,
    "c": 1.63729,
    "v": 2183
  },
  {
    "dt": "2022.07.15 22:00",
    "o": 1.63738,
    "h": 1.63798,
    "l": 1.63652,
    "c": 1.63749,
    "v": 2014
  },
  {
    "dt": "2022.07.15 23:00",
    "o": 1.63748,
    "h": 1.63898,
    "l": 1.63625,
    "c": 1.63681,
    "v": 1208
  },
  {
    "dt": "2022.07.18 00:00",
    "o": 1.63787,
    "h": 1.63832,
    "l": 1.63715,
    "c": 1.63761,
    "v": 234
  },
  {
    "dt": "2022.07.18 01:00",
    "o": 1.63748,
    "h": 1.63887,
    "l": 1.6345,
    "c": 1.63612,
    "v": 1414
  },
  {
    "dt": "2022.07.18 02:00",
    "o": 1.63618,
    "h": 1.63666,
    "l": 1.63054,
    "c": 1.63128,
    "v": 2254
  },
  {
    "dt": "2022.07.18 03:00",
    "o": 1.63128,
    "h": 1.63378,
    "l": 1.63052,
    "c": 1.6311,
    "v": 3095
  },
  {
    "dt": "2022.07.18 04:00",
    "o": 1.6311,
    "h": 1.63222,
    "l": 1.63006,
    "c": 1.63097,
    "v": 3844
  },
  {
    "dt": "2022.07.18 05:00",
    "o": 1.63093,
    "h": 1.63367,
    "l": 1.63068,
    "c": 1.63273,
    "v": 3226
  },
  {
    "dt": "2022.07.18 06:00",
    "o": 1.63272,
    "h": 1.636,
    "l": 1.63221,
    "c": 1.636,
    "v": 3196
  },
  {
    "dt": "2022.07.18 07:00",
    "o": 1.63599,
    "h": 1.63754,
    "l": 1.63495,
    "c": 1.63688,
    "v": 2664
  },
  {
    "dt": "2022.07.18 08:00",
    "o": 1.63687,
    "h": 1.63948,
    "l": 1.63677,
    "c": 1.63915,
    "v": 3112
  },
  {
    "dt": "2022.07.18 09:00",
    "o": 1.63914,
    "h": 1.63998,
    "l": 1.63768,
    "c": 1.63968,
    "v": 4487
  },
  {
    "dt": "2022.07.18 10:00",
    "o": 1.63978,
    "h": 1.64498,
    "l": 1.63907,
    "c": 1.64176,
    "v": 5399
  },
  {
    "dt": "2022.07.18 11:00",
    "o": 1.64174,
    "h": 1.643,
    "l": 1.63869,
    "c": 1.64025,
    "v": 4960
  },
  {
    "dt": "2022.07.18 12:00",
    "o": 1.64026,
    "h": 1.64361,
    "l": 1.6395,
    "c": 1.64317,
    "v": 4527
  },
  {
    "dt": "2022.07.18 13:00",
    "o": 1.64315,
    "h": 1.64498,
    "l": 1.64253,
    "c": 1.64438,
    "v": 4190
  },
  {
    "dt": "2022.07.18 14:00",
    "o": 1.64439,
    "h": 1.64521,
    "l": 1.64351,
    "c": 1.64437,
    "v": 4211
  },
  {
    "dt": "2022.07.18 15:00",
    "o": 1.64446,
    "h": 1.64464,
    "l": 1.6413,
    "c": 1.64135,
    "v": 4624
  },
  {
    "dt": "2022.07.18 16:00",
    "o": 1.64138,
    "h": 1.64389,
    "l": 1.64133,
    "c": 1.64387,
    "v": 4598
  },
  {
    "dt": "2022.07.18 17:00",
    "o": 1.64387,
    "h": 1.64996,
    "l": 1.64372,
    "c": 1.64903,
    "v": 5238
  },
  {
    "dt": "2022.07.18 18:00",
    "o": 1.64906,
    "h": 1.64971,
    "l": 1.64565,
    "c": 1.64591,
    "v": 4356
  },
  {
    "dt": "2022.07.18 19:00",
    "o": 1.64592,
    "h": 1.64823,
    "l": 1.6458,
    "c": 1.64792,
    "v": 3966
  },
  {
    "dt": "2022.07.18 20:00",
    "o": 1.64792,
    "h": 1.649,
    "l": 1.64701,
    "c": 1.64862,
    "v": 3801
  },
  {
    "dt": "2022.07.18 21:00",
    "o": 1.64861,
    "h": 1.6499,
    "l": 1.64764,
    "c": 1.64828,
    "v": 4201
  },
  {
    "dt": "2022.07.18 22:00",
    "o": 1.64848,
    "h": 1.64908,
    "l": 1.64766,
    "c": 1.64777,
    "v": 3156
  },
  {
    "dt": "2022.07.18 23:00",
    "o": 1.64779,
    "h": 1.64868,
    "l": 1.64736,
    "c": 1.6476,
    "v": 1216
  },
  {
    "dt": "2022.07.19 00:00",
    "o": 1.64725,
    "h": 1.64854,
    "l": 1.64725,
    "c": 1.64794,
    "v": 567
  },
  {
    "dt": "2022.07.19 01:00",
    "o": 1.64781,
    "h": 1.64948,
    "l": 1.64761,
    "c": 1.64869,
    "v": 1229
  },
  {
    "dt": "2022.07.19 02:00",
    "o": 1.64868,
    "h": 1.64982,
    "l": 1.64814,
    "c": 1.6489,
    "v": 2205
  },
  {
    "dt": "2022.07.19 03:00",
    "o": 1.64892,
    "h": 1.64938,
    "l": 1.64726,
    "c": 1.648,
    "v": 3112
  },
  {
    "dt": "2022.07.19 04:00",
    "o": 1.64796,
    "h": 1.64924,
    "l": 1.64547,
    "c": 1.64559,
    "v": 3776
  },
  {
    "dt": "2022.07.19 05:00",
    "o": 1.64568,
    "h": 1.64698,
    "l": 1.64448,
    "c": 1.64468,
    "v": 3426
  },
  {
    "dt": "2022.07.19 06:00",
    "o": 1.64459,
    "h": 1.64487,
    "l": 1.64137,
    "c": 1.64175,
    "v": 2887
  },
  {
    "dt": "2022.07.19 07:00",
    "o": 1.64181,
    "h": 1.6428,
    "l": 1.64038,
    "c": 1.64121,
    "v": 2944
  },
  {
    "dt": "2022.07.19 08:00",
    "o": 1.64128,
    "h": 1.64398,
    "l": 1.64098,
    "c": 1.64381,
    "v": 3598
  },
  {
    "dt": "2022.07.19 09:00",
    "o": 1.64399,
    "h": 1.6446,
    "l": 1.64209,
    "c": 1.64411,
    "v": 4301
  },
  {
    "dt": "2022.07.19 10:00",
    "o": 1.64412,
    "h": 1.64807,
    "l": 1.64157,
    "c": 1.64713,
    "v": 5043
  },
  {
    "dt": "2022.07.19 11:00",
    "o": 1.64702,
    "h": 1.64769,
    "l": 1.64252,
    "c": 1.64468,
    "v": 4703
  },
  {
    "dt": "2022.07.19 12:00",
    "o": 1.64459,
    "h": 1.64491,
    "l": 1.64268,
    "c": 1.64287,
    "v": 4407
  },
  {
    "dt": "2022.07.19 13:00",
    "o": 1.64291,
    "h": 1.64663,
    "l": 1.64273,
    "c": 1.64653,
    "v": 4282
  },
  {
    "dt": "2022.07.19 14:00",
    "o": 1.64651,
    "h": 1.6476,
    "l": 1.64416,
    "c": 1.64423,
    "v": 4023
  },
  {
    "dt": "2022.07.19 15:00",
    "o": 1.64421,
    "h": 1.64589,
    "l": 1.64199,
    "c": 1.64202,
    "v": 4349
  },
  {
    "dt": "2022.07.19 16:00",
    "o": 1.6421,
    "h": 1.64424,
    "l": 1.64189,
    "c": 1.64383,
    "v": 4314
  },
  {
    "dt": "2022.07.19 17:00",
    "o": 1.64377,
    "h": 1.64654,
    "l": 1.64232,
    "c": 1.6431,
    "v": 4938
  },
  {
    "dt": "2022.07.19 18:00",
    "o": 1.64304,
    "h": 1.64494,
    "l": 1.64253,
    "c": 1.6438,
    "v": 3565
  },
  {
    "dt": "2022.07.19 19:00",
    "o": 1.64381,
    "h": 1.64482,
    "l": 1.64276,
    "c": 1.64368,
    "v": 2824
  },
  {
    "dt": "2022.07.19 20:00",
    "o": 1.64368,
    "h": 1.64465,
    "l": 1.64335,
    "c": 1.64403,
    "v": 2441
  },
  {
    "dt": "2022.07.19 21:00",
    "o": 1.64403,
    "h": 1.64479,
    "l": 1.64318,
    "c": 1.64418,
    "v": 2780
  },
  {
    "dt": "2022.07.19 22:00",
    "o": 1.64418,
    "h": 1.64458,
    "l": 1.64196,
    "c": 1.64201,
    "v": 2831
  },
  {
    "dt": "2022.07.19 23:00",
    "o": 1.64199,
    "h": 1.64326,
    "l": 1.64191,
    "c": 1.64231,
    "v": 1244
  },
  {
    "dt": "2022.07.20 00:00",
    "o": 1.64066,
    "h": 1.64468,
    "l": 1.64066,
    "c": 1.64261,
    "v": 479
  },
  {
    "dt": "2022.07.20 01:00",
    "o": 1.64239,
    "h": 1.64358,
    "l": 1.64206,
    "c": 1.64248,
    "v": 1161
  },
  {
    "dt": "2022.07.20 02:00",
    "o": 1.64258,
    "h": 1.64268,
    "l": 1.63999,
    "c": 1.64124,
    "v": 2111
  },
  {
    "dt": "2022.07.20 03:00",
    "o": 1.64124,
    "h": 1.6427,
    "l": 1.64055,
    "c": 1.64098,
    "v": 2437
  },
  {
    "dt": "2022.07.20 04:00",
    "o": 1.64105,
    "h": 1.64149,
    "l": 1.63918,
    "c": 1.64018,
    "v": 2453
  },
  {
    "dt": "2022.07.20 05:00",
    "o": 1.64018,
    "h": 1.64092,
    "l": 1.63614,
    "c": 1.63654,
    "v": 2644
  },
  {
    "dt": "2022.07.20 06:00",
    "o": 1.63651,
    "h": 1.63689,
    "l": 1.63473,
    "c": 1.63523,
    "v": 2341
  },
  {
    "dt": "2022.07.20 07:00",
    "o": 1.63522,
    "h": 1.63538,
    "l": 1.63328,
    "c": 1.63338,
    "v": 2088
  },
  {
    "dt": "2022.07.20 08:00",
    "o": 1.63338,
    "h": 1.63679,
    "l": 1.63338,
    "c": 1.63678,
    "v": 2619
  },
  {
    "dt": "2022.07.20 09:00",
    "o": 1.63673,
    "h": 1.63845,
    "l": 1.63598,
    "c": 1.63824,
    "v": 3761
  },
  {
    "dt": "2022.07.20 10:00",
    "o": 1.6382,
    "h": 1.64112,
    "l": 1.63611,
    "c": 1.63642,
    "v": 4820
  },
  {
    "dt": "2022.07.20 11:00",
    "o": 1.63648,
    "h": 1.63978,
    "l": 1.63615,
    "c": 1.63891,
    "v": 4012
  },
  {
    "dt": "2022.07.20 12:00",
    "o": 1.63883,
    "h": 1.6392,
    "l": 1.6361,
    "c": 1.63733,
    "v": 3205
  },
  {
    "dt": "2022.07.20 13:00",
    "o": 1.63728,
    "h": 1.63728,
    "l": 1.63053,
    "c": 1.63338,
    "v": 4018
  },
  {
    "dt": "2022.07.20 14:00",
    "o": 1.63349,
    "h": 1.63498,
    "l": 1.63036,
    "c": 1.63036,
    "v": 3933
  },
  {
    "dt": "2022.07.20 15:00",
    "o": 1.63038,
    "h": 1.63421,
    "l": 1.6298,
    "c": 1.63352,
    "v": 4387
  },
  {
    "dt": "2022.07.20 16:00",
    "o": 1.63348,
    "h": 1.63758,
    "l": 1.63299,
    "c": 1.63663,
    "v": 4673
  },
  {
    "dt": "2022.07.20 17:00",
    "o": 1.63667,
    "h": 1.63908,
    "l": 1.6342,
    "c": 1.63424,
    "v": 4512
  },
  {
    "dt": "2022.07.20 18:00",
    "o": 1.63429,
    "h": 1.63784,
    "l": 1.63346,
    "c": 1.63745,
    "v": 3835
  },
  {
    "dt": "2022.07.20 19:00",
    "o": 1.63742,
    "h": 1.63798,
    "l": 1.63526,
    "c": 1.63668,
    "v": 3190
  },
  {
    "dt": "2022.07.20 20:00",
    "o": 1.63658,
    "h": 1.63678,
    "l": 1.63222,
    "c": 1.63298,
    "v": 4028
  },
  {
    "dt": "2022.07.20 21:00",
    "o": 1.63292,
    "h": 1.63492,
    "l": 1.63288,
    "c": 1.63448,
    "v": 3235
  },
  {
    "dt": "2022.07.20 22:00",
    "o": 1.6309,
    "h": 1.63556,
    "l": 1.6309,
    "c": 1.63411,
    "v": 2285
  },
  {
    "dt": "2022.07.20 23:00",
    "o": 1.63414,
    "h": 1.63454,
    "l": 1.63348,
    "c": 1.6341,
    "v": 1452
  },
  {
    "dt": "2022.07.21 00:00",
    "o": 1.6348,
    "h": 1.63486,
    "l": 1.63157,
    "c": 1.63342,
    "v": 482
  },
  {
    "dt": "2022.07.21 01:00",
    "o": 1.63381,
    "h": 1.63484,
    "l": 1.633,
    "c": 1.63458,
    "v": 1282
  },
  {
    "dt": "2022.07.21 02:00",
    "o": 1.63468,
    "h": 1.63611,
    "l": 1.63448,
    "c": 1.6361,
    "v": 1563
  },
  {
    "dt": "2022.07.21 03:00",
    "o": 1.63608,
    "h": 1.63783,
    "l": 1.63565,
    "c": 1.63666,
    "v": 2397
  },
  {
    "dt": "2022.07.21 04:00",
    "o": 1.63668,
    "h": 1.63868,
    "l": 1.63612,
    "c": 1.63795,
    "v": 3074
  },
  {
    "dt": "2022.07.21 05:00",
    "o": 1.63793,
    "h": 1.63968,
    "l": 1.63677,
    "c": 1.63923,
    "v": 2546
  },
  {
    "dt": "2022.07.21 06:00",
    "o": 1.63918,
    "h": 1.64067,
    "l": 1.63869,
    "c": 1.64022,
    "v": 2851
  },
  {
    "dt": "2022.07.21 07:00",
    "o": 1.64021,
    "h": 1.64026,
    "l": 1.6378,
    "c": 1.63787,
    "v": 2527
  },
  {
    "dt": "2022.07.21 08:00",
    "o": 1.6378,
    "h": 1.63913,
    "l": 1.63767,
    "c": 1.63901,
    "v": 2920
  },
  {
    "dt": "2022.07.21 09:00",
    "o": 1.63888,
    "h": 1.64148,
    "l": 1.63848,
    "c": 1.639,
    "v": 4125
  },
  {
    "dt": "2022.07.21 10:00",
    "o": 1.63898,
    "h": 1.64562,
    "l": 1.63891,
    "c": 1.64326,
    "v": 4823
  },
  {
    "dt": "2022.07.21 11:00",
    "o": 1.64329,
    "h": 1.64478,
    "l": 1.64174,
    "c": 1.64454,
    "v": 4526
  },
  {
    "dt": "2022.07.21 12:00",
    "o": 1.64447,
    "h": 1.64504,
    "l": 1.64238,
    "c": 1.6435,
    "v": 4071
  },
  {
    "dt": "2022.07.21 13:00",
    "o": 1.64348,
    "h": 1.64478,
    "l": 1.64303,
    "c": 1.64358,
    "v": 3558
  },
  {
    "dt": "2022.07.21 14:00",
    "o": 1.64364,
    "h": 1.64688,
    "l": 1.64342,
    "c": 1.64658,
    "v": 3874
  },
  {
    "dt": "2022.07.21 15:00",
    "o": 1.64662,
    "h": 1.65467,
    "l": 1.6463,
    "c": 1.64894,
    "v": 5236
  },
  {
    "dt": "2022.07.21 16:00",
    "o": 1.64894,
    "h": 1.64986,
    "l": 1.64004,
    "c": 1.64388,
    "v": 5630
  },
  {
    "dt": "2022.07.21 17:00",
    "o": 1.64396,
    "h": 1.64398,
    "l": 1.63733,
    "c": 1.63768,
    "v": 5122
  },
  {
    "dt": "2022.07.21 18:00",
    "o": 1.63773,
    "h": 1.64117,
    "l": 1.6377,
    "c": 1.64064,
    "v": 4624
  },
  {
    "dt": "2022.07.21 19:00",
    "o": 1.6406,
    "h": 1.64064,
    "l": 1.63753,
    "c": 1.63835,
    "v": 3757
  },
  {
    "dt": "2022.07.21 20:00",
    "o": 1.63838,
    "h": 1.63932,
    "l": 1.63695,
    "c": 1.63848,
    "v": 3172
  },
  {
    "dt": "2022.07.21 21:00",
    "o": 1.63851,
    "h": 1.63928,
    "l": 1.63699,
    "c": 1.63809,
    "v": 2557
  },
  {
    "dt": "2022.07.21 22:00",
    "o": 1.6372,
    "h": 1.63898,
    "l": 1.63666,
    "c": 1.63708,
    "v": 2683
  },
  {
    "dt": "2022.07.21 23:00",
    "o": 1.63699,
    "h": 1.63784,
    "l": 1.6347,
    "c": 1.63581,
    "v": 1989
  },
  {
    "dt": "2022.07.22 00:00",
    "o": 1.63552,
    "h": 1.63574,
    "l": 1.63496,
    "c": 1.63536,
    "v": 297
  },
  {
    "dt": "2022.07.22 01:00",
    "o": 1.63536,
    "h": 1.63729,
    "l": 1.63498,
    "c": 1.63643,
    "v": 1531
  },
  {
    "dt": "2022.07.22 02:00",
    "o": 1.6364,
    "h": 1.63739,
    "l": 1.63598,
    "c": 1.63678,
    "v": 1813
  },
  {
    "dt": "2022.07.22 03:00",
    "o": 1.63671,
    "h": 1.63698,
    "l": 1.63453,
    "c": 1.6349,
    "v": 2909
  },
  {
    "dt": "2022.07.22 04:00",
    "o": 1.63488,
    "h": 1.63596,
    "l": 1.63407,
    "c": 1.63521,
    "v": 3121
  },
  {
    "dt": "2022.07.22 05:00",
    "o": 1.6352,
    "h": 1.63718,
    "l": 1.63488,
    "c": 1.63678,
    "v": 3326
  },
  {
    "dt": "2022.07.22 06:00",
    "o": 1.63688,
    "h": 1.63768,
    "l": 1.6362,
    "c": 1.63678,
    "v": 2372
  },
  {
    "dt": "2022.07.22 07:00",
    "o": 1.63682,
    "h": 1.63832,
    "l": 1.6367,
    "c": 1.63814,
    "v": 2291
  },
  {
    "dt": "2022.07.22 08:00",
    "o": 1.63806,
    "h": 1.63908,
    "l": 1.63743,
    "c": 1.63782,
    "v": 2664
  },
  {
    "dt": "2022.07.22 09:00",
    "o": 1.63764,
    "h": 1.63858,
    "l": 1.63654,
    "c": 1.63675,
    "v": 3924
  },
  {
    "dt": "2022.07.22 10:00",
    "o": 1.6367,
    "h": 1.63808,
    "l": 1.62698,
    "c": 1.62756,
    "v": 4678
  },
  {
    "dt": "2022.07.22 11:00",
    "o": 1.62752,
    "h": 1.62978,
    "l": 1.62697,
    "c": 1.62869,
    "v": 4299
  },
  {
    "dt": "2022.07.22 12:00",
    "o": 1.62872,
    "h": 1.62918,
    "l": 1.62691,
    "c": 1.62802,
    "v": 4101
  },
  {
    "dt": "2022.07.22 13:00",
    "o": 1.62801,
    "h": 1.62856,
    "l": 1.62698,
    "c": 1.62856,
    "v": 3761
  },
  {
    "dt": "2022.07.22 14:00",
    "o": 1.62858,
    "h": 1.62868,
    "l": 1.62394,
    "c": 1.62428,
    "v": 4298
  },
  {
    "dt": "2022.07.22 15:00",
    "o": 1.62431,
    "h": 1.62732,
    "l": 1.62371,
    "c": 1.62701,
    "v": 4586
  },
  {
    "dt": "2022.07.22 16:00",
    "o": 1.62707,
    "h": 1.62743,
    "l": 1.6226,
    "c": 1.62603,
    "v": 4790
  },
  {
    "dt": "2022.07.22 17:00",
    "o": 1.62602,
    "h": 1.63108,
    "l": 1.62602,
    "c": 1.62877,
    "v": 4949
  },
  {
    "dt": "2022.07.22 18:00",
    "o": 1.62868,
    "h": 1.63049,
    "l": 1.62755,
    "c": 1.63011,
    "v": 3964
  },
  {
    "dt": "2022.07.22 19:00",
    "o": 1.63018,
    "h": 1.63275,
    "l": 1.62937,
    "c": 1.63133,
    "v": 4099
  },
  {
    "dt": "2022.07.22 20:00",
    "o": 1.63131,
    "h": 1.634,
    "l": 1.63088,
    "c": 1.63333,
    "v": 2973
  },
  {
    "dt": "2022.07.22 21:00",
    "o": 1.63329,
    "h": 1.63568,
    "l": 1.63311,
    "c": 1.63388,
    "v": 3215
  },
  {
    "dt": "2022.07.22 22:00",
    "o": 1.63383,
    "h": 1.63571,
    "l": 1.63274,
    "c": 1.63478,
    "v": 2839
  },
  {
    "dt": "2022.07.22 23:00",
    "o": 1.63472,
    "h": 1.63478,
    "l": 1.63228,
    "c": 1.63313,
    "v": 1547
  },
  {
    "dt": "2022.07.25 00:00",
    "o": 1.63078,
    "h": 1.63368,
    "l": 1.63044,
    "c": 1.63286,
    "v": 398
  },
  {
    "dt": "2022.07.25 01:00",
    "o": 1.63306,
    "h": 1.63759,
    "l": 1.63105,
    "c": 1.63638,
    "v": 1049
  },
  {
    "dt": "2022.07.25 02:00",
    "o": 1.63648,
    "h": 1.63689,
    "l": 1.63495,
    "c": 1.63622,
    "v": 1806
  },
  {
    "dt": "2022.07.25 03:00",
    "o": 1.63621,
    "h": 1.63845,
    "l": 1.63474,
    "c": 1.63736,
    "v": 3256
  },
  {
    "dt": "2022.07.25 04:00",
    "o": 1.63737,
    "h": 1.63808,
    "l": 1.63644,
    "c": 1.63663,
    "v": 3930
  },
  {
    "dt": "2022.07.25 05:00",
    "o": 1.63664,
    "h": 1.6393,
    "l": 1.63576,
    "c": 1.63721,
    "v": 3429
  },
  {
    "dt": "2022.07.25 06:00",
    "o": 1.63732,
    "h": 1.63874,
    "l": 1.63711,
    "c": 1.63729,
    "v": 3130
  },
  {
    "dt": "2022.07.25 07:00",
    "o": 1.63736,
    "h": 1.63763,
    "l": 1.63614,
    "c": 1.63698,
    "v": 2345
  },
  {
    "dt": "2022.07.25 08:00",
    "o": 1.637,
    "h": 1.63808,
    "l": 1.63632,
    "c": 1.63658,
    "v": 2918
  },
  {
    "dt": "2022.07.25 09:00",
    "o": 1.63672,
    "h": 1.63719,
    "l": 1.63388,
    "c": 1.63388,
    "v": 3871
  },
  {
    "dt": "2022.07.25 10:00",
    "o": 1.63383,
    "h": 1.63796,
    "l": 1.63273,
    "c": 1.63318,
    "v": 5014
  },
  {
    "dt": "2022.07.25 11:00",
    "o": 1.63318,
    "h": 1.63519,
    "l": 1.63143,
    "c": 1.63439,
    "v": 4919
  },
  {
    "dt": "2022.07.25 12:00",
    "o": 1.63438,
    "h": 1.63721,
    "l": 1.63263,
    "c": 1.63303,
    "v": 4578
  },
  {
    "dt": "2022.07.25 13:00",
    "o": 1.63302,
    "h": 1.63328,
    "l": 1.62979,
    "c": 1.63162,
    "v": 4361
  },
  {
    "dt": "2022.07.25 14:00",
    "o": 1.63167,
    "h": 1.6338,
    "l": 1.63088,
    "c": 1.63141,
    "v": 4599
  },
  {
    "dt": "2022.07.25 15:00",
    "o": 1.63135,
    "h": 1.63514,
    "l": 1.63043,
    "c": 1.63514,
    "v": 4971
  },
  {
    "dt": "2022.07.25 16:00",
    "o": 1.63511,
    "h": 1.6353,
    "l": 1.63368,
    "c": 1.63477,
    "v": 4679
  },
  {
    "dt": "2022.07.25 17:00",
    "o": 1.6347,
    "h": 1.63512,
    "l": 1.63138,
    "c": 1.63364,
    "v": 5234
  },
  {
    "dt": "2022.07.25 18:00",
    "o": 1.63354,
    "h": 1.63398,
    "l": 1.63058,
    "c": 1.63107,
    "v": 4188
  },
  {
    "dt": "2022.07.25 19:00",
    "o": 1.63108,
    "h": 1.63151,
    "l": 1.6305,
    "c": 1.63128,
    "v": 3647
  },
  {
    "dt": "2022.07.25 20:00",
    "o": 1.63131,
    "h": 1.63174,
    "l": 1.62973,
    "c": 1.6303,
    "v": 3038
  },
  {
    "dt": "2022.07.25 21:00",
    "o": 1.6303,
    "h": 1.63163,
    "l": 1.6301,
    "c": 1.63153,
    "v": 3096
  },
  {
    "dt": "2022.07.25 22:00",
    "o": 1.63164,
    "h": 1.63232,
    "l": 1.63078,
    "c": 1.63121,
    "v": 2145
  },
  {
    "dt": "2022.07.25 23:00",
    "o": 1.63118,
    "h": 1.63232,
    "l": 1.63067,
    "c": 1.63067,
    "v": 1321
  },
  {
    "dt": "2022.07.26 00:00",
    "o": 1.62948,
    "h": 1.63226,
    "l": 1.62948,
    "c": 1.63155,
    "v": 409
  },
  {
    "dt": "2022.07.26 01:00",
    "o": 1.63154,
    "h": 1.63284,
    "l": 1.63149,
    "c": 1.63216,
    "v": 619
  },
  {
    "dt": "2022.07.26 02:00",
    "o": 1.63216,
    "h": 1.63363,
    "l": 1.63157,
    "c": 1.63363,
    "v": 1060
  },
  {
    "dt": "2022.07.26 03:00",
    "o": 1.63359,
    "h": 1.63471,
    "l": 1.63187,
    "c": 1.63445,
    "v": 2256
  },
  {
    "dt": "2022.07.26 04:00",
    "o": 1.63447,
    "h": 1.63548,
    "l": 1.63159,
    "c": 1.63249,
    "v": 2972
  },
  {
    "dt": "2022.07.26 05:00",
    "o": 1.63252,
    "h": 1.63482,
    "l": 1.63219,
    "c": 1.6328,
    "v": 2420
  },
  {
    "dt": "2022.07.26 06:00",
    "o": 1.63283,
    "h": 1.63375,
    "l": 1.63155,
    "c": 1.63242,
    "v": 1965
  },
  {
    "dt": "2022.07.26 07:00",
    "o": 1.63246,
    "h": 1.63302,
    "l": 1.63218,
    "c": 1.63248,
    "v": 2096
  },
  {
    "dt": "2022.07.26 08:00",
    "o": 1.63243,
    "h": 1.63338,
    "l": 1.63158,
    "c": 1.63168,
    "v": 2385
  },
  {
    "dt": "2022.07.26 09:00",
    "o": 1.63161,
    "h": 1.63318,
    "l": 1.63138,
    "c": 1.63222,
    "v": 2906
  },
  {
    "dt": "2022.07.26 10:00",
    "o": 1.63228,
    "h": 1.63372,
    "l": 1.63177,
    "c": 1.63258,
    "v": 3935
  },
  {
    "dt": "2022.07.26 11:00",
    "o": 1.63248,
    "h": 1.6331,
    "l": 1.63025,
    "c": 1.63285,
    "v": 3395
  },
  {
    "dt": "2022.07.26 12:00",
    "o": 1.63292,
    "h": 1.63358,
    "l": 1.63068,
    "c": 1.63148,
    "v": 3484
  },
  {
    "dt": "2022.07.26 13:00",
    "o": 1.6315,
    "h": 1.63182,
    "l": 1.62738,
    "c": 1.62842,
    "v": 4020
  },
  {
    "dt": "2022.07.26 14:00",
    "o": 1.62842,
    "h": 1.62862,
    "l": 1.62333,
    "c": 1.6245,
    "v": 3515
  },
  {
    "dt": "2022.07.26 15:00",
    "o": 1.62445,
    "h": 1.62778,
    "l": 1.62298,
    "c": 1.62778,
    "v": 4124
  },
  {
    "dt": "2022.07.26 16:00",
    "o": 1.62775,
    "h": 1.62789,
    "l": 1.62447,
    "c": 1.62621,
    "v": 4511
  },
  {
    "dt": "2022.07.26 17:00",
    "o": 1.62633,
    "h": 1.62639,
    "l": 1.62157,
    "c": 1.62231,
    "v": 4852
  },
  {
    "dt": "2022.07.26 18:00",
    "o": 1.62233,
    "h": 1.62408,
    "l": 1.62176,
    "c": 1.62228,
    "v": 3543
  },
  {
    "dt": "2022.07.26 19:00",
    "o": 1.62221,
    "h": 1.62391,
    "l": 1.62138,
    "c": 1.62382,
    "v": 2924
  },
  {
    "dt": "2022.07.26 20:00",
    "o": 1.62383,
    "h": 1.62464,
    "l": 1.6235,
    "c": 1.62388,
    "v": 2431
  },
  {
    "dt": "2022.07.26 21:00",
    "o": 1.62388,
    "h": 1.62568,
    "l": 1.62372,
    "c": 1.62494,
    "v": 2681
  },
  {
    "dt": "2022.07.26 22:00",
    "o": 1.62518,
    "h": 1.62548,
    "l": 1.62365,
    "c": 1.62379,
    "v": 2196
  },
  {
    "dt": "2022.07.26 23:00",
    "o": 1.62374,
    "h": 1.62489,
    "l": 1.62324,
    "c": 1.62334,
    "v": 1372
  },
  {
    "dt": "2022.07.27 00:00",
    "o": 1.61963,
    "h": 1.62373,
    "l": 1.61886,
    "c": 1.62283,
    "v": 529
  },
  {
    "dt": "2022.07.27 01:00",
    "o": 1.6228,
    "h": 1.62453,
    "l": 1.6226,
    "c": 1.62338,
    "v": 1034
  },
  {
    "dt": "2022.07.27 02:00",
    "o": 1.62344,
    "h": 1.62375,
    "l": 1.62189,
    "c": 1.62302,
    "v": 1435
  },
  {
    "dt": "2022.07.27 03:00",
    "o": 1.62289,
    "h": 1.62413,
    "l": 1.62257,
    "c": 1.62397,
    "v": 2286
  },
  {
    "dt": "2022.07.27 04:00",
    "o": 1.62393,
    "h": 1.62673,
    "l": 1.62333,
    "c": 1.62619,
    "v": 3008
  },
  {
    "dt": "2022.07.27 05:00",
    "o": 1.62616,
    "h": 1.62861,
    "l": 1.62566,
    "c": 1.62813,
    "v": 2214
  },
  {
    "dt": "2022.07.27 06:00",
    "o": 1.62811,
    "h": 1.62846,
    "l": 1.62756,
    "c": 1.62804,
    "v": 1752
  },
  {
    "dt": "2022.07.27 07:00",
    "o": 1.62805,
    "h": 1.62861,
    "l": 1.62678,
    "c": 1.62712,
    "v": 1842
  },
  {
    "dt": "2022.07.27 08:00",
    "o": 1.6271,
    "h": 1.62759,
    "l": 1.62624,
    "c": 1.62648,
    "v": 1946
  },
  {
    "dt": "2022.07.27 09:00",
    "o": 1.62654,
    "h": 1.62749,
    "l": 1.62564,
    "c": 1.62708,
    "v": 3399
  },
  {
    "dt": "2022.07.27 10:00",
    "o": 1.62714,
    "h": 1.62968,
    "l": 1.62714,
    "c": 1.62786,
    "v": 4114
  },
  {
    "dt": "2022.07.27 11:00",
    "o": 1.62788,
    "h": 1.62819,
    "l": 1.62544,
    "c": 1.62742,
    "v": 3712
  },
  {
    "dt": "2022.07.27 12:00",
    "o": 1.62738,
    "h": 1.62742,
    "l": 1.62508,
    "c": 1.62568,
    "v": 3330
  },
  {
    "dt": "2022.07.27 13:00",
    "o": 1.62568,
    "h": 1.62894,
    "l": 1.62498,
    "c": 1.62884,
    "v": 3164
  },
  {
    "dt": "2022.07.27 14:00",
    "o": 1.62888,
    "h": 1.63153,
    "l": 1.62856,
    "c": 1.62993,
    "v": 3573
  },
  {
    "dt": "2022.07.27 15:00",
    "o": 1.62999,
    "h": 1.63191,
    "l": 1.62959,
    "c": 1.63072,
    "v": 3915
  },
  {
    "dt": "2022.07.27 16:00",
    "o": 1.63073,
    "h": 1.6331,
    "l": 1.63022,
    "c": 1.63144,
    "v": 4148
  },
  {
    "dt": "2022.07.27 17:00",
    "o": 1.63147,
    "h": 1.63213,
    "l": 1.62965,
    "c": 1.63118,
    "v": 4245
  },
  {
    "dt": "2022.07.27 18:00",
    "o": 1.63118,
    "h": 1.63288,
    "l": 1.63038,
    "c": 1.63041,
    "v": 3545
  },
  {
    "dt": "2022.07.27 19:00",
    "o": 1.63038,
    "h": 1.63151,
    "l": 1.6295,
    "c": 1.63117,
    "v": 2563
  },
  {
    "dt": "2022.07.27 20:00",
    "o": 1.63117,
    "h": 1.63322,
    "l": 1.6308,
    "c": 1.63237,
    "v": 2523
  },
  {
    "dt": "2022.07.27 21:00",
    "o": 1.6325,
    "h": 1.63373,
    "l": 1.62794,
    "c": 1.62846,
    "v": 5828
  },
  {
    "dt": "2022.07.27 22:00",
    "o": 1.62828,
    "h": 1.62981,
    "l": 1.62759,
    "c": 1.62974,
    "v": 4466
  },
  {
    "dt": "2022.07.27 23:00",
    "o": 1.62969,
    "h": 1.63029,
    "l": 1.62718,
    "c": 1.62791,
    "v": 1818
  },
  {
    "dt": "2022.07.28 00:00",
    "o": 1.62946,
    "h": 1.63026,
    "l": 1.62646,
    "c": 1.62806,
    "v": 385
  },
  {
    "dt": "2022.07.28 01:00",
    "o": 1.62811,
    "h": 1.62854,
    "l": 1.62646,
    "c": 1.62854,
    "v": 1179
  },
  {
    "dt": "2022.07.28 02:00",
    "o": 1.62852,
    "h": 1.63045,
    "l": 1.62777,
    "c": 1.63026,
    "v": 2009
  },
  {
    "dt": "2022.07.28 03:00",
    "o": 1.63021,
    "h": 1.63128,
    "l": 1.627,
    "c": 1.62756,
    "v": 2957
  },
  {
    "dt": "2022.07.28 04:00",
    "o": 1.62755,
    "h": 1.629,
    "l": 1.6263,
    "c": 1.62812,
    "v": 3978
  },
  {
    "dt": "2022.07.28 05:00",
    "o": 1.62818,
    "h": 1.63009,
    "l": 1.62818,
    "c": 1.629,
    "v": 2788
  },
  {
    "dt": "2022.07.28 06:00",
    "o": 1.629,
    "h": 1.62949,
    "l": 1.62728,
    "c": 1.62728,
    "v": 2421
  },
  {
    "dt": "2022.07.28 07:00",
    "o": 1.62728,
    "h": 1.62905,
    "l": 1.62667,
    "c": 1.62739,
    "v": 2086
  },
  {
    "dt": "2022.07.28 08:00",
    "o": 1.62736,
    "h": 1.62878,
    "l": 1.6268,
    "c": 1.62838,
    "v": 2077
  },
  {
    "dt": "2022.07.28 09:00",
    "o": 1.62828,
    "h": 1.62849,
    "l": 1.62479,
    "c": 1.6262,
    "v": 3904
  },
  {
    "dt": "2022.07.28 10:00",
    "o": 1.62611,
    "h": 1.62658,
    "l": 1.6225,
    "c": 1.62425,
    "v": 4735
  },
  {
    "dt": "2022.07.28 11:00",
    "o": 1.62431,
    "h": 1.62466,
    "l": 1.6219,
    "c": 1.6241,
    "v": 4311
  },
  {
    "dt": "2022.07.28 12:00",
    "o": 1.6238,
    "h": 1.62383,
    "l": 1.61798,
    "c": 1.61803,
    "v": 4050
  },
  {
    "dt": "2022.07.28 13:00",
    "o": 1.61807,
    "h": 1.61965,
    "l": 1.61518,
    "c": 1.6166,
    "v": 4109
  },
  {
    "dt": "2022.07.28 14:00",
    "o": 1.61657,
    "h": 1.61781,
    "l": 1.61321,
    "c": 1.6135,
    "v": 3694
  },
  {
    "dt": "2022.07.28 15:00",
    "o": 1.61353,
    "h": 1.62002,
    "l": 1.61348,
    "c": 1.61735,
    "v": 4954
  },
  {
    "dt": "2022.07.28 16:00",
    "o": 1.61735,
    "h": 1.61863,
    "l": 1.61576,
    "c": 1.61762,
    "v": 5356
  },
  {
    "dt": "2022.07.28 17:00",
    "o": 1.61771,
    "h": 1.62271,
    "l": 1.61705,
    "c": 1.61845,
    "v": 5328
  },
  {
    "dt": "2022.07.28 18:00",
    "o": 1.6185,
    "h": 1.62049,
    "l": 1.61788,
    "c": 1.61898,
    "v": 4211
  },
  {
    "dt": "2022.07.28 19:00",
    "o": 1.61888,
    "h": 1.62043,
    "l": 1.61861,
    "c": 1.62015,
    "v": 3413
  },
  {
    "dt": "2022.07.28 20:00",
    "o": 1.62018,
    "h": 1.62099,
    "l": 1.61839,
    "c": 1.61932,
    "v": 2428
  },
  {
    "dt": "2022.07.28 21:00",
    "o": 1.61935,
    "h": 1.62058,
    "l": 1.61909,
    "c": 1.62002,
    "v": 2518
  },
  {
    "dt": "2022.07.28 22:00",
    "o": 1.61958,
    "h": 1.62045,
    "l": 1.61913,
    "c": 1.62028,
    "v": 2165
  },
  {
    "dt": "2022.07.28 23:00",
    "o": 1.62023,
    "h": 1.62048,
    "l": 1.61903,
    "c": 1.62017,
    "v": 1731
  },
  {
    "dt": "2022.07.29 00:00",
    "o": 1.62,
    "h": 1.6248,
    "l": 1.61929,
    "c": 1.61974,
    "v": 492
  },
  {
    "dt": "2022.07.29 01:00",
    "o": 1.61972,
    "h": 1.62137,
    "l": 1.61917,
    "c": 1.61937,
    "v": 1311
  },
  {
    "dt": "2022.07.29 02:00",
    "o": 1.61937,
    "h": 1.61956,
    "l": 1.61817,
    "c": 1.61918,
    "v": 1614
  },
  {
    "dt": "2022.07.29 03:00",
    "o": 1.61921,
    "h": 1.62117,
    "l": 1.61771,
    "c": 1.62044,
    "v": 2981
  },
  {
    "dt": "2022.07.29 04:00",
    "o": 1.62038,
    "h": 1.6214,
    "l": 1.61951,
    "c": 1.61969,
    "v": 2957
  },
  {
    "dt": "2022.07.29 05:00",
    "o": 1.61969,
    "h": 1.62025,
    "l": 1.61815,
    "c": 1.61818,
    "v": 2694
  },
  {
    "dt": "2022.07.29 06:00",
    "o": 1.61819,
    "h": 1.61855,
    "l": 1.61668,
    "c": 1.61808,
    "v": 3323
  },
  {
    "dt": "2022.07.29 07:00",
    "o": 1.61808,
    "h": 1.61905,
    "l": 1.6166,
    "c": 1.61848,
    "v": 2588
  },
  {
    "dt": "2022.07.29 08:00",
    "o": 1.6185,
    "h": 1.61908,
    "l": 1.61658,
    "c": 1.61698,
    "v": 3247
  },
  {
    "dt": "2022.07.29 09:00",
    "o": 1.61697,
    "h": 1.62038,
    "l": 1.61692,
    "c": 1.61928,
    "v": 4355
  },
  {
    "dt": "2022.07.29 10:00",
    "o": 1.61932,
    "h": 1.62118,
    "l": 1.61835,
    "c": 1.62016,
    "v": 4662
  },
  {
    "dt": "2022.07.29 11:00",
    "o": 1.62014,
    "h": 1.62288,
    "l": 1.61951,
    "c": 1.62165,
    "v": 4096
  },
  {
    "dt": "2022.07.29 12:00",
    "o": 1.62162,
    "h": 1.62308,
    "l": 1.6196,
    "c": 1.6215,
    "v": 3801
  },
  {
    "dt": "2022.07.29 13:00",
    "o": 1.62149,
    "h": 1.62768,
    "l": 1.62101,
    "c": 1.62728,
    "v": 3570
  },
  {
    "dt": "2022.07.29 14:00",
    "o": 1.62728,
    "h": 1.62879,
    "l": 1.62508,
    "c": 1.62713,
    "v": 3713
  },
  {
    "dt": "2022.07.29 15:00",
    "o": 1.62716,
    "h": 1.62931,
    "l": 1.62667,
    "c": 1.62778,
    "v": 4768
  },
  {
    "dt": "2022.07.29 16:00",
    "o": 1.62782,
    "h": 1.63184,
    "l": 1.62718,
    "c": 1.63163,
    "v": 4984
  },
  {
    "dt": "2022.07.29 17:00",
    "o": 1.63158,
    "h": 1.63232,
    "l": 1.62495,
    "c": 1.6257,
    "v": 5451
  },
  {
    "dt": "2022.07.29 18:00",
    "o": 1.62549,
    "h": 1.62853,
    "l": 1.62469,
    "c": 1.62496,
    "v": 4345
  },
  {
    "dt": "2022.07.29 19:00",
    "o": 1.62494,
    "h": 1.62692,
    "l": 1.62434,
    "c": 1.62586,
    "v": 3168
  },
  {
    "dt": "2022.07.29 20:00",
    "o": 1.62586,
    "h": 1.62829,
    "l": 1.62581,
    "c": 1.62758,
    "v": 2412
  },
  {
    "dt": "2022.07.29 21:00",
    "o": 1.62758,
    "h": 1.62785,
    "l": 1.62308,
    "c": 1.62319,
    "v": 2483
  },
  {
    "dt": "2022.07.29 22:00",
    "o": 1.62322,
    "h": 1.62511,
    "l": 1.62321,
    "c": 1.62488,
    "v": 2153
  },
  {
    "dt": "2022.07.29 23:00",
    "o": 1.62488,
    "h": 1.62548,
    "l": 1.62388,
    "c": 1.62441,
    "v": 1256
  }
]