[
  {
    "dt": "2023.10.02 00:00",
    "o": 182.467,
    "h": 182.48,
    "l": 182.289,
    "c": 182.289,
    "v": 612
  },
  {
    "dt": "2023.10.02 01:00",
    "o": 182.258,
    "h": 182.417,
    "l": 182.087,
    "c": 182.258,
    "v": 1978
  },
  {
    "dt": "2023.10.02 02:00",
    "o": 182.228,
    "h": 182.381,
    "l": 182.22,
    "c": 182.307,
    "v": 1588
  },
  {
    "dt": "2023.10.02 03:00",
    "o": 182.308,
    "h": 182.519,
    "l": 182.186,
    "c": 182.424,
    "v": 5016
  },
  {
    "dt": "2023.10.02 04:00",
    "o": 182.427,
    "h": 182.567,
    "l": 182.4,
    "c": 182.524,
    "v": 4444
  },
  {
    "dt": "2023.10.02 05:00",
    "o": 182.524,
    "h": 182.621,
    "l": 182.507,
    "c": 182.538,
    "v": 4400
  },
  {
    "dt": "2023.10.02 06:00",
    "o": 182.539,
    "h": 182.588,
    "l": 182.49,
    "c": 182.576,
    "v": 3401
  },
  {
    "dt": "2023.10.02 07:00",
    "o": 182.577,
    "h": 182.621,
    "l": 182.453,
    "c": 182.453,
    "v": 4575
  },
  {
    "dt": "2023.10.02 08:00",
    "o": 182.452,
    "h": 182.524,
    "l": 182.187,
    "c": 182.239,
    "v": 4623
  },
  {
    "dt": "2023.10.02 09:00",
    "o": 182.247,
    "h": 182.743,
    "l": 182.246,
    "c": 182.72,
    "v": 5176
  },
  {
    "dt": "2023.10.02 10:00",
    "o": 182.717,
    "h": 182.807,
    "l": 182.519,
    "c": 182.594,
    "v": 5843
  },
  {
    "dt": "2023.10.02 11:00",
    "o": 182.589,
    "h": 182.625,
    "l": 182.403,
    "c": 182.464,
    "v": 6038
  },
  {
    "dt": "2023.10.02 12:00",
    "o": 182.464,
    "h": 182.47,
    "l": 182.052,
    "c": 182.119,
    "v": 4766
  },
  {
    "dt": "2023.10.02 13:00",
    "o": 182.119,
    "h": 182.139,
    "l": 181.921,
    "c": 182.008,
    "v": 5292
  },
  {
    "dt": "2023.10.02 14:00",
    "o": 182.01,
    "h": 182.106,
    "l": 181.862,
    "c": 181.956,
    "v": 4758
  },
  {
    "dt": "2023.10.02 15:00",
    "o": 181.958,
    "h": 182.214,
    "l": 181.931,
    "c": 182.013,
    "v": 5854
  },
  {
    "dt": "2023.10.02 16:00",
    "o": 182.014,
    "h": 182.022,
    "l": 181.756,
    "c": 181.772,
    "v": 6279
  },
  {
    "dt": "2023.10.02 17:00",
    "o": 181.737,
    "h": 181.96,
    "l": 181.517,
    "c": 181.605,
    "v": 8415
  },
  {
    "dt": "2023.10.02 18:00",
    "o": 181.603,
    "h": 181.909,
    "l": 181.603,
    "c": 181.667,
    "v": 6533
  },
  {
    "dt": "2023.10.02 19:00",
    "o": 181.666,
    "h": 181.68,
    "l": 181.389,
    "c": 181.396,
    "v": 5053
  },
  {
    "dt": "2023.10.02 20:00",
    "o": 181.394,
    "h": 181.599,
    "l": 181.378,
    "c": 181.413,
    "v": 5086
  },
  {
    "dt": "2023.10.02 21:00",
    "o": 181.411,
    "h": 181.47,
    "l": 181.265,
    "c": 181.272,
    "v": 4957
  },
  {
    "dt": "2023.10.02 22:00",
    "o": 181.269,
    "h": 181.286,
    "l": 181.123,
    "c": 181.133,
    "v": 4901
  },
  {
    "dt": "2023.10.02 23:00",
    "o": 181.131,
    "h": 181.201,
    "l": 181.112,
    "c": 181.132,
    "v": 2656
  },
  {
    "dt": "2023.10.03 00:00",
    "o": 181.141,
    "h": 181.141,
    "l": 180.993,
    "c": 181.107,
    "v": 526
  },
  {
    "dt": "2023.10.03 01:00",
    "o": 181.107,
    "h": 181.163,
    "l": 181.088,
    "c": 181.102,
    "v": 1928
  },
  {
    "dt": "2023.10.03 02:00",
    "o": 181.104,
    "h": 181.197,
    "l": 181.081,
    "c": 181.174,
    "v": 2099
  },
  {
    "dt": "2023.10.03 03:00",
    "o": 181.172,
    "h": 181.178,
    "l": 180.951,
    "c": 181.134,
    "v": 4823
  },
  {
    "dt": "2023.10.03 04:00",
    "o": 181.137,
    "h": 181.144,
    "l": 180.967,
    "c": 180.996,
    "v": 4572
  },
  {
    "dt": "2023.10.03 05:00",
    "o": 181.003,
    "h": 181.014,
    "l": 180.889,
    "c": 180.919,
    "v": 5161
  },
  {
    "dt": "2023.10.03 06:00",
    "o": 180.922,
    "h": 181.052,
    "l": 180.893,
    "c": 180.986,
    "v": 4202
  },
  {
    "dt": "2023.10.03 07:00",
    "o": 180.988,
    "h": 180.992,
    "l": 180.767,
    "c": 180.806,
    "v": 3428
  },
  {
    "dt": "2023.10.03 08:00",
    "o": 180.805,
    "h": 180.897,
    "l": 180.779,
    "c": 180.839,
    "v": 4809
  },
  {
    "dt": "2023.10.03 09:00",
    "o": 180.839,
    "h": 180.988,
    "l": 180.762,
    "c": 180.945,
    "v": 5131
  },
  {
    "dt": "2023.10.03 10:00",
    "o": 180.943,
    "h": 181.034,
    "l": 180.58,
    "c": 180.984,
    "v": 6131
  },
  {
    "dt": "2023.10.03 11:00",
    "o": 180.984,
    "h": 181.19,
    "l": 180.954,
    "c": 181.071,
    "v": 5511
  },
  {
    "dt": "2023.10.03 12:00",
    "o": 181.075,
    "h": 181.149,
    "l": 180.986,
    "c": 181.038,
    "v": 4638
  },
  {
    "dt": "2023.10.03 13:00",
    "o": 181.037,
    "h": 181.061,
    "l": 180.66,
    "c": 180.695,
    "v": 4946
  },
  {
    "dt": "2023.10.03 14:00",
    "o": 180.695,
    "h": 181.033,
    "l": 180.658,
    "c": 180.943,
    "v": 5507
  },
  {
    "dt": "2023.10.03 15:00",
    "o": 180.941,
    "h": 181.079,
    "l": 180.877,
    "c": 180.994,
    "v": 6444
  },
  {
    "dt": "2023.10.03 16:00",
    "o": 180.995,
    "h": 181.364,
    "l": 180.954,
    "c": 181.318,
    "v": 6972
  },
  {
    "dt": "2023.10.03 17:00",
    "o": 181.316,
    "h": 181.316,
    "l": 178.041,
    "c": 180.023,
    "v": 10111
  },
  {
    "dt": "2023.10.03 18:00",
    "o": 180.026,
    "h": 180.142,
    "l": 179.897,
    "c": 179.976,
    "v": 7579
  },
  {
    "dt": "2023.10.03 19:00",
    "o": 179.971,
    "h": 180.183,
    "l": 179.888,
    "c": 180.027,
    "v": 5969
  },
  {
    "dt": "2023.10.03 20:00",
    "o": 180.028,
    "h": 180.13,
    "l": 179.959,
    "c": 180.009,
    "v": 4858
  },
  {
    "dt": "2023.10.03 21:00",
    "o": 180.011,
    "h": 180.045,
    "l": 179.821,
    "c": 179.91,
    "v": 4357
  },
  {
    "dt": "2023.10.03 22:00",
    "o": 179.906,
    "h": 180.023,
    "l": 179.621,
    "c": 179.67,
    "v": 4933
  },
  {
    "dt": "2023.10.03 23:00",
    "o": 179.669,
    "h": 180.047,
    "l": 179.653,
    "c": 179.988,
    "v": 3336
  },
  {
    "dt": "2023.10.04 00:00",
    "o": 179.871,
    "h": 180.063,
    "l": 179.833,
    "c": 179.993,
    "v": 1234
  },
  {
    "dt": "2023.10.04 01:00",
    "o": 179.96,
    "h": 180.077,
    "l": 179.9,
    "c": 180.01,
    "v": 2454
  },
  {
    "dt": "2023.10.04 02:00",
    "o": 180.037,
    "h": 180.186,
    "l": 179.971,
    "c": 180.158,
    "v": 1987
  },
  {
    "dt": "2023.10.04 03:00",
    "o": 180.159,
    "h": 180.271,
    "l": 180.086,
    "c": 180.22,
    "v": 5418
  },
  {
    "dt": "2023.10.04 04:00",
    "o": 180.218,
    "h": 180.225,
    "l": 179.925,
    "c": 180.106,
    "v": 5998
  },
  {
    "dt": "2023.10.04 05:00",
    "o": 180.106,
    "h": 180.184,
    "l": 180.017,
    "c": 180.174,
    "v": 4338
  },
  {
    "dt": "2023.10.04 06:00",
    "o": 180.172,
    "h": 180.208,
    "l": 180.011,
    "c": 180.058,
    "v": 3186
  },
  {
    "dt": "2023.10.04 07:00",
    "o": 180.057,
    "h": 180.247,
    "l": 179.987,
    "c": 180.202,
    "v": 3902
  },
  {
    "dt": "2023.10.04 08:00",
    "o": 180.206,
    "h": 180.307,
    "l": 180.156,
    "c": 180.199,
    "v": 3427
  },
  {
    "dt": "2023.10.04 09:00",
    "o": 180.2,
    "h": 180.211,
    "l": 179.803,
    "c": 179.836,
    "v": 4999
  },
  {
    "dt": "2023.10.04 10:00",
    "o": 179.836,
    "h": 179.881,
    "l": 179.556,
    "c": 179.849,
    "v": 6856
  },
  {
    "dt": "2023.10.04 11:00",
    "o": 179.848,
    "h": 180.477,
    "l": 179.841,
    "c": 180.467,
    "v": 5336
  },
  {
    "dt": "2023.10.04 12:00",
    "o": 180.466,
    "h": 180.984,
    "l": 180.456,
    "c": 180.861,
    "v": 5608
  },
  {
    "dt": "2023.10.04 13:00",
    "o": 180.865,
    "h": 181.004,
    "l": 180.653,
    "c": 180.663,
    "v": 4897
  },
  {
    "dt": "2023.10.04 14:00",
    "o": 180.663,
    "h": 180.76,
    "l": 180.528,
    "c": 180.579,
    "v": 5454
  },
  {
    "dt": "2023.10.04 15:00",
    "o": 180.576,
    "h": 181.245,
    "l": 180.562,
    "c": 181.166,
    "v": 8228
  },
  {
    "dt": "2023.10.04 16:00",
    "o": 181.165,
    "h": 181.23,
    "l": 180.874,
    "c": 180.933,
    "v": 6629
  },
  {
    "dt": "2023.10.04 17:00",
    "o": 180.972,
    "h": 180.991,
    "l": 180.402,
    "c": 180.461,
    "v": 8398
  },
  {
    "dt": "2023.10.04 18:00",
    "o": 180.462,
    "h": 180.915,
    "l": 180.403,
    "c": 180.888,
    "v": 6673
  },
  {
    "dt": "2023.10.04 19:00",
    "o": 180.887,
    "h": 181.073,
    "l": 180.855,
    "c": 180.908,
    "v": 5005
  },
  {
    "dt": "2023.10.04 20:00",
    "o": 180.909,
    "h": 180.949,
    "l": 180.794,
    "c": 180.907,
    "v": 4550
  },
  {
    "dt": "2023.10.04 21:00",
    "o": 180.901,
    "h": 181.003,
    "l": 180.838,
    "c": 180.887,
    "v": 5441
  },
  {
    "dt": "2023.10.04 22:00",
    "o": 180.887,
    "h": 181.124,
    "l": 180.887,
    "c": 181.101,
    "v": 4717
  },
  {
    "dt": "2023.10.04 23:00",
    "o": 181.097,
    "h": 181.097,
    "l": 180.953,
    "c": 180.96,
    "v": 3234
  },
  {
    "dt": "2023.10.05 00:00",
    "o": 180.885,
    "h": 180.927,
    "l": 180.8,
    "c": 180.858,
    "v": 986
  },
  {
    "dt": "2023.10.05 01:00",
    "o": 180.838,
    "h": 180.899,
    "l": 180.769,
    "c": 180.85,
    "v": 1834
  },
  {
    "dt": "2023.10.05 02:00",
    "o": 180.838,
    "h": 180.841,
    "l": 180.76,
    "c": 180.808,
    "v": 1120
  },
  {
    "dt": "2023.10.05 03:00",
    "o": 180.807,
    "h": 180.817,
    "l": 180.391,
    "c": 180.47,
    "v": 5597
  },
  {
    "dt": "2023.10.05 04:00",
    "o": 180.47,
    "h": 180.563,
    "l": 180.279,
    "c": 180.355,
    "v": 6105
  },
  {
    "dt": "2023.10.05 05:00",
    "o": 180.356,
    "h": 180.558,
    "l": 180.333,
    "c": 180.485,
    "v": 4337
  },
  {
    "dt": "2023.10.05 06:00",
    "o": 180.491,
    "h": 180.654,
    "l": 180.419,
    "c": 180.578,
    "v": 4182
  },
  {
    "dt": "2023.10.05 07:00",
    "o": 180.578,
    "h": 180.608,
    "l": 180.465,
    "c": 180.57,
    "v": 3465
  },
  {
    "dt": "2023.10.05 08:00",
    "o": 180.571,
    "h": 180.669,
    "l": 180.524,
    "c": 180.594,
    "v": 3609
  },
  {
    "dt": "2023.10.05 09:00",
    "o": 180.591,
    "h": 180.737,
    "l": 180.545,
    "c": 180.653,
    "v": 4924
  },
  {
    "dt": "2023.10.05 10:00",
    "o": 180.662,
    "h": 180.923,
    "l": 180.579,
    "c": 180.812,
    "v": 6610
  },
  {
    "dt": "2023.10.05 11:00",
    "o": 180.812,
    "h": 180.927,
    "l": 180.512,
    "c": 180.621,
    "v": 6267
  },
  {
    "dt": "2023.10.05 12:00",
    "o": 180.628,
    "h": 180.695,
    "l": 180.448,
    "c": 180.579,
    "v": 5480
  },
  {
    "dt": "2023.10.05 13:00",
    "o": 180.58,
    "h": 180.747,
    "l": 180.435,
    "c": 180.669,
    "v": 5219
  },
  {
    "dt": "2023.10.05 14:00",
    "o": 180.669,
    "h": 180.871,
    "l": 180.532,
    "c": 180.798,
    "v": 5738
  },
  {
    "dt": "2023.10.05 15:00",
    "o": 180.798,
    "h": 180.94,
    "l": 180.472,
    "c": 180.653,
    "v": 7945
  },
  {
    "dt": "2023.10.05 16:00",
    "o": 180.653,
    "h": 180.793,
    "l": 180.546,
    "c": 180.587,
    "v": 8352
  },
  {
    "dt": "2023.10.05 17:00",
    "o": 180.588,
    "h": 180.793,
    "l": 180.463,
    "c": 180.696,
    "v": 7598
  },
  {
    "dt": "2023.10.05 18:00",
    "o": 180.698,
    "h": 180.76,
    "l": 180.611,
    "c": 180.685,
    "v": 6799
  },
  {
    "dt": "2023.10.05 19:00",
    "o": 180.686,
    "h": 180.841,
    "l": 180.586,
    "c": 180.746,
    "v": 5735
  },
  {
    "dt": "2023.10.05 20:00",
    "o": 180.748,
    "h": 180.821,
    "l": 180.581,
    "c": 180.808,
    "v": 4723
  },
  {
    "dt": "2023.10.05 21:00",
    "o": 180.816,
    "h": 180.972,
    "l": 180.799,
    "c": 180.937,
    "v": 4581
  },
  {
    "dt": "2023.10.05 22:00",
    "o": 180.936,
    "h": 181.021,
    "l": 180.923,
    "c": 181.005,
    "v": 3689
  },
  {
    "dt": "2023.10.05 23:00",
    "o": 181.007,
    "h": 181.068,
    "l": 180.98,
    "c": 181.051,
    "v": 2481
  },
  {
    "dt": "2023.10.06 00:00",
    "o": 180.857,
    "h": 181.036,
    "l": 180.857,
    "c": 181.026,
    "v": 764
  },
  {
    "dt": "2023.10.06 01:00",
    "o": 181.005,
    "h": 181.027,
    "l": 180.931,
    "c": 180.946,
    "v": 1352
  },
  {
    "dt": "2023.10.06 02:00",
    "o": 180.95,
    "h": 181.0,
    "l": 180.84,
    "c": 180.933,
    "v": 1097
  },
  {
    "dt": "2023.10.06 03:00",
    "o": 180.931,
    "h": 181.094,
    "l": 180.931,
    "c": 181.049,
    "v": 5157
  },
  {
    "dt": "2023.10.06 04:00",
    "o": 181.049,
    "h": 181.088,
    "l": 180.832,
    "c": 180.9,
    "v": 4371
  },
  {
    "dt": "2023.10.06 05:00",
    "o": 180.903,
    "h": 181.157,
    "l": 180.865,
    "c": 181.08,
    "v": 4942
  },
  {
    "dt": "2023.10.06 06:00",
    "o": 181.076,
    "h": 181.119,
    "l": 181.009,
    "c": 181.107,
    "v": 4769
  },
  {
    "dt": "2023.10.06 07:00",
    "o": 181.107,
    "h": 181.178,
    "l": 181.073,
    "c": 181.127,
    "v": 3757
  },
  {
    "dt": "2023.10.06 08:00",
    "o": 181.124,
    "h": 181.197,
    "l": 181.113,
    "c": 181.142,
    "v": 3850
  },
  {
    "dt": "2023.10.06 09:00",
    "o": 181.143,
    "h": 181.282,
    "l": 181.127,
    "c": 181.263,
    "v": 5446
  },
  {
    "dt": "2023.10.06 10:00",
    "o": 181.258,
    "h": 181.722,
    "l": 181.22,
    "c": 181.689,
    "v": 5792
  },
  {
    "dt": "2023.10.06 11:00",
    "o": 181.689,
    "h": 181.713,
    "l": 181.559,
    "c": 181.638,
    "v": 5525
  },
  {
    "dt": "2023.10.06 12:00",
    "o": 181.638,
    "h": 181.9,
    "l": 181.573,
    "c": 181.863,
    "v": 5537
  },
  {
    "dt": "2023.10.06 13:00",
    "o": 181.862,
    "h": 182.067,
    "l": 181.86,
    "c": 181.999,
    "v": 5181
  },
  {
    "dt": "2023.10.06 14:00",
    "o": 181.999,
    "h": 182.03,
    "l": 181.805,
    "c": 182.01,
    "v": 5032
  },
  {
    "dt": "2023.10.06 15:00",
    "o": 182.011,
    "h": 182.066,
    "l": 180.944,
    "c": 181.122,
    "v": 8777
  },
  {
    "dt": "2023.10.06 16:00",
    "o": 181.108,
    "h": 181.676,
    "l": 181.055,
    "c": 181.509,
    "v": 10039
  },
  {
    "dt": "2023.10.06 17:00",
    "o": 181.512,
    "h": 182.21,
    "l": 181.43,
    "c": 182.046,
    "v": 9240
  },
  {
    "dt": "2023.10.06 18:00",
    "o": 182.045,
    "h": 182.75,
    "l": 182.02,
    "c": 182.668,
    "v": 8323
  },
  {
    "dt": "2023.10.06 19:00",
    "o": 182.656,
    "h": 182.705,
    "l": 182.526,
    "c": 182.631,
    "v": 6248
  },
  {
    "dt": "2023.10.06 20:00",
    "o": 182.633,
    "h": 182.793,
    "l": 182.625,
    "c": 182.769,
    "v": 3712
  },
  {
    "dt": "2023.10.06 21:00",
    "o": 182.77,
    "h": 182.966,
    "l": 182.751,
    "c": 182.87,
    "v": 4207
  },
  {
    "dt": "2023.10.06 22:00",
    "o": 182.868,
    "h": 182.925,
    "l": 182.784,
    "c": 182.804,
    "v": 4223
  },
  {
    "dt": "2023.10.06 23:00",
    "o": 182.801,
    "h": 182.803,
    "l": 182.574,
    "c": 182.629,
    "v": 1996
  },
  {
    "dt": "2023.10.09 00:00",
    "o": 181.923,
    "h": 181.969,
    "l": 181.871,
    "c": 181.913,
    "v": 588
  },
  {
    "dt": "2023.10.09 01:00",
    "o": 181.854,
    "h": 182.236,
    "l": 181.831,
    "c": 182.226,
    "v": 4461
  },
  {
    "dt": "2023.10.09 02:00",
    "o": 182.155,
    "h": 182.291,
    "l": 182.144,
    "c": 182.242,
    "v": 2548
  },
  {
    "dt": "2023.10.09 03:00",
    "o": 182.245,
    "h": 182.306,
    "l": 182.176,
    "c": 182.231,
    "v": 4878
  },
  {
    "dt": "2023.10.09 04:00",
    "o": 182.206,
    "h": 182.223,
    "l": 182.079,
    "c": 182.155,
    "v": 4632
  },
  {
    "dt": "2023.10.09 05:00",
    "o": 182.153,
    "h": 182.172,
    "l": 182.063,
    "c": 182.096,
    "v": 4305
  },
  {
    "dt": "2023.10.09 06:00",
    "o": 182.101,
    "h": 182.116,
    "l": 181.929,
    "c": 181.933,
    "v": 3644
  },
  {
    "dt": "2023.10.09 07:00",
    "o": 181.933,
    "h": 181.955,
    "l": 181.888,
    "c": 181.921,
    "v": 4401
  },
  {
    "dt": "2023.10.09 08:00",
    "o": 181.926,
    "h": 182.067,
    "l": 181.916,
    "c": 182.047,
    "v": 5217
  },
  {
    "dt": "2023.10.09 09:00",
    "o": 182.055,
    "h": 182.194,
    "l": 181.648,
    "c": 181.694,
    "v": 5317
  },
  {
    "dt": "2023.10.09 10:00",
    "o": 181.695,
    "h": 181.794,
    "l": 181.506,
    "c": 181.531,
    "v": 6259
  },
  {
    "dt": "2023.10.09 11:00",
    "o": 181.532,
    "h": 181.705,
    "l": 181.427,
    "c": 181.61,
    "v": 5109
  },
  {
    "dt": "2023.10.09 12:00",
    "o": 181.611,
    "h": 181.764,
    "l": 181.571,
    "c": 181.735,
    "v": 4331
  },
  {
    "dt": "2023.10.09 13:00",
    "o": 181.737,
    "h": 181.747,
    "l": 181.424,
    "c": 181.514,
    "v": 4784
  },
  {
    "dt": "2023.10.09 14:00",
    "o": 181.517,
    "h": 181.654,
    "l": 181.438,
    "c": 181.495,
    "v": 3947
  },
  {
    "dt": "2023.10.09 15:00",
    "o": 181.494,
    "h": 181.626,
    "l": 181.42,
    "c": 181.604,
    "v": 5481
  },
  {
    "dt": "2023.10.09 16:00",
    "o": 181.604,
    "h": 181.902,
    "l": 181.602,
    "c": 181.793,
    "v": 7098
  },
  {
    "dt": "2023.10.09 17:00",
    "o": 181.794,
    "h": 181.849,
    "l": 181.244,
    "c": 181.368,
    "v": 6634
  },
  {
    "dt": "2023.10.09 18:00",
    "o": 181.367,
    "h": 181.621,
    "l": 181.341,
    "c": 181.466,
    "v": 5676
  },
  {
    "dt": "2023.10.09 19:00",
    "o": 181.461,
    "h": 181.567,
    "l": 181.378,
    "c": 181.391,
    "v": 3944
  },
  {
    "dt": "2023.10.09 20:00",
    "o": 181.392,
    "h": 181.676,
    "l": 181.392,
    "c": 181.676,
    "v": 3584
  },
  {
    "dt": "2023.10.09 21:00",
    "o": 181.679,
    "h": 181.845,
    "l": 181.605,
    "c": 181.613,
    "v": 3627
  },
  {
    "dt": "2023.10.09 22:00",
    "o": 181.616,
    "h": 181.797,
    "l": 181.608,
    "c": 181.72,
    "v": 3602
  },
  {
    "dt": "2023.10.09 23:00",
    "o": 181.719,
    "h": 181.811,
    "l": 181.695,
    "c": 181.727,
    "v": 1593
  },
  {
    "dt": "2023.10.10 00:00",
    "o": 181.677,
    "h": 181.787,
    "l": 181.656,
    "c": 181.778,
    "v": 1170
  },
  {
    "dt": "2023.10.10 01:00",
    "o": 181.741,
    "h": 181.754,
    "l": 181.589,
    "c": 181.668,
    "v": 1616
  },
  {
    "dt": "2023.10.10 02:00",
    "o": 181.668,
    "h": 181.746,
    "l": 181.628,
    "c": 181.69,
    "v": 1696
  },
  {
    "dt": "2023.10.10 03:00",
    "o": 181.688,
    "h": 182.03,
    "l": 181.54,
    "c": 181.882,
    "v": 6604
  },
  {
    "dt": "2023.10.10 04:00",
    "o": 181.884,
    "h": 181.935,
    "l": 181.733,
    "c": 181.832,
    "v": 5755
  },
  {
    "dt": "2023.10.10 05:00",
    "o": 181.833,
    "h": 181.933,
    "l": 181.813,
    "c": 181.85,
    "v": 3462
  },
  {
    "dt": "2023.10.10 06:00",
    "o": 181.85,
    "h": 181.886,
    "l": 181.745,
    "c": 181.851,
    "v": 3923
  },
  {
    "dt": "2023.10.10 07:00",
    "o": 181.853,
    "h": 181.945,
    "l": 181.827,
    "c": 181.847,
    "v": 3943
  },
  {
    "dt": "2023.10.10 08:00",
    "o": 181.849,
    "h": 181.904,
    "l": 181.78,
    "c": 181.879,
    "v": 4279
  },
  {
    "dt": "2023.10.10 09:00",
    "o": 181.881,
    "h": 182.036,
    "l": 181.549,
    "c": 181.957,
    "v": 6066
  },
  {
    "dt": "2023.10.10 10:00",
    "o": 181.947,
    "h": 182.247,
    "l": 181.9,
    "c": 182.177,
    "v": 6067
  },
  {
    "dt": "2023.10.10 11:00",
    "o": 182.179,
    "h": 182.631,
    "l": 182.133,
    "c": 182.616,
    "v": 7379
  },
  {
    "dt": "2023.10.10 12:00",
    "o": 182.617,
    "h": 182.776,
    "l": 182.419,
    "c": 182.603,
    "v": 6733
  },
  {
    "dt": "2023.10.10 13:00",
    "o": 182.602,
    "h": 182.748,
    "l": 182.536,
    "c": 182.561,
    "v": 4939
  },
  {
    "dt": "2023.10.10 14:00",
    "o": 182.561,
    "h": 182.594,
    "l": 182.377,
    "c": 182.419,
    "v": 5578
  },
  {
    "dt": "2023.10.10 15:00",
    "o": 182.42,
    "h": 182.597,
    "l": 182.336,
    "c": 182.418,
    "v": 7372
  },
  {
    "dt": "2023.10.10 16:00",
    "o": 182.413,
    "h": 182.538,
    "l": 182.366,
    "c": 182.466,
    "v": 7391
  },
  {
    "dt": "2023.10.10 17:00",
    "o": 182.466,
    "h": 182.678,
    "l": 182.343,
    "c": 182.433,
    "v": 6386
  },
  {
    "dt": "2023.10.10 18:00",
    "o": 182.432,
    "h": 182.602,
    "l": 182.386,
    "c": 182.597,
    "v": 5946
  },
  {
    "dt": "2023.10.10 19:00",
    "o": 182.597,
    "h": 182.642,
    "l": 182.525,
    "c": 182.578,
    "v": 5063
  },
  {
    "dt": "2023.10.10 20:00",
    "o": 182.578,
    "h": 182.599,
    "l": 182.314,
    "c": 182.542,
    "v": 5365
  },
  {
    "dt": "2023.10.10 21:00",
    "o": 182.536,
    "h": 182.636,
    "l": 182.459,
    "c": 182.622,
    "v": 4443
  },
  {
    "dt": "2023.10.10 22:00",
    "o": 182.625,
    "h": 182.684,
    "l": 182.547,
    "c": 182.642,
    "v": 3142
  },
  {
    "dt": "2023.10.10 23:00",
    "o": 182.641,
    "h": 182.738,
    "l": 182.62,
    "c": 182.684,
    "v": 1733
  },
  {
    "dt": "2023.10.11 00:00",
    "o": 182.56,
    "h": 182.667,
    "l": 182.511,
    "c": 182.618,
    "v": 1519
  },
  {
    "dt": "2023.10.11 01:00",
    "o": 182.616,
    "h": 182.662,
    "l": 182.578,
    "c": 182.61,
    "v": 782
  },
  {
    "dt": "2023.10.11 02:00",
    "o": 182.595,
    "h": 182.698,
    "l": 182.58,
    "c": 182.641,
    "v": 1452
  },
  {
    "dt": "2023.10.11 03:00",
    "o": 182.637,
    "h": 182.723,
    "l": 182.587,
    "c": 182.718,
    "v": 4978
  },
  {
    "dt": "2023.10.11 04:00",
    "o": 182.718,
    "h": 182.798,
    "l": 182.659,
    "c": 182.78,
    "v": 4945
  },
  {
    "dt": "2023.10.11 05:00",
    "o": 182.779,
    "h": 182.869,
    "l": 182.711,
    "c": 182.857,
    "v": 3681
  },
  {
    "dt": "2023.10.11 06:00",
    "o": 182.862,
    "h": 182.969,
    "l": 182.814,
    "c": 182.926,
    "v": 2854
  },
  {
    "dt": "2023.10.11 07:00",
    "o": 182.922,
    "h": 183.009,
    "l": 182.919,
    "c": 182.994,
    "v": 3169
  },
  {
    "dt": "2023.10.11 08:00",
    "o": 182.995,
    "h": 183.011,
    "l": 182.938,
    "c": 182.962,
    "v": 3757
  },
  {
    "dt": "2023.10.11 09:00",
    "o": 182.962,
    "h": 183.109,
    "l": 182.893,
    "c": 182.928,
    "v": 5752
  },
  {
    "dt": "2023.10.11 10:00",
    "o": 182.926,
    "h": 182.927,
    "l": 182.513,
    "c": 182.618,
    "v": 7576
  },
  {
    "dt": "2023.10.11 11:00",
    "o": 182.61,
    "h": 182.715,
    "l": 182.476,
    "c": 182.559,
    "v": 6854
  },
  {
    "dt": "2023.10.11 12:00",
    "o": 182.557,
    "h": 182.676,
    "l": 182.483,
    "c": 182.637,
    "v": 5429
  },
  {
    "dt": "2023.10.11 13:00",
    "o": 182.637,
    "h": 182.776,
    "l": 182.619,
    "c": 182.776,
    "v": 5095
  },
  {
    "dt": "2023.10.11 14:00",
    "o": 182.776,
    "h": 182.93,
    "l": 182.689,
    "c": 182.903,
    "v": 5568
  },
  {
    "dt": "2023.10.11 15:00",
    "o": 182.902,
    "h": 183.336,
    "l": 182.858,
    "c": 183.293,
    "v": 8158
  },
  {
    "dt": "2023.10.11 16:00",
    "o": 183.287,
    "h": 183.736,
    "l": 183.17,
    "c": 183.666,
    "v": 8102
  },
  {
    "dt": "2023.10.11 17:00",
    "o": 183.667,
    "h": 183.67,
    "l": 183.439,
    "c": 183.608,
    "v": 7012
  },
  {
    "dt": "2023.10.11 18:00",
    "o": 183.606,
    "h": 183.641,
    "l": 183.249,
    "c": 183.29,
    "v": 6661
  },
  {
    "dt": "2023.10.11 19:00",
    "o": 183.29,
    "h": 183.414,
    "l": 183.172,
    "c": 183.389,
    "v": 4930
  },
  {
    "dt": "2023.10.11 20:00",
    "o": 183.394,
    "h": 183.429,
    "l": 183.244,
    "c": 183.304,
    "v": 5426
  },
  {
    "dt": "2023.10.11 21:00",
    "o": 183.306,
    "h": 183.656,
    "l": 183.214,
    "c": 183.643,
    "v": 5519
  },
  {
    "dt": "2023.10.11 22:00",
    "o": 183.643,
    "h": 183.695,
    "l": 183.605,
    "c": 183.638,
    "v": 3626
  },
  {
    "dt": "2023.10.11 23:00",
    "o": 183.639,
    "h": 183.729,
    "l": 183.623,
    "c": 183.662,
    "v": 2758
  },
  {
    "dt": "2023.10.12 00:00",
    "o": 183.592,
    "h": 183.594,
    "l": 183.353,
    "c": 183.522,
    "v": 716
  },
  {
    "dt": "2023.10.12 01:00",
    "o": 183.518,
    "h": 183.604,
    "l": 183.45,
    "c": 183.464,
    "v": 1762
  },
  {
    "dt": "2023.10.12 02:00",
    "o": 183.453,
    "h": 183.602,
    "l": 183.451,
    "c": 183.527,
    "v": 1052
  },
  {
    "dt": "2023.10.12 03:00",
    "o": 183.528,
    "h": 183.683,
    "l": 183.508,
    "c": 183.623,
    "v": 4630
  },
  {
    "dt": "2023.10.12 04:00",
    "o": 183.621,
    "h": 183.693,
    "l": 183.529,
    "c": 183.654,
    "v": 4462
  },
  {
    "dt": "2023.10.12 05:00",
    "o": 183.656,
    "h": 183.798,
    "l": 183.624,
    "c": 183.796,
    "v": 4253
  },
  {
    "dt": "2023.10.12 06:00",
    "o": 183.8,
    "h": 183.806,
    "l": 183.673,
    "c": 183.692,
    "v": 2073
  },
  {
    "dt": "2023.10.12 07:00",
    "o": 183.694,
    "h": 183.757,
    "l": 183.654,
    "c": 183.703,
    "v": 2362
  },
  {
    "dt": "2023.10.12 08:00",
    "o": 183.703,
    "h": 183.76,
    "l": 183.649,
    "c": 183.707,
    "v": 4328
  },
  {
    "dt": "2023.10.12 09:00",
    "o": 183.736,
    "h": 183.773,
    "l": 183.605,
    "c": 183.656,
    "v": 6008
  },
  {
    "dt": "2023.10.12 10:00",
    "o": 183.657,
    "h": 183.664,
    "l": 183.379,
    "c": 183.412,
    "v": 6531
  },
  {
    "dt": "2023.10.12 11:00",
    "o": 183.41,
    "h": 183.524,
    "l": 183.277,
    "c": 183.302,
    "v": 5711
  },
  {
    "dt": "2023.10.12 12:00",
    "o": 183.303,
    "h": 183.434,
    "l": 183.262,
    "c": 183.422,
    "v": 4901
  },
  {
    "dt": "2023.10.12 13:00",
    "o": 183.422,
    "h": 183.497,
    "l": 183.321,
    "c": 183.372,
    "v": 4685
  },
  {
    "dt": "2023.10.12 14:00",
    "o": 183.37,
    "h": 183.64,
    "l": 183.365,
    "c": 183.634,
    "v": 4935
  },
  {
    "dt": "2023.10.12 15:00",
    "o": 183.636,
    "h": 183.641,
    "l": 183.089,
    "c": 183.242,
    "v": 9578
  },
  {
    "dt": "2023.10.12 16:00",
    "o": 183.243,
    "h": 183.317,
    "l": 182.864,
    "c": 182.98,
    "v": 9400
  },
  {
    "dt": "2023.10.12 17:00",
    "o": 182.98,
    "h": 183.265,
    "l": 182.841,
    "c": 182.863,
    "v": 8346
  },
  {
    "dt": "2023.10.12 18:00",
    "o": 182.861,
    "h": 183.021,
    "l": 182.698,
    "c": 182.819,
    "v": 6601
  },
  {
    "dt": "2023.10.12 19:00",
    "o": 182.818,
    "h": 182.981,
    "l": 182.659,
    "c": 182.688,
    "v": 4716
  },
  {
    "dt": "2023.10.12 20:00",
    "o": 182.681,
    "h": 182.697,
    "l": 182.432,
    "c": 182.521,
    "v": 6389
  },
  {
    "dt": "2023.10.12 21:00",
    "o": 182.522,
    "h": 182.542,
    "l": 182.322,
    "c": 182.365,
    "v": 5746
  },
  {
    "dt": "2023.10.12 22:00",
    "o": 182.366,
    "h": 182.442,
    "l": 182.355,
    "c": 182.397,
    "v": 4587
  },
  {
    "dt": "2023.10.12 23:00",
    "o": 182.396,
    "h": 182.412,
    "l": 182.343,
    "c": 182.383,
    "v": 2494
  },
  {
    "dt": "2023.10.13 00:00",
    "o": 182.395,
    "h": 182.461,
    "l": 182.326,
    "c": 182.363,
    "v": 1292
  },
  {
    "dt": "2023.10.13 01:00",
    "o": 182.371,
    "h": 182.412,
    "l": 182.329,
    "c": 182.404,
    "v": 1499
  },
  {
    "dt": "2023.10.13 02:00",
    "o": 182.403,
    "h": 182.483,
    "l": 182.37,
    "c": 182.469,
    "v": 1528
  },
  {
    "dt": "2023.10.13 03:00",
    "o": 182.467,
    "h": 182.588,
    "l": 182.44,
    "c": 182.5,
    "v": 4243
  },
  {
    "dt": "2023.10.13 04:00",
    "o": 182.502,
    "h": 182.709,
    "l": 182.469,
    "c": 182.677,
    "v": 4930
  },
  {
    "dt": "2023.10.13 05:00",
    "o": 182.675,
    "h": 182.814,
    "l": 182.675,
    "c": 182.812,
    "v": 3776
  },
  {
    "dt": "2023.10.13 06:00",
    "o": 182.812,
    "h": 182.816,
    "l": 182.737,
    "c": 182.752,
    "v": 3934
  },
  {
    "dt": "2023.10.13 07:00",
    "o": 182.752,
    "h": 182.755,
    "l": 182.566,
    "c": 182.607,
    "v": 3723
  },
  {
    "dt": "2023.10.13 08:00",
    "o": 182.608,
    "h": 182.747,
    "l": 182.526,
    "c": 182.717,
    "v": 4302
  },
  {
    "dt": "2023.10.13 09:00",
    "o": 182.717,
    "h": 182.717,
    "l": 182.458,
    "c": 182.494,
    "v": 6033
  },
  {
    "dt": "2023.10.13 10:00",
    "o": 182.49,
    "h": 182.934,
    "l": 182.408,
    "c": 182.733,
    "v": 6980
  },
  {
    "dt": "2023.10.13 11:00",
    "o": 182.731,
    "h": 182.899,
    "l": 182.694,
    "c": 182.831,
    "v": 6251
  },
  {
    "dt": "2023.10.13 12:00",
    "o": 182.831,
    "h": 182.863,
    "l": 182.377,
    "c": 182.42,
    "v": 6730
  },
  {
    "dt": "2023.10.13 13:00",
    "o": 182.437,
    "h": 182.437,
    "l": 182.037,
    "c": 182.044,
    "v": 6105
  },
  {
    "dt": "2023.10.13 14:00",
    "o": 182.044,
    "h": 182.297,
    "l": 181.909,
    "c": 182.282,
    "v": 6673
  },
  {
    "dt": "2023.10.13 15:00",
    "o": 182.282,
    "h": 182.361,
    "l": 182.132,
    "c": 182.252,
    "v": 8379
  },
  {
    "dt": "2023.10.13 16:00",
    "o": 182.25,
    "h": 182.27,
    "l": 181.968,
    "c": 182.13,
    "v": 7981
  },
  {
    "dt": "2023.10.13 17:00",
    "o": 182.128,
    "h": 182.128,
    "l": 181.612,
    "c": 181.687,
    "v": 8339
  },
  {
    "dt": "2023.10.13 18:00",
    "o": 181.687,
    "h": 181.72,
    "l": 181.501,
    "c": 181.569,
    "v": 5794
  },
  {
    "dt": "2023.10.13 19:00",
    "o": 181.57,
    "h": 181.676,
    "l": 181.497,
    "c": 181.517,
    "v": 5353
  },
  {
    "dt": "2023.10.13 20:00",
    "o": 181.516,
    "h": 181.525,
    "l": 181.262,
    "c": 181.403,
    "v": 4825
  },
  {
    "dt": "2023.10.13 21:00",
    "o": 181.403,
    "h": 181.513,
    "l": 181.36,
    "c": 181.41,
    "v": 4038
  },
  {
    "dt": "2023.10.13 22:00",
    "o": 181.411,
    "h": 181.515,
    "l": 181.408,
    "c": 181.495,
    "v": 3224
  },
  {
    "dt": "2023.10.13 23:00",
    "o": 181.493,
    "h": 181.613,
    "l": 181.447,
    "c": 181.606,
    "v": 2106
  },
  {
    "dt": "2023.10.16 00:00",
    "o": 181.358,
    "h": 181.624,
    "l": 181.269,
    "c": 181.514,
    "v": 410
  },
  {
    "dt": "2023.10.16 01:00",
    "o": 181.517,
    "h": 181.774,
    "l": 181.517,
    "c": 181.662,
    "v": 2248
  },
  {
    "dt": "2023.10.16 02:00",
    "o": 181.738,
    "h": 181.808,
    "l": 181.717,
    "c": 181.773,
    "v": 1933
  },
  {
    "dt": "2023.10.16 03:00",
    "o": 181.776,
    "h": 181.784,
    "l": 181.537,
    "c": 181.58,
    "v": 5379
  },
  {
    "dt": "2023.10.16 04:00",
    "o": 181.58,
    "h": 181.703,
    "l": 181.568,
    "c": 181.639,
    "v": 3807
  },
  {
    "dt": "2023.10.16 05:00",
    "o": 181.639,
    "h": 181.702,
    "l": 181.607,
    "c": 181.656,
    "v": 2686
  },
  {
    "dt": "2023.10.16 06:00",
    "o": 181.655,
    "h": 181.703,
    "l": 181.622,
    "c": 181.693,
    "v": 3223
  },
  {
    "dt": "2023.10.16 07:00",
    "o": 181.692,
    "h": 181.726,
    "l": 181.662,
    "c": 181.701,
    "v": 2842
  },
  {
    "dt": "2023.10.16 08:00",
    "o": 181.7,
    "h": 181.813,
    "l": 181.655,
    "c": 181.802,
    "v": 4329
  },
  {
    "dt": "2023.10.16 09:00",
    "o": 181.802,
    "h": 182.043,
    "l": 181.796,
    "c": 182.002,
    "v": 6080
  },
  {
    "dt": "2023.10.16 10:00",
    "o": 182.003,
    "h": 182.157,
    "l": 181.92,
    "c": 182.093,
    "v": 6454
  },
  {
    "dt": "2023.10.16 11:00",
    "o": 182.086,
    "h": 182.138,
    "l": 181.66,
    "c": 181.769,
    "v": 5681
  },
  {
    "dt": "2023.10.16 12:00",
    "o": 181.761,
    "h": 181.888,
    "l": 181.536,
    "c": 181.553,
    "v": 5398
  },
  {
    "dt": "2023.10.16 13:00",
    "o": 181.553,
    "h": 181.799,
    "l": 181.515,
    "c": 181.722,
    "v": 5073
  },
  {
    "dt": "2023.10.16 14:00",
    "o": 181.724,
    "h": 182.076,
    "l": 181.647,
    "c": 182.072,
    "v": 4914
  },
  {
    "dt": "2023.10.16 15:00",
    "o": 182.072,
    "h": 182.127,
    "l": 181.818,
    "c": 181.964,
    "v": 6772
  },
  {
    "dt": "2023.10.16 16:00",
    "o": 181.963,
    "h": 182.111,
    "l": 181.86,
    "c": 182.051,
    "v": 7521
  },
  {
    "dt": "2023.10.16 17:00",
    "o": 182.052,
    "h": 182.487,
    "l": 181.99,
    "c": 182.382,
    "v": 6902
  },
  {
    "dt": "2023.10.16 18:00",
    "o": 182.379,
    "h": 182.461,
    "l": 182.297,
    "c": 182.412,
    "v": 5289
  },
  {
    "dt": "2023.10.16 19:00",
    "o": 182.407,
    "h": 182.546,
    "l": 182.327,
    "c": 182.476,
    "v": 3747
  },
  {
    "dt": "2023.10.16 20:00",
    "o": 182.474,
    "h": 182.726,
    "l": 182.431,
    "c": 182.704,
    "v": 3657
  },
  {
    "dt": "2023.10.16 21:00",
    "o": 182.703,
    "h": 182.726,
    "l": 182.591,
    "c": 182.591,
    "v": 3472
  },
  {
    "dt": "2023.10.16 22:00",
    "o": 182.591,
    "h": 182.706,
    "l": 182.555,
    "c": 182.662,
    "v": 3449
  },
  {
    "dt": "2023.10.16 23:00",
    "o": 182.661,
    "h": 182.691,
    "l": 182.606,
    "c": 182.652,
    "v": 2243
  },
  {
    "dt": "2023.10.17 00:00",
    "o": 182.522,
    "h": 182.657,
    "l": 182.514,
    "c": 182.605,
    "v": 1313
  },
  {
    "dt": "2023.10.17 01:00",
    "o": 182.605,
    "h": 182.694,
    "l": 182.587,
    "c": 182.673,
    "v": 1772
  },
  {
    "dt": "2023.10.17 02:00",
    "o": 182.668,
    "h": 182.691,
    "l": 182.613,
    "c": 182.65,
    "v": 816
  },
  {
    "dt": "2023.10.17 03:00",
    "o": 182.648,
    "h": 182.719,
    "l": 182.492,
    "c": 182.526,
    "v": 4006
  },
  {
    "dt": "2023.10.17 04:00",
    "o": 182.519,
    "h": 182.556,
    "l": 182.414,
    "c": 182.462,
    "v": 3887
  },
  {
    "dt": "2023.10.17 05:00",
    "o": 182.458,
    "h": 182.476,
    "l": 182.35,
    "c": 182.418,
    "v": 2939
  },
  {
    "dt": "2023.10.17 06:00",
    "o": 182.418,
    "h": 182.513,
    "l": 182.4,
    "c": 182.476,
    "v": 3689
  },
  {
    "dt": "2023.10.17 07:00",
    "o": 182.476,
    "h": 182.479,
    "l": 182.356,
    "c": 182.389,
    "v": 3792
  },
  {
    "dt": "2023.10.17 08:00",
    "o": 182.39,
    "h": 182.479,
    "l": 182.372,
    "c": 182.422,
    "v": 3915
  },
  {
    "dt": "2023.10.17 09:00",
    "o": 182.428,
    "h": 182.443,
    "l": 182.046,
    "c": 182.112,
    "v": 5731
  },
  {
    "dt": "2023.10.17 10:00",
    "o": 182.104,
    "h": 182.263,
    "l": 182.022,
    "c": 182.143,
    "v": 6349
  },
  {
    "dt": "2023.10.17 11:00",
    "o": 182.137,
    "h": 182.152,
    "l": 181.841,
    "c": 181.911,
    "v": 6167
  },
  {
    "dt": "2023.10.17 12:00",
    "o": 181.906,
    "h": 182.118,
    "l": 181.871,
    "c": 182.085,
    "v": 5261
  },
  {
    "dt": "2023.10.17 13:00",
    "o": 182.085,
    "h": 182.164,
    "l": 181.078,
    "c": 181.81,
    "v": 6348
  },
  {
    "dt": "2023.10.17 14:00",
    "o": 181.81,
    "h": 182.137,
    "l": 181.807,
    "c": 182.101,
    "v": 5452
  },
  {
    "dt": "2023.10.17 15:00",
    "o": 182.099,
    "h": 182.147,
    "l": 181.686,
    "c": 181.824,
    "v": 7915
  },
  {
    "dt": "2023.10.17 16:00",
    "o": 181.831,
    "h": 182.089,
    "l": 181.781,
    "c": 181.945,
    "v": 8434
  },
  {
    "dt": "2023.10.17 17:00",
    "o": 181.943,
    "h": 182.439,
    "l": 181.926,
    "c": 182.345,
    "v": 7843
  },
  {
    "dt": "2023.10.17 18:00",
    "o": 182.346,
    "h": 182.702,
    "l": 182.329,
    "c": 182.695,
    "v": 6611
  },
  {
    "dt": "2023.10.17 19:00",
    "o": 182.696,
    "h": 182.794,
    "l": 182.566,
    "c": 182.573,
    "v": 4840
  },
  {
    "dt": "2023.10.17 20:00",
    "o": 182.568,
    "h": 182.611,
    "l": 182.357,
    "c": 182.365,
    "v": 4455
  },
  {
    "dt": "2023.10.17 21:00",
    "o": 182.365,
    "h": 182.448,
    "l": 182.318,
    "c": 182.344,
    "v": 3948
  },
  {
    "dt": "2023.10.17 22:00",
    "o": 182.344,
    "h": 182.493,
    "l": 182.333,
    "c": 182.49,
    "v": 4131
  },
  {
    "dt": "2023.10.17 23:00",
    "o": 182.488,
    "h": 182.534,
    "l": 182.406,
    "c": 182.498,
    "v": 2780
  },
  {
    "dt": "2023.10.18 00:00",
    "o": 182.46,
    "h": 182.537,
    "l": 182.417,
    "c": 182.482,
    "v": 967
  },
  {
    "dt": "2023.10.18 01:00",
    "o": 182.469,
    "h": 182.48,
    "l": 182.363,
    "c": 182.398,
    "v": 1726
  },
  {
    "dt": "2023.10.18 02:00",
    "o": 182.404,
    "h": 182.427,
    "l": 182.355,
    "c": 182.369,
    "v": 1264
  },
  {
    "dt": "2023.10.18 03:00",
    "o": 182.361,
    "h": 182.385,
    "l": 182.073,
    "c": 182.151,
    "v": 4074
  },
  {
    "dt": "2023.10.18 04:00",
    "o": 182.152,
    "h": 182.236,
    "l": 182.08,
    "c": 182.168,
    "v": 4346
  },
  {
    "dt": "2023.10.18 05:00",
    "o": 182.172,
    "h": 182.304,
    "l": 182.172,
    "c": 182.24,
    "v": 4538
  },
  {
    "dt": "2023.10.18 06:00",
    "o": 182.239,
    "h": 182.256,
    "l": 182.055,
    "c": 182.219,
    "v": 3769
  },
  {
    "dt": "2023.10.18 07:00",
    "o": 182.219,
    "h": 182.364,
    "l": 182.21,
    "c": 182.3,
    "v": 3347
  },
  {
    "dt": "2023.10.18 08:00",
    "o": 182.295,
    "h": 182.426,
    "l": 182.28,
    "c": 182.294,
    "v": 3647
  },
  {
    "dt": "2023.10.18 09:00",
    "o": 182.272,
    "h": 182.696,
    "l": 182.272,
    "c": 182.505,
    "v": 6590
  },
  {
    "dt": "2023.10.18 10:00",
    "o": 182.501,
    "h": 182.728,
    "l": 182.496,
    "c": 182.524,
    "v": 6262
  },
  {
    "dt": "2023.10.18 11:00",
    "o": 182.525,
    "h": 182.752,
    "l": 182.375,
    "c": 182.705,
    "v": 5700
  },
  {
    "dt": "2023.10.18 12:00",
    "o": 182.703,
    "h": 182.801,
    "l": 182.552,
    "c": 182.607,
    "v": 5819
  },
  {
    "dt": "2023.10.18 13:00",
    "o": 182.608,
    "h": 182.652,
    "l": 182.258,
    "c": 182.352,
    "v": 5682
  },
  {
    "dt": "2023.10.18 14:00",
    "o": 182.35,
    "h": 182.566,
    "l": 182.259,
    "c": 182.433,
    "v": 5029
  },
  {
    "dt": "2023.10.18 15:00",
    "o": 182.433,
    "h": 182.651,
    "l": 182.284,
    "c": 182.308,
    "v": 6694
  },
  {
    "dt": "2023.10.18 16:00",
    "o": 182.311,
    "h": 182.453,
    "l": 182.111,
    "c": 182.151,
    "v": 7020
  },
  {
    "dt": "2023.10.18 17:00",
    "o": 182.15,
    "h": 182.285,
    "l": 181.839,
    "c": 181.924,
    "v": 8069
  },
  {
    "dt": "2023.10.18 18:00",
    "o": 181.923,
    "h": 182.121,
    "l": 181.894,
    "c": 182.051,
    "v": 6474
  },
  {
    "dt": "2023.10.18 19:00",
    "o": 182.052,
    "h": 182.091,
    "l": 181.88,
    "c": 182.061,
    "v": 5978
  },
  {
    "dt": "2023.10.18 20:00",
    "o": 182.064,
    "h": 182.319,
    "l": 182.018,
    "c": 182.215,
    "v": 6014
  },
  {
    "dt": "2023.10.18 21:00",
    "o": 182.214,
    "h": 182.279,
    "l": 182.013,
    "c": 182.015,
    "v": 4774
  },
  {
    "dt": "2023.10.18 22:00",
    "o": 182.021,
    "h": 182.044,
    "l": 181.918,
    "c": 181.942,
    "v": 4599
  },
  {
    "dt": "2023.10.18 23:00",
    "o": 181.941,
    "h": 182.024,
    "l": 181.937,
    "c": 182.012,
    "v": 2080
  },
  {
    "dt": "2023.10.19 00:00",
    "o": 181.957,
    "h": 181.967,
    "l": 181.819,
    "c": 181.872,
    "v": 1099
  },
  {
    "dt": "2023.10.19 01:00",
    "o": 181.845,
    "h": 181.969,
    "l": 181.837,
    "c": 181.943,
    "v": 1598
  },
  {
    "dt": "2023.10.19 02:00",
    "o": 181.938,
    "h": 181.98,
    "l": 181.799,
    "c": 181.831,
    "v": 2384
  },
  {
    "dt": "2023.10.19 03:00",
    "o": 181.826,
    "h": 181.895,
    "l": 181.727,
    "c": 181.814,
    "v": 5284
  },
  {
    "dt": "2023.10.19 04:00",
    "o": 181.819,
    "h": 181.863,
    "l": 181.723,
    "c": 181.772,
    "v": 4792
  },
  {
    "dt": "2023.10.19 05:00",
    "o": 181.771,
    "h": 181.843,
    "l": 181.734,
    "c": 181.743,
    "v": 3928
  },
  {
    "dt": "2023.10.19 06:00",
    "o": 181.745,
    "h": 181.791,
    "l": 181.641,
    "c": 181.671,
    "v": 3569
  },
  {
    "dt": "2023.10.19 07:00",
    "o": 181.67,
    "h": 181.7,
    "l": 181.599,
    "c": 181.639,
    "v": 3139
  },
  {
    "dt": "2023.10.19 08:00",
    "o": 181.64,
    "h": 181.671,
    "l": 181.505,
    "c": 181.506,
    "v": 3914
  },
  {
    "dt": "2023.10.19 09:00",
    "o": 181.506,
    "h": 181.778,
    "l": 181.38,
    "c": 181.728,
    "v": 5615
  },
  {
    "dt": "2023.10.19 10:00",
    "o": 181.729,
    "h": 181.882,
    "l": 181.504,
    "c": 181.512,
    "v": 6937
  },
  {
    "dt": "2023.10.19 11:00",
    "o": 181.512,
    "h": 181.648,
    "l": 181.317,
    "c": 181.387,
    "v": 6140
  },
  {
    "dt": "2023.10.19 12:00",
    "o": 181.388,
    "h": 181.41,
    "l": 181.161,
    "c": 181.382,
    "v": 5188
  },
  {
    "dt": "2023.10.19 13:00",
    "o": 181.383,
    "h": 181.582,
    "l": 181.344,
    "c": 181.56,
    "v": 4842
  },
  {
    "dt": "2023.10.19 14:00",
    "o": 181.563,
    "h": 181.662,
    "l": 181.537,
    "c": 181.632,
    "v": 5036
  },
  {
    "dt": "2023.10.19 15:00",
    "o": 181.631,
    "h": 181.925,
    "l": 181.589,
    "c": 181.892,
    "v": 7120
  },
  {
    "dt": "2023.10.19 16:00",
    "o": 181.891,
    "h": 182.143,
    "l": 181.824,
    "c": 181.906,
    "v": 7594
  },
  {
    "dt": "2023.10.19 17:00",
    "o": 181.906,
    "h": 182.136,
    "l": 181.887,
    "c": 182.042,
    "v": 7542
  },
  {
    "dt": "2023.10.19 18:00",
    "o": 182.043,
    "h": 182.144,
    "l": 181.966,
    "c": 182.038,
    "v": 6266
  },
  {
    "dt": "2023.10.19 19:00",
    "o": 182.036,
    "h": 182.506,
    "l": 181.832,
    "c": 182.283,
    "v": 11010
  },
  {
    "dt": "2023.10.19 20:00",
    "o": 182.284,
    "h": 182.394,
    "l": 182.012,
    "c": 182.202,
    "v": 8501
  },
  {
    "dt": "2023.10.19 21:00",
    "o": 182.203,
    "h": 182.315,
    "l": 181.895,
    "c": 181.939,
    "v": 6022
  },
  {
    "dt": "2023.10.19 22:00",
    "o": 181.938,
    "h": 182.041,
    "l": 181.882,
    "c": 181.983,
    "v": 6132
  },
  {
    "dt": "2023.10.19 23:00",
    "o": 181.994,
    "h": 181.994,
    "l": 181.812,
    "c": 181.88,
    "v": 2317
  },
  {
    "dt": "2023.10.20 00:00",
    "o": 181.786,
    "h": 181.895,
    "l": 181.717,
    "c": 181.832,
    "v": 1105
  },
  {
    "dt": "2023.10.20 01:00",
    "o": 181.847,
    "h": 181.907,
    "l": 181.821,
    "c": 181.891,
    "v": 1414
  },
  {
    "dt": "2023.10.20 02:00",
    "o": 181.85,
    "h": 181.877,
    "l": 181.747,
    "c": 181.783,
    "v": 2589
  },
  {
    "dt": "2023.10.20 03:00",
    "o": 181.783,
    "h": 181.834,
    "l": 181.618,
    "c": 181.688,
    "v": 4428
  },
  {
    "dt": "2023.10.20 04:00",
    "o": 181.688,
    "h": 181.783,
    "l": 181.645,
    "c": 181.724,
    "v": 5257
  },
  {
    "dt": "2023.10.20 05:00",
    "o": 181.723,
    "h": 181.942,
    "l": 181.701,
    "c": 181.931,
    "v": 3812
  },
  {
    "dt": "2023.10.20 06:00",
    "o": 181.928,
    "h": 181.953,
    "l": 181.827,
    "c": 181.868,
    "v": 3441
  },
  {
    "dt": "2023.10.20 07:00",
    "o": 181.869,
    "h": 181.874,
    "l": 181.789,
    "c": 181.835,
    "v": 3030
  },
  {
    "dt": "2023.10.20 08:00",
    "o": 181.836,
    "h": 181.904,
    "l": 181.674,
    "c": 181.703,
    "v": 3687
  },
  {
    "dt": "2023.10.20 09:00",
    "o": 181.732,
    "h": 181.732,
    "l": 181.286,
    "c": 181.51,
    "v": 6238
  },
  {
    "dt": "2023.10.20 10:00",
    "o": 181.512,
    "h": 181.609,
    "l": 181.394,
    "c": 181.501,
    "v": 7047
  },
  {
    "dt": "2023.10.20 11:00",
    "o": 181.502,
    "h": 181.823,
    "l": 181.298,
    "c": 181.781,
    "v": 7093
  },
  {
    "dt": "2023.10.20 12:00",
    "o": 181.782,
    "h": 181.849,
    "l": 181.61,
    "c": 181.805,
    "v": 5711
  },
  {
    "dt": "2023.10.20 13:00",
    "o": 181.803,
    "h": 181.897,
    "l": 181.691,
    "c": 181.759,
    "v": 4303
  },
  {
    "dt": "2023.10.20 14:00",
    "o": 181.753,
    "h": 182.107,
    "l": 181.747,
    "c": 182.028,
    "v": 4614
  },
  {
    "dt": "2023.10.20 15:00",
    "o": 182.03,
    "h": 182.151,
    "l": 181.769,
    "c": 182.057,
    "v": 6164
  },
  {
    "dt": "2023.10.20 16:00",
    "o": 182.057,
    "h": 182.298,
    "l": 181.978,
    "c": 182.067,
    "v": 7516
  },
  {
    "dt": "2023.10.20 17:00",
    "o": 182.066,
    "h": 182.236,
    "l": 181.882,
    "c": 182.086,
    "v": 7236
  },
  {
    "dt": "2023.10.20 18:00",
    "o": 182.084,
    "h": 182.171,
    "l": 182.027,
    "c": 182.064,
    "v": 5636
  },
  {
    "dt": "2023.10.20 19:00",
    "o": 182.064,
    "h": 182.125,
    "l": 181.86,
    "c": 182.12,
    "v": 4792
  },
  {
    "dt": "2023.10.20 20:00",
    "o": 182.119,
    "h": 182.36,
    "l": 182.111,
    "c": 182.213,
    "v": 5683
  },
  {
    "dt": "2023.10.20 21:00",
    "o": 182.212,
    "h": 182.241,
    "l": 182.055,
    "c": 182.17,
    "v": 4695
  },
  {
    "dt": "2023.10.20 22:00",
    "o": 182.17,
    "h": 182.248,
    "l": 182.127,
    "c": 182.235,
    "v": 3550
  },
  {
    "dt": "2023.10.20 23:00",
    "o": 182.234,
    "h": 182.304,
    "l": 182.192,
    "c": 182.26,
    "v": 3067
  },
  {
    "dt": "2023.10.23 00:00",
    "o": 182.136,
    "h": 182.269,
    "l": 182.13,
    "c": 182.152,
    "v": 353
  },
  {
    "dt": "2023.10.23 01:00",
    "o": 182.131,
    "h": 182.23,
    "l": 182.121,
    "c": 182.217,
    "v": 1479
  },
  {
    "dt": "2023.10.23 02:00",
    "o": 182.247,
    "h": 182.306,
    "l": 182.225,
    "c": 182.292,
    "v": 1516
  },
  {
    "dt": "2023.10.23 03:00",
    "o": 182.293,
    "h": 182.293,
    "l": 182.109,
    "c": 182.254,
    "v": 2386
  },
  {
    "dt": "2023.10.23 04:00",
    "o": 182.254,
    "h": 182.258,
    "l": 182.161,
    "c": 182.231,
    "v": 1927
  },
  {
    "dt": "2023.10.23 05:00",
    "o": 182.226,
    "h": 182.239,
    "l": 182.133,
    "c": 182.145,
    "v": 1818
  },
  {
    "dt": "2023.10.23 06:00",
    "o": 182.145,
    "h": 182.241,
    "l": 182.133,
    "c": 182.135,
    "v": 1713
  },
  {
    "dt": "2023.10.23 07:00",
    "o": 182.127,
    "h": 182.165,
    "l": 182.07,
    "c": 182.153,
    "v": 1614
  },
  {
    "dt": "2023.10.23 08:00",
    "o": 182.154,
    "h": 182.219,
    "l": 182.133,
    "c": 182.143,
    "v": 2156
  },
  {
    "dt": "2023.10.23 09:00",
    "o": 182.143,
    "h": 182.388,
    "l": 182.097,
    "c": 182.278,
    "v": 3474
  },
  {
    "dt": "2023.10.23 10:00",
    "o": 182.274,
    "h": 182.462,
    "l": 182.135,
    "c": 182.389,
    "v": 5034
  },
  {
    "dt": "2023.10.23 11:00",
    "o": 182.389,
    "h": 182.615,
    "l": 182.274,
    "c": 182.343,
    "v": 4535
  },
  {
    "dt": "2023.10.23 12:00",
    "o": 182.34,
    "h": 182.502,
    "l": 182.088,
    "c": 182.198,
    "v": 4004
  },
  {
    "dt": "2023.10.23 13:00",
    "o": 182.187,
    "h": 182.311,
    "l": 182.091,
    "c": 182.28,
    "v": 3726
  },
  {
    "dt": "2023.10.23 14:00",
    "o": 182.279,
    "h": 182.526,
    "l": 182.24,
    "c": 182.452,
    "v": 3417
  },
  {
    "dt": "2023.10.23 15:00",
    "o": 182.451,
    "h": 182.586,
    "l": 182.294,
    "c": 182.38,
    "v": 4210
  },
  {
    "dt": "2023.10.23 16:00",
    "o": 182.383,
    "h": 182.524,
    "l": 182.175,
    "c": 182.522,
    "v": 5022
  },
  {
    "dt": "2023.10.23 17:00",
    "o": 182.517,
    "h": 183.028,
    "l": 182.501,
    "c": 182.939,
    "v": 6232
  },
  {
    "dt": "2023.10.23 18:00",
    "o": 182.937,
    "h": 183.267,
    "l": 182.915,
    "c": 183.221,
    "v": 4764
  },
  {
    "dt": "2023.10.23 19:00",
    "o": 183.216,
    "h": 183.24,
    "l": 183.007,
    "c": 183.097,
    "v": 4471
  },
  {
    "dt": "2023.10.23 20:00",
    "o": 183.098,
    "h": 183.376,
    "l": 183.036,
    "c": 183.317,
    "v": 3991
  },
  {
    "dt": "2023.10.23 21:00",
    "o": 183.315,
    "h": 183.41,
    "l": 183.271,
    "c": 183.278,
    "v": 4183
  },
  {
    "dt": "2023.10.23 22:00",
    "o": 183.277,
    "h": 183.297,
    "l": 183.057,
    "c": 183.222,
    "v": 4025
  },
  {
    "dt": "2023.10.23 23:00",
    "o": 183.221,
    "h": 183.361,
    "l": 183.193,
    "c": 183.322,
    "v": 1662
  },
  {
    "dt": "2023.10.24 00:00",
    "o": 183.194,
    "h": 183.35,
    "l": 183.149,
    "c": 183.302,
    "v": 1264
  },
  {
    "dt": "2023.10.24 01:00",
    "o": 183.298,
    "h": 183.392,
    "l": 183.288,
    "c": 183.378,
    "v": 1464
  },
  {
    "dt": "2023.10.24 02:00",
    "o": 183.343,
    "h": 183.458,
    "l": 183.315,
    "c": 183.447,
    "v": 1845
  },
  {
    "dt": "2023.10.24 03:00",
    "o": 183.449,
    "h": 183.519,
    "l": 183.382,
    "c": 183.422,
    "v": 2353
  },
  {
    "dt": "2023.10.24 04:00",
    "o": 183.423,
    "h": 183.524,
    "l": 183.278,
    "c": 183.303,
    "v": 3566
  },
  {
    "dt": "2023.10.24 05:00",
    "o": 183.304,
    "h": 183.54,
    "l": 183.255,
    "c": 183.463,
    "v": 3397
  },
  {
    "dt": "2023.10.24 06:00",
    "o": 183.46,
    "h": 183.514,
    "l": 183.349,
    "c": 183.494,
    "v": 2026
  },
  {
    "dt": "2023.10.24 07:00",
    "o": 183.494,
    "h": 183.578,
    "l": 183.481,
    "c": 183.539,
    "v": 1685
  },
  {
    "dt": "2023.10.24 08:00",
    "o": 183.541,
    "h": 183.671,
    "l": 183.511,
    "c": 183.652,
    "v": 2804
  },
  {
    "dt": "2023.10.24 09:00",
    "o": 183.643,
    "h": 183.742,
    "l": 183.514,
    "c": 183.601,
    "v": 4026
  },
  {
    "dt": "2023.10.24 10:00",
    "o": 183.592,
    "h": 183.592,
    "l": 183.189,
    "c": 183.297,
    "v": 5581
  },
  {
    "dt": "2023.10.24 11:00",
    "o": 183.286,
    "h": 183.402,
    "l": 182.924,
    "c": 183.352,
    "v": 5072
  },
  {
    "dt": "2023.10.24 12:00",
    "o": 183.344,
    "h": 183.38,
    "l": 183.165,
    "c": 183.173,
    "v": 3736
  },
  {
    "dt": "2023.10.24 13:00",
    "o": 183.164,
    "h": 183.216,
    "l": 182.892,
    "c": 182.91,
    "v": 3977
  },
  {
    "dt": "2023.10.24 14:00",
    "o": 182.908,
    "h": 183.182,
    "l": 182.899,
    "c": 182.98,
    "v": 4053
  },
  {
    "dt": "2023.10.24 15:00",
    "o": 182.978,
    "h": 183.035,
    "l": 182.73,
    "c": 182.806,
    "v": 4882
  },
  {
    "dt": "2023.10.24 16:00",
    "o": 182.813,
    "h": 182.86,
    "l": 182.462,
    "c": 182.607,
    "v": 5558
  },
  {
    "dt": "2023.10.24 17:00",
    "o": 182.608,
    "h": 182.626,
    "l": 182.341,
    "c": 182.512,
    "v": 5928
  },
  {
    "dt": "2023.10.24 18:00",
    "o": 182.507,
    "h": 182.517,
    "l": 182.235,
    "c": 182.321,
    "v": 5179
  },
  {
    "dt": "2023.10.24 19:00",
    "o": 182.322,
    "h": 182.368,
    "l": 182.043,
    "c": 182.121,
    "v": 3899
  },
  {
    "dt": "2023.10.24 20:00",
    "o": 182.115,
    "h": 182.295,
    "l": 182.106,
    "c": 182.262,
    "v": 3658
  },
  {
    "dt": "2023.10.24 21:00",
    "o": 182.264,
    "h": 182.311,
    "l": 182.189,
    "c": 182.29,
    "v": 2971
  },
  {
    "dt": "2023.10.24 22:00",
    "o": 182.287,
    "h": 182.335,
    "l": 182.237,
    "c": 182.3,
    "v": 3679
  },
  {
    "dt": "2023.10.24 23:00",
    "o": 182.301,
    "h": 182.339,
    "l": 182.207,
    "c": 182.272,
    "v": 1688
  },
  {
    "dt": "2023.10.25 00:00",
    "o": 182.258,
    "h": 182.275,
    "l": 182.172,
    "c": 182.227,
    "v": 1106
  },
  {
    "dt": "2023.10.25 01:00",
    "o": 182.23,
    "h": 182.245,
    "l": 182.141,
    "c": 182.194,
    "v": 1080
  },
  {
    "dt": "2023.10.25 02:00",
    "o": 182.201,
    "h": 182.248,
    "l": 182.194,
    "c": 182.243,
    "v": 1393
  },
  {
    "dt": "2023.10.25 03:00",
    "o": 182.244,
    "h": 182.361,
    "l": 182.236,
    "c": 182.335,
    "v": 3339
  },
  {
    "dt": "2023.10.25 04:00",
    "o": 182.33,
    "h": 182.398,
    "l": 182.262,
    "c": 182.357,
    "v": 2779
  },
  {
    "dt": "2023.10.25 05:00",
    "o": 182.356,
    "h": 182.389,
    "l": 182.298,
    "c": 182.336,
    "v": 2271
  },
  {
    "dt": "2023.10.25 06:00",
    "o": 182.341,
    "h": 182.399,
    "l": 182.336,
    "c": 182.371,
    "v": 1942
  },
  {
    "dt": "2023.10.25 07:00",
    "o": 182.372,
    "h": 182.43,
    "l": 182.366,
    "c": 182.428,
    "v": 1271
  },
  {
    "dt": "2023.10.25 08:00",
    "o": 182.43,
    "h": 182.445,
    "l": 182.27,
    "c": 182.355,
    "v": 1834
  },
  {
    "dt": "2023.10.25 09:00",
    "o": 182.353,
    "h": 182.368,
    "l": 182.208,
    "c": 182.277,
    "v": 3226
  },
  {
    "dt": "2023.10.25 10:00",
    "o": 182.278,
    "h": 182.346,
    "l": 181.935,
    "c": 181.99,
    "v": 3884
  },
  {
    "dt": "2023.10.25 11:00",
    "o": 181.985,
    "h": 182.103,
    "l": 181.881,
    "c": 181.953,
    "v": 3800
  },
  {
    "dt": "2023.10.25 12:00",
    "o": 181.953,
    "h": 181.97,
    "l": 181.619,
    "c": 181.707,
    "v": 3675
  },
  {
    "dt": "2023.10.25 13:00",
    "o": 181.708,
    "h": 181.768,
    "l": 181.629,
    "c": 181.752,
    "v": 2979
  },
  {
    "dt": "2023.10.25 14:00",
    "o": 181.746,
    "h": 181.887,
    "l": 181.624,
    "c": 181.676,
    "v": 2986
  },
  {
    "dt": "2023.10.25 15:00",
    "o": 181.676,
    "h": 181.946,
    "l": 181.649,
    "c": 181.855,
    "v": 3818
  },
  {
    "dt": "2023.10.25 16:00",
    "o": 181.853,
    "h": 181.973,
    "l": 181.751,
    "c": 181.854,
    "v": 5185
  },
  {
    "dt": "2023.10.25 17:00",
    "o": 181.85,
    "h": 182.21,
    "l": 181.802,
    "c": 182.027,
    "v": 6284
  },
  {
    "dt": "2023.10.25 18:00",
    "o": 182.033,
    "h": 182.181,
    "l": 181.965,
    "c": 181.98,
    "v": 5099
  },
  {
    "dt": "2023.10.25 19:00",
    "o": 181.98,
    "h": 182.022,
    "l": 181.778,
    "c": 181.86,
    "v": 4343
  },
  {
    "dt": "2023.10.25 20:00",
    "o": 181.859,
    "h": 181.897,
    "l": 181.629,
    "c": 181.785,
    "v": 5220
  },
  {
    "dt": "2023.10.25 21:00",
    "o": 181.784,
    "h": 181.818,
    "l": 181.712,
    "c": 181.74,
    "v": 4536
  },
  {
    "dt": "2023.10.25 22:00",
    "o": 181.743,
    "h": 181.825,
    "l": 181.702,
    "c": 181.746,
    "v": 3636
  },
  {
    "dt": "2023.10.25 23:00",
    "o": 181.744,
    "h": 181.987,
    "l": 181.725,
    "c": 181.919,
    "v": 2107
  },
  {
    "dt": "2023.10.26 00:00",
    "o": 181.854,
    "h": 181.873,
    "l": 181.726,
    "c": 181.826,
    "v": 1364
  },
  {
    "dt": "2023.10.26 01:00",
    "o": 181.826,
    "h": 181.832,
    "l": 181.611,
    "c": 181.764,
    "v": 1213
  },
  {
    "dt": "2023.10.26 02:00",
    "o": 181.736,
    "h": 181.759,
    "l": 181.575,
    "c": 181.639,
    "v": 1432
  },
  {
    "dt": "2023.10.26 03:00",
    "o": 181.641,
    "h": 181.663,
    "l": 181.491,
    "c": 181.594,
    "v": 2713
  },
  {
    "dt": "2023.10.26 04:00",
    "o": 181.593,
    "h": 181.776,
    "l": 181.53,
    "c": 181.72,
    "v": 2583
  },
  {
    "dt": "2023.10.26 05:00",
    "o": 181.721,
    "h": 181.812,
    "l": 181.668,
    "c": 181.753,
    "v": 2437
  },
  {
    "dt": "2023.10.26 06:00",
    "o": 181.75,
    "h": 181.779,
    "l": 181.674,
    "c": 181.703,
    "v": 1750
  },
  {
    "dt": "2023.10.26 07:00",
    "o": 181.704,
    "h": 181.746,
    "l": 181.656,
    "c": 181.708,
    "v": 1594
  },
  {
    "dt": "2023.10.26 08:00",
    "o": 181.707,
    "h": 181.857,
    "l": 181.686,
    "c": 181.778,
    "v": 2234
  },
  {
    "dt": "2023.10.26 09:00",
    "o": 181.762,
    "h": 182.045,
    "l": 181.196,
    "c": 181.665,
    "v": 4913
  },
  {
    "dt": "2023.10.26 10:00",
    "o": 181.663,
    "h": 182.1,
    "l": 181.663,
    "c": 181.902,
    "v": 5332
  },
  {
    "dt": "2023.10.26 11:00",
    "o": 181.905,
    "h": 181.948,
    "l": 181.638,
    "c": 181.666,
    "v": 4222
  },
  {
    "dt": "2023.10.26 12:00",
    "o": 181.665,
    "h": 181.784,
    "l": 181.586,
    "c": 181.711,
    "v": 3711
  },
  {
    "dt": "2023.10.26 13:00",
    "o": 181.711,
    "h": 181.713,
    "l": 181.401,
    "c": 181.451,
    "v": 3372
  },
  {
    "dt": "2023.10.26 14:00",
    "o": 181.453,
    "h": 181.817,
    "l": 181.447,
    "c": 181.797,
    "v": 3361
  },
  {
    "dt": "2023.10.26 15:00",
    "o": 181.793,
    "h": 182.068,
    "l": 181.676,
    "c": 182.068,
    "v": 6509
  },
  {
    "dt": "2023.10.26 16:00",
    "o": 182.079,
    "h": 182.142,
    "l": 181.878,
    "c": 182.124,
    "v": 6695
  },
  {
    "dt": "2023.10.26 17:00",
    "o": 182.119,
    "h": 182.342,
    "l": 181.984,
    "c": 182.311,
    "v": 6359
  },
  {
    "dt": "2023.10.26 18:00",
    "o": 182.309,
    "h": 182.346,
    "l": 182.144,
    "c": 182.197,
    "v": 4885
  },
  {
    "dt": "2023.10.26 19:00",
    "o": 182.192,
    "h": 182.22,
    "l": 181.916,
    "c": 182.065,
    "v": 4725
  },
  {
    "dt": "2023.10.26 20:00",
    "o": 182.066,
    "h": 182.424,
    "l": 182.035,
    "c": 182.402,
    "v": 4551
  },
  {
    "dt": "2023.10.26 21:00",
    "o": 182.401,
    "h": 182.573,
    "l": 182.371,
    "c": 182.461,
    "v": 4077
  },
  {
    "dt": "2023.10.26 22:00",
    "o": 182.463,
    "h": 182.494,
    "l": 182.233,
    "c": 182.29,
    "v": 4039
  },
  {
    "dt": "2023.10.26 23:00",
    "o": 182.29,
    "h": 182.404,
    "l": 182.267,
    "c": 182.369,
    "v": 2261
  },
  {
    "dt": "2023.10.27 00:00",
    "o": 182.412,
    "h": 182.432,
    "l": 182.301,
    "c": 182.376,
    "v": 947
  },
  {
    "dt": "2023.10.27 01:00",
    "o": 182.377,
    "h": 182.46,
    "l": 182.373,
    "c": 182.454,
    "v": 770
  },
  {
    "dt": "2023.10.27 02:00",
    "o": 182.457,
    "h": 182.494,
    "l": 182.417,
    "c": 182.476,
    "v": 1140
  },
  {
    "dt": "2023.10.27 03:00",
    "o": 182.463,
    "h": 182.495,
    "l": 182.269,
    "c": 182.352,
    "v": 2701
  },
  {
    "dt": "2023.10.27 04:00",
    "o": 182.35,
    "h": 182.365,
    "l": 182.23,
    "c": 182.27,
    "v": 2187
  },
  {
    "dt": "2023.10.27 05:00",
    "o": 182.272,
    "h": 182.348,
    "l": 182.227,
    "c": 182.246,
    "v": 2123
  },
  {
    "dt": "2023.10.27 06:00",
    "o": 182.245,
    "h": 182.275,
    "l": 182.182,
    "c": 182.265,
    "v": 1922
  },
  {
    "dt": "2023.10.27 07:00",
    "o": 182.264,
    "h": 182.342,
    "l": 182.251,
    "c": 182.257,
    "v": 1759
  },
  {
    "dt": "2023.10.27 08:00",
    "o": 182.261,
    "h": 182.339,
    "l": 182.126,
    "c": 182.154,
    "v": 2366
  },
  {
    "dt": "2023.10.27 09:00",
    "o": 182.156,
    "h": 182.182,
    "l": 181.976,
    "c": 182.028,
    "v": 3909
  },
  {
    "dt": "2023.10.27 10:00",
    "o": 182.027,
    "h": 182.084,
    "l": 181.894,
    "c": 181.962,
    "v": 4626
  },
  {
    "dt": "2023.10.27 11:00",
    "o": 181.96,
    "h": 182.032,
    "l": 181.782,
    "c": 182.006,
    "v": 3990
  },
  {
    "dt": "2023.10.27 12:00",
    "o": 182.003,
    "h": 182.163,
    "l": 181.974,
    "c": 182.052,
    "v": 3680
  },
  {
    "dt": "2023.10.27 13:00",
    "o": 182.057,
    "h": 182.089,
    "l": 181.846,
    "c": 181.933,
    "v": 2969
  },
  {
    "dt": "2023.10.27 14:00",
    "o": 181.935,
    "h": 182.01,
    "l": 181.677,
    "c": 181.726,
    "v": 3233
  },
  {
    "dt": "2023.10.27 15:00",
    "o": 181.724,
    "h": 181.923,
    "l": 181.587,
    "c": 181.79,
    "v": 5472
  },
  {
    "dt": "2023.10.27 16:00",
    "o": 181.791,
    "h": 181.957,
    "l": 181.717,
    "c": 181.779,
    "v": 6335
  },
  {
    "dt": "2023.10.27 17:00",
    "o": 181.774,
    "h": 182.016,
    "l": 181.545,
    "c": 181.685,
    "v": 6334
  },
  {
    "dt": "2023.10.27 18:00",
    "o": 181.69,
    "h": 181.798,
    "l": 181.518,
    "c": 181.761,
    "v": 4599
  },
  {
    "dt": "2023.10.27 19:00",
    "o": 181.762,
    "h": 181.837,
    "l": 181.506,
    "c": 181.519,
    "v": 3807
  },
  {
    "dt": "2023.10.27 20:00",
    "o": 181.514,
    "h": 181.515,
    "l": 181.176,
    "c": 181.203,
    "v": 4303
  },
  {
    "dt": "2023.10.27 21:00",
    "o": 181.2,
    "h": 181.261,
    "l": 181.032,
    "c": 181.104,
    "v": 4760
  },
  {
    "dt": "2023.10.27 22:00",
    "o": 181.095,
    "h": 181.251,
    "l": 181.069,
    "c": 181.246,
    "v": 3859
  },
  {
    "dt": "2023.10.27 23:00",
    "o": 181.252,
    "h": 181.438,
    "l": 181.221,
    "c": 181.351,
    "v": 1582
  },
  {
    "dt": "2023.10.30 00:00",
    "o": 181.197,
    "h": 181.355,
    "l": 181.13,
    "c": 181.28,
    "v": 347
  },
  {
    "dt": "2023.10.30 01:00",
    "o": 181.28,
    "h": 181.41,
    "l": 181.276,
    "c": 181.388,
    "v": 1378
  },
  {
    "dt": "2023.10.30 02:00",
    "o": 181.375,
    "h": 181.393,
    "l": 181.276,
    "c": 181.364,
    "v": 1493
  },
  {
    "dt": "2023.10.30 03:00",
    "o": 181.365,
    "h": 181.416,
    "l": 181.265,
    "c": 181.402,
    "v": 2151
  },
  {
    "dt": "2023.10.30 04:00",
    "o": 181.405,
    "h": 181.412,
    "l": 181.25,
    "c": 181.358,
    "v": 2136
  },
  {
    "dt": "2023.10.30 05:00",
    "o": 181.375,
    "h": 181.381,
    "l": 181.206,
    "c": 181.259,
    "v": 1819
  },
  {
    "dt": "2023.10.30 06:00",
    "o": 181.258,
    "h": 181.322,
    "l": 181.199,
    "c": 181.287,
    "v": 1339
  },
  {
    "dt": "2023.10.30 07:00",
    "o": 181.289,
    "h": 181.314,
    "l": 181.179,
    "c": 181.197,
    "v": 1144
  },
  {
    "dt": "2023.10.30 08:00",
    "o": 181.2,
    "h": 181.27,
    "l": 181.186,
    "c": 181.265,
    "v": 1318
  },
  {
    "dt": "2023.10.30 09:00",
    "o": 181.263,
    "h": 181.358,
    "l": 181.188,
    "c": 181.266,
    "v": 1907
  },
  {
    "dt": "2023.10.30 10:00",
    "o": 181.273,
    "h": 181.28,
    "l": 180.775,
    "c": 180.879,
    "v": 3860
  },
  {
    "dt": "2023.10.30 11:00",
    "o": 180.885,
    "h": 181.103,
    "l": 180.755,
    "c": 181.048,
    "v": 4555
  },
  {
    "dt": "2023.10.30 12:00",
    "o": 181.047,
    "h": 181.578,
    "l": 181.037,
    "c": 181.466,
    "v": 3844
  },
  {
    "dt": "2023.10.30 13:00",
    "o": 181.469,
    "h": 181.66,
    "l": 181.383,
    "c": 181.457,
    "v": 3427
  },
  {
    "dt": "2023.10.30 14:00",
    "o": 181.452,
    "h": 181.789,
    "l": 181.452,
    "c": 181.57,
    "v": 3485
  },
  {
    "dt": "2023.10.30 15:00",
    "o": 181.57,
    "h": 181.866,
    "l": 181.545,
    "c": 181.836,
    "v": 4320
  },
  {
    "dt": "2023.10.30 16:00",
    "o": 181.841,
    "h": 181.863,
    "l": 181.621,
    "c": 181.757,
    "v": 4862
  },
  {
    "dt": "2023.10.30 17:00",
    "o": 181.768,
    "h": 181.779,
    "l": 180.921,
    "c": 180.996,
    "v": 6764
  },
  {
    "dt": "2023.10.30 18:00",
    "o": 181.0,
    "h": 181.148,
    "l": 180.92,
    "c": 181.121,
    "v": 5408
  },
  {
    "dt": "2023.10.30 19:00",
    "o": 181.119,
    "h": 181.175,
    "l": 181.022,
    "c": 181.031,
    "v": 4235
  },
  {
    "dt": "2023.10.30 20:00",
    "o": 181.03,
    "h": 181.175,
    "l": 180.944,
    "c": 181.147,
    "v": 3457
  },
  {
    "dt": "2023.10.30 21:00",
    "o": 181.147,
    "h": 181.245,
    "l": 181.097,
    "c": 181.198,
    "v": 3030
  },
  {
    "dt": "2023.10.30 22:00",
    "o": 181.198,
    "h": 181.482,
    "l": 181.198,
    "c": 181.45,
    "v": 3677
  },
  {
    "dt": "2023.10.30 23:00",
    "o": 181.451,
    "h": 181.471,
    "l": 181.352,
    "c": 181.362,
    "v": 1159
  },
  {
    "dt": "2023.10.31 00:00",
    "o": 181.32,
    "h": 181.386,
    "l": 181.295,
    "c": 181.342,
    "v": 1487
  },
  {
    "dt": "2023.10.31 01:00",
    "o": 181.344,
    "h": 181.429,
    "l": 181.272,
    "c": 181.421,
    "v": 1390
  },
  {
    "dt": "2023.10.31 02:00",
    "o": 181.412,
    "h": 181.447,
    "l": 181.335,
    "c": 181.34,
    "v": 756
  },
  {
    "dt": "2023.10.31 03:00",
    "o": 181.344,
    "h": 181.717,
    "l": 181.317,
    "c": 181.673,
    "v": 2358
  },
  {
    "dt": "2023.10.31 04:00",
    "o": 181.674,
    "h": 181.716,
    "l": 181.559,
    "c": 181.663,
    "v": 2874
  },
  {
    "dt": "2023.10.31 05:00",
    "o": 181.664,
    "h": 181.697,
    "l": 181.499,
    "c": 181.53,
    "v": 2935
  },
  {
    "dt": "2023.10.31 06:00",
    "o": 181.529,
    "h": 182.208,
    "l": 181.339,
    "c": 182.036,
    "v": 4699
  },
  {
    "dt": "2023.10.31 07:00",
    "o": 182.026,
    "h": 182.314,
    "l": 181.997,
    "c": 182.275,
    "v": 2830
  },
  {
    "dt": "2023.10.31 08:00",
    "o": 182.274,
    "h": 182.493,
    "l": 182.187,
    "c": 182.487,
    "v": 2738
  },
  {
    "dt": "2023.10.31 09:00",
    "o": 182.488,
    "h": 182.617,
    "l": 182.343,
    "c": 182.467,
    "v": 3123
  },
  {
    "dt": "2023.10.31 10:00",
    "o": 182.457,
    "h": 182.709,
    "l": 182.393,
    "c": 182.673,
    "v": 4425
  },
  {
    "dt": "2023.10.31 11:00",
    "o": 182.677,
    "h": 183.103,
    "l": 182.603,
    "c": 183.07,
    "v": 4771
  },
  {
    "dt": "2023.10.31 12:00",
    "o": 183.07,
    "h": 183.762,
    "l": 182.689,
    "c": 183.684,
    "v": 5278
  },
  {
    "dt": "2023.10.31 13:00",
    "o": 183.68,
    "h": 183.823,
    "l": 183.487,
    "c": 183.784,
    "v": 4795
  },
  {
    "dt": "2023.10.31 14:00",
    "o": 183.785,
    "h": 183.806,
    "l": 183.472,
    "c": 183.581,
    "v": 3576
  },
  {
    "dt": "2023.10.31 15:00",
    "o": 183.577,
    "h": 183.581,
    "l": 183.351,
    "c": 183.507,
    "v": 5399
  },
  {
    "dt": "2023.10.31 16:00",
    "o": 183.487,
    "h": 183.516,
    "l": 183.188,
    "c": 183.237,
    "v": 5455
  },
  {
    "dt": "2023.10.31 17:00",
    "o": 183.229,
    "h": 183.666,
    "l": 183.15,
    "c": 183.57,
    "v": 6183
  },
  {
    "dt": "2023.10.31 18:00",
    "o": 183.568,
    "h": 183.79,
    "l": 183.382,
    "c": 183.756,
    "v": 5711
  },
  {
    "dt": "2023.10.31 19:00",
    "o": 183.755,
    "h": 184.067,
    "l": 183.641,
    "c": 184.064,
    "v": 5412
  },
  {
    "dt": "2023.10.31 20:00",
    "o": 184.063,
    "h": 184.09,
    "l": 183.447,
    "c": 184.042,
    "v": 5428
  },
  {
    "dt": "2023.10.31 21:00",
    "o": 184.044,
    "h": 184.212,
    "l": 183.954,
    "c": 184.17,
    "v": 4571
  },
  {
    "dt": "2023.10.31 22:00",
    "o": 184.169,
    "h": 184.22,
    "l": 184.11,
    "c": 184.196,
    "v": 4737
  },
  {
    "dt": "2023.10.31 23:00",
    "o": 184.204,
    "h": 184.291,
    "l": 184.123,
    "c": 184.277,
    "v": 1794
  }
]