[
  {
    "dt": "2023.10.02 00:00",
    "o": 1.07086,
    "h": 1.07307,
    "l": 1.07064,
    "c": 1.0728,
    "v": 151
  },
  {
    "dt": "2023.10.02 01:00",
    "o": 1.0728,
    "h": 1.07367,
    "l": 1.07234,
    "c": 1.07304,
    "v": 1806
  },
  {
    "dt": "2023.10.02 02:00",
    "o": 1.07286,
    "h": 1.07356,
    "l": 1.07282,
    "c": 1.07354,
    "v": 1408
  },
  {
    "dt": "2023.10.02 03:00",
    "o": 1.07354,
    "h": 1.07428,
    "l": 1.07294,
    "c": 1.07298,
    "v": 2441
  },
  {
    "dt": "2023.10.02 04:00",
    "o": 1.07298,
    "h": 1.07323,
    "l": 1.07229,
    "c": 1.07231,
    "v": 2059
  },
  {
    "dt": "2023.10.02 05:00",
    "o": 1.07231,
    "h": 1.07232,
    "l": 1.07079,
    "c": 1.07094,
    "v": 1734
  },
  {
    "dt": "2023.10.02 06:00",
    "o": 1.07097,
    "h": 1.07097,
    "l": 1.06951,
    "c": 1.07012,
    "v": 1686
  },
  {
    "dt": "2023.10.02 07:00",
    "o": 1.07013,
    "h": 1.07022,
    "l": 1.06944,
    "c": 1.06945,
    "v": 1930
  },
  {
    "dt": "2023.10.02 08:00",
    "o": 1.06948,
    "h": 1.06984,
    "l": 1.06902,
    "c": 1.06978,
    "v": 2146
  },
  {
    "dt": "2023.10.02 09:00",
    "o": 1.06976,
    "h": 1.07066,
    "l": 1.06942,
    "c": 1.06973,
    "v": 2615
  },
  {
    "dt": "2023.10.02 10:00",
    "o": 1.06974,
    "h": 1.06983,
    "l": 1.06908,
    "c": 1.06963,
    "v": 3313
  },
  {
    "dt": "2023.10.02 11:00",
    "o": 1.06963,
    "h": 1.07109,
    "l": 1.06963,
    "c": 1.07074,
    "v": 3288
  },
  {
    "dt": "2023.10.02 12:00",
    "o": 1.07073,
    "h": 1.07132,
    "l": 1.07055,
    "c": 1.07113,
    "v": 2493
  },
  {
    "dt": "2023.10.02 13:00",
    "o": 1.07114,
    "h": 1.07131,
    "l": 1.07079,
    "c": 1.07079,
    "v": 2650
  },
  {
    "dt": "2023.10.02 14:00",
    "o": 1.07078,
    "h": 1.0713,
    "l": 1.07066,
    "c": 1.07123,
    "v": 2682
  },
  {
    "dt": "2023.10.02 15:00",
    "o": 1.07122,
    "h": 1.07131,
    "l": 1.07066,
    "c": 1.07082,
    "v": 3340
  },
  {
    "dt": "2023.10.02 16:00",
    "o": 1.07079,
    "h": 1.07091,
    "l": 1.06996,
    "c": 1.06996,
    "v": 3490
  },
  {
    "dt": "2023.10.02 17:00",
    "o": 1.06996,
    "h": 1.07126,
    "l": 1.06972,
    "c": 1.06995,
    "v": 4930
  },
  {
    "dt": "2023.10.02 18:00",
    "o": 1.06993,
    "h": 1.07048,
    "l": 1.06991,
    "c": 1.07008,
    "v": 3283
  },
  {
    "dt": "2023.10.02 19:00",
    "o": 1.07012,
    "h": 1.07036,
    "l": 1.06968,
    "c": 1.07033,
    "v": 2771
  },
  {
    "dt": "2023.10.02 20:00",
    "o": 1.07036,
    "h": 1.07066,
    "l": 1.07013,
    "c": 1.0702,
    "v": 2960
  },
  {
    "dt": "2023.10.02 21:00",
    "o": 1.06982,
    "h": 1.07052,
    "l": 1.06982,
    "c": 1.07046,
    "v": 3692
  },
  {
    "dt": "2023.10.02 22:00",
    "o": 1.07048,
    "h": 1.07061,
    "l": 1.06996,
    "c": 1.07002,
    "v": 3384
  },
  {
    "dt": "2023.10.02 23:00",
    "o": 1.07001,
    "h": 1.07057,
    "l": 1.06978,
    "c": 1.06985,
    "v": 1402
  },
  {
    "dt": "2023.10.03 00:00",
    "o": 1.06995,
    "h": 1.06995,
    "l": 1.06875,
    "c": 1.06933,
    "v": 1549
  },
  {
    "dt": "2023.10.03 01:00",
    "o": 1.06897,
    "h": 1.06978,
    "l": 1.06887,
    "c": 1.06946,
    "v": 1651
  },
  {
    "dt": "2023.10.03 02:00",
    "o": 1.06946,
    "h": 1.07101,
    "l": 1.06918,
    "c": 1.07076,
    "v": 1330
  },
  {
    "dt": "2023.10.03 03:00",
    "o": 1.07077,
    "h": 1.0713,
    "l": 1.07009,
    "c": 1.07125,
    "v": 2048
  },
  {
    "dt": "2023.10.03 04:00",
    "o": 1.07127,
    "h": 1.07173,
    "l": 1.07081,
    "c": 1.07153,
    "v": 2912
  },
  {
    "dt": "2023.10.03 05:00",
    "o": 1.0715,
    "h": 1.0721,
    "l": 1.07106,
    "c": 1.07115,
    "v": 2228
  },
  {
    "dt": "2023.10.03 06:00",
    "o": 1.07113,
    "h": 1.07152,
    "l": 1.07053,
    "c": 1.07092,
    "v": 2459
  },
  {
    "dt": "2023.10.03 07:00",
    "o": 1.0709,
    "h": 1.0709,
    "l": 1.06865,
    "c": 1.06878,
    "v": 2657
  },
  {
    "dt": "2023.10.03 08:00",
    "o": 1.06877,
    "h": 1.0689,
    "l": 1.0679,
    "c": 1.06794,
    "v": 2768
  },
  {
    "dt": "2023.10.03 09:00",
    "o": 1.0679,
    "h": 1.06845,
    "l": 1.06776,
    "c": 1.06801,
    "v": 3338
  },
  {
    "dt": "2023.10.03 10:00",
    "o": 1.06802,
    "h": 1.07012,
    "l": 1.06794,
    "c": 1.06938,
    "v": 3604
  },
  {
    "dt": "2023.10.03 11:00",
    "o": 1.06942,
    "h": 1.06972,
    "l": 1.0689,
    "c": 1.06921,
    "v": 3143
  },
  {
    "dt": "2023.10.03 12:00",
    "o": 1.06922,
    "h": 1.07044,
    "l": 1.06893,
    "c": 1.06958,
    "v": 3293
  },
  {
    "dt": "2023.10.03 13:00",
    "o": 1.06957,
    "h": 1.07005,
    "l": 1.06887,
    "c": 1.06914,
    "v": 2891
  },
  {
    "dt": "2023.10.03 14:00",
    "o": 1.06917,
    "h": 1.06924,
    "l": 1.06848,
    "c": 1.06859,
    "v": 3304
  },
  {
    "dt": "2023.10.03 15:00",
    "o": 1.06857,
    "h": 1.06885,
    "l": 1.0681,
    "c": 1.06846,
    "v": 3898
  },
  {
    "dt": "2023.10.03 16:00",
    "o": 1.06845,
    "h": 1.06847,
    "l": 1.06727,
    "c": 1.06769,
    "v": 4823
  },
  {
    "dt": "2023.10.03 17:00",
    "o": 1.06764,
    "h": 1.06865,
    "l": 1.06742,
    "c": 1.06753,
    "v": 5950
  },
  {
    "dt": "2023.10.03 18:00",
    "o": 1.06753,
    "h": 1.06819,
    "l": 1.06749,
    "c": 1.06772,
    "v": 4166
  },
  {
    "dt": "2023.10.03 19:00",
    "o": 1.0677,
    "h": 1.06772,
    "l": 1.06727,
    "c": 1.0674,
    "v": 3795
  },
  {
    "dt": "2023.10.03 20:00",
    "o": 1.0674,
    "h": 1.06768,
    "l": 1.06709,
    "c": 1.06711,
    "v": 3730
  },
  {
    "dt": "2023.10.03 21:00",
    "o": 1.0671,
    "h": 1.06728,
    "l": 1.0666,
    "c": 1.06688,
    "v": 3908
  },
  {
    "dt": "2023.10.03 22:00",
    "o": 1.06687,
    "h": 1.0669,
    "l": 1.06619,
    "c": 1.06682,
    "v": 3734
  },
  {
    "dt": "2023.10.03 23:00",
    "o": 1.06681,
    "h": 1.06712,
    "l": 1.06626,
    "c": 1.06626,
    "v": 1545
  },
  {
    "dt": "2023.10.04 00:00",
    "o": 1.0673,
    "h": 1.0673,
    "l": 1.06591,
    "c": 1.06603,
    "v": 838
  },
  {
    "dt": "2023.10.04 01:00",
    "o": 1.06602,
    "h": 1.06712,
    "l": 1.06595,
    "c": 1.06712,
    "v": 877
  },
  {
    "dt": "2023.10.04 02:00",
    "o": 1.06702,
    "h": 1.06717,
    "l": 1.06656,
    "c": 1.06677,
    "v": 1423
  },
  {
    "dt": "2023.10.04 03:00",
    "o": 1.06675,
    "h": 1.06704,
    "l": 1.06527,
    "c": 1.06527,
    "v": 2317
  },
  {
    "dt": "2023.10.04 04:00",
    "o": 1.06503,
    "h": 1.07132,
    "l": 1.06496,
    "c": 1.07066,
    "v": 4118
  },
  {
    "dt": "2023.10.04 05:00",
    "o": 1.07064,
    "h": 1.07181,
    "l": 1.07039,
    "c": 1.07092,
    "v": 2413
  },
  {
    "dt": "2023.10.04 06:00",
    "o": 1.07093,
    "h": 1.07103,
    "l": 1.07006,
    "c": 1.07027,
    "v": 1537
  },
  {
    "dt": "2023.10.04 07:00",
    "o": 1.07027,
    "h": 1.07077,
    "l": 1.06951,
    "c": 1.07069,
    "v": 2586
  },
  {
    "dt": "2023.10.04 08:00",
    "o": 1.07069,
    "h": 1.07144,
    "l": 1.07032,
    "c": 1.07083,
    "v": 2205
  },
  {
    "dt": "2023.10.04 09:00",
    "o": 1.07083,
    "h": 1.072,
    "l": 1.07066,
    "c": 1.07168,
    "v": 2999
  },
  {
    "dt": "2023.10.04 10:00",
    "o": 1.07161,
    "h": 1.07198,
    "l": 1.07131,
    "c": 1.07192,
    "v": 4026
  },
  {
    "dt": "2023.10.04 11:00",
    "o": 1.07192,
    "h": 1.07194,
    "l": 1.07103,
    "c": 1.0714,
    "v": 3502
  },
  {
    "dt": "2023.10.04 12:00",
    "o": 1.07139,
    "h": 1.072,
    "l": 1.07106,
    "c": 1.07167,
    "v": 3280
  },
  {
    "dt": "2023.10.04 13:00",
    "o": 1.07168,
    "h": 1.07196,
    "l": 1.07095,
    "c": 1.07144,
    "v": 3012
  },
  {
    "dt": "2023.10.04 14:00",
    "o": 1.07146,
    "h": 1.07155,
    "l": 1.07072,
    "c": 1.07099,
    "v": 3566
  },
  {
    "dt": "2023.10.04 15:00",
    "o": 1.07098,
    "h": 1.07123,
    "l": 1.07032,
    "c": 1.07074,
    "v": 4166
  },
  {
    "dt": "2023.10.04 16:00",
    "o": 1.07075,
    "h": 1.07113,
    "l": 1.07028,
    "c": 1.0703,
    "v": 3443
  },
  {
    "dt": "2023.10.04 17:00",
    "o": 1.07044,
    "h": 1.07217,
    "l": 1.07023,
    "c": 1.07154,
    "v": 4395
  },
  {
    "dt": "2023.10.04 18:00",
    "o": 1.07153,
    "h": 1.07178,
    "l": 1.06996,
    "c": 1.06997,
    "v": 3261
  },
  {
    "dt": "2023.10.04 19:00",
    "o": 1.06997,
    "h": 1.07006,
    "l": 1.06966,
    "c": 1.06972,
    "v": 3021
  },
  {
    "dt": "2023.10.04 20:00",
    "o": 1.06972,
    "h": 1.07013,
    "l": 1.0696,
    "c": 1.06965,
    "v": 2874
  },
  {
    "dt": "2023.10.04 21:00",
    "o": 1.06961,
    "h": 1.07007,
    "l": 1.06932,
    "c": 1.07,
    "v": 4871
  },
  {
    "dt": "2023.10.04 22:00",
    "o": 1.07001,
    "h": 1.07033,
    "l": 1.06952,
    "c": 1.06966,
    "v": 4518
  },
  {
    "dt": "2023.10.04 23:00",
    "o": 1.06967,
    "h": 1.0702,
    "l": 1.06944,
    "c": 1.06956,
    "v": 2609
  },
  {
    "dt": "2023.10.05 00:00",
    "o": 1.06819,
    "h": 1.06975,
    "l": 1.06815,
    "c": 1.06934,
    "v": 1084
  },
  {
    "dt": "2023.10.05 01:00",
    "o": 1.06933,
    "h": 1.06972,
    "l": 1.06905,
    "c": 1.06946,
    "v": 824
  },
  {
    "dt": "2023.10.05 02:00",
    "o": 1.06962,
    "h": 1.06972,
    "l": 1.06917,
    "c": 1.06924,
    "v": 1172
  },
  {
    "dt": "2023.10.05 03:00",
    "o": 1.06923,
    "h": 1.07015,
    "l": 1.06916,
    "c": 1.06935,
    "v": 2363
  },
  {
    "dt": "2023.10.05 04:00",
    "o": 1.06934,
    "h": 1.07133,
    "l": 1.0693,
    "c": 1.07038,
    "v": 3712
  },
  {
    "dt": "2023.10.05 05:00",
    "o": 1.07038,
    "h": 1.07049,
    "l": 1.06985,
    "c": 1.07022,
    "v": 2569
  },
  {
    "dt": "2023.10.05 06:00",
    "o": 1.07022,
    "h": 1.07171,
    "l": 1.0702,
    "c": 1.07143,
    "v": 2515
  },
  {
    "dt": "2023.10.05 07:00",
    "o": 1.07143,
    "h": 1.07171,
    "l": 1.07081,
    "c": 1.07102,
    "v": 2192
  },
  {
    "dt": "2023.10.05 08:00",
    "o": 1.07099,
    "h": 1.07106,
    "l": 1.07044,
    "c": 1.07057,
    "v": 3299
  },
  {
    "dt": "2023.10.05 09:00",
    "o": 1.07057,
    "h": 1.07105,
    "l": 1.07039,
    "c": 1.07051,
    "v": 3721
  },
  {
    "dt": "2023.10.05 10:00",
    "o": 1.07051,
    "h": 1.07052,
    "l": 1.06898,
    "c": 1.06901,
    "v": 3150
  },
  {
    "dt": "2023.10.05 11:00",
    "o": 1.069,
    "h": 1.0697,
    "l": 1.06883,
    "c": 1.06889,
    "v": 3759
  },
  {
    "dt": "2023.10.05 12:00",
    "o": 1.06897,
    "h": 1.06909,
    "l": 1.06782,
    "c": 1.06784,
    "v": 3792
  },
  {
    "dt": "2023.10.05 13:00",
    "o": 1.06785,
    "h": 1.06809,
    "l": 1.06753,
    "c": 1.06766,
    "v": 3206
  },
  {
    "dt": "2023.10.05 14:00",
    "o": 1.06764,
    "h": 1.06857,
    "l": 1.06741,
    "c": 1.06818,
    "v": 2981
  },
  {
    "dt": "2023.10.05 15:00",
    "o": 1.06818,
    "h": 1.06843,
    "l": 1.06753,
    "c": 1.06768,
    "v": 4589
  },
  {
    "dt": "2023.10.05 16:00",
    "o": 1.06769,
    "h": 1.06785,
    "l": 1.06693,
    "c": 1.06755,
    "v": 4310
  },
  {
    "dt": "2023.10.05 17:00",
    "o": 1.06748,
    "h": 1.06821,
    "l": 1.06706,
    "c": 1.06801,
    "v": 4312
  },
  {
    "dt": "2023.10.05 18:00",
    "o": 1.06802,
    "h": 1.06814,
    "l": 1.06741,
    "c": 1.06747,
    "v": 3675
  },
  {
    "dt": "2023.10.05 19:00",
    "o": 1.06743,
    "h": 1.06756,
    "l": 1.06651,
    "c": 1.06706,
    "v": 3532
  },
  {
    "dt": "2023.10.05 20:00",
    "o": 1.06709,
    "h": 1.06745,
    "l": 1.0669,
    "c": 1.06734,
    "v": 3592
  },
  {
    "dt": "2023.10.05 21:00",
    "o": 1.06722,
    "h": 1.06793,
    "l": 1.06716,
    "c": 1.06789,
    "v": 3748
  },
  {
    "dt": "2023.10.05 22:00",
    "o": 1.06787,
    "h": 1.06819,
    "l": 1.06772,
    "c": 1.06801,
    "v": 2802
  },
  {
    "dt": "2023.10.05 23:00",
    "o": 1.06802,
    "h": 1.06804,
    "l": 1.0674,
    "c": 1.06767,
    "v": 1180
  },
  {
    "dt": "2023.10.06 00:00",
    "o": 1.06696,
    "h": 1.06767,
    "l": 1.06655,
    "c": 1.06756,
    "v": 993
  },
  {
    "dt": "2023.10.06 01:00",
    "o": 1.06752,
    "h": 1.06817,
    "l": 1.06737,
    "c": 1.0677,
    "v": 759
  },
  {
    "dt": "2023.10.06 02:00",
    "o": 1.06756,
    "h": 1.06764,
    "l": 1.06726,
    "c": 1.06737,
    "v": 1319
  },
  {
    "dt": "2023.10.06 03:00",
    "o": 1.06737,
    "h": 1.06761,
    "l": 1.06685,
    "c": 1.0673,
    "v": 2691
  },
  {
    "dt": "2023.10.06 04:00",
    "o": 1.06731,
    "h": 1.06849,
    "l": 1.06726,
    "c": 1.06833,
    "v": 2765
  },
  {
    "dt": "2023.10.06 05:00",
    "o": 1.06831,
    "h": 1.06896,
    "l": 1.06828,
    "c": 1.0688,
    "v": 2047
  },
  {
    "dt": "2023.10.06 06:00",
    "o": 1.06881,
    "h": 1.06918,
    "l": 1.06865,
    "c": 1.06889,
    "v": 2161
  },
  {
    "dt": "2023.10.06 07:00",
    "o": 1.06889,
    "h": 1.06891,
    "l": 1.06853,
    "c": 1.06864,
    "v": 1664
  },
  {
    "dt": "2023.10.06 08:00",
    "o": 1.0686,
    "h": 1.06873,
    "l": 1.0673,
    "c": 1.0673,
    "v": 1744
  },
  {
    "dt": "2023.10.06 09:00",
    "o": 1.06729,
    "h": 1.0681,
    "l": 1.06718,
    "c": 1.06797,
    "v": 2565
  },
  {
    "dt": "2023.10.06 10:00",
    "o": 1.06796,
    "h": 1.06819,
    "l": 1.06701,
    "c": 1.06718,
    "v": 4166
  },
  {
    "dt": "2023.10.06 11:00",
    "o": 1.06718,
    "h": 1.06776,
    "l": 1.06669,
    "c": 1.06715,
    "v": 3492
  },
  {
    "dt": "2023.10.06 12:00",
    "o": 1.06716,
    "h": 1.06719,
    "l": 1.06634,
    "c": 1.0667,
    "v": 3203
  },
  {
    "dt": "2023.10.06 13:00",
    "o": 1.06669,
    "h": 1.06689,
    "l": 1.06605,
    "c": 1.06651,
    "v": 2513
  },
  {
    "dt": "2023.10.06 14:00",
    "o": 1.0665,
    "h": 1.06676,
    "l": 1.06599,
    "c": 1.06601,
    "v": 3052
  },
  {
    "dt": "2023.10.06 15:00",
    "o": 1.06601,
    "h": 1.06647,
    "l": 1.06547,
    "c": 1.06587,
    "v": 5205
  },
  {
    "dt": "2023.10.06 16:00",
    "o": 1.06581,
    "h": 1.06703,
    "l": 1.06548,
    "c": 1.06617,
    "v": 6679
  },
  {
    "dt": "2023.10.06 17:00",
    "o": 1.0662,
    "h": 1.06625,
    "l": 1.06526,
    "c": 1.06606,
    "v": 5959
  },
  {
    "dt": "2023.10.06 18:00",
    "o": 1.06604,
    "h": 1.06629,
    "l": 1.06516,
    "c": 1.06624,
    "v": 5380
  },
  {
    "dt": "2023.10.06 19:00",
    "o": 1.06626,
    "h": 1.06645,
    "l": 1.0658,
    "c": 1.06611,
    "v": 4371
  },
  {
    "dt": "2023.10.06 20:00",
    "o": 1.06612,
    "h": 1.06647,
    "l": 1.06572,
    "c": 1.06609,
    "v": 3673
  },
  {
    "dt": "2023.10.06 21:00",
    "o": 1.06609,
    "h": 1.06627,
    "l": 1.06571,
    "c": 1.06581,
    "v": 2785
  },
  {
    "dt": "2023.10.06 22:00",
    "o": 1.06582,
    "h": 1.06599,
    "l": 1.06533,
    "c": 1.06535,
    "v": 2923
  },
  {
    "dt": "2023.10.06 23:00",
    "o": 1.06536,
    "h": 1.06589,
    "l": 1.06472,
    "c": 1.06546,
    "v": 1643
  },
  {
    "dt": "2023.10.09 00:00",
    "o": 1.06487,
    "h": 1.06619,
    "l": 1.0643,
    "c": 1.06495,
    "v": 609
  },
  {
    "dt": "2023.10.09 01:00",
    "o": 1.06491,
    "h": 1.06621,
    "l": 1.06385,
    "c": 1.06539,
    "v": 3005
  },
  {
    "dt": "2023.10.09 02:00",
    "o": 1.06552,
    "h": 1.06634,
    "l": 1.06549,
    "c": 1.06629,
    "v": 2458
  },
  {
    "dt": "2023.10.09 03:00",
    "o": 1.06629,
    "h": 1.06645,
    "l": 1.0655,
    "c": 1.06589,
    "v": 2968
  },
  {
    "dt": "2023.10.09 04:00",
    "o": 1.06575,
    "h": 1.06578,
    "l": 1.06457,
    "c": 1.06478,
    "v": 2745
  },
  {
    "dt": "2023.10.09 05:00",
    "o": 1.06476,
    "h": 1.06481,
    "l": 1.06382,
    "c": 1.0642,
    "v": 1801
  },
  {
    "dt": "2023.10.09 06:00",
    "o": 1.06422,
    "h": 1.0646,
    "l": 1.0637,
    "c": 1.06379,
    "v": 1468
  },
  {
    "dt": "2023.10.09 07:00",
    "o": 1.06378,
    "h": 1.06427,
    "l": 1.06356,
    "c": 1.06401,
    "v": 1899
  },
  {
    "dt": "2023.10.09 08:00",
    "o": 1.064,
    "h": 1.06454,
    "l": 1.06366,
    "c": 1.06428,
    "v": 2332
  },
  {
    "dt": "2023.10.09 09:00",
    "o": 1.0643,
    "h": 1.06486,
    "l": 1.0639,
    "c": 1.06401,
    "v": 3091
  },
  {
    "dt": "2023.10.09 10:00",
    "o": 1.064,
    "h": 1.06418,
    "l": 1.06307,
    "c": 1.06385,
    "v": 3563
  },
  {
    "dt": "2023.10.09 11:00",
    "o": 1.06386,
    "h": 1.06445,
    "l": 1.06364,
    "c": 1.06444,
    "v": 2710
  },
  {
    "dt": "2023.10.09 12:00",
    "o": 1.06444,
    "h": 1.06498,
    "l": 1.0643,
    "c": 1.0646,
    "v": 2045
  },
  {
    "dt": "2023.10.09 13:00",
    "o": 1.06459,
    "h": 1.0646,
    "l": 1.06372,
    "c": 1.06391,
    "v": 2225
  },
  {
    "dt": "2023.10.09 14:00",
    "o": 1.06391,
    "h": 1.06448,
    "l": 1.06387,
    "c": 1.06444,
    "v": 1677
  },
  {
    "dt": "2023.10.09 15:00",
    "o": 1.06442,
    "h": 1.06449,
    "l": 1.06362,
    "c": 1.06382,
    "v": 3060
  },
  {
    "dt": "2023.10.09 16:00",
    "o": 1.06382,
    "h": 1.06399,
    "l": 1.06304,
    "c": 1.06304,
    "v": 4256
  },
  {
    "dt": "2023.10.09 17:00",
    "o": 1.06304,
    "h": 1.06313,
    "l": 1.06229,
    "c": 1.06255,
    "v": 3729
  },
  {
    "dt": "2023.10.09 18:00",
    "o": 1.06256,
    "h": 1.06316,
    "l": 1.06244,
    "c": 1.06276,
    "v": 2311
  },
  {
    "dt": "2023.10.09 19:00",
    "o": 1.06277,
    "h": 1.06296,
    "l": 1.06241,
    "c": 1.06268,
    "v": 2632
  },
  {
    "dt": "2023.10.09 20:00",
    "o": 1.06267,
    "h": 1.06365,
    "l": 1.06253,
    "c": 1.06365,
    "v": 2938
  },
  {
    "dt": "2023.10.09 21:00",
    "o": 1.06343,
    "h": 1.06437,
    "l": 1.06343,
    "c": 1.06419,
    "v": 2681
  },
  {
    "dt": "2023.10.09 22:00",
    "o": 1.06417,
    "h": 1.06441,
    "l": 1.06398,
    "c": 1.06424,
    "v": 2781
  },
  {
    "dt": "2023.10.09 23:00",
    "o": 1.06425,
    "h": 1.06447,
    "l": 1.06388,
    "c": 1.06416,
    "v": 1603
  },
  {
    "dt": "2023.10.10 00:00",
    "o": 1.06527,
    "h": 1.06535,
    "l": 1.06388,
    "c": 1.06442,
    "v": 890
  },
  {
    "dt": "2023.10.10 01:00",
    "o": 1.06456,
    "h": 1.06462,
    "l": 1.0641,
    "c": 1.06457,
    "v": 885
  },
  {
    "dt": "2023.10.10 02:00",
    "o": 1.06452,
    "h": 1.06469,
    "l": 1.0642,
    "c": 1.06453,
    "v": 1404
  },
  {
    "dt": "2023.10.10 03:00",
    "o": 1.06451,
    "h": 1.06468,
    "l": 1.06414,
    "c": 1.06425,
    "v": 2671
  },
  {
    "dt": "2023.10.10 04:00",
    "o": 1.06424,
    "h": 1.06493,
    "l": 1.06424,
    "c": 1.0645,
    "v": 3015
  },
  {
    "dt": "2023.10.10 05:00",
    "o": 1.0645,
    "h": 1.06504,
    "l": 1.0642,
    "c": 1.06469,
    "v": 2343
  },
  {
    "dt": "2023.10.10 06:00",
    "o": 1.06471,
    "h": 1.06559,
    "l": 1.06465,
    "c": 1.06521,
    "v": 2451
  },
  {
    "dt": "2023.10.10 07:00",
    "o": 1.06521,
    "h": 1.06536,
    "l": 1.06489,
    "c": 1.06523,
    "v": 2028
  },
  {
    "dt": "2023.10.10 08:00",
    "o": 1.06524,
    "h": 1.06542,
    "l": 1.06473,
    "c": 1.06496,
    "v": 1964
  },
  {
    "dt": "2023.10.10 09:00",
    "o": 1.06496,
    "h": 1.06524,
    "l": 1.06424,
    "c": 1.06514,
    "v": 3101
  },
  {
    "dt": "2023.10.10 10:00",
    "o": 1.06513,
    "h": 1.06557,
    "l": 1.06447,
    "c": 1.06557,
    "v": 2939
  },
  {
    "dt": "2023.10.10 11:00",
    "o": 1.0656,
    "h": 1.06683,
    "l": 1.06538,
    "c": 1.06613,
    "v": 4312
  },
  {
    "dt": "2023.10.10 12:00",
    "o": 1.06617,
    "h": 1.06636,
    "l": 1.06538,
    "c": 1.06545,
    "v": 3577
  },
  {
    "dt": "2023.10.10 13:00",
    "o": 1.06543,
    "h": 1.06544,
    "l": 1.0646,
    "c": 1.06515,
    "v": 2481
  },
  {
    "dt": "2023.10.10 14:00",
    "o": 1.06514,
    "h": 1.06536,
    "l": 1.0647,
    "c": 1.06472,
    "v": 3245
  },
  {
    "dt": "2023.10.10 15:00",
    "o": 1.06476,
    "h": 1.06508,
    "l": 1.06412,
    "c": 1.06442,
    "v": 4578
  },
  {
    "dt": "2023.10.10 16:00",
    "o": 1.06444,
    "h": 1.06499,
    "l": 1.06435,
    "c": 1.06458,
    "v": 4382
  },
  {
    "dt": "2023.10.10 17:00",
    "o": 1.06459,
    "h": 1.06483,
    "l": 1.06381,
    "c": 1.06407,
    "v": 4362
  },
  {
    "dt": "2023.10.10 18:00",
    "o": 1.06407,
    "h": 1.06441,
    "l": 1.06363,
    "c": 1.06414,
    "v": 3503
  },
  {
    "dt": "2023.10.10 19:00",
    "o": 1.06414,
    "h": 1.06434,
    "l": 1.06372,
    "c": 1.06375,
    "v": 3063
  },
  {
    "dt": "2023.10.10 20:00",
    "o": 1.06374,
    "h": 1.06415,
    "l": 1.06365,
    "c": 1.06369,
    "v": 3219
  },
  {
    "dt": "2023.10.10 21:00",
    "o": 1.06368,
    "h": 1.06398,
    "l": 1.06354,
    "c": 1.06379,
    "v": 2669
  },
  {
    "dt": "2023.10.10 22:00",
    "o": 1.06378,
    "h": 1.06378,
    "l": 1.06324,
    "c": 1.06356,
    "v": 2072
  },
  {
    "dt": "2023.10.10 23:00",
    "o": 1.0635,
    "h": 1.06389,
    "l": 1.06316,
    "c": 1.06356,
    "v": 929
  },
  {
    "dt": "2023.10.11 00:00",
    "o": 1.0618,
    "h": 1.06384,
    "l": 1.06166,
    "c": 1.06317,
    "v": 775
  },
  {
    "dt": "2023.10.11 01:00",
    "o": 1.06317,
    "h": 1.06447,
    "l": 1.063,
    "c": 1.06417,
    "v": 737
  },
  {
    "dt": "2023.10.11 02:00",
    "o": 1.06426,
    "h": 1.06489,
    "l": 1.06402,
    "c": 1.06453,
    "v": 1146
  },
  {
    "dt": "2023.10.11 03:00",
    "o": 1.06452,
    "h": 1.06501,
    "l": 1.06402,
    "c": 1.06441,
    "v": 2833
  },
  {
    "dt": "2023.10.11 04:00",
    "o": 1.0644,
    "h": 1.06512,
    "l": 1.06415,
    "c": 1.06427,
    "v": 2471
  },
  {
    "dt": "2023.10.11 05:00",
    "o": 1.06426,
    "h": 1.06453,
    "l": 1.06387,
    "c": 1.0642,
    "v": 2148
  },
  {
    "dt": "2023.10.11 06:00",
    "o": 1.06423,
    "h": 1.0656,
    "l": 1.06411,
    "c": 1.06529,
    "v": 2073
  },
  {
    "dt": "2023.10.11 07:00",
    "o": 1.06529,
    "h": 1.06573,
    "l": 1.06528,
    "c": 1.06537,
    "v": 1742
  },
  {
    "dt": "2023.10.11 08:00",
    "o": 1.06537,
    "h": 1.06561,
    "l": 1.06498,
    "c": 1.06498,
    "v": 2080
  },
  {
    "dt": "2023.10.11 09:00",
    "o": 1.06498,
    "h": 1.06544,
    "l": 1.06472,
    "c": 1.06529,
    "v": 2779
  },
  {
    "dt": "2023.10.11 10:00",
    "o": 1.06528,
    "h": 1.06626,
    "l": 1.06506,
    "c": 1.0653,
    "v": 3625
  },
  {
    "dt": "2023.10.11 11:00",
    "o": 1.06529,
    "h": 1.06641,
    "l": 1.06514,
    "c": 1.06626,
    "v": 3222
  },
  {
    "dt": "2023.10.11 12:00",
    "o": 1.06625,
    "h": 1.06652,
    "l": 1.06573,
    "c": 1.06577,
    "v": 2492
  },
  {
    "dt": "2023.10.11 13:00",
    "o": 1.06577,
    "h": 1.06584,
    "l": 1.06502,
    "c": 1.06529,
    "v": 2192
  },
  {
    "dt": "2023.10.11 14:00",
    "o": 1.0653,
    "h": 1.06566,
    "l": 1.06517,
    "c": 1.06548,
    "v": 2887
  },
  {
    "dt": "2023.10.11 15:00",
    "o": 1.06548,
    "h": 1.06618,
    "l": 1.06518,
    "c": 1.06559,
    "v": 4071
  },
  {
    "dt": "2023.10.11 16:00",
    "o": 1.06558,
    "h": 1.06587,
    "l": 1.06521,
    "c": 1.06566,
    "v": 4228
  },
  {
    "dt": "2023.10.11 17:00",
    "o": 1.06567,
    "h": 1.06568,
    "l": 1.06406,
    "c": 1.06407,
    "v": 3886
  },
  {
    "dt": "2023.10.11 18:00",
    "o": 1.06407,
    "h": 1.06448,
    "l": 1.06381,
    "c": 1.06385,
    "v": 3314
  },
  {
    "dt": "2023.10.11 19:00",
    "o": 1.06383,
    "h": 1.06421,
    "l": 1.06355,
    "c": 1.06364,
    "v": 2577
  },
  {
    "dt": "2023.10.11 20:00",
    "o": 1.06363,
    "h": 1.06379,
    "l": 1.0623,
    "c": 1.0623,
    "v": 2866
  },
  {
    "dt": "2023.10.11 21:00",
    "o": 1.06312,
    "h": 1.06484,
    "l": 1.0619,
    "c": 1.06483,
    "v": 4085
  },
  {
    "dt": "2023.10.11 22:00",
    "o": 1.06484,
    "h": 1.06492,
    "l": 1.06434,
    "c": 1.06478,
    "v": 4050
  },
  {
    "dt": "2023.10.11 23:00",
    "o": 1.06473,
    "h": 1.06537,
    "l": 1.06473,
    "c": 1.06516,
    "v": 2468
  },
  {
    "dt": "2023.10.12 00:00",
    "o": 1.06383,
    "h": 1.06515,
    "l": 1.06349,
    "c": 1.06492,
    "v": 926
  },
  {
    "dt": "2023.10.12 01:00",
    "o": 1.06503,
    "h": 1.06583,
    "l": 1.06478,
    "c": 1.06553,
    "v": 887
  },
  {
    "dt": "2023.10.12 02:00",
    "o": 1.06567,
    "h": 1.06627,
    "l": 1.06567,
    "c": 1.06613,
    "v": 895
  },
  {
    "dt": "2023.10.12 03:00",
    "o": 1.06614,
    "h": 1.06654,
    "l": 1.066,
    "c": 1.06602,
    "v": 1845
  },
  {
    "dt": "2023.10.12 04:00",
    "o": 1.06601,
    "h": 1.06669,
    "l": 1.06577,
    "c": 1.06622,
    "v": 2347
  },
  {
    "dt": "2023.10.12 05:00",
    "o": 1.06621,
    "h": 1.06734,
    "l": 1.06598,
    "c": 1.06721,
    "v": 1774
  },
  {
    "dt": "2023.10.12 06:00",
    "o": 1.0672,
    "h": 1.0676,
    "l": 1.06711,
    "c": 1.06751,
    "v": 1039
  },
  {
    "dt": "2023.10.12 07:00",
    "o": 1.06748,
    "h": 1.0679,
    "l": 1.06706,
    "c": 1.06731,
    "v": 1061
  },
  {
    "dt": "2023.10.12 08:00",
    "o": 1.06732,
    "h": 1.06764,
    "l": 1.06687,
    "c": 1.06691,
    "v": 1835
  },
  {
    "dt": "2023.10.12 09:00",
    "o": 1.06693,
    "h": 1.06911,
    "l": 1.06685,
    "c": 1.06904,
    "v": 3241
  },
  {
    "dt": "2023.10.12 10:00",
    "o": 1.06902,
    "h": 1.06902,
    "l": 1.06772,
    "c": 1.0682,
    "v": 3124
  },
  {
    "dt": "2023.10.12 11:00",
    "o": 1.06819,
    "h": 1.06845,
    "l": 1.06805,
    "c": 1.06826,
    "v": 2881
  },
  {
    "dt": "2023.10.12 12:00",
    "o": 1.06826,
    "h": 1.06864,
    "l": 1.0679,
    "c": 1.06797,
    "v": 2384
  },
  {
    "dt": "2023.10.12 13:00",
    "o": 1.06797,
    "h": 1.0683,
    "l": 1.0675,
    "c": 1.0678,
    "v": 2178
  },
  {
    "dt": "2023.10.12 14:00",
    "o": 1.06778,
    "h": 1.06785,
    "l": 1.06746,
    "c": 1.06754,
    "v": 2469
  },
  {
    "dt": "2023.10.12 15:00",
    "o": 1.06754,
    "h": 1.06806,
    "l": 1.06659,
    "c": 1.06729,
    "v": 4956
  },
  {
    "dt": "2023.10.12 16:00",
    "o": 1.0673,
    "h": 1.06784,
    "l": 1.06657,
    "c": 1.06703,
    "v": 4691
  },
  {
    "dt": "2023.10.12 17:00",
    "o": 1.06706,
    "h": 1.06706,
    "l": 1.06527,
    "c": 1.0653,
    "v": 4383
  },
  {
    "dt": "2023.10.12 18:00",
    "o": 1.0653,
    "h": 1.0658,
    "l": 1.06509,
    "c": 1.0657,
    "v": 3762
  },
  {
    "dt": "2023.10.12 19:00",
    "o": 1.06571,
    "h": 1.06625,
    "l": 1.06552,
    "c": 1.06596,
    "v": 3042
  },
  {
    "dt": "2023.10.12 20:00",
    "o": 1.06595,
    "h": 1.066,
    "l": 1.06428,
    "c": 1.06435,
    "v": 4142
  },
  {
    "dt": "2023.10.12 21:00",
    "o": 1.06356,
    "h": 1.06502,
    "l": 1.06344,
    "c": 1.06432,
    "v": 3396
  },
  {
    "dt": "2023.10.12 22:00",
    "o": 1.06433,
    "h": 1.06459,
    "l": 1.06406,
    "c": 1.06454,
    "v": 2857
  },
  {
    "dt": "2023.10.12 23:00",
    "o": 1.06453,
    "h": 1.06536,
    "l": 1.06447,
    "c": 1.06536,
    "v": 759
  },
  {
    "dt": "2023.10.13 00:00",
    "o": 1.06453,
    "h": 1.06537,
    "l": 1.06328,
    "c": 1.06495,
    "v": 1315
  },
  {
    "dt": "2023.10.13 01:00",
    "o": 1.06498,
    "h": 1.06619,
    "l": 1.06498,
    "c": 1.06605,
    "v": 1004
  },
  {
    "dt": "2023.10.13 02:00",
    "o": 1.06602,
    "h": 1.0668,
    "l": 1.06567,
    "c": 1.06667,
    "v": 2181
  },
  {
    "dt": "2023.10.13 03:00",
    "o": 1.06668,
    "h": 1.06671,
    "l": 1.06624,
    "c": 1.06638,
    "v": 2559
  },
  {
    "dt": "2023.10.13 04:00",
    "o": 1.06638,
    "h": 1.06816,
    "l": 1.06637,
    "c": 1.06808,
    "v": 2835
  },
  {
    "dt": "2023.10.13 05:00",
    "o": 1.06809,
    "h": 1.06845,
    "l": 1.06793,
    "c": 1.06837,
    "v": 2595
  },
  {
    "dt": "2023.10.13 06:00",
    "o": 1.06836,
    "h": 1.06922,
    "l": 1.06821,
    "c": 1.06902,
    "v": 1992
  },
  {
    "dt": "2023.10.13 07:00",
    "o": 1.06903,
    "h": 1.06911,
    "l": 1.06779,
    "c": 1.06784,
    "v": 2593
  },
  {
    "dt": "2023.10.13 08:00",
    "o": 1.06784,
    "h": 1.0679,
    "l": 1.06714,
    "c": 1.06748,
    "v": 2596
  },
  {
    "dt": "2023.10.13 09:00",
    "o": 1.06748,
    "h": 1.0681,
    "l": 1.067,
    "c": 1.06783,
    "v": 3223
  },
  {
    "dt": "2023.10.13 10:00",
    "o": 1.06783,
    "h": 1.06856,
    "l": 1.06778,
    "c": 1.06804,
    "v": 3943
  },
  {
    "dt": "2023.10.13 11:00",
    "o": 1.06805,
    "h": 1.06919,
    "l": 1.06793,
    "c": 1.06864,
    "v": 3402
  },
  {
    "dt": "2023.10.13 12:00",
    "o": 1.0686,
    "h": 1.06904,
    "l": 1.06789,
    "c": 1.06794,
    "v": 3210
  },
  {
    "dt": "2023.10.13 13:00",
    "o": 1.06794,
    "h": 1.0691,
    "l": 1.06775,
    "c": 1.06844,
    "v": 3453
  },
  {
    "dt": "2023.10.13 14:00",
    "o": 1.06836,
    "h": 1.0691,
    "l": 1.06779,
    "c": 1.0691,
    "v": 3902
  },
  {
    "dt": "2023.10.13 15:00",
    "o": 1.06911,
    "h": 1.06948,
    "l": 1.06865,
    "c": 1.06869,
    "v": 4572
  },
  {
    "dt": "2023.10.13 16:00",
    "o": 1.06868,
    "h": 1.0696,
    "l": 1.06859,
    "c": 1.06908,
    "v": 5247
  },
  {
    "dt": "2023.10.13 17:00",
    "o": 1.0691,
    "h": 1.06981,
    "l": 1.06769,
    "c": 1.06783,
    "v": 5425
  },
  {
    "dt": "2023.10.13 18:00",
    "o": 1.0678,
    "h": 1.06834,
    "l": 1.06728,
    "c": 1.06748,
    "v": 4374
  },
  {
    "dt": "2023.10.13 19:00",
    "o": 1.06751,
    "h": 1.06825,
    "l": 1.06745,
    "c": 1.06812,
    "v": 3028
  },
  {
    "dt": "2023.10.13 20:00",
    "o": 1.06813,
    "h": 1.06845,
    "l": 1.06769,
    "c": 1.06834,
    "v": 3554
  },
  {
    "dt": "2023.10.13 21:00",
    "o": 1.06834,
    "h": 1.0691,
    "l": 1.06809,
    "c": 1.06906,
    "v": 3104
  },
  {
    "dt": "2023.10.13 22:00",
    "o": 1.06907,
    "h": 1.06974,
    "l": 1.06882,
    "c": 1.06942,
    "v": 2759
  },
  {
    "dt": "2023.10.13 23:00",
    "o": 1.06942,
    "h": 1.06996,
    "l": 1.06919,
    "c": 1.06957,
    "v": 1283
  },
  {
    "dt": "2023.10.16 00:00",
    "o": 1.06453,
    "h": 1.06733,
    "l": 1.06453,
    "c": 1.06631,
    "v": 397
  },
  {
    "dt": "2023.10.16 01:00",
    "o": 1.0664,
    "h": 1.06794,
    "l": 1.0664,
    "c": 1.06764,
    "v": 1628
  },
  {
    "dt": "2023.10.16 02:00",
    "o": 1.06811,
    "h": 1.06917,
    "l": 1.06809,
    "c": 1.06831,
    "v": 1023
  },
  {
    "dt": "2023.10.16 03:00",
    "o": 1.06832,
    "h": 1.06843,
    "l": 1.06727,
    "c": 1.06731,
    "v": 1639
  },
  {
    "dt": "2023.10.16 04:00",
    "o": 1.06734,
    "h": 1.06778,
    "l": 1.06687,
    "c": 1.06742,
    "v": 1543
  },
  {
    "dt": "2023.10.16 05:00",
    "o": 1.06742,
    "h": 1.06759,
    "l": 1.06669,
    "c": 1.06744,
    "v": 1510
  },
  {
    "dt": "2023.10.16 06:00",
    "o": 1.06745,
    "h": 1.06746,
    "l": 1.06677,
    "c": 1.0672,
    "v": 741
  },
  {
    "dt": "2023.10.16 07:00",
    "o": 1.06721,
    "h": 1.06756,
    "l": 1.06682,
    "c": 1.06723,
    "v": 882
  },
  {
    "dt": "2023.10.16 08:00",
    "o": 1.06726,
    "h": 1.06768,
    "l": 1.067,
    "c": 1.06727,
    "v": 986
  },
  {
    "dt": "2023.10.16 09:00",
    "o": 1.06726,
    "h": 1.06886,
    "l": 1.06726,
    "c": 1.06853,
    "v": 1791
  },
  {
    "dt": "2023.10.16 10:00",
    "o": 1.06853,
    "h": 1.06886,
    "l": 1.06719,
    "c": 1.06736,
    "v": 2174
  },
  {
    "dt": "2023.10.16 11:00",
    "o": 1.06736,
    "h": 1.0688,
    "l": 1.06726,
    "c": 1.06865,
    "v": 1792
  },
  {
    "dt": "2023.10.16 12:00",
    "o": 1.06866,
    "h": 1.06882,
    "l": 1.06821,
    "c": 1.06865,
    "v": 1526
  },
  {
    "dt": "2023.10.16 13:00",
    "o": 1.06867,
    "h": 1.06874,
    "l": 1.06814,
    "c": 1.06818,
    "v": 1344
  },
  {
    "dt": "2023.10.16 14:00",
    "o": 1.06816,
    "h": 1.06837,
    "l": 1.06775,
    "c": 1.06832,
    "v": 1575
  },
  {
    "dt": "2023.10.16 15:00",
    "o": 1.06833,
    "h": 1.06845,
    "l": 1.06789,
    "c": 1.06837,
    "v": 3726
  },
  {
    "dt": "2023.10.16 16:00",
    "o": 1.06838,
    "h": 1.06874,
    "l": 1.06798,
    "c": 1.06872,
    "v": 3719
  },
  {
    "dt": "2023.10.16 17:00",
    "o": 1.06873,
    "h": 1.06953,
    "l": 1.0684,
    "c": 1.06948,
    "v": 3968
  },
  {
    "dt": "2023.10.16 18:00",
    "o": 1.0695,
    "h": 1.07037,
    "l": 1.06941,
    "c": 1.07008,
    "v": 3358
  },
  {
    "dt": "2023.10.16 19:00",
    "o": 1.07014,
    "h": 1.07044,
    "l": 1.0699,
    "c": 1.07044,
    "v": 2138
  },
  {
    "dt": "2023.10.16 20:00",
    "o": 1.07043,
    "h": 1.07046,
    "l": 1.06943,
    "c": 1.06951,
    "v": 2347
  },
  {
    "dt": "2023.10.16 21:00",
    "o": 1.07013,
    "h": 1.07013,
    "l": 1.06946,
    "c": 1.06971,
    "v": 1877
  },
  {
    "dt": "2023.10.16 22:00",
    "o": 1.06969,
    "h": 1.07063,
    "l": 1.06967,
    "c": 1.07031,
    "v": 2139
  },
  {
    "dt": "2023.10.16 23:00",
    "o": 1.07029,
    "h": 1.07032,
    "l": 1.06952,
    "c": 1.06967,
    "v": 838
  },
  {
    "dt": "2023.10.17 00:00",
    "o": 1.069,
    "h": 1.07266,
    "l": 1.06835,
    "c": 1.07244,
    "v": 2185
  },
  {
    "dt": "2023.10.17 01:00",
    "o": 1.07252,
    "h": 1.07367,
    "l": 1.07216,
    "c": 1.07293,
    "v": 1533
  },
  {
    "dt": "2023.10.17 02:00",
    "o": 1.07357,
    "h": 1.07419,
    "l": 1.07338,
    "c": 1.07386,
    "v": 835
  },
  {
    "dt": "2023.10.17 03:00",
    "o": 1.07386,
    "h": 1.0761,
    "l": 1.07381,
    "c": 1.07545,
    "v": 2280
  },
  {
    "dt": "2023.10.17 04:00",
    "o": 1.07547,
    "h": 1.076,
    "l": 1.07505,
    "c": 1.07582,
    "v": 1420
  },
  {
    "dt": "2023.10.17 05:00",
    "o": 1.07584,
    "h": 1.07615,
    "l": 1.07508,
    "c": 1.07544,
    "v": 1489
  },
  {
    "dt": "2023.10.17 06:00",
    "o": 1.07544,
    "h": 1.07676,
    "l": 1.07506,
    "c": 1.07644,
    "v": 1698
  },
  {
    "dt": "2023.10.17 07:00",
    "o": 1.07642,
    "h": 1.07654,
    "l": 1.07561,
    "c": 1.07646,
    "v": 840
  },
  {
    "dt": "2023.10.17 08:00",
    "o": 1.07646,
    "h": 1.07673,
    "l": 1.076,
    "c": 1.07661,
    "v": 1187
  },
  {
    "dt": "2023.10.17 09:00",
    "o": 1.07664,
    "h": 1.07732,
    "l": 1.07662,
    "c": 1.07729,
    "v": 1553
  },
  {
    "dt": "2023.10.17 10:00",
    "o": 1.07728,
    "h": 1.07829,
    "l": 1.0771,
    "c": 1.07824,
    "v": 1965
  },
  {
    "dt": "2023.10.17 11:00",
    "o": 1.07826,
    "h": 1.07866,
    "l": 1.07803,
    "c": 1.0782,
    "v": 1731
  },
  {
    "dt": "2023.10.17 12:00",
    "o": 1.07819,
    "h": 1.07936,
    "l": 1.07801,
    "c": 1.07875,
    "v": 1320
  },
  {
    "dt": "2023.10.17 13:00",
    "o": 1.07875,
    "h": 1.07898,
    "l": 1.07808,
    "c": 1.07885,
    "v": 1887
  },
  {
    "dt": "2023.10.17 14:00",
    "o": 1.07884,
    "h": 1.07923,
    "l": 1.07782,
    "c": 1.07826,
    "v": 1593
  },
  {
    "dt": "2023.10.17 15:00",
    "o": 1.07828,
    "h": 1.07933,
    "l": 1.07786,
    "c": 1.07888,
    "v": 3347
  },
  {
    "dt": "2023.10.17 16:00",
    "o": 1.07887,
    "h": 1.07922,
    "l": 1.07781,
    "c": 1.07823,
    "v": 3124
  },
  {
    "dt": "2023.10.17 17:00",
    "o": 1.07823,
    "h": 1.07936,
    "l": 1.07821,
    "c": 1.0786,
    "v": 2588
  },
  {
    "dt": "2023.10.17 18:00",
    "o": 1.07861,
    "h": 1.07931,
    "l": 1.07845,
    "c": 1.07927,
    "v": 2833
  },
  {
    "dt": "2023.10.17 19:00",
    "o": 1.07929,
    "h": 1.07974,
    "l": 1.07914,
    "c": 1.07965,
    "v": 3116
  },
  {
    "dt": "2023.10.17 20:00",
    "o": 1.07962,
    "h": 1.07985,
    "l": 1.07892,
    "c": 1.079,
    "v": 2806
  },
  {
    "dt": "2023.10.17 21:00",
    "o": 1.07883,
    "h": 1.07921,
    "l": 1.07854,
    "c": 1.07897,
    "v": 2936
  },
  {
    "dt": "2023.10.17 22:00",
    "o": 1.07892,
    "h": 1.0791,
    "l": 1.07854,
    "c": 1.07908,
    "v": 3033
  },
  {
    "dt": "2023.10.17 23:00",
    "o": 1.0791,
    "h": 1.07954,
    "l": 1.07905,
    "c": 1.07926,
    "v": 920
  },
  {
    "dt": "2023.10.18 00:00",
    "o": 1.07892,
    "h": 1.07951,
    "l": 1.07842,
    "c": 1.07945,
    "v": 1159
  },
  {
    "dt": "2023.10.18 01:00",
    "o": 1.07949,
    "h": 1.07966,
    "l": 1.07899,
    "c": 1.07965,
    "v": 681
  },
  {
    "dt": "2023.10.18 02:00",
    "o": 1.07994,
    "h": 1.07997,
    "l": 1.07918,
    "c": 1.07929,
    "v": 498
  },
  {
    "dt": "2023.10.18 03:00",
    "o": 1.07929,
    "h": 1.08025,
    "l": 1.079,
    "c": 1.07927,
    "v": 1322
  },
  {
    "dt": "2023.10.18 04:00",
    "o": 1.0793,
    "h": 1.08029,
    "l": 1.07893,
    "c": 1.08021,
    "v": 1808
  },
  {
    "dt": "2023.10.18 05:00",
    "o": 1.08023,
    "h": 1.08094,
    "l": 1.07872,
    "c": 1.07938,
    "v": 2319
  },
  {
    "dt": "2023.10.18 06:00",
    "o": 1.07941,
    "h": 1.07994,
    "l": 1.07902,
    "c": 1.07944,
    "v": 1152
  },
  {
    "dt": "2023.10.18 07:00",
    "o": 1.07946,
    "h": 1.07994,
    "l": 1.07928,
    "c": 1.07965,
    "v": 1086
  },
  {
    "dt": "2023.10.18 08:00",
    "o": 1.07966,
    "h": 1.07994,
    "l": 1.07903,
    "c": 1.07937,
    "v": 1741
  },
  {
    "dt": "2023.10.18 09:00",
    "o": 1.07944,
    "h": 1.07996,
    "l": 1.07941,
    "c": 1.0799,
    "v": 1882
  },
  {
    "dt": "2023.10.18 10:00",
    "o": 1.07991,
    "h": 1.08076,
    "l": 1.07934,
    "c": 1.08066,
    "v": 1719
  },
  {
    "dt": "2023.10.18 11:00",
    "o": 1.08068,
    "h": 1.08146,
    "l": 1.08064,
    "c": 1.08114,
    "v": 1538
  },
  {
    "dt": "2023.10.18 12:00",
    "o": 1.08114,
    "h": 1.08125,
    "l": 1.08055,
    "c": 1.08061,
    "v": 1421
  },
  {
    "dt": "2023.10.18 13:00",
    "o": 1.08061,
    "h": 1.08128,
    "l": 1.08029,
    "c": 1.08082,
    "v": 1556
  },
  {
    "dt": "2023.10.18 14:00",
    "o": 1.08081,
    "h": 1.08113,
    "l": 1.08031,
    "c": 1.08078,
    "v": 1512
  },
  {
    "dt": "2023.10.18 15:00",
    "o": 1.08078,
    "h": 1.08124,
    "l": 1.08021,
    "c": 1.08101,
    "v": 2119
  },
  {
    "dt": "2023.10.18 16:00",
    "o": 1.08102,
    "h": 1.0815,
    "l": 1.08063,
    "c": 1.08112,
    "v": 2132
  },
  {
    "dt": "2023.10.18 17:00",
    "o": 1.08109,
    "h": 1.08186,
    "l": 1.08103,
    "c": 1.08138,
    "v": 2629
  },
  {
    "dt": "2023.10.18 18:00",
    "o": 1.08138,
    "h": 1.08236,
    "l": 1.08136,
    "c": 1.08139,
    "v": 2830
  },
  {
    "dt": "2023.10.18 19:00",
    "o": 1.08137,
    "h": 1.08169,
    "l": 1.08113,
    "c": 1.08138,
    "v": 3399
  },
  {
    "dt": "2023.10.18 20:00",
    "o": 1.08137,
    "h": 1.08214,
    "l": 1.08087,
    "c": 1.08115,
    "v": 4351
  },
  {
    "dt": "2023.10.18 21:00",
    "o": 1.08128,
    "h": 1.08182,
    "l": 1.08105,
    "c": 1.08172,
    "v": 3660
  },
  {
    "dt": "2023.10.18 22:00",
    "o": 1.08172,
    "h": 1.08202,
    "l": 1.08138,
    "c": 1.08202,
    "v": 2844
  },
  {
    "dt": "2023.10.18 23:00",
    "o": 1.08201,
    "h": 1.08231,
    "l": 1.08167,
    "c": 1.08197,
    "v": 1260
  },
  {
    "dt": "2023.10.19 00:00",
    "o": 1.08165,
    "h": 1.0819,
    "l": 1.08094,
    "c": 1.08146,
    "v": 856
  },
  {
    "dt": "2023.10.19 01:00",
    "o": 1.08146,
    "h": 1.08239,
    "l": 1.08146,
    "c": 1.0817,
    "v": 866
  },
  {
    "dt": "2023.10.19 02:00",
    "o": 1.08195,
    "h": 1.08195,
    "l": 1.08138,
    "c": 1.08174,
    "v": 883
  },
  {
    "dt": "2023.10.19 03:00",
    "o": 1.08171,
    "h": 1.08201,
    "l": 1.07987,
    "c": 1.08034,
    "v": 2462
  },
  {
    "dt": "2023.10.19 04:00",
    "o": 1.08031,
    "h": 1.08041,
    "l": 1.07933,
    "c": 1.08002,
    "v": 2029
  },
  {
    "dt": "2023.10.19 05:00",
    "o": 1.08002,
    "h": 1.08041,
    "l": 1.07926,
    "c": 1.08013,
    "v": 1616
  },
  {
    "dt": "2023.10.19 06:00",
    "o": 1.0801,
    "h": 1.081,
    "l": 1.07997,
    "c": 1.08098,
    "v": 1259
  },
  {
    "dt": "2023.10.19 07:00",
    "o": 1.08099,
    "h": 1.08183,
    "l": 1.08092,
    "c": 1.08157,
    "v": 1215
  },
  {
    "dt": "2023.10.19 08:00",
    "o": 1.08157,
    "h": 1.0819,
    "l": 1.08107,
    "c": 1.08183,
    "v": 1601
  },
  {
    "dt": "2023.10.19 09:00",
    "o": 1.08184,
    "h": 1.08228,
    "l": 1.08113,
    "c": 1.08193,
    "v": 1892
  },
  {
    "dt": "2023.10.19 10:00",
    "o": 1.08196,
    "h": 1.08284,
    "l": 1.08161,
    "c": 1.08227,
    "v": 2999
  },
  {
    "dt": "2023.10.19 11:00",
    "o": 1.0823,
    "h": 1.0833,
    "l": 1.0822,
    "c": 1.08307,
    "v": 2587
  },
  {
    "dt": "2023.10.19 12:00",
    "o": 1.08309,
    "h": 1.08309,
    "l": 1.08252,
    "c": 1.08281,
    "v": 1676
  },
  {
    "dt": "2023.10.19 13:00",
    "o": 1.08279,
    "h": 1.08349,
    "l": 1.08274,
    "c": 1.08314,
    "v": 1380
  },
  {
    "dt": "2023.10.19 14:00",
    "o": 1.08314,
    "h": 1.08358,
    "l": 1.08303,
    "c": 1.08336,
    "v": 1557
  },
  {
    "dt": "2023.10.19 15:00",
    "o": 1.08334,
    "h": 1.08429,
    "l": 1.08315,
    "c": 1.0832,
    "v": 3188
  },
  {
    "dt": "2023.10.19 16:00",
    "o": 1.0832,
    "h": 1.08357,
    "l": 1.08275,
    "c": 1.08284,
    "v": 2611
  },
  {
    "dt": "2023.10.19 17:00",
    "o": 1.08279,
    "h": 1.0832,
    "l": 1.08243,
    "c": 1.08248,
    "v": 2750
  },
  {
    "dt": "2023.10.19 18:00",
    "o": 1.08249,
    "h": 1.08322,
    "l": 1.08242,
    "c": 1.08307,
    "v": 2465
  },
  {
    "dt": "2023.10.19 19:00",
    "o": 1.08308,
    "h": 1.08344,
    "l": 1.08252,
    "c": 1.08325,
    "v": 5706
  },
  {
    "dt": "2023.10.19 20:00",
    "o": 1.08323,
    "h": 1.08392,
    "l": 1.08306,
    "c": 1.08312,
    "v": 5521
  },
  {
    "dt": "2023.10.19 21:00",
    "o": 1.08306,
    "h": 1.08347,
    "l": 1.0825,
    "c": 1.0826,
    "v": 4410
  },
  {
    "dt": "2023.10.19 22:00",
    "o": 1.08259,
    "h": 1.0826,
    "l": 1.08155,
    "c": 1.08162,
    "v": 3789
  },
  {
    "dt": "2023.10.19 23:00",
    "o": 1.08158,
    "h": 1.08215,
    "l": 1.08138,
    "c": 1.08186,
    "v": 1541
  },
  {
    "dt": "2023.10.20 00:00",
    "o": 1.08214,
    "h": 1.08236,
    "l": 1.08115,
    "c": 1.08219,
    "v": 1093
  },
  {
    "dt": "2023.10.20 01:00",
    "o": 1.08228,
    "h": 1.0829,
    "l": 1.08202,
    "c": 1.08243,
    "v": 977
  },
  {
    "dt": "2023.10.20 02:00",
    "o": 1.08238,
    "h": 1.08263,
    "l": 1.082,
    "c": 1.0826,
    "v": 1146
  },
  {
    "dt": "2023.10.20 03:00",
    "o": 1.08262,
    "h": 1.08323,
    "l": 1.08248,
    "c": 1.08262,
    "v": 1375
  },
  {
    "dt": "2023.10.20 04:00",
    "o": 1.08264,
    "h": 1.08405,
    "l": 1.08264,
    "c": 1.0832,
    "v": 1581
  },
  {
    "dt": "2023.10.20 05:00",
    "o": 1.08323,
    "h": 1.08419,
    "l": 1.08275,
    "c": 1.08283,
    "v": 1320
  },
  {
    "dt": "2023.10.20 06:00",
    "o": 1.08284,
    "h": 1.08361,
    "l": 1.0828,
    "c": 1.0833,
    "v": 982
  },
  {
    "dt": "2023.10.20 07:00",
    "o": 1.0833,
    "h": 1.0833,
    "l": 1.08283,
    "c": 1.08305,
    "v": 853
  },
  {
    "dt": "2023.10.20 08:00",
    "o": 1.08305,
    "h": 1.08323,
    "l": 1.08248,
    "c": 1.08316,
    "v": 1098
  },
  {
    "dt": "2023.10.20 09:00",
    "o": 1.08313,
    "h": 1.08366,
    "l": 1.08254,
    "c": 1.08296,
    "v": 1797
  },
  {
    "dt": "2023.10.20 10:00",
    "o": 1.08299,
    "h": 1.0833,
    "l": 1.08239,
    "c": 1.08252,
    "v": 1643
  },
  {
    "dt": "2023.10.20 11:00",
    "o": 1.08249,
    "h": 1.08288,
    "l": 1.08199,
    "c": 1.08219,
    "v": 1762
  },
  {
    "dt": "2023.10.20 12:00",
    "o": 1.08216,
    "h": 1.08285,
    "l": 1.08201,
    "c": 1.08249,
    "v": 1126
  },
  {
    "dt": "2023.10.20 13:00",
    "o": 1.0825,
    "h": 1.0831,
    "l": 1.08244,
    "c": 1.08307,
    "v": 883
  },
  {
    "dt": "2023.10.20 14:00",
    "o": 1.08307,
    "h": 1.08319,
    "l": 1.08277,
    "c": 1.08298,
    "v": 1256
  },
  {
    "dt": "2023.10.20 15:00",
    "o": 1.08299,
    "h": 1.08334,
    "l": 1.08249,
    "c": 1.08331,
    "v": 2014
  },
  {
    "dt": "2023.10.20 16:00",
    "o": 1.08329,
    "h": 1.08368,
    "l": 1.08285,
    "c": 1.08352,
    "v": 2160
  },
  {
    "dt": "2023.10.20 17:00",
    "o": 1.08352,
    "h": 1.08438,
    "l": 1.0834,
    "c": 1.08438,
    "v": 2237
  },
  {
    "dt": "2023.10.20 18:00",
    "o": 1.08438,
    "h": 1.08446,
    "l": 1.08373,
    "c": 1.08398,
    "v": 2757
  },
  {
    "dt": "2023.10.20 19:00",
    "o": 1.08396,
    "h": 1.0841,
    "l": 1.08328,
    "c": 1.08366,
    "v": 3321
  },
  {
    "dt": "2023.10.20 20:00",
    "o": 1.08368,
    "h": 1.0839,
    "l": 1.08354,
    "c": 1.08366,
    "v": 3978
  },
  {
    "dt": "2023.10.20 21:00",
    "o": 1.08364,
    "h": 1.08418,
    "l": 1.08359,
    "c": 1.08418,
    "v": 3310
  },
  {
    "dt": "2023.10.20 22:00",
    "o": 1.08417,
    "h": 1.08426,
    "l": 1.08358,
    "c": 1.0839,
    "v": 2986
  },
  {
    "dt": "2023.10.20 23:00",
    "o": 1.08392,
    "h": 1.08392,
    "l": 1.08291,
    "c": 1.08303,
    "v": 1164
  },
  {
    "dt": "2023.10.23 00:00",
    "o": 1.08343,
    "h": 1.08373,
    "l": 1.08204,
    "c": 1.08285,
    "v": 530
  },
  {
    "dt": "2023.10.23 01:00",
    "o": 1.08266,
    "h": 1.08395,
    "l": 1.08225,
    "c": 1.08368,
    "v": 1158
  },
  {
    "dt": "2023.10.23 02:00",
    "o": 1.08371,
    "h": 1.08418,
    "l": 1.08363,
    "c": 1.08416,
    "v": 673
  },
  {
    "dt": "2023.10.23 03:00",
    "o": 1.08415,
    "h": 1.08428,
    "l": 1.08328,
    "c": 1.0839,
    "v": 1232
  },
  {
    "dt": "2023.10.23 04:00",
    "o": 1.0839,
    "h": 1.08393,
    "l": 1.08319,
    "c": 1.08336,
    "v": 1427
  },
  {
    "dt": "2023.10.23 05:00",
    "o": 1.08337,
    "h": 1.08389,
    "l": 1.08314,
    "c": 1.08386,
    "v": 1048
  },
  {
    "dt": "2023.10.23 06:00",
    "o": 1.08386,
    "h": 1.0843,
    "l": 1.08368,
    "c": 1.08388,
    "v": 858
  },
  {
    "dt": "2023.10.23 07:00",
    "o": 1.08391,
    "h": 1.08399,
    "l": 1.08342,
    "c": 1.08381,
    "v": 761
  },
  {
    "dt": "2023.10.23 08:00",
    "o": 1.08379,
    "h": 1.08382,
    "l": 1.08326,
    "c": 1.08332,
    "v": 876
  },
  {
    "dt": "2023.10.23 09:00",
    "o": 1.08336,
    "h": 1.08353,
    "l": 1.08241,
    "c": 1.0825,
    "v": 1136
  },
  {
    "dt": "2023.10.23 10:00",
    "o": 1.08253,
    "h": 1.08354,
    "l": 1.08253,
    "c": 1.08315,
    "v": 1704
  },
  {
    "dt": "2023.10.23 11:00",
    "o": 1.08313,
    "h": 1.08443,
    "l": 1.08305,
    "c": 1.08425,
    "v": 1520
  },
  {
    "dt": "2023.10.23 12:00",
    "o": 1.08424,
    "h": 1.08424,
    "l": 1.08226,
    "c": 1.08283,
    "v": 1482
  },
  {
    "dt": "2023.10.23 13:00",
    "o": 1.08284,
    "h": 1.08412,
    "l": 1.08268,
    "c": 1.08393,
    "v": 1423
  },
  {
    "dt": "2023.10.23 14:00",
    "o": 1.08394,
    "h": 1.08414,
    "l": 1.0838,
    "c": 1.08406,
    "v": 1392
  },
  {
    "dt": "2023.10.23 15:00",
    "o": 1.08408,
    "h": 1.08444,
    "l": 1.08396,
    "c": 1.08433,
    "v": 1905
  },
  {
    "dt": "2023.10.23 16:00",
    "o": 1.08435,
    "h": 1.08453,
    "l": 1.08381,
    "c": 1.08416,
    "v": 1969
  },
  {
    "dt": "2023.10.23 17:00",
    "o": 1.08417,
    "h": 1.08442,
    "l": 1.08351,
    "c": 1.08376,
    "v": 2710
  },
  {
    "dt": "2023.10.23 18:00",
    "o": 1.08374,
    "h": 1.08459,
    "l": 1.08361,
    "c": 1.08436,
    "v": 2027
  },
  {
    "dt": "2023.10.23 19:00",
    "o": 1.08434,
    "h": 1.08439,
    "l": 1.08374,
    "c": 1.08397,
    "v": 2680
  },
  {
    "dt": "2023.10.23 20:00",
    "o": 1.08398,
    "h": 1.08403,
    "l": 1.08346,
    "c": 1.0835,
    "v": 2415
  },
  {
    "dt": "2023.10.23 21:00",
    "o": 1.08349,
    "h": 1.08372,
    "l": 1.08335,
    "c": 1.08366,
    "v": 2101
  },
  {
    "dt": "2023.10.23 22:00",
    "o": 1.08367,
    "h": 1.08372,
    "l": 1.08219,
    "c": 1.08263,
    "v": 2945
  },
  {
    "dt": "2023.10.23 23:00",
    "o": 1.08261,
    "h": 1.08353,
    "l": 1.08241,
    "c": 1.08346,
    "v": 1092
  },
  {
    "dt": "2023.10.24 00:00",
    "o": 1.0826,
    "h": 1.08392,
    "l": 1.08206,
    "c": 1.08374,
    "v": 1913
  },
  {
    "dt": "2023.10.24 01:00",
    "o": 1.08377,
    "h": 1.08384,
    "l": 1.08247,
    "c": 1.08273,
    "v": 861
  },
  {
    "dt": "2023.10.24 02:00",
    "o": 1.08264,
    "h": 1.08291,
    "l": 1.08254,
    "c": 1.08283,
    "v": 447
  },
  {
    "dt": "2023.10.24 03:00",
    "o": 1.08284,
    "h": 1.0838,
    "l": 1.08279,
    "c": 1.08344,
    "v": 1397
  },
  {
    "dt": "2023.10.24 04:00",
    "o": 1.08343,
    "h": 1.08431,
    "l": 1.08337,
    "c": 1.08397,
    "v": 1817
  },
  {
    "dt": "2023.10.24 05:00",
    "o": 1.08398,
    "h": 1.08476,
    "l": 1.08384,
    "c": 1.08471,
    "v": 1819
  },
  {
    "dt": "2023.10.24 06:00",
    "o": 1.08468,
    "h": 1.08515,
    "l": 1.08458,
    "c": 1.08488,
    "v": 1389
  },
  {
    "dt": "2023.10.24 07:00",
    "o": 1.08487,
    "h": 1.08564,
    "l": 1.08467,
    "c": 1.08556,
    "v": 1003
  },
  {
    "dt": "2023.10.24 08:00",
    "o": 1.08556,
    "h": 1.08591,
    "l": 1.08536,
    "c": 1.0857,
    "v": 1223
  },
  {
    "dt": "2023.10.24 09:00",
    "o": 1.08567,
    "h": 1.0859,
    "l": 1.08517,
    "c": 1.08558,
    "v": 3160
  },
  {
    "dt": "2023.10.24 10:00",
    "o": 1.08557,
    "h": 1.0866,
    "l": 1.08533,
    "c": 1.08619,
    "v": 2834
  },
  {
    "dt": "2023.10.24 11:00",
    "o": 1.08621,
    "h": 1.08678,
    "l": 1.08607,
    "c": 1.08648,
    "v": 2113
  },
  {
    "dt": "2023.10.24 12:00",
    "o": 1.08649,
    "h": 1.08744,
    "l": 1.08628,
    "c": 1.08742,
    "v": 1669
  },
  {
    "dt": "2023.10.24 13:00",
    "o": 1.08742,
    "h": 1.08758,
    "l": 1.08676,
    "c": 1.08729,
    "v": 1582
  },
  {
    "dt": "2023.10.24 14:00",
    "o": 1.0873,
    "h": 1.08781,
    "l": 1.0871,
    "c": 1.08766,
    "v": 1530
  },
  {
    "dt": "2023.10.24 15:00",
    "o": 1.08765,
    "h": 1.08789,
    "l": 1.08738,
    "c": 1.08761,
    "v": 1764
  },
  {
    "dt": "2023.10.24 16:00",
    "o": 1.08762,
    "h": 1.08871,
    "l": 1.08729,
    "c": 1.08845,
    "v": 2535
  },
  {
    "dt": "2023.10.24 17:00",
    "o": 1.08831,
    "h": 1.08864,
    "l": 1.08779,
    "c": 1.08848,
    "v": 2805
  },
  {
    "dt": "2023.10.24 18:00",
    "o": 1.08847,
    "h": 1.08863,
    "l": 1.08794,
    "c": 1.08829,
    "v": 2668
  },
  {
    "dt": "2023.10.24 19:00",
    "o": 1.08826,
    "h": 1.08873,
    "l": 1.0878,
    "c": 1.08793,
    "v": 2729
  },
  {
    "dt": "2023.10.24 20:00",
    "o": 1.0879,
    "h": 1.08814,
    "l": 1.08764,
    "c": 1.08778,
    "v": 2388
  },
  {
    "dt": "2023.10.24 21:00",
    "o": 1.08775,
    "h": 1.08825,
    "l": 1.0877,
    "c": 1.08812,
    "v": 2321
  },
  {
    "dt": "2023.10.24 22:00",
    "o": 1.08817,
    "h": 1.08817,
    "l": 1.08769,
    "c": 1.08786,
    "v": 2387
  },
  {
    "dt": "2023.10.24 23:00",
    "o": 1.08784,
    "h": 1.0879,
    "l": 1.08726,
    "c": 1.08726,
    "v": 1602
  },
  {
    "dt": "2023.10.25 00:00",
    "o": 1.08725,
    "h": 1.08758,
    "l": 1.08604,
    "c": 1.08691,
    "v": 2263
  },
  {
    "dt": "2023.10.25 01:00",
    "o": 1.08689,
    "h": 1.08771,
    "l": 1.08668,
    "c": 1.08756,
    "v": 927
  },
  {
    "dt": "2023.10.25 02:00",
    "o": 1.08762,
    "h": 1.08815,
    "l": 1.0876,
    "c": 1.08768,
    "v": 636
  },
  {
    "dt": "2023.10.25 03:00",
    "o": 1.08769,
    "h": 1.09131,
    "l": 1.08701,
    "c": 1.09061,
    "v": 2902
  },
  {
    "dt": "2023.10.25 04:00",
    "o": 1.09047,
    "h": 1.09105,
    "l": 1.08984,
    "c": 1.09103,
    "v": 2255
  },
  {
    "dt": "2023.10.25 05:00",
    "o": 1.09109,
    "h": 1.09132,
    "l": 1.09059,
    "c": 1.09122,
    "v": 1210
  },
  {
    "dt": "2023.10.25 06:00",
    "o": 1.09122,
    "h": 1.09133,
    "l": 1.09025,
    "c": 1.0903,
    "v": 1057
  },
  {
    "dt": "2023.10.25 07:00",
    "o": 1.09028,
    "h": 1.09069,
    "l": 1.0899,
    "c": 1.09067,
    "v": 1200
  },
  {
    "dt": "2023.10.25 08:00",
    "o": 1.09066,
    "h": 1.09081,
    "l": 1.0894,
    "c": 1.08963,
    "v": 2037
  },
  {
    "dt": "2023.10.25 09:00",
    "o": 1.08964,
    "h": 1.08988,
    "l": 1.08916,
    "c": 1.08946,
    "v": 1685
  },
  {
    "dt": "2023.10.25 10:00",
    "o": 1.08948,
    "h": 1.08961,
    "l": 1.08773,
    "c": 1.08802,
    "v": 2390
  },
  {
    "dt": "2023.10.25 11:00",
    "o": 1.08801,
    "h": 1.08815,
    "l": 1.08761,
    "c": 1.08771,
    "v": 2146
  },
  {
    "dt": "2023.10.25 12:00",
    "o": 1.0877,
    "h": 1.08848,
    "l": 1.08665,
    "c": 1.08723,
    "v": 2360
  },
  {
    "dt": "2023.10.25 13:00",
    "o": 1.08723,
    "h": 1.08884,
    "l": 1.08717,
    "c": 1.08875,
    "v": 1471
  },
  {
    "dt": "2023.10.25 14:00",
    "o": 1.08873,
    "h": 1.08938,
    "l": 1.08852,
    "c": 1.08912,
    "v": 1361
  },
  {
    "dt": "2023.10.25 15:00",
    "o": 1.08911,
    "h": 1.08977,
    "l": 1.08878,
    "c": 1.08917,
    "v": 2192
  },
  {
    "dt": "2023.10.25 16:00",
    "o": 1.08918,
    "h": 1.08931,
    "l": 1.08767,
    "c": 1.0878,
    "v": 2505
  },
  {
    "dt": "2023.10.25 17:00",
    "o": 1.08781,
    "h": 1.08803,
    "l": 1.08689,
    "c": 1.08722,
    "v": 3452
  },
  {
    "dt": "2023.10.25 18:00",
    "o": 1.08721,
    "h": 1.08773,
    "l": 1.08713,
    "c": 1.08745,
    "v": 3042
  },
  {
    "dt": "2023.10.25 19:00",
    "o": 1.08746,
    "h": 1.08749,
    "l": 1.08648,
    "c": 1.08656,
    "v": 2804
  },
  {
    "dt": "2023.10.25 20:00",
    "o": 1.08655,
    "h": 1.08663,
    "l": 1.08589,
    "c": 1.08597,
    "v": 3779
  },
  {
    "dt": "2023.10.25 21:00",
    "o": 1.08589,
    "h": 1.08663,
    "l": 1.08586,
    "c": 1.08644,
    "v": 2755
  },
  {
    "dt": "2023.10.25 22:00",
    "o": 1.08644,
    "h": 1.0872,
    "l": 1.08628,
    "c": 1.08709,
    "v": 1941
  },
  {
    "dt": "2023.10.25 23:00",
    "o": 1.08709,
    "h": 1.0873,
    "l": 1.08685,
    "c": 1.08726,
    "v": 1554
  },
  {
    "dt": "2023.10.26 00:00",
    "o": 1.08531,
    "h": 1.08726,
    "l": 1.08531,
    "c": 1.08695,
    "v": 1085
  },
  {
    "dt": "2023.10.26 01:00",
    "o": 1.08696,
    "h": 1.08709,
    "l": 1.08526,
    "c": 1.08652,
    "v": 1918
  },
  {
    "dt": "2023.10.26 02:00",
    "o": 1.08641,
    "h": 1.087,
    "l": 1.08625,
    "c": 1.08651,
    "v": 1544
  },
  {
    "dt": "2023.10.26 03:00",
    "o": 1.08653,
    "h": 1.08704,
    "l": 1.08539,
    "c": 1.0858,
    "v": 2638
  },
  {
    "dt": "2023.10.26 04:00",
    "o": 1.08582,
    "h": 1.08684,
    "l": 1.0854,
    "c": 1.08633,
    "v": 3374
  },
  {
    "dt": "2023.10.26 05:00",
    "o": 1.08634,
    "h": 1.08647,
    "l": 1.08552,
    "c": 1.08615,
    "v": 2897
  },
  {
    "dt": "2023.10.26 06:00",
    "o": 1.08613,
    "h": 1.0869,
    "l": 1.08613,
    "c": 1.08621,
    "v": 2093
  },
  {
    "dt": "2023.10.26 07:00",
    "o": 1.08619,
    "h": 1.08632,
    "l": 1.08572,
    "c": 1.08583,
    "v": 1612
  },
  {
    "dt": "2023.10.26 08:00",
    "o": 1.08584,
    "h": 1.08616,
    "l": 1.08543,
    "c": 1.08591,
    "v": 2573
  },
  {
    "dt": "2023.10.26 09:00",
    "o": 1.08592,
    "h": 1.08695,
    "l": 1.08534,
    "c": 1.0868,
    "v": 3031
  },
  {
    "dt": "2023.10.26 10:00",
    "o": 1.0868,
    "h": 1.08737,
    "l": 1.08603,
    "c": 1.08729,
    "v": 2222
  },
  {
    "dt": "2023.10.26 11:00",
    "o": 1.08727,
    "h": 1.08744,
    "l": 1.08665,
    "c": 1.08687,
    "v": 1888
  },
  {
    "dt": "2023.10.26 12:00",
    "o": 1.08688,
    "h": 1.08748,
    "l": 1.0867,
    "c": 1.08707,
    "v": 1936
  },
  {
    "dt": "2023.10.26 13:00",
    "o": 1.08707,
    "h": 1.08711,
    "l": 1.08624,
    "c": 1.08651,
    "v": 1668
  },
  {
    "dt": "2023.10.26 14:00",
    "o": 1.08651,
    "h": 1.08724,
    "l": 1.0864,
    "c": 1.08713,
    "v": 1605
  },
  {
    "dt": "2023.10.26 15:00",
    "o": 1.08712,
    "h": 1.08771,
    "l": 1.08631,
    "c": 1.08637,
    "v": 3781
  },
  {
    "dt": "2023.10.26 16:00",
    "o": 1.08636,
    "h": 1.08656,
    "l": 1.08535,
    "c": 1.0854,
    "v": 2910
  },
  {
    "dt": "2023.10.26 17:00",
    "o": 1.0854,
    "h": 1.0862,
    "l": 1.08528,
    "c": 1.08594,
    "v": 2979
  },
  {
    "dt": "2023.10.26 18:00",
    "o": 1.08593,
    "h": 1.08595,
    "l": 1.08499,
    "c": 1.08535,
    "v": 2929
  },
  {
    "dt": "2023.10.26 19:00",
    "o": 1.08534,
    "h": 1.08534,
    "l": 1.08469,
    "c": 1.08477,
    "v": 3571
  },
  {
    "dt": "2023.10.26 20:00",
    "o": 1.08478,
    "h": 1.08606,
    "l": 1.0847,
    "c": 1.08599,
    "v": 3559
  },
  {
    "dt": "2023.10.26 21:00",
    "o": 1.08601,
    "h": 1.08655,
    "l": 1.08574,
    "c": 1.08638,
    "v": 3216
  },
  {
    "dt": "2023.10.26 22:00",
    "o": 1.08635,
    "h": 1.08651,
    "l": 1.08583,
    "c": 1.08585,
    "v": 2924
  },
  {
    "dt": "2023.10.26 23:00",
    "o": 1.08584,
    "h": 1.08626,
    "l": 1.08564,
    "c": 1.08586,
    "v": 1471
  },
  {
    "dt": "2023.10.27 00:00",
    "o": 1.08509,
    "h": 1.08607,
    "l": 1.08478,
    "c": 1.08602,
    "v": 1463
  },
  {
    "dt": "2023.10.27 01:00",
    "o": 1.08599,
    "h": 1.08654,
    "l": 1.08577,
    "c": 1.08651,
    "v": 611
  },
  {
    "dt": "2023.10.27 02:00",
    "o": 1.08655,
    "h": 1.0869,
    "l": 1.08647,
    "c": 1.0866,
    "v": 1188
  },
  {
    "dt": "2023.10.27 03:00",
    "o": 1.08658,
    "h": 1.08764,
    "l": 1.08609,
    "c": 1.08755,
    "v": 2352
  },
  {
    "dt": "2023.10.27 04:00",
    "o": 1.08754,
    "h": 1.08793,
    "l": 1.08688,
    "c": 1.08767,
    "v": 2816
  },
  {
    "dt": "2023.10.27 05:00",
    "o": 1.08765,
    "h": 1.08789,
    "l": 1.08718,
    "c": 1.08789,
    "v": 2171
  },
  {
    "dt": "2023.10.27 06:00",
    "o": 1.08788,
    "h": 1.08854,
    "l": 1.08782,
    "c": 1.0884,
    "v": 1643
  },
  {
    "dt": "2023.10.27 07:00",
    "o": 1.08844,
    "h": 1.08925,
    "l": 1.08839,
    "c": 1.08922,
    "v": 1476
  },
  {
    "dt": "2023.10.27 08:00",
    "o": 1.0892,
    "h": 1.08974,
    "l": 1.08883,
    "c": 1.08965,
    "v": 1902
  },
  {
    "dt": "2023.10.27 09:00",
    "o": 1.08963,
    "h": 1.08989,
    "l": 1.089,
    "c": 1.08931,
    "v": 1716
  },
  {
    "dt": "2023.10.27 10:00",
    "o": 1.08933,
    "h": 1.08982,
    "l": 1.0893,
    "c": 1.08977,
    "v": 1784
  },
  {
    "dt": "2023.10.27 11:00",
    "o": 1.08978,
    "h": 1.09,
    "l": 1.08968,
    "c": 1.08981,
    "v": 1409
  },
  {
    "dt": "2023.10.27 12:00",
    "o": 1.08979,
    "h": 1.08989,
    "l": 1.08954,
    "c": 1.08958,
    "v": 1027
  },
  {
    "dt": "2023.10.27 13:00",
    "o": 1.08958,
    "h": 1.08986,
    "l": 1.08941,
    "c": 1.08978,
    "v": 1082
  },
  {
    "dt": "2023.10.27 14:00",
    "o": 1.08979,
    "h": 1.08982,
    "l": 1.08911,
    "c": 1.08934,
    "v": 1413
  },
  {
    "dt": "2023.10.27 15:00",
    "o": 1.08933,
    "h": 1.09014,
    "l": 1.08909,
    "c": 1.08924,
    "v": 2719
  },
  {
    "dt": "2023.10.27 16:00",
    "o": 1.08923,
    "h": 1.09001,
    "l": 1.08917,
    "c": 1.08984,
    "v": 2871
  },
  {
    "dt": "2023.10.27 17:00",
    "o": 1.08846,
    "h": 1.09012,
    "l": 1.08846,
    "c": 1.08978,
    "v": 3268
  },
  {
    "dt": "2023.10.27 18:00",
    "o": 1.08978,
    "h": 1.09043,
    "l": 1.08967,
    "c": 1.09043,
    "v": 2352
  },
  {
    "dt": "2023.10.27 19:00",
    "o": 1.09041,
    "h": 1.09053,
    "l": 1.08994,
    "c": 1.08997,
    "v": 3234
  },
  {
    "dt": "2023.10.27 20:00",
    "o": 1.09,
    "h": 1.0904,
    "l": 1.08978,
    "c": 1.09036,
    "v": 3517
  },
  {
    "dt": "2023.10.27 21:00",
    "o": 1.09038,
    "h": 1.0904,
    "l": 1.08973,
    "c": 1.08998,
    "v": 3881
  },
  {
    "dt": "2023.10.27 22:00",
    "o": 1.09,
    "h": 1.09057,
    "l": 1.08992,
    "c": 1.09029,
    "v": 2669
  },
  {
    "dt": "2023.10.27 23:00",
    "o": 1.09026,
    "h": 1.09029,
    "l": 1.08911,
    "c": 1.08996,
    "v": 1397
  },
  {
    "dt": "2023.10.30 00:00",
    "o": 1.09004,
    "h": 1.09063,
    "l": 1.0897,
    "c": 1.09045,
    "v": 532
  },
  {
    "dt": "2023.10.30 01:00",
    "o": 1.09044,
    "h": 1.09128,
    "l": 1.09017,
    "c": 1.0909,
    "v": 1375
  },
  {
    "dt": "2023.10.30 02:00",
    "o": 1.09091,
    "h": 1.09135,
    "l": 1.09047,
    "c": 1.09123,
    "v": 1287
  },
  {
    "dt": "2023.10.30 03:00",
    "o": 1.09122,
    "h": 1.09152,
    "l": 1.08981,
    "c": 1.09074,
    "v": 2155
  },
  {
    "dt": "2023.10.30 04:00",
    "o": 1.09073,
    "h": 1.09103,
    "l": 1.08981,
    "c": 1.09102,
    "v": 2511
  },
  {
    "dt": "2023.10.30 05:00",
    "o": 1.09103,
    "h": 1.09144,
    "l": 1.09053,
    "c": 1.09075,
    "v": 2670
  },
  {
    "dt": "2023.10.30 06:00",
    "o": 1.09075,
    "h": 1.09114,
    "l": 1.09052,
    "c": 1.091,
    "v": 1854
  },
  {
    "dt": "2023.10.30 07:00",
    "o": 1.09101,
    "h": 1.09103,
    "l": 1.08991,
    "c": 1.08993,
    "v": 1446
  },
  {
    "dt": "2023.10.30 08:00",
    "o": 1.08994,
    "h": 1.09035,
    "l": 1.08985,
    "c": 1.0902,
    "v": 1697
  },
  {
    "dt": "2023.10.30 09:00",
    "o": 1.09019,
    "h": 1.09035,
    "l": 1.0898,
    "c": 1.09003,
    "v": 2070
  },
  {
    "dt": "2023.10.30 10:00",
    "o": 1.09007,
    "h": 1.09079,
    "l": 1.09,
    "c": 1.09075,
    "v": 1685
  },
  {
    "dt": "2023.10.30 11:00",
    "o": 1.09073,
    "h": 1.09174,
    "l": 1.09058,
    "c": 1.09154,
    "v": 1805
  },
  {
    "dt": "2023.10.30 12:00",
    "o": 1.09155,
    "h": 1.09163,
    "l": 1.09095,
    "c": 1.09137,
    "v": 1620
  },
  {
    "dt": "2023.10.30 13:00",
    "o": 1.09137,
    "h": 1.09255,
    "l": 1.09112,
    "c": 1.09234,
    "v": 1411
  },
  {
    "dt": "2023.10.30 14:00",
    "o": 1.09232,
    "h": 1.09266,
    "l": 1.0922,
    "c": 1.0925,
    "v": 1937
  },
  {
    "dt": "2023.10.30 15:00",
    "o": 1.09247,
    "h": 1.09284,
    "l": 1.09214,
    "c": 1.09233,
    "v": 2608
  },
  {
    "dt": "2023.10.30 16:00",
    "o": 1.09233,
    "h": 1.0928,
    "l": 1.09214,
    "c": 1.09265,
    "v": 2212
  },
  {
    "dt": "2023.10.30 17:00",
    "o": 1.09267,
    "h": 1.09272,
    "l": 1.09201,
    "c": 1.09242,
    "v": 3477
  },
  {
    "dt": "2023.10.30 18:00",
    "o": 1.09246,
    "h": 1.09265,
    "l": 1.09201,
    "c": 1.09208,
    "v": 2189
  },
  {
    "dt": "2023.10.30 19:00",
    "o": 1.09206,
    "h": 1.09224,
    "l": 1.0918,
    "c": 1.09204,
    "v": 2524
  },
  {
    "dt": "2023.10.30 20:00",
    "o": 1.09203,
    "h": 1.09238,
    "l": 1.09184,
    "c": 1.09237,
    "v": 2510
  },
  {
    "dt": "2023.10.30 21:00",
    "o": 1.09238,
    "h": 1.09244,
    "l": 1.09139,
    "c": 1.09139,
    "v": 2491
  },
  {
    "dt": "2023.10.30 22:00",
    "o": 1.0914,
    "h": 1.09154,
    "l": 1.09094,
    "c": 1.09116,
    "v": 2244
  },
  {
    "dt": "2023.10.30 23:00",
    "o": 1.09115,
    "h": 1.09178,
    "l": 1.09059,
    "c": 1.09059,
    "v": 862
  },
  {
    "dt": "2023.10.31 00:00",
    "o": 1.08965,
    "h": 1.09087,
    "l": 1.08961,
    "c": 1.09005,
    "v": 1988
  },
  {
    "dt": "2023.10.31 01:00",
    "o": 1.0901,
    "h": 1.09084,
    "l": 1.0901,
    "c": 1.09035,
    "v": 754
  },
  {
    "dt": "2023.10.31 02:00",
    "o": 1.09014,
    "h": 1.0905,
    "l": 1.08992,
    "c": 1.09034,
    "v": 987
  },
  {
    "dt": "2023.10.31 03:00",
    "o": 1.09001,
    "h": 1.09115,
    "l": 1.09001,
    "c": 1.09069,
    "v": 1854
  },
  {
    "dt": "2023.10.31 04:00",
    "o": 1.0907,
    "h": 1.09089,
    "l": 1.0895,
    "c": 1.09021,
    "v": 2983
  },
  {
    "dt": "2023.10.31 05:00",
    "o": 1.09021,
    "h": 1.09038,
    "l": 1.0894,
    "c": 1.08967,
    "v": 2366
  },
  {
    "dt": "2023.10.31 06:00",
    "o": 1.08966,
    "h": 1.08979,
    "l": 1.08874,
    "c": 1.08886,
    "v": 2712
  },
  {
    "dt": "2023.10.31 07:00",
    "o": 1.08885,
    "h": 1.08928,
    "l": 1.08879,
    "c": 1.08893,
    "v": 2264
  },
  {
    "dt": "2023.10.31 08:00",
    "o": 1.0889,
    "h": 1.08921,
    "l": 1.08879,
    "c": 1.08886,
    "v": 2412
  },
  {
    "dt": "2023.10.31 09:00",
    "o": 1.08886,
    "h": 1.08934,
    "l": 1.08875,
    "c": 1.08881,
    "v": 2647
  },
  {
    "dt": "2023.10.31 10:00",
    "o": 1.08883,
    "h": 1.08899,
    "l": 1.08806,
    "c": 1.08812,
    "v": 2541
  },
  {
    "dt": "2023.10.31 11:00",
    "o": 1.08812,
    "h": 1.08868,
    "l": 1.08763,
    "c": 1.08867,
    "v": 2990
  },
  {
    "dt": "2023.10.31 12:00",
    "o": 1.08864,
    "h": 1.08871,
    "l": 1.08794,
    "c": 1.08844,
    "v": 2875
  },
  {
    "dt": "2023.10.31 13:00",
    "o": 1.08842,
    "h": 1.08865,
    "l": 1.08806,
    "c": 1.08809,
    "v": 2535
  },
  {
    "dt": "2023.10.31 14:00",
    "o": 1.08808,
    "h": 1.0883,
    "l": 1.08792,
    "c": 1.08804,
    "v": 2116
  },
  {
    "dt": "2023.10.31 15:00",
    "o": 1.08803,
    "h": 1.08854,
    "l": 1.08738,
    "c": 1.08823,
    "v": 3712
  },
  {
    "dt": "2023.10.31 16:00",
    "o": 1.0882,
    "h": 1.08917,
    "l": 1.08795,
    "c": 1.08821,
    "v": 4237
  },
  {
    "dt": "2023.10.31 17:00",
    "o": 1.08807,
    "h": 1.08879,
    "l": 1.08797,
    "c": 1.08847,
    "v": 4571
  },
  {
    "dt": "2023.10.31 18:00",
    "o": 1.0885,
    "h": 1.08874,
    "l": 1.08782,
    "c": 1.0883,
    "v": 4681
  },
  {
    "dt": "2023.10.31 19:00",
    "o": 1.08831,
    "h": 1.08934,
    "l": 1.08823,
    "c": 1.08914,
    "v": 3735
  },
  {
    "dt": "2023.10.31 20:00",
    "o": 1.08908,
    "h": 1.08941,
    "l": 1.08862,
    "c": 1.08937,
    "v": 3063
  },
  {
    "dt": "2023.10.31 21:00",
    "o": 1.08924,
    "h": 1.08958,
    "l": 1.08876,
    "c": 1.08908,
    "v": 2207
  },
  {
    "dt": "2023.10.31 22:00",
    "o": 1.08905,
    "h": 1.08928,
    "l": 1.08866,
    "c": 1.08867,
    "v": 2726
  },
  {
    "dt": "2023.10.31 23:00",
    "o": 1.08866,
    "h": 1.08888,
    "l": 1.08768,
    "c": 1.08768,
    "v": 1016
  }
]