[
  {
    "dt": "2023.12.01 00:00",
    "o": 1.07308,
    "h": 1.07316,
    "l": 1.07212,
    "c": 1.07314,
    "v": 1644
  },
  {
    "dt": "2023.12.01 01:00",
    "o": 1.07314,
    "h": 1.0734,
    "l": 1.07269,
    "c": 1.07289,
    "v": 1065
  },
  {
    "dt": "2023.12.01 02:00",
    "o": 1.07289,
    "h": 1.07289,
    "l": 1.07141,
    "c": 1.07144,
    "v": 1658
  },
  {
    "dt": "2023.12.01 03:00",
    "o": 1.07145,
    "h": 1.0715,
    "l": 1.0701,
    "c": 1.07032,
    "v": 2510
  },
  {
    "dt": "2023.12.01 04:00",
    "o": 1.07033,
    "h": 1.0707,
    "l": 1.07007,
    "c": 1.07014,
    "v": 2437
  },
  {
    "dt": "2023.12.01 05:00",
    "o": 1.07014,
    "h": 1.0717,
    "l": 1.07013,
    "c": 1.07163,
    "v": 2124
  },
  {
    "dt": "2023.12.01 06:00",
    "o": 1.07162,
    "h": 1.07246,
    "l": 1.07131,
    "c": 1.07226,
    "v": 1397
  },
  {
    "dt": "2023.12.01 07:00",
    "o": 1.07225,
    "h": 1.07248,
    "l": 1.0719,
    "c": 1.07242,
    "v": 2300
  },
  {
    "dt": "2023.12.01 08:00",
    "o": 1.07239,
    "h": 1.07298,
    "l": 1.0723,
    "c": 1.07286,
    "v": 1942
  },
  {
    "dt": "2023.12.01 09:00",
    "o": 1.07289,
    "h": 1.07302,
    "l": 1.07255,
    "c": 1.07287,
    "v": 2198
  },
  {
    "dt": "2023.12.01 10:00",
    "o": 1.07288,
    "h": 1.07301,
    "l": 1.07253,
    "c": 1.07284,
    "v": 2960
  },
  {
    "dt": "2023.12.01 11:00",
    "o": 1.07282,
    "h": 1.073,
    "l": 1.07239,
    "c": 1.07252,
    "v": 2617
  },
  {
    "dt": "2023.12.01 12:00",
    "o": 1.07251,
    "h": 1.07277,
    "l": 1.07225,
    "c": 1.07235,
    "v": 1819
  },
  {
    "dt": "2023.12.01 13:00",
    "o": 1.07236,
    "h": 1.07249,
    "l": 1.07179,
    "c": 1.07239,
    "v": 1933
  },
  {
    "dt": "2023.12.01 14:00",
    "o": 1.07239,
    "h": 1.07256,
    "l": 1.0722,
    "c": 1.07245,
    "v": 1827
  },
  {
    "dt": "2023.12.01 15:00",
    "o": 1.07246,
    "h": 1.07319,
    "l": 1.07204,
    "c": 1.07318,
    "v": 3233
  },
  {
    "dt": "2023.12.01 16:00",
    "o": 1.07319,
    "h": 1.07488,
    "l": 1.07316,
    "c": 1.07436,
    "v": 3347
  },
  {
    "dt": "2023.12.01 17:00",
    "o": 1.07461,
    "h": 1.07534,
    "l": 1.07409,
    "c": 1.07465,
    "v": 5244
  },
  {
    "dt": "2023.12.01 18:00",
    "o": 1.07465,
    "h": 1.07495,
    "l": 1.07423,
    "c": 1.07473,
    "v": 5180
  },
  {
    "dt": "2023.12.01 19:00",
    "o": 1.07476,
    "h": 1.07587,
    "l": 1.07474,
    "c": 1.07585,
    "v": 3781
  },
  {
    "dt": "2023.12.01 20:00",
    "o": 1.07584,
    "h": 1.07604,
    "l": 1.07531,
    "c": 1.07555,
    "v": 3438
  },
  {
    "dt": "2023.12.01 21:00",
    "o": 1.07554,
    "h": 1.07583,
    "l": 1.07541,
    "c": 1.07555,
    "v": 2561
  },
  {
    "dt": "2023.12.01 22:00",
    "o": 1.07557,
    "h": 1.07599,
    "l": 1.07544,
    "c": 1.0756,
    "v": 2609
  },
  {
    "dt": "2023.12.01 23:00",
    "o": 1.07554,
    "h": 1.07563,
    "l": 1.07404,
    "c": 1.07463,
    "v": 2005
  },
  {
    "dt": "2023.12.04 00:00",
    "o": 1.07577,
    "h": 1.0758,
    "l": 1.07396,
    "c": 1.07477,
    "v": 969
  },
  {
    "dt": "2023.12.04 01:00",
    "o": 1.07488,
    "h": 1.07602,
    "l": 1.0748,
    "c": 1.075,
    "v": 2705
  },
  {
    "dt": "2023.12.04 02:00",
    "o": 1.07498,
    "h": 1.07539,
    "l": 1.0743,
    "c": 1.07483,
    "v": 3064
  },
  {
    "dt": "2023.12.04 03:00",
    "o": 1.07485,
    "h": 1.07658,
    "l": 1.07473,
    "c": 1.0764,
    "v": 3472
  },
  {
    "dt": "2023.12.04 04:00",
    "o": 1.07639,
    "h": 1.0765,
    "l": 1.07479,
    "c": 1.07519,
    "v": 2417
  },
  {
    "dt": "2023.12.04 05:00",
    "o": 1.07522,
    "h": 1.07529,
    "l": 1.0738,
    "c": 1.07433,
    "v": 2006
  },
  {
    "dt": "2023.12.04 06:00",
    "o": 1.07433,
    "h": 1.07452,
    "l": 1.07405,
    "c": 1.07419,
    "v": 1682
  },
  {
    "dt": "2023.12.04 07:00",
    "o": 1.0742,
    "h": 1.0746,
    "l": 1.07379,
    "c": 1.07451,
    "v": 1803
  },
  {
    "dt": "2023.12.04 08:00",
    "o": 1.07452,
    "h": 1.07557,
    "l": 1.07448,
    "c": 1.07535,
    "v": 2317
  },
  {
    "dt": "2023.12.04 09:00",
    "o": 1.07532,
    "h": 1.07572,
    "l": 1.0748,
    "c": 1.075,
    "v": 2868
  },
  {
    "dt": "2023.12.04 10:00",
    "o": 1.07498,
    "h": 1.07506,
    "l": 1.07404,
    "c": 1.07489,
    "v": 2781
  },
  {
    "dt": "2023.12.04 11:00",
    "o": 1.07491,
    "h": 1.07495,
    "l": 1.07407,
    "c": 1.07451,
    "v": 2284
  },
  {
    "dt": "2023.12.04 12:00",
    "o": 1.07451,
    "h": 1.07471,
    "l": 1.07351,
    "c": 1.07358,
    "v": 1928
  },
  {
    "dt": "2023.12.04 13:00",
    "o": 1.07357,
    "h": 1.07396,
    "l": 1.07315,
    "c": 1.07365,
    "v": 1853
  },
  {
    "dt": "2023.12.04 14:00",
    "o": 1.07366,
    "h": 1.0739,
    "l": 1.07317,
    "c": 1.07345,
    "v": 2078
  },
  {
    "dt": "2023.12.04 15:00",
    "o": 1.07345,
    "h": 1.07404,
    "l": 1.07337,
    "c": 1.07387,
    "v": 3568
  },
  {
    "dt": "2023.12.04 16:00",
    "o": 1.07385,
    "h": 1.07469,
    "l": 1.07374,
    "c": 1.07398,
    "v": 4065
  },
  {
    "dt": "2023.12.04 17:00",
    "o": 1.07398,
    "h": 1.0742,
    "l": 1.07266,
    "c": 1.0731,
    "v": 4481
  },
  {
    "dt": "2023.12.04 18:00",
    "o": 1.0731,
    "h": 1.07342,
    "l": 1.07263,
    "c": 1.07302,
    "v": 3230
  },
  {
    "dt": "2023.12.04 19:00",
    "o": 1.07301,
    "h": 1.07323,
    "l": 1.07273,
    "c": 1.07315,
    "v": 2495
  },
  {
    "dt": "2023.12.04 20:00",
    "o": 1.07316,
    "h": 1.07385,
    "l": 1.07292,
    "c": 1.07304,
    "v": 2571
  },
  {
    "dt": "2023.12.04 21:00",
    "o": 1.07303,
    "h": 1.07342,
    "l": 1.07273,
    "c": 1.07326,
    "v": 1554
  },
  {
    "dt": "2023.12.04 22:00",
    "o": 1.07325,
    "h": 1.07329,
    "l": 1.07271,
    "c": 1.07302,
    "v": 1429
  },
  {
    "dt": "2023.12.04 23:00",
    "o": 1.07303,
    "h": 1.07389,
    "l": 1.07299,
    "c": 1.07344,
    "v": 862
  },
  {
    "dt": "2023.12.05 00:00",
    "o": 1.07252,
    "h": 1.0743,
    "l": 1.07173,
    "c": 1.07424,
    "v": 1504
  },
  {
    "dt": "2023.12.05 01:00",
    "o": 1.07419,
    "h": 1.07419,
    "l": 1.07297,
    "c": 1.07321,
    "v": 831
  },
  {
    "dt": "2023.12.05 02:00",
    "o": 1.0732,
    "h": 1.07354,
    "l": 1.07223,
    "c": 1.07238,
    "v": 2211
  },
  {
    "dt": "2023.12.05 03:00",
    "o": 1.07244,
    "h": 1.07319,
    "l": 1.07219,
    "c": 1.07245,
    "v": 3176
  },
  {
    "dt": "2023.12.05 04:00",
    "o": 1.07243,
    "h": 1.07395,
    "l": 1.07209,
    "c": 1.07327,
    "v": 2630
  },
  {
    "dt": "2023.12.05 05:00",
    "o": 1.07326,
    "h": 1.0736,
    "l": 1.06987,
    "c": 1.06999,
    "v": 2792
  },
  {
    "dt": "2023.12.05 06:00",
    "o": 1.06992,
    "h": 1.07037,
    "l": 1.06955,
    "c": 1.06969,
    "v": 1773
  },
  {
    "dt": "2023.12.05 07:00",
    "o": 1.06967,
    "h": 1.06983,
    "l": 1.06916,
    "c": 1.06959,
    "v": 1931
  },
  {
    "dt": "2023.12.05 08:00",
    "o": 1.06959,
    "h": 1.06965,
    "l": 1.06915,
    "c": 1.0696,
    "v": 2139
  },
  {
    "dt": "2023.12.05 09:00",
    "o": 1.06952,
    "h": 1.06969,
    "l": 1.06883,
    "c": 1.06894,
    "v": 3190
  },
  {
    "dt": "2023.12.05 10:00",
    "o": 1.06894,
    "h": 1.06918,
    "l": 1.06798,
    "c": 1.06806,
    "v": 3065
  },
  {
    "dt": "2023.12.05 11:00",
    "o": 1.06807,
    "h": 1.06975,
    "l": 1.06802,
    "c": 1.06929,
    "v": 2524
  },
  {
    "dt": "2023.12.05 12:00",
    "o": 1.06929,
    "h": 1.06985,
    "l": 1.0692,
    "c": 1.0692,
    "v": 2136
  },
  {
    "dt": "2023.12.05 13:00",
    "o": 1.06922,
    "h": 1.06923,
    "l": 1.06802,
    "c": 1.06822,
    "v": 2287
  },
  {
    "dt": "2023.12.05 14:00",
    "o": 1.06822,
    "h": 1.06872,
    "l": 1.06796,
    "c": 1.06868,
    "v": 2719
  },
  {
    "dt": "2023.12.05 15:00",
    "o": 1.06868,
    "h": 1.06929,
    "l": 1.06834,
    "c": 1.06853,
    "v": 3732
  },
  {
    "dt": "2023.12.05 16:00",
    "o": 1.06852,
    "h": 1.06911,
    "l": 1.06816,
    "c": 1.06822,
    "v": 3799
  },
  {
    "dt": "2023.12.05 17:00",
    "o": 1.06823,
    "h": 1.06889,
    "l": 1.06754,
    "c": 1.06813,
    "v": 4632
  },
  {
    "dt": "2023.12.05 18:00",
    "o": 1.06815,
    "h": 1.06858,
    "l": 1.06788,
    "c": 1.06806,
    "v": 4014
  },
  {
    "dt": "2023.12.05 19:00",
    "o": 1.06807,
    "h": 1.06858,
    "l": 1.06803,
    "c": 1.06836,
    "v": 3339
  },
  {
    "dt": "2023.12.05 20:00",
    "o": 1.0682,
    "h": 1.0688,
    "l": 1.0682,
    "c": 1.06835,
    "v": 2306
  },
  {
    "dt": "2023.12.05 21:00",
    "o": 1.06835,
    "h": 1.06899,
    "l": 1.06819,
    "c": 1.06883,
    "v": 2156
  },
  {
    "dt": "2023.12.05 22:00",
    "o": 1.06885,
    "h": 1.06952,
    "l": 1.06882,
    "c": 1.06929,
    "v": 1925
  },
  {
    "dt": "2023.12.05 23:00",
    "o": 1.06927,
    "h": 1.0693,
    "l": 1.06843,
    "c": 1.06859,
    "v": 1093
  },
  {
    "dt": "2023.12.06 00:00",
    "o": 1.06811,
    "h": 1.06899,
    "l": 1.06765,
    "c": 1.06891,
    "v": 1883
  },
  {
    "dt": "2023.12.06 01:00",
    "o": 1.06879,
    "h": 1.06892,
    "l": 1.0678,
    "c": 1.06855,
    "v": 876
  },
  {
    "dt": "2023.12.06 02:00",
    "o": 1.06856,
    "h": 1.06953,
    "l": 1.06814,
    "c": 1.06933,
    "v": 2191
  },
  {
    "dt": "2023.12.06 03:00",
    "o": 1.06931,
    "h": 1.0695,
    "l": 1.06824,
    "c": 1.06859,
    "v": 3277
  },
  {
    "dt": "2023.12.06 04:00",
    "o": 1.06859,
    "h": 1.06917,
    "l": 1.06792,
    "c": 1.06818,
    "v": 2387
  },
  {
    "dt": "2023.12.06 05:00",
    "o": 1.06817,
    "h": 1.06903,
    "l": 1.06797,
    "c": 1.06893,
    "v": 1812
  },
  {
    "dt": "2023.12.06 06:00",
    "o": 1.06894,
    "h": 1.06924,
    "l": 1.06738,
    "c": 1.06741,
    "v": 1423
  },
  {
    "dt": "2023.12.06 07:00",
    "o": 1.06741,
    "h": 1.0684,
    "l": 1.06707,
    "c": 1.06817,
    "v": 2017
  },
  {
    "dt": "2023.12.06 08:00",
    "o": 1.06819,
    "h": 1.06891,
    "l": 1.06811,
    "c": 1.06885,
    "v": 1812
  },
  {
    "dt": "2023.12.06 09:00",
    "o": 1.06882,
    "h": 1.06885,
    "l": 1.06739,
    "c": 1.06753,
    "v": 2708
  },
  {
    "dt": "2023.12.06 10:00",
    "o": 1.06754,
    "h": 1.06886,
    "l": 1.06707,
    "c": 1.06882,
    "v": 2678
  },
  {
    "dt": "2023.12.06 11:00",
    "o": 1.06883,
    "h": 1.06932,
    "l": 1.06856,
    "c": 1.06922,
    "v": 1920
  },
  {
    "dt": "2023.12.06 12:00",
    "o": 1.06919,
    "h": 1.06922,
    "l": 1.06867,
    "c": 1.06876,
    "v": 2115
  },
  {
    "dt": "2023.12.06 13:00",
    "o": 1.06874,
    "h": 1.06919,
    "l": 1.06853,
    "c": 1.06867,
    "v": 1801
  },
  {
    "dt": "2023.12.06 14:00",
    "o": 1.06866,
    "h": 1.06888,
    "l": 1.06768,
    "c": 1.06813,
    "v": 2090
  },
  {
    "dt": "2023.12.06 15:00",
    "o": 1.06812,
    "h": 1.06862,
    "l": 1.06762,
    "c": 1.06806,
    "v": 4247
  },
  {
    "dt": "2023.12.06 16:00",
    "o": 1.06805,
    "h": 1.0686,
    "l": 1.06751,
    "c": 1.06766,
    "v": 3852
  },
  {
    "dt": "2023.12.06 17:00",
    "o": 1.06765,
    "h": 1.06846,
    "l": 1.06735,
    "c": 1.0684,
    "v": 4153
  },
  {
    "dt": "2023.12.06 18:00",
    "o": 1.06838,
    "h": 1.06838,
    "l": 1.06684,
    "c": 1.06694,
    "v": 3219
  },
  {
    "dt": "2023.12.06 19:00",
    "o": 1.06694,
    "h": 1.06697,
    "l": 1.06596,
    "c": 1.06612,
    "v": 2329
  },
  {
    "dt": "2023.12.06 20:00",
    "o": 1.06611,
    "h": 1.06693,
    "l": 1.06586,
    "c": 1.0661,
    "v": 2696
  },
  {
    "dt": "2023.12.06 21:00",
    "o": 1.06611,
    "h": 1.06674,
    "l": 1.06603,
    "c": 1.06658,
    "v": 2482
  },
  {
    "dt": "2023.12.06 22:00",
    "o": 1.06659,
    "h": 1.06733,
    "l": 1.06657,
    "c": 1.06699,
    "v": 1989
  },
  {
    "dt": "2023.12.06 23:00",
    "o": 1.06698,
    "h": 1.06728,
    "l": 1.06652,
    "c": 1.06652,
    "v": 1561
  },
  {
    "dt": "2023.12.07 00:00",
    "o": 1.06724,
    "h": 1.06725,
    "l": 1.06565,
    "c": 1.06649,
    "v": 1622
  },
  {
    "dt": "2023.12.07 01:00",
    "o": 1.06653,
    "h": 1.06692,
    "l": 1.06649,
    "c": 1.06686,
    "v": 663
  },
  {
    "dt": "2023.12.07 02:00",
    "o": 1.06684,
    "h": 1.06728,
    "l": 1.0667,
    "c": 1.06717,
    "v": 1919
  },
  {
    "dt": "2023.12.07 03:00",
    "o": 1.06717,
    "h": 1.06777,
    "l": 1.06695,
    "c": 1.06758,
    "v": 2604
  },
  {
    "dt": "2023.12.07 04:00",
    "o": 1.06757,
    "h": 1.06767,
    "l": 1.06613,
    "c": 1.06762,
    "v": 2753
  },
  {
    "dt": "2023.12.07 05:00",
    "o": 1.06761,
    "h": 1.06802,
    "l": 1.06717,
    "c": 1.06724,
    "v": 2071
  },
  {
    "dt": "2023.12.07 06:00",
    "o": 1.06724,
    "h": 1.06751,
    "l": 1.06616,
    "c": 1.06626,
    "v": 1526
  },
  {
    "dt": "2023.12.07 07:00",
    "o": 1.06626,
    "h": 1.06746,
    "l": 1.06626,
    "c": 1.06718,
    "v": 2154
  },
  {
    "dt": "2023.12.07 08:00",
    "o": 1.0672,
    "h": 1.06809,
    "l": 1.06712,
    "c": 1.06796,
    "v": 2232
  },
  {
    "dt": "2023.12.07 09:00",
    "o": 1.06794,
    "h": 1.06914,
    "l": 1.0673,
    "c": 1.0688,
    "v": 3253
  },
  {
    "dt": "2023.12.07 10:00",
    "o": 1.06881,
    "h": 1.06974,
    "l": 1.0683,
    "c": 1.06892,
    "v": 3967
  },
  {
    "dt": "2023.12.07 11:00",
    "o": 1.0689,
    "h": 1.06939,
    "l": 1.06826,
    "c": 1.06829,
    "v": 3158
  },
  {
    "dt": "2023.12.07 12:00",
    "o": 1.06826,
    "h": 1.06847,
    "l": 1.06773,
    "c": 1.0678,
    "v": 2802
  },
  {
    "dt": "2023.12.07 13:00",
    "o": 1.06781,
    "h": 1.06879,
    "l": 1.06773,
    "c": 1.06871,
    "v": 2445
  },
  {
    "dt": "2023.12.07 14:00",
    "o": 1.0687,
    "h": 1.06935,
    "l": 1.06857,
    "c": 1.0693,
    "v": 2600
  },
  {
    "dt": "2023.12.07 15:00",
    "o": 1.06932,
    "h": 1.07015,
    "l": 1.06917,
    "c": 1.06927,
    "v": 5725
  },
  {
    "dt": "2023.12.07 16:00",
    "o": 1.06926,
    "h": 1.07042,
    "l": 1.06896,
    "c": 1.06924,
    "v": 6044
  },
  {
    "dt": "2023.12.07 17:00",
    "o": 1.06937,
    "h": 1.07003,
    "l": 1.06887,
    "c": 1.06972,
    "v": 6589
  },
  {
    "dt": "2023.12.07 18:00",
    "o": 1.06971,
    "h": 1.07001,
    "l": 1.06923,
    "c": 1.06947,
    "v": 4072
  },
  {
    "dt": "2023.12.07 19:00",
    "o": 1.06945,
    "h": 1.06985,
    "l": 1.06852,
    "c": 1.06877,
    "v": 3197
  },
  {
    "dt": "2023.12.07 20:00",
    "o": 1.06877,
    "h": 1.06978,
    "l": 1.06849,
    "c": 1.06968,
    "v": 1765
  },
  {
    "dt": "2023.12.07 21:00",
    "o": 1.06969,
    "h": 1.07003,
    "l": 1.0691,
    "c": 1.0698,
    "v": 1854
  },
  {
    "dt": "2023.12.07 22:00",
    "o": 1.06979,
    "h": 1.07009,
    "l": 1.0695,
    "c": 1.06987,
    "v": 1569
  },
  {
    "dt": "2023.12.07 23:00",
    "o": 1.06987,
    "h": 1.07019,
    "l": 1.06927,
    "c": 1.06938,
    "v": 927
  },
  {
    "dt": "2023.12.08 00:00",
    "o": 1.06874,
    "h": 1.07048,
    "l": 1.06828,
    "c": 1.06997,
    "v": 1634
  },
  {
    "dt": "2023.12.08 01:00",
    "o": 1.06995,
    "h": 1.07026,
    "l": 1.0695,
    "c": 1.07019,
    "v": 1022
  },
  {
    "dt": "2023.12.08 02:00",
    "o": 1.07023,
    "h": 1.07071,
    "l": 1.0698,
    "c": 1.07049,
    "v": 2903
  },
  {
    "dt": "2023.12.08 03:00",
    "o": 1.0705,
    "h": 1.0708,
    "l": 1.06992,
    "c": 1.07078,
    "v": 3655
  },
  {
    "dt": "2023.12.08 04:00",
    "o": 1.07076,
    "h": 1.07121,
    "l": 1.07019,
    "c": 1.0711,
    "v": 2608
  },
  {
    "dt": "2023.12.08 05:00",
    "o": 1.07109,
    "h": 1.07263,
    "l": 1.07109,
    "c": 1.07251,
    "v": 2049
  },
  {
    "dt": "2023.12.08 06:00",
    "o": 1.07252,
    "h": 1.07344,
    "l": 1.07233,
    "c": 1.07255,
    "v": 2157
  },
  {
    "dt": "2023.12.08 07:00",
    "o": 1.07255,
    "h": 1.07314,
    "l": 1.07241,
    "c": 1.07309,
    "v": 2218
  },
  {
    "dt": "2023.12.08 08:00",
    "o": 1.0731,
    "h": 1.07329,
    "l": 1.07258,
    "c": 1.07308,
    "v": 2321
  },
  {
    "dt": "2023.12.08 09:00",
    "o": 1.07307,
    "h": 1.07399,
    "l": 1.07298,
    "c": 1.07389,
    "v": 2827
  },
  {
    "dt": "2023.12.08 10:00",
    "o": 1.0739,
    "h": 1.07442,
    "l": 1.07351,
    "c": 1.07398,
    "v": 3061
  },
  {
    "dt": "2023.12.08 11:00",
    "o": 1.07397,
    "h": 1.07473,
    "l": 1.07394,
    "c": 1.0747,
    "v": 2679
  },
  {
    "dt": "2023.12.08 12:00",
    "o": 1.0747,
    "h": 1.07473,
    "l": 1.07422,
    "c": 1.07423,
    "v": 1895
  },
  {
    "dt": "2023.12.08 13:00",
    "o": 1.07424,
    "h": 1.0747,
    "l": 1.07408,
    "c": 1.07414,
    "v": 2225
  },
  {
    "dt": "2023.12.08 14:00",
    "o": 1.07415,
    "h": 1.0742,
    "l": 1.07355,
    "c": 1.07357,
    "v": 2099
  },
  {
    "dt": "2023.12.08 15:00",
    "o": 1.07359,
    "h": 1.07473,
    "l": 1.07252,
    "c": 1.07441,
    "v": 4950
  },
  {
    "dt": "2023.12.08 16:00",
    "o": 1.0744,
    "h": 1.075,
    "l": 1.07393,
    "c": 1.07422,
    "v": 4791
  },
  {
    "dt": "2023.12.08 17:00",
    "o": 1.07388,
    "h": 1.07508,
    "l": 1.07372,
    "c": 1.07482,
    "v": 4655
  },
  {
    "dt": "2023.12.08 18:00",
    "o": 1.07481,
    "h": 1.07493,
    "l": 1.07358,
    "c": 1.0736,
    "v": 3299
  },
  {
    "dt": "2023.12.08 19:00",
    "o": 1.07359,
    "h": 1.07384,
    "l": 1.07297,
    "c": 1.07368,
    "v": 2382
  },
  {
    "dt": "2023.12.08 20:00",
    "o": 1.07369,
    "h": 1.07409,
    "l": 1.07355,
    "c": 1.07393,
    "v": 2461
  },
  {
    "dt": "2023.12.08 21:00",
    "o": 1.07393,
    "h": 1.0744,
    "l": 1.07389,
    "c": 1.07433,
    "v": 1603
  },
  {
    "dt": "2023.12.08 22:00",
    "o": 1.07429,
    "h": 1.07462,
    "l": 1.07426,
    "c": 1.07449,
    "v": 1770
  },
  {
    "dt": "2023.12.08 23:00",
    "o": 1.07446,
    "h": 1.07453,
    "l": 1.07381,
    "c": 1.07392,
    "v": 981
  }
]