[
  {
    "dt": "2020.12.01 00:00",
    "o": 1.55075,
    "h": 1.55145,
    "l": 1.54992,
    "c": 1.5509,
    "v": 572
  },
  {
    "dt": "2020.12.01 01:00",
    "o": 1.55075,
    "h": 1.55154,
    "l": 1.55037,
    "c": 1.5507,
    "v": 1343
  },
  {
    "dt": "2020.12.01 02:00",
    "o": 1.55069,
    "h": 1.55069,
    "l": 1.54968,
    "c": 1.54979,
    "v": 1247
  },
  {
    "dt": "2020.12.01 03:00",
    "o": 1.54982,
    "h": 1.55072,
    "l": 1.54955,
    "c": 1.55068,
    "v": 1747
  },
  {
    "dt": "2020.12.01 04:00",
    "o": 1.55063,
    "h": 1.55151,
    "l": 1.55037,
    "c": 1.55127,
    "v": 1931
  },
  {
    "dt": "2020.12.01 05:00",
    "o": 1.55124,
    "h": 1.55159,
    "l": 1.55074,
    "c": 1.55082,
    "v": 1994
  },
  {
    "dt": "2020.12.01 06:00",
    "o": 1.55083,
    "h": 1.55095,
    "l": 1.55032,
    "c": 1.55058,
    "v": 1303
  },
  {
    "dt": "2020.12.01 07:00",
    "o": 1.55062,
    "h": 1.55072,
    "l": 1.55015,
    "c": 1.55035,
    "v": 1445
  },
  {
    "dt": "2020.12.01 08:00",
    "o": 1.55037,
    "h": 1.55075,
    "l": 1.55006,
    "c": 1.55066,
    "v": 1615
  },
  {
    "dt": "2020.12.01 09:00",
    "o": 1.55059,
    "h": 1.55078,
    "l": 1.5498,
    "c": 1.55074,
    "v": 3016
  },
  {
    "dt": "2020.12.01 10:00",
    "o": 1.55074,
    "h": 1.55148,
    "l": 1.55025,
    "c": 1.55107,
    "v": 3809
  },
  {
    "dt": "2020.12.01 11:00",
    "o": 1.55111,
    "h": 1.55436,
    "l": 1.5508,
    "c": 1.55415,
    "v": 3764
  },
  {
    "dt": "2020.12.01 12:00",
    "o": 1.55416,
    "h": 1.55453,
    "l": 1.55234,
    "c": 1.55298,
    "v": 2930
  },
  {
    "dt": "2020.12.01 13:00",
    "o": 1.55296,
    "h": 1.55309,
    "l": 1.5514,
    "c": 1.55238,
    "v": 3236
  },
  {
    "dt": "2020.12.01 14:00",
    "o": 1.55235,
    "h": 1.55312,
    "l": 1.55159,
    "c": 1.55215,
    "v": 2999
  },
  {
    "dt": "2020.12.01 15:00",
    "o": 1.55217,
    "h": 1.55421,
    "l": 1.55164,
    "c": 1.5533,
    "v": 3657
  },
  {
    "dt": "2020.12.01 16:00",
    "o": 1.55323,
    "h": 1.55577,
    "l": 1.55225,
    "c": 1.55502,
    "v": 4211
  },
  {
    "dt": "2020.12.01 17:00",
    "o": 1.55499,
    "h": 1.56093,
    "l": 1.55417,
    "c": 1.55951,
    "v": 5285
  },
  {
    "dt": "2020.12.01 18:00",
    "o": 1.55944,
    "h": 1.56134,
    "l": 1.55853,
    "c": 1.55978,
    "v": 4723
  },
  {
    "dt": "2020.12.01 19:00",
    "o": 1.55983,
    "h": 1.56015,
    "l": 1.55878,
    "c": 1.55899,
    "v": 3504
  },
  {
    "dt": "2020.12.01 20:00",
    "o": 1.55888,
    "h": 1.5605,
    "l": 1.55865,
    "c": 1.55889,
    "v": 3035
  },
  {
    "dt": "2020.12.01 21:00",
    "o": 1.55884,
    "h": 1.55905,
    "l": 1.55762,
    "c": 1.55839,
    "v": 2998
  },
  {
    "dt": "2020.12.01 22:00",
    "o": 1.55838,
    "h": 1.56193,
    "l": 1.55836,
    "c": 1.56166,
    "v": 2785
  },
  {
    "dt": "2020.12.01 23:00",
    "o": 1.56161,
    "h": 1.5622,
    "l": 1.56076,
    "c": 1.56122,
    "v": 1889
  },
  {
    "dt": "2020.12.02 00:00",
    "o": 1.56071,
    "h": 1.5619,
    "l": 1.56067,
    "c": 1.56143,
    "v": 520
  },
  {
    "dt": "2020.12.02 01:00",
    "o": 1.5614,
    "h": 1.56155,
    "l": 1.56096,
    "c": 1.56104,
    "v": 1394
  },
  {
    "dt": "2020.12.02 02:00",
    "o": 1.56106,
    "h": 1.56132,
    "l": 1.56053,
    "c": 1.5609,
    "v": 1542
  },
  {
    "dt": "2020.12.02 03:00",
    "o": 1.5609,
    "h": 1.56244,
    "l": 1.5599,
    "c": 1.5624,
    "v": 3004
  },
  {
    "dt": "2020.12.02 04:00",
    "o": 1.56238,
    "h": 1.56355,
    "l": 1.56236,
    "c": 1.56303,
    "v": 2316
  },
  {
    "dt": "2020.12.02 05:00",
    "o": 1.56303,
    "h": 1.56347,
    "l": 1.56289,
    "c": 1.563,
    "v": 1770
  },
  {
    "dt": "2020.12.02 06:00",
    "o": 1.56306,
    "h": 1.56336,
    "l": 1.56266,
    "c": 1.56274,
    "v": 1698
  },
  {
    "dt": "2020.12.02 07:00",
    "o": 1.5627,
    "h": 1.56314,
    "l": 1.56199,
    "c": 1.56216,
    "v": 2204
  },
  {
    "dt": "2020.12.02 08:00",
    "o": 1.56216,
    "h": 1.56269,
    "l": 1.56126,
    "c": 1.56126,
    "v": 2019
  },
  {
    "dt": "2020.12.02 09:00",
    "o": 1.56125,
    "h": 1.56202,
    "l": 1.55995,
    "c": 1.56016,
    "v": 3377
  },
  {
    "dt": "2020.12.02 10:00",
    "o": 1.56023,
    "h": 1.56182,
    "l": 1.5581,
    "c": 1.55838,
    "v": 4311
  },
  {
    "dt": "2020.12.02 11:00",
    "o": 1.55836,
    "h": 1.55857,
    "l": 1.55739,
    "c": 1.55818,
    "v": 3413
  },
  {
    "dt": "2020.12.02 12:00",
    "o": 1.55818,
    "h": 1.56012,
    "l": 1.55812,
    "c": 1.55889,
    "v": 2830
  },
  {
    "dt": "2020.12.02 13:00",
    "o": 1.55889,
    "h": 1.56094,
    "l": 1.55869,
    "c": 1.56074,
    "v": 2752
  },
  {
    "dt": "2020.12.02 14:00",
    "o": 1.56076,
    "h": 1.56228,
    "l": 1.55933,
    "c": 1.562,
    "v": 3848
  },
  {
    "dt": "2020.12.02 15:00",
    "o": 1.56198,
    "h": 1.56293,
    "l": 1.5612,
    "c": 1.56215,
    "v": 4272
  },
  {
    "dt": "2020.12.02 16:00",
    "o": 1.56213,
    "h": 1.56333,
    "l": 1.56082,
    "c": 1.56265,
    "v": 4641
  },
  {
    "dt": "2020.12.02 17:00",
    "o": 1.56265,
    "h": 1.56602,
    "l": 1.56243,
    "c": 1.56308,
    "v": 4977
  },
  {
    "dt": "2020.12.02 18:00",
    "o": 1.56307,
    "h": 1.5644,
    "l": 1.56254,
    "c": 1.56409,
    "v": 3627
  },
  {
    "dt": "2020.12.02 19:00",
    "o": 1.5641,
    "h": 1.56479,
    "l": 1.56312,
    "c": 1.56395,
    "v": 3234
  },
  {
    "dt": "2020.12.02 20:00",
    "o": 1.56393,
    "h": 1.56405,
    "l": 1.56307,
    "c": 1.56359,
    "v": 2733
  },
  {
    "dt": "2020.12.02 21:00",
    "o": 1.5636,
    "h": 1.56525,
    "l": 1.56329,
    "c": 1.56341,
    "v": 3360
  },
  {
    "dt": "2020.12.02 22:00",
    "o": 1.56339,
    "h": 1.56402,
    "l": 1.56254,
    "c": 1.56391,
    "v": 2170
  },
  {
    "dt": "2020.12.02 23:00",
    "o": 1.56392,
    "h": 1.56596,
    "l": 1.56342,
    "c": 1.56481,
    "v": 2189
  },
  {
    "dt": "2020.12.03 00:00",
    "o": 1.56475,
    "h": 1.56506,
    "l": 1.564,
    "c": 1.56441,
    "v": 799
  },
  {
    "dt": "2020.12.03 01:00",
    "o": 1.56446,
    "h": 1.56491,
    "l": 1.56411,
    "c": 1.56465,
    "v": 1046
  },
  {
    "dt": "2020.12.03 02:00",
    "o": 1.56472,
    "h": 1.56474,
    "l": 1.56405,
    "c": 1.56446,
    "v": 1405
  },
  {
    "dt": "2020.12.03 03:00",
    "o": 1.56448,
    "h": 1.56531,
    "l": 1.56437,
    "c": 1.56518,
    "v": 2116
  },
  {
    "dt": "2020.12.03 04:00",
    "o": 1.56518,
    "h": 1.56625,
    "l": 1.56515,
    "c": 1.56606,
    "v": 1679
  },
  {
    "dt": "2020.12.03 05:00",
    "o": 1.56609,
    "h": 1.5665,
    "l": 1.56589,
    "c": 1.56633,
    "v": 1624
  },
  {
    "dt": "2020.12.03 06:00",
    "o": 1.56634,
    "h": 1.56643,
    "l": 1.56599,
    "c": 1.56618,
    "v": 1673
  },
  {
    "dt": "2020.12.03 07:00",
    "o": 1.56618,
    "h": 1.56664,
    "l": 1.56612,
    "c": 1.56646,
    "v": 1762
  },
  {
    "dt": "2020.12.03 08:00",
    "o": 1.56648,
    "h": 1.56685,
    "l": 1.56605,
    "c": 1.56641,
    "v": 1892
  },
  {
    "dt": "2020.12.03 09:00",
    "o": 1.56639,
    "h": 1.56651,
    "l": 1.56531,
    "c": 1.56579,
    "v": 2963
  },
  {
    "dt": "2020.12.03 10:00",
    "o": 1.56577,
    "h": 1.56723,
    "l": 1.56455,
    "c": 1.56575,
    "v": 3957
  },
  {
    "dt": "2020.12.03 11:00",
    "o": 1.56579,
    "h": 1.56647,
    "l": 1.56438,
    "c": 1.56627,
    "v": 3553
  },
  {
    "dt": "2020.12.03 12:00",
    "o": 1.56625,
    "h": 1.56725,
    "l": 1.56555,
    "c": 1.56668,
    "v": 3173
  },
  {
    "dt": "2020.12.03 13:00",
    "o": 1.56676,
    "h": 1.56784,
    "l": 1.56614,
    "c": 1.56766,
    "v": 3178
  },
  {
    "dt": "2020.12.03 14:00",
    "o": 1.56766,
    "h": 1.56958,
    "l": 1.56678,
    "c": 1.56885,
    "v": 3707
  },
  {
    "dt": "2020.12.03 15:00",
    "o": 1.56886,
    "h": 1.56946,
    "l": 1.56795,
    "c": 1.56925,
    "v": 3868
  },
  {
    "dt": "2020.12.03 16:00",
    "o": 1.56936,
    "h": 1.57097,
    "l": 1.56802,
    "c": 1.56845,
    "v": 4439
  },
  {
    "dt": "2020.12.03 17:00",
    "o": 1.5684,
    "h": 1.56896,
    "l": 1.56486,
    "c": 1.5654,
    "v": 4514
  },
  {
    "dt": "2020.12.03 18:00",
    "o": 1.56532,
    "h": 1.56578,
    "l": 1.56383,
    "c": 1.5644,
    "v": 3898
  },
  {
    "dt": "2020.12.03 19:00",
    "o": 1.56438,
    "h": 1.56446,
    "l": 1.56274,
    "c": 1.56297,
    "v": 3086
  },
  {
    "dt": "2020.12.03 20:00",
    "o": 1.56299,
    "h": 1.5631,
    "l": 1.56048,
    "c": 1.56123,
    "v": 2678
  },
  {
    "dt": "2020.12.03 21:00",
    "o": 1.56124,
    "h": 1.56171,
    "l": 1.55994,
    "c": 1.56086,
    "v": 2614
  },
  {
    "dt": "2020.12.03 22:00",
    "o": 1.56085,
    "h": 1.56337,
    "l": 1.56083,
    "c": 1.56267,
    "v": 2850
  },
  {
    "dt": "2020.12.03 23:00",
    "o": 1.56278,
    "h": 1.56312,
    "l": 1.56198,
    "c": 1.56235,
    "v": 1710
  },
  {
    "dt": "2020.12.04 00:00",
    "o": 1.56175,
    "h": 1.5622,
    "l": 1.561,
    "c": 1.56188,
    "v": 609
  },
  {
    "dt": "2020.12.04 01:00",
    "o": 1.56198,
    "h": 1.56306,
    "l": 1.56192,
    "c": 1.5627,
    "v": 1298
  },
  {
    "dt": "2020.12.04 02:00",
    "o": 1.5627,
    "h": 1.56309,
    "l": 1.56202,
    "c": 1.563,
    "v": 1385
  },
  {
    "dt": "2020.12.04 03:00",
    "o": 1.56299,
    "h": 1.56342,
    "l": 1.56186,
    "c": 1.56258,
    "v": 2347
  },
  {
    "dt": "2020.12.04 04:00",
    "o": 1.56257,
    "h": 1.56264,
    "l": 1.56134,
    "c": 1.56152,
    "v": 1934
  },
  {
    "dt": "2020.12.04 05:00",
    "o": 1.5615,
    "h": 1.56202,
    "l": 1.56125,
    "c": 1.56183,
    "v": 1758
  },
  {
    "dt": "2020.12.04 06:00",
    "o": 1.56182,
    "h": 1.56193,
    "l": 1.56145,
    "c": 1.56149,
    "v": 1415
  },
  {
    "dt": "2020.12.04 07:00",
    "o": 1.5615,
    "h": 1.56205,
    "l": 1.56123,
    "c": 1.56197,
    "v": 1739
  },
  {
    "dt": "2020.12.04 08:00",
    "o": 1.56196,
    "h": 1.56217,
    "l": 1.56158,
    "c": 1.56197,
    "v": 2000
  },
  {
    "dt": "2020.12.04 09:00",
    "o": 1.56199,
    "h": 1.56335,
    "l": 1.56175,
    "c": 1.56287,
    "v": 2862
  },
  {
    "dt": "2020.12.04 10:00",
    "o": 1.56286,
    "h": 1.56439,
    "l": 1.56215,
    "c": 1.56391,
    "v": 3562
  },
  {
    "dt": "2020.12.04 11:00",
    "o": 1.56389,
    "h": 1.56499,
    "l": 1.56352,
    "c": 1.56403,
    "v": 3386
  },
  {
    "dt": "2020.12.04 12:00",
    "o": 1.56404,
    "h": 1.56606,
    "l": 1.56399,
    "c": 1.56563,
    "v": 3495
  },
  {
    "dt": "2020.12.04 13:00",
    "o": 1.56563,
    "h": 1.56563,
    "l": 1.56402,
    "c": 1.56497,
    "v": 3318
  },
  {
    "dt": "2020.12.04 14:00",
    "o": 1.56501,
    "h": 1.56505,
    "l": 1.56296,
    "c": 1.56339,
    "v": 3577
  },
  {
    "dt": "2020.12.04 15:00",
    "o": 1.56344,
    "h": 1.56365,
    "l": 1.5578,
    "c": 1.5588,
    "v": 4721
  },
  {
    "dt": "2020.12.04 16:00",
    "o": 1.55872,
    "h": 1.56008,
    "l": 1.55718,
    "c": 1.55727,
    "v": 4981
  },
  {
    "dt": "2020.12.04 17:00",
    "o": 1.55727,
    "h": 1.5578,
    "l": 1.55349,
    "c": 1.55433,
    "v": 4838
  },
  {
    "dt": "2020.12.04 18:00",
    "o": 1.55431,
    "h": 1.55507,
    "l": 1.55291,
    "c": 1.55363,
    "v": 3318
  },
  {
    "dt": "2020.12.04 19:00",
    "o": 1.55362,
    "h": 1.55476,
    "l": 1.55332,
    "c": 1.55364,
    "v": 2316
  },
  {
    "dt": "2020.12.04 20:00",
    "o": 1.55365,
    "h": 1.55416,
    "l": 1.5522,
    "c": 1.55233,
    "v": 2133
  },
  {
    "dt": "2020.12.04 21:00",
    "o": 1.55236,
    "h": 1.55244,
    "l": 1.5508,
    "c": 1.551,
    "v": 2475
  },
  {
    "dt": "2020.12.04 22:00",
    "o": 1.55101,
    "h": 1.55147,
    "l": 1.54785,
    "c": 1.54959,
    "v": 2608
  },
  {
    "dt": "2020.12.04 23:00",
    "o": 1.54958,
    "h": 1.54997,
    "l": 1.54846,
    "c": 1.54947,
    "v": 1870
  },
  {
    "dt": "2020.12.07 00:00",
    "o": 1.5497,
    "h": 1.55024,
    "l": 1.54815,
    "c": 1.5498,
    "v": 825
  },
  {
    "dt": "2020.12.07 01:00",
    "o": 1.54926,
    "h": 1.55068,
    "l": 1.54887,
    "c": 1.54904,
    "v": 1270
  },
  {
    "dt": "2020.12.07 02:00",
    "o": 1.54902,
    "h": 1.54997,
    "l": 1.54876,
    "c": 1.54976,
    "v": 1816
  },
  {
    "dt": "2020.12.07 03:00",
    "o": 1.54979,
    "h": 1.55098,
    "l": 1.54967,
    "c": 1.55091,
    "v": 2217
  },
  {
    "dt": "2020.12.07 04:00",
    "o": 1.55084,
    "h": 1.55132,
    "l": 1.55071,
    "c": 1.55102,
    "v": 1953
  },
  {
    "dt": "2020.12.07 05:00",
    "o": 1.55102,
    "h": 1.55134,
    "l": 1.55078,
    "c": 1.55126,
    "v": 1567
  },
  {
    "dt": "2020.12.07 06:00",
    "o": 1.55129,
    "h": 1.55191,
    "l": 1.55114,
    "c": 1.55171,
    "v": 1252
  },
  {
    "dt": "2020.12.07 07:00",
    "o": 1.55168,
    "h": 1.55179,
    "l": 1.55109,
    "c": 1.55124,
    "v": 1381
  },
  {
    "dt": "2020.12.07 08:00",
    "o": 1.55124,
    "h": 1.55137,
    "l": 1.55071,
    "c": 1.55115,
    "v": 1817
  },
  {
    "dt": "2020.12.07 09:00",
    "o": 1.55118,
    "h": 1.55127,
    "l": 1.54882,
    "c": 1.54923,
    "v": 3025
  },
  {
    "dt": "2020.12.07 10:00",
    "o": 1.54923,
    "h": 1.55158,
    "l": 1.54885,
    "c": 1.55105,
    "v": 4759
  },
  {
    "dt": "2020.12.07 11:00",
    "o": 1.55105,
    "h": 1.55106,
    "l": 1.5491,
    "c": 1.55016,
    "v": 3839
  },
  {
    "dt": "2020.12.07 12:00",
    "o": 1.55015,
    "h": 1.55159,
    "l": 1.54914,
    "c": 1.55141,
    "v": 3186
  },
  {
    "dt": "2020.12.07 13:00",
    "o": 1.55138,
    "h": 1.55201,
    "l": 1.55059,
    "c": 1.55196,
    "v": 3248
  },
  {
    "dt": "2020.12.07 14:00",
    "o": 1.55197,
    "h": 1.55241,
    "l": 1.55084,
    "c": 1.55241,
    "v": 3258
  },
  {
    "dt": "2020.12.07 15:00",
    "o": 1.55241,
    "h": 1.55403,
    "l": 1.55178,
    "c": 1.55279,
    "v": 4007
  },
  {
    "dt": "2020.12.07 16:00",
    "o": 1.55277,
    "h": 1.55641,
    "l": 1.55252,
    "c": 1.55503,
    "v": 4199
  },
  {
    "dt": "2020.12.07 17:00",
    "o": 1.55501,
    "h": 1.55638,
    "l": 1.55402,
    "c": 1.55427,
    "v": 4256
  },
  {
    "dt": "2020.12.07 18:00",
    "o": 1.55427,
    "h": 1.5546,
    "l": 1.55281,
    "c": 1.55312,
    "v": 3474
  },
  {
    "dt": "2020.12.07 19:00",
    "o": 1.5531,
    "h": 1.5532,
    "l": 1.55174,
    "c": 1.55219,
    "v": 3027
  },
  {
    "dt": "2020.12.07 20:00",
    "o": 1.5522,
    "h": 1.55244,
    "l": 1.55172,
    "c": 1.55227,
    "v": 3501
  },
  {
    "dt": "2020.12.07 21:00",
    "o": 1.55226,
    "h": 1.55297,
    "l": 1.55069,
    "c": 1.55078,
    "v": 3029
  },
  {
    "dt": "2020.12.07 22:00",
    "o": 1.55077,
    "h": 1.55169,
    "l": 1.54943,
    "c": 1.54962,
    "v": 2558
  },
  {
    "dt": "2020.12.07 23:00",
    "o": 1.54955,
    "h": 1.55096,
    "l": 1.54943,
    "c": 1.54986,
    "v": 1475
  },
  {
    "dt": "2020.12.08 00:00",
    "o": 1.54914,
    "h": 1.55005,
    "l": 1.54914,
    "c": 1.54991,
    "v": 434
  },
  {
    "dt": "2020.12.08 01:00",
    "o": 1.54984,
    "h": 1.55081,
    "l": 1.54959,
    "c": 1.55031,
    "v": 770
  },
  {
    "dt": "2020.12.08 02:00",
    "o": 1.55034,
    "h": 1.55084,
    "l": 1.54981,
    "c": 1.55006,
    "v": 1486
  },
  {
    "dt": "2020.12.08 03:00",
    "o": 1.55006,
    "h": 1.55015,
    "l": 1.54901,
    "c": 1.54923,
    "v": 2097
  },
  {
    "dt": "2020.12.08 04:00",
    "o": 1.54924,
    "h": 1.54987,
    "l": 1.54909,
    "c": 1.54936,
    "v": 1892
  },
  {
    "dt": "2020.12.08 05:00",
    "o": 1.54936,
    "h": 1.54945,
    "l": 1.549,
    "c": 1.54939,
    "v": 1714
  },
  {
    "dt": "2020.12.08 06:00",
    "o": 1.54936,
    "h": 1.54945,
    "l": 1.54899,
    "c": 1.54925,
    "v": 1671
  },
  {
    "dt": "2020.12.08 07:00",
    "o": 1.54924,
    "h": 1.54965,
    "l": 1.54906,
    "c": 1.54954,
    "v": 1462
  },
  {
    "dt": "2020.12.08 08:00",
    "o": 1.54954,
    "h": 1.55002,
    "l": 1.54936,
    "c": 1.54988,
    "v": 1807
  },
  {
    "dt": "2020.12.08 09:00",
    "o": 1.54993,
    "h": 1.55023,
    "l": 1.5493,
    "c": 1.54935,
    "v": 2839
  },
  {
    "dt": "2020.12.08 10:00",
    "o": 1.54939,
    "h": 1.5511,
    "l": 1.54823,
    "c": 1.55054,
    "v": 3903
  },
  {
    "dt": "2020.12.08 11:00",
    "o": 1.55054,
    "h": 1.55058,
    "l": 1.54852,
    "c": 1.54916,
    "v": 3206
  },
  {
    "dt": "2020.12.08 12:00",
    "o": 1.54915,
    "h": 1.5498,
    "l": 1.54838,
    "c": 1.54915,
    "v": 3050
  },
  {
    "dt": "2020.12.08 13:00",
    "o": 1.54924,
    "h": 1.55093,
    "l": 1.5491,
    "c": 1.55033,
    "v": 3361
  },
  {
    "dt": "2020.12.08 14:00",
    "o": 1.55029,
    "h": 1.55215,
    "l": 1.55015,
    "c": 1.55078,
    "v": 3524
  },
  {
    "dt": "2020.12.08 15:00",
    "o": 1.55082,
    "h": 1.55193,
    "l": 1.55037,
    "c": 1.5516,
    "v": 4359
  },
  {
    "dt": "2020.12.08 16:00",
    "o": 1.55161,
    "h": 1.55227,
    "l": 1.5499,
    "c": 1.55098,
    "v": 4476
  },
  {
    "dt": "2020.12.08 17:00",
    "o": 1.55099,
    "h": 1.55127,
    "l": 1.54908,
    "c": 1.54932,
    "v": 4689
  },
  {
    "dt": "2020.12.08 18:00",
    "o": 1.54936,
    "h": 1.55216,
    "l": 1.54828,
    "c": 1.55111,
    "v": 3354
  },
  {
    "dt": "2020.12.08 19:00",
    "o": 1.55112,
    "h": 1.55337,
    "l": 1.5506,
    "c": 1.55304,
    "v": 2628
  },
  {
    "dt": "2020.12.08 20:00",
    "o": 1.55306,
    "h": 1.55367,
    "l": 1.55139,
    "c": 1.55182,
    "v": 2709
  },
  {
    "dt": "2020.12.08 21:00",
    "o": 1.55184,
    "h": 1.55211,
    "l": 1.55117,
    "c": 1.55146,
    "v": 2186
  },
  {
    "dt": "2020.12.08 22:00",
    "o": 1.55147,
    "h": 1.55187,
    "l": 1.55091,
    "c": 1.55178,
    "v": 1942
  },
  {
    "dt": "2020.12.08 23:00",
    "o": 1.55184,
    "h": 1.55217,
    "l": 1.55099,
    "c": 1.55151,
    "v": 1521
  },
  {
    "dt": "2020.12.09 00:00",
    "o": 1.55122,
    "h": 1.55154,
    "l": 1.55062,
    "c": 1.55084,
    "v": 397
  },
  {
    "dt": "2020.12.09 01:00",
    "o": 1.55104,
    "h": 1.55186,
    "l": 1.55104,
    "c": 1.55184,
    "v": 923
  },
  {
    "dt": "2020.12.09 02:00",
    "o": 1.55183,
    "h": 1.55216,
    "l": 1.55167,
    "c": 1.55185,
    "v": 1402
  },
  {
    "dt": "2020.12.09 03:00",
    "o": 1.5518,
    "h": 1.5521,
    "l": 1.5514,
    "c": 1.5518,
    "v": 1843
  },
  {
    "dt": "2020.12.09 04:00",
    "o": 1.55183,
    "h": 1.55224,
    "l": 1.55165,
    "c": 1.55204,
    "v": 1614
  },
  {
    "dt": "2020.12.09 05:00",
    "o": 1.55206,
    "h": 1.55212,
    "l": 1.5514,
    "c": 1.55141,
    "v": 1727
  },
  {
    "dt": "2020.12.09 06:00",
    "o": 1.55142,
    "h": 1.55248,
    "l": 1.55134,
    "c": 1.55238,
    "v": 1476
  },
  {
    "dt": "2020.12.09 07:00",
    "o": 1.55235,
    "h": 1.55257,
    "l": 1.552,
    "c": 1.55252,
    "v": 1229
  },
  {
    "dt": "2020.12.09 08:00",
    "o": 1.55249,
    "h": 1.55391,
    "l": 1.55233,
    "c": 1.55289,
    "v": 1897
  },
  {
    "dt": "2020.12.09 09:00",
    "o": 1.55291,
    "h": 1.55291,
    "l": 1.55154,
    "c": 1.55174,
    "v": 2263
  },
  {
    "dt": "2020.12.09 10:00",
    "o": 1.55177,
    "h": 1.55227,
    "l": 1.55013,
    "c": 1.55119,
    "v": 3799
  },
  {
    "dt": "2020.12.09 11:00",
    "o": 1.55121,
    "h": 1.55121,
    "l": 1.54897,
    "c": 1.54924,
    "v": 2989
  },
  {
    "dt": "2020.12.09 12:00",
    "o": 1.54919,
    "h": 1.55049,
    "l": 1.5487,
    "c": 1.54964,
    "v": 3106
  },
  {
    "dt": "2020.12.09 13:00",
    "o": 1.54964,
    "h": 1.55021,
    "l": 1.54843,
    "c": 1.54864,
    "v": 2834
  },
  {
    "dt": "2020.12.09 14:00",
    "o": 1.54864,
    "h": 1.54894,
    "l": 1.5475,
    "c": 1.54811,
    "v": 3409
  },
  {
    "dt": "2020.12.09 15:00",
    "o": 1.54813,
    "h": 1.54905,
    "l": 1.54665,
    "c": 1.54904,
    "v": 3369
  },
  {
    "dt": "2020.12.09 16:00",
    "o": 1.54897,
    "h": 1.55018,
    "l": 1.54679,
    "c": 1.54679,
    "v": 4215
  },
  {
    "dt": "2020.12.09 17:00",
    "o": 1.54679,
    "h": 1.54797,
    "l": 1.54419,
    "c": 1.54666,
    "v": 4820
  },
  {
    "dt": "2020.12.09 18:00",
    "o": 1.54663,
    "h": 1.54725,
    "l": 1.54484,
    "c": 1.54511,
    "v": 3913
  },
  {
    "dt": "2020.12.09 19:00",
    "o": 1.54507,
    "h": 1.54666,
    "l": 1.54457,
    "c": 1.54663,
    "v": 3803
  },
  {
    "dt": "2020.12.09 20:00",
    "o": 1.54663,
    "h": 1.54852,
    "l": 1.54594,
    "c": 1.54741,
    "v": 3736
  },
  {
    "dt": "2020.12.09 21:00",
    "o": 1.54736,
    "h": 1.54776,
    "l": 1.54658,
    "c": 1.54748,
    "v": 3230
  },
  {
    "dt": "2020.12.09 22:00",
    "o": 1.54751,
    "h": 1.54845,
    "l": 1.54679,
    "c": 1.54844,
    "v": 2985
  },
  {
    "dt": "2020.12.09 23:00",
    "o": 1.54845,
    "h": 1.54956,
    "l": 1.54823,
    "c": 1.54851,
    "v": 1611
  },
  {
    "dt": "2020.12.10 00:00",
    "o": 1.54796,
    "h": 1.54897,
    "l": 1.54759,
    "c": 1.54831,
    "v": 363
  },
  {
    "dt": "2020.12.10 01:00",
    "o": 1.54857,
    "h": 1.54923,
    "l": 1.54857,
    "c": 1.54923,
    "v": 730
  },
  {
    "dt": "2020.12.10 02:00",
    "o": 1.54922,
    "h": 1.54971,
    "l": 1.54836,
    "c": 1.54849,
    "v": 1447
  },
  {
    "dt": "2020.12.10 03:00",
    "o": 1.54848,
    "h": 1.5488,
    "l": 1.54807,
    "c": 1.54848,
    "v": 2093
  },
  {
    "dt": "2020.12.10 04:00",
    "o": 1.5485,
    "h": 1.5486,
    "l": 1.54725,
    "c": 1.54726,
    "v": 2118
  },
  {
    "dt": "2020.12.10 05:00",
    "o": 1.54731,
    "h": 1.54796,
    "l": 1.5472,
    "c": 1.54782,
    "v": 1672
  },
  {
    "dt": "2020.12.10 06:00",
    "o": 1.54782,
    "h": 1.54818,
    "l": 1.54753,
    "c": 1.54792,
    "v": 1491
  },
  {
    "dt": "2020.12.10 07:00",
    "o": 1.54799,
    "h": 1.54812,
    "l": 1.54749,
    "c": 1.54781,
    "v": 1324
  },
  {
    "dt": "2020.12.10 08:00",
    "o": 1.54786,
    "h": 1.548,
    "l": 1.54742,
    "c": 1.54795,
    "v": 1577
  },
  {
    "dt": "2020.12.10 09:00",
    "o": 1.54789,
    "h": 1.54915,
    "l": 1.54783,
    "c": 1.54785,
    "v": 2911
  },
  {
    "dt": "2020.12.10 10:00",
    "o": 1.54779,
    "h": 1.54817,
    "l": 1.54665,
    "c": 1.54764,
    "v": 3474
  },
  {
    "dt": "2020.12.10 11:00",
    "o": 1.54764,
    "h": 1.54915,
    "l": 1.54712,
    "c": 1.54883,
    "v": 3317
  },
  {
    "dt": "2020.12.10 12:00",
    "o": 1.54888,
    "h": 1.54918,
    "l": 1.54619,
    "c": 1.54628,
    "v": 2971
  },
  {
    "dt": "2020.12.10 13:00",
    "o": 1.54629,
    "h": 1.54659,
    "l": 1.54478,
    "c": 1.54528,
    "v": 2695
  },
  {
    "dt": "2020.12.10 14:00",
    "o": 1.54528,
    "h": 1.54807,
    "l": 1.54421,
    "c": 1.54612,
    "v": 3913
  },
  {
    "dt": "2020.12.10 15:00",
    "o": 1.54615,
    "h": 1.54719,
    "l": 1.54361,
    "c": 1.54634,
    "v": 5101
  },
  {
    "dt": "2020.12.10 16:00",
    "o": 1.54634,
    "h": 1.54671,
    "l": 1.54391,
    "c": 1.54529,
    "v": 5350
  },
  {
    "dt": "2020.12.10 17:00",
    "o": 1.54526,
    "h": 1.54591,
    "l": 1.54088,
    "c": 1.54283,
    "v": 5065
  },
  {
    "dt": "2020.12.10 18:00",
    "o": 1.5428,
    "h": 1.54307,
    "l": 1.5402,
    "c": 1.54203,
    "v": 4060
  },
  {
    "dt": "2020.12.10 19:00",
    "o": 1.54202,
    "h": 1.54384,
    "l": 1.54193,
    "c": 1.54296,
    "v": 3446
  },
  {
    "dt": "2020.12.10 20:00",
    "o": 1.54297,
    "h": 1.54411,
    "l": 1.54199,
    "c": 1.54394,
    "v": 3140
  },
  {
    "dt": "2020.12.10 21:00",
    "o": 1.54395,
    "h": 1.54664,
    "l": 1.54374,
    "c": 1.54626,
    "v": 2868
  },
  {
    "dt": "2020.12.10 22:00",
    "o": 1.54621,
    "h": 1.54734,
    "l": 1.54608,
    "c": 1.54639,
    "v": 2671
  },
  {
    "dt": "2020.12.10 23:00",
    "o": 1.5464,
    "h": 1.54732,
    "l": 1.54536,
    "c": 1.5465,
    "v": 1578
  },
  {
    "dt": "2020.12.11 00:00",
    "o": 1.54614,
    "h": 1.54701,
    "l": 1.54614,
    "c": 1.54693,
    "v": 167
  },
  {
    "dt": "2020.12.11 01:00",
    "o": 1.54695,
    "h": 1.54731,
    "l": 1.54669,
    "c": 1.54713,
    "v": 866
  },
  {
    "dt": "2020.12.11 02:00",
    "o": 1.54712,
    "h": 1.54794,
    "l": 1.54695,
    "c": 1.54786,
    "v": 1473
  },
  {
    "dt": "2020.12.11 03:00",
    "o": 1.54781,
    "h": 1.54797,
    "l": 1.54699,
    "c": 1.54707,
    "v": 2469
  },
  {
    "dt": "2020.12.11 04:00",
    "o": 1.54706,
    "h": 1.5478,
    "l": 1.54663,
    "c": 1.54705,
    "v": 1934
  },
  {
    "dt": "2020.12.11 05:00",
    "o": 1.54712,
    "h": 1.54794,
    "l": 1.54695,
    "c": 1.54716,
    "v": 1609
  },
  {
    "dt": "2020.12.11 06:00",
    "o": 1.54715,
    "h": 1.54738,
    "l": 1.54661,
    "c": 1.54681,
    "v": 1156
  },
  {
    "dt": "2020.12.11 07:00",
    "o": 1.54683,
    "h": 1.54746,
    "l": 1.54651,
    "c": 1.54731,
    "v": 1699
  },
  {
    "dt": "2020.12.11 08:00",
    "o": 1.54731,
    "h": 1.5479,
    "l": 1.54646,
    "c": 1.54646,
    "v": 1660
  },
  {
    "dt": "2020.12.11 09:00",
    "o": 1.54647,
    "h": 1.54696,
    "l": 1.54445,
    "c": 1.54488,
    "v": 3038
  },
  {
    "dt": "2020.12.11 10:00",
    "o": 1.54492,
    "h": 1.54811,
    "l": 1.54462,
    "c": 1.5476,
    "v": 4398
  },
  {
    "dt": "2020.12.11 11:00",
    "o": 1.54765,
    "h": 1.54809,
    "l": 1.54639,
    "c": 1.54697,
    "v": 3557
  },
  {
    "dt": "2020.12.11 12:00",
    "o": 1.54697,
    "h": 1.54865,
    "l": 1.54665,
    "c": 1.54759,
    "v": 3626
  },
  {
    "dt": "2020.12.11 13:00",
    "o": 1.54756,
    "h": 1.54886,
    "l": 1.54743,
    "c": 1.54825,
    "v": 3859
  },
  {
    "dt": "2020.12.11 14:00",
    "o": 1.54825,
    "h": 1.54907,
    "l": 1.54758,
    "c": 1.54806,
    "v": 3481
  },
  {
    "dt": "2020.12.11 15:00",
    "o": 1.54807,
    "h": 1.54901,
    "l": 1.54665,
    "c": 1.54726,
    "v": 4210
  },
  {
    "dt": "2020.12.11 16:00",
    "o": 1.5472,
    "h": 1.54955,
    "l": 1.54693,
    "c": 1.54787,
    "v": 4477
  },
  {
    "dt": "2020.12.11 17:00",
    "o": 1.54785,
    "h": 1.54829,
    "l": 1.5457,
    "c": 1.54651,
    "v": 4641
  },
  {
    "dt": "2020.12.11 18:00",
    "o": 1.5465,
    "h": 1.54693,
    "l": 1.54501,
    "c": 1.54636,
    "v": 3599
  },
  {
    "dt": "2020.12.11 19:00",
    "o": 1.54634,
    "h": 1.54731,
    "l": 1.54592,
    "c": 1.54695,
    "v": 2617
  },
  {
    "dt": "2020.12.11 20:00",
    "o": 1.54696,
    "h": 1.54787,
    "l": 1.54639,
    "c": 1.5468,
    "v": 1889
  },
  {
    "dt": "2020.12.11 21:00",
    "o": 1.54679,
    "h": 1.54728,
    "l": 1.54654,
    "c": 1.54694,
    "v": 2143
  },
  {
    "dt": "2020.12.11 22:00",
    "o": 1.54693,
    "h": 1.5474,
    "l": 1.54629,
    "c": 1.54699,
    "v": 1822
  },
  {
    "dt": "2020.12.11 23:00",
    "o": 1.547,
    "h": 1.54715,
    "l": 1.5456,
    "c": 1.5456,
    "v": 1438
  },
  {
    "dt": "2020.12.14 00:00",
    "o": 1.54744,
    "h": 1.54853,
    "l": 1.54657,
    "c": 1.54658,
    "v": 206
  },
  {
    "dt": "2020.12.14 01:00",
    "o": 1.54697,
    "h": 1.54723,
    "l": 1.54657,
    "c": 1.54701,
    "v": 1339
  },
  {
    "dt": "2020.12.14 02:00",
    "o": 1.54701,
    "h": 1.54729,
    "l": 1.54621,
    "c": 1.54686,
    "v": 2007
  },
  {
    "dt": "2020.12.14 03:00",
    "o": 1.54687,
    "h": 1.54766,
    "l": 1.54616,
    "c": 1.54742,
    "v": 2090
  },
  {
    "dt": "2020.12.14 04:00",
    "o": 1.54743,
    "h": 1.54795,
    "l": 1.5473,
    "c": 1.54761,
    "v": 1567
  },
  {
    "dt": "2020.12.14 05:00",
    "o": 1.5476,
    "h": 1.54786,
    "l": 1.54742,
    "c": 1.54763,
    "v": 1298
  },
  {
    "dt": "2020.12.14 06:00",
    "o": 1.54763,
    "h": 1.54773,
    "l": 1.54735,
    "c": 1.54756,
    "v": 1115
  },
  {
    "dt": "2020.12.14 07:00",
    "o": 1.54755,
    "h": 1.54866,
    "l": 1.54748,
    "c": 1.54866,
    "v": 1504
  },
  {
    "dt": "2020.12.14 08:00",
    "o": 1.54865,
    "h": 1.5489,
    "l": 1.54821,
    "c": 1.54849,
    "v": 1556
  },
  {
    "dt": "2020.12.14 09:00",
    "o": 1.54842,
    "h": 1.54981,
    "l": 1.54795,
    "c": 1.54964,
    "v": 2728
  },
  {
    "dt": "2020.12.14 10:00",
    "o": 1.54955,
    "h": 1.54971,
    "l": 1.5478,
    "c": 1.54836,
    "v": 3551
  },
  {
    "dt": "2020.12.14 11:00",
    "o": 1.54832,
    "h": 1.55051,
    "l": 1.54759,
    "c": 1.55042,
    "v": 2891
  },
  {
    "dt": "2020.12.14 12:00",
    "o": 1.55038,
    "h": 1.55058,
    "l": 1.54924,
    "c": 1.54938,
    "v": 2746
  },
  {
    "dt": "2020.12.14 13:00",
    "o": 1.54937,
    "h": 1.55025,
    "l": 1.54876,
    "c": 1.54907,
    "v": 2715
  },
  {
    "dt": "2020.12.14 14:00",
    "o": 1.54904,
    "h": 1.54962,
    "l": 1.54752,
    "c": 1.54768,
    "v": 3229
  },
  {
    "dt": "2020.12.14 15:00",
    "o": 1.54771,
    "h": 1.54959,
    "l": 1.54672,
    "c": 1.54821,
    "v": 3385
  },
  {
    "dt": "2020.12.14 16:00",
    "o": 1.54816,
    "h": 1.54986,
    "l": 1.54692,
    "c": 1.54936,
    "v": 4421
  },
  {
    "dt": "2020.12.14 17:00",
    "o": 1.54937,
    "h": 1.54966,
    "l": 1.54597,
    "c": 1.54861,
    "v": 5014
  },
  {
    "dt": "2020.12.14 18:00",
    "o": 1.54861,
    "h": 1.55316,
    "l": 1.54834,
    "c": 1.55309,
    "v": 3798
  },
  {
    "dt": "2020.12.14 19:00",
    "o": 1.55308,
    "h": 1.55323,
    "l": 1.55186,
    "c": 1.55232,
    "v": 3233
  },
  {
    "dt": "2020.12.14 20:00",
    "o": 1.55234,
    "h": 1.55351,
    "l": 1.55067,
    "c": 1.55072,
    "v": 2635
  },
  {
    "dt": "2020.12.14 21:00",
    "o": 1.55072,
    "h": 1.55099,
    "l": 1.5496,
    "c": 1.54975,
    "v": 2491
  },
  {
    "dt": "2020.12.14 22:00",
    "o": 1.54969,
    "h": 1.5506,
    "l": 1.54939,
    "c": 1.54983,
    "v": 2085
  },
  {
    "dt": "2020.12.14 23:00",
    "o": 1.54987,
    "h": 1.55067,
    "l": 1.5496,
    "c": 1.55007,
    "v": 1630
  },
  {
    "dt": "2020.12.15 00:00",
    "o": 1.54937,
    "h": 1.54991,
    "l": 1.54905,
    "c": 1.54916,
    "v": 207
  },
  {
    "dt": "2020.12.15 01:00",
    "o": 1.54935,
    "h": 1.55019,
    "l": 1.54928,
    "c": 1.55016,
    "v": 931
  },
  {
    "dt": "2020.12.15 02:00",
    "o": 1.5501,
    "h": 1.55055,
    "l": 1.54933,
    "c": 1.55046,
    "v": 1429
  },
  {
    "dt": "2020.12.15 03:00",
    "o": 1.55044,
    "h": 1.55124,
    "l": 1.55014,
    "c": 1.55118,
    "v": 2099
  },
  {
    "dt": "2020.12.15 04:00",
    "o": 1.55119,
    "h": 1.55175,
    "l": 1.55096,
    "c": 1.55129,
    "v": 2067
  },
  {
    "dt": "2020.12.15 05:00",
    "o": 1.5513,
    "h": 1.55156,
    "l": 1.55095,
    "c": 1.55122,
    "v": 2072
  },
  {
    "dt": "2020.12.15 06:00",
    "o": 1.55122,
    "h": 1.55171,
    "l": 1.55085,
    "c": 1.55091,
    "v": 1413
  },
  {
    "dt": "2020.12.15 07:00",
    "o": 1.55095,
    "h": 1.55116,
    "l": 1.55054,
    "c": 1.55116,
    "v": 1883
  },
  {
    "dt": "2020.12.15 08:00",
    "o": 1.55112,
    "h": 1.55112,
    "l": 1.5496,
    "c": 1.54981,
    "v": 1701
  },
  {
    "dt": "2020.12.15 09:00",
    "o": 1.54988,
    "h": 1.54989,
    "l": 1.54815,
    "c": 1.5486,
    "v": 2833
  },
  {
    "dt": "2020.12.15 10:00",
    "o": 1.54858,
    "h": 1.55003,
    "l": 1.54775,
    "c": 1.54899,
    "v": 3579
  },
  {
    "dt": "2020.12.15 11:00",
    "o": 1.54901,
    "h": 1.55081,
    "l": 1.54884,
    "c": 1.55003,
    "v": 3251
  },
  {
    "dt": "2020.12.15 12:00",
    "o": 1.55006,
    "h": 1.55091,
    "l": 1.54949,
    "c": 1.55074,
    "v": 2912
  },
  {
    "dt": "2020.12.15 13:00",
    "o": 1.55071,
    "h": 1.55178,
    "l": 1.55026,
    "c": 1.55173,
    "v": 3050
  },
  {
    "dt": "2020.12.15 14:00",
    "o": 1.55172,
    "h": 1.55172,
    "l": 1.546,
    "c": 1.54626,
    "v": 3183
  },
  {
    "dt": "2020.12.15 15:00",
    "o": 1.54628,
    "h": 1.54756,
    "l": 1.5456,
    "c": 1.5463,
    "v": 3943
  },
  {
    "dt": "2020.12.15 16:00",
    "o": 1.54631,
    "h": 1.5492,
    "l": 1.54614,
    "c": 1.5473,
    "v": 4057
  },
  {
    "dt": "2020.12.15 17:00",
    "o": 1.54727,
    "h": 1.54915,
    "l": 1.54693,
    "c": 1.5477,
    "v": 3878
  },
  {
    "dt": "2020.12.15 18:00",
    "o": 1.54768,
    "h": 1.5488,
    "l": 1.54703,
    "c": 1.54771,
    "v": 3570
  },
  {
    "dt": "2020.12.15 19:00",
    "o": 1.54769,
    "h": 1.54769,
    "l": 1.54605,
    "c": 1.5466,
    "v": 2738
  },
  {
    "dt": "2020.12.15 20:00",
    "o": 1.54661,
    "h": 1.54661,
    "l": 1.54278,
    "c": 1.54282,
    "v": 3119
  },
  {
    "dt": "2020.12.15 21:00",
    "o": 1.5428,
    "h": 1.54424,
    "l": 1.54275,
    "c": 1.54334,
    "v": 2698
  },
  {
    "dt": "2020.12.15 22:00",
    "o": 1.54334,
    "h": 1.54379,
    "l": 1.54215,
    "c": 1.54378,
    "v": 2300
  },
  {
    "dt": "2020.12.15 23:00",
    "o": 1.54378,
    "h": 1.54503,
    "l": 1.54292,
    "c": 1.54299,
    "v": 1728
  },
  {
    "dt": "2020.12.16 00:00",
    "o": 1.54337,
    "h": 1.54338,
    "l": 1.54237,
    "c": 1.54289,
    "v": 301
  },
  {
    "dt": "2020.12.16 01:00",
    "o": 1.5429,
    "h": 1.54347,
    "l": 1.54286,
    "c": 1.54339,
    "v": 832
  },
  {
    "dt": "2020.12.16 02:00",
    "o": 1.54339,
    "h": 1.54413,
    "l": 1.54303,
    "c": 1.5441,
    "v": 1414
  },
  {
    "dt": "2020.12.16 03:00",
    "o": 1.54411,
    "h": 1.54444,
    "l": 1.54368,
    "c": 1.54399,
    "v": 1864
  },
  {
    "dt": "2020.12.16 04:00",
    "o": 1.54398,
    "h": 1.54421,
    "l": 1.54363,
    "c": 1.54403,
    "v": 1638
  },
  {
    "dt": "2020.12.16 05:00",
    "o": 1.54404,
    "h": 1.54579,
    "l": 1.54379,
    "c": 1.54575,
    "v": 1409
  },
  {
    "dt": "2020.12.16 06:00",
    "o": 1.54571,
    "h": 1.5479,
    "l": 1.54571,
    "c": 1.54789,
    "v": 1476
  },
  {
    "dt": "2020.12.16 07:00",
    "o": 1.54788,
    "h": 1.54923,
    "l": 1.54767,
    "c": 1.54867,
    "v": 1471
  },
  {
    "dt": "2020.12.16 08:00",
    "o": 1.54864,
    "h": 1.54916,
    "l": 1.54785,
    "c": 1.54849,
    "v": 1546
  },
  {
    "dt": "2020.12.16 09:00",
    "o": 1.54847,
    "h": 1.54907,
    "l": 1.54688,
    "c": 1.54696,
    "v": 2881
  },
  {
    "dt": "2020.12.16 10:00",
    "o": 1.54694,
    "h": 1.55168,
    "l": 1.54653,
    "c": 1.55157,
    "v": 4611
  },
  {
    "dt": "2020.12.16 11:00",
    "o": 1.55152,
    "h": 1.5531,
    "l": 1.55102,
    "c": 1.55269,
    "v": 3720
  },
  {
    "dt": "2020.12.16 12:00",
    "o": 1.55268,
    "h": 1.55632,
    "l": 1.55231,
    "c": 1.55498,
    "v": 3067
  },
  {
    "dt": "2020.12.16 13:00",
    "o": 1.55498,
    "h": 1.55523,
    "l": 1.55367,
    "c": 1.55502,
    "v": 3227
  },
  {
    "dt": "2020.12.16 14:00",
    "o": 1.55502,
    "h": 1.55522,
    "l": 1.5537,
    "c": 1.55463,
    "v": 3054
  },
  {
    "dt": "2020.12.16 15:00",
    "o": 1.55463,
    "h": 1.55549,
    "l": 1.55197,
    "c": 1.55354,
    "v": 3908
  },
  {
    "dt": "2020.12.16 16:00",
    "o": 1.55355,
    "h": 1.55659,
    "l": 1.55331,
    "c": 1.55559,
    "v": 3896
  },
  {
    "dt": "2020.12.16 17:00",
    "o": 1.55558,
    "h": 1.55581,
    "l": 1.55254,
    "c": 1.55488,
    "v": 4406
  },
  {
    "dt": "2020.12.16 18:00",
    "o": 1.55502,
    "h": 1.55505,
    "l": 1.55225,
    "c": 1.55278,
    "v": 3462
  },
  {
    "dt": "2020.12.16 19:00",
    "o": 1.55277,
    "h": 1.55326,
    "l": 1.55148,
    "c": 1.55205,
    "v": 2564
  },
  {
    "dt": "2020.12.16 20:00",
    "o": 1.55204,
    "h": 1.55315,
    "l": 1.55171,
    "c": 1.55199,
    "v": 2306
  },
  {
    "dt": "2020.12.16 21:00",
    "o": 1.55198,
    "h": 1.55321,
    "l": 1.55018,
    "c": 1.55125,
    "v": 4912
  },
  {
    "dt": "2020.12.16 22:00",
    "o": 1.55128,
    "h": 1.5539,
    "l": 1.55099,
    "c": 1.55231,
    "v": 3779
  },
  {
    "dt": "2020.12.16 23:00",
    "o": 1.55225,
    "h": 1.55469,
    "l": 1.5522,
    "c": 1.554,
    "v": 1674
  },
  {
    "dt": "2020.12.17 00:00",
    "o": 1.55395,
    "h": 1.55443,
    "l": 1.5532,
    "c": 1.55405,
    "v": 387
  },
  {
    "dt": "2020.12.17 01:00",
    "o": 1.55421,
    "h": 1.55456,
    "l": 1.55349,
    "c": 1.55454,
    "v": 870
  },
  {
    "dt": "2020.12.17 02:00",
    "o": 1.55451,
    "h": 1.55479,
    "l": 1.55354,
    "c": 1.55388,
    "v": 1613
  },
  {
    "dt": "2020.12.17 03:00",
    "o": 1.55389,
    "h": 1.55448,
    "l": 1.55322,
    "c": 1.55422,
    "v": 2071
  },
  {
    "dt": "2020.12.17 04:00",
    "o": 1.55424,
    "h": 1.55515,
    "l": 1.55414,
    "c": 1.55436,
    "v": 1830
  },
  {
    "dt": "2020.12.17 05:00",
    "o": 1.55436,
    "h": 1.55437,
    "l": 1.55371,
    "c": 1.5539,
    "v": 1336
  },
  {
    "dt": "2020.12.17 06:00",
    "o": 1.55394,
    "h": 1.55633,
    "l": 1.55388,
    "c": 1.55504,
    "v": 2005
  },
  {
    "dt": "2020.12.17 07:00",
    "o": 1.55506,
    "h": 1.55521,
    "l": 1.55389,
    "c": 1.55399,
    "v": 1628
  },
  {
    "dt": "2020.12.17 08:00",
    "o": 1.55399,
    "h": 1.55496,
    "l": 1.55399,
    "c": 1.55448,
    "v": 1787
  },
  {
    "dt": "2020.12.17 09:00",
    "o": 1.55446,
    "h": 1.55484,
    "l": 1.55333,
    "c": 1.55374,
    "v": 3083
  },
  {
    "dt": "2020.12.17 10:00",
    "o": 1.55375,
    "h": 1.55503,
    "l": 1.55358,
    "c": 1.55406,
    "v": 3394
  },
  {
    "dt": "2020.12.17 11:00",
    "o": 1.55406,
    "h": 1.55436,
    "l": 1.55277,
    "c": 1.55395,
    "v": 3193
  },
  {
    "dt": "2020.12.17 12:00",
    "o": 1.55396,
    "h": 1.55405,
    "l": 1.55294,
    "c": 1.55333,
    "v": 2915
  },
  {
    "dt": "2020.12.17 13:00",
    "o": 1.55332,
    "h": 1.55489,
    "l": 1.55316,
    "c": 1.55423,
    "v": 2950
  },
  {
    "dt": "2020.12.17 14:00",
    "o": 1.55425,
    "h": 1.55603,
    "l": 1.55385,
    "c": 1.55585,
    "v": 3312
  },
  {
    "dt": "2020.12.17 15:00",
    "o": 1.55586,
    "h": 1.55729,
    "l": 1.55454,
    "c": 1.55674,
    "v": 3830
  },
  {
    "dt": "2020.12.17 16:00",
    "o": 1.55675,
    "h": 1.55835,
    "l": 1.55452,
    "c": 1.55518,
    "v": 4045
  },
  {
    "dt": "2020.12.17 17:00",
    "o": 1.5552,
    "h": 1.55889,
    "l": 1.55454,
    "c": 1.55754,
    "v": 4460
  },
  {
    "dt": "2020.12.17 18:00",
    "o": 1.55756,
    "h": 1.55924,
    "l": 1.55633,
    "c": 1.55859,
    "v": 3726
  },
  {
    "dt": "2020.12.17 19:00",
    "o": 1.55859,
    "h": 1.5603,
    "l": 1.55829,
    "c": 1.55894,
    "v": 2932
  },
  {
    "dt": "2020.12.17 20:00",
    "o": 1.55893,
    "h": 1.56231,
    "l": 1.55893,
    "c": 1.56159,
    "v": 2678
  },
  {
    "dt": "2020.12.17 21:00",
    "o": 1.5616,
    "h": 1.56182,
    "l": 1.56033,
    "c": 1.5608,
    "v": 2915
  },
  {
    "dt": "2020.12.17 22:00",
    "o": 1.56079,
    "h": 1.56214,
    "l": 1.56045,
    "c": 1.56093,
    "v": 2818
  },
  {
    "dt": "2020.12.17 23:00",
    "o": 1.56094,
    "h": 1.56161,
    "l": 1.56037,
    "c": 1.56049,
    "v": 1854
  },
  {
    "dt": "2020.12.18 00:00",
    "o": 1.56012,
    "h": 1.5608,
    "l": 1.55973,
    "c": 1.56055,
    "v": 414
  },
  {
    "dt": "2020.12.18 01:00",
    "o": 1.56079,
    "h": 1.5611,
    "l": 1.56023,
    "c": 1.56103,
    "v": 1127
  },
  {
    "dt": "2020.12.18 02:00",
    "o": 1.56104,
    "h": 1.56132,
    "l": 1.56011,
    "c": 1.56104,
    "v": 1654
  },
  {
    "dt": "2020.12.18 03:00",
    "o": 1.56107,
    "h": 1.56133,
    "l": 1.5602,
    "c": 1.56132,
    "v": 1796
  },
  {
    "dt": "2020.12.18 04:00",
    "o": 1.56132,
    "h": 1.56149,
    "l": 1.56077,
    "c": 1.5611,
    "v": 1741
  },
  {
    "dt": "2020.12.18 05:00",
    "o": 1.56109,
    "h": 1.56151,
    "l": 1.56069,
    "c": 1.56075,
    "v": 1271
  },
  {
    "dt": "2020.12.18 06:00",
    "o": 1.56075,
    "h": 1.56084,
    "l": 1.56002,
    "c": 1.56034,
    "v": 1286
  },
  {
    "dt": "2020.12.18 07:00",
    "o": 1.56033,
    "h": 1.56142,
    "l": 1.56032,
    "c": 1.56129,
    "v": 1826
  },
  {
    "dt": "2020.12.18 08:00",
    "o": 1.56121,
    "h": 1.56165,
    "l": 1.5611,
    "c": 1.56157,
    "v": 1941
  },
  {
    "dt": "2020.12.18 09:00",
    "o": 1.56166,
    "h": 1.56214,
    "l": 1.5612,
    "c": 1.56145,
    "v": 2426
  },
  {
    "dt": "2020.12.18 10:00",
    "o": 1.56142,
    "h": 1.5629,
    "l": 1.56104,
    "c": 1.56248,
    "v": 3390
  },
  {
    "dt": "2020.12.18 11:00",
    "o": 1.56244,
    "h": 1.56347,
    "l": 1.5621,
    "c": 1.56283,
    "v": 3051
  },
  {
    "dt": "2020.12.18 12:00",
    "o": 1.56285,
    "h": 1.56428,
    "l": 1.56164,
    "c": 1.56356,
    "v": 2820
  },
  {
    "dt": "2020.12.18 13:00",
    "o": 1.56354,
    "h": 1.56363,
    "l": 1.56266,
    "c": 1.56291,
    "v": 3202
  },
  {
    "dt": "2020.12.18 14:00",
    "o": 1.56284,
    "h": 1.5637,
    "l": 1.56185,
    "c": 1.56288,
    "v": 3252
  },
  {
    "dt": "2020.12.18 15:00",
    "o": 1.56287,
    "h": 1.56417,
    "l": 1.56173,
    "c": 1.5627,
    "v": 3763
  },
  {
    "dt": "2020.12.18 16:00",
    "o": 1.56269,
    "h": 1.5628,
    "l": 1.5611,
    "c": 1.56245,
    "v": 3960
  },
  {
    "dt": "2020.12.18 17:00",
    "o": 1.56244,
    "h": 1.56355,
    "l": 1.561,
    "c": 1.56289,
    "v": 4420
  },
  {
    "dt": "2020.12.18 18:00",
    "o": 1.563,
    "h": 1.5635,
    "l": 1.56209,
    "c": 1.56309,
    "v": 3417
  },
  {
    "dt": "2020.12.18 19:00",
    "o": 1.56309,
    "h": 1.56645,
    "l": 1.56297,
    "c": 1.5648,
    "v": 2474
  },
  {
    "dt": "2020.12.18 20:00",
    "o": 1.56478,
    "h": 1.56642,
    "l": 1.56446,
    "c": 1.56626,
    "v": 2218
  },
  {
    "dt": "2020.12.18 21:00",
    "o": 1.56626,
    "h": 1.56626,
    "l": 1.56449,
    "c": 1.56538,
    "v": 2425
  },
  {
    "dt": "2020.12.18 22:00",
    "o": 1.56537,
    "h": 1.56573,
    "l": 1.56444,
    "c": 1.56511,
    "v": 2901
  },
  {
    "dt": "2020.12.18 23:00",
    "o": 1.5651,
    "h": 1.56677,
    "l": 1.565,
    "c": 1.56633,
    "v": 2059
  },
  {
    "dt": "2020.12.21 00:00",
    "o": 1.56408,
    "h": 1.56476,
    "l": 1.56315,
    "c": 1.56363,
    "v": 267
  },
  {
    "dt": "2020.12.21 01:00",
    "o": 1.56422,
    "h": 1.56552,
    "l": 1.56368,
    "c": 1.56424,
    "v": 1886
  },
  {
    "dt": "2020.12.21 02:00",
    "o": 1.56426,
    "h": 1.56579,
    "l": 1.56358,
    "c": 1.56571,
    "v": 2062
  },
  {
    "dt": "2020.12.21 03:00",
    "o": 1.56568,
    "h": 1.56634,
    "l": 1.5644,
    "c": 1.56511,
    "v": 3268
  },
  {
    "dt": "2020.12.21 04:00",
    "o": 1.5651,
    "h": 1.5665,
    "l": 1.56486,
    "c": 1.5664,
    "v": 2673
  },
  {
    "dt": "2020.12.21 05:00",
    "o": 1.56635,
    "h": 1.56662,
    "l": 1.56555,
    "c": 1.56574,
    "v": 2061
  },
  {
    "dt": "2020.12.21 06:00",
    "o": 1.56573,
    "h": 1.56602,
    "l": 1.56519,
    "c": 1.56529,
    "v": 1616
  },
  {
    "dt": "2020.12.21 07:00",
    "o": 1.56526,
    "h": 1.56536,
    "l": 1.56427,
    "c": 1.56527,
    "v": 2080
  },
  {
    "dt": "2020.12.21 08:00",
    "o": 1.56522,
    "h": 1.56706,
    "l": 1.56484,
    "c": 1.567,
    "v": 2246
  },
  {
    "dt": "2020.12.21 09:00",
    "o": 1.56701,
    "h": 1.56857,
    "l": 1.56558,
    "c": 1.56828,
    "v": 4095
  },
  {
    "dt": "2020.12.21 10:00",
    "o": 1.56826,
    "h": 1.57368,
    "l": 1.56819,
    "c": 1.57323,
    "v": 5028
  },
  {
    "dt": "2020.12.21 11:00",
    "o": 1.5732,
    "h": 1.5734,
    "l": 1.57046,
    "c": 1.57172,
    "v": 4498
  },
  {
    "dt": "2020.12.21 12:00",
    "o": 1.57168,
    "h": 1.57253,
    "l": 1.56937,
    "c": 1.57033,
    "v": 5515
  },
  {
    "dt": "2020.12.21 13:00",
    "o": 1.57034,
    "h": 1.57176,
    "l": 1.56836,
    "c": 1.56883,
    "v": 4997
  },
  {
    "dt": "2020.12.21 14:00",
    "o": 1.56882,
    "h": 1.56966,
    "l": 1.56743,
    "c": 1.56775,
    "v": 4758
  },
  {
    "dt": "2020.12.21 15:00",
    "o": 1.56772,
    "h": 1.57299,
    "l": 1.56722,
    "c": 1.57029,
    "v": 5132
  },
  {
    "dt": "2020.12.21 16:00",
    "o": 1.57032,
    "h": 1.57158,
    "l": 1.56936,
    "c": 1.57055,
    "v": 5129
  },
  {
    "dt": "2020.12.21 17:00",
    "o": 1.57056,
    "h": 1.57214,
    "l": 1.56997,
    "c": 1.57147,
    "v": 4972
  },
  {
    "dt": "2020.12.21 18:00",
    "o": 1.57144,
    "h": 1.57202,
    "l": 1.56919,
    "c": 1.56994,
    "v": 4309
  },
  {
    "dt": "2020.12.21 19:00",
    "o": 1.56996,
    "h": 1.5706,
    "l": 1.56929,
    "c": 1.56965,
    "v": 3881
  },
  {
    "dt": "2020.12.21 20:00",
    "o": 1.56962,
    "h": 1.5711,
    "l": 1.56921,
    "c": 1.57066,
    "v": 3498
  },
  {
    "dt": "2020.12.21 21:00",
    "o": 1.57067,
    "h": 1.57149,
    "l": 1.56964,
    "c": 1.57127,
    "v": 3723
  },
  {
    "dt": "2020.12.21 22:00",
    "o": 1.57129,
    "h": 1.57227,
    "l": 1.57104,
    "c": 1.5721,
    "v": 3173
  },
  {
    "dt": "2020.12.21 23:00",
    "o": 1.57202,
    "h": 1.57425,
    "l": 1.57151,
    "c": 1.57425,
    "v": 1967
  },
  {
    "dt": "2020.12.22 00:00",
    "o": 1.57338,
    "h": 1.57339,
    "l": 1.57153,
    "c": 1.57271,
    "v": 342
  },
  {
    "dt": "2020.12.22 01:00",
    "o": 1.57301,
    "h": 1.57362,
    "l": 1.57234,
    "c": 1.57235,
    "v": 1395
  },
  {
    "dt": "2020.12.22 02:00",
    "o": 1.57234,
    "h": 1.57314,
    "l": 1.57226,
    "c": 1.5729,
    "v": 1903
  },
  {
    "dt": "2020.12.22 03:00",
    "o": 1.57293,
    "h": 1.57338,
    "l": 1.57256,
    "c": 1.57275,
    "v": 2282
  },
  {
    "dt": "2020.12.22 04:00",
    "o": 1.57271,
    "h": 1.57271,
    "l": 1.57179,
    "c": 1.5721,
    "v": 1753
  },
  {
    "dt": "2020.12.22 05:00",
    "o": 1.57211,
    "h": 1.57345,
    "l": 1.57204,
    "c": 1.57323,
    "v": 1813
  },
  {
    "dt": "2020.12.22 06:00",
    "o": 1.57317,
    "h": 1.57359,
    "l": 1.57295,
    "c": 1.5734,
    "v": 1854
  },
  {
    "dt": "2020.12.22 07:00",
    "o": 1.57336,
    "h": 1.57372,
    "l": 1.57289,
    "c": 1.57354,
    "v": 2054
  },
  {
    "dt": "2020.12.22 08:00",
    "o": 1.57353,
    "h": 1.5743,
    "l": 1.57328,
    "c": 1.57426,
    "v": 2460
  },
  {
    "dt": "2020.12.22 09:00",
    "o": 1.57415,
    "h": 1.57432,
    "l": 1.57241,
    "c": 1.57259,
    "v": 3706
  },
  {
    "dt": "2020.12.22 10:00",
    "o": 1.57257,
    "h": 1.57303,
    "l": 1.57095,
    "c": 1.57298,
    "v": 3884
  },
  {
    "dt": "2020.12.22 11:00",
    "o": 1.57296,
    "h": 1.57388,
    "l": 1.57215,
    "c": 1.57293,
    "v": 3630
  },
  {
    "dt": "2020.12.22 12:00",
    "o": 1.57285,
    "h": 1.5748,
    "l": 1.57243,
    "c": 1.57353,
    "v": 3866
  },
  {
    "dt": "2020.12.22 13:00",
    "o": 1.57353,
    "h": 1.57541,
    "l": 1.57265,
    "c": 1.57517,
    "v": 3429
  },
  {
    "dt": "2020.12.22 14:00",
    "o": 1.57515,
    "h": 1.57572,
    "l": 1.57415,
    "c": 1.57418,
    "v": 3862
  },
  {
    "dt": "2020.12.22 15:00",
    "o": 1.57421,
    "h": 1.57718,
    "l": 1.57416,
    "c": 1.57709,
    "v": 3894
  },
  {
    "dt": "2020.12.22 16:00",
    "o": 1.57703,
    "h": 1.57841,
    "l": 1.57551,
    "c": 1.57576,
    "v": 4700
  },
  {
    "dt": "2020.12.22 17:00",
    "o": 1.5757,
    "h": 1.57613,
    "l": 1.57241,
    "c": 1.57372,
    "v": 4882
  },
  {
    "dt": "2020.12.22 18:00",
    "o": 1.57362,
    "h": 1.57412,
    "l": 1.57194,
    "c": 1.57231,
    "v": 4912
  },
  {
    "dt": "2020.12.22 19:00",
    "o": 1.57231,
    "h": 1.57322,
    "l": 1.57118,
    "c": 1.57163,
    "v": 3786
  },
  {
    "dt": "2020.12.22 20:00",
    "o": 1.57162,
    "h": 1.57204,
    "l": 1.57001,
    "c": 1.57085,
    "v": 3454
  },
  {
    "dt": "2020.12.22 21:00",
    "o": 1.57086,
    "h": 1.57086,
    "l": 1.56848,
    "c": 1.56886,
    "v": 3202
  },
  {
    "dt": "2020.12.22 22:00",
    "o": 1.56885,
    "h": 1.56974,
    "l": 1.56834,
    "c": 1.56949,
    "v": 2876
  },
  {
    "dt": "2020.12.22 23:00",
    "o": 1.56947,
    "h": 1.57033,
    "l": 1.56932,
    "c": 1.56992,
    "v": 1847
  },
  {
    "dt": "2020.12.23 00:00",
    "o": 1.5696,
    "h": 1.56995,
    "l": 1.56904,
    "c": 1.56976,
    "v": 239
  },
  {
    "dt": "2020.12.23 01:00",
    "o": 1.56964,
    "h": 1.57107,
    "l": 1.56964,
    "c": 1.57105,
    "v": 1435
  },
  {
    "dt": "2020.12.23 02:00",
    "o": 1.57102,
    "h": 1.57107,
    "l": 1.56996,
    "c": 1.56999,
    "v": 2781
  },
  {
    "dt": "2020.12.23 03:00",
    "o": 1.56999,
    "h": 1.571,
    "l": 1.5693,
    "c": 1.57093,
    "v": 3220
  },
  {
    "dt": "2020.12.23 04:00",
    "o": 1.57094,
    "h": 1.57097,
    "l": 1.56917,
    "c": 1.56976,
    "v": 2832
  },
  {
    "dt": "2020.12.23 05:00",
    "o": 1.56977,
    "h": 1.57074,
    "l": 1.56971,
    "c": 1.57074,
    "v": 2743
  },
  {
    "dt": "2020.12.23 06:00",
    "o": 1.57071,
    "h": 1.57104,
    "l": 1.57041,
    "c": 1.57081,
    "v": 2028
  },
  {
    "dt": "2020.12.23 07:00",
    "o": 1.57084,
    "h": 1.57137,
    "l": 1.57055,
    "c": 1.57129,
    "v": 2114
  },
  {
    "dt": "2020.12.23 08:00",
    "o": 1.57127,
    "h": 1.57134,
    "l": 1.5707,
    "c": 1.57094,
    "v": 1942
  },
  {
    "dt": "2020.12.23 09:00",
    "o": 1.57086,
    "h": 1.57186,
    "l": 1.57012,
    "c": 1.57125,
    "v": 3308
  },
  {
    "dt": "2020.12.23 10:00",
    "o": 1.57128,
    "h": 1.57142,
    "l": 1.56915,
    "c": 1.56975,
    "v": 3674
  },
  {
    "dt": "2020.12.23 11:00",
    "o": 1.56976,
    "h": 1.57028,
    "l": 1.5686,
    "c": 1.56982,
    "v": 3318
  },
  {
    "dt": "2020.12.23 12:00",
    "o": 1.5698,
    "h": 1.56995,
    "l": 1.56719,
    "c": 1.56734,
    "v": 3223
  },
  {
    "dt": "2020.12.23 13:00",
    "o": 1.56735,
    "h": 1.57044,
    "l": 1.56735,
    "c": 1.5693,
    "v": 3106
  },
  {
    "dt": "2020.12.23 14:00",
    "o": 1.5693,
    "h": 1.56959,
    "l": 1.56836,
    "c": 1.56879,
    "v": 3214
  },
  {
    "dt": "2020.12.23 15:00",
    "o": 1.56879,
    "h": 1.56936,
    "l": 1.5664,
    "c": 1.5684,
    "v": 3988
  },
  {
    "dt": "2020.12.23 16:00",
    "o": 1.56847,
    "h": 1.57061,
    "l": 1.5675,
    "c": 1.56925,
    "v": 4653
  },
  {
    "dt": "2020.12.23 17:00",
    "o": 1.56923,
    "h": 1.57095,
    "l": 1.56668,
    "c": 1.56685,
    "v": 4844
  },
  {
    "dt": "2020.12.23 18:00",
    "o": 1.56681,
    "h": 1.56745,
    "l": 1.56552,
    "c": 1.5656,
    "v": 3983
  },
  {
    "dt": "2020.12.23 19:00",
    "o": 1.5656,
    "h": 1.56608,
    "l": 1.56452,
    "c": 1.56466,
    "v": 3326
  },
  {
    "dt": "2020.12.23 20:00",
    "o": 1.56459,
    "h": 1.56581,
    "l": 1.56422,
    "c": 1.56577,
    "v": 2706
  },
  {
    "dt": "2020.12.23 21:00",
    "o": 1.56575,
    "h": 1.56678,
    "l": 1.5644,
    "c": 1.56562,
    "v": 2500
  },
  {
    "dt": "2020.12.23 22:00",
    "o": 1.56577,
    "h": 1.56717,
    "l": 1.56532,
    "c": 1.56708,
    "v": 2823
  },
  {
    "dt": "2020.12.23 23:00",
    "o": 1.56715,
    "h": 1.56729,
    "l": 1.56462,
    "c": 1.56504,
    "v": 2004
  },
  {
    "dt": "2020.12.24 00:00",
    "o": 1.56524,
    "h": 1.56615,
    "l": 1.56514,
    "c": 1.56612,
    "v": 279
  },
  {
    "dt": "2020.12.24 01:00",
    "o": 1.5661,
    "h": 1.56627,
    "l": 1.56557,
    "c": 1.56604,
    "v": 846
  },
  {
    "dt": "2020.12.24 02:00",
    "o": 1.56608,
    "h": 1.56757,
    "l": 1.56593,
    "c": 1.56735,
    "v": 1901
  },
  {
    "dt": "2020.12.24 03:00",
    "o": 1.56737,
    "h": 1.56779,
    "l": 1.56693,
    "c": 1.56733,
    "v": 2801
  },
  {
    "dt": "2020.12.24 04:00",
    "o": 1.56733,
    "h": 1.56821,
    "l": 1.56715,
    "c": 1.5681,
    "v": 2165
  },
  {
    "dt": "2020.12.24 05:00",
    "o": 1.5681,
    "h": 1.56845,
    "l": 1.56767,
    "c": 1.56806,
    "v": 2016
  },
  {
    "dt": "2020.12.24 06:00",
    "o": 1.56809,
    "h": 1.56815,
    "l": 1.56762,
    "c": 1.56802,
    "v": 1651
  },
  {
    "dt": "2020.12.24 07:00",
    "o": 1.568,
    "h": 1.5684,
    "l": 1.56783,
    "c": 1.56811,
    "v": 1685
  },
  {
    "dt": "2020.12.24 08:00",
    "o": 1.56813,
    "h": 1.56842,
    "l": 1.5678,
    "c": 1.568,
    "v": 1484
  },
  {
    "dt": "2020.12.24 09:00",
    "o": 1.56798,
    "h": 1.56848,
    "l": 1.56713,
    "c": 1.56802,
    "v": 2285
  },
  {
    "dt": "2020.12.24 10:00",
    "o": 1.56804,
    "h": 1.56814,
    "l": 1.56653,
    "c": 1.56755,
    "v": 3039
  },
  {
    "dt": "2020.12.24 11:00",
    "o": 1.56755,
    "h": 1.56774,
    "l": 1.56487,
    "c": 1.56505,
    "v": 2774
  },
  {
    "dt": "2020.12.24 12:00",
    "o": 1.56506,
    "h": 1.5664,
    "l": 1.56403,
    "c": 1.56609,
    "v": 2546
  },
  {
    "dt": "2020.12.24 13:00",
    "o": 1.5661,
    "h": 1.56675,
    "l": 1.56521,
    "c": 1.56534,
    "v": 2442
  },
  {
    "dt": "2020.12.24 14:00",
    "o": 1.56532,
    "h": 1.56588,
    "l": 1.56502,
    "c": 1.5653,
    "v": 2700
  },
  {
    "dt": "2020.12.24 15:00",
    "o": 1.56527,
    "h": 1.5667,
    "l": 1.56462,
    "c": 1.56467,
    "v": 2526
  },
  {
    "dt": "2020.12.24 16:00",
    "o": 1.56469,
    "h": 1.5656,
    "l": 1.56325,
    "c": 1.56334,
    "v": 3348
  },
  {
    "dt": "2020.12.24 17:00",
    "o": 1.56334,
    "h": 1.56525,
    "l": 1.56296,
    "c": 1.56437,
    "v": 3370
  },
  {
    "dt": "2020.12.24 18:00",
    "o": 1.56434,
    "h": 1.56445,
    "l": 1.56188,
    "c": 1.56256,
    "v": 2376
  },
  {
    "dt": "2020.12.24 19:00",
    "o": 1.56254,
    "h": 1.56375,
    "l": 1.5608,
    "c": 1.56094,
    "v": 1946
  },
  {
    "dt": "2020.12.24 20:00",
    "o": 1.56094,
    "h": 1.56453,
    "l": 1.56094,
    "c": 1.56437,
    "v": 1462
  },
  {
    "dt": "2020.12.24 21:00",
    "o": 1.56437,
    "h": 1.56493,
    "l": 1.56357,
    "c": 1.56436,
    "v": 658
  },
  {
    "dt": "2020.12.24 22:00",
    "o": 1.56435,
    "h": 1.5653,
    "l": 1.56434,
    "c": 1.56497,
    "v": 1193
  },
  {
    "dt": "2020.12.24 23:00",
    "o": 1.56497,
    "h": 1.56918,
    "l": 1.56487,
    "c": 1.56721,
    "v": 364
  },
  {
    "dt": "2020.12.25 02:00",
    "o": 1.5672,
    "h": 1.5672,
    "l": 1.5672,
    "c": 1.5672,
    "v": 1
  },
  {
    "dt": "2020.12.28 00:00",
    "o": 1.56674,
    "h": 1.56674,
    "l": 1.56598,
    "c": 1.56646,
    "v": 23
  },
  {
    "dt": "2020.12.28 01:00",
    "o": 1.56677,
    "h": 1.56724,
    "l": 1.56524,
    "c": 1.56697,
    "v": 1655
  },
  {
    "dt": "2020.12.28 02:00",
    "o": 1.5669,
    "h": 1.56703,
    "l": 1.56561,
    "c": 1.56659,
    "v": 2853
  },
  {
    "dt": "2020.12.28 03:00",
    "o": 1.56657,
    "h": 1.568,
    "l": 1.56644,
    "c": 1.56776,
    "v": 2958
  },
  {
    "dt": "2020.12.28 04:00",
    "o": 1.56773,
    "h": 1.56877,
    "l": 1.56769,
    "c": 1.56833,
    "v": 2355
  },
  {
    "dt": "2020.12.28 05:00",
    "o": 1.56834,
    "h": 1.56955,
    "l": 1.56834,
    "c": 1.56952,
    "v": 1818
  },
  {
    "dt": "2020.12.28 06:00",
    "o": 1.56952,
    "h": 1.56973,
    "l": 1.56806,
    "c": 1.56817,
    "v": 1430
  },
  {
    "dt": "2020.12.28 07:00",
    "o": 1.56815,
    "h": 1.56935,
    "l": 1.56815,
    "c": 1.56933,
    "v": 1728
  },
  {
    "dt": "2020.12.28 08:00",
    "o": 1.56926,
    "h": 1.56997,
    "l": 1.56838,
    "c": 1.56842,
    "v": 2545
  },
  {
    "dt": "2020.12.28 09:00",
    "o": 1.56847,
    "h": 1.56954,
    "l": 1.56749,
    "c": 1.56915,
    "v": 2524
  },
  {
    "dt": "2020.12.28 10:00",
    "o": 1.56914,
    "h": 1.56937,
    "l": 1.56826,
    "c": 1.56904,
    "v": 3282
  },
  {
    "dt": "2020.12.28 11:00",
    "o": 1.56892,
    "h": 1.56969,
    "l": 1.56812,
    "c": 1.56965,
    "v": 2904
  },
  {
    "dt": "2020.12.28 12:00",
    "o": 1.56967,
    "h": 1.57014,
    "l": 1.56647,
    "c": 1.56771,
    "v": 3634
  },
  {
    "dt": "2020.12.28 13:00",
    "o": 1.56768,
    "h": 1.56814,
    "l": 1.56622,
    "c": 1.56624,
    "v": 3350
  },
  {
    "dt": "2020.12.28 14:00",
    "o": 1.56624,
    "h": 1.56747,
    "l": 1.56612,
    "c": 1.56685,
    "v": 3164
  },
  {
    "dt": "2020.12.28 15:00",
    "o": 1.56687,
    "h": 1.56805,
    "l": 1.56662,
    "c": 1.567,
    "v": 3595
  },
  {
    "dt": "2020.12.28 16:00",
    "o": 1.56697,
    "h": 1.56989,
    "l": 1.56633,
    "c": 1.56918,
    "v": 3742
  },
  {
    "dt": "2020.12.28 17:00",
    "o": 1.56918,
    "h": 1.57202,
    "l": 1.56906,
    "c": 1.57156,
    "v": 4011
  },
  {
    "dt": "2020.12.28 18:00",
    "o": 1.57158,
    "h": 1.57302,
    "l": 1.57151,
    "c": 1.57192,
    "v": 3210
  },
  {
    "dt": "2020.12.28 19:00",
    "o": 1.57189,
    "h": 1.57196,
    "l": 1.56987,
    "c": 1.57002,
    "v": 3008
  },
  {
    "dt": "2020.12.28 20:00",
    "o": 1.57001,
    "h": 1.57069,
    "l": 1.56881,
    "c": 1.56918,
    "v": 2476
  },
  {
    "dt": "2020.12.28 21:00",
    "o": 1.56916,
    "h": 1.56955,
    "l": 1.56747,
    "c": 1.56747,
    "v": 2376
  },
  {
    "dt": "2020.12.28 22:00",
    "o": 1.5674,
    "h": 1.56877,
    "l": 1.5674,
    "c": 1.56857,
    "v": 2112
  },
  {
    "dt": "2020.12.28 23:00",
    "o": 1.56858,
    "h": 1.56912,
    "l": 1.56758,
    "c": 1.56899,
    "v": 1238
  },
  {
    "dt": "2020.12.29 00:00",
    "o": 1.56936,
    "h": 1.56968,
    "l": 1.56792,
    "c": 1.56826,
    "v": 475
  },
  {
    "dt": "2020.12.29 01:00",
    "o": 1.56822,
    "h": 1.56947,
    "l": 1.56822,
    "c": 1.56924,
    "v": 1039
  },
  {
    "dt": "2020.12.29 02:00",
    "o": 1.56924,
    "h": 1.5704,
    "l": 1.56923,
    "c": 1.57005,
    "v": 1699
  },
  {
    "dt": "2020.12.29 03:00",
    "o": 1.5701,
    "h": 1.57015,
    "l": 1.56879,
    "c": 1.56915,
    "v": 1992
  },
  {
    "dt": "2020.12.29 04:00",
    "o": 1.56915,
    "h": 1.57016,
    "l": 1.56902,
    "c": 1.56953,
    "v": 1647
  },
  {
    "dt": "2020.12.29 05:00",
    "o": 1.56955,
    "h": 1.57008,
    "l": 1.56908,
    "c": 1.56991,
    "v": 1663
  },
  {
    "dt": "2020.12.29 06:00",
    "o": 1.56992,
    "h": 1.5701,
    "l": 1.56969,
    "c": 1.57009,
    "v": 1133
  },
  {
    "dt": "2020.12.29 07:00",
    "o": 1.56954,
    "h": 1.56954,
    "l": 1.56899,
    "c": 1.569,
    "v": 297
  },
  {
    "dt": "2020.12.29 08:00",
    "o": 1.56898,
    "h": 1.56996,
    "l": 1.56896,
    "c": 1.5697,
    "v": 1481
  },
  {
    "dt": "2020.12.29 09:00",
    "o": 1.5697,
    "h": 1.57021,
    "l": 1.56888,
    "c": 1.569,
    "v": 2529
  },
  {
    "dt": "2020.12.29 10:00",
    "o": 1.56901,
    "h": 1.57053,
    "l": 1.56887,
    "c": 1.56992,
    "v": 3192
  },
  {
    "dt": "2020.12.29 11:00",
    "o": 1.56992,
    "h": 1.57063,
    "l": 1.56872,
    "c": 1.56979,
    "v": 2743
  },
  {
    "dt": "2020.12.29 12:00",
    "o": 1.5697,
    "h": 1.57005,
    "l": 1.56835,
    "c": 1.56925,
    "v": 2770
  },
  {
    "dt": "2020.12.29 13:00",
    "o": 1.56922,
    "h": 1.5699,
    "l": 1.56782,
    "c": 1.56932,
    "v": 2739
  },
  {
    "dt": "2020.12.29 14:00",
    "o": 1.56931,
    "h": 1.5708,
    "l": 1.56884,
    "c": 1.57049,
    "v": 3085
  },
  {
    "dt": "2020.12.29 15:00",
    "o": 1.57052,
    "h": 1.57154,
    "l": 1.56733,
    "c": 1.56814,
    "v": 3361
  },
  {
    "dt": "2020.12.29 16:00",
    "o": 1.56815,
    "h": 1.57064,
    "l": 1.5675,
    "c": 1.57012,
    "v": 3686
  },
  {
    "dt": "2020.12.29 17:00",
    "o": 1.57009,
    "h": 1.5701,
    "l": 1.56698,
    "c": 1.56723,
    "v": 4718
  },
  {
    "dt": "2020.12.29 18:00",
    "o": 1.56735,
    "h": 1.56872,
    "l": 1.56591,
    "c": 1.56738,
    "v": 3865
  },
  {
    "dt": "2020.12.29 19:00",
    "o": 1.56744,
    "h": 1.56881,
    "l": 1.56636,
    "c": 1.56874,
    "v": 3511
  },
  {
    "dt": "2020.12.29 20:00",
    "o": 1.56873,
    "h": 1.56965,
    "l": 1.56804,
    "c": 1.56886,
    "v": 3215
  },
  {
    "dt": "2020.12.29 21:00",
    "o": 1.56885,
    "h": 1.57024,
    "l": 1.56836,
    "c": 1.56953,
    "v": 3306
  },
  {
    "dt": "2020.12.29 22:00",
    "o": 1.56952,
    "h": 1.57012,
    "l": 1.56869,
    "c": 1.5697,
    "v": 2903
  },
  {
    "dt": "2020.12.29 23:00",
    "o": 1.56969,
    "h": 1.5705,
    "l": 1.56899,
    "c": 1.57024,
    "v": 1350
  },
  {
    "dt": "2020.12.30 00:00",
    "o": 1.5699,
    "h": 1.57036,
    "l": 1.56902,
    "c": 1.57015,
    "v": 209
  },
  {
    "dt": "2020.12.30 01:00",
    "o": 1.57077,
    "h": 1.571,
    "l": 1.57006,
    "c": 1.57055,
    "v": 1056
  },
  {
    "dt": "2020.12.30 02:00",
    "o": 1.57053,
    "h": 1.57184,
    "l": 1.57009,
    "c": 1.57136,
    "v": 2162
  },
  {
    "dt": "2020.12.30 03:00",
    "o": 1.57127,
    "h": 1.57366,
    "l": 1.57116,
    "c": 1.57301,
    "v": 3037
  },
  {
    "dt": "2020.12.30 04:00",
    "o": 1.57301,
    "h": 1.5731,
    "l": 1.57165,
    "c": 1.5718,
    "v": 2052
  },
  {
    "dt": "2020.12.30 05:00",
    "o": 1.57181,
    "h": 1.57227,
    "l": 1.57137,
    "c": 1.5715,
    "v": 1271
  },
  {
    "dt": "2020.12.30 06:00",
    "o": 1.5715,
    "h": 1.57158,
    "l": 1.57071,
    "c": 1.5708,
    "v": 1349
  },
  {
    "dt": "2020.12.30 07:00",
    "o": 1.5708,
    "h": 1.5714,
    "l": 1.57058,
    "c": 1.57123,
    "v": 1937
  },
  {
    "dt": "2020.12.30 08:00",
    "o": 1.57122,
    "h": 1.5715,
    "l": 1.57035,
    "c": 1.57063,
    "v": 1918
  },
  {
    "dt": "2020.12.30 09:00",
    "o": 1.57065,
    "h": 1.57098,
    "l": 1.56919,
    "c": 1.56933,
    "v": 2825
  },
  {
    "dt": "2020.12.30 10:00",
    "o": 1.56938,
    "h": 1.56962,
    "l": 1.56769,
    "c": 1.56883,
    "v": 3827
  },
  {
    "dt": "2020.12.30 11:00",
    "o": 1.56882,
    "h": 1.57075,
    "l": 1.56855,
    "c": 1.57011,
    "v": 3027
  },
  {
    "dt": "2020.12.30 12:00",
    "o": 1.57008,
    "h": 1.57066,
    "l": 1.56881,
    "c": 1.56906,
    "v": 2955
  },
  {
    "dt": "2020.12.30 13:00",
    "o": 1.56908,
    "h": 1.56915,
    "l": 1.56663,
    "c": 1.56752,
    "v": 2852
  },
  {
    "dt": "2020.12.30 14:00",
    "o": 1.56754,
    "h": 1.57068,
    "l": 1.56746,
    "c": 1.57065,
    "v": 3106
  },
  {
    "dt": "2020.12.30 15:00",
    "o": 1.57064,
    "h": 1.57207,
    "l": 1.56934,
    "c": 1.57206,
    "v": 3641
  },
  {
    "dt": "2020.12.30 16:00",
    "o": 1.57202,
    "h": 1.57354,
    "l": 1.56961,
    "c": 1.57059,
    "v": 4675
  },
  {
    "dt": "2020.12.30 17:00",
    "o": 1.57047,
    "h": 1.57102,
    "l": 1.56772,
    "c": 1.56898,
    "v": 4817
  },
  {
    "dt": "2020.12.30 18:00",
    "o": 1.56891,
    "h": 1.56924,
    "l": 1.56608,
    "c": 1.56691,
    "v": 4061
  },
  {
    "dt": "2020.12.30 19:00",
    "o": 1.56688,
    "h": 1.56848,
    "l": 1.56688,
    "c": 1.56839,
    "v": 3244
  },
  {
    "dt": "2020.12.30 20:00",
    "o": 1.5684,
    "h": 1.56849,
    "l": 1.56748,
    "c": 1.56836,
    "v": 2361
  },
  {
    "dt": "2020.12.30 21:00",
    "o": 1.56841,
    "h": 1.56867,
    "l": 1.56773,
    "c": 1.56817,
    "v": 2644
  },
  {
    "dt": "2020.12.30 22:00",
    "o": 1.56819,
    "h": 1.56925,
    "l": 1.5681,
    "c": 1.56849,
    "v": 2422
  },
  {
    "dt": "2020.12.30 23:00",
    "o": 1.56846,
    "h": 1.56869,
    "l": 1.56775,
    "c": 1.56799,
    "v": 1418
  },
  {
    "dt": "2020.12.31 00:00",
    "o": 1.56917,
    "h": 1.56917,
    "l": 1.56709,
    "c": 1.56789,
    "v": 277
  },
  {
    "dt": "2020.12.31 01:00",
    "o": 1.56794,
    "h": 1.5687,
    "l": 1.56793,
    "c": 1.56809,
    "v": 692
  },
  {
    "dt": "2020.12.31 02:00",
    "o": 1.56811,
    "h": 1.56867,
    "l": 1.56793,
    "c": 1.56843,
    "v": 1509
  },
  {
    "dt": "2020.12.31 03:00",
    "o": 1.56839,
    "h": 1.56852,
    "l": 1.56749,
    "c": 1.56776,
    "v": 2055
  },
  {
    "dt": "2020.12.31 04:00",
    "o": 1.56776,
    "h": 1.56784,
    "l": 1.56672,
    "c": 1.56677,
    "v": 1965
  },
  {
    "dt": "2020.12.31 05:00",
    "o": 1.56677,
    "h": 1.56713,
    "l": 1.56633,
    "c": 1.56642,
    "v": 1582
  },
  {
    "dt": "2020.12.31 06:00",
    "o": 1.56643,
    "h": 1.56643,
    "l": 1.56568,
    "c": 1.56588,
    "v": 1056
  },
  {
    "dt": "2020.12.31 07:00",
    "o": 1.56588,
    "h": 1.56642,
    "l": 1.56572,
    "c": 1.56585,
    "v": 1243
  },
  {
    "dt": "2020.12.31 08:00",
    "o": 1.56583,
    "h": 1.56608,
    "l": 1.56533,
    "c": 1.56602,
    "v": 1565
  },
  {
    "dt": "2020.12.31 09:00",
    "o": 1.56601,
    "h": 1.56825,
    "l": 1.56596,
    "c": 1.56757,
    "v": 2582
  },
  {
    "dt": "2020.12.31 10:00",
    "o": 1.56759,
    "h": 1.56765,
    "l": 1.56495,
    "c": 1.56706,
    "v": 3554
  },
  {
    "dt": "2020.12.31 11:00",
    "o": 1.56703,
    "h": 1.56762,
    "l": 1.56517,
    "c": 1.56538,
    "v": 3763
  },
  {
    "dt": "2020.12.31 12:00",
    "o": 1.56542,
    "h": 1.56656,
    "l": 1.56379,
    "c": 1.56431,
    "v": 3380
  },
  {
    "dt": "2020.12.31 13:00",
    "o": 1.5643,
    "h": 1.56514,
    "l": 1.56161,
    "c": 1.56271,
    "v": 3052
  },
  {
    "dt": "2020.12.31 14:00",
    "o": 1.56271,
    "h": 1.56485,
    "l": 1.56269,
    "c": 1.56439,
    "v": 3157
  },
  {
    "dt": "2020.12.31 15:00",
    "o": 1.56438,
    "h": 1.56471,
    "l": 1.56283,
    "c": 1.56426,
    "v": 3072
  },
  {
    "dt": "2020.12.31 16:00",
    "o": 1.56433,
    "h": 1.56439,
    "l": 1.55968,
    "c": 1.56102,
    "v": 3505
  },
  {
    "dt": "2020.12.31 17:00",
    "o": 1.56102,
    "h": 1.56132,
    "l": 1.55669,
    "c": 1.55863,
    "v": 4381
  },
  {
    "dt": "2020.12.31 18:00",
    "o": 1.55871,
    "h": 1.55985,
    "l": 1.55694,
    "c": 1.55964,
    "v": 3883
  },
  {
    "dt": "2020.12.31 19:00",
    "o": 1.55962,
    "h": 1.56096,
    "l": 1.55886,
    "c": 1.56072,
    "v": 2859
  },
  {
    "dt": "2020.12.31 20:00",
    "o": 1.5607,
    "h": 1.5607,
    "l": 1.55836,
    "c": 1.55847,
    "v": 2291
  },
  {
    "dt": "2020.12.31 21:00",
    "o": 1.55844,
    "h": 1.55876,
    "l": 1.55452,
    "c": 1.55478,
    "v": 2274
  },
  {
    "dt": "2020.12.31 22:00",
    "o": 1.5548,
    "h": 1.55607,
    "l": 1.55362,
    "c": 1.55399,
    "v": 2282
  },
  {
    "dt": "2020.12.31 23:00",
    "o": 1.55424,
    "h": 1.55578,
    "l": 1.55423,
    "c": 1.55534,
    "v": 1517
  }
]