[
  {
    "dt": "2022.01.03 00:00",
    "o": 1.43686,
    "h": 1.43769,
    "l": 1.4359,
    "c": 1.43678,
    "v": 59
  },
  {
    "dt": "2022.01.03 01:00",
    "o": 1.43682,
    "h": 1.43963,
    "l": 1.43641,
    "c": 1.43959,
    "v": 1329
  },
  {
    "dt": "2022.01.03 02:00",
    "o": 1.43953,
    "h": 1.43954,
    "l": 1.4372,
    "c": 1.43756,
    "v": 1334
  },
  {
    "dt": "2022.01.03 03:00",
    "o": 1.43757,
    "h": 1.4382,
    "l": 1.43664,
    "c": 1.43808,
    "v": 1311
  },
  {
    "dt": "2022.01.03 04:00",
    "o": 1.43807,
    "h": 1.43838,
    "l": 1.43716,
    "c": 1.43733,
    "v": 1586
  },
  {
    "dt": "2022.01.03 05:00",
    "o": 1.43729,
    "h": 1.43916,
    "l": 1.4371,
    "c": 1.43862,
    "v": 1222
  },
  {
    "dt": "2022.01.03 06:00",
    "o": 1.43861,
    "h": 1.43861,
    "l": 1.4374,
    "c": 1.43742,
    "v": 840
  },
  {
    "dt": "2022.01.03 07:00",
    "o": 1.43741,
    "h": 1.43783,
    "l": 1.43731,
    "c": 1.43745,
    "v": 790
  },
  {
    "dt": "2022.01.03 08:00",
    "o": 1.43747,
    "h": 1.43895,
    "l": 1.43719,
    "c": 1.43793,
    "v": 1011
  },
  {
    "dt": "2022.01.03 09:00",
    "o": 1.43795,
    "h": 1.43902,
    "l": 1.43727,
    "c": 1.43824,
    "v": 1930
  },
  {
    "dt": "2022.01.03 10:00",
    "o": 1.43816,
    "h": 1.4382,
    "l": 1.43594,
    "c": 1.43772,
    "v": 2677
  },
  {
    "dt": "2022.01.03 11:00",
    "o": 1.43771,
    "h": 1.43999,
    "l": 1.43673,
    "c": 1.43925,
    "v": 2560
  },
  {
    "dt": "2022.01.03 12:00",
    "o": 1.43921,
    "h": 1.44014,
    "l": 1.43883,
    "c": 1.4398,
    "v": 2183
  },
  {
    "dt": "2022.01.03 13:00",
    "o": 1.43978,
    "h": 1.44113,
    "l": 1.43924,
    "c": 1.44008,
    "v": 2290
  },
  {
    "dt": "2022.01.03 14:00",
    "o": 1.44008,
    "h": 1.44042,
    "l": 1.43891,
    "c": 1.44031,
    "v": 2344
  },
  {
    "dt": "2022.01.03 15:00",
    "o": 1.44024,
    "h": 1.44369,
    "l": 1.43989,
    "c": 1.44324,
    "v": 3659
  },
  {
    "dt": "2022.01.03 16:00",
    "o": 1.44325,
    "h": 1.44386,
    "l": 1.44015,
    "c": 1.4402,
    "v": 4529
  },
  {
    "dt": "2022.01.03 17:00",
    "o": 1.44016,
    "h": 1.44351,
    "l": 1.43976,
    "c": 1.44211,
    "v": 4744
  },
  {
    "dt": "2022.01.03 18:00",
    "o": 1.44212,
    "h": 1.44231,
    "l": 1.43903,
    "c": 1.43987,
    "v": 3774
  },
  {
    "dt": "2022.01.03 19:00",
    "o": 1.43988,
    "h": 1.44025,
    "l": 1.43865,
    "c": 1.43911,
    "v": 2553
  },
  {
    "dt": "2022.01.03 20:00",
    "o": 1.43911,
    "h": 1.43996,
    "l": 1.43891,
    "c": 1.43928,
    "v": 2144
  },
  {
    "dt": "2022.01.03 21:00",
    "o": 1.43927,
    "h": 1.44091,
    "l": 1.43926,
    "c": 1.43992,
    "v": 2503
  },
  {
    "dt": "2022.01.03 22:00",
    "o": 1.43991,
    "h": 1.44127,
    "l": 1.43969,
    "c": 1.44041,
    "v": 2838
  },
  {
    "dt": "2022.01.03 23:00",
    "o": 1.44038,
    "h": 1.44058,
    "l": 1.43917,
    "c": 1.43917,
    "v": 1432
  },
  {
    "dt": "2022.01.04 00:00",
    "o": 1.4393,
    "h": 1.44019,
    "l": 1.4391,
    "c": 1.43976,
    "v": 611
  },
  {
    "dt": "2022.01.04 01:00",
    "o": 1.43972,
    "h": 1.44104,
    "l": 1.43946,
    "c": 1.44104,
    "v": 1003
  },
  {
    "dt": "2022.01.04 02:00",
    "o": 1.44105,
    "h": 1.44183,
    "l": 1.44054,
    "c": 1.44089,
    "v": 1425
  },
  {
    "dt": "2022.01.04 03:00",
    "o": 1.44092,
    "h": 1.44188,
    "l": 1.44013,
    "c": 1.44176,
    "v": 1596
  },
  {
    "dt": "2022.01.04 04:00",
    "o": 1.44177,
    "h": 1.44192,
    "l": 1.44036,
    "c": 1.44067,
    "v": 1321
  },
  {
    "dt": "2022.01.04 05:00",
    "o": 1.44068,
    "h": 1.44109,
    "l": 1.43968,
    "c": 1.43968,
    "v": 1458
  },
  {
    "dt": "2022.01.04 06:00",
    "o": 1.43968,
    "h": 1.43973,
    "l": 1.43846,
    "c": 1.43854,
    "v": 1042
  },
  {
    "dt": "2022.01.04 07:00",
    "o": 1.43859,
    "h": 1.4391,
    "l": 1.43795,
    "c": 1.43825,
    "v": 979
  },
  {
    "dt": "2022.01.04 08:00",
    "o": 1.43824,
    "h": 1.43866,
    "l": 1.43777,
    "c": 1.4378,
    "v": 1206
  },
  {
    "dt": "2022.01.04 09:00",
    "o": 1.43775,
    "h": 1.43796,
    "l": 1.43625,
    "c": 1.43714,
    "v": 2884
  },
  {
    "dt": "2022.01.04 10:00",
    "o": 1.43716,
    "h": 1.43975,
    "l": 1.43683,
    "c": 1.43879,
    "v": 3447
  },
  {
    "dt": "2022.01.04 11:00",
    "o": 1.4388,
    "h": 1.44048,
    "l": 1.43819,
    "c": 1.4404,
    "v": 3096
  },
  {
    "dt": "2022.01.04 12:00",
    "o": 1.4404,
    "h": 1.44057,
    "l": 1.43916,
    "c": 1.43973,
    "v": 2880
  },
  {
    "dt": "2022.01.04 13:00",
    "o": 1.43972,
    "h": 1.43978,
    "l": 1.4376,
    "c": 1.43774,
    "v": 3257
  },
  {
    "dt": "2022.01.04 14:00",
    "o": 1.43773,
    "h": 1.43981,
    "l": 1.4375,
    "c": 1.43847,
    "v": 3466
  },
  {
    "dt": "2022.01.04 15:00",
    "o": 1.43843,
    "h": 1.43875,
    "l": 1.43552,
    "c": 1.43565,
    "v": 3555
  },
  {
    "dt": "2022.01.04 16:00",
    "o": 1.43567,
    "h": 1.4364,
    "l": 1.43365,
    "c": 1.4344,
    "v": 4192
  },
  {
    "dt": "2022.01.04 17:00",
    "o": 1.43439,
    "h": 1.43541,
    "l": 1.4327,
    "c": 1.43339,
    "v": 4957
  },
  {
    "dt": "2022.01.04 18:00",
    "o": 1.4334,
    "h": 1.43609,
    "l": 1.43326,
    "c": 1.43419,
    "v": 4551
  },
  {
    "dt": "2022.01.04 19:00",
    "o": 1.43418,
    "h": 1.43457,
    "l": 1.43299,
    "c": 1.43337,
    "v": 2768
  },
  {
    "dt": "2022.01.04 20:00",
    "o": 1.43337,
    "h": 1.43462,
    "l": 1.43296,
    "c": 1.43454,
    "v": 2332
  },
  {
    "dt": "2022.01.04 21:00",
    "o": 1.43454,
    "h": 1.43498,
    "l": 1.43393,
    "c": 1.43405,
    "v": 2293
  },
  {
    "dt": "2022.01.04 22:00",
    "o": 1.43396,
    "h": 1.43444,
    "l": 1.43332,
    "c": 1.43431,
    "v": 2500
  },
  {
    "dt": "2022.01.04 23:00",
    "o": 1.43432,
    "h": 1.43433,
    "l": 1.43309,
    "c": 1.43385,
    "v": 1738
  },
  {
    "dt": "2022.01.05 00:00",
    "o": 1.43383,
    "h": 1.43393,
    "l": 1.43245,
    "c": 1.43271,
    "v": 224
  },
  {
    "dt": "2022.01.05 01:00",
    "o": 1.43263,
    "h": 1.43365,
    "l": 1.43263,
    "c": 1.43332,
    "v": 957
  },
  {
    "dt": "2022.01.05 02:00",
    "o": 1.43332,
    "h": 1.43356,
    "l": 1.43223,
    "c": 1.4325,
    "v": 1082
  },
  {
    "dt": "2022.01.05 03:00",
    "o": 1.43251,
    "h": 1.4346,
    "l": 1.43251,
    "c": 1.4343,
    "v": 1389
  },
  {
    "dt": "2022.01.05 04:00",
    "o": 1.43429,
    "h": 1.43573,
    "l": 1.43403,
    "c": 1.43544,
    "v": 1141
  },
  {
    "dt": "2022.01.05 05:00",
    "o": 1.43543,
    "h": 1.43637,
    "l": 1.43527,
    "c": 1.4359,
    "v": 890
  },
  {
    "dt": "2022.01.05 06:00",
    "o": 1.4359,
    "h": 1.43591,
    "l": 1.43515,
    "c": 1.43526,
    "v": 1095
  },
  {
    "dt": "2022.01.05 07:00",
    "o": 1.43527,
    "h": 1.43697,
    "l": 1.43509,
    "c": 1.43691,
    "v": 759
  },
  {
    "dt": "2022.01.05 08:00",
    "o": 1.43689,
    "h": 1.43692,
    "l": 1.43572,
    "c": 1.43582,
    "v": 934
  },
  {
    "dt": "2022.01.05 09:00",
    "o": 1.43582,
    "h": 1.43657,
    "l": 1.43531,
    "c": 1.43637,
    "v": 2416
  },
  {
    "dt": "2022.01.05 10:00",
    "o": 1.43637,
    "h": 1.43819,
    "l": 1.43582,
    "c": 1.43699,
    "v": 3650
  },
  {
    "dt": "2022.01.05 11:00",
    "o": 1.437,
    "h": 1.43753,
    "l": 1.43645,
    "c": 1.43725,
    "v": 3076
  },
  {
    "dt": "2022.01.05 12:00",
    "o": 1.43724,
    "h": 1.43849,
    "l": 1.43698,
    "c": 1.43815,
    "v": 2957
  },
  {
    "dt": "2022.01.05 13:00",
    "o": 1.43814,
    "h": 1.44116,
    "l": 1.43777,
    "c": 1.43982,
    "v": 2830
  },
  {
    "dt": "2022.01.05 14:00",
    "o": 1.43975,
    "h": 1.44089,
    "l": 1.43911,
    "c": 1.43929,
    "v": 3296
  },
  {
    "dt": "2022.01.05 15:00",
    "o": 1.43929,
    "h": 1.44036,
    "l": 1.43758,
    "c": 1.43884,
    "v": 4425
  },
  {
    "dt": "2022.01.05 16:00",
    "o": 1.43886,
    "h": 1.44133,
    "l": 1.43869,
    "c": 1.43978,
    "v": 4268
  },
  {
    "dt": "2022.01.05 17:00",
    "o": 1.43978,
    "h": 1.44167,
    "l": 1.4385,
    "c": 1.43976,
    "v": 4551
  },
  {
    "dt": "2022.01.05 18:00",
    "o": 1.43973,
    "h": 1.4405,
    "l": 1.43838,
    "c": 1.43927,
    "v": 3840
  },
  {
    "dt": "2022.01.05 19:00",
    "o": 1.4393,
    "h": 1.44193,
    "l": 1.43899,
    "c": 1.44112,
    "v": 3101
  },
  {
    "dt": "2022.01.05 20:00",
    "o": 1.44113,
    "h": 1.44125,
    "l": 1.43973,
    "c": 1.43992,
    "v": 2502
  },
  {
    "dt": "2022.01.05 21:00",
    "o": 1.44,
    "h": 1.44324,
    "l": 1.43946,
    "c": 1.44247,
    "v": 5508
  },
  {
    "dt": "2022.01.05 22:00",
    "o": 1.44247,
    "h": 1.44384,
    "l": 1.44223,
    "c": 1.44379,
    "v": 4496
  },
  {
    "dt": "2022.01.05 23:00",
    "o": 1.44378,
    "h": 1.4438,
    "l": 1.44233,
    "c": 1.44257,
    "v": 2004
  },
  {
    "dt": "2022.01.06 00:00",
    "o": 1.4427,
    "h": 1.44283,
    "l": 1.44204,
    "c": 1.44245,
    "v": 401
  },
  {
    "dt": "2022.01.06 01:00",
    "o": 1.44245,
    "h": 1.44342,
    "l": 1.44245,
    "c": 1.4431,
    "v": 1264
  },
  {
    "dt": "2022.01.06 02:00",
    "o": 1.44316,
    "h": 1.44375,
    "l": 1.44273,
    "c": 1.44321,
    "v": 1520
  },
  {
    "dt": "2022.01.06 03:00",
    "o": 1.44322,
    "h": 1.44471,
    "l": 1.44311,
    "c": 1.44448,
    "v": 1885
  },
  {
    "dt": "2022.01.06 04:00",
    "o": 1.44447,
    "h": 1.44548,
    "l": 1.44437,
    "c": 1.44498,
    "v": 2055
  },
  {
    "dt": "2022.01.06 05:00",
    "o": 1.44499,
    "h": 1.44637,
    "l": 1.44468,
    "c": 1.44624,
    "v": 1729
  },
  {
    "dt": "2022.01.06 06:00",
    "o": 1.44624,
    "h": 1.44717,
    "l": 1.44567,
    "c": 1.44699,
    "v": 1561
  },
  {
    "dt": "2022.01.06 07:00",
    "o": 1.44698,
    "h": 1.44721,
    "l": 1.44601,
    "c": 1.44614,
    "v": 1477
  },
  {
    "dt": "2022.01.06 08:00",
    "o": 1.44612,
    "h": 1.44646,
    "l": 1.44553,
    "c": 1.446,
    "v": 1825
  },
  {
    "dt": "2022.01.06 09:00",
    "o": 1.44601,
    "h": 1.44602,
    "l": 1.4438,
    "c": 1.44545,
    "v": 3676
  },
  {
    "dt": "2022.01.06 10:00",
    "o": 1.44545,
    "h": 1.448,
    "l": 1.44438,
    "c": 1.44594,
    "v": 4503
  },
  {
    "dt": "2022.01.06 11:00",
    "o": 1.44592,
    "h": 1.44697,
    "l": 1.44446,
    "c": 1.44528,
    "v": 3629
  },
  {
    "dt": "2022.01.06 12:00",
    "o": 1.44525,
    "h": 1.44575,
    "l": 1.44268,
    "c": 1.44397,
    "v": 4016
  },
  {
    "dt": "2022.01.06 13:00",
    "o": 1.44395,
    "h": 1.44599,
    "l": 1.4435,
    "c": 1.44541,
    "v": 3440
  },
  {
    "dt": "2022.01.06 14:00",
    "o": 1.44545,
    "h": 1.44577,
    "l": 1.44368,
    "c": 1.444,
    "v": 3742
  },
  {
    "dt": "2022.01.06 15:00",
    "o": 1.44406,
    "h": 1.44573,
    "l": 1.44208,
    "c": 1.44374,
    "v": 4440
  },
  {
    "dt": "2022.01.06 16:00",
    "o": 1.44376,
    "h": 1.44489,
    "l": 1.44104,
    "c": 1.44462,
    "v": 5127
  },
  {
    "dt": "2022.01.06 17:00",
    "o": 1.44467,
    "h": 1.44626,
    "l": 1.43981,
    "c": 1.44041,
    "v": 5790
  },
  {
    "dt": "2022.01.06 18:00",
    "o": 1.44037,
    "h": 1.44102,
    "l": 1.43824,
    "c": 1.4389,
    "v": 4932
  },
  {
    "dt": "2022.01.06 19:00",
    "o": 1.43889,
    "h": 1.43899,
    "l": 1.43574,
    "c": 1.43653,
    "v": 3821
  },
  {
    "dt": "2022.01.06 20:00",
    "o": 1.43654,
    "h": 1.43729,
    "l": 1.43597,
    "c": 1.43675,
    "v": 3122
  },
  {
    "dt": "2022.01.06 21:00",
    "o": 1.43676,
    "h": 1.43781,
    "l": 1.43664,
    "c": 1.43667,
    "v": 3629
  },
  {
    "dt": "2022.01.06 22:00",
    "o": 1.43666,
    "h": 1.43822,
    "l": 1.43646,
    "c": 1.4369,
    "v": 3521
  },
  {
    "dt": "2022.01.06 23:00",
    "o": 1.43692,
    "h": 1.4379,
    "l": 1.43644,
    "c": 1.43724,
    "v": 1943
  },
  {
    "dt": "2022.01.07 00:00",
    "o": 1.43765,
    "h": 1.43765,
    "l": 1.43682,
    "c": 1.43729,
    "v": 156
  },
  {
    "dt": "2022.01.07 01:00",
    "o": 1.43728,
    "h": 1.43794,
    "l": 1.4368,
    "c": 1.43775,
    "v": 958
  },
  {
    "dt": "2022.01.07 02:00",
    "o": 1.43774,
    "h": 1.43777,
    "l": 1.43554,
    "c": 1.43577,
    "v": 1659
  },
  {
    "dt": "2022.01.07 03:00",
    "o": 1.43579,
    "h": 1.43621,
    "l": 1.43533,
    "c": 1.43599,
    "v": 1719
  },
  {
    "dt": "2022.01.07 04:00",
    "o": 1.436,
    "h": 1.43719,
    "l": 1.43599,
    "c": 1.43623,
    "v": 1332
  },
  {
    "dt": "2022.01.07 05:00",
    "o": 1.43626,
    "h": 1.4367,
    "l": 1.436,
    "c": 1.43631,
    "v": 997
  },
  {
    "dt": "2022.01.07 06:00",
    "o": 1.43631,
    "h": 1.43678,
    "l": 1.43613,
    "c": 1.43622,
    "v": 892
  },
  {
    "dt": "2022.01.07 07:00",
    "o": 1.43621,
    "h": 1.43685,
    "l": 1.43606,
    "c": 1.4364,
    "v": 1053
  },
  {
    "dt": "2022.01.07 08:00",
    "o": 1.43642,
    "h": 1.43686,
    "l": 1.4361,
    "c": 1.43616,
    "v": 1209
  },
  {
    "dt": "2022.01.07 09:00",
    "o": 1.43611,
    "h": 1.43897,
    "l": 1.43598,
    "c": 1.43839,
    "v": 2865
  },
  {
    "dt": "2022.01.07 10:00",
    "o": 1.43838,
    "h": 1.43987,
    "l": 1.43817,
    "c": 1.43899,
    "v": 4029
  },
  {
    "dt": "2022.01.07 11:00",
    "o": 1.43903,
    "h": 1.43974,
    "l": 1.43812,
    "c": 1.43844,
    "v": 3419
  },
  {
    "dt": "2022.01.07 12:00",
    "o": 1.43837,
    "h": 1.43889,
    "l": 1.43634,
    "c": 1.4372,
    "v": 2737
  },
  {
    "dt": "2022.01.07 13:00",
    "o": 1.43724,
    "h": 1.43801,
    "l": 1.43681,
    "c": 1.43762,
    "v": 2701
  },
  {
    "dt": "2022.01.07 14:00",
    "o": 1.43762,
    "h": 1.438,
    "l": 1.43677,
    "c": 1.43721,
    "v": 3047
  },
  {
    "dt": "2022.01.07 15:00",
    "o": 1.43718,
    "h": 1.43788,
    "l": 1.43322,
    "c": 1.43775,
    "v": 5158
  },
  {
    "dt": "2022.01.07 16:00",
    "o": 1.43782,
    "h": 1.44013,
    "l": 1.43667,
    "c": 1.43735,
    "v": 5641
  },
  {
    "dt": "2022.01.07 17:00",
    "o": 1.43734,
    "h": 1.4389,
    "l": 1.43648,
    "c": 1.43809,
    "v": 5494
  },
  {
    "dt": "2022.01.07 18:00",
    "o": 1.4381,
    "h": 1.43839,
    "l": 1.4348,
    "c": 1.43564,
    "v": 4578
  },
  {
    "dt": "2022.01.07 19:00",
    "o": 1.43558,
    "h": 1.43716,
    "l": 1.43557,
    "c": 1.43622,
    "v": 3177
  },
  {
    "dt": "2022.01.07 20:00",
    "o": 1.43625,
    "h": 1.43664,
    "l": 1.43534,
    "c": 1.43542,
    "v": 2573
  },
  {
    "dt": "2022.01.07 21:00",
    "o": 1.43539,
    "h": 1.4362,
    "l": 1.43517,
    "c": 1.43553,
    "v": 2418
  },
  {
    "dt": "2022.01.07 22:00",
    "o": 1.43552,
    "h": 1.43616,
    "l": 1.43481,
    "c": 1.4361,
    "v": 2389
  },
  {
    "dt": "2022.01.07 23:00",
    "o": 1.43607,
    "h": 1.43684,
    "l": 1.4351,
    "c": 1.43637,
    "v": 2133
  },
  {
    "dt": "2022.01.10 00:00",
    "o": 1.43597,
    "h": 1.43617,
    "l": 1.43506,
    "c": 1.43587,
    "v": 515
  },
  {
    "dt": "2022.01.10 01:00",
    "o": 1.43562,
    "h": 1.43737,
    "l": 1.43476,
    "c": 1.43582,
    "v": 2024
  },
  {
    "dt": "2022.01.10 02:00",
    "o": 1.43583,
    "h": 1.43617,
    "l": 1.43499,
    "c": 1.43518,
    "v": 1653
  },
  {
    "dt": "2022.01.10 03:00",
    "o": 1.43518,
    "h": 1.43614,
    "l": 1.43426,
    "c": 1.43434,
    "v": 1677
  },
  {
    "dt": "2022.01.10 04:00",
    "o": 1.43435,
    "h": 1.43449,
    "l": 1.43342,
    "c": 1.43363,
    "v": 1631
  },
  {
    "dt": "2022.01.10 05:00",
    "o": 1.43361,
    "h": 1.43378,
    "l": 1.43326,
    "c": 1.43339,
    "v": 1138
  },
  {
    "dt": "2022.01.10 06:00",
    "o": 1.43339,
    "h": 1.43345,
    "l": 1.43258,
    "c": 1.43285,
    "v": 1051
  },
  {
    "dt": "2022.01.10 07:00",
    "o": 1.43287,
    "h": 1.43346,
    "l": 1.43269,
    "c": 1.4329,
    "v": 1100
  },
  {
    "dt": "2022.01.10 08:00",
    "o": 1.43291,
    "h": 1.43355,
    "l": 1.43273,
    "c": 1.43304,
    "v": 1665
  },
  {
    "dt": "2022.01.10 09:00",
    "o": 1.43303,
    "h": 1.43328,
    "l": 1.43101,
    "c": 1.43111,
    "v": 3142
  },
  {
    "dt": "2022.01.10 10:00",
    "o": 1.43113,
    "h": 1.43235,
    "l": 1.43063,
    "c": 1.43178,
    "v": 4781
  },
  {
    "dt": "2022.01.10 11:00",
    "o": 1.43179,
    "h": 1.43203,
    "l": 1.42913,
    "c": 1.42971,
    "v": 3762
  },
  {
    "dt": "2022.01.10 12:00",
    "o": 1.42971,
    "h": 1.42987,
    "l": 1.4283,
    "c": 1.42983,
    "v": 3584
  },
  {
    "dt": "2022.01.10 13:00",
    "o": 1.42983,
    "h": 1.4314,
    "l": 1.42929,
    "c": 1.4303,
    "v": 3542
  },
  {
    "dt": "2022.01.10 14:00",
    "o": 1.4303,
    "h": 1.43293,
    "l": 1.43006,
    "c": 1.43263,
    "v": 3936
  },
  {
    "dt": "2022.01.10 15:00",
    "o": 1.43259,
    "h": 1.43361,
    "l": 1.43015,
    "c": 1.43051,
    "v": 4565
  },
  {
    "dt": "2022.01.10 16:00",
    "o": 1.43051,
    "h": 1.43268,
    "l": 1.42981,
    "c": 1.43246,
    "v": 5236
  },
  {
    "dt": "2022.01.10 17:00",
    "o": 1.43248,
    "h": 1.43678,
    "l": 1.43209,
    "c": 1.43477,
    "v": 5547
  },
  {
    "dt": "2022.01.10 18:00",
    "o": 1.43479,
    "h": 1.43654,
    "l": 1.43462,
    "c": 1.436,
    "v": 4941
  },
  {
    "dt": "2022.01.10 19:00",
    "o": 1.43601,
    "h": 1.4385,
    "l": 1.43576,
    "c": 1.43789,
    "v": 3853
  },
  {
    "dt": "2022.01.10 20:00",
    "o": 1.43791,
    "h": 1.43854,
    "l": 1.43551,
    "c": 1.43561,
    "v": 3860
  },
  {
    "dt": "2022.01.10 21:00",
    "o": 1.43563,
    "h": 1.43651,
    "l": 1.4349,
    "c": 1.43554,
    "v": 3585
  },
  {
    "dt": "2022.01.10 22:00",
    "o": 1.4355,
    "h": 1.43676,
    "l": 1.43517,
    "c": 1.43535,
    "v": 3840
  },
  {
    "dt": "2022.01.10 23:00",
    "o": 1.43529,
    "h": 1.43664,
    "l": 1.43529,
    "c": 1.43545,
    "v": 1959
  },
  {
    "dt": "2022.01.11 00:00",
    "o": 1.43532,
    "h": 1.43589,
    "l": 1.43433,
    "c": 1.43567,
    "v": 191
  },
  {
    "dt": "2022.01.11 01:00",
    "o": 1.43579,
    "h": 1.43603,
    "l": 1.4349,
    "c": 1.43494,
    "v": 951
  },
  {
    "dt": "2022.01.11 02:00",
    "o": 1.43489,
    "h": 1.4358,
    "l": 1.4346,
    "c": 1.43476,
    "v": 1620
  },
  {
    "dt": "2022.01.11 03:00",
    "o": 1.43477,
    "h": 1.43604,
    "l": 1.43457,
    "c": 1.43581,
    "v": 2654
  },
  {
    "dt": "2022.01.11 04:00",
    "o": 1.43579,
    "h": 1.436,
    "l": 1.43449,
    "c": 1.43474,
    "v": 1878
  },
  {
    "dt": "2022.01.11 05:00",
    "o": 1.43472,
    "h": 1.43481,
    "l": 1.43402,
    "c": 1.43455,
    "v": 1520
  },
  {
    "dt": "2022.01.11 06:00",
    "o": 1.43457,
    "h": 1.43502,
    "l": 1.43438,
    "c": 1.43487,
    "v": 1250
  },
  {
    "dt": "2022.01.11 07:00",
    "o": 1.43488,
    "h": 1.43505,
    "l": 1.43406,
    "c": 1.43412,
    "v": 1532
  },
  {
    "dt": "2022.01.11 08:00",
    "o": 1.43411,
    "h": 1.4356,
    "l": 1.43411,
    "c": 1.43521,
    "v": 1948
  },
  {
    "dt": "2022.01.11 09:00",
    "o": 1.43527,
    "h": 1.43532,
    "l": 1.43335,
    "c": 1.43411,
    "v": 3653
  },
  {
    "dt": "2022.01.11 10:00",
    "o": 1.43408,
    "h": 1.4356,
    "l": 1.43365,
    "c": 1.43507,
    "v": 4602
  },
  {
    "dt": "2022.01.11 11:00",
    "o": 1.43509,
    "h": 1.43523,
    "l": 1.43173,
    "c": 1.43244,
    "v": 4138
  },
  {
    "dt": "2022.01.11 12:00",
    "o": 1.43245,
    "h": 1.43312,
    "l": 1.4318,
    "c": 1.43211,
    "v": 3544
  },
  {
    "dt": "2022.01.11 13:00",
    "o": 1.43212,
    "h": 1.43358,
    "l": 1.43177,
    "c": 1.43301,
    "v": 3387
  },
  {
    "dt": "2022.01.11 14:00",
    "o": 1.43299,
    "h": 1.43336,
    "l": 1.43207,
    "c": 1.43225,
    "v": 3669
  },
  {
    "dt": "2022.01.11 15:00",
    "o": 1.43226,
    "h": 1.43381,
    "l": 1.43145,
    "c": 1.43253,
    "v": 4147
  },
  {
    "dt": "2022.01.11 16:00",
    "o": 1.4325,
    "h": 1.43381,
    "l": 1.4318,
    "c": 1.43181,
    "v": 5072
  },
  {
    "dt": "2022.01.11 17:00",
    "o": 1.43178,
    "h": 1.43263,
    "l": 1.43008,
    "c": 1.43199,
    "v": 5585
  },
  {
    "dt": "2022.01.11 18:00",
    "o": 1.43191,
    "h": 1.43288,
    "l": 1.43126,
    "c": 1.43126,
    "v": 4984
  },
  {
    "dt": "2022.01.11 19:00",
    "o": 1.43124,
    "h": 1.43177,
    "l": 1.42889,
    "c": 1.42911,
    "v": 3619
  },
  {
    "dt": "2022.01.11 20:00",
    "o": 1.4291,
    "h": 1.42965,
    "l": 1.4284,
    "c": 1.42866,
    "v": 3243
  },
  {
    "dt": "2022.01.11 21:00",
    "o": 1.42866,
    "h": 1.4304,
    "l": 1.42866,
    "c": 1.43021,
    "v": 3199
  },
  {
    "dt": "2022.01.11 22:00",
    "o": 1.43007,
    "h": 1.43032,
    "l": 1.4291,
    "c": 1.42929,
    "v": 2923
  },
  {
    "dt": "2022.01.11 23:00",
    "o": 1.42927,
    "h": 1.42992,
    "l": 1.42878,
    "c": 1.42907,
    "v": 1973
  },
  {
    "dt": "2022.01.12 00:00",
    "o": 1.42906,
    "h": 1.42927,
    "l": 1.42867,
    "c": 1.4291,
    "v": 297
  },
  {
    "dt": "2022.01.12 01:00",
    "o": 1.42907,
    "h": 1.42951,
    "l": 1.42882,
    "c": 1.42942,
    "v": 1052
  },
  {
    "dt": "2022.01.12 02:00",
    "o": 1.42941,
    "h": 1.43006,
    "l": 1.4288,
    "c": 1.4288,
    "v": 1292
  },
  {
    "dt": "2022.01.12 03:00",
    "o": 1.42881,
    "h": 1.42895,
    "l": 1.42775,
    "c": 1.42876,
    "v": 1870
  },
  {
    "dt": "2022.01.12 04:00",
    "o": 1.42872,
    "h": 1.42882,
    "l": 1.42727,
    "c": 1.42753,
    "v": 1556
  },
  {
    "dt": "2022.01.12 05:00",
    "o": 1.42753,
    "h": 1.42812,
    "l": 1.42749,
    "c": 1.42775,
    "v": 1063
  },
  {
    "dt": "2022.01.12 06:00",
    "o": 1.42775,
    "h": 1.42784,
    "l": 1.42745,
    "c": 1.42757,
    "v": 871
  },
  {
    "dt": "2022.01.12 07:00",
    "o": 1.42758,
    "h": 1.42795,
    "l": 1.42686,
    "c": 1.42763,
    "v": 1129
  },
  {
    "dt": "2022.01.12 08:00",
    "o": 1.42762,
    "h": 1.42794,
    "l": 1.4271,
    "c": 1.42736,
    "v": 1428
  },
  {
    "dt": "2022.01.12 09:00",
    "o": 1.42732,
    "h": 1.42845,
    "l": 1.42711,
    "c": 1.42813,
    "v": 3030
  },
  {
    "dt": "2022.01.12 10:00",
    "o": 1.42809,
    "h": 1.42842,
    "l": 1.42657,
    "c": 1.42753,
    "v": 3892
  },
  {
    "dt": "2022.01.12 11:00",
    "o": 1.42754,
    "h": 1.42778,
    "l": 1.42566,
    "c": 1.42624,
    "v": 3335
  },
  {
    "dt": "2022.01.12 12:00",
    "o": 1.42624,
    "h": 1.42629,
    "l": 1.42364,
    "c": 1.42374,
    "v": 3265
  },
  {
    "dt": "2022.01.12 13:00",
    "o": 1.42372,
    "h": 1.42536,
    "l": 1.42334,
    "c": 1.42535,
    "v": 3056
  },
  {
    "dt": "2022.01.12 14:00",
    "o": 1.42536,
    "h": 1.4269,
    "l": 1.4251,
    "c": 1.42558,
    "v": 3591
  },
  {
    "dt": "2022.01.12 15:00",
    "o": 1.42557,
    "h": 1.42878,
    "l": 1.42442,
    "c": 1.42817,
    "v": 5226
  },
  {
    "dt": "2022.01.12 16:00",
    "o": 1.42816,
    "h": 1.42944,
    "l": 1.42739,
    "c": 1.42933,
    "v": 5421
  },
  {
    "dt": "2022.01.12 17:00",
    "o": 1.42935,
    "h": 1.43019,
    "l": 1.42801,
    "c": 1.42845,
    "v": 5551
  },
  {
    "dt": "2022.01.12 18:00",
    "o": 1.42849,
    "h": 1.42969,
    "l": 1.42811,
    "c": 1.42873,
    "v": 4916
  },
  {
    "dt": "2022.01.12 19:00",
    "o": 1.42875,
    "h": 1.4308,
    "l": 1.42855,
    "c": 1.43018,
    "v": 3769
  },
  {
    "dt": "2022.01.12 20:00",
    "o": 1.43018,
    "h": 1.43092,
    "l": 1.42994,
    "c": 1.43034,
    "v": 3440
  },
  {
    "dt": "2022.01.12 21:00",
    "o": 1.43034,
    "h": 1.43194,
    "l": 1.43026,
    "c": 1.43125,
    "v": 3450
  },
  {
    "dt": "2022.01.12 22:00",
    "o": 1.43122,
    "h": 1.43189,
    "l": 1.4309,
    "c": 1.4315,
    "v": 3860
  },
  {
    "dt": "2022.01.12 23:00",
    "o": 1.43152,
    "h": 1.43173,
    "l": 1.43026,
    "c": 1.43061,
    "v": 2494
  },
  {
    "dt": "2022.01.13 00:00",
    "o": 1.43065,
    "h": 1.43066,
    "l": 1.43,
    "c": 1.43026,
    "v": 393
  },
  {
    "dt": "2022.01.13 01:00",
    "o": 1.43023,
    "h": 1.43094,
    "l": 1.43013,
    "c": 1.43013,
    "v": 1687
  },
  {
    "dt": "2022.01.13 02:00",
    "o": 1.43013,
    "h": 1.43129,
    "l": 1.43013,
    "c": 1.43074,
    "v": 1846
  },
  {
    "dt": "2022.01.13 03:00",
    "o": 1.43071,
    "h": 1.43113,
    "l": 1.43033,
    "c": 1.43064,
    "v": 2168
  },
  {
    "dt": "2022.01.13 04:00",
    "o": 1.43064,
    "h": 1.43105,
    "l": 1.42975,
    "c": 1.42984,
    "v": 1732
  },
  {
    "dt": "2022.01.13 05:00",
    "o": 1.42984,
    "h": 1.43067,
    "l": 1.42965,
    "c": 1.43,
    "v": 1517
  },
  {
    "dt": "2022.01.13 06:00",
    "o": 1.42999,
    "h": 1.4304,
    "l": 1.42965,
    "c": 1.42967,
    "v": 1226
  },
  {
    "dt": "2022.01.13 07:00",
    "o": 1.42967,
    "h": 1.43103,
    "l": 1.42958,
    "c": 1.43088,
    "v": 1379
  },
  {
    "dt": "2022.01.13 08:00",
    "o": 1.43087,
    "h": 1.43098,
    "l": 1.42948,
    "c": 1.42951,
    "v": 1676
  },
  {
    "dt": "2022.01.13 09:00",
    "o": 1.42956,
    "h": 1.43182,
    "l": 1.42956,
    "c": 1.43122,
    "v": 3654
  },
  {
    "dt": "2022.01.13 10:00",
    "o": 1.43126,
    "h": 1.43238,
    "l": 1.43037,
    "c": 1.43121,
    "v": 3926
  },
  {
    "dt": "2022.01.13 11:00",
    "o": 1.43124,
    "h": 1.43235,
    "l": 1.43084,
    "c": 1.43175,
    "v": 3457
  },
  {
    "dt": "2022.01.13 12:00",
    "o": 1.43174,
    "h": 1.4325,
    "l": 1.43021,
    "c": 1.43034,
    "v": 3478
  },
  {
    "dt": "2022.01.13 13:00",
    "o": 1.43033,
    "h": 1.43129,
    "l": 1.42974,
    "c": 1.43038,
    "v": 3232
  },
  {
    "dt": "2022.01.13 14:00",
    "o": 1.43039,
    "h": 1.43088,
    "l": 1.42954,
    "c": 1.43052,
    "v": 3601
  },
  {
    "dt": "2022.01.13 15:00",
    "o": 1.43052,
    "h": 1.43105,
    "l": 1.42878,
    "c": 1.42937,
    "v": 4261
  },
  {
    "dt": "2022.01.13 16:00",
    "o": 1.42943,
    "h": 1.43005,
    "l": 1.4289,
    "c": 1.42953,
    "v": 4678
  },
  {
    "dt": "2022.01.13 17:00",
    "o": 1.42952,
    "h": 1.43109,
    "l": 1.42923,
    "c": 1.4307,
    "v": 5262
  },
  {
    "dt": "2022.01.13 18:00",
    "o": 1.43077,
    "h": 1.43277,
    "l": 1.43002,
    "c": 1.43095,
    "v": 4246
  },
  {
    "dt": "2022.01.13 19:00",
    "o": 1.43097,
    "h": 1.43259,
    "l": 1.43065,
    "c": 1.43162,
    "v": 4050
  },
  {
    "dt": "2022.01.13 20:00",
    "o": 1.43164,
    "h": 1.43233,
    "l": 1.43083,
    "c": 1.4309,
    "v": 3458
  },
  {
    "dt": "2022.01.13 21:00",
    "o": 1.4309,
    "h": 1.4324,
    "l": 1.43061,
    "c": 1.43123,
    "v": 3212
  },
  {
    "dt": "2022.01.13 22:00",
    "o": 1.4312,
    "h": 1.43362,
    "l": 1.43109,
    "c": 1.43326,
    "v": 3445
  },
  {
    "dt": "2022.01.13 23:00",
    "o": 1.43329,
    "h": 1.43409,
    "l": 1.43234,
    "c": 1.43368,
    "v": 1977
  },
  {
    "dt": "2022.01.14 00:00",
    "o": 1.43164,
    "h": 1.43369,
    "l": 1.43164,
    "c": 1.43293,
    "v": 703
  },
  {
    "dt": "2022.01.14 01:00",
    "o": 1.4329,
    "h": 1.43352,
    "l": 1.43275,
    "c": 1.43289,
    "v": 1183
  },
  {
    "dt": "2022.01.14 02:00",
    "o": 1.43291,
    "h": 1.43395,
    "l": 1.43288,
    "c": 1.43379,
    "v": 1959
  },
  {
    "dt": "2022.01.14 03:00",
    "o": 1.43378,
    "h": 1.43569,
    "l": 1.43368,
    "c": 1.4353,
    "v": 2618
  },
  {
    "dt": "2022.01.14 04:00",
    "o": 1.43532,
    "h": 1.4356,
    "l": 1.43447,
    "c": 1.43482,
    "v": 2194
  },
  {
    "dt": "2022.01.14 05:00",
    "o": 1.43482,
    "h": 1.43576,
    "l": 1.43457,
    "c": 1.43496,
    "v": 1999
  },
  {
    "dt": "2022.01.14 06:00",
    "o": 1.43495,
    "h": 1.43495,
    "l": 1.43383,
    "c": 1.43409,
    "v": 1320
  },
  {
    "dt": "2022.01.14 07:00",
    "o": 1.43406,
    "h": 1.43483,
    "l": 1.43359,
    "c": 1.43359,
    "v": 1700
  },
  {
    "dt": "2022.01.14 08:00",
    "o": 1.4336,
    "h": 1.43365,
    "l": 1.43227,
    "c": 1.43231,
    "v": 2239
  },
  {
    "dt": "2022.01.14 09:00",
    "o": 1.43229,
    "h": 1.43371,
    "l": 1.43195,
    "c": 1.43252,
    "v": 3743
  },
  {
    "dt": "2022.01.14 10:00",
    "o": 1.4325,
    "h": 1.43352,
    "l": 1.43001,
    "c": 1.43029,
    "v": 4533
  },
  {
    "dt": "2022.01.14 11:00",
    "o": 1.43023,
    "h": 1.43111,
    "l": 1.42983,
    "c": 1.43004,
    "v": 3523
  },
  {
    "dt": "2022.01.14 12:00",
    "o": 1.43003,
    "h": 1.43122,
    "l": 1.42999,
    "c": 1.43085,
    "v": 2920
  },
  {
    "dt": "2022.01.14 13:00",
    "o": 1.4308,
    "h": 1.43085,
    "l": 1.42909,
    "c": 1.43006,
    "v": 2787
  },
  {
    "dt": "2022.01.14 14:00",
    "o": 1.43004,
    "h": 1.43294,
    "l": 1.42992,
    "c": 1.43219,
    "v": 3993
  },
  {
    "dt": "2022.01.14 15:00",
    "o": 1.43217,
    "h": 1.43401,
    "l": 1.43153,
    "c": 1.43272,
    "v": 5089
  },
  {
    "dt": "2022.01.14 16:00",
    "o": 1.43272,
    "h": 1.43368,
    "l": 1.43103,
    "c": 1.43137,
    "v": 5578
  },
  {
    "dt": "2022.01.14 17:00",
    "o": 1.43121,
    "h": 1.43437,
    "l": 1.43028,
    "c": 1.43394,
    "v": 5745
  },
  {
    "dt": "2022.01.14 18:00",
    "o": 1.43392,
    "h": 1.43443,
    "l": 1.43115,
    "c": 1.43198,
    "v": 4967
  },
  {
    "dt": "2022.01.14 19:00",
    "o": 1.43199,
    "h": 1.43257,
    "l": 1.43136,
    "c": 1.43242,
    "v": 3973
  },
  {
    "dt": "2022.01.14 20:00",
    "o": 1.43242,
    "h": 1.434,
    "l": 1.43236,
    "c": 1.43334,
    "v": 3138
  },
  {
    "dt": "2022.01.14 21:00",
    "o": 1.43339,
    "h": 1.43433,
    "l": 1.43321,
    "c": 1.43376,
    "v": 2917
  },
  {
    "dt": "2022.01.14 22:00",
    "o": 1.43378,
    "h": 1.43445,
    "l": 1.43208,
    "c": 1.43273,
    "v": 2852
  },
  {
    "dt": "2022.01.14 23:00",
    "o": 1.43274,
    "h": 1.43298,
    "l": 1.43135,
    "c": 1.43283,
    "v": 2183
  },
  {
    "dt": "2022.01.17 00:00",
    "o": 1.43088,
    "h": 1.43236,
    "l": 1.43046,
    "c": 1.43146,
    "v": 230
  },
  {
    "dt": "2022.01.17 01:00",
    "o": 1.43183,
    "h": 1.43242,
    "l": 1.43073,
    "c": 1.43105,
    "v": 2175
  },
  {
    "dt": "2022.01.17 02:00",
    "o": 1.43106,
    "h": 1.43167,
    "l": 1.43035,
    "c": 1.43091,
    "v": 2222
  },
  {
    "dt": "2022.01.17 03:00",
    "o": 1.43093,
    "h": 1.43148,
    "l": 1.43041,
    "c": 1.43093,
    "v": 2303
  },
  {
    "dt": "2022.01.17 04:00",
    "o": 1.4308,
    "h": 1.43164,
    "l": 1.43053,
    "c": 1.43138,
    "v": 1864
  },
  {
    "dt": "2022.01.17 05:00",
    "o": 1.4314,
    "h": 1.43177,
    "l": 1.43105,
    "c": 1.43157,
    "v": 1466
  },
  {
    "dt": "2022.01.17 06:00",
    "o": 1.43152,
    "h": 1.432,
    "l": 1.43113,
    "c": 1.43183,
    "v": 993
  },
  {
    "dt": "2022.01.17 07:00",
    "o": 1.43188,
    "h": 1.43275,
    "l": 1.43159,
    "c": 1.43207,
    "v": 1037
  },
  {
    "dt": "2022.01.17 08:00",
    "o": 1.4321,
    "h": 1.43244,
    "l": 1.43124,
    "c": 1.43145,
    "v": 1680
  },
  {
    "dt": "2022.01.17 09:00",
    "o": 1.43146,
    "h": 1.43219,
    "l": 1.43065,
    "c": 1.4308,
    "v": 3008
  },
  {
    "dt": "2022.01.17 10:00",
    "o": 1.43076,
    "h": 1.43127,
    "l": 1.42955,
    "c": 1.42975,
    "v": 3879
  },
  {
    "dt": "2022.01.17 11:00",
    "o": 1.42982,
    "h": 1.43086,
    "l": 1.42836,
    "c": 1.42905,
    "v": 3485
  },
  {
    "dt": "2022.01.17 12:00",
    "o": 1.42905,
    "h": 1.42923,
    "l": 1.42741,
    "c": 1.42801,
    "v": 2870
  },
  {
    "dt": "2022.01.17 13:00",
    "o": 1.428,
    "h": 1.42897,
    "l": 1.42747,
    "c": 1.4286,
    "v": 3027
  },
  {
    "dt": "2022.01.17 14:00",
    "o": 1.42861,
    "h": 1.42968,
    "l": 1.42815,
    "c": 1.42825,
    "v": 3137
  },
  {
    "dt": "2022.01.17 15:00",
    "o": 1.42832,
    "h": 1.42912,
    "l": 1.42751,
    "c": 1.4284,
    "v": 3518
  },
  {
    "dt": "2022.01.17 16:00",
    "o": 1.42838,
    "h": 1.4294,
    "l": 1.42779,
    "c": 1.42901,
    "v": 3641
  },
  {
    "dt": "2022.01.17 17:00",
    "o": 1.42892,
    "h": 1.42892,
    "l": 1.42532,
    "c": 1.42758,
    "v": 3857
  },
  {
    "dt": "2022.01.17 18:00",
    "o": 1.42754,
    "h": 1.42799,
    "l": 1.42693,
    "c": 1.42737,
    "v": 2886
  },
  {
    "dt": "2022.01.17 19:00",
    "o": 1.42739,
    "h": 1.42814,
    "l": 1.4271,
    "c": 1.42775,
    "v": 2211
  },
  {
    "dt": "2022.01.17 20:00",
    "o": 1.42775,
    "h": 1.42839,
    "l": 1.42769,
    "c": 1.42805,
    "v": 482
  },
  {
    "dt": "2022.01.17 21:00",
    "o": 1.42805,
    "h": 1.42817,
    "l": 1.42755,
    "c": 1.4276,
    "v": 646
  },
  {
    "dt": "2022.01.17 22:00",
    "o": 1.42762,
    "h": 1.42851,
    "l": 1.42762,
    "c": 1.42836,
    "v": 645
  },
  {
    "dt": "2022.01.17 23:00",
    "o": 1.42833,
    "h": 1.42838,
    "l": 1.42715,
    "c": 1.42723,
    "v": 702
  },
  {
    "dt": "2022.01.18 00:00",
    "o": 1.42717,
    "h": 1.42794,
    "l": 1.42705,
    "c": 1.42756,
    "v": 232
  },
  {
    "dt": "2022.01.18 01:00",
    "o": 1.42701,
    "h": 1.42801,
    "l": 1.42701,
    "c": 1.42795,
    "v": 815
  },
  {
    "dt": "2022.01.18 02:00",
    "o": 1.42794,
    "h": 1.42796,
    "l": 1.42721,
    "c": 1.42732,
    "v": 1711
  },
  {
    "dt": "2022.01.18 03:00",
    "o": 1.42733,
    "h": 1.42794,
    "l": 1.42591,
    "c": 1.42616,
    "v": 1822
  },
  {
    "dt": "2022.01.18 04:00",
    "o": 1.42616,
    "h": 1.42677,
    "l": 1.4257,
    "c": 1.42594,
    "v": 1773
  },
  {
    "dt": "2022.01.18 05:00",
    "o": 1.42595,
    "h": 1.42753,
    "l": 1.4253,
    "c": 1.42715,
    "v": 3154
  },
  {
    "dt": "2022.01.18 06:00",
    "o": 1.42716,
    "h": 1.42789,
    "l": 1.42682,
    "c": 1.42702,
    "v": 3053
  },
  {
    "dt": "2022.01.18 07:00",
    "o": 1.42705,
    "h": 1.42719,
    "l": 1.42596,
    "c": 1.42656,
    "v": 2238
  },
  {
    "dt": "2022.01.18 08:00",
    "o": 1.42655,
    "h": 1.42661,
    "l": 1.42509,
    "c": 1.42557,
    "v": 2498
  },
  {
    "dt": "2022.01.18 09:00",
    "o": 1.42563,
    "h": 1.42655,
    "l": 1.42451,
    "c": 1.42467,
    "v": 4340
  },
  {
    "dt": "2022.01.18 10:00",
    "o": 1.42478,
    "h": 1.42643,
    "l": 1.42447,
    "c": 1.42523,
    "v": 5096
  },
  {
    "dt": "2022.01.18 11:00",
    "o": 1.42518,
    "h": 1.42737,
    "l": 1.42489,
    "c": 1.42703,
    "v": 4490
  },
  {
    "dt": "2022.01.18 12:00",
    "o": 1.42706,
    "h": 1.42748,
    "l": 1.42503,
    "c": 1.42538,
    "v": 3757
  },
  {
    "dt": "2022.01.18 13:00",
    "o": 1.42538,
    "h": 1.42562,
    "l": 1.42246,
    "c": 1.42331,
    "v": 3706
  },
  {
    "dt": "2022.01.18 14:00",
    "o": 1.42327,
    "h": 1.42461,
    "l": 1.42308,
    "c": 1.42373,
    "v": 4070
  },
  {
    "dt": "2022.01.18 15:00",
    "o": 1.42374,
    "h": 1.42392,
    "l": 1.42227,
    "c": 1.42301,
    "v": 4968
  },
  {
    "dt": "2022.01.18 16:00",
    "o": 1.42296,
    "h": 1.42383,
    "l": 1.42189,
    "c": 1.42234,
    "v": 5355
  },
  {
    "dt": "2022.01.18 17:00",
    "o": 1.42241,
    "h": 1.42273,
    "l": 1.42031,
    "c": 1.42097,
    "v": 5754
  },
  {
    "dt": "2022.01.18 18:00",
    "o": 1.42099,
    "h": 1.42187,
    "l": 1.41958,
    "c": 1.42089,
    "v": 5052
  },
  {
    "dt": "2022.01.18 19:00",
    "o": 1.42094,
    "h": 1.42247,
    "l": 1.42076,
    "c": 1.4215,
    "v": 4483
  },
  {
    "dt": "2022.01.18 20:00",
    "o": 1.42152,
    "h": 1.42194,
    "l": 1.42006,
    "c": 1.42033,
    "v": 3928
  },
  {
    "dt": "2022.01.18 21:00",
    "o": 1.42035,
    "h": 1.4204,
    "l": 1.41613,
    "c": 1.41613,
    "v": 3724
  },
  {
    "dt": "2022.01.18 22:00",
    "o": 1.41624,
    "h": 1.41758,
    "l": 1.41624,
    "c": 1.41649,
    "v": 3788
  },
  {
    "dt": "2022.01.18 23:00",
    "o": 1.41649,
    "h": 1.41744,
    "l": 1.41642,
    "c": 1.41642,
    "v": 2259
  },
  {
    "dt": "2022.01.19 00:00",
    "o": 1.41596,
    "h": 1.41709,
    "l": 1.41596,
    "c": 1.4167,
    "v": 912
  },
  {
    "dt": "2022.01.19 01:00",
    "o": 1.41674,
    "h": 1.41689,
    "l": 1.4157,
    "c": 1.41574,
    "v": 1099
  },
  {
    "dt": "2022.01.19 02:00",
    "o": 1.41575,
    "h": 1.41666,
    "l": 1.41534,
    "c": 1.41666,
    "v": 2383
  },
  {
    "dt": "2022.01.19 03:00",
    "o": 1.41665,
    "h": 1.41665,
    "l": 1.41437,
    "c": 1.41514,
    "v": 2572
  },
  {
    "dt": "2022.01.19 04:00",
    "o": 1.41512,
    "h": 1.41552,
    "l": 1.41383,
    "c": 1.41534,
    "v": 2331
  },
  {
    "dt": "2022.01.19 05:00",
    "o": 1.41532,
    "h": 1.41699,
    "l": 1.41518,
    "c": 1.41627,
    "v": 1970
  },
  {
    "dt": "2022.01.19 06:00",
    "o": 1.41627,
    "h": 1.41657,
    "l": 1.41492,
    "c": 1.41641,
    "v": 1472
  },
  {
    "dt": "2022.01.19 07:00",
    "o": 1.41639,
    "h": 1.41705,
    "l": 1.41595,
    "c": 1.41632,
    "v": 2087
  },
  {
    "dt": "2022.01.19 08:00",
    "o": 1.41632,
    "h": 1.41802,
    "l": 1.41585,
    "c": 1.41777,
    "v": 2393
  },
  {
    "dt": "2022.01.19 09:00",
    "o": 1.41786,
    "h": 1.41957,
    "l": 1.41771,
    "c": 1.41843,
    "v": 3984
  },
  {
    "dt": "2022.01.19 10:00",
    "o": 1.41861,
    "h": 1.41924,
    "l": 1.4161,
    "c": 1.41632,
    "v": 4611
  },
  {
    "dt": "2022.01.19 11:00",
    "o": 1.41625,
    "h": 1.41708,
    "l": 1.41496,
    "c": 1.41518,
    "v": 3993
  },
  {
    "dt": "2022.01.19 12:00",
    "o": 1.41519,
    "h": 1.41576,
    "l": 1.41437,
    "c": 1.41499,
    "v": 3300
  },
  {
    "dt": "2022.01.19 13:00",
    "o": 1.415,
    "h": 1.41544,
    "l": 1.41423,
    "c": 1.41433,
    "v": 3253
  },
  {
    "dt": "2022.01.19 14:00",
    "o": 1.41433,
    "h": 1.41537,
    "l": 1.4138,
    "c": 1.41452,
    "v": 3259
  },
  {
    "dt": "2022.01.19 15:00",
    "o": 1.41456,
    "h": 1.41547,
    "l": 1.41282,
    "c": 1.41545,
    "v": 4436
  },
  {
    "dt": "2022.01.19 16:00",
    "o": 1.41546,
    "h": 1.41788,
    "l": 1.41545,
    "c": 1.41717,
    "v": 5173
  },
  {
    "dt": "2022.01.19 17:00",
    "o": 1.41716,
    "h": 1.41993,
    "l": 1.41705,
    "c": 1.41987,
    "v": 5314
  },
  {
    "dt": "2022.01.19 18:00",
    "o": 1.41991,
    "h": 1.42056,
    "l": 1.41693,
    "c": 1.41847,
    "v": 4774
  },
  {
    "dt": "2022.01.19 19:00",
    "o": 1.41846,
    "h": 1.41854,
    "l": 1.41629,
    "c": 1.41651,
    "v": 3680
  },
  {
    "dt": "2022.01.19 20:00",
    "o": 1.41655,
    "h": 1.41751,
    "l": 1.41622,
    "c": 1.41745,
    "v": 3323
  },
  {
    "dt": "2022.01.19 21:00",
    "o": 1.41749,
    "h": 1.41816,
    "l": 1.41697,
    "c": 1.4176,
    "v": 3514
  },
  {
    "dt": "2022.01.19 22:00",
    "o": 1.41762,
    "h": 1.41857,
    "l": 1.41729,
    "c": 1.4183,
    "v": 3405
  },
  {
    "dt": "2022.01.19 23:00",
    "o": 1.41829,
    "h": 1.41965,
    "l": 1.41807,
    "c": 1.41896,
    "v": 2241
  },
  {
    "dt": "2022.01.20 00:00",
    "o": 1.41836,
    "h": 1.41914,
    "l": 1.41825,
    "c": 1.4186,
    "v": 868
  },
  {
    "dt": "2022.01.20 01:00",
    "o": 1.41862,
    "h": 1.4196,
    "l": 1.41855,
    "c": 1.41896,
    "v": 1249
  },
  {
    "dt": "2022.01.20 02:00",
    "o": 1.41891,
    "h": 1.41962,
    "l": 1.41828,
    "c": 1.41889,
    "v": 2065
  },
  {
    "dt": "2022.01.20 03:00",
    "o": 1.41887,
    "h": 1.42085,
    "l": 1.41827,
    "c": 1.42059,
    "v": 2741
  },
  {
    "dt": "2022.01.20 04:00",
    "o": 1.42058,
    "h": 1.4206,
    "l": 1.41916,
    "c": 1.4193,
    "v": 2108
  },
  {
    "dt": "2022.01.20 05:00",
    "o": 1.41927,
    "h": 1.41935,
    "l": 1.41802,
    "c": 1.41854,
    "v": 1841
  },
  {
    "dt": "2022.01.20 06:00",
    "o": 1.41849,
    "h": 1.41849,
    "l": 1.41786,
    "c": 1.4181,
    "v": 1156
  },
  {
    "dt": "2022.01.20 07:00",
    "o": 1.41808,
    "h": 1.41835,
    "l": 1.41753,
    "c": 1.41788,
    "v": 1580
  },
  {
    "dt": "2022.01.20 08:00",
    "o": 1.41785,
    "h": 1.41802,
    "l": 1.41713,
    "c": 1.41729,
    "v": 1603
  },
  {
    "dt": "2022.01.20 09:00",
    "o": 1.41726,
    "h": 1.41962,
    "l": 1.41685,
    "c": 1.41875,
    "v": 3426
  },
  {
    "dt": "2022.01.20 10:00",
    "o": 1.41869,
    "h": 1.41963,
    "l": 1.41829,
    "c": 1.41848,
    "v": 4397
  },
  {
    "dt": "2022.01.20 11:00",
    "o": 1.41847,
    "h": 1.41858,
    "l": 1.41664,
    "c": 1.41683,
    "v": 3990
  },
  {
    "dt": "2022.01.20 12:00",
    "o": 1.41683,
    "h": 1.41798,
    "l": 1.41581,
    "c": 1.41768,
    "v": 3339
  },
  {
    "dt": "2022.01.20 13:00",
    "o": 1.41766,
    "h": 1.41766,
    "l": 1.41516,
    "c": 1.41616,
    "v": 3416
  },
  {
    "dt": "2022.01.20 14:00",
    "o": 1.41613,
    "h": 1.41674,
    "l": 1.41564,
    "c": 1.41642,
    "v": 3450
  },
  {
    "dt": "2022.01.20 15:00",
    "o": 1.4164,
    "h": 1.41793,
    "l": 1.41549,
    "c": 1.41638,
    "v": 4327
  },
  {
    "dt": "2022.01.20 16:00",
    "o": 1.41633,
    "h": 1.41699,
    "l": 1.41477,
    "c": 1.41525,
    "v": 4676
  },
  {
    "dt": "2022.01.20 17:00",
    "o": 1.41516,
    "h": 1.41563,
    "l": 1.41316,
    "c": 1.41342,
    "v": 5134
  },
  {
    "dt": "2022.01.20 18:00",
    "o": 1.41348,
    "h": 1.4146,
    "l": 1.41248,
    "c": 1.41261,
    "v": 4471
  },
  {
    "dt": "2022.01.20 19:00",
    "o": 1.41262,
    "h": 1.41315,
    "l": 1.4111,
    "c": 1.4115,
    "v": 3518
  },
  {
    "dt": "2022.01.20 20:00",
    "o": 1.41143,
    "h": 1.41221,
    "l": 1.41021,
    "c": 1.41043,
    "v": 3334
  },
  {
    "dt": "2022.01.20 21:00",
    "o": 1.41044,
    "h": 1.41166,
    "l": 1.40985,
    "c": 1.41073,
    "v": 3688
  },
  {
    "dt": "2022.01.20 22:00",
    "o": 1.41071,
    "h": 1.41457,
    "l": 1.4106,
    "c": 1.41443,
    "v": 4080
  },
  {
    "dt": "2022.01.20 23:00",
    "o": 1.4144,
    "h": 1.41463,
    "l": 1.4135,
    "c": 1.41359,
    "v": 3123
  },
  {
    "dt": "2022.01.21 00:00",
    "o": 1.41421,
    "h": 1.41425,
    "l": 1.41359,
    "c": 1.41399,
    "v": 323
  },
  {
    "dt": "2022.01.21 01:00",
    "o": 1.41426,
    "h": 1.41539,
    "l": 1.41376,
    "c": 1.41407,
    "v": 2291
  },
  {
    "dt": "2022.01.21 02:00",
    "o": 1.41411,
    "h": 1.41579,
    "l": 1.41396,
    "c": 1.41526,
    "v": 2773
  },
  {
    "dt": "2022.01.21 03:00",
    "o": 1.4152,
    "h": 1.41761,
    "l": 1.41517,
    "c": 1.417,
    "v": 3407
  },
  {
    "dt": "2022.01.21 04:00",
    "o": 1.41701,
    "h": 1.41894,
    "l": 1.41609,
    "c": 1.41888,
    "v": 3292
  },
  {
    "dt": "2022.01.21 05:00",
    "o": 1.41886,
    "h": 1.41977,
    "l": 1.41776,
    "c": 1.41881,
    "v": 2826
  },
  {
    "dt": "2022.01.21 06:00",
    "o": 1.41878,
    "h": 1.41884,
    "l": 1.41781,
    "c": 1.41838,
    "v": 1769
  },
  {
    "dt": "2022.01.21 07:00",
    "o": 1.41839,
    "h": 1.41859,
    "l": 1.41722,
    "c": 1.41755,
    "v": 2316
  },
  {
    "dt": "2022.01.21 08:00",
    "o": 1.41754,
    "h": 1.41865,
    "l": 1.41752,
    "c": 1.41856,
    "v": 2315
  },
  {
    "dt": "2022.01.21 09:00",
    "o": 1.41853,
    "h": 1.41889,
    "l": 1.41742,
    "c": 1.41783,
    "v": 3957
  },
  {
    "dt": "2022.01.21 10:00",
    "o": 1.41789,
    "h": 1.42093,
    "l": 1.41773,
    "c": 1.41937,
    "v": 4870
  },
  {
    "dt": "2022.01.21 11:00",
    "o": 1.41939,
    "h": 1.42157,
    "l": 1.41937,
    "c": 1.42006,
    "v": 3719
  },
  {
    "dt": "2022.01.21 12:00",
    "o": 1.42004,
    "h": 1.42054,
    "l": 1.41781,
    "c": 1.41811,
    "v": 3173
  },
  {
    "dt": "2022.01.21 13:00",
    "o": 1.41812,
    "h": 1.41882,
    "l": 1.41778,
    "c": 1.41861,
    "v": 3537
  },
  {
    "dt": "2022.01.21 14:00",
    "o": 1.4186,
    "h": 1.42116,
    "l": 1.41846,
    "c": 1.42008,
    "v": 4093
  },
  {
    "dt": "2022.01.21 15:00",
    "o": 1.42007,
    "h": 1.42165,
    "l": 1.41978,
    "c": 1.42063,
    "v": 4260
  },
  {
    "dt": "2022.01.21 16:00",
    "o": 1.42064,
    "h": 1.42301,
    "l": 1.42022,
    "c": 1.42231,
    "v": 5157
  },
  {
    "dt": "2022.01.21 17:00",
    "o": 1.42245,
    "h": 1.42433,
    "l": 1.42073,
    "c": 1.42183,
    "v": 5931
  },
  {
    "dt": "2022.01.21 18:00",
    "o": 1.42185,
    "h": 1.42327,
    "l": 1.42032,
    "c": 1.42275,
    "v": 5300
  },
  {
    "dt": "2022.01.21 19:00",
    "o": 1.42275,
    "h": 1.42436,
    "l": 1.42214,
    "c": 1.4241,
    "v": 4103
  },
  {
    "dt": "2022.01.21 20:00",
    "o": 1.42412,
    "h": 1.42501,
    "l": 1.42319,
    "c": 1.4242,
    "v": 3973
  },
  {
    "dt": "2022.01.21 21:00",
    "o": 1.4242,
    "h": 1.42603,
    "l": 1.42403,
    "c": 1.42577,
    "v": 3567
  },
  {
    "dt": "2022.01.21 22:00",
    "o": 1.4258,
    "h": 1.42706,
    "l": 1.4256,
    "c": 1.42701,
    "v": 4062
  },
  {
    "dt": "2022.01.21 23:00",
    "o": 1.42694,
    "h": 1.42766,
    "l": 1.42631,
    "c": 1.42638,
    "v": 2150
  },
  {
    "dt": "2022.01.24 00:00",
    "o": 1.42688,
    "h": 1.42688,
    "l": 1.42562,
    "c": 1.42609,
    "v": 238
  },
  {
    "dt": "2022.01.24 01:00",
    "o": 1.42592,
    "h": 1.4265,
    "l": 1.42452,
    "c": 1.42452,
    "v": 2194
  },
  {
    "dt": "2022.01.24 02:00",
    "o": 1.42456,
    "h": 1.42569,
    "l": 1.42427,
    "c": 1.42511,
    "v": 2185
  },
  {
    "dt": "2022.01.24 03:00",
    "o": 1.42502,
    "h": 1.42522,
    "l": 1.42412,
    "c": 1.42423,
    "v": 2165
  },
  {
    "dt": "2022.01.24 04:00",
    "o": 1.42423,
    "h": 1.42446,
    "l": 1.4233,
    "c": 1.42337,
    "v": 1927
  },
  {
    "dt": "2022.01.24 05:00",
    "o": 1.42339,
    "h": 1.42353,
    "l": 1.42277,
    "c": 1.42288,
    "v": 1637
  },
  {
    "dt": "2022.01.24 06:00",
    "o": 1.42287,
    "h": 1.4229,
    "l": 1.4223,
    "c": 1.42261,
    "v": 1085
  },
  {
    "dt": "2022.01.24 07:00",
    "o": 1.42262,
    "h": 1.4234,
    "l": 1.42209,
    "c": 1.42222,
    "v": 1516
  },
  {
    "dt": "2022.01.24 08:00",
    "o": 1.42235,
    "h": 1.42396,
    "l": 1.42234,
    "c": 1.42396,
    "v": 2097
  },
  {
    "dt": "2022.01.24 09:00",
    "o": 1.42396,
    "h": 1.42537,
    "l": 1.42362,
    "c": 1.42401,
    "v": 3504
  },
  {
    "dt": "2022.01.24 10:00",
    "o": 1.42399,
    "h": 1.42599,
    "l": 1.42206,
    "c": 1.4258,
    "v": 4462
  },
  {
    "dt": "2022.01.24 11:00",
    "o": 1.42581,
    "h": 1.42761,
    "l": 1.42549,
    "c": 1.42649,
    "v": 4310
  },
  {
    "dt": "2022.01.24 12:00",
    "o": 1.42656,
    "h": 1.42865,
    "l": 1.42654,
    "c": 1.42675,
    "v": 4618
  },
  {
    "dt": "2022.01.24 13:00",
    "o": 1.42674,
    "h": 1.42701,
    "l": 1.42492,
    "c": 1.42517,
    "v": 4194
  },
  {
    "dt": "2022.01.24 14:00",
    "o": 1.42513,
    "h": 1.42676,
    "l": 1.42496,
    "c": 1.42582,
    "v": 4155
  },
  {
    "dt": "2022.01.24 15:00",
    "o": 1.42582,
    "h": 1.42928,
    "l": 1.4255,
    "c": 1.42848,
    "v": 4910
  },
  {
    "dt": "2022.01.24 16:00",
    "o": 1.42847,
    "h": 1.4294,
    "l": 1.42644,
    "c": 1.42913,
    "v": 5710
  },
  {
    "dt": "2022.01.24 17:00",
    "o": 1.42906,
    "h": 1.43273,
    "l": 1.42888,
    "c": 1.43184,
    "v": 6282
  },
  {
    "dt": "2022.01.24 18:00",
    "o": 1.43185,
    "h": 1.43663,
    "l": 1.43153,
    "c": 1.43486,
    "v": 5745
  },
  {
    "dt": "2022.01.24 19:00",
    "o": 1.43483,
    "h": 1.43715,
    "l": 1.43483,
    "c": 1.43557,
    "v": 5319
  },
  {
    "dt": "2022.01.24 20:00",
    "o": 1.43558,
    "h": 1.43629,
    "l": 1.43251,
    "c": 1.43251,
    "v": 5306
  },
  {
    "dt": "2022.01.24 21:00",
    "o": 1.43246,
    "h": 1.43349,
    "l": 1.4314,
    "c": 1.43154,
    "v": 5168
  },
  {
    "dt": "2022.01.24 22:00",
    "o": 1.4315,
    "h": 1.43222,
    "l": 1.4291,
    "c": 1.43084,
    "v": 5073
  },
  {
    "dt": "2022.01.24 23:00",
    "o": 1.43074,
    "h": 1.43123,
    "l": 1.43,
    "c": 1.43101,
    "v": 2460
  },
  {
    "dt": "2022.01.25 00:00",
    "o": 1.43089,
    "h": 1.43104,
    "l": 1.43002,
    "c": 1.43083,
    "v": 164
  },
  {
    "dt": "2022.01.25 01:00",
    "o": 1.43083,
    "h": 1.43159,
    "l": 1.42957,
    "c": 1.42957,
    "v": 1608
  },
  {
    "dt": "2022.01.25 02:00",
    "o": 1.42957,
    "h": 1.43038,
    "l": 1.4283,
    "c": 1.43024,
    "v": 2530
  },
  {
    "dt": "2022.01.25 03:00",
    "o": 1.43028,
    "h": 1.43171,
    "l": 1.42997,
    "c": 1.43021,
    "v": 2883
  },
  {
    "dt": "2022.01.25 04:00",
    "o": 1.43024,
    "h": 1.43096,
    "l": 1.42979,
    "c": 1.42989,
    "v": 2603
  },
  {
    "dt": "2022.01.25 05:00",
    "o": 1.42992,
    "h": 1.43113,
    "l": 1.42992,
    "c": 1.43045,
    "v": 2151
  },
  {
    "dt": "2022.01.25 06:00",
    "o": 1.43046,
    "h": 1.43192,
    "l": 1.43046,
    "c": 1.43122,
    "v": 1695
  },
  {
    "dt": "2022.01.25 07:00",
    "o": 1.43125,
    "h": 1.43183,
    "l": 1.42882,
    "c": 1.429,
    "v": 2190
  },
  {
    "dt": "2022.01.25 08:00",
    "o": 1.42892,
    "h": 1.4295,
    "l": 1.42799,
    "c": 1.4283,
    "v": 2549
  },
  {
    "dt": "2022.01.25 09:00",
    "o": 1.42828,
    "h": 1.43068,
    "l": 1.42805,
    "c": 1.42816,
    "v": 4353
  },
  {
    "dt": "2022.01.25 10:00",
    "o": 1.42804,
    "h": 1.43055,
    "l": 1.42727,
    "c": 1.42827,
    "v": 5190
  },
  {
    "dt": "2022.01.25 11:00",
    "o": 1.42837,
    "h": 1.42905,
    "l": 1.4255,
    "c": 1.42617,
    "v": 4618
  },
  {
    "dt": "2022.01.25 12:00",
    "o": 1.42616,
    "h": 1.42677,
    "l": 1.42501,
    "c": 1.42555,
    "v": 4060
  },
  {
    "dt": "2022.01.25 13:00",
    "o": 1.42565,
    "h": 1.42579,
    "l": 1.42425,
    "c": 1.42484,
    "v": 3959
  },
  {
    "dt": "2022.01.25 14:00",
    "o": 1.42495,
    "h": 1.42653,
    "l": 1.42451,
    "c": 1.4247,
    "v": 4002
  },
  {
    "dt": "2022.01.25 15:00",
    "o": 1.42467,
    "h": 1.42622,
    "l": 1.42401,
    "c": 1.42538,
    "v": 4690
  },
  {
    "dt": "2022.01.25 16:00",
    "o": 1.42535,
    "h": 1.42767,
    "l": 1.42239,
    "c": 1.42712,
    "v": 5488
  },
  {
    "dt": "2022.01.25 17:00",
    "o": 1.42713,
    "h": 1.42803,
    "l": 1.42338,
    "c": 1.42437,
    "v": 6005
  },
  {
    "dt": "2022.01.25 18:00",
    "o": 1.42438,
    "h": 1.42676,
    "l": 1.42396,
    "c": 1.42596,
    "v": 5148
  },
  {
    "dt": "2022.01.25 19:00",
    "o": 1.42598,
    "h": 1.42613,
    "l": 1.42412,
    "c": 1.42519,
    "v": 4659
  },
  {
    "dt": "2022.01.25 20:00",
    "o": 1.42521,
    "h": 1.42586,
    "l": 1.42361,
    "c": 1.42394,
    "v": 4265
  },
  {
    "dt": "2022.01.25 21:00",
    "o": 1.42392,
    "h": 1.42471,
    "l": 1.42332,
    "c": 1.42408,
    "v": 3792
  },
  {
    "dt": "2022.01.25 22:00",
    "o": 1.42407,
    "h": 1.42684,
    "l": 1.4238,
    "c": 1.42647,
    "v": 4510
  },
  {
    "dt": "2022.01.25 23:00",
    "o": 1.42646,
    "h": 1.42753,
    "l": 1.4259,
    "c": 1.42634,
    "v": 2796
  },
  {
    "dt": "2022.01.26 00:00",
    "o": 1.42616,
    "h": 1.42706,
    "l": 1.42583,
    "c": 1.42706,
    "v": 185
  },
  {
    "dt": "2022.01.26 01:00",
    "o": 1.42706,
    "h": 1.4271,
    "l": 1.42595,
    "c": 1.42602,
    "v": 1594
  },
  {
    "dt": "2022.01.26 02:00",
    "o": 1.42605,
    "h": 1.42751,
    "l": 1.42597,
    "c": 1.42708,
    "v": 2381
  },
  {
    "dt": "2022.01.26 03:00",
    "o": 1.42713,
    "h": 1.42742,
    "l": 1.42582,
    "c": 1.42586,
    "v": 2144
  },
  {
    "dt": "2022.01.26 04:00",
    "o": 1.42587,
    "h": 1.42595,
    "l": 1.42459,
    "c": 1.42581,
    "v": 1858
  },
  {
    "dt": "2022.01.26 05:00",
    "o": 1.4258,
    "h": 1.42602,
    "l": 1.42464,
    "c": 1.42513,
    "v": 1378
  },
  {
    "dt": "2022.01.26 06:00",
    "o": 1.42514,
    "h": 1.4253,
    "l": 1.42401,
    "c": 1.42401,
    "v": 1270
  },
  {
    "dt": "2022.01.26 07:00",
    "o": 1.42404,
    "h": 1.42532,
    "l": 1.42404,
    "c": 1.42484,
    "v": 1290
  },
  {
    "dt": "2022.01.26 08:00",
    "o": 1.42483,
    "h": 1.42511,
    "l": 1.42248,
    "c": 1.42339,
    "v": 1869
  },
  {
    "dt": "2022.01.26 09:00",
    "o": 1.42336,
    "h": 1.42401,
    "l": 1.42193,
    "c": 1.42227,
    "v": 2925
  },
  {
    "dt": "2022.01.26 10:00",
    "o": 1.42239,
    "h": 1.42239,
    "l": 1.4203,
    "c": 1.42082,
    "v": 4420
  },
  {
    "dt": "2022.01.26 11:00",
    "o": 1.42085,
    "h": 1.42093,
    "l": 1.41845,
    "c": 1.41913,
    "v": 3718
  },
  {
    "dt": "2022.01.26 12:00",
    "o": 1.41913,
    "h": 1.41951,
    "l": 1.41708,
    "c": 1.41788,
    "v": 3394
  },
  {
    "dt": "2022.01.26 13:00",
    "o": 1.41787,
    "h": 1.41861,
    "l": 1.41679,
    "c": 1.4169,
    "v": 3310
  },
  {
    "dt": "2022.01.26 14:00",
    "o": 1.4169,
    "h": 1.41808,
    "l": 1.41624,
    "c": 1.41713,
    "v": 3714
  },
  {
    "dt": "2022.01.26 15:00",
    "o": 1.41715,
    "h": 1.41899,
    "l": 1.41645,
    "c": 1.41887,
    "v": 4315
  },
  {
    "dt": "2022.01.26 16:00",
    "o": 1.41889,
    "h": 1.42185,
    "l": 1.418,
    "c": 1.4182,
    "v": 5155
  },
  {
    "dt": "2022.01.26 17:00",
    "o": 1.41765,
    "h": 1.42634,
    "l": 1.41765,
    "c": 1.42423,
    "v": 5932
  },
  {
    "dt": "2022.01.26 18:00",
    "o": 1.42428,
    "h": 1.42469,
    "l": 1.42025,
    "c": 1.42088,
    "v": 5067
  },
  {
    "dt": "2022.01.26 19:00",
    "o": 1.42083,
    "h": 1.42162,
    "l": 1.42031,
    "c": 1.42039,
    "v": 3519
  },
  {
    "dt": "2022.01.26 20:00",
    "o": 1.42042,
    "h": 1.4233,
    "l": 1.42042,
    "c": 1.42285,
    "v": 3764
  },
  {
    "dt": "2022.01.26 21:00",
    "o": 1.42263,
    "h": 1.42502,
    "l": 1.41974,
    "c": 1.42401,
    "v": 6458
  },
  {
    "dt": "2022.01.26 22:00",
    "o": 1.42388,
    "h": 1.42618,
    "l": 1.42328,
    "c": 1.42463,
    "v": 6323
  },
  {
    "dt": "2022.01.26 23:00",
    "o": 1.42467,
    "h": 1.42491,
    "l": 1.42313,
    "c": 1.42313,
    "v": 3392
  },
  {
    "dt": "2022.01.27 00:00",
    "o": 1.42319,
    "h": 1.42396,
    "l": 1.42273,
    "c": 1.4233,
    "v": 358
  },
  {
    "dt": "2022.01.27 01:00",
    "o": 1.4233,
    "h": 1.42348,
    "l": 1.4223,
    "c": 1.4226,
    "v": 1393
  },
  {
    "dt": "2022.01.27 02:00",
    "o": 1.42265,
    "h": 1.42471,
    "l": 1.42249,
    "c": 1.42462,
    "v": 3026
  },
  {
    "dt": "2022.01.27 03:00",
    "o": 1.42462,
    "h": 1.4264,
    "l": 1.42448,
    "c": 1.42612,
    "v": 3440
  },
  {
    "dt": "2022.01.27 04:00",
    "o": 1.42612,
    "h": 1.42664,
    "l": 1.42485,
    "c": 1.42569,
    "v": 3081
  },
  {
    "dt": "2022.01.27 05:00",
    "o": 1.42568,
    "h": 1.42624,
    "l": 1.42523,
    "c": 1.42572,
    "v": 3284
  },
  {
    "dt": "2022.01.27 06:00",
    "o": 1.42573,
    "h": 1.42661,
    "l": 1.42572,
    "c": 1.42611,
    "v": 2294
  },
  {
    "dt": "2022.01.27 07:00",
    "o": 1.4261,
    "h": 1.42632,
    "l": 1.42553,
    "c": 1.42564,
    "v": 2705
  },
  {
    "dt": "2022.01.27 08:00",
    "o": 1.42567,
    "h": 1.42761,
    "l": 1.42544,
    "c": 1.42639,
    "v": 3112
  },
  {
    "dt": "2022.01.27 09:00",
    "o": 1.42638,
    "h": 1.42679,
    "l": 1.42438,
    "c": 1.42491,
    "v": 4694
  },
  {
    "dt": "2022.01.27 10:00",
    "o": 1.42476,
    "h": 1.42501,
    "l": 1.41949,
    "c": 1.41962,
    "v": 5252
  },
  {
    "dt": "2022.01.27 11:00",
    "o": 1.41959,
    "h": 1.42094,
    "l": 1.41815,
    "c": 1.41846,
    "v": 4586
  },
  {
    "dt": "2022.01.27 12:00",
    "o": 1.41843,
    "h": 1.42128,
    "l": 1.41767,
    "c": 1.42108,
    "v": 4424
  },
  {
    "dt": "2022.01.27 13:00",
    "o": 1.42109,
    "h": 1.42128,
    "l": 1.41674,
    "c": 1.41719,
    "v": 4664
  },
  {
    "dt": "2022.01.27 14:00",
    "o": 1.41712,
    "h": 1.41797,
    "l": 1.41611,
    "c": 1.41664,
    "v": 4662
  },
  {
    "dt": "2022.01.27 15:00",
    "o": 1.41657,
    "h": 1.41681,
    "l": 1.41266,
    "c": 1.41283,
    "v": 5477
  },
  {
    "dt": "2022.01.27 16:00",
    "o": 1.41283,
    "h": 1.41449,
    "l": 1.41174,
    "c": 1.41436,
    "v": 5569
  },
  {
    "dt": "2022.01.27 17:00",
    "o": 1.41436,
    "h": 1.41666,
    "l": 1.41302,
    "c": 1.41656,
    "v": 6042
  },
  {
    "dt": "2022.01.27 18:00",
    "o": 1.41654,
    "h": 1.41845,
    "l": 1.41578,
    "c": 1.41586,
    "v": 5521
  },
  {
    "dt": "2022.01.27 19:00",
    "o": 1.41588,
    "h": 1.41862,
    "l": 1.41526,
    "c": 1.41804,
    "v": 4927
  },
  {
    "dt": "2022.01.27 20:00",
    "o": 1.41806,
    "h": 1.41951,
    "l": 1.41772,
    "c": 1.41829,
    "v": 5172
  },
  {
    "dt": "2022.01.27 21:00",
    "o": 1.41826,
    "h": 1.42001,
    "l": 1.41743,
    "c": 1.41974,
    "v": 4647
  },
  {
    "dt": "2022.01.27 22:00",
    "o": 1.41976,
    "h": 1.42048,
    "l": 1.41885,
    "c": 1.42,
    "v": 4409
  },
  {
    "dt": "2022.01.27 23:00",
    "o": 1.42002,
    "h": 1.42039,
    "l": 1.41945,
    "c": 1.41954,
    "v": 2532
  },
  {
    "dt": "2022.01.28 00:00",
    "o": 1.41945,
    "h": 1.41961,
    "l": 1.41849,
    "c": 1.41924,
    "v": 329
  },
  {
    "dt": "2022.01.28 01:00",
    "o": 1.41927,
    "h": 1.42049,
    "l": 1.41878,
    "c": 1.42044,
    "v": 1815
  },
  {
    "dt": "2022.01.28 02:00",
    "o": 1.42041,
    "h": 1.42055,
    "l": 1.41903,
    "c": 1.41928,
    "v": 2402
  },
  {
    "dt": "2022.01.28 03:00",
    "o": 1.41931,
    "h": 1.41961,
    "l": 1.41852,
    "c": 1.41898,
    "v": 2748
  },
  {
    "dt": "2022.01.28 04:00",
    "o": 1.41901,
    "h": 1.41937,
    "l": 1.41758,
    "c": 1.41769,
    "v": 2412
  },
  {
    "dt": "2022.01.28 05:00",
    "o": 1.41771,
    "h": 1.41913,
    "l": 1.41765,
    "c": 1.41896,
    "v": 2152
  },
  {
    "dt": "2022.01.28 06:00",
    "o": 1.41896,
    "h": 1.41986,
    "l": 1.41867,
    "c": 1.41986,
    "v": 1803
  },
  {
    "dt": "2022.01.28 07:00",
    "o": 1.41987,
    "h": 1.42006,
    "l": 1.4178,
    "c": 1.41837,
    "v": 2375
  },
  {
    "dt": "2022.01.28 08:00",
    "o": 1.41838,
    "h": 1.41893,
    "l": 1.41801,
    "c": 1.41819,
    "v": 2613
  },
  {
    "dt": "2022.01.28 09:00",
    "o": 1.4182,
    "h": 1.4194,
    "l": 1.41793,
    "c": 1.41903,
    "v": 4412
  },
  {
    "dt": "2022.01.28 10:00",
    "o": 1.41905,
    "h": 1.422,
    "l": 1.41852,
    "c": 1.42172,
    "v": 5081
  },
  {
    "dt": "2022.01.28 11:00",
    "o": 1.42176,
    "h": 1.42272,
    "l": 1.42108,
    "c": 1.42238,
    "v": 4489
  },
  {
    "dt": "2022.01.28 12:00",
    "o": 1.42234,
    "h": 1.42488,
    "l": 1.42231,
    "c": 1.4241,
    "v": 4388
  },
  {
    "dt": "2022.01.28 13:00",
    "o": 1.4241,
    "h": 1.42451,
    "l": 1.42294,
    "c": 1.42305,
    "v": 4492
  },
  {
    "dt": "2022.01.28 14:00",
    "o": 1.42303,
    "h": 1.425,
    "l": 1.42289,
    "c": 1.42308,
    "v": 4631
  },
  {
    "dt": "2022.01.28 15:00",
    "o": 1.42313,
    "h": 1.42493,
    "l": 1.42188,
    "c": 1.42479,
    "v": 5680
  },
  {
    "dt": "2022.01.28 16:00",
    "o": 1.42472,
    "h": 1.42516,
    "l": 1.42245,
    "c": 1.42473,
    "v": 5923
  },
  {
    "dt": "2022.01.28 17:00",
    "o": 1.42474,
    "h": 1.42626,
    "l": 1.42182,
    "c": 1.42545,
    "v": 5941
  },
  {
    "dt": "2022.01.28 18:00",
    "o": 1.42548,
    "h": 1.42594,
    "l": 1.4224,
    "c": 1.42315,
    "v": 5606
  },
  {
    "dt": "2022.01.28 19:00",
    "o": 1.42312,
    "h": 1.42569,
    "l": 1.42298,
    "c": 1.42526,
    "v": 4062
  },
  {
    "dt": "2022.01.28 20:00",
    "o": 1.42526,
    "h": 1.42526,
    "l": 1.4238,
    "c": 1.42456,
    "v": 3720
  },
  {
    "dt": "2022.01.28 21:00",
    "o": 1.42457,
    "h": 1.42582,
    "l": 1.42421,
    "c": 1.42479,
    "v": 4113
  },
  {
    "dt": "2022.01.28 22:00",
    "o": 1.42476,
    "h": 1.42479,
    "l": 1.42284,
    "c": 1.42418,
    "v": 4099
  },
  {
    "dt": "2022.01.28 23:00",
    "o": 1.42414,
    "h": 1.4246,
    "l": 1.42217,
    "c": 1.42356,
    "v": 2240
  },
  {
    "dt": "2022.01.31 00:00",
    "o": 1.4222,
    "h": 1.42319,
    "l": 1.4222,
    "c": 1.42274,
    "v": 112
  },
  {
    "dt": "2022.01.31 01:00",
    "o": 1.42299,
    "h": 1.42405,
    "l": 1.42225,
    "c": 1.42285,
    "v": 1782
  },
  {
    "dt": "2022.01.31 02:00",
    "o": 1.42285,
    "h": 1.42352,
    "l": 1.42157,
    "c": 1.42226,
    "v": 1847
  },
  {
    "dt": "2022.01.31 03:00",
    "o": 1.42226,
    "h": 1.42231,
    "l": 1.42122,
    "c": 1.42202,
    "v": 1948
  },
  {
    "dt": "2022.01.31 04:00",
    "o": 1.42198,
    "h": 1.42226,
    "l": 1.42093,
    "c": 1.42117,
    "v": 1456
  },
  {
    "dt": "2022.01.31 05:00",
    "o": 1.42117,
    "h": 1.42158,
    "l": 1.4206,
    "c": 1.4211,
    "v": 1449
  },
  {
    "dt": "2022.01.31 06:00",
    "o": 1.42112,
    "h": 1.42188,
    "l": 1.42112,
    "c": 1.42156,
    "v": 1248
  },
  {
    "dt": "2022.01.31 07:00",
    "o": 1.42155,
    "h": 1.42214,
    "l": 1.42126,
    "c": 1.42138,
    "v": 1119
  },
  {
    "dt": "2022.01.31 08:00",
    "o": 1.42136,
    "h": 1.42169,
    "l": 1.42054,
    "c": 1.42074,
    "v": 1477
  },
  {
    "dt": "2022.01.31 09:00",
    "o": 1.42072,
    "h": 1.42134,
    "l": 1.42039,
    "c": 1.42123,
    "v": 3589
  },
  {
    "dt": "2022.01.31 10:00",
    "o": 1.42134,
    "h": 1.42288,
    "l": 1.42083,
    "c": 1.42136,
    "v": 4259
  },
  {
    "dt": "2022.01.31 11:00",
    "o": 1.42138,
    "h": 1.42298,
    "l": 1.42075,
    "c": 1.42268,
    "v": 3662
  },
  {
    "dt": "2022.01.31 12:00",
    "o": 1.42266,
    "h": 1.42389,
    "l": 1.42255,
    "c": 1.42263,
    "v": 3358
  },
  {
    "dt": "2022.01.31 13:00",
    "o": 1.42267,
    "h": 1.42269,
    "l": 1.4209,
    "c": 1.42178,
    "v": 3483
  },
  {
    "dt": "2022.01.31 14:00",
    "o": 1.4218,
    "h": 1.42408,
    "l": 1.42164,
    "c": 1.42167,
    "v": 4165
  },
  {
    "dt": "2022.01.31 15:00",
    "o": 1.42163,
    "h": 1.42655,
    "l": 1.42152,
    "c": 1.42578,
    "v": 4778
  },
  {
    "dt": "2022.01.31 16:00",
    "o": 1.42581,
    "h": 1.42823,
    "l": 1.42534,
    "c": 1.42751,
    "v": 5134
  },
  {
    "dt": "2022.01.31 17:00",
    "o": 1.42755,
    "h": 1.42804,
    "l": 1.42503,
    "c": 1.42522,
    "v": 5540
  },
  {
    "dt": "2022.01.31 18:00",
    "o": 1.42526,
    "h": 1.42644,
    "l": 1.42264,
    "c": 1.42302,
    "v": 5321
  },
  {
    "dt": "2022.01.31 19:00",
    "o": 1.42301,
    "h": 1.42443,
    "l": 1.42212,
    "c": 1.42442,
    "v": 4359
  },
  {
    "dt": "2022.01.31 20:00",
    "o": 1.42442,
    "h": 1.42679,
    "l": 1.42442,
    "c": 1.42597,
    "v": 4025
  },
  {
    "dt": "2022.01.31 21:00",
    "o": 1.42594,
    "h": 1.42817,
    "l": 1.42526,
    "c": 1.42742,
    "v": 3704
  },
  {
    "dt": "2022.01.31 22:00",
    "o": 1.4274,
    "h": 1.42873,
    "l": 1.42689,
    "c": 1.42805,
    "v": 4333
  },
  {
    "dt": "2022.01.31 23:00",
    "o": 1.42797,
    "h": 1.42853,
    "l": 1.42652,
    "c": 1.42652,
    "v": 2474
  }
]