[
  {
    "dt": "2022.10.03 00:00",
    "o": 1.35278,
    "h": 1.35618,
    "l": 1.3516,
    "c": 1.35343,
    "v": 212
  },
  {
    "dt": "2022.10.03 01:00",
    "o": 1.35398,
    "h": 1.35414,
    "l": 1.35001,
    "c": 1.35135,
    "v": 2616
  },
  {
    "dt": "2022.10.03 02:00",
    "o": 1.35133,
    "h": 1.35147,
    "l": 1.34951,
    "c": 1.3497,
    "v": 2928
  },
  {
    "dt": "2022.10.03 03:00",
    "o": 1.34974,
    "h": 1.35243,
    "l": 1.34971,
    "c": 1.3521,
    "v": 3459
  },
  {
    "dt": "2022.10.03 04:00",
    "o": 1.35212,
    "h": 1.35251,
    "l": 1.34934,
    "c": 1.34948,
    "v": 3874
  },
  {
    "dt": "2022.10.03 05:00",
    "o": 1.34946,
    "h": 1.3503,
    "l": 1.3492,
    "c": 1.35006,
    "v": 2821
  },
  {
    "dt": "2022.10.03 06:00",
    "o": 1.35009,
    "h": 1.35022,
    "l": 1.34922,
    "c": 1.34948,
    "v": 2759
  },
  {
    "dt": "2022.10.03 07:00",
    "o": 1.34947,
    "h": 1.3495,
    "l": 1.34738,
    "c": 1.34748,
    "v": 3249
  },
  {
    "dt": "2022.10.03 08:00",
    "o": 1.34749,
    "h": 1.35065,
    "l": 1.34749,
    "c": 1.35015,
    "v": 3867
  },
  {
    "dt": "2022.10.03 09:00",
    "o": 1.35015,
    "h": 1.35107,
    "l": 1.34837,
    "c": 1.34874,
    "v": 5485
  },
  {
    "dt": "2022.10.03 10:00",
    "o": 1.34852,
    "h": 1.34993,
    "l": 1.34745,
    "c": 1.34931,
    "v": 5932
  },
  {
    "dt": "2022.10.03 11:00",
    "o": 1.34922,
    "h": 1.35079,
    "l": 1.34845,
    "c": 1.34893,
    "v": 5533
  },
  {
    "dt": "2022.10.03 12:00",
    "o": 1.34895,
    "h": 1.34914,
    "l": 1.34379,
    "c": 1.34438,
    "v": 5075
  },
  {
    "dt": "2022.10.03 13:00",
    "o": 1.34432,
    "h": 1.34669,
    "l": 1.34367,
    "c": 1.34512,
    "v": 5005
  },
  {
    "dt": "2022.10.03 14:00",
    "o": 1.34512,
    "h": 1.34534,
    "l": 1.34029,
    "c": 1.34073,
    "v": 5030
  },
  {
    "dt": "2022.10.03 15:00",
    "o": 1.34074,
    "h": 1.34156,
    "l": 1.33768,
    "c": 1.3383,
    "v": 5564
  },
  {
    "dt": "2022.10.03 16:00",
    "o": 1.33833,
    "h": 1.33897,
    "l": 1.33652,
    "c": 1.33841,
    "v": 5995
  },
  {
    "dt": "2022.10.03 17:00",
    "o": 1.33897,
    "h": 1.34187,
    "l": 1.3377,
    "c": 1.34091,
    "v": 6526
  },
  {
    "dt": "2022.10.03 18:00",
    "o": 1.34084,
    "h": 1.34346,
    "l": 1.33862,
    "c": 1.33881,
    "v": 6092
  },
  {
    "dt": "2022.10.03 19:00",
    "o": 1.33882,
    "h": 1.33908,
    "l": 1.33737,
    "c": 1.33845,
    "v": 5342
  },
  {
    "dt": "2022.10.03 20:00",
    "o": 1.33845,
    "h": 1.33859,
    "l": 1.33694,
    "c": 1.33764,
    "v": 4757
  },
  {
    "dt": "2022.10.03 21:00",
    "o": 1.3376,
    "h": 1.33945,
    "l": 1.33675,
    "c": 1.3384,
    "v": 4875
  },
  {
    "dt": "2022.10.03 22:00",
    "o": 1.33836,
    "h": 1.33933,
    "l": 1.33696,
    "c": 1.33933,
    "v": 4953
  },
  {
    "dt": "2022.10.03 23:00",
    "o": 1.33929,
    "h": 1.3393,
    "l": 1.33783,
    "c": 1.33825,
    "v": 3015
  },
  {
    "dt": "2022.10.04 00:00",
    "o": 1.338,
    "h": 1.33857,
    "l": 1.33724,
    "c": 1.33752,
    "v": 191
  },
  {
    "dt": "2022.10.04 01:00",
    "o": 1.33753,
    "h": 1.34063,
    "l": 1.33752,
    "c": 1.34039,
    "v": 2431
  },
  {
    "dt": "2022.10.04 02:00",
    "o": 1.34037,
    "h": 1.3404,
    "l": 1.33944,
    "c": 1.33996,
    "v": 2529
  },
  {
    "dt": "2022.10.04 03:00",
    "o": 1.33999,
    "h": 1.34058,
    "l": 1.33903,
    "c": 1.33973,
    "v": 3556
  },
  {
    "dt": "2022.10.04 04:00",
    "o": 1.33975,
    "h": 1.33984,
    "l": 1.33889,
    "c": 1.33941,
    "v": 3446
  },
  {
    "dt": "2022.10.04 05:00",
    "o": 1.33939,
    "h": 1.33964,
    "l": 1.33839,
    "c": 1.33933,
    "v": 3361
  },
  {
    "dt": "2022.10.04 06:00",
    "o": 1.33927,
    "h": 1.34016,
    "l": 1.33814,
    "c": 1.3382,
    "v": 3767
  },
  {
    "dt": "2022.10.04 07:00",
    "o": 1.33817,
    "h": 1.33898,
    "l": 1.33719,
    "c": 1.33793,
    "v": 2915
  },
  {
    "dt": "2022.10.04 08:00",
    "o": 1.33792,
    "h": 1.3394,
    "l": 1.33791,
    "c": 1.33861,
    "v": 3461
  },
  {
    "dt": "2022.10.04 09:00",
    "o": 1.33853,
    "h": 1.3418,
    "l": 1.33839,
    "c": 1.3403,
    "v": 5359
  },
  {
    "dt": "2022.10.04 10:00",
    "o": 1.34031,
    "h": 1.34291,
    "l": 1.34014,
    "c": 1.3422,
    "v": 5963
  },
  {
    "dt": "2022.10.04 11:00",
    "o": 1.34222,
    "h": 1.34487,
    "l": 1.34187,
    "c": 1.34431,
    "v": 5540
  },
  {
    "dt": "2022.10.04 12:00",
    "o": 1.34443,
    "h": 1.34649,
    "l": 1.34358,
    "c": 1.34617,
    "v": 5325
  },
  {
    "dt": "2022.10.04 13:00",
    "o": 1.3461,
    "h": 1.35039,
    "l": 1.3461,
    "c": 1.3486,
    "v": 5314
  },
  {
    "dt": "2022.10.04 14:00",
    "o": 1.34865,
    "h": 1.34999,
    "l": 1.34816,
    "c": 1.34878,
    "v": 5597
  },
  {
    "dt": "2022.10.04 15:00",
    "o": 1.3488,
    "h": 1.35557,
    "l": 1.34828,
    "c": 1.35382,
    "v": 5861
  },
  {
    "dt": "2022.10.04 16:00",
    "o": 1.35385,
    "h": 1.35417,
    "l": 1.35164,
    "c": 1.35366,
    "v": 5977
  },
  {
    "dt": "2022.10.04 17:00",
    "o": 1.35367,
    "h": 1.35681,
    "l": 1.35073,
    "c": 1.3531,
    "v": 6354
  },
  {
    "dt": "2022.10.04 18:00",
    "o": 1.3531,
    "h": 1.35317,
    "l": 1.35088,
    "c": 1.35177,
    "v": 5797
  },
  {
    "dt": "2022.10.04 19:00",
    "o": 1.3518,
    "h": 1.35256,
    "l": 1.35041,
    "c": 1.35171,
    "v": 5341
  },
  {
    "dt": "2022.10.04 20:00",
    "o": 1.35164,
    "h": 1.35185,
    "l": 1.34834,
    "c": 1.34972,
    "v": 5074
  },
  {
    "dt": "2022.10.04 21:00",
    "o": 1.34974,
    "h": 1.3503,
    "l": 1.34823,
    "c": 1.35008,
    "v": 4875
  },
  {
    "dt": "2022.10.04 22:00",
    "o": 1.35012,
    "h": 1.35084,
    "l": 1.34834,
    "c": 1.34942,
    "v": 4705
  },
  {
    "dt": "2022.10.04 23:00",
    "o": 1.34977,
    "h": 1.35042,
    "l": 1.34836,
    "c": 1.34887,
    "v": 3535
  },
  {
    "dt": "2022.10.05 00:00",
    "o": 1.34852,
    "h": 1.35028,
    "l": 1.34807,
    "c": 1.34835,
    "v": 190
  },
  {
    "dt": "2022.10.05 01:00",
    "o": 1.34832,
    "h": 1.34887,
    "l": 1.34806,
    "c": 1.34862,
    "v": 1148
  },
  {
    "dt": "2022.10.05 02:00",
    "o": 1.34863,
    "h": 1.34876,
    "l": 1.34779,
    "c": 1.34839,
    "v": 2118
  },
  {
    "dt": "2022.10.05 03:00",
    "o": 1.34838,
    "h": 1.34939,
    "l": 1.34836,
    "c": 1.34901,
    "v": 2995
  },
  {
    "dt": "2022.10.05 04:00",
    "o": 1.34905,
    "h": 1.34975,
    "l": 1.34812,
    "c": 1.34819,
    "v": 3791
  },
  {
    "dt": "2022.10.05 05:00",
    "o": 1.34817,
    "h": 1.34941,
    "l": 1.34801,
    "c": 1.34889,
    "v": 3476
  },
  {
    "dt": "2022.10.05 06:00",
    "o": 1.34894,
    "h": 1.34902,
    "l": 1.34782,
    "c": 1.34864,
    "v": 2579
  },
  {
    "dt": "2022.10.05 07:00",
    "o": 1.34863,
    "h": 1.34908,
    "l": 1.34833,
    "c": 1.34886,
    "v": 2102
  },
  {
    "dt": "2022.10.05 08:00",
    "o": 1.34886,
    "h": 1.34951,
    "l": 1.3476,
    "c": 1.34788,
    "v": 2776
  },
  {
    "dt": "2022.10.05 09:00",
    "o": 1.34776,
    "h": 1.34987,
    "l": 1.34716,
    "c": 1.34903,
    "v": 3908
  },
  {
    "dt": "2022.10.05 10:00",
    "o": 1.34894,
    "h": 1.34944,
    "l": 1.34709,
    "c": 1.34778,
    "v": 5124
  },
  {
    "dt": "2022.10.05 11:00",
    "o": 1.34779,
    "h": 1.34992,
    "l": 1.3476,
    "c": 1.34919,
    "v": 4983
  },
  {
    "dt": "2022.10.05 12:00",
    "o": 1.34924,
    "h": 1.3502,
    "l": 1.34797,
    "c": 1.34926,
    "v": 4285
  },
  {
    "dt": "2022.10.05 13:00",
    "o": 1.34926,
    "h": 1.34928,
    "l": 1.34641,
    "c": 1.347,
    "v": 4078
  },
  {
    "dt": "2022.10.05 14:00",
    "o": 1.34699,
    "h": 1.34924,
    "l": 1.34675,
    "c": 1.34869,
    "v": 4477
  },
  {
    "dt": "2022.10.05 15:00",
    "o": 1.34865,
    "h": 1.35031,
    "l": 1.34804,
    "c": 1.34961,
    "v": 4950
  },
  {
    "dt": "2022.10.05 16:00",
    "o": 1.34961,
    "h": 1.34978,
    "l": 1.34517,
    "c": 1.34641,
    "v": 4909
  },
  {
    "dt": "2022.10.05 17:00",
    "o": 1.34632,
    "h": 1.34938,
    "l": 1.3458,
    "c": 1.34863,
    "v": 5129
  },
  {
    "dt": "2022.10.05 18:00",
    "o": 1.34859,
    "h": 1.34934,
    "l": 1.34679,
    "c": 1.34774,
    "v": 4620
  },
  {
    "dt": "2022.10.05 19:00",
    "o": 1.34772,
    "h": 1.34891,
    "l": 1.34554,
    "c": 1.34584,
    "v": 4214
  },
  {
    "dt": "2022.10.05 20:00",
    "o": 1.34585,
    "h": 1.34724,
    "l": 1.3452,
    "c": 1.34655,
    "v": 3944
  },
  {
    "dt": "2022.10.05 21:00",
    "o": 1.34656,
    "h": 1.34717,
    "l": 1.34537,
    "c": 1.34619,
    "v": 4088
  },
  {
    "dt": "2022.10.05 22:00",
    "o": 1.34616,
    "h": 1.34631,
    "l": 1.34464,
    "c": 1.34528,
    "v": 3993
  },
  {
    "dt": "2022.10.05 23:00",
    "o": 1.34528,
    "h": 1.34644,
    "l": 1.34483,
    "c": 1.34606,
    "v": 2452
  },
  {
    "dt": "2022.10.06 00:00",
    "o": 1.345,
    "h": 1.34595,
    "l": 1.34432,
    "c": 1.34557,
    "v": 646
  },
  {
    "dt": "2022.10.06 01:00",
    "o": 1.34554,
    "h": 1.34636,
    "l": 1.34554,
    "c": 1.34624,
    "v": 1932
  },
  {
    "dt": "2022.10.06 02:00",
    "o": 1.34621,
    "h": 1.34783,
    "l": 1.34603,
    "c": 1.3475,
    "v": 2619
  },
  {
    "dt": "2022.10.06 03:00",
    "o": 1.34756,
    "h": 1.34824,
    "l": 1.3471,
    "c": 1.34789,
    "v": 3607
  },
  {
    "dt": "2022.10.06 04:00",
    "o": 1.34793,
    "h": 1.34824,
    "l": 1.34677,
    "c": 1.34688,
    "v": 3830
  },
  {
    "dt": "2022.10.06 05:00",
    "o": 1.34685,
    "h": 1.34728,
    "l": 1.34603,
    "c": 1.34646,
    "v": 3304
  },
  {
    "dt": "2022.10.06 06:00",
    "o": 1.34644,
    "h": 1.34679,
    "l": 1.34612,
    "c": 1.34635,
    "v": 2959
  },
  {
    "dt": "2022.10.06 07:00",
    "o": 1.34635,
    "h": 1.3465,
    "l": 1.34567,
    "c": 1.34613,
    "v": 2724
  },
  {
    "dt": "2022.10.06 08:00",
    "o": 1.34609,
    "h": 1.3473,
    "l": 1.34601,
    "c": 1.34721,
    "v": 2941
  },
  {
    "dt": "2022.10.06 09:00",
    "o": 1.34721,
    "h": 1.34772,
    "l": 1.34599,
    "c": 1.34712,
    "v": 4148
  },
  {
    "dt": "2022.10.06 10:00",
    "o": 1.34724,
    "h": 1.34902,
    "l": 1.34699,
    "c": 1.34812,
    "v": 4773
  },
  {
    "dt": "2022.10.06 11:00",
    "o": 1.34808,
    "h": 1.35014,
    "l": 1.34732,
    "c": 1.35007,
    "v": 4691
  },
  {
    "dt": "2022.10.06 12:00",
    "o": 1.35009,
    "h": 1.35188,
    "l": 1.35007,
    "c": 1.35142,
    "v": 4255
  },
  {
    "dt": "2022.10.06 13:00",
    "o": 1.35143,
    "h": 1.35251,
    "l": 1.35086,
    "c": 1.35188,
    "v": 4319
  },
  {
    "dt": "2022.10.06 14:00",
    "o": 1.35188,
    "h": 1.35202,
    "l": 1.34788,
    "c": 1.34817,
    "v": 4386
  },
  {
    "dt": "2022.10.06 15:00",
    "o": 1.3482,
    "h": 1.34954,
    "l": 1.34629,
    "c": 1.34935,
    "v": 4491
  },
  {
    "dt": "2022.10.06 16:00",
    "o": 1.34927,
    "h": 1.34965,
    "l": 1.34478,
    "c": 1.34614,
    "v": 4948
  },
  {
    "dt": "2022.10.06 17:00",
    "o": 1.34617,
    "h": 1.35051,
    "l": 1.34602,
    "c": 1.34995,
    "v": 5042
  },
  {
    "dt": "2022.10.06 18:00",
    "o": 1.3501,
    "h": 1.35077,
    "l": 1.34589,
    "c": 1.34625,
    "v": 4884
  },
  {
    "dt": "2022.10.06 19:00",
    "o": 1.34626,
    "h": 1.34665,
    "l": 1.34436,
    "c": 1.34608,
    "v": 4690
  },
  {
    "dt": "2022.10.06 20:00",
    "o": 1.34607,
    "h": 1.34815,
    "l": 1.34589,
    "c": 1.34815,
    "v": 4218
  },
  {
    "dt": "2022.10.06 21:00",
    "o": 1.34812,
    "h": 1.34815,
    "l": 1.34638,
    "c": 1.34638,
    "v": 4084
  },
  {
    "dt": "2022.10.06 22:00",
    "o": 1.34638,
    "h": 1.34696,
    "l": 1.34556,
    "c": 1.34691,
    "v": 4117
  },
  {
    "dt": "2022.10.06 23:00",
    "o": 1.34689,
    "h": 1.34708,
    "l": 1.34551,
    "c": 1.3458,
    "v": 2678
  },
  {
    "dt": "2022.10.07 00:00",
    "o": 1.34529,
    "h": 1.34617,
    "l": 1.34363,
    "c": 1.34576,
    "v": 1017
  },
  {
    "dt": "2022.10.07 01:00",
    "o": 1.34548,
    "h": 1.34614,
    "l": 1.34534,
    "c": 1.34591,
    "v": 1188
  },
  {
    "dt": "2022.10.07 02:00",
    "o": 1.34591,
    "h": 1.34606,
    "l": 1.34493,
    "c": 1.34508,
    "v": 1778
  },
  {
    "dt": "2022.10.07 03:00",
    "o": 1.34514,
    "h": 1.34622,
    "l": 1.34507,
    "c": 1.34603,
    "v": 3093
  },
  {
    "dt": "2022.10.07 04:00",
    "o": 1.34606,
    "h": 1.34618,
    "l": 1.34517,
    "c": 1.34548,
    "v": 3203
  },
  {
    "dt": "2022.10.07 05:00",
    "o": 1.34544,
    "h": 1.34666,
    "l": 1.34518,
    "c": 1.34645,
    "v": 2647
  },
  {
    "dt": "2022.10.07 06:00",
    "o": 1.34644,
    "h": 1.34725,
    "l": 1.34639,
    "c": 1.34652,
    "v": 2660
  },
  {
    "dt": "2022.10.07 07:00",
    "o": 1.34651,
    "h": 1.34674,
    "l": 1.34609,
    "c": 1.34616,
    "v": 2309
  },
  {
    "dt": "2022.10.07 08:00",
    "o": 1.34617,
    "h": 1.34705,
    "l": 1.34617,
    "c": 1.3466,
    "v": 2600
  },
  {
    "dt": "2022.10.07 09:00",
    "o": 1.34661,
    "h": 1.34668,
    "l": 1.34335,
    "c": 1.34532,
    "v": 4215
  },
  {
    "dt": "2022.10.07 10:00",
    "o": 1.34531,
    "h": 1.3463,
    "l": 1.34423,
    "c": 1.3461,
    "v": 4405
  },
  {
    "dt": "2022.10.07 11:00",
    "o": 1.3461,
    "h": 1.34669,
    "l": 1.34497,
    "c": 1.34511,
    "v": 4233
  },
  {
    "dt": "2022.10.07 12:00",
    "o": 1.34515,
    "h": 1.34557,
    "l": 1.34341,
    "c": 1.34395,
    "v": 3885
  },
  {
    "dt": "2022.10.07 13:00",
    "o": 1.34394,
    "h": 1.34468,
    "l": 1.34241,
    "c": 1.34286,
    "v": 3813
  },
  {
    "dt": "2022.10.07 14:00",
    "o": 1.34283,
    "h": 1.34415,
    "l": 1.34252,
    "c": 1.34307,
    "v": 3691
  },
  {
    "dt": "2022.10.07 15:00",
    "o": 1.34312,
    "h": 1.34554,
    "l": 1.33781,
    "c": 1.33891,
    "v": 4782
  },
  {
    "dt": "2022.10.07 16:00",
    "o": 1.33893,
    "h": 1.33952,
    "l": 1.33452,
    "c": 1.33559,
    "v": 5149
  },
  {
    "dt": "2022.10.07 17:00",
    "o": 1.33554,
    "h": 1.33984,
    "l": 1.33554,
    "c": 1.33922,
    "v": 5080
  },
  {
    "dt": "2022.10.07 18:00",
    "o": 1.33922,
    "h": 1.3397,
    "l": 1.33764,
    "c": 1.3395,
    "v": 4847
  },
  {
    "dt": "2022.10.07 19:00",
    "o": 1.33952,
    "h": 1.33952,
    "l": 1.33737,
    "c": 1.33783,
    "v": 4276
  },
  {
    "dt": "2022.10.07 20:00",
    "o": 1.33785,
    "h": 1.33921,
    "l": 1.33782,
    "c": 1.33853,
    "v": 3599
  },
  {
    "dt": "2022.10.07 21:00",
    "o": 1.33847,
    "h": 1.339,
    "l": 1.33545,
    "c": 1.33618,
    "v": 3793
  },
  {
    "dt": "2022.10.07 22:00",
    "o": 1.33614,
    "h": 1.33832,
    "l": 1.33604,
    "c": 1.3378,
    "v": 3584
  },
  {
    "dt": "2022.10.07 23:00",
    "o": 1.33779,
    "h": 1.33809,
    "l": 1.33672,
    "c": 1.33732,
    "v": 2421
  },
  {
    "dt": "2022.10.10 00:00",
    "o": 1.33568,
    "h": 1.33739,
    "l": 1.33568,
    "c": 1.33683,
    "v": 281
  },
  {
    "dt": "2022.10.10 01:00",
    "o": 1.33682,
    "h": 1.3384,
    "l": 1.33682,
    "c": 1.338,
    "v": 2397
  },
  {
    "dt": "2022.10.10 02:00",
    "o": 1.33798,
    "h": 1.33799,
    "l": 1.33654,
    "c": 1.33666,
    "v": 2749
  },
  {
    "dt": "2022.10.10 03:00",
    "o": 1.33664,
    "h": 1.33728,
    "l": 1.33642,
    "c": 1.33706,
    "v": 3305
  },
  {
    "dt": "2022.10.10 04:00",
    "o": 1.33704,
    "h": 1.33843,
    "l": 1.33691,
    "c": 1.33763,
    "v": 3413
  },
  {
    "dt": "2022.10.10 05:00",
    "o": 1.33764,
    "h": 1.33798,
    "l": 1.33695,
    "c": 1.33735,
    "v": 2955
  },
  {
    "dt": "2022.10.10 06:00",
    "o": 1.33734,
    "h": 1.33738,
    "l": 1.3364,
    "c": 1.33695,
    "v": 2590
  },
  {
    "dt": "2022.10.10 07:00",
    "o": 1.33693,
    "h": 1.33779,
    "l": 1.33647,
    "c": 1.33737,
    "v": 2421
  },
  {
    "dt": "2022.10.10 08:00",
    "o": 1.33737,
    "h": 1.33783,
    "l": 1.33535,
    "c": 1.33652,
    "v": 2876
  },
  {
    "dt": "2022.10.10 09:00",
    "o": 1.33656,
    "h": 1.33767,
    "l": 1.33589,
    "c": 1.33604,
    "v": 3914
  },
  {
    "dt": "2022.10.10 10:00",
    "o": 1.33613,
    "h": 1.33663,
    "l": 1.33341,
    "c": 1.3345,
    "v": 4499
  },
  {
    "dt": "2022.10.10 11:00",
    "o": 1.33449,
    "h": 1.33465,
    "l": 1.33122,
    "c": 1.33161,
    "v": 4450
  },
  {
    "dt": "2022.10.10 12:00",
    "o": 1.33163,
    "h": 1.33304,
    "l": 1.33139,
    "c": 1.33188,
    "v": 4440
  },
  {
    "dt": "2022.10.10 13:00",
    "o": 1.33186,
    "h": 1.33296,
    "l": 1.33007,
    "c": 1.3306,
    "v": 3962
  },
  {
    "dt": "2022.10.10 14:00",
    "o": 1.33059,
    "h": 1.33089,
    "l": 1.32929,
    "c": 1.33048,
    "v": 4125
  },
  {
    "dt": "2022.10.10 15:00",
    "o": 1.33044,
    "h": 1.33184,
    "l": 1.33021,
    "c": 1.33143,
    "v": 4082
  },
  {
    "dt": "2022.10.10 16:00",
    "o": 1.33139,
    "h": 1.3326,
    "l": 1.33114,
    "c": 1.33202,
    "v": 4436
  },
  {
    "dt": "2022.10.10 17:00",
    "o": 1.33203,
    "h": 1.33856,
    "l": 1.33185,
    "c": 1.33425,
    "v": 4851
  },
  {
    "dt": "2022.10.10 18:00",
    "o": 1.33426,
    "h": 1.33452,
    "l": 1.33104,
    "c": 1.33355,
    "v": 4694
  },
  {
    "dt": "2022.10.10 19:00",
    "o": 1.33358,
    "h": 1.33474,
    "l": 1.33242,
    "c": 1.33468,
    "v": 3938
  },
  {
    "dt": "2022.10.10 20:00",
    "o": 1.33469,
    "h": 1.3371,
    "l": 1.33457,
    "c": 1.3353,
    "v": 4112
  },
  {
    "dt": "2022.10.10 21:00",
    "o": 1.33526,
    "h": 1.33664,
    "l": 1.33526,
    "c": 1.33533,
    "v": 3867
  },
  {
    "dt": "2022.10.10 22:00",
    "o": 1.33536,
    "h": 1.33607,
    "l": 1.33504,
    "c": 1.33535,
    "v": 3628
  },
  {
    "dt": "2022.10.10 23:00",
    "o": 1.33533,
    "h": 1.33721,
    "l": 1.33533,
    "c": 1.3369,
    "v": 1793
  },
  {
    "dt": "2022.10.11 00:00",
    "o": 1.33616,
    "h": 1.33686,
    "l": 1.33578,
    "c": 1.33646,
    "v": 907
  },
  {
    "dt": "2022.10.11 01:00",
    "o": 1.3364,
    "h": 1.33714,
    "l": 1.3364,
    "c": 1.33703,
    "v": 1332
  },
  {
    "dt": "2022.10.11 02:00",
    "o": 1.33702,
    "h": 1.33753,
    "l": 1.3369,
    "c": 1.33738,
    "v": 1807
  },
  {
    "dt": "2022.10.11 03:00",
    "o": 1.33738,
    "h": 1.33951,
    "l": 1.33738,
    "c": 1.33904,
    "v": 3731
  },
  {
    "dt": "2022.10.11 04:00",
    "o": 1.33904,
    "h": 1.33958,
    "l": 1.3374,
    "c": 1.33933,
    "v": 4047
  },
  {
    "dt": "2022.10.11 05:00",
    "o": 1.33932,
    "h": 1.33973,
    "l": 1.33838,
    "c": 1.33926,
    "v": 3878
  },
  {
    "dt": "2022.10.11 06:00",
    "o": 1.33923,
    "h": 1.34062,
    "l": 1.33908,
    "c": 1.33924,
    "v": 3113
  },
  {
    "dt": "2022.10.11 07:00",
    "o": 1.33926,
    "h": 1.34025,
    "l": 1.33847,
    "c": 1.33968,
    "v": 2820
  },
  {
    "dt": "2022.10.11 08:00",
    "o": 1.33967,
    "h": 1.34099,
    "l": 1.33964,
    "c": 1.34014,
    "v": 3136
  },
  {
    "dt": "2022.10.11 09:00",
    "o": 1.34011,
    "h": 1.34212,
    "l": 1.33975,
    "c": 1.3418,
    "v": 4377
  },
  {
    "dt": "2022.10.11 10:00",
    "o": 1.34179,
    "h": 1.34451,
    "l": 1.34165,
    "c": 1.34307,
    "v": 4852
  },
  {
    "dt": "2022.10.11 11:00",
    "o": 1.34308,
    "h": 1.34404,
    "l": 1.34192,
    "c": 1.34333,
    "v": 4640
  },
  {
    "dt": "2022.10.11 12:00",
    "o": 1.34343,
    "h": 1.34379,
    "l": 1.34203,
    "c": 1.34244,
    "v": 4355
  },
  {
    "dt": "2022.10.11 13:00",
    "o": 1.34243,
    "h": 1.3438,
    "l": 1.3413,
    "c": 1.34143,
    "v": 4260
  },
  {
    "dt": "2022.10.11 14:00",
    "o": 1.34141,
    "h": 1.34317,
    "l": 1.33975,
    "c": 1.3402,
    "v": 4424
  },
  {
    "dt": "2022.10.11 15:00",
    "o": 1.34021,
    "h": 1.34052,
    "l": 1.33862,
    "c": 1.33892,
    "v": 4466
  },
  {
    "dt": "2022.10.11 16:00",
    "o": 1.33893,
    "h": 1.34034,
    "l": 1.33852,
    "c": 1.34009,
    "v": 4727
  },
  {
    "dt": "2022.10.11 17:00",
    "o": 1.34007,
    "h": 1.34247,
    "l": 1.34003,
    "c": 1.34231,
    "v": 5050
  },
  {
    "dt": "2022.10.11 18:00",
    "o": 1.34227,
    "h": 1.34294,
    "l": 1.338,
    "c": 1.34008,
    "v": 4778
  },
  {
    "dt": "2022.10.11 19:00",
    "o": 1.34007,
    "h": 1.34216,
    "l": 1.33909,
    "c": 1.34134,
    "v": 4556
  },
  {
    "dt": "2022.10.11 20:00",
    "o": 1.34146,
    "h": 1.34191,
    "l": 1.33887,
    "c": 1.33894,
    "v": 4112
  },
  {
    "dt": "2022.10.11 21:00",
    "o": 1.33891,
    "h": 1.34096,
    "l": 1.33834,
    "c": 1.3405,
    "v": 4277
  },
  {
    "dt": "2022.10.11 22:00",
    "o": 1.34057,
    "h": 1.34106,
    "l": 1.33922,
    "c": 1.33981,
    "v": 4725
  },
  {
    "dt": "2022.10.11 23:00",
    "o": 1.33985,
    "h": 1.34027,
    "l": 1.33785,
    "c": 1.33862,
    "v": 2648
  },
  {
    "dt": "2022.10.12 00:00",
    "o": 1.33841,
    "h": 1.33912,
    "l": 1.33783,
    "c": 1.33787,
    "v": 765
  },
  {
    "dt": "2022.10.12 01:00",
    "o": 1.33792,
    "h": 1.33999,
    "l": 1.33789,
    "c": 1.3385,
    "v": 1358
  },
  {
    "dt": "2022.10.12 02:00",
    "o": 1.33849,
    "h": 1.33912,
    "l": 1.33768,
    "c": 1.3378,
    "v": 2056
  },
  {
    "dt": "2022.10.12 03:00",
    "o": 1.33773,
    "h": 1.33836,
    "l": 1.33726,
    "c": 1.33783,
    "v": 3751
  },
  {
    "dt": "2022.10.12 04:00",
    "o": 1.33785,
    "h": 1.3393,
    "l": 1.33769,
    "c": 1.33879,
    "v": 3749
  },
  {
    "dt": "2022.10.12 05:00",
    "o": 1.33884,
    "h": 1.33984,
    "l": 1.33872,
    "c": 1.33976,
    "v": 3014
  },
  {
    "dt": "2022.10.12 06:00",
    "o": 1.33976,
    "h": 1.34008,
    "l": 1.33927,
    "c": 1.33986,
    "v": 2434
  },
  {
    "dt": "2022.10.12 07:00",
    "o": 1.33983,
    "h": 1.34206,
    "l": 1.33969,
    "c": 1.34087,
    "v": 3787
  },
  {
    "dt": "2022.10.12 08:00",
    "o": 1.34086,
    "h": 1.34135,
    "l": 1.33996,
    "c": 1.33999,
    "v": 3536
  },
  {
    "dt": "2022.10.12 09:00",
    "o": 1.34004,
    "h": 1.34159,
    "l": 1.3396,
    "c": 1.34046,
    "v": 4496
  },
  {
    "dt": "2022.10.12 10:00",
    "o": 1.34045,
    "h": 1.3417,
    "l": 1.33947,
    "c": 1.34064,
    "v": 4954
  },
  {
    "dt": "2022.10.12 11:00",
    "o": 1.34066,
    "h": 1.34091,
    "l": 1.33804,
    "c": 1.3382,
    "v": 4560
  },
  {
    "dt": "2022.10.12 12:00",
    "o": 1.33823,
    "h": 1.33876,
    "l": 1.33599,
    "c": 1.33696,
    "v": 4336
  },
  {
    "dt": "2022.10.12 13:00",
    "o": 1.33688,
    "h": 1.33948,
    "l": 1.33639,
    "c": 1.33946,
    "v": 3809
  },
  {
    "dt": "2022.10.12 14:00",
    "o": 1.33947,
    "h": 1.33989,
    "l": 1.33858,
    "c": 1.33933,
    "v": 4110
  },
  {
    "dt": "2022.10.12 15:00",
    "o": 1.33935,
    "h": 1.3404,
    "l": 1.33757,
    "c": 1.33992,
    "v": 4728
  },
  {
    "dt": "2022.10.12 16:00",
    "o": 1.33996,
    "h": 1.34076,
    "l": 1.33686,
    "c": 1.33703,
    "v": 4750
  },
  {
    "dt": "2022.10.12 17:00",
    "o": 1.33698,
    "h": 1.33763,
    "l": 1.3329,
    "c": 1.33708,
    "v": 5031
  },
  {
    "dt": "2022.10.12 18:00",
    "o": 1.33709,
    "h": 1.33943,
    "l": 1.33478,
    "c": 1.33697,
    "v": 4663
  },
  {
    "dt": "2022.10.12 19:00",
    "o": 1.33697,
    "h": 1.33862,
    "l": 1.33652,
    "c": 1.33683,
    "v": 4233
  },
  {
    "dt": "2022.10.12 20:00",
    "o": 1.33689,
    "h": 1.3379,
    "l": 1.33643,
    "c": 1.33746,
    "v": 3848
  },
  {
    "dt": "2022.10.12 21:00",
    "o": 1.33748,
    "h": 1.34048,
    "l": 1.33659,
    "c": 1.34043,
    "v": 4662
  },
  {
    "dt": "2022.10.12 22:00",
    "o": 1.34044,
    "h": 1.34072,
    "l": 1.33931,
    "c": 1.3407,
    "v": 3650
  },
  {
    "dt": "2022.10.12 23:00",
    "o": 1.34074,
    "h": 1.34096,
    "l": 1.33997,
    "c": 1.34042,
    "v": 1870
  },
  {
    "dt": "2022.10.13 00:00",
    "o": 1.34019,
    "h": 1.34075,
    "l": 1.33924,
    "c": 1.34006,
    "v": 721
  },
  {
    "dt": "2022.10.13 01:00",
    "o": 1.34017,
    "h": 1.34156,
    "l": 1.34017,
    "c": 1.34153,
    "v": 1344
  },
  {
    "dt": "2022.10.13 02:00",
    "o": 1.34151,
    "h": 1.34152,
    "l": 1.3408,
    "c": 1.34091,
    "v": 1660
  },
  {
    "dt": "2022.10.13 03:00",
    "o": 1.34099,
    "h": 1.34176,
    "l": 1.34012,
    "c": 1.34114,
    "v": 3273
  },
  {
    "dt": "2022.10.13 04:00",
    "o": 1.34116,
    "h": 1.34135,
    "l": 1.33987,
    "c": 1.34036,
    "v": 3285
  },
  {
    "dt": "2022.10.13 05:00",
    "o": 1.34033,
    "h": 1.34054,
    "l": 1.33978,
    "c": 1.34016,
    "v": 3044
  },
  {
    "dt": "2022.10.13 06:00",
    "o": 1.34016,
    "h": 1.34079,
    "l": 1.34004,
    "c": 1.3405,
    "v": 2741
  },
  {
    "dt": "2022.10.13 07:00",
    "o": 1.34051,
    "h": 1.34136,
    "l": 1.34036,
    "c": 1.34105,
    "v": 1832
  },
  {
    "dt": "2022.10.13 08:00",
    "o": 1.34103,
    "h": 1.34153,
    "l": 1.34044,
    "c": 1.34062,
    "v": 2616
  },
  {
    "dt": "2022.10.13 09:00",
    "o": 1.34061,
    "h": 1.34189,
    "l": 1.33971,
    "c": 1.33986,
    "v": 3869
  },
  {
    "dt": "2022.10.13 10:00",
    "o": 1.33994,
    "h": 1.34078,
    "l": 1.33856,
    "c": 1.34062,
    "v": 4350
  },
  {
    "dt": "2022.10.13 11:00",
    "o": 1.34057,
    "h": 1.34135,
    "l": 1.33996,
    "c": 1.34092,
    "v": 3898
  },
  {
    "dt": "2022.10.13 12:00",
    "o": 1.34088,
    "h": 1.34369,
    "l": 1.34069,
    "c": 1.34181,
    "v": 4240
  },
  {
    "dt": "2022.10.13 13:00",
    "o": 1.34183,
    "h": 1.34417,
    "l": 1.34152,
    "c": 1.3426,
    "v": 3890
  },
  {
    "dt": "2022.10.13 14:00",
    "o": 1.34259,
    "h": 1.34513,
    "l": 1.34243,
    "c": 1.34395,
    "v": 4498
  },
  {
    "dt": "2022.10.13 15:00",
    "o": 1.34389,
    "h": 1.34724,
    "l": 1.33862,
    "c": 1.34596,
    "v": 5019
  },
  {
    "dt": "2022.10.13 16:00",
    "o": 1.34607,
    "h": 1.34929,
    "l": 1.3457,
    "c": 1.34717,
    "v": 5131
  },
  {
    "dt": "2022.10.13 17:00",
    "o": 1.34732,
    "h": 1.34863,
    "l": 1.34651,
    "c": 1.34848,
    "v": 5196
  },
  {
    "dt": "2022.10.13 18:00",
    "o": 1.34854,
    "h": 1.34943,
    "l": 1.34361,
    "c": 1.344,
    "v": 5219
  },
  {
    "dt": "2022.10.13 19:00",
    "o": 1.34395,
    "h": 1.34622,
    "l": 1.34376,
    "c": 1.34474,
    "v": 4981
  },
  {
    "dt": "2022.10.13 20:00",
    "o": 1.34472,
    "h": 1.34488,
    "l": 1.34299,
    "c": 1.34326,
    "v": 4765
  },
  {
    "dt": "2022.10.13 21:00",
    "o": 1.34328,
    "h": 1.34434,
    "l": 1.34311,
    "c": 1.34324,
    "v": 4349
  },
  {
    "dt": "2022.10.13 22:00",
    "o": 1.3433,
    "h": 1.34429,
    "l": 1.34291,
    "c": 1.34415,
    "v": 4193
  },
  {
    "dt": "2022.10.13 23:00",
    "o": 1.34414,
    "h": 1.34484,
    "l": 1.34377,
    "c": 1.34458,
    "v": 2094
  },
  {
    "dt": "2022.10.14 00:00",
    "o": 1.34294,
    "h": 1.34427,
    "l": 1.34294,
    "c": 1.34416,
    "v": 744
  },
  {
    "dt": "2022.10.14 01:00",
    "o": 1.34421,
    "h": 1.34445,
    "l": 1.34362,
    "c": 1.34373,
    "v": 1547
  },
  {
    "dt": "2022.10.14 02:00",
    "o": 1.34375,
    "h": 1.34433,
    "l": 1.3434,
    "c": 1.3443,
    "v": 1942
  },
  {
    "dt": "2022.10.14 03:00",
    "o": 1.34434,
    "h": 1.34453,
    "l": 1.34331,
    "c": 1.3444,
    "v": 3730
  },
  {
    "dt": "2022.10.14 04:00",
    "o": 1.34441,
    "h": 1.34552,
    "l": 1.34374,
    "c": 1.34501,
    "v": 3901
  },
  {
    "dt": "2022.10.14 05:00",
    "o": 1.34501,
    "h": 1.34566,
    "l": 1.34363,
    "c": 1.34364,
    "v": 3476
  },
  {
    "dt": "2022.10.14 06:00",
    "o": 1.34366,
    "h": 1.34366,
    "l": 1.34249,
    "c": 1.34273,
    "v": 3166
  },
  {
    "dt": "2022.10.14 07:00",
    "o": 1.34276,
    "h": 1.34283,
    "l": 1.34189,
    "c": 1.34233,
    "v": 3018
  },
  {
    "dt": "2022.10.14 08:00",
    "o": 1.34237,
    "h": 1.34289,
    "l": 1.3413,
    "c": 1.34211,
    "v": 3174
  },
  {
    "dt": "2022.10.14 09:00",
    "o": 1.34198,
    "h": 1.34299,
    "l": 1.34128,
    "c": 1.3423,
    "v": 4529
  },
  {
    "dt": "2022.10.14 10:00",
    "o": 1.34221,
    "h": 1.34334,
    "l": 1.34102,
    "c": 1.3422,
    "v": 4745
  },
  {
    "dt": "2022.10.14 11:00",
    "o": 1.3422,
    "h": 1.34467,
    "l": 1.34182,
    "c": 1.34409,
    "v": 4477
  },
  {
    "dt": "2022.10.14 12:00",
    "o": 1.34405,
    "h": 1.34501,
    "l": 1.34181,
    "c": 1.34221,
    "v": 4348
  },
  {
    "dt": "2022.10.14 13:00",
    "o": 1.3421,
    "h": 1.34319,
    "l": 1.34099,
    "c": 1.34126,
    "v": 4536
  },
  {
    "dt": "2022.10.14 14:00",
    "o": 1.34132,
    "h": 1.34344,
    "l": 1.34092,
    "c": 1.34288,
    "v": 4379
  },
  {
    "dt": "2022.10.14 15:00",
    "o": 1.34285,
    "h": 1.34389,
    "l": 1.34152,
    "c": 1.34321,
    "v": 4733
  },
  {
    "dt": "2022.10.14 16:00",
    "o": 1.34321,
    "h": 1.34705,
    "l": 1.34252,
    "c": 1.34483,
    "v": 5095
  },
  {
    "dt": "2022.10.14 17:00",
    "o": 1.34415,
    "h": 1.35328,
    "l": 1.34285,
    "c": 1.35301,
    "v": 5239
  },
  {
    "dt": "2022.10.14 18:00",
    "o": 1.35305,
    "h": 1.35362,
    "l": 1.35074,
    "c": 1.35089,
    "v": 4765
  },
  {
    "dt": "2022.10.14 19:00",
    "o": 1.3508,
    "h": 1.35134,
    "l": 1.34822,
    "c": 1.34882,
    "v": 4625
  },
  {
    "dt": "2022.10.14 20:00",
    "o": 1.34888,
    "h": 1.35041,
    "l": 1.34852,
    "c": 1.34962,
    "v": 4336
  },
  {
    "dt": "2022.10.14 21:00",
    "o": 1.3496,
    "h": 1.35086,
    "l": 1.3496,
    "c": 1.35051,
    "v": 3930
  },
  {
    "dt": "2022.10.14 22:00",
    "o": 1.35052,
    "h": 1.35104,
    "l": 1.34994,
    "c": 1.35029,
    "v": 3670
  },
  {
    "dt": "2022.10.14 23:00",
    "o": 1.35031,
    "h": 1.35053,
    "l": 1.34871,
    "c": 1.34935,
    "v": 2178
  },
  {
    "dt": "2022.10.17 00:00",
    "o": 1.3487,
    "h": 1.34934,
    "l": 1.3481,
    "c": 1.34905,
    "v": 432
  },
  {
    "dt": "2022.10.17 01:00",
    "o": 1.34905,
    "h": 1.35006,
    "l": 1.34905,
    "c": 1.34961,
    "v": 2304
  },
  {
    "dt": "2022.10.17 02:00",
    "o": 1.34953,
    "h": 1.34998,
    "l": 1.34915,
    "c": 1.34932,
    "v": 2801
  },
  {
    "dt": "2022.10.17 03:00",
    "o": 1.34933,
    "h": 1.3503,
    "l": 1.34859,
    "c": 1.35016,
    "v": 3459
  },
  {
    "dt": "2022.10.17 04:00",
    "o": 1.35009,
    "h": 1.35009,
    "l": 1.34821,
    "c": 1.34821,
    "v": 3267
  },
  {
    "dt": "2022.10.17 05:00",
    "o": 1.3483,
    "h": 1.34921,
    "l": 1.34675,
    "c": 1.34717,
    "v": 2941
  },
  {
    "dt": "2022.10.17 06:00",
    "o": 1.34716,
    "h": 1.34773,
    "l": 1.34697,
    "c": 1.34726,
    "v": 2204
  },
  {
    "dt": "2022.10.17 07:00",
    "o": 1.34723,
    "h": 1.34724,
    "l": 1.34638,
    "c": 1.34684,
    "v": 2125
  },
  {
    "dt": "2022.10.17 08:00",
    "o": 1.34682,
    "h": 1.34816,
    "l": 1.34628,
    "c": 1.34771,
    "v": 2873
  },
  {
    "dt": "2022.10.17 09:00",
    "o": 1.3477,
    "h": 1.34782,
    "l": 1.3455,
    "c": 1.34557,
    "v": 3712
  },
  {
    "dt": "2022.10.17 10:00",
    "o": 1.34546,
    "h": 1.34802,
    "l": 1.34514,
    "c": 1.3463,
    "v": 4660
  },
  {
    "dt": "2022.10.17 11:00",
    "o": 1.34633,
    "h": 1.34694,
    "l": 1.34538,
    "c": 1.34643,
    "v": 4292
  },
  {
    "dt": "2022.10.17 12:00",
    "o": 1.34641,
    "h": 1.34814,
    "l": 1.34611,
    "c": 1.34702,
    "v": 3941
  },
  {
    "dt": "2022.10.17 13:00",
    "o": 1.34704,
    "h": 1.34753,
    "l": 1.34611,
    "c": 1.34614,
    "v": 4021
  },
  {
    "dt": "2022.10.17 14:00",
    "o": 1.34616,
    "h": 1.34669,
    "l": 1.34357,
    "c": 1.34407,
    "v": 3792
  },
  {
    "dt": "2022.10.17 15:00",
    "o": 1.34402,
    "h": 1.34605,
    "l": 1.34293,
    "c": 1.34471,
    "v": 4483
  },
  {
    "dt": "2022.10.17 16:00",
    "o": 1.34471,
    "h": 1.34588,
    "l": 1.34342,
    "c": 1.34436,
    "v": 4366
  },
  {
    "dt": "2022.10.17 17:00",
    "o": 1.34434,
    "h": 1.34873,
    "l": 1.34326,
    "c": 1.34776,
    "v": 4657
  },
  {
    "dt": "2022.10.17 18:00",
    "o": 1.34778,
    "h": 1.35085,
    "l": 1.34625,
    "c": 1.35044,
    "v": 4280
  },
  {
    "dt": "2022.10.17 19:00",
    "o": 1.35039,
    "h": 1.3504,
    "l": 1.34858,
    "c": 1.34904,
    "v": 4155
  },
  {
    "dt": "2022.10.17 20:00",
    "o": 1.34903,
    "h": 1.34941,
    "l": 1.34829,
    "c": 1.34916,
    "v": 3786
  },
  {
    "dt": "2022.10.17 21:00",
    "o": 1.34912,
    "h": 1.35087,
    "l": 1.34909,
    "c": 1.35057,
    "v": 3457
  },
  {
    "dt": "2022.10.17 22:00",
    "o": 1.3506,
    "h": 1.35076,
    "l": 1.34978,
    "c": 1.35027,
    "v": 3307
  },
  {
    "dt": "2022.10.17 23:00",
    "o": 1.35031,
    "h": 1.3504,
    "l": 1.34936,
    "c": 1.34993,
    "v": 1723
  },
  {
    "dt": "2022.10.18 00:00",
    "o": 1.34906,
    "h": 1.34999,
    "l": 1.34858,
    "c": 1.34971,
    "v": 623
  },
  {
    "dt": "2022.10.18 01:00",
    "o": 1.34929,
    "h": 1.34972,
    "l": 1.34874,
    "c": 1.34968,
    "v": 1557
  },
  {
    "dt": "2022.10.18 02:00",
    "o": 1.34969,
    "h": 1.34987,
    "l": 1.34914,
    "c": 1.34987,
    "v": 2179
  },
  {
    "dt": "2022.10.18 03:00",
    "o": 1.34994,
    "h": 1.3504,
    "l": 1.34924,
    "c": 1.3497,
    "v": 3127
  },
  {
    "dt": "2022.10.18 04:00",
    "o": 1.3497,
    "h": 1.34986,
    "l": 1.34902,
    "c": 1.3498,
    "v": 3044
  },
  {
    "dt": "2022.10.18 05:00",
    "o": 1.34981,
    "h": 1.3504,
    "l": 1.34935,
    "c": 1.34944,
    "v": 2322
  },
  {
    "dt": "2022.10.18 06:00",
    "o": 1.34945,
    "h": 1.34949,
    "l": 1.34735,
    "c": 1.34744,
    "v": 2629
  },
  {
    "dt": "2022.10.18 07:00",
    "o": 1.34745,
    "h": 1.348,
    "l": 1.34679,
    "c": 1.34743,
    "v": 3213
  },
  {
    "dt": "2022.10.18 08:00",
    "o": 1.34742,
    "h": 1.34851,
    "l": 1.34707,
    "c": 1.34847,
    "v": 3247
  },
  {
    "dt": "2022.10.18 09:00",
    "o": 1.34849,
    "h": 1.35164,
    "l": 1.348,
    "c": 1.35071,
    "v": 3823
  },
  {
    "dt": "2022.10.18 10:00",
    "o": 1.3507,
    "h": 1.35239,
    "l": 1.34993,
    "c": 1.35087,
    "v": 4451
  },
  {
    "dt": "2022.10.18 11:00",
    "o": 1.35087,
    "h": 1.35153,
    "l": 1.35013,
    "c": 1.35145,
    "v": 4183
  },
  {
    "dt": "2022.10.18 12:00",
    "o": 1.35148,
    "h": 1.35567,
    "l": 1.35138,
    "c": 1.3539,
    "v": 4335
  },
  {
    "dt": "2022.10.18 13:00",
    "o": 1.35391,
    "h": 1.35393,
    "l": 1.35141,
    "c": 1.35255,
    "v": 3975
  },
  {
    "dt": "2022.10.18 14:00",
    "o": 1.35254,
    "h": 1.3531,
    "l": 1.34999,
    "c": 1.35025,
    "v": 3851
  },
  {
    "dt": "2022.10.18 15:00",
    "o": 1.35031,
    "h": 1.35075,
    "l": 1.34839,
    "c": 1.35039,
    "v": 4149
  },
  {
    "dt": "2022.10.18 16:00",
    "o": 1.35038,
    "h": 1.35344,
    "l": 1.35032,
    "c": 1.35208,
    "v": 4642
  },
  {
    "dt": "2022.10.18 17:00",
    "o": 1.35207,
    "h": 1.3545,
    "l": 1.35125,
    "c": 1.3543,
    "v": 4704
  },
  {
    "dt": "2022.10.18 18:00",
    "o": 1.35428,
    "h": 1.35711,
    "l": 1.35348,
    "c": 1.35703,
    "v": 4637
  },
  {
    "dt": "2022.10.18 19:00",
    "o": 1.35705,
    "h": 1.35868,
    "l": 1.35649,
    "c": 1.35808,
    "v": 4326
  },
  {
    "dt": "2022.10.18 20:00",
    "o": 1.35796,
    "h": 1.35852,
    "l": 1.35533,
    "c": 1.35535,
    "v": 4467
  },
  {
    "dt": "2022.10.18 21:00",
    "o": 1.35536,
    "h": 1.35735,
    "l": 1.3552,
    "c": 1.35672,
    "v": 4042
  },
  {
    "dt": "2022.10.18 22:00",
    "o": 1.35671,
    "h": 1.35741,
    "l": 1.35439,
    "c": 1.35439,
    "v": 3839
  },
  {
    "dt": "2022.10.18 23:00",
    "o": 1.35445,
    "h": 1.3547,
    "l": 1.35372,
    "c": 1.35376,
    "v": 2197
  },
  {
    "dt": "2022.10.19 00:00",
    "o": 1.35337,
    "h": 1.35485,
    "l": 1.3533,
    "c": 1.3546,
    "v": 1006
  },
  {
    "dt": "2022.10.19 01:00",
    "o": 1.3547,
    "h": 1.35511,
    "l": 1.35441,
    "c": 1.35467,
    "v": 1375
  },
  {
    "dt": "2022.10.19 02:00",
    "o": 1.35468,
    "h": 1.35515,
    "l": 1.35341,
    "c": 1.35375,
    "v": 2333
  },
  {
    "dt": "2022.10.19 03:00",
    "o": 1.35383,
    "h": 1.3539,
    "l": 1.35304,
    "c": 1.35359,
    "v": 2691
  },
  {
    "dt": "2022.10.19 04:00",
    "o": 1.35358,
    "h": 1.35402,
    "l": 1.35286,
    "c": 1.35356,
    "v": 3137
  },
  {
    "dt": "2022.10.19 05:00",
    "o": 1.35357,
    "h": 1.35376,
    "l": 1.35292,
    "c": 1.3536,
    "v": 2462
  },
  {
    "dt": "2022.10.19 06:00",
    "o": 1.35359,
    "h": 1.35376,
    "l": 1.35238,
    "c": 1.35263,
    "v": 2058
  },
  {
    "dt": "2022.10.19 07:00",
    "o": 1.35264,
    "h": 1.3532,
    "l": 1.35245,
    "c": 1.35273,
    "v": 1876
  },
  {
    "dt": "2022.10.19 08:00",
    "o": 1.35268,
    "h": 1.35358,
    "l": 1.35213,
    "c": 1.35272,
    "v": 2327
  },
  {
    "dt": "2022.10.19 09:00",
    "o": 1.35271,
    "h": 1.35366,
    "l": 1.35187,
    "c": 1.35221,
    "v": 3805
  },
  {
    "dt": "2022.10.19 10:00",
    "o": 1.35221,
    "h": 1.35309,
    "l": 1.35097,
    "c": 1.35307,
    "v": 4233
  },
  {
    "dt": "2022.10.19 11:00",
    "o": 1.35308,
    "h": 1.35363,
    "l": 1.35121,
    "c": 1.35126,
    "v": 4132
  },
  {
    "dt": "2022.10.19 12:00",
    "o": 1.35126,
    "h": 1.3518,
    "l": 1.34704,
    "c": 1.34741,
    "v": 4011
  },
  {
    "dt": "2022.10.19 13:00",
    "o": 1.34739,
    "h": 1.34842,
    "l": 1.34559,
    "c": 1.34603,
    "v": 3794
  },
  {
    "dt": "2022.10.19 14:00",
    "o": 1.34599,
    "h": 1.34843,
    "l": 1.34502,
    "c": 1.34822,
    "v": 4326
  },
  {
    "dt": "2022.10.19 15:00",
    "o": 1.34821,
    "h": 1.34848,
    "l": 1.34416,
    "c": 1.34588,
    "v": 4657
  },
  {
    "dt": "2022.10.19 16:00",
    "o": 1.34587,
    "h": 1.3484,
    "l": 1.34513,
    "c": 1.34803,
    "v": 4731
  },
  {
    "dt": "2022.10.19 17:00",
    "o": 1.34805,
    "h": 1.35012,
    "l": 1.34717,
    "c": 1.34887,
    "v": 4891
  },
  {
    "dt": "2022.10.19 18:00",
    "o": 1.34881,
    "h": 1.34951,
    "l": 1.34751,
    "c": 1.34763,
    "v": 4557
  },
  {
    "dt": "2022.10.19 19:00",
    "o": 1.34763,
    "h": 1.34834,
    "l": 1.34679,
    "c": 1.34683,
    "v": 4325
  },
  {
    "dt": "2022.10.19 20:00",
    "o": 1.34686,
    "h": 1.34767,
    "l": 1.3452,
    "c": 1.34544,
    "v": 4035
  },
  {
    "dt": "2022.10.19 21:00",
    "o": 1.34547,
    "h": 1.3468,
    "l": 1.34528,
    "c": 1.34551,
    "v": 3523
  },
  {
    "dt": "2022.10.19 22:00",
    "o": 1.34552,
    "h": 1.34628,
    "l": 1.34436,
    "c": 1.34521,
    "v": 3546
  },
  {
    "dt": "2022.10.19 23:00",
    "o": 1.34516,
    "h": 1.34563,
    "l": 1.34473,
    "c": 1.34484,
    "v": 2527
  },
  {
    "dt": "2022.10.20 00:00",
    "o": 1.3448,
    "h": 1.34534,
    "l": 1.34407,
    "c": 1.34443,
    "v": 617
  },
  {
    "dt": "2022.10.20 01:00",
    "o": 1.34461,
    "h": 1.34549,
    "l": 1.34444,
    "c": 1.34482,
    "v": 1169
  },
  {
    "dt": "2022.10.20 02:00",
    "o": 1.34484,
    "h": 1.34508,
    "l": 1.34438,
    "c": 1.34497,
    "v": 1587
  },
  {
    "dt": "2022.10.20 03:00",
    "o": 1.34501,
    "h": 1.34511,
    "l": 1.34428,
    "c": 1.34479,
    "v": 2995
  },
  {
    "dt": "2022.10.20 04:00",
    "o": 1.34483,
    "h": 1.34653,
    "l": 1.34469,
    "c": 1.34629,
    "v": 3214
  },
  {
    "dt": "2022.10.20 05:00",
    "o": 1.34625,
    "h": 1.34648,
    "l": 1.34554,
    "c": 1.34642,
    "v": 2857
  },
  {
    "dt": "2022.10.20 06:00",
    "o": 1.34643,
    "h": 1.34743,
    "l": 1.34607,
    "c": 1.34714,
    "v": 2386
  },
  {
    "dt": "2022.10.20 07:00",
    "o": 1.34713,
    "h": 1.34742,
    "l": 1.34581,
    "c": 1.34658,
    "v": 3374
  },
  {
    "dt": "2022.10.20 08:00",
    "o": 1.34658,
    "h": 1.34694,
    "l": 1.34546,
    "c": 1.34618,
    "v": 3857
  },
  {
    "dt": "2022.10.20 09:00",
    "o": 1.34621,
    "h": 1.3477,
    "l": 1.34611,
    "c": 1.34686,
    "v": 3598
  },
  {
    "dt": "2022.10.20 10:00",
    "o": 1.34686,
    "h": 1.34693,
    "l": 1.34533,
    "c": 1.34605,
    "v": 4365
  },
  {
    "dt": "2022.10.20 11:00",
    "o": 1.34605,
    "h": 1.34711,
    "l": 1.34542,
    "c": 1.34626,
    "v": 4074
  },
  {
    "dt": "2022.10.20 12:00",
    "o": 1.34628,
    "h": 1.34631,
    "l": 1.3437,
    "c": 1.34424,
    "v": 3762
  },
  {
    "dt": "2022.10.20 13:00",
    "o": 1.34426,
    "h": 1.34509,
    "l": 1.34369,
    "c": 1.34507,
    "v": 3932
  },
  {
    "dt": "2022.10.20 14:00",
    "o": 1.34505,
    "h": 1.34721,
    "l": 1.34421,
    "c": 1.34624,
    "v": 4162
  },
  {
    "dt": "2022.10.20 15:00",
    "o": 1.34615,
    "h": 1.34788,
    "l": 1.34428,
    "c": 1.34551,
    "v": 4787
  },
  {
    "dt": "2022.10.20 16:00",
    "o": 1.34552,
    "h": 1.34566,
    "l": 1.34066,
    "c": 1.34161,
    "v": 4861
  },
  {
    "dt": "2022.10.20 17:00",
    "o": 1.34158,
    "h": 1.34603,
    "l": 1.34046,
    "c": 1.34585,
    "v": 4913
  },
  {
    "dt": "2022.10.20 18:00",
    "o": 1.34585,
    "h": 1.34807,
    "l": 1.34504,
    "c": 1.34702,
    "v": 4282
  },
  {
    "dt": "2022.10.20 19:00",
    "o": 1.34703,
    "h": 1.3477,
    "l": 1.34458,
    "c": 1.34506,
    "v": 4089
  },
  {
    "dt": "2022.10.20 20:00",
    "o": 1.34502,
    "h": 1.34601,
    "l": 1.34475,
    "c": 1.34563,
    "v": 4128
  },
  {
    "dt": "2022.10.20 21:00",
    "o": 1.34561,
    "h": 1.34817,
    "l": 1.34532,
    "c": 1.34746,
    "v": 3936
  },
  {
    "dt": "2022.10.20 22:00",
    "o": 1.34745,
    "h": 1.34788,
    "l": 1.34675,
    "c": 1.34735,
    "v": 3567
  },
  {
    "dt": "2022.10.20 23:00",
    "o": 1.34733,
    "h": 1.34755,
    "l": 1.34658,
    "c": 1.34693,
    "v": 2035
  },
  {
    "dt": "2022.10.21 00:00",
    "o": 1.34652,
    "h": 1.34777,
    "l": 1.34603,
    "c": 1.34677,
    "v": 753
  },
  {
    "dt": "2022.10.21 01:00",
    "o": 1.3469,
    "h": 1.34761,
    "l": 1.3468,
    "c": 1.34706,
    "v": 1317
  },
  {
    "dt": "2022.10.21 02:00",
    "o": 1.34708,
    "h": 1.34754,
    "l": 1.34677,
    "c": 1.34711,
    "v": 2101
  },
  {
    "dt": "2022.10.21 03:00",
    "o": 1.3471,
    "h": 1.34735,
    "l": 1.34591,
    "c": 1.34632,
    "v": 3081
  },
  {
    "dt": "2022.10.21 04:00",
    "o": 1.34627,
    "h": 1.34712,
    "l": 1.34619,
    "c": 1.3468,
    "v": 3099
  },
  {
    "dt": "2022.10.21 05:00",
    "o": 1.34685,
    "h": 1.34729,
    "l": 1.34663,
    "c": 1.34707,
    "v": 2398
  },
  {
    "dt": "2022.10.21 06:00",
    "o": 1.34711,
    "h": 1.34725,
    "l": 1.3463,
    "c": 1.34634,
    "v": 2208
  },
  {
    "dt": "2022.10.21 07:00",
    "o": 1.34635,
    "h": 1.34737,
    "l": 1.34602,
    "c": 1.34642,
    "v": 2391
  },
  {
    "dt": "2022.10.21 08:00",
    "o": 1.34645,
    "h": 1.34805,
    "l": 1.34618,
    "c": 1.34796,
    "v": 2630
  },
  {
    "dt": "2022.10.21 09:00",
    "o": 1.34791,
    "h": 1.34811,
    "l": 1.34613,
    "c": 1.34654,
    "v": 3496
  },
  {
    "dt": "2022.10.21 10:00",
    "o": 1.34651,
    "h": 1.35017,
    "l": 1.34623,
    "c": 1.35005,
    "v": 4249
  },
  {
    "dt": "2022.10.21 11:00",
    "o": 1.35007,
    "h": 1.35143,
    "l": 1.3482,
    "c": 1.34832,
    "v": 4196
  },
  {
    "dt": "2022.10.21 12:00",
    "o": 1.34845,
    "h": 1.34926,
    "l": 1.34518,
    "c": 1.34528,
    "v": 4267
  },
  {
    "dt": "2022.10.21 13:00",
    "o": 1.3453,
    "h": 1.34674,
    "l": 1.34468,
    "c": 1.34595,
    "v": 4066
  },
  {
    "dt": "2022.10.21 14:00",
    "o": 1.34593,
    "h": 1.34711,
    "l": 1.34535,
    "c": 1.34628,
    "v": 4025
  },
  {
    "dt": "2022.10.21 15:00",
    "o": 1.34635,
    "h": 1.34877,
    "l": 1.34339,
    "c": 1.34666,
    "v": 4874
  },
  {
    "dt": "2022.10.21 16:00",
    "o": 1.3467,
    "h": 1.34717,
    "l": 1.34353,
    "c": 1.34447,
    "v": 6451
  },
  {
    "dt": "2022.10.21 17:00",
    "o": 1.34452,
    "h": 1.34826,
    "l": 1.34351,
    "c": 1.34667,
    "v": 6421
  },
  {
    "dt": "2022.10.21 18:00",
    "o": 1.34671,
    "h": 1.3483,
    "l": 1.34349,
    "c": 1.34754,
    "v": 6455
  },
  {
    "dt": "2022.10.21 19:00",
    "o": 1.34745,
    "h": 1.34899,
    "l": 1.34441,
    "c": 1.34448,
    "v": 6073
  },
  {
    "dt": "2022.10.21 20:00",
    "o": 1.34446,
    "h": 1.34502,
    "l": 1.34321,
    "c": 1.34339,
    "v": 5070
  },
  {
    "dt": "2022.10.21 21:00",
    "o": 1.3434,
    "h": 1.3458,
    "l": 1.34273,
    "c": 1.34472,
    "v": 4730
  },
  {
    "dt": "2022.10.21 22:00",
    "o": 1.34479,
    "h": 1.34559,
    "l": 1.34405,
    "c": 1.3449,
    "v": 4632
  },
  {
    "dt": "2022.10.21 23:00",
    "o": 1.34489,
    "h": 1.34582,
    "l": 1.34443,
    "c": 1.34503,
    "v": 2802
  },
  {
    "dt": "2022.10.24 00:00",
    "o": 1.34557,
    "h": 1.3466,
    "l": 1.34441,
    "c": 1.34656,
    "v": 263
  },
  {
    "dt": "2022.10.24 01:00",
    "o": 1.3454,
    "h": 1.34743,
    "l": 1.34389,
    "c": 1.34418,
    "v": 4020
  },
  {
    "dt": "2022.10.24 02:00",
    "o": 1.34415,
    "h": 1.3463,
    "l": 1.34299,
    "c": 1.34545,
    "v": 4584
  },
  {
    "dt": "2022.10.24 03:00",
    "o": 1.3455,
    "h": 1.34718,
    "l": 1.34538,
    "c": 1.34619,
    "v": 4720
  },
  {
    "dt": "2022.10.24 04:00",
    "o": 1.34618,
    "h": 1.3464,
    "l": 1.34399,
    "c": 1.34466,
    "v": 4357
  },
  {
    "dt": "2022.10.24 05:00",
    "o": 1.3447,
    "h": 1.34613,
    "l": 1.34451,
    "c": 1.34603,
    "v": 3422
  },
  {
    "dt": "2022.10.24 06:00",
    "o": 1.34597,
    "h": 1.34664,
    "l": 1.34542,
    "c": 1.34649,
    "v": 2740
  },
  {
    "dt": "2022.10.24 07:00",
    "o": 1.3465,
    "h": 1.34713,
    "l": 1.3463,
    "c": 1.34697,
    "v": 2705
  },
  {
    "dt": "2022.10.24 08:00",
    "o": 1.347,
    "h": 1.34844,
    "l": 1.34692,
    "c": 1.34806,
    "v": 3629
  },
  {
    "dt": "2022.10.24 09:00",
    "o": 1.34802,
    "h": 1.34932,
    "l": 1.34636,
    "c": 1.34775,
    "v": 5212
  },
  {
    "dt": "2022.10.24 10:00",
    "o": 1.34775,
    "h": 1.35027,
    "l": 1.34747,
    "c": 1.34825,
    "v": 5672
  },
  {
    "dt": "2022.10.24 11:00",
    "o": 1.34827,
    "h": 1.35101,
    "l": 1.34744,
    "c": 1.3502,
    "v": 5589
  },
  {
    "dt": "2022.10.24 12:00",
    "o": 1.35018,
    "h": 1.35074,
    "l": 1.34779,
    "c": 1.34843,
    "v": 5092
  },
  {
    "dt": "2022.10.24 13:00",
    "o": 1.3484,
    "h": 1.34902,
    "l": 1.34677,
    "c": 1.34704,
    "v": 5041
  },
  {
    "dt": "2022.10.24 14:00",
    "o": 1.34705,
    "h": 1.34876,
    "l": 1.34591,
    "c": 1.34801,
    "v": 5364
  },
  {
    "dt": "2022.10.24 15:00",
    "o": 1.34796,
    "h": 1.35198,
    "l": 1.34776,
    "c": 1.35002,
    "v": 5777
  },
  {
    "dt": "2022.10.24 16:00",
    "o": 1.35002,
    "h": 1.35397,
    "l": 1.34776,
    "c": 1.35363,
    "v": 6135
  },
  {
    "dt": "2022.10.24 17:00",
    "o": 1.35371,
    "h": 1.35821,
    "l": 1.35361,
    "c": 1.35659,
    "v": 6431
  },
  {
    "dt": "2022.10.24 18:00",
    "o": 1.35662,
    "h": 1.35697,
    "l": 1.3529,
    "c": 1.35297,
    "v": 6046
  },
  {
    "dt": "2022.10.24 19:00",
    "o": 1.35289,
    "h": 1.35444,
    "l": 1.35262,
    "c": 1.35375,
    "v": 5256
  },
  {
    "dt": "2022.10.24 20:00",
    "o": 1.35372,
    "h": 1.35619,
    "l": 1.35361,
    "c": 1.3558,
    "v": 4141
  },
  {
    "dt": "2022.10.24 21:00",
    "o": 1.35576,
    "h": 1.35647,
    "l": 1.35432,
    "c": 1.35444,
    "v": 4000
  },
  {
    "dt": "2022.10.24 22:00",
    "o": 1.35438,
    "h": 1.35506,
    "l": 1.35371,
    "c": 1.35391,
    "v": 3730
  },
  {
    "dt": "2022.10.24 23:00",
    "o": 1.35381,
    "h": 1.35416,
    "l": 1.35268,
    "c": 1.35309,
    "v": 2307
  },
  {
    "dt": "2022.10.25 00:00",
    "o": 1.35309,
    "h": 1.35426,
    "l": 1.35224,
    "c": 1.35269,
    "v": 168
  },
  {
    "dt": "2022.10.25 01:00",
    "o": 1.35264,
    "h": 1.35404,
    "l": 1.35264,
    "c": 1.35377,
    "v": 1966
  },
  {
    "dt": "2022.10.25 02:00",
    "o": 1.35376,
    "h": 1.35441,
    "l": 1.35315,
    "c": 1.3538,
    "v": 1833
  },
  {
    "dt": "2022.10.25 03:00",
    "o": 1.3538,
    "h": 1.35416,
    "l": 1.3529,
    "c": 1.35412,
    "v": 3959
  },
  {
    "dt": "2022.10.25 04:00",
    "o": 1.35413,
    "h": 1.35535,
    "l": 1.35384,
    "c": 1.35441,
    "v": 4946
  },
  {
    "dt": "2022.10.25 05:00",
    "o": 1.35443,
    "h": 1.35511,
    "l": 1.35435,
    "c": 1.35439,
    "v": 3526
  },
  {
    "dt": "2022.10.25 06:00",
    "o": 1.35436,
    "h": 1.35452,
    "l": 1.35347,
    "c": 1.35356,
    "v": 3241
  },
  {
    "dt": "2022.10.25 07:00",
    "o": 1.35361,
    "h": 1.35398,
    "l": 1.35349,
    "c": 1.35372,
    "v": 1760
  },
  {
    "dt": "2022.10.25 08:00",
    "o": 1.35374,
    "h": 1.35418,
    "l": 1.35298,
    "c": 1.35328,
    "v": 3253
  },
  {
    "dt": "2022.10.25 09:00",
    "o": 1.35324,
    "h": 1.35355,
    "l": 1.35098,
    "c": 1.3514,
    "v": 4120
  },
  {
    "dt": "2022.10.25 10:00",
    "o": 1.35142,
    "h": 1.35284,
    "l": 1.35134,
    "c": 1.35162,
    "v": 4998
  },
  {
    "dt": "2022.10.25 11:00",
    "o": 1.3516,
    "h": 1.35381,
    "l": 1.35139,
    "c": 1.35219,
    "v": 4509
  },
  {
    "dt": "2022.10.25 12:00",
    "o": 1.35213,
    "h": 1.35664,
    "l": 1.35198,
    "c": 1.35456,
    "v": 4587
  },
  {
    "dt": "2022.10.25 13:00",
    "o": 1.3546,
    "h": 1.35573,
    "l": 1.35387,
    "c": 1.35441,
    "v": 4137
  },
  {
    "dt": "2022.10.25 14:00",
    "o": 1.35444,
    "h": 1.35486,
    "l": 1.35352,
    "c": 1.35484,
    "v": 4484
  },
  {
    "dt": "2022.10.25 15:00",
    "o": 1.35476,
    "h": 1.35476,
    "l": 1.35239,
    "c": 1.35326,
    "v": 4944
  },
  {
    "dt": "2022.10.25 16:00",
    "o": 1.35326,
    "h": 1.35776,
    "l": 1.3531,
    "c": 1.35761,
    "v": 6112
  },
  {
    "dt": "2022.10.25 17:00",
    "o": 1.35767,
    "h": 1.35935,
    "l": 1.35455,
    "c": 1.35615,
    "v": 5492
  },
  {
    "dt": "2022.10.25 18:00",
    "o": 1.35614,
    "h": 1.35776,
    "l": 1.35551,
    "c": 1.35571,
    "v": 5393
  },
  {
    "dt": "2022.10.25 19:00",
    "o": 1.35569,
    "h": 1.35768,
    "l": 1.35558,
    "c": 1.35715,
    "v": 4748
  },
  {
    "dt": "2022.10.25 20:00",
    "o": 1.35713,
    "h": 1.35827,
    "l": 1.3566,
    "c": 1.35823,
    "v": 4779
  },
  {
    "dt": "2022.10.25 21:00",
    "o": 1.35806,
    "h": 1.3583,
    "l": 1.3558,
    "c": 1.35627,
    "v": 3867
  },
  {
    "dt": "2022.10.25 22:00",
    "o": 1.35624,
    "h": 1.35669,
    "l": 1.35545,
    "c": 1.35567,
    "v": 3649
  },
  {
    "dt": "2022.10.25 23:00",
    "o": 1.35571,
    "h": 1.35631,
    "l": 1.35526,
    "c": 1.35618,
    "v": 2643
  },
  {
    "dt": "2022.10.26 00:00",
    "o": 1.35605,
    "h": 1.35633,
    "l": 1.35528,
    "c": 1.35614,
    "v": 233
  },
  {
    "dt": "2022.10.26 01:00",
    "o": 1.35614,
    "h": 1.35698,
    "l": 1.35584,
    "c": 1.35693,
    "v": 2473
  },
  {
    "dt": "2022.10.26 02:00",
    "o": 1.35692,
    "h": 1.35747,
    "l": 1.35645,
    "c": 1.35661,
    "v": 2242
  },
  {
    "dt": "2022.10.26 03:00",
    "o": 1.3566,
    "h": 1.35684,
    "l": 1.35563,
    "c": 1.35627,
    "v": 3468
  },
  {
    "dt": "2022.10.26 04:00",
    "o": 1.35628,
    "h": 1.35636,
    "l": 1.35406,
    "c": 1.35445,
    "v": 3925
  },
  {
    "dt": "2022.10.26 05:00",
    "o": 1.35444,
    "h": 1.35472,
    "l": 1.354,
    "c": 1.35416,
    "v": 3031
  },
  {
    "dt": "2022.10.26 06:00",
    "o": 1.35414,
    "h": 1.35484,
    "l": 1.35376,
    "c": 1.35383,
    "v": 2731
  },
  {
    "dt": "2022.10.26 07:00",
    "o": 1.35383,
    "h": 1.35437,
    "l": 1.35338,
    "c": 1.35399,
    "v": 2241
  },
  {
    "dt": "2022.10.26 08:00",
    "o": 1.354,
    "h": 1.35545,
    "l": 1.35394,
    "c": 1.35485,
    "v": 3419
  },
  {
    "dt": "2022.10.26 09:00",
    "o": 1.35492,
    "h": 1.35613,
    "l": 1.35489,
    "c": 1.35588,
    "v": 4637
  },
  {
    "dt": "2022.10.26 10:00",
    "o": 1.35589,
    "h": 1.35917,
    "l": 1.35507,
    "c": 1.35916,
    "v": 5424
  },
  {
    "dt": "2022.10.26 11:00",
    "o": 1.35914,
    "h": 1.35928,
    "l": 1.35643,
    "c": 1.35703,
    "v": 5559
  },
  {
    "dt": "2022.10.26 12:00",
    "o": 1.357,
    "h": 1.3589,
    "l": 1.35662,
    "c": 1.35887,
    "v": 4669
  },
  {
    "dt": "2022.10.26 13:00",
    "o": 1.35887,
    "h": 1.3599,
    "l": 1.35662,
    "c": 1.35758,
    "v": 4833
  },
  {
    "dt": "2022.10.26 14:00",
    "o": 1.35764,
    "h": 1.35783,
    "l": 1.35418,
    "c": 1.35697,
    "v": 4986
  },
  {
    "dt": "2022.10.26 15:00",
    "o": 1.35706,
    "h": 1.35773,
    "l": 1.35549,
    "c": 1.35704,
    "v": 5692
  },
  {
    "dt": "2022.10.26 16:00",
    "o": 1.3571,
    "h": 1.36201,
    "l": 1.35672,
    "c": 1.35966,
    "v": 5958
  },
  {
    "dt": "2022.10.26 17:00",
    "o": 1.36564,
    "h": 1.36948,
    "l": 1.36206,
    "c": 1.36223,
    "v": 6241
  },
  {
    "dt": "2022.10.26 18:00",
    "o": 1.36225,
    "h": 1.36607,
    "l": 1.36111,
    "c": 1.3641,
    "v": 5437
  },
  {
    "dt": "2022.10.26 19:00",
    "o": 1.36405,
    "h": 1.36666,
    "l": 1.36319,
    "c": 1.36641,
    "v": 4879
  },
  {
    "dt": "2022.10.26 20:00",
    "o": 1.3664,
    "h": 1.36816,
    "l": 1.36578,
    "c": 1.36642,
    "v": 5044
  },
  {
    "dt": "2022.10.26 21:00",
    "o": 1.36643,
    "h": 1.36743,
    "l": 1.36632,
    "c": 1.36725,
    "v": 4005
  },
  {
    "dt": "2022.10.26 22:00",
    "o": 1.36724,
    "h": 1.36813,
    "l": 1.36661,
    "c": 1.367,
    "v": 4119
  },
  {
    "dt": "2022.10.26 23:00",
    "o": 1.36705,
    "h": 1.36726,
    "l": 1.36601,
    "c": 1.36669,
    "v": 2994
  },
  {
    "dt": "2022.10.27 00:00",
    "o": 1.36648,
    "h": 1.36707,
    "l": 1.36526,
    "c": 1.36655,
    "v": 353
  },
  {
    "dt": "2022.10.27 01:00",
    "o": 1.36649,
    "h": 1.36739,
    "l": 1.36598,
    "c": 1.36707,
    "v": 2010
  },
  {
    "dt": "2022.10.27 02:00",
    "o": 1.36704,
    "h": 1.36802,
    "l": 1.36692,
    "c": 1.36761,
    "v": 1648
  },
  {
    "dt": "2022.10.27 03:00",
    "o": 1.36762,
    "h": 1.36784,
    "l": 1.36671,
    "c": 1.36717,
    "v": 3377
  },
  {
    "dt": "2022.10.27 04:00",
    "o": 1.36715,
    "h": 1.36715,
    "l": 1.36596,
    "c": 1.36632,
    "v": 3712
  },
  {
    "dt": "2022.10.27 05:00",
    "o": 1.3663,
    "h": 1.36661,
    "l": 1.36554,
    "c": 1.36575,
    "v": 3561
  },
  {
    "dt": "2022.10.27 06:00",
    "o": 1.36574,
    "h": 1.36595,
    "l": 1.36502,
    "c": 1.36509,
    "v": 2787
  },
  {
    "dt": "2022.10.27 07:00",
    "o": 1.36508,
    "h": 1.36533,
    "l": 1.36416,
    "c": 1.3643,
    "v": 2227
  },
  {
    "dt": "2022.10.27 08:00",
    "o": 1.36431,
    "h": 1.36577,
    "l": 1.36426,
    "c": 1.36486,
    "v": 3377
  },
  {
    "dt": "2022.10.27 09:00",
    "o": 1.36489,
    "h": 1.36582,
    "l": 1.36422,
    "c": 1.36559,
    "v": 4637
  },
  {
    "dt": "2022.10.27 10:00",
    "o": 1.36567,
    "h": 1.36798,
    "l": 1.36567,
    "c": 1.367,
    "v": 5217
  },
  {
    "dt": "2022.10.27 11:00",
    "o": 1.36697,
    "h": 1.36717,
    "l": 1.36568,
    "c": 1.36595,
    "v": 5031
  },
  {
    "dt": "2022.10.27 12:00",
    "o": 1.36593,
    "h": 1.36643,
    "l": 1.36416,
    "c": 1.3653,
    "v": 4584
  },
  {
    "dt": "2022.10.27 13:00",
    "o": 1.36531,
    "h": 1.36613,
    "l": 1.36486,
    "c": 1.36546,
    "v": 4632
  },
  {
    "dt": "2022.10.27 14:00",
    "o": 1.36548,
    "h": 1.36846,
    "l": 1.36514,
    "c": 1.36837,
    "v": 4767
  },
  {
    "dt": "2022.10.27 15:00",
    "o": 1.36834,
    "h": 1.36862,
    "l": 1.35868,
    "c": 1.35909,
    "v": 6171
  },
  {
    "dt": "2022.10.27 16:00",
    "o": 1.35915,
    "h": 1.36002,
    "l": 1.35245,
    "c": 1.35454,
    "v": 6376
  },
  {
    "dt": "2022.10.27 17:00",
    "o": 1.35459,
    "h": 1.35642,
    "l": 1.35068,
    "c": 1.35149,
    "v": 6301
  },
  {
    "dt": "2022.10.27 18:00",
    "o": 1.35146,
    "h": 1.35333,
    "l": 1.35017,
    "c": 1.35098,
    "v": 6013
  },
  {
    "dt": "2022.10.27 19:00",
    "o": 1.35099,
    "h": 1.35206,
    "l": 1.35029,
    "c": 1.35088,
    "v": 5105
  },
  {
    "dt": "2022.10.27 20:00",
    "o": 1.35087,
    "h": 1.35183,
    "l": 1.35009,
    "c": 1.35058,
    "v": 4576
  },
  {
    "dt": "2022.10.27 21:00",
    "o": 1.35059,
    "h": 1.35142,
    "l": 1.34968,
    "c": 1.35131,
    "v": 3601
  },
  {
    "dt": "2022.10.27 22:00",
    "o": 1.35129,
    "h": 1.35188,
    "l": 1.35083,
    "c": 1.35168,
    "v": 4469
  },
  {
    "dt": "2022.10.27 23:00",
    "o": 1.35167,
    "h": 1.35283,
    "l": 1.35148,
    "c": 1.35174,
    "v": 4458
  },
  {
    "dt": "2022.10.28 00:00",
    "o": 1.35132,
    "h": 1.35208,
    "l": 1.35078,
    "c": 1.35177,
    "v": 160
  },
  {
    "dt": "2022.10.28 01:00",
    "o": 1.35174,
    "h": 1.35233,
    "l": 1.35143,
    "c": 1.35186,
    "v": 1935
  },
  {
    "dt": "2022.10.28 02:00",
    "o": 1.35185,
    "h": 1.35207,
    "l": 1.35157,
    "c": 1.35178,
    "v": 1869
  },
  {
    "dt": "2022.10.28 03:00",
    "o": 1.3518,
    "h": 1.35181,
    "l": 1.35048,
    "c": 1.35149,
    "v": 3333
  },
  {
    "dt": "2022.10.28 04:00",
    "o": 1.35147,
    "h": 1.35303,
    "l": 1.35133,
    "c": 1.3526,
    "v": 3964
  },
  {
    "dt": "2022.10.28 05:00",
    "o": 1.35265,
    "h": 1.35303,
    "l": 1.3513,
    "c": 1.35141,
    "v": 3991
  },
  {
    "dt": "2022.10.28 06:00",
    "o": 1.35142,
    "h": 1.35196,
    "l": 1.35095,
    "c": 1.35176,
    "v": 2982
  },
  {
    "dt": "2022.10.28 07:00",
    "o": 1.35177,
    "h": 1.3518,
    "l": 1.35076,
    "c": 1.35137,
    "v": 2626
  },
  {
    "dt": "2022.10.28 08:00",
    "o": 1.3514,
    "h": 1.3533,
    "l": 1.35131,
    "c": 1.35261,
    "v": 3672
  },
  {
    "dt": "2022.10.28 09:00",
    "o": 1.35259,
    "h": 1.35488,
    "l": 1.35257,
    "c": 1.35407,
    "v": 4887
  },
  {
    "dt": "2022.10.28 10:00",
    "o": 1.35386,
    "h": 1.35525,
    "l": 1.35164,
    "c": 1.35322,
    "v": 5389
  },
  {
    "dt": "2022.10.28 11:00",
    "o": 1.35328,
    "h": 1.35375,
    "l": 1.3515,
    "c": 1.35287,
    "v": 5214
  },
  {
    "dt": "2022.10.28 12:00",
    "o": 1.35286,
    "h": 1.3574,
    "l": 1.35283,
    "c": 1.35488,
    "v": 5035
  },
  {
    "dt": "2022.10.28 13:00",
    "o": 1.35484,
    "h": 1.35529,
    "l": 1.35174,
    "c": 1.35346,
    "v": 4161
  },
  {
    "dt": "2022.10.28 14:00",
    "o": 1.35351,
    "h": 1.3562,
    "l": 1.35334,
    "c": 1.35452,
    "v": 4937
  },
  {
    "dt": "2022.10.28 15:00",
    "o": 1.35464,
    "h": 1.35795,
    "l": 1.35316,
    "c": 1.3574,
    "v": 5834
  },
  {
    "dt": "2022.10.28 16:00",
    "o": 1.35742,
    "h": 1.35937,
    "l": 1.35492,
    "c": 1.35581,
    "v": 6144
  },
  {
    "dt": "2022.10.28 17:00",
    "o": 1.35576,
    "h": 1.3566,
    "l": 1.35342,
    "c": 1.35427,
    "v": 6167
  },
  {
    "dt": "2022.10.28 18:00",
    "o": 1.35429,
    "h": 1.35508,
    "l": 1.3528,
    "c": 1.35309,
    "v": 5510
  },
  {
    "dt": "2022.10.28 19:00",
    "o": 1.3531,
    "h": 1.35391,
    "l": 1.35257,
    "c": 1.35377,
    "v": 4264
  },
  {
    "dt": "2022.10.28 20:00",
    "o": 1.35377,
    "h": 1.35488,
    "l": 1.35346,
    "c": 1.35391,
    "v": 3330
  },
  {
    "dt": "2022.10.28 21:00",
    "o": 1.35391,
    "h": 1.35479,
    "l": 1.35354,
    "c": 1.35455,
    "v": 3763
  },
  {
    "dt": "2022.10.28 22:00",
    "o": 1.35455,
    "h": 1.3559,
    "l": 1.35422,
    "c": 1.35583,
    "v": 3743
  },
  {
    "dt": "2022.10.28 23:00",
    "o": 1.35583,
    "h": 1.3562,
    "l": 1.35474,
    "c": 1.35579,
    "v": 2558
  },
  {
    "dt": "2022.10.31 00:00",
    "o": 1.35438,
    "h": 1.35586,
    "l": 1.35404,
    "c": 1.35537,
    "v": 101
  },
  {
    "dt": "2022.10.31 01:00",
    "o": 1.35507,
    "h": 1.3557,
    "l": 1.35407,
    "c": 1.35522,
    "v": 3021
  },
  {
    "dt": "2022.10.31 02:00",
    "o": 1.35519,
    "h": 1.35525,
    "l": 1.35454,
    "c": 1.35456,
    "v": 2479
  },
  {
    "dt": "2022.10.31 03:00",
    "o": 1.35456,
    "h": 1.35597,
    "l": 1.35435,
    "c": 1.35593,
    "v": 2998
  },
  {
    "dt": "2022.10.31 04:00",
    "o": 1.35593,
    "h": 1.35627,
    "l": 1.354,
    "c": 1.35421,
    "v": 3011
  },
  {
    "dt": "2022.10.31 05:00",
    "o": 1.35416,
    "h": 1.35554,
    "l": 1.35399,
    "c": 1.35554,
    "v": 2514
  },
  {
    "dt": "2022.10.31 06:00",
    "o": 1.35554,
    "h": 1.35623,
    "l": 1.35519,
    "c": 1.35612,
    "v": 2325
  },
  {
    "dt": "2022.10.31 07:00",
    "o": 1.35607,
    "h": 1.35613,
    "l": 1.35552,
    "c": 1.3561,
    "v": 1795
  },
  {
    "dt": "2022.10.31 08:00",
    "o": 1.35603,
    "h": 1.35619,
    "l": 1.35473,
    "c": 1.35506,
    "v": 2435
  },
  {
    "dt": "2022.10.31 09:00",
    "o": 1.35503,
    "h": 1.35535,
    "l": 1.35371,
    "c": 1.35501,
    "v": 3249
  },
  {
    "dt": "2022.10.31 10:00",
    "o": 1.35501,
    "h": 1.35544,
    "l": 1.35286,
    "c": 1.35324,
    "v": 3876
  },
  {
    "dt": "2022.10.31 11:00",
    "o": 1.35322,
    "h": 1.35476,
    "l": 1.35304,
    "c": 1.35404,
    "v": 4521
  },
  {
    "dt": "2022.10.31 12:00",
    "o": 1.35408,
    "h": 1.35708,
    "l": 1.35301,
    "c": 1.35672,
    "v": 4179
  },
  {
    "dt": "2022.10.31 13:00",
    "o": 1.35676,
    "h": 1.35784,
    "l": 1.3551,
    "c": 1.35677,
    "v": 4084
  },
  {
    "dt": "2022.10.31 14:00",
    "o": 1.35676,
    "h": 1.35722,
    "l": 1.35521,
    "c": 1.35716,
    "v": 4348
  },
  {
    "dt": "2022.10.31 15:00",
    "o": 1.35716,
    "h": 1.35718,
    "l": 1.35447,
    "c": 1.35504,
    "v": 4993
  },
  {
    "dt": "2022.10.31 16:00",
    "o": 1.35502,
    "h": 1.35579,
    "l": 1.35054,
    "c": 1.35248,
    "v": 5533
  },
  {
    "dt": "2022.10.31 17:00",
    "o": 1.35251,
    "h": 1.35305,
    "l": 1.3493,
    "c": 1.34953,
    "v": 5676
  },
  {
    "dt": "2022.10.31 18:00",
    "o": 1.34955,
    "h": 1.35118,
    "l": 1.34772,
    "c": 1.34789,
    "v": 5491
  },
  {
    "dt": "2022.10.31 19:00",
    "o": 1.34806,
    "h": 1.34911,
    "l": 1.34723,
    "c": 1.34731,
    "v": 5295
  },
  {
    "dt": "2022.10.31 20:00",
    "o": 1.34727,
    "h": 1.3486,
    "l": 1.34703,
    "c": 1.34836,
    "v": 4389
  },
  {
    "dt": "2022.10.31 21:00",
    "o": 1.34833,
    "h": 1.34949,
    "l": 1.34673,
    "c": 1.34736,
    "v": 4325
  },
  {
    "dt": "2022.10.31 22:00",
    "o": 1.34736,
    "h": 1.34737,
    "l": 1.34522,
    "c": 1.34627,
    "v": 4300
  },
  {
    "dt": "2022.10.31 23:00",
    "o": 1.34625,
    "h": 1.34641,
    "l": 1.34561,
    "c": 1.3462,
    "v": 2347
  }
]