[
  {
    "dt": "2020.12.01 00:00",
    "o": 1.19255,
    "h": 1.1934,
    "l": 1.19245,
    "c": 1.19289,
    "v": 695
  },
  {
    "dt": "2020.12.01 01:00",
    "o": 1.19297,
    "h": 1.19378,
    "l": 1.19283,
    "c": 1.19364,
    "v": 1088
  },
  {
    "dt": "2020.12.01 02:00",
    "o": 1.19369,
    "h": 1.19449,
    "l": 1.19345,
    "c": 1.19424,
    "v": 910
  },
  {
    "dt": "2020.12.01 03:00",
    "o": 1.19426,
    "h": 1.19486,
    "l": 1.19399,
    "c": 1.19485,
    "v": 1263
  },
  {
    "dt": "2020.12.01 04:00",
    "o": 1.19486,
    "h": 1.1957,
    "l": 1.19474,
    "c": 1.19552,
    "v": 1359
  },
  {
    "dt": "2020.12.01 05:00",
    "o": 1.19553,
    "h": 1.19586,
    "l": 1.19552,
    "c": 1.19567,
    "v": 1231
  },
  {
    "dt": "2020.12.01 06:00",
    "o": 1.19568,
    "h": 1.1959,
    "l": 1.19552,
    "c": 1.19568,
    "v": 715
  },
  {
    "dt": "2020.12.01 07:00",
    "o": 1.19567,
    "h": 1.19588,
    "l": 1.19544,
    "c": 1.19563,
    "v": 904
  },
  {
    "dt": "2020.12.01 08:00",
    "o": 1.19561,
    "h": 1.19583,
    "l": 1.19539,
    "c": 1.19564,
    "v": 1018
  },
  {
    "dt": "2020.12.01 09:00",
    "o": 1.19565,
    "h": 1.1972,
    "l": 1.19533,
    "c": 1.19678,
    "v": 2267
  },
  {
    "dt": "2020.12.01 10:00",
    "o": 1.19677,
    "h": 1.19847,
    "l": 1.19624,
    "c": 1.1979,
    "v": 2808
  },
  {
    "dt": "2020.12.01 11:00",
    "o": 1.19793,
    "h": 1.19818,
    "l": 1.19711,
    "c": 1.19799,
    "v": 2784
  },
  {
    "dt": "2020.12.01 12:00",
    "o": 1.19799,
    "h": 1.1981,
    "l": 1.1965,
    "c": 1.1968,
    "v": 2154
  },
  {
    "dt": "2020.12.01 13:00",
    "o": 1.19679,
    "h": 1.19701,
    "l": 1.19593,
    "c": 1.19692,
    "v": 2455
  },
  {
    "dt": "2020.12.01 14:00",
    "o": 1.19687,
    "h": 1.1972,
    "l": 1.19635,
    "c": 1.19664,
    "v": 2039
  },
  {
    "dt": "2020.12.01 15:00",
    "o": 1.19664,
    "h": 1.19932,
    "l": 1.19647,
    "c": 1.19912,
    "v": 2623
  },
  {
    "dt": "2020.12.01 16:00",
    "o": 1.19914,
    "h": 1.19998,
    "l": 1.19744,
    "c": 1.19937,
    "v": 3175
  },
  {
    "dt": "2020.12.01 17:00",
    "o": 1.19936,
    "h": 1.20411,
    "l": 1.19834,
    "c": 1.20313,
    "v": 4296
  },
  {
    "dt": "2020.12.01 18:00",
    "o": 1.20306,
    "h": 1.20533,
    "l": 1.20306,
    "c": 1.20369,
    "v": 3676
  },
  {
    "dt": "2020.12.01 19:00",
    "o": 1.2037,
    "h": 1.20508,
    "l": 1.20369,
    "c": 1.20443,
    "v": 2384
  },
  {
    "dt": "2020.12.01 20:00",
    "o": 1.2044,
    "h": 1.20515,
    "l": 1.20424,
    "c": 1.20427,
    "v": 1738
  },
  {
    "dt": "2020.12.01 21:00",
    "o": 1.20428,
    "h": 1.20501,
    "l": 1.20419,
    "c": 1.2047,
    "v": 1572
  },
  {
    "dt": "2020.12.01 22:00",
    "o": 1.20468,
    "h": 1.20744,
    "l": 1.20468,
    "c": 1.20714,
    "v": 1773
  },
  {
    "dt": "2020.12.01 23:00",
    "o": 1.20711,
    "h": 1.20757,
    "l": 1.20666,
    "c": 1.20711,
    "v": 1227
  },
  {
    "dt": "2020.12.02 00:00",
    "o": 1.20655,
    "h": 1.20722,
    "l": 1.20652,
    "c": 1.20707,
    "v": 574
  },
  {
    "dt": "2020.12.02 01:00",
    "o": 1.20707,
    "h": 1.20723,
    "l": 1.20676,
    "c": 1.20698,
    "v": 991
  },
  {
    "dt": "2020.12.02 02:00",
    "o": 1.20699,
    "h": 1.20713,
    "l": 1.20645,
    "c": 1.20658,
    "v": 1085
  },
  {
    "dt": "2020.12.02 03:00",
    "o": 1.20658,
    "h": 1.20692,
    "l": 1.20598,
    "c": 1.20676,
    "v": 1813
  },
  {
    "dt": "2020.12.02 04:00",
    "o": 1.20677,
    "h": 1.20787,
    "l": 1.20673,
    "c": 1.20726,
    "v": 1563
  },
  {
    "dt": "2020.12.02 05:00",
    "o": 1.20727,
    "h": 1.20826,
    "l": 1.20717,
    "c": 1.20815,
    "v": 1202
  },
  {
    "dt": "2020.12.02 06:00",
    "o": 1.20814,
    "h": 1.20823,
    "l": 1.20739,
    "c": 1.20743,
    "v": 1067
  },
  {
    "dt": "2020.12.02 07:00",
    "o": 1.20739,
    "h": 1.20747,
    "l": 1.20657,
    "c": 1.20673,
    "v": 1403
  },
  {
    "dt": "2020.12.02 08:00",
    "o": 1.20674,
    "h": 1.20763,
    "l": 1.20633,
    "c": 1.20643,
    "v": 1264
  },
  {
    "dt": "2020.12.02 09:00",
    "o": 1.20644,
    "h": 1.20867,
    "l": 1.20641,
    "c": 1.20677,
    "v": 2653
  },
  {
    "dt": "2020.12.02 10:00",
    "o": 1.2068,
    "h": 1.20755,
    "l": 1.20457,
    "c": 1.20476,
    "v": 3678
  },
  {
    "dt": "2020.12.02 11:00",
    "o": 1.20475,
    "h": 1.20639,
    "l": 1.20447,
    "c": 1.20527,
    "v": 2799
  },
  {
    "dt": "2020.12.02 12:00",
    "o": 1.20526,
    "h": 1.2061,
    "l": 1.20454,
    "c": 1.20485,
    "v": 2065
  },
  {
    "dt": "2020.12.02 13:00",
    "o": 1.20485,
    "h": 1.20526,
    "l": 1.20415,
    "c": 1.20508,
    "v": 1970
  },
  {
    "dt": "2020.12.02 14:00",
    "o": 1.20509,
    "h": 1.2062,
    "l": 1.20392,
    "c": 1.20588,
    "v": 2927
  },
  {
    "dt": "2020.12.02 15:00",
    "o": 1.20586,
    "h": 1.20778,
    "l": 1.20574,
    "c": 1.20652,
    "v": 3298
  },
  {
    "dt": "2020.12.02 16:00",
    "o": 1.20653,
    "h": 1.20821,
    "l": 1.20594,
    "c": 1.20818,
    "v": 3725
  },
  {
    "dt": "2020.12.02 17:00",
    "o": 1.20817,
    "h": 1.21074,
    "l": 1.20746,
    "c": 1.20776,
    "v": 3886
  },
  {
    "dt": "2020.12.02 18:00",
    "o": 1.20776,
    "h": 1.20951,
    "l": 1.20748,
    "c": 1.2092,
    "v": 2636
  },
  {
    "dt": "2020.12.02 19:00",
    "o": 1.20921,
    "h": 1.20982,
    "l": 1.20872,
    "c": 1.20925,
    "v": 2032
  },
  {
    "dt": "2020.12.02 20:00",
    "o": 1.20926,
    "h": 1.20974,
    "l": 1.20915,
    "c": 1.20923,
    "v": 1405
  },
  {
    "dt": "2020.12.02 21:00",
    "o": 1.20921,
    "h": 1.2102,
    "l": 1.20892,
    "c": 1.20991,
    "v": 1850
  },
  {
    "dt": "2020.12.02 22:00",
    "o": 1.2099,
    "h": 1.21034,
    "l": 1.20953,
    "c": 1.21008,
    "v": 1135
  },
  {
    "dt": "2020.12.02 23:00",
    "o": 1.21016,
    "h": 1.21176,
    "l": 1.2101,
    "c": 1.21132,
    "v": 1373
  },
  {
    "dt": "2020.12.03 00:00",
    "o": 1.2114,
    "h": 1.21146,
    "l": 1.21108,
    "c": 1.21116,
    "v": 653
  },
  {
    "dt": "2020.12.03 01:00",
    "o": 1.21115,
    "h": 1.21145,
    "l": 1.21079,
    "c": 1.21131,
    "v": 727
  },
  {
    "dt": "2020.12.03 02:00",
    "o": 1.21132,
    "h": 1.21136,
    "l": 1.21033,
    "c": 1.21049,
    "v": 1097
  },
  {
    "dt": "2020.12.03 03:00",
    "o": 1.21047,
    "h": 1.21141,
    "l": 1.21035,
    "c": 1.21125,
    "v": 1485
  },
  {
    "dt": "2020.12.03 04:00",
    "o": 1.21125,
    "h": 1.212,
    "l": 1.21111,
    "c": 1.21193,
    "v": 1133
  },
  {
    "dt": "2020.12.03 05:00",
    "o": 1.21195,
    "h": 1.21241,
    "l": 1.21182,
    "c": 1.2123,
    "v": 1213
  },
  {
    "dt": "2020.12.03 06:00",
    "o": 1.2123,
    "h": 1.21236,
    "l": 1.21154,
    "c": 1.21166,
    "v": 1001
  },
  {
    "dt": "2020.12.03 07:00",
    "o": 1.21166,
    "h": 1.21218,
    "l": 1.21158,
    "c": 1.21187,
    "v": 1016
  },
  {
    "dt": "2020.12.03 08:00",
    "o": 1.21186,
    "h": 1.21207,
    "l": 1.21128,
    "c": 1.21174,
    "v": 1350
  },
  {
    "dt": "2020.12.03 09:00",
    "o": 1.21171,
    "h": 1.21247,
    "l": 1.21151,
    "c": 1.2122,
    "v": 2453
  },
  {
    "dt": "2020.12.03 10:00",
    "o": 1.2122,
    "h": 1.21386,
    "l": 1.2114,
    "c": 1.21209,
    "v": 2781
  },
  {
    "dt": "2020.12.03 11:00",
    "o": 1.21208,
    "h": 1.2121,
    "l": 1.21003,
    "c": 1.21108,
    "v": 2623
  },
  {
    "dt": "2020.12.03 12:00",
    "o": 1.21108,
    "h": 1.2118,
    "l": 1.21032,
    "c": 1.21149,
    "v": 2424
  },
  {
    "dt": "2020.12.03 13:00",
    "o": 1.21145,
    "h": 1.2129,
    "l": 1.21105,
    "c": 1.21282,
    "v": 2341
  },
  {
    "dt": "2020.12.03 14:00",
    "o": 1.21282,
    "h": 1.21605,
    "l": 1.21178,
    "c": 1.21545,
    "v": 2801
  },
  {
    "dt": "2020.12.03 15:00",
    "o": 1.21547,
    "h": 1.21558,
    "l": 1.21437,
    "c": 1.21502,
    "v": 3048
  },
  {
    "dt": "2020.12.03 16:00",
    "o": 1.21506,
    "h": 1.21673,
    "l": 1.21438,
    "c": 1.21591,
    "v": 3636
  },
  {
    "dt": "2020.12.03 17:00",
    "o": 1.21594,
    "h": 1.21738,
    "l": 1.21561,
    "c": 1.21603,
    "v": 3437
  },
  {
    "dt": "2020.12.03 18:00",
    "o": 1.21604,
    "h": 1.21623,
    "l": 1.21455,
    "c": 1.21506,
    "v": 2866
  },
  {
    "dt": "2020.12.03 19:00",
    "o": 1.21505,
    "h": 1.21508,
    "l": 1.2137,
    "c": 1.21453,
    "v": 2190
  },
  {
    "dt": "2020.12.03 20:00",
    "o": 1.21453,
    "h": 1.21468,
    "l": 1.21319,
    "c": 1.21386,
    "v": 1753
  },
  {
    "dt": "2020.12.03 21:00",
    "o": 1.21387,
    "h": 1.2143,
    "l": 1.21372,
    "c": 1.21418,
    "v": 1627
  },
  {
    "dt": "2020.12.03 22:00",
    "o": 1.21417,
    "h": 1.21475,
    "l": 1.21327,
    "c": 1.21447,
    "v": 1832
  },
  {
    "dt": "2020.12.03 23:00",
    "o": 1.21448,
    "h": 1.21486,
    "l": 1.21417,
    "c": 1.21471,
    "v": 1048
  },
  {
    "dt": "2020.12.04 00:00",
    "o": 1.21425,
    "h": 1.21457,
    "l": 1.21395,
    "c": 1.21423,
    "v": 435
  },
  {
    "dt": "2020.12.04 01:00",
    "o": 1.21426,
    "h": 1.2149,
    "l": 1.21423,
    "c": 1.21442,
    "v": 765
  },
  {
    "dt": "2020.12.04 02:00",
    "o": 1.21442,
    "h": 1.21529,
    "l": 1.214,
    "c": 1.21489,
    "v": 1145
  },
  {
    "dt": "2020.12.04 03:00",
    "o": 1.21488,
    "h": 1.21521,
    "l": 1.21405,
    "c": 1.21429,
    "v": 1645
  },
  {
    "dt": "2020.12.04 04:00",
    "o": 1.21431,
    "h": 1.21445,
    "l": 1.21381,
    "c": 1.21439,
    "v": 1374
  },
  {
    "dt": "2020.12.04 05:00",
    "o": 1.21439,
    "h": 1.21468,
    "l": 1.2141,
    "c": 1.21445,
    "v": 1049
  },
  {
    "dt": "2020.12.04 06:00",
    "o": 1.21444,
    "h": 1.21465,
    "l": 1.21404,
    "c": 1.21412,
    "v": 954
  },
  {
    "dt": "2020.12.04 07:00",
    "o": 1.21413,
    "h": 1.21504,
    "l": 1.21403,
    "c": 1.21492,
    "v": 1211
  },
  {
    "dt": "2020.12.04 08:00",
    "o": 1.21492,
    "h": 1.21569,
    "l": 1.2147,
    "c": 1.21544,
    "v": 1501
  },
  {
    "dt": "2020.12.04 09:00",
    "o": 1.21545,
    "h": 1.21598,
    "l": 1.21504,
    "c": 1.21525,
    "v": 2265
  },
  {
    "dt": "2020.12.04 10:00",
    "o": 1.21523,
    "h": 1.21655,
    "l": 1.21429,
    "c": 1.21599,
    "v": 2790
  },
  {
    "dt": "2020.12.04 11:00",
    "o": 1.21599,
    "h": 1.21724,
    "l": 1.21589,
    "c": 1.21664,
    "v": 2659
  },
  {
    "dt": "2020.12.04 12:00",
    "o": 1.2166,
    "h": 1.21766,
    "l": 1.2156,
    "c": 1.21744,
    "v": 2732
  },
  {
    "dt": "2020.12.04 13:00",
    "o": 1.21744,
    "h": 1.2175,
    "l": 1.21613,
    "c": 1.21674,
    "v": 2480
  },
  {
    "dt": "2020.12.04 14:00",
    "o": 1.21677,
    "h": 1.21737,
    "l": 1.2156,
    "c": 1.21578,
    "v": 2480
  },
  {
    "dt": "2020.12.04 15:00",
    "o": 1.2158,
    "h": 1.21695,
    "l": 1.21308,
    "c": 1.21449,
    "v": 3656
  },
  {
    "dt": "2020.12.04 16:00",
    "o": 1.2145,
    "h": 1.21711,
    "l": 1.21432,
    "c": 1.21554,
    "v": 3804
  },
  {
    "dt": "2020.12.04 17:00",
    "o": 1.21558,
    "h": 1.21655,
    "l": 1.21348,
    "c": 1.21399,
    "v": 3479
  },
  {
    "dt": "2020.12.04 18:00",
    "o": 1.21394,
    "h": 1.21454,
    "l": 1.21325,
    "c": 1.21404,
    "v": 2190
  },
  {
    "dt": "2020.12.04 19:00",
    "o": 1.21404,
    "h": 1.21497,
    "l": 1.21386,
    "c": 1.21428,
    "v": 1450
  },
  {
    "dt": "2020.12.04 20:00",
    "o": 1.21428,
    "h": 1.21509,
    "l": 1.21404,
    "c": 1.21409,
    "v": 1227
  },
  {
    "dt": "2020.12.04 21:00",
    "o": 1.21411,
    "h": 1.2145,
    "l": 1.21329,
    "c": 1.21366,
    "v": 1421
  },
  {
    "dt": "2020.12.04 22:00",
    "o": 1.21365,
    "h": 1.21395,
    "l": 1.21115,
    "c": 1.21265,
    "v": 1664
  },
  {
    "dt": "2020.12.04 23:00",
    "o": 1.21265,
    "h": 1.2129,
    "l": 1.21093,
    "c": 1.21206,
    "v": 1337
  },
  {
    "dt": "2020.12.07 00:00",
    "o": 1.21303,
    "h": 1.21305,
    "l": 1.21181,
    "c": 1.21256,
    "v": 637
  },
  {
    "dt": "2020.12.07 01:00",
    "o": 1.21264,
    "h": 1.21315,
    "l": 1.21189,
    "c": 1.21193,
    "v": 968
  },
  {
    "dt": "2020.12.07 02:00",
    "o": 1.21192,
    "h": 1.21303,
    "l": 1.2118,
    "c": 1.21269,
    "v": 1435
  },
  {
    "dt": "2020.12.07 03:00",
    "o": 1.21265,
    "h": 1.21353,
    "l": 1.2124,
    "c": 1.21343,
    "v": 1660
  },
  {
    "dt": "2020.12.07 04:00",
    "o": 1.2134,
    "h": 1.21394,
    "l": 1.21318,
    "c": 1.21357,
    "v": 1354
  },
  {
    "dt": "2020.12.07 05:00",
    "o": 1.21356,
    "h": 1.21378,
    "l": 1.21332,
    "c": 1.21336,
    "v": 874
  },
  {
    "dt": "2020.12.07 06:00",
    "o": 1.21333,
    "h": 1.21337,
    "l": 1.21317,
    "c": 1.21321,
    "v": 645
  },
  {
    "dt": "2020.12.07 07:00",
    "o": 1.21318,
    "h": 1.21332,
    "l": 1.21297,
    "c": 1.21309,
    "v": 810
  },
  {
    "dt": "2020.12.07 08:00",
    "o": 1.2131,
    "h": 1.21321,
    "l": 1.21243,
    "c": 1.21284,
    "v": 1316
  },
  {
    "dt": "2020.12.07 09:00",
    "o": 1.21283,
    "h": 1.21284,
    "l": 1.21135,
    "c": 1.21204,
    "v": 2277
  },
  {
    "dt": "2020.12.07 10:00",
    "o": 1.21204,
    "h": 1.21218,
    "l": 1.20899,
    "c": 1.20962,
    "v": 3810
  },
  {
    "dt": "2020.12.07 11:00",
    "o": 1.20963,
    "h": 1.20968,
    "l": 1.20777,
    "c": 1.20923,
    "v": 3022
  },
  {
    "dt": "2020.12.07 12:00",
    "o": 1.20922,
    "h": 1.21124,
    "l": 1.20845,
    "c": 1.21078,
    "v": 2447
  },
  {
    "dt": "2020.12.07 13:00",
    "o": 1.2108,
    "h": 1.21133,
    "l": 1.21026,
    "c": 1.21119,
    "v": 2461
  },
  {
    "dt": "2020.12.07 14:00",
    "o": 1.21123,
    "h": 1.21187,
    "l": 1.2105,
    "c": 1.21178,
    "v": 2419
  },
  {
    "dt": "2020.12.07 15:00",
    "o": 1.21175,
    "h": 1.21387,
    "l": 1.21134,
    "c": 1.21365,
    "v": 3130
  },
  {
    "dt": "2020.12.07 16:00",
    "o": 1.21363,
    "h": 1.21652,
    "l": 1.21312,
    "c": 1.21499,
    "v": 2981
  },
  {
    "dt": "2020.12.07 17:00",
    "o": 1.21498,
    "h": 1.2152,
    "l": 1.21315,
    "c": 1.2132,
    "v": 3003
  },
  {
    "dt": "2020.12.07 18:00",
    "o": 1.21316,
    "h": 1.21411,
    "l": 1.2129,
    "c": 1.21377,
    "v": 2369
  },
  {
    "dt": "2020.12.07 19:00",
    "o": 1.21374,
    "h": 1.2141,
    "l": 1.21292,
    "c": 1.21324,
    "v": 1892
  },
  {
    "dt": "2020.12.07 20:00",
    "o": 1.21323,
    "h": 1.21324,
    "l": 1.2117,
    "c": 1.21241,
    "v": 2404
  },
  {
    "dt": "2020.12.07 21:00",
    "o": 1.21241,
    "h": 1.21287,
    "l": 1.21181,
    "c": 1.21186,
    "v": 1905
  },
  {
    "dt": "2020.12.07 22:00",
    "o": 1.21189,
    "h": 1.21199,
    "l": 1.21075,
    "c": 1.21075,
    "v": 1668
  },
  {
    "dt": "2020.12.07 23:00",
    "o": 1.21075,
    "h": 1.21134,
    "l": 1.21067,
    "c": 1.21083,
    "v": 841
  },
  {
    "dt": "2020.12.08 00:00",
    "o": 1.21065,
    "h": 1.21095,
    "l": 1.21049,
    "c": 1.21094,
    "v": 252
  },
  {
    "dt": "2020.12.08 01:00",
    "o": 1.21094,
    "h": 1.21125,
    "l": 1.21086,
    "c": 1.21086,
    "v": 576
  },
  {
    "dt": "2020.12.08 02:00",
    "o": 1.21086,
    "h": 1.21092,
    "l": 1.21034,
    "c": 1.2107,
    "v": 1022
  },
  {
    "dt": "2020.12.08 03:00",
    "o": 1.2107,
    "h": 1.21104,
    "l": 1.21055,
    "c": 1.21063,
    "v": 1693
  },
  {
    "dt": "2020.12.08 04:00",
    "o": 1.21062,
    "h": 1.21125,
    "l": 1.21044,
    "c": 1.21107,
    "v": 1243
  },
  {
    "dt": "2020.12.08 05:00",
    "o": 1.21108,
    "h": 1.21145,
    "l": 1.21097,
    "c": 1.21136,
    "v": 961
  },
  {
    "dt": "2020.12.08 06:00",
    "o": 1.21134,
    "h": 1.21154,
    "l": 1.21123,
    "c": 1.21136,
    "v": 1059
  },
  {
    "dt": "2020.12.08 07:00",
    "o": 1.21135,
    "h": 1.21186,
    "l": 1.21135,
    "c": 1.21175,
    "v": 844
  },
  {
    "dt": "2020.12.08 08:00",
    "o": 1.21175,
    "h": 1.21224,
    "l": 1.2113,
    "c": 1.21149,
    "v": 1335
  },
  {
    "dt": "2020.12.08 09:00",
    "o": 1.21154,
    "h": 1.21177,
    "l": 1.21065,
    "c": 1.2112,
    "v": 2252
  },
  {
    "dt": "2020.12.08 10:00",
    "o": 1.21124,
    "h": 1.21313,
    "l": 1.20947,
    "c": 1.21242,
    "v": 3247
  },
  {
    "dt": "2020.12.08 11:00",
    "o": 1.21245,
    "h": 1.21332,
    "l": 1.21179,
    "c": 1.21286,
    "v": 2485
  },
  {
    "dt": "2020.12.08 12:00",
    "o": 1.21287,
    "h": 1.2132,
    "l": 1.21128,
    "c": 1.21128,
    "v": 2299
  },
  {
    "dt": "2020.12.08 13:00",
    "o": 1.21128,
    "h": 1.21225,
    "l": 1.21065,
    "c": 1.21068,
    "v": 2448
  },
  {
    "dt": "2020.12.08 14:00",
    "o": 1.2107,
    "h": 1.21254,
    "l": 1.21068,
    "c": 1.21139,
    "v": 2634
  },
  {
    "dt": "2020.12.08 15:00",
    "o": 1.2114,
    "h": 1.21295,
    "l": 1.21115,
    "c": 1.21172,
    "v": 3469
  },
  {
    "dt": "2020.12.08 16:00",
    "o": 1.21173,
    "h": 1.21325,
    "l": 1.21167,
    "c": 1.21234,
    "v": 3560
  },
  {
    "dt": "2020.12.08 17:00",
    "o": 1.21235,
    "h": 1.2128,
    "l": 1.20993,
    "c": 1.21127,
    "v": 3649
  },
  {
    "dt": "2020.12.08 18:00",
    "o": 1.2113,
    "h": 1.21151,
    "l": 1.21029,
    "c": 1.211,
    "v": 2285
  },
  {
    "dt": "2020.12.08 19:00",
    "o": 1.21101,
    "h": 1.21155,
    "l": 1.21063,
    "c": 1.21144,
    "v": 1617
  },
  {
    "dt": "2020.12.08 20:00",
    "o": 1.21143,
    "h": 1.21165,
    "l": 1.21004,
    "c": 1.21013,
    "v": 1567
  },
  {
    "dt": "2020.12.08 21:00",
    "o": 1.21017,
    "h": 1.21074,
    "l": 1.21003,
    "c": 1.21031,
    "v": 1287
  },
  {
    "dt": "2020.12.08 22:00",
    "o": 1.2103,
    "h": 1.2106,
    "l": 1.20993,
    "c": 1.21059,
    "v": 1290
  },
  {
    "dt": "2020.12.08 23:00",
    "o": 1.21059,
    "h": 1.21068,
    "l": 1.21024,
    "c": 1.21038,
    "v": 962
  },
  {
    "dt": "2020.12.09 00:00",
    "o": 1.21025,
    "h": 1.21049,
    "l": 1.20995,
    "c": 1.21038,
    "v": 328
  },
  {
    "dt": "2020.12.09 01:00",
    "o": 1.21049,
    "h": 1.21092,
    "l": 1.21028,
    "c": 1.21086,
    "v": 662
  },
  {
    "dt": "2020.12.09 02:00",
    "o": 1.21087,
    "h": 1.21138,
    "l": 1.21063,
    "c": 1.21107,
    "v": 1126
  },
  {
    "dt": "2020.12.09 03:00",
    "o": 1.21108,
    "h": 1.21123,
    "l": 1.21071,
    "c": 1.21104,
    "v": 1174
  },
  {
    "dt": "2020.12.09 04:00",
    "o": 1.21105,
    "h": 1.21188,
    "l": 1.21096,
    "c": 1.21187,
    "v": 1137
  },
  {
    "dt": "2020.12.09 05:00",
    "o": 1.21191,
    "h": 1.21228,
    "l": 1.21166,
    "c": 1.21204,
    "v": 1138
  },
  {
    "dt": "2020.12.09 06:00",
    "o": 1.21203,
    "h": 1.21286,
    "l": 1.21202,
    "c": 1.2128,
    "v": 1082
  },
  {
    "dt": "2020.12.09 07:00",
    "o": 1.21278,
    "h": 1.21303,
    "l": 1.2125,
    "c": 1.21303,
    "v": 906
  },
  {
    "dt": "2020.12.09 08:00",
    "o": 1.21302,
    "h": 1.21464,
    "l": 1.21302,
    "c": 1.21377,
    "v": 1591
  },
  {
    "dt": "2020.12.09 09:00",
    "o": 1.21378,
    "h": 1.21407,
    "l": 1.21261,
    "c": 1.21284,
    "v": 1891
  },
  {
    "dt": "2020.12.09 10:00",
    "o": 1.21286,
    "h": 1.21364,
    "l": 1.21242,
    "c": 1.21356,
    "v": 2961
  },
  {
    "dt": "2020.12.09 11:00",
    "o": 1.21355,
    "h": 1.21355,
    "l": 1.21193,
    "c": 1.21248,
    "v": 2333
  },
  {
    "dt": "2020.12.09 12:00",
    "o": 1.21246,
    "h": 1.21356,
    "l": 1.21183,
    "c": 1.21205,
    "v": 2559
  },
  {
    "dt": "2020.12.09 13:00",
    "o": 1.21202,
    "h": 1.2128,
    "l": 1.21072,
    "c": 1.21122,
    "v": 2258
  },
  {
    "dt": "2020.12.09 14:00",
    "o": 1.21121,
    "h": 1.21181,
    "l": 1.21003,
    "c": 1.21089,
    "v": 2413
  },
  {
    "dt": "2020.12.09 15:00",
    "o": 1.2109,
    "h": 1.212,
    "l": 1.21017,
    "c": 1.21198,
    "v": 2292
  },
  {
    "dt": "2020.12.09 16:00",
    "o": 1.21194,
    "h": 1.21229,
    "l": 1.20951,
    "c": 1.20982,
    "v": 3316
  },
  {
    "dt": "2020.12.09 17:00",
    "o": 1.20982,
    "h": 1.21035,
    "l": 1.20769,
    "c": 1.20825,
    "v": 3676
  },
  {
    "dt": "2020.12.09 18:00",
    "o": 1.20823,
    "h": 1.20823,
    "l": 1.20717,
    "c": 1.2079,
    "v": 2855
  },
  {
    "dt": "2020.12.09 19:00",
    "o": 1.20792,
    "h": 1.20842,
    "l": 1.20581,
    "c": 1.20716,
    "v": 2631
  },
  {
    "dt": "2020.12.09 20:00",
    "o": 1.20717,
    "h": 1.20727,
    "l": 1.20601,
    "c": 1.2061,
    "v": 2304
  },
  {
    "dt": "2020.12.09 21:00",
    "o": 1.20609,
    "h": 1.20725,
    "l": 1.20608,
    "c": 1.20721,
    "v": 1819
  },
  {
    "dt": "2020.12.09 22:00",
    "o": 1.20721,
    "h": 1.20814,
    "l": 1.20697,
    "c": 1.20791,
    "v": 1755
  },
  {
    "dt": "2020.12.09 23:00",
    "o": 1.20789,
    "h": 1.2083,
    "l": 1.20789,
    "c": 1.20806,
    "v": 994
  },
  {
    "dt": "2020.12.10 00:00",
    "o": 1.20793,
    "h": 1.20808,
    "l": 1.20732,
    "c": 1.20791,
    "v": 556
  },
  {
    "dt": "2020.12.10 01:00",
    "o": 1.2079,
    "h": 1.20806,
    "l": 1.2075,
    "c": 1.20775,
    "v": 584
  },
  {
    "dt": "2020.12.10 02:00",
    "o": 1.20777,
    "h": 1.20836,
    "l": 1.20777,
    "c": 1.20811,
    "v": 1198
  },
  {
    "dt": "2020.12.10 03:00",
    "o": 1.20808,
    "h": 1.20833,
    "l": 1.20788,
    "c": 1.20809,
    "v": 1447
  },
  {
    "dt": "2020.12.10 04:00",
    "o": 1.20809,
    "h": 1.20905,
    "l": 1.20802,
    "c": 1.20883,
    "v": 1438
  },
  {
    "dt": "2020.12.10 05:00",
    "o": 1.20888,
    "h": 1.20946,
    "l": 1.20868,
    "c": 1.20928,
    "v": 1225
  },
  {
    "dt": "2020.12.10 06:00",
    "o": 1.20926,
    "h": 1.20997,
    "l": 1.20925,
    "c": 1.20984,
    "v": 1055
  },
  {
    "dt": "2020.12.10 07:00",
    "o": 1.20984,
    "h": 1.20984,
    "l": 1.20922,
    "c": 1.20953,
    "v": 1019
  },
  {
    "dt": "2020.12.10 08:00",
    "o": 1.20953,
    "h": 1.20956,
    "l": 1.20858,
    "c": 1.2087,
    "v": 1216
  },
  {
    "dt": "2020.12.10 09:00",
    "o": 1.20869,
    "h": 1.20975,
    "l": 1.20849,
    "c": 1.20895,
    "v": 2431
  },
  {
    "dt": "2020.12.10 10:00",
    "o": 1.20896,
    "h": 1.20986,
    "l": 1.2085,
    "c": 1.20901,
    "v": 2855
  },
  {
    "dt": "2020.12.10 11:00",
    "o": 1.209,
    "h": 1.21079,
    "l": 1.20825,
    "c": 1.21051,
    "v": 2541
  },
  {
    "dt": "2020.12.10 12:00",
    "o": 1.21054,
    "h": 1.21079,
    "l": 1.20961,
    "c": 1.20964,
    "v": 2003
  },
  {
    "dt": "2020.12.10 13:00",
    "o": 1.20963,
    "h": 1.20983,
    "l": 1.20843,
    "c": 1.20891,
    "v": 1975
  },
  {
    "dt": "2020.12.10 14:00",
    "o": 1.20889,
    "h": 1.21176,
    "l": 1.20804,
    "c": 1.21103,
    "v": 3113
  },
  {
    "dt": "2020.12.10 15:00",
    "o": 1.21102,
    "h": 1.21344,
    "l": 1.21027,
    "c": 1.2125,
    "v": 4348
  },
  {
    "dt": "2020.12.10 16:00",
    "o": 1.21251,
    "h": 1.21541,
    "l": 1.20957,
    "c": 1.21516,
    "v": 4660
  },
  {
    "dt": "2020.12.10 17:00",
    "o": 1.21514,
    "h": 1.21581,
    "l": 1.21204,
    "c": 1.21319,
    "v": 4074
  },
  {
    "dt": "2020.12.10 18:00",
    "o": 1.21324,
    "h": 1.21339,
    "l": 1.21099,
    "c": 1.21159,
    "v": 2998
  },
  {
    "dt": "2020.12.10 19:00",
    "o": 1.2116,
    "h": 1.21265,
    "l": 1.21159,
    "c": 1.21194,
    "v": 2513
  },
  {
    "dt": "2020.12.10 20:00",
    "o": 1.21194,
    "h": 1.21281,
    "l": 1.21126,
    "c": 1.21245,
    "v": 2002
  },
  {
    "dt": "2020.12.10 21:00",
    "o": 1.21251,
    "h": 1.21354,
    "l": 1.21198,
    "c": 1.21329,
    "v": 1662
  },
  {
    "dt": "2020.12.10 22:00",
    "o": 1.21329,
    "h": 1.2144,
    "l": 1.21315,
    "c": 1.2142,
    "v": 1695
  },
  {
    "dt": "2020.12.10 23:00",
    "o": 1.21419,
    "h": 1.21427,
    "l": 1.21342,
    "c": 1.21408,
    "v": 1016
  },
  {
    "dt": "2020.12.11 00:00",
    "o": 1.21351,
    "h": 1.21399,
    "l": 1.21351,
    "c": 1.21393,
    "v": 243
  },
  {
    "dt": "2020.12.11 01:00",
    "o": 1.214,
    "h": 1.21432,
    "l": 1.21397,
    "c": 1.21425,
    "v": 817
  },
  {
    "dt": "2020.12.11 02:00",
    "o": 1.21427,
    "h": 1.21459,
    "l": 1.21395,
    "c": 1.2144,
    "v": 1173
  },
  {
    "dt": "2020.12.11 03:00",
    "o": 1.21441,
    "h": 1.21593,
    "l": 1.21441,
    "c": 1.21549,
    "v": 1706
  },
  {
    "dt": "2020.12.11 04:00",
    "o": 1.21548,
    "h": 1.2158,
    "l": 1.21503,
    "c": 1.21566,
    "v": 1185
  },
  {
    "dt": "2020.12.11 05:00",
    "o": 1.21565,
    "h": 1.21588,
    "l": 1.21531,
    "c": 1.21572,
    "v": 1123
  },
  {
    "dt": "2020.12.11 06:00",
    "o": 1.2157,
    "h": 1.21592,
    "l": 1.21544,
    "c": 1.21547,
    "v": 777
  },
  {
    "dt": "2020.12.11 07:00",
    "o": 1.21545,
    "h": 1.21571,
    "l": 1.21528,
    "c": 1.21544,
    "v": 942
  },
  {
    "dt": "2020.12.11 08:00",
    "o": 1.21546,
    "h": 1.21621,
    "l": 1.21541,
    "c": 1.21559,
    "v": 1255
  },
  {
    "dt": "2020.12.11 09:00",
    "o": 1.21562,
    "h": 1.21587,
    "l": 1.21251,
    "c": 1.213,
    "v": 2342
  },
  {
    "dt": "2020.12.11 10:00",
    "o": 1.213,
    "h": 1.21346,
    "l": 1.21133,
    "c": 1.21247,
    "v": 3450
  },
  {
    "dt": "2020.12.11 11:00",
    "o": 1.21249,
    "h": 1.2133,
    "l": 1.21119,
    "c": 1.21168,
    "v": 2796
  },
  {
    "dt": "2020.12.11 12:00",
    "o": 1.21167,
    "h": 1.21369,
    "l": 1.21157,
    "c": 1.21185,
    "v": 2832
  },
  {
    "dt": "2020.12.11 13:00",
    "o": 1.21181,
    "h": 1.21247,
    "l": 1.21094,
    "c": 1.21212,
    "v": 2701
  },
  {
    "dt": "2020.12.11 14:00",
    "o": 1.21211,
    "h": 1.21294,
    "l": 1.21132,
    "c": 1.21254,
    "v": 2501
  },
  {
    "dt": "2020.12.11 15:00",
    "o": 1.21255,
    "h": 1.21295,
    "l": 1.21133,
    "c": 1.21153,
    "v": 3101
  },
  {
    "dt": "2020.12.11 16:00",
    "o": 1.21148,
    "h": 1.21324,
    "l": 1.21103,
    "c": 1.21165,
    "v": 3413
  },
  {
    "dt": "2020.12.11 17:00",
    "o": 1.21164,
    "h": 1.21284,
    "l": 1.21047,
    "c": 1.21059,
    "v": 3461
  },
  {
    "dt": "2020.12.11 18:00",
    "o": 1.21061,
    "h": 1.21149,
    "l": 1.21055,
    "c": 1.21115,
    "v": 2491
  },
  {
    "dt": "2020.12.11 19:00",
    "o": 1.21115,
    "h": 1.21171,
    "l": 1.21074,
    "c": 1.21156,
    "v": 1834
  },
  {
    "dt": "2020.12.11 20:00",
    "o": 1.21157,
    "h": 1.21163,
    "l": 1.21103,
    "c": 1.21154,
    "v": 1053
  },
  {
    "dt": "2020.12.11 21:00",
    "o": 1.21155,
    "h": 1.21195,
    "l": 1.21117,
    "c": 1.21124,
    "v": 1366
  },
  {
    "dt": "2020.12.11 22:00",
    "o": 1.21122,
    "h": 1.21178,
    "l": 1.21119,
    "c": 1.21165,
    "v": 1168
  },
  {
    "dt": "2020.12.11 23:00",
    "o": 1.21169,
    "h": 1.21169,
    "l": 1.21097,
    "c": 1.21128,
    "v": 1308
  },
  {
    "dt": "2020.12.14 00:00",
    "o": 1.21347,
    "h": 1.21421,
    "l": 1.2132,
    "c": 1.21322,
    "v": 742
  },
  {
    "dt": "2020.12.14 01:00",
    "o": 1.21329,
    "h": 1.21387,
    "l": 1.21316,
    "c": 1.21323,
    "v": 933
  },
  {
    "dt": "2020.12.14 02:00",
    "o": 1.21322,
    "h": 1.21325,
    "l": 1.21149,
    "c": 1.21204,
    "v": 1505
  },
  {
    "dt": "2020.12.14 03:00",
    "o": 1.212,
    "h": 1.21307,
    "l": 1.2118,
    "c": 1.21282,
    "v": 1336
  },
  {
    "dt": "2020.12.14 04:00",
    "o": 1.21283,
    "h": 1.21325,
    "l": 1.21276,
    "c": 1.2131,
    "v": 1028
  },
  {
    "dt": "2020.12.14 05:00",
    "o": 1.21318,
    "h": 1.2133,
    "l": 1.21299,
    "c": 1.21317,
    "v": 869
  },
  {
    "dt": "2020.12.14 06:00",
    "o": 1.21317,
    "h": 1.21328,
    "l": 1.21296,
    "c": 1.21323,
    "v": 654
  },
  {
    "dt": "2020.12.14 07:00",
    "o": 1.21323,
    "h": 1.21409,
    "l": 1.21303,
    "c": 1.21398,
    "v": 903
  },
  {
    "dt": "2020.12.14 08:00",
    "o": 1.21398,
    "h": 1.21433,
    "l": 1.21383,
    "c": 1.21426,
    "v": 1204
  },
  {
    "dt": "2020.12.14 09:00",
    "o": 1.21427,
    "h": 1.21546,
    "l": 1.21377,
    "c": 1.21526,
    "v": 2119
  },
  {
    "dt": "2020.12.14 10:00",
    "o": 1.21523,
    "h": 1.21557,
    "l": 1.21419,
    "c": 1.21432,
    "v": 2754
  },
  {
    "dt": "2020.12.14 11:00",
    "o": 1.21431,
    "h": 1.21596,
    "l": 1.21379,
    "c": 1.21571,
    "v": 2187
  },
  {
    "dt": "2020.12.14 12:00",
    "o": 1.21567,
    "h": 1.21591,
    "l": 1.2147,
    "c": 1.21499,
    "v": 2061
  },
  {
    "dt": "2020.12.14 13:00",
    "o": 1.21499,
    "h": 1.21599,
    "l": 1.21492,
    "c": 1.21544,
    "v": 2021
  },
  {
    "dt": "2020.12.14 14:00",
    "o": 1.21542,
    "h": 1.21699,
    "l": 1.21517,
    "c": 1.21567,
    "v": 2330
  },
  {
    "dt": "2020.12.14 15:00",
    "o": 1.2157,
    "h": 1.21759,
    "l": 1.21559,
    "c": 1.21707,
    "v": 2370
  },
  {
    "dt": "2020.12.14 16:00",
    "o": 1.21704,
    "h": 1.21705,
    "l": 1.21541,
    "c": 1.21637,
    "v": 3214
  },
  {
    "dt": "2020.12.14 17:00",
    "o": 1.21634,
    "h": 1.21652,
    "l": 1.21224,
    "c": 1.2124,
    "v": 3932
  },
  {
    "dt": "2020.12.14 18:00",
    "o": 1.21244,
    "h": 1.21465,
    "l": 1.21223,
    "c": 1.21436,
    "v": 2137
  },
  {
    "dt": "2020.12.14 19:00",
    "o": 1.21437,
    "h": 1.21597,
    "l": 1.21423,
    "c": 1.21566,
    "v": 1897
  },
  {
    "dt": "2020.12.14 20:00",
    "o": 1.21566,
    "h": 1.21598,
    "l": 1.21463,
    "c": 1.21497,
    "v": 1493
  },
  {
    "dt": "2020.12.14 21:00",
    "o": 1.21496,
    "h": 1.21518,
    "l": 1.21442,
    "c": 1.21466,
    "v": 1145
  },
  {
    "dt": "2020.12.14 22:00",
    "o": 1.21461,
    "h": 1.21479,
    "l": 1.21383,
    "c": 1.21465,
    "v": 1167
  },
  {
    "dt": "2020.12.14 23:00",
    "o": 1.21466,
    "h": 1.21507,
    "l": 1.21406,
    "c": 1.21419,
    "v": 1015
  },
  {
    "dt": "2020.12.15 00:00",
    "o": 1.2142,
    "h": 1.2145,
    "l": 1.21399,
    "c": 1.2144,
    "v": 309
  },
  {
    "dt": "2020.12.15 01:00",
    "o": 1.2144,
    "h": 1.21481,
    "l": 1.21424,
    "c": 1.21479,
    "v": 735
  },
  {
    "dt": "2020.12.15 02:00",
    "o": 1.21478,
    "h": 1.21584,
    "l": 1.21466,
    "c": 1.21564,
    "v": 1278
  },
  {
    "dt": "2020.12.15 03:00",
    "o": 1.21566,
    "h": 1.21596,
    "l": 1.21512,
    "c": 1.21592,
    "v": 1648
  },
  {
    "dt": "2020.12.15 04:00",
    "o": 1.21591,
    "h": 1.21622,
    "l": 1.21561,
    "c": 1.21582,
    "v": 1450
  },
  {
    "dt": "2020.12.15 05:00",
    "o": 1.21583,
    "h": 1.21593,
    "l": 1.21486,
    "c": 1.21511,
    "v": 1238
  },
  {
    "dt": "2020.12.15 06:00",
    "o": 1.21512,
    "h": 1.21524,
    "l": 1.21451,
    "c": 1.21458,
    "v": 950
  },
  {
    "dt": "2020.12.15 07:00",
    "o": 1.2146,
    "h": 1.21539,
    "l": 1.21443,
    "c": 1.21539,
    "v": 1352
  },
  {
    "dt": "2020.12.15 08:00",
    "o": 1.21537,
    "h": 1.21537,
    "l": 1.21469,
    "c": 1.21477,
    "v": 1149
  },
  {
    "dt": "2020.12.15 09:00",
    "o": 1.21476,
    "h": 1.21511,
    "l": 1.21337,
    "c": 1.21362,
    "v": 1911
  },
  {
    "dt": "2020.12.15 10:00",
    "o": 1.2136,
    "h": 1.21435,
    "l": 1.21309,
    "c": 1.21422,
    "v": 2585
  },
  {
    "dt": "2020.12.15 11:00",
    "o": 1.21423,
    "h": 1.21613,
    "l": 1.21407,
    "c": 1.21573,
    "v": 2321
  },
  {
    "dt": "2020.12.15 12:00",
    "o": 1.21571,
    "h": 1.21614,
    "l": 1.21542,
    "c": 1.21578,
    "v": 2117
  },
  {
    "dt": "2020.12.15 13:00",
    "o": 1.21577,
    "h": 1.21654,
    "l": 1.21479,
    "c": 1.21595,
    "v": 2224
  },
  {
    "dt": "2020.12.15 14:00",
    "o": 1.21594,
    "h": 1.21616,
    "l": 1.2121,
    "c": 1.21245,
    "v": 2170
  },
  {
    "dt": "2020.12.15 15:00",
    "o": 1.21244,
    "h": 1.21489,
    "l": 1.21244,
    "c": 1.21387,
    "v": 2981
  },
  {
    "dt": "2020.12.15 16:00",
    "o": 1.21386,
    "h": 1.21578,
    "l": 1.21373,
    "c": 1.21429,
    "v": 3010
  },
  {
    "dt": "2020.12.15 17:00",
    "o": 1.21431,
    "h": 1.21597,
    "l": 1.21423,
    "c": 1.21522,
    "v": 2596
  },
  {
    "dt": "2020.12.15 18:00",
    "o": 1.21525,
    "h": 1.21596,
    "l": 1.21484,
    "c": 1.21567,
    "v": 2210
  },
  {
    "dt": "2020.12.15 19:00",
    "o": 1.21568,
    "h": 1.21605,
    "l": 1.21468,
    "c": 1.21601,
    "v": 1310
  },
  {
    "dt": "2020.12.15 20:00",
    "o": 1.21601,
    "h": 1.21678,
    "l": 1.21506,
    "c": 1.21508,
    "v": 1657
  },
  {
    "dt": "2020.12.15 21:00",
    "o": 1.21504,
    "h": 1.21597,
    "l": 1.21484,
    "c": 1.21565,
    "v": 1494
  },
  {
    "dt": "2020.12.15 22:00",
    "o": 1.21559,
    "h": 1.21597,
    "l": 1.21532,
    "c": 1.21597,
    "v": 1170
  },
  {
    "dt": "2020.12.15 23:00",
    "o": 1.21598,
    "h": 1.21619,
    "l": 1.21513,
    "c": 1.21519,
    "v": 982
  },
  {
    "dt": "2020.12.16 00:00",
    "o": 1.21509,
    "h": 1.21523,
    "l": 1.21487,
    "c": 1.2149,
    "v": 301
  },
  {
    "dt": "2020.12.16 01:00",
    "o": 1.21499,
    "h": 1.21541,
    "l": 1.21499,
    "c": 1.21535,
    "v": 599
  },
  {
    "dt": "2020.12.16 02:00",
    "o": 1.21533,
    "h": 1.21535,
    "l": 1.21443,
    "c": 1.21494,
    "v": 940
  },
  {
    "dt": "2020.12.16 03:00",
    "o": 1.21493,
    "h": 1.21544,
    "l": 1.21459,
    "c": 1.21502,
    "v": 1223
  },
  {
    "dt": "2020.12.16 04:00",
    "o": 1.21502,
    "h": 1.21566,
    "l": 1.21502,
    "c": 1.21554,
    "v": 984
  },
  {
    "dt": "2020.12.16 05:00",
    "o": 1.21554,
    "h": 1.21629,
    "l": 1.2155,
    "c": 1.21607,
    "v": 1024
  },
  {
    "dt": "2020.12.16 06:00",
    "o": 1.21604,
    "h": 1.21641,
    "l": 1.21574,
    "c": 1.21639,
    "v": 833
  },
  {
    "dt": "2020.12.16 07:00",
    "o": 1.21639,
    "h": 1.21643,
    "l": 1.21595,
    "c": 1.21618,
    "v": 1058
  },
  {
    "dt": "2020.12.16 08:00",
    "o": 1.21616,
    "h": 1.21623,
    "l": 1.21579,
    "c": 1.21623,
    "v": 1112
  },
  {
    "dt": "2020.12.16 09:00",
    "o": 1.21621,
    "h": 1.21712,
    "l": 1.21526,
    "c": 1.21538,
    "v": 2033
  },
  {
    "dt": "2020.12.16 10:00",
    "o": 1.21537,
    "h": 1.22114,
    "l": 1.21516,
    "c": 1.2208,
    "v": 3669
  },
  {
    "dt": "2020.12.16 11:00",
    "o": 1.22079,
    "h": 1.22084,
    "l": 1.2193,
    "c": 1.22057,
    "v": 2506
  },
  {
    "dt": "2020.12.16 12:00",
    "o": 1.22054,
    "h": 1.22059,
    "l": 1.21945,
    "c": 1.2196,
    "v": 2017
  },
  {
    "dt": "2020.12.16 13:00",
    "o": 1.21959,
    "h": 1.22,
    "l": 1.21858,
    "c": 1.21944,
    "v": 2149
  },
  {
    "dt": "2020.12.16 14:00",
    "o": 1.21943,
    "h": 1.21976,
    "l": 1.21853,
    "c": 1.21936,
    "v": 2028
  },
  {
    "dt": "2020.12.16 15:00",
    "o": 1.21936,
    "h": 1.21938,
    "l": 1.21781,
    "c": 1.2187,
    "v": 2826
  },
  {
    "dt": "2020.12.16 16:00",
    "o": 1.21869,
    "h": 1.22047,
    "l": 1.21858,
    "c": 1.21951,
    "v": 2899
  },
  {
    "dt": "2020.12.16 17:00",
    "o": 1.21952,
    "h": 1.21975,
    "l": 1.21815,
    "c": 1.21856,
    "v": 2901
  },
  {
    "dt": "2020.12.16 18:00",
    "o": 1.21866,
    "h": 1.21889,
    "l": 1.21665,
    "c": 1.21739,
    "v": 2162
  },
  {
    "dt": "2020.12.16 19:00",
    "o": 1.21738,
    "h": 1.2176,
    "l": 1.21621,
    "c": 1.2168,
    "v": 1572
  },
  {
    "dt": "2020.12.16 20:00",
    "o": 1.21679,
    "h": 1.21748,
    "l": 1.21665,
    "c": 1.21691,
    "v": 1212
  },
  {
    "dt": "2020.12.16 21:00",
    "o": 1.21692,
    "h": 1.21759,
    "l": 1.21246,
    "c": 1.21616,
    "v": 4102
  },
  {
    "dt": "2020.12.16 22:00",
    "o": 1.21615,
    "h": 1.21981,
    "l": 1.21613,
    "c": 1.21828,
    "v": 2824
  },
  {
    "dt": "2020.12.16 23:00",
    "o": 1.21829,
    "h": 1.22008,
    "l": 1.21803,
    "c": 1.21984,
    "v": 1111
  },
  {
    "dt": "2020.12.17 00:00",
    "o": 1.21976,
    "h": 1.22003,
    "l": 1.21937,
    "c": 1.21966,
    "v": 359
  },
  {
    "dt": "2020.12.17 01:00",
    "o": 1.21969,
    "h": 1.21974,
    "l": 1.21909,
    "c": 1.21952,
    "v": 538
  },
  {
    "dt": "2020.12.17 02:00",
    "o": 1.21949,
    "h": 1.21962,
    "l": 1.21891,
    "c": 1.21934,
    "v": 1327
  },
  {
    "dt": "2020.12.17 03:00",
    "o": 1.21935,
    "h": 1.22079,
    "l": 1.21915,
    "c": 1.22015,
    "v": 1622
  },
  {
    "dt": "2020.12.17 04:00",
    "o": 1.22016,
    "h": 1.22122,
    "l": 1.22003,
    "c": 1.22113,
    "v": 1195
  },
  {
    "dt": "2020.12.17 05:00",
    "o": 1.22112,
    "h": 1.22112,
    "l": 1.22074,
    "c": 1.22099,
    "v": 965
  },
  {
    "dt": "2020.12.17 06:00",
    "o": 1.22099,
    "h": 1.22345,
    "l": 1.22095,
    "c": 1.22244,
    "v": 1691
  },
  {
    "dt": "2020.12.17 07:00",
    "o": 1.22243,
    "h": 1.2229,
    "l": 1.2224,
    "c": 1.2225,
    "v": 1134
  },
  {
    "dt": "2020.12.17 08:00",
    "o": 1.22249,
    "h": 1.22343,
    "l": 1.22244,
    "c": 1.22299,
    "v": 1328
  },
  {
    "dt": "2020.12.17 09:00",
    "o": 1.223,
    "h": 1.22377,
    "l": 1.22257,
    "c": 1.22324,
    "v": 2334
  },
  {
    "dt": "2020.12.17 10:00",
    "o": 1.22325,
    "h": 1.22431,
    "l": 1.22293,
    "c": 1.22341,
    "v": 2611
  },
  {
    "dt": "2020.12.17 11:00",
    "o": 1.22339,
    "h": 1.22392,
    "l": 1.22233,
    "c": 1.22317,
    "v": 2292
  },
  {
    "dt": "2020.12.17 12:00",
    "o": 1.22317,
    "h": 1.2233,
    "l": 1.22244,
    "c": 1.22274,
    "v": 1973
  },
  {
    "dt": "2020.12.17 13:00",
    "o": 1.22274,
    "h": 1.22385,
    "l": 1.22271,
    "c": 1.2237,
    "v": 2088
  },
  {
    "dt": "2020.12.17 14:00",
    "o": 1.22371,
    "h": 1.22481,
    "l": 1.22318,
    "c": 1.22475,
    "v": 2336
  },
  {
    "dt": "2020.12.17 15:00",
    "o": 1.22476,
    "h": 1.22578,
    "l": 1.22391,
    "c": 1.2241,
    "v": 2686
  },
  {
    "dt": "2020.12.17 16:00",
    "o": 1.22411,
    "h": 1.22552,
    "l": 1.22393,
    "c": 1.22498,
    "v": 2571
  },
  {
    "dt": "2020.12.17 17:00",
    "o": 1.22499,
    "h": 1.22604,
    "l": 1.22397,
    "c": 1.22443,
    "v": 2969
  },
  {
    "dt": "2020.12.17 18:00",
    "o": 1.22444,
    "h": 1.22593,
    "l": 1.22382,
    "c": 1.2258,
    "v": 2155
  },
  {
    "dt": "2020.12.17 19:00",
    "o": 1.22574,
    "h": 1.2267,
    "l": 1.22556,
    "c": 1.22596,
    "v": 1577
  },
  {
    "dt": "2020.12.17 20:00",
    "o": 1.22595,
    "h": 1.22701,
    "l": 1.22595,
    "c": 1.22665,
    "v": 1597
  },
  {
    "dt": "2020.12.17 21:00",
    "o": 1.22664,
    "h": 1.22719,
    "l": 1.22613,
    "c": 1.22617,
    "v": 1436
  },
  {
    "dt": "2020.12.17 22:00",
    "o": 1.22614,
    "h": 1.22671,
    "l": 1.22575,
    "c": 1.22616,
    "v": 1422
  },
  {
    "dt": "2020.12.17 23:00",
    "o": 1.22617,
    "h": 1.22717,
    "l": 1.22614,
    "c": 1.22659,
    "v": 1071
  },
  {
    "dt": "2020.12.18 00:00",
    "o": 1.22663,
    "h": 1.22701,
    "l": 1.2263,
    "c": 1.22667,
    "v": 412
  },
  {
    "dt": "2020.12.18 01:00",
    "o": 1.22664,
    "h": 1.2267,
    "l": 1.22604,
    "c": 1.22607,
    "v": 684
  },
  {
    "dt": "2020.12.18 02:00",
    "o": 1.22607,
    "h": 1.22634,
    "l": 1.22499,
    "c": 1.2254,
    "v": 1187
  },
  {
    "dt": "2020.12.18 03:00",
    "o": 1.22537,
    "h": 1.22591,
    "l": 1.22512,
    "c": 1.22554,
    "v": 1414
  },
  {
    "dt": "2020.12.18 04:00",
    "o": 1.22556,
    "h": 1.22577,
    "l": 1.22437,
    "c": 1.22455,
    "v": 1308
  },
  {
    "dt": "2020.12.18 05:00",
    "o": 1.22457,
    "h": 1.22492,
    "l": 1.22456,
    "c": 1.22458,
    "v": 973
  },
  {
    "dt": "2020.12.18 06:00",
    "o": 1.22456,
    "h": 1.22464,
    "l": 1.22378,
    "c": 1.22399,
    "v": 1023
  },
  {
    "dt": "2020.12.18 07:00",
    "o": 1.22399,
    "h": 1.22434,
    "l": 1.22384,
    "c": 1.22423,
    "v": 1327
  },
  {
    "dt": "2020.12.18 08:00",
    "o": 1.22422,
    "h": 1.22545,
    "l": 1.22419,
    "c": 1.22523,
    "v": 1483
  },
  {
    "dt": "2020.12.18 09:00",
    "o": 1.22523,
    "h": 1.22554,
    "l": 1.22468,
    "c": 1.2247,
    "v": 1750
  },
  {
    "dt": "2020.12.18 10:00",
    "o": 1.22471,
    "h": 1.22622,
    "l": 1.22425,
    "c": 1.22567,
    "v": 2503
  },
  {
    "dt": "2020.12.18 11:00",
    "o": 1.22564,
    "h": 1.22615,
    "l": 1.22445,
    "c": 1.22485,
    "v": 2308
  },
  {
    "dt": "2020.12.18 12:00",
    "o": 1.22486,
    "h": 1.22571,
    "l": 1.22425,
    "c": 1.22536,
    "v": 1961
  },
  {
    "dt": "2020.12.18 13:00",
    "o": 1.22535,
    "h": 1.22593,
    "l": 1.22477,
    "c": 1.22552,
    "v": 1855
  },
  {
    "dt": "2020.12.18 14:00",
    "o": 1.2255,
    "h": 1.2268,
    "l": 1.22521,
    "c": 1.22538,
    "v": 2310
  },
  {
    "dt": "2020.12.18 15:00",
    "o": 1.22545,
    "h": 1.22597,
    "l": 1.22449,
    "c": 1.22479,
    "v": 2595
  },
  {
    "dt": "2020.12.18 16:00",
    "o": 1.22478,
    "h": 1.22526,
    "l": 1.22274,
    "c": 1.2237,
    "v": 2752
  },
  {
    "dt": "2020.12.18 17:00",
    "o": 1.2237,
    "h": 1.22464,
    "l": 1.22256,
    "c": 1.22333,
    "v": 3001
  },
  {
    "dt": "2020.12.18 18:00",
    "o": 1.2234,
    "h": 1.22353,
    "l": 1.22248,
    "c": 1.22344,
    "v": 2393
  },
  {
    "dt": "2020.12.18 19:00",
    "o": 1.22345,
    "h": 1.22451,
    "l": 1.22318,
    "c": 1.22358,
    "v": 1382
  },
  {
    "dt": "2020.12.18 20:00",
    "o": 1.22362,
    "h": 1.22423,
    "l": 1.22354,
    "c": 1.22413,
    "v": 1003
  },
  {
    "dt": "2020.12.18 21:00",
    "o": 1.22414,
    "h": 1.22426,
    "l": 1.22343,
    "c": 1.22415,
    "v": 1070
  },
  {
    "dt": "2020.12.18 22:00",
    "o": 1.22413,
    "h": 1.22481,
    "l": 1.22356,
    "c": 1.22455,
    "v": 1519
  },
  {
    "dt": "2020.12.18 23:00",
    "o": 1.22451,
    "h": 1.22577,
    "l": 1.2244,
    "c": 1.22547,
    "v": 1189
  },
  {
    "dt": "2020.12.21 00:00",
    "o": 1.22229,
    "h": 1.22334,
    "l": 1.22189,
    "c": 1.22263,
    "v": 399
  },
  {
    "dt": "2020.12.21 01:00",
    "o": 1.22291,
    "h": 1.22341,
    "l": 1.22105,
    "c": 1.22108,
    "v": 1384
  },
  {
    "dt": "2020.12.21 02:00",
    "o": 1.2211,
    "h": 1.22187,
    "l": 1.22039,
    "c": 1.22184,
    "v": 1736
  },
  {
    "dt": "2020.12.21 03:00",
    "o": 1.22184,
    "h": 1.22252,
    "l": 1.22049,
    "c": 1.22074,
    "v": 2206
  },
  {
    "dt": "2020.12.21 04:00",
    "o": 1.22074,
    "h": 1.22116,
    "l": 1.21779,
    "c": 1.21885,
    "v": 2309
  },
  {
    "dt": "2020.12.21 05:00",
    "o": 1.21884,
    "h": 1.21902,
    "l": 1.21835,
    "c": 1.21839,
    "v": 1425
  },
  {
    "dt": "2020.12.21 06:00",
    "o": 1.21838,
    "h": 1.21912,
    "l": 1.21838,
    "c": 1.21902,
    "v": 1097
  },
  {
    "dt": "2020.12.21 07:00",
    "o": 1.21901,
    "h": 1.21909,
    "l": 1.21801,
    "c": 1.21906,
    "v": 1761
  },
  {
    "dt": "2020.12.21 08:00",
    "o": 1.21902,
    "h": 1.21984,
    "l": 1.21815,
    "c": 1.21979,
    "v": 2015
  },
  {
    "dt": "2020.12.21 09:00",
    "o": 1.21979,
    "h": 1.21982,
    "l": 1.21674,
    "c": 1.21759,
    "v": 3128
  },
  {
    "dt": "2020.12.21 10:00",
    "o": 1.21751,
    "h": 1.2226,
    "l": 1.21723,
    "c": 1.22164,
    "v": 3958
  },
  {
    "dt": "2020.12.21 11:00",
    "o": 1.22163,
    "h": 1.22168,
    "l": 1.21715,
    "c": 1.21745,
    "v": 3345
  },
  {
    "dt": "2020.12.21 12:00",
    "o": 1.21746,
    "h": 1.21759,
    "l": 1.2129,
    "c": 1.21468,
    "v": 4405
  },
  {
    "dt": "2020.12.21 13:00",
    "o": 1.2147,
    "h": 1.21804,
    "l": 1.2147,
    "c": 1.21612,
    "v": 3811
  },
  {
    "dt": "2020.12.21 14:00",
    "o": 1.21614,
    "h": 1.21868,
    "l": 1.21557,
    "c": 1.21627,
    "v": 3632
  },
  {
    "dt": "2020.12.21 15:00",
    "o": 1.21631,
    "h": 1.22138,
    "l": 1.21619,
    "c": 1.21899,
    "v": 4041
  },
  {
    "dt": "2020.12.21 16:00",
    "o": 1.219,
    "h": 1.22179,
    "l": 1.219,
    "c": 1.22081,
    "v": 3575
  },
  {
    "dt": "2020.12.21 17:00",
    "o": 1.2208,
    "h": 1.22194,
    "l": 1.22058,
    "c": 1.22103,
    "v": 3283
  },
  {
    "dt": "2020.12.21 18:00",
    "o": 1.22104,
    "h": 1.2234,
    "l": 1.22096,
    "c": 1.22304,
    "v": 2805
  },
  {
    "dt": "2020.12.21 19:00",
    "o": 1.22304,
    "h": 1.2238,
    "l": 1.2226,
    "c": 1.22355,
    "v": 2562
  },
  {
    "dt": "2020.12.21 20:00",
    "o": 1.22354,
    "h": 1.22466,
    "l": 1.22283,
    "c": 1.22433,
    "v": 2037
  },
  {
    "dt": "2020.12.21 21:00",
    "o": 1.22433,
    "h": 1.22517,
    "l": 1.22403,
    "c": 1.22478,
    "v": 2504
  },
  {
    "dt": "2020.12.21 22:00",
    "o": 1.22479,
    "h": 1.2252,
    "l": 1.22302,
    "c": 1.22314,
    "v": 1794
  },
  {
    "dt": "2020.12.21 23:00",
    "o": 1.22309,
    "h": 1.22423,
    "l": 1.22273,
    "c": 1.22423,
    "v": 1150
  },
  {
    "dt": "2020.12.22 00:00",
    "o": 1.22389,
    "h": 1.22392,
    "l": 1.22289,
    "c": 1.22358,
    "v": 524
  },
  {
    "dt": "2020.12.22 01:00",
    "o": 1.2238,
    "h": 1.22491,
    "l": 1.22331,
    "c": 1.22339,
    "v": 964
  },
  {
    "dt": "2020.12.22 02:00",
    "o": 1.22339,
    "h": 1.22425,
    "l": 1.22278,
    "c": 1.22301,
    "v": 1170
  },
  {
    "dt": "2020.12.22 03:00",
    "o": 1.223,
    "h": 1.22367,
    "l": 1.22276,
    "c": 1.22304,
    "v": 1583
  },
  {
    "dt": "2020.12.22 04:00",
    "o": 1.22304,
    "h": 1.22344,
    "l": 1.22288,
    "c": 1.22316,
    "v": 1317
  },
  {
    "dt": "2020.12.22 05:00",
    "o": 1.22317,
    "h": 1.2232,
    "l": 1.22233,
    "c": 1.22282,
    "v": 1206
  },
  {
    "dt": "2020.12.22 06:00",
    "o": 1.22282,
    "h": 1.2229,
    "l": 1.22184,
    "c": 1.22221,
    "v": 1039
  },
  {
    "dt": "2020.12.22 07:00",
    "o": 1.22222,
    "h": 1.22227,
    "l": 1.2215,
    "c": 1.22176,
    "v": 1320
  },
  {
    "dt": "2020.12.22 08:00",
    "o": 1.22177,
    "h": 1.22248,
    "l": 1.2215,
    "c": 1.22162,
    "v": 1540
  },
  {
    "dt": "2020.12.22 09:00",
    "o": 1.22163,
    "h": 1.2229,
    "l": 1.22128,
    "c": 1.22159,
    "v": 2636
  },
  {
    "dt": "2020.12.22 10:00",
    "o": 1.22159,
    "h": 1.22235,
    "l": 1.22054,
    "c": 1.22211,
    "v": 2819
  },
  {
    "dt": "2020.12.22 11:00",
    "o": 1.2221,
    "h": 1.22252,
    "l": 1.22043,
    "c": 1.22063,
    "v": 2579
  },
  {
    "dt": "2020.12.22 12:00",
    "o": 1.22066,
    "h": 1.22334,
    "l": 1.22034,
    "c": 1.22293,
    "v": 2775
  },
  {
    "dt": "2020.12.22 13:00",
    "o": 1.22293,
    "h": 1.2243,
    "l": 1.22201,
    "c": 1.22429,
    "v": 2460
  },
  {
    "dt": "2020.12.22 14:00",
    "o": 1.22425,
    "h": 1.22559,
    "l": 1.22376,
    "c": 1.22387,
    "v": 2667
  },
  {
    "dt": "2020.12.22 15:00",
    "o": 1.22386,
    "h": 1.22431,
    "l": 1.22287,
    "c": 1.22295,
    "v": 2502
  },
  {
    "dt": "2020.12.22 16:00",
    "o": 1.22294,
    "h": 1.22383,
    "l": 1.22051,
    "c": 1.22065,
    "v": 3392
  },
  {
    "dt": "2020.12.22 17:00",
    "o": 1.22063,
    "h": 1.22108,
    "l": 1.21645,
    "c": 1.2173,
    "v": 3760
  },
  {
    "dt": "2020.12.22 18:00",
    "o": 1.21728,
    "h": 1.21799,
    "l": 1.21601,
    "c": 1.21712,
    "v": 4091
  },
  {
    "dt": "2020.12.22 19:00",
    "o": 1.21712,
    "h": 1.21769,
    "l": 1.2166,
    "c": 1.21737,
    "v": 2492
  },
  {
    "dt": "2020.12.22 20:00",
    "o": 1.21736,
    "h": 1.21738,
    "l": 1.21554,
    "c": 1.21622,
    "v": 2027
  },
  {
    "dt": "2020.12.22 21:00",
    "o": 1.21624,
    "h": 1.21638,
    "l": 1.21558,
    "c": 1.21598,
    "v": 1634
  },
  {
    "dt": "2020.12.22 22:00",
    "o": 1.21599,
    "h": 1.21603,
    "l": 1.21513,
    "c": 1.2156,
    "v": 1805
  },
  {
    "dt": "2020.12.22 23:00",
    "o": 1.21561,
    "h": 1.2166,
    "l": 1.21551,
    "c": 1.21617,
    "v": 1135
  },
  {
    "dt": "2020.12.23 00:00",
    "o": 1.21605,
    "h": 1.21634,
    "l": 1.21589,
    "c": 1.21629,
    "v": 268
  },
  {
    "dt": "2020.12.23 01:00",
    "o": 1.2163,
    "h": 1.21869,
    "l": 1.21627,
    "c": 1.21868,
    "v": 1032
  },
  {
    "dt": "2020.12.23 02:00",
    "o": 1.21863,
    "h": 1.21864,
    "l": 1.2162,
    "c": 1.21623,
    "v": 2131
  },
  {
    "dt": "2020.12.23 03:00",
    "o": 1.21622,
    "h": 1.21801,
    "l": 1.2153,
    "c": 1.21765,
    "v": 2495
  },
  {
    "dt": "2020.12.23 04:00",
    "o": 1.21763,
    "h": 1.21788,
    "l": 1.21656,
    "c": 1.2175,
    "v": 1921
  },
  {
    "dt": "2020.12.23 05:00",
    "o": 1.21749,
    "h": 1.219,
    "l": 1.21746,
    "c": 1.21893,
    "v": 1627
  },
  {
    "dt": "2020.12.23 06:00",
    "o": 1.21892,
    "h": 1.2191,
    "l": 1.21852,
    "c": 1.21871,
    "v": 1077
  },
  {
    "dt": "2020.12.23 07:00",
    "o": 1.2187,
    "h": 1.21889,
    "l": 1.21837,
    "c": 1.21882,
    "v": 977
  },
  {
    "dt": "2020.12.23 08:00",
    "o": 1.21878,
    "h": 1.21886,
    "l": 1.21806,
    "c": 1.21833,
    "v": 1124
  },
  {
    "dt": "2020.12.23 09:00",
    "o": 1.21827,
    "h": 1.22001,
    "l": 1.21786,
    "c": 1.21962,
    "v": 2127
  },
  {
    "dt": "2020.12.23 10:00",
    "o": 1.21964,
    "h": 1.21966,
    "l": 1.21712,
    "c": 1.21877,
    "v": 2889
  },
  {
    "dt": "2020.12.23 11:00",
    "o": 1.21876,
    "h": 1.21989,
    "l": 1.21858,
    "c": 1.2193,
    "v": 2262
  },
  {
    "dt": "2020.12.23 12:00",
    "o": 1.21934,
    "h": 1.21977,
    "l": 1.21772,
    "c": 1.2179,
    "v": 2278
  },
  {
    "dt": "2020.12.23 13:00",
    "o": 1.21796,
    "h": 1.21968,
    "l": 1.21787,
    "c": 1.21906,
    "v": 2133
  },
  {
    "dt": "2020.12.23 14:00",
    "o": 1.21908,
    "h": 1.21937,
    "l": 1.21797,
    "c": 1.21816,
    "v": 2039
  },
  {
    "dt": "2020.12.23 15:00",
    "o": 1.21814,
    "h": 1.21858,
    "l": 1.21595,
    "c": 1.21755,
    "v": 2888
  },
  {
    "dt": "2020.12.23 16:00",
    "o": 1.21758,
    "h": 1.22203,
    "l": 1.21729,
    "c": 1.22063,
    "v": 3592
  },
  {
    "dt": "2020.12.23 17:00",
    "o": 1.2206,
    "h": 1.22179,
    "l": 1.21792,
    "c": 1.21837,
    "v": 3553
  },
  {
    "dt": "2020.12.23 18:00",
    "o": 1.21836,
    "h": 1.22025,
    "l": 1.21836,
    "c": 1.21924,
    "v": 2619
  },
  {
    "dt": "2020.12.23 19:00",
    "o": 1.21923,
    "h": 1.21964,
    "l": 1.21797,
    "c": 1.21859,
    "v": 2018
  },
  {
    "dt": "2020.12.23 20:00",
    "o": 1.2186,
    "h": 1.21875,
    "l": 1.21792,
    "c": 1.21807,
    "v": 1530
  },
  {
    "dt": "2020.12.23 21:00",
    "o": 1.21806,
    "h": 1.21836,
    "l": 1.21718,
    "c": 1.21795,
    "v": 1312
  },
  {
    "dt": "2020.12.23 22:00",
    "o": 1.21804,
    "h": 1.21956,
    "l": 1.21724,
    "c": 1.21946,
    "v": 1554
  },
  {
    "dt": "2020.12.23 23:00",
    "o": 1.21935,
    "h": 1.21947,
    "l": 1.21804,
    "c": 1.21853,
    "v": 1211
  },
  {
    "dt": "2020.12.24 00:00",
    "o": 1.21839,
    "h": 1.2189,
    "l": 1.21838,
    "c": 1.2189,
    "v": 231
  },
  {
    "dt": "2020.12.24 01:00",
    "o": 1.21889,
    "h": 1.21933,
    "l": 1.21832,
    "c": 1.21933,
    "v": 457
  },
  {
    "dt": "2020.12.24 02:00",
    "o": 1.2193,
    "h": 1.22036,
    "l": 1.2192,
    "c": 1.22011,
    "v": 1345
  },
  {
    "dt": "2020.12.24 03:00",
    "o": 1.22014,
    "h": 1.22113,
    "l": 1.22009,
    "c": 1.22073,
    "v": 1869
  },
  {
    "dt": "2020.12.24 04:00",
    "o": 1.22074,
    "h": 1.22147,
    "l": 1.22068,
    "c": 1.22103,
    "v": 1296
  },
  {
    "dt": "2020.12.24 05:00",
    "o": 1.22103,
    "h": 1.22148,
    "l": 1.22046,
    "c": 1.22085,
    "v": 1415
  },
  {
    "dt": "2020.12.24 06:00",
    "o": 1.22086,
    "h": 1.22086,
    "l": 1.22011,
    "c": 1.22038,
    "v": 905
  },
  {
    "dt": "2020.12.24 07:00",
    "o": 1.22038,
    "h": 1.22073,
    "l": 1.22014,
    "c": 1.22043,
    "v": 959
  },
  {
    "dt": "2020.12.24 08:00",
    "o": 1.22045,
    "h": 1.2207,
    "l": 1.2202,
    "c": 1.22061,
    "v": 1023
  },
  {
    "dt": "2020.12.24 09:00",
    "o": 1.22058,
    "h": 1.2209,
    "l": 1.2202,
    "c": 1.22045,
    "v": 1639
  },
  {
    "dt": "2020.12.24 10:00",
    "o": 1.22047,
    "h": 1.2209,
    "l": 1.21929,
    "c": 1.22005,
    "v": 1898
  },
  {
    "dt": "2020.12.24 11:00",
    "o": 1.22004,
    "h": 1.22019,
    "l": 1.21863,
    "c": 1.21908,
    "v": 1603
  },
  {
    "dt": "2020.12.24 12:00",
    "o": 1.21905,
    "h": 1.21995,
    "l": 1.21873,
    "c": 1.2198,
    "v": 1573
  },
  {
    "dt": "2020.12.24 13:00",
    "o": 1.21979,
    "h": 1.22024,
    "l": 1.21931,
    "c": 1.21947,
    "v": 1374
  },
  {
    "dt": "2020.12.24 14:00",
    "o": 1.21946,
    "h": 1.21983,
    "l": 1.2187,
    "c": 1.21875,
    "v": 1458
  },
  {
    "dt": "2020.12.24 15:00",
    "o": 1.21877,
    "h": 1.21938,
    "l": 1.21849,
    "c": 1.21873,
    "v": 1384
  },
  {
    "dt": "2020.12.24 16:00",
    "o": 1.21865,
    "h": 1.21966,
    "l": 1.21765,
    "c": 1.21881,
    "v": 2101
  },
  {
    "dt": "2020.12.24 17:00",
    "o": 1.21881,
    "h": 1.21969,
    "l": 1.21773,
    "c": 1.21812,
    "v": 2351
  },
  {
    "dt": "2020.12.24 18:00",
    "o": 1.21815,
    "h": 1.21883,
    "l": 1.21803,
    "c": 1.21808,
    "v": 1198
  },
  {
    "dt": "2020.12.24 19:00",
    "o": 1.21808,
    "h": 1.21882,
    "l": 1.21796,
    "c": 1.21823,
    "v": 995
  },
  {
    "dt": "2020.12.24 20:00",
    "o": 1.21827,
    "h": 1.21848,
    "l": 1.21764,
    "c": 1.21799,
    "v": 883
  },
  {
    "dt": "2020.12.24 21:00",
    "o": 1.218,
    "h": 1.21808,
    "l": 1.21784,
    "c": 1.21793,
    "v": 760
  },
  {
    "dt": "2020.12.24 22:00",
    "o": 1.21792,
    "h": 1.21851,
    "l": 1.21786,
    "c": 1.21829,
    "v": 1293
  },
  {
    "dt": "2020.12.24 23:00",
    "o": 1.21832,
    "h": 1.21849,
    "l": 1.21816,
    "c": 1.21841,
    "v": 392
  },
  {
    "dt": "2020.12.28 00:00",
    "o": 1.21951,
    "h": 1.21951,
    "l": 1.21817,
    "c": 1.21852,
    "v": 51
  },
  {
    "dt": "2020.12.28 01:00",
    "o": 1.2187,
    "h": 1.22063,
    "l": 1.21845,
    "c": 1.22032,
    "v": 1380
  },
  {
    "dt": "2020.12.28 02:00",
    "o": 1.22042,
    "h": 1.22074,
    "l": 1.21801,
    "c": 1.21924,
    "v": 2111
  },
  {
    "dt": "2020.12.28 03:00",
    "o": 1.21926,
    "h": 1.22056,
    "l": 1.21903,
    "c": 1.22043,
    "v": 2044
  },
  {
    "dt": "2020.12.28 04:00",
    "o": 1.22042,
    "h": 1.2213,
    "l": 1.22036,
    "c": 1.2208,
    "v": 1528
  },
  {
    "dt": "2020.12.28 05:00",
    "o": 1.22082,
    "h": 1.22152,
    "l": 1.22081,
    "c": 1.22119,
    "v": 1167
  },
  {
    "dt": "2020.12.28 06:00",
    "o": 1.2212,
    "h": 1.22131,
    "l": 1.22084,
    "c": 1.22094,
    "v": 876
  },
  {
    "dt": "2020.12.28 07:00",
    "o": 1.22097,
    "h": 1.2223,
    "l": 1.22084,
    "c": 1.22227,
    "v": 999
  },
  {
    "dt": "2020.12.28 08:00",
    "o": 1.22226,
    "h": 1.22262,
    "l": 1.22191,
    "c": 1.2224,
    "v": 1502
  },
  {
    "dt": "2020.12.28 09:00",
    "o": 1.22242,
    "h": 1.22322,
    "l": 1.22188,
    "c": 1.22303,
    "v": 1580
  },
  {
    "dt": "2020.12.28 10:00",
    "o": 1.22304,
    "h": 1.22396,
    "l": 1.22249,
    "c": 1.22379,
    "v": 2188
  },
  {
    "dt": "2020.12.28 11:00",
    "o": 1.22377,
    "h": 1.22496,
    "l": 1.22341,
    "c": 1.22477,
    "v": 2086
  },
  {
    "dt": "2020.12.28 12:00",
    "o": 1.22482,
    "h": 1.22494,
    "l": 1.22066,
    "c": 1.22127,
    "v": 2810
  },
  {
    "dt": "2020.12.28 13:00",
    "o": 1.22127,
    "h": 1.22147,
    "l": 1.21919,
    "c": 1.21939,
    "v": 2428
  },
  {
    "dt": "2020.12.28 14:00",
    "o": 1.21938,
    "h": 1.22078,
    "l": 1.21905,
    "c": 1.22076,
    "v": 2315
  },
  {
    "dt": "2020.12.28 15:00",
    "o": 1.22078,
    "h": 1.22215,
    "l": 1.2206,
    "c": 1.22127,
    "v": 2546
  },
  {
    "dt": "2020.12.28 16:00",
    "o": 1.22133,
    "h": 1.22389,
    "l": 1.22079,
    "c": 1.22305,
    "v": 2612
  },
  {
    "dt": "2020.12.28 17:00",
    "o": 1.22306,
    "h": 1.22339,
    "l": 1.22065,
    "c": 1.22139,
    "v": 2694
  },
  {
    "dt": "2020.12.28 18:00",
    "o": 1.2214,
    "h": 1.22282,
    "l": 1.22117,
    "c": 1.22122,
    "v": 2442
  },
  {
    "dt": "2020.12.28 19:00",
    "o": 1.2212,
    "h": 1.22155,
    "l": 1.22043,
    "c": 1.22054,
    "v": 2116
  },
  {
    "dt": "2020.12.28 20:00",
    "o": 1.22054,
    "h": 1.22123,
    "l": 1.22018,
    "c": 1.22077,
    "v": 1597
  },
  {
    "dt": "2020.12.28 21:00",
    "o": 1.22076,
    "h": 1.22107,
    "l": 1.22026,
    "c": 1.22058,
    "v": 1393
  },
  {
    "dt": "2020.12.28 22:00",
    "o": 1.22057,
    "h": 1.22131,
    "l": 1.22023,
    "c": 1.22124,
    "v": 1441
  },
  {
    "dt": "2020.12.28 23:00",
    "o": 1.22125,
    "h": 1.22153,
    "l": 1.22055,
    "c": 1.22138,
    "v": 817
  },
  {
    "dt": "2020.12.29 00:00",
    "o": 1.22127,
    "h": 1.22135,
    "l": 1.2206,
    "c": 1.22073,
    "v": 508
  },
  {
    "dt": "2020.12.29 01:00",
    "o": 1.22076,
    "h": 1.222,
    "l": 1.22076,
    "c": 1.22187,
    "v": 936
  },
  {
    "dt": "2020.12.29 02:00",
    "o": 1.22188,
    "h": 1.22339,
    "l": 1.22185,
    "c": 1.22247,
    "v": 1472
  },
  {
    "dt": "2020.12.29 03:00",
    "o": 1.22252,
    "h": 1.22298,
    "l": 1.2225,
    "c": 1.22264,
    "v": 1182
  },
  {
    "dt": "2020.12.29 04:00",
    "o": 1.22263,
    "h": 1.22369,
    "l": 1.22237,
    "c": 1.2233,
    "v": 1358
  },
  {
    "dt": "2020.12.29 05:00",
    "o": 1.22332,
    "h": 1.22423,
    "l": 1.22307,
    "c": 1.2241,
    "v": 1270
  },
  {
    "dt": "2020.12.29 06:00",
    "o": 1.22411,
    "h": 1.22417,
    "l": 1.22368,
    "c": 1.22415,
    "v": 873
  },
  {
    "dt": "2020.12.29 07:00",
    "o": 1.22363,
    "h": 1.22366,
    "l": 1.22343,
    "c": 1.22353,
    "v": 196
  },
  {
    "dt": "2020.12.29 08:00",
    "o": 1.22352,
    "h": 1.2242,
    "l": 1.22349,
    "c": 1.22415,
    "v": 1028
  },
  {
    "dt": "2020.12.29 09:00",
    "o": 1.22415,
    "h": 1.22505,
    "l": 1.22382,
    "c": 1.22393,
    "v": 1688
  },
  {
    "dt": "2020.12.29 10:00",
    "o": 1.22394,
    "h": 1.22572,
    "l": 1.22384,
    "c": 1.22446,
    "v": 2212
  },
  {
    "dt": "2020.12.29 11:00",
    "o": 1.22447,
    "h": 1.22516,
    "l": 1.22357,
    "c": 1.2249,
    "v": 2068
  },
  {
    "dt": "2020.12.29 12:00",
    "o": 1.22491,
    "h": 1.22561,
    "l": 1.22449,
    "c": 1.22483,
    "v": 1993
  },
  {
    "dt": "2020.12.29 13:00",
    "o": 1.22486,
    "h": 1.22521,
    "l": 1.22381,
    "c": 1.22479,
    "v": 1891
  },
  {
    "dt": "2020.12.29 14:00",
    "o": 1.2248,
    "h": 1.22607,
    "l": 1.22457,
    "c": 1.22552,
    "v": 2279
  },
  {
    "dt": "2020.12.29 15:00",
    "o": 1.22556,
    "h": 1.22585,
    "l": 1.22474,
    "c": 1.22526,
    "v": 2399
  },
  {
    "dt": "2020.12.29 16:00",
    "o": 1.2253,
    "h": 1.22743,
    "l": 1.22493,
    "c": 1.22667,
    "v": 2541
  },
  {
    "dt": "2020.12.29 17:00",
    "o": 1.22663,
    "h": 1.22668,
    "l": 1.22396,
    "c": 1.22424,
    "v": 3368
  },
  {
    "dt": "2020.12.29 18:00",
    "o": 1.2243,
    "h": 1.22549,
    "l": 1.22373,
    "c": 1.22511,
    "v": 2304
  },
  {
    "dt": "2020.12.29 19:00",
    "o": 1.22509,
    "h": 1.22538,
    "l": 1.22362,
    "c": 1.22409,
    "v": 1969
  },
  {
    "dt": "2020.12.29 20:00",
    "o": 1.22407,
    "h": 1.22471,
    "l": 1.22352,
    "c": 1.22451,
    "v": 1696
  },
  {
    "dt": "2020.12.29 21:00",
    "o": 1.22449,
    "h": 1.2258,
    "l": 1.22434,
    "c": 1.22505,
    "v": 1723
  },
  {
    "dt": "2020.12.29 22:00",
    "o": 1.22504,
    "h": 1.22553,
    "l": 1.2246,
    "c": 1.22491,
    "v": 1843
  },
  {
    "dt": "2020.12.29 23:00",
    "o": 1.22493,
    "h": 1.22521,
    "l": 1.22461,
    "c": 1.22487,
    "v": 848
  },
  {
    "dt": "2020.12.30 00:00",
    "o": 1.225,
    "h": 1.22516,
    "l": 1.22455,
    "c": 1.22516,
    "v": 189
  },
  {
    "dt": "2020.12.30 01:00",
    "o": 1.22541,
    "h": 1.22581,
    "l": 1.22508,
    "c": 1.22514,
    "v": 841
  },
  {
    "dt": "2020.12.30 02:00",
    "o": 1.22512,
    "h": 1.2277,
    "l": 1.22506,
    "c": 1.22677,
    "v": 1625
  },
  {
    "dt": "2020.12.30 03:00",
    "o": 1.22676,
    "h": 1.2294,
    "l": 1.22657,
    "c": 1.22898,
    "v": 2697
  },
  {
    "dt": "2020.12.30 04:00",
    "o": 1.22898,
    "h": 1.22912,
    "l": 1.22838,
    "c": 1.22861,
    "v": 1545
  },
  {
    "dt": "2020.12.30 05:00",
    "o": 1.22863,
    "h": 1.2288,
    "l": 1.22811,
    "c": 1.22822,
    "v": 1155
  },
  {
    "dt": "2020.12.30 06:00",
    "o": 1.22823,
    "h": 1.22889,
    "l": 1.22808,
    "c": 1.22842,
    "v": 872
  },
  {
    "dt": "2020.12.30 07:00",
    "o": 1.22842,
    "h": 1.22899,
    "l": 1.2283,
    "c": 1.22841,
    "v": 1365
  },
  {
    "dt": "2020.12.30 08:00",
    "o": 1.22841,
    "h": 1.22857,
    "l": 1.22754,
    "c": 1.22809,
    "v": 1269
  },
  {
    "dt": "2020.12.30 09:00",
    "o": 1.22803,
    "h": 1.22844,
    "l": 1.22644,
    "c": 1.22657,
    "v": 1833
  },
  {
    "dt": "2020.12.30 10:00",
    "o": 1.22667,
    "h": 1.22692,
    "l": 1.2252,
    "c": 1.2258,
    "v": 2551
  },
  {
    "dt": "2020.12.30 11:00",
    "o": 1.22582,
    "h": 1.22712,
    "l": 1.22544,
    "c": 1.22676,
    "v": 2135
  },
  {
    "dt": "2020.12.30 12:00",
    "o": 1.22673,
    "h": 1.2284,
    "l": 1.22662,
    "c": 1.22783,
    "v": 2120
  },
  {
    "dt": "2020.12.30 13:00",
    "o": 1.22781,
    "h": 1.22795,
    "l": 1.22656,
    "c": 1.22723,
    "v": 1911
  },
  {
    "dt": "2020.12.30 14:00",
    "o": 1.22723,
    "h": 1.22927,
    "l": 1.22699,
    "c": 1.2289,
    "v": 2234
  },
  {
    "dt": "2020.12.30 15:00",
    "o": 1.22888,
    "h": 1.22905,
    "l": 1.22758,
    "c": 1.22905,
    "v": 2273
  },
  {
    "dt": "2020.12.30 16:00",
    "o": 1.22905,
    "h": 1.23091,
    "l": 1.22704,
    "c": 1.22973,
    "v": 3438
  },
  {
    "dt": "2020.12.30 17:00",
    "o": 1.22959,
    "h": 1.23048,
    "l": 1.22801,
    "c": 1.23012,
    "v": 3296
  },
  {
    "dt": "2020.12.30 18:00",
    "o": 1.22999,
    "h": 1.23014,
    "l": 1.22777,
    "c": 1.22784,
    "v": 2721
  },
  {
    "dt": "2020.12.30 19:00",
    "o": 1.22784,
    "h": 1.22878,
    "l": 1.22754,
    "c": 1.22878,
    "v": 1889
  },
  {
    "dt": "2020.12.30 20:00",
    "o": 1.22878,
    "h": 1.22906,
    "l": 1.22848,
    "c": 1.22901,
    "v": 1362
  },
  {
    "dt": "2020.12.30 21:00",
    "o": 1.22904,
    "h": 1.22919,
    "l": 1.22798,
    "c": 1.22874,
    "v": 1496
  },
  {
    "dt": "2020.12.30 22:00",
    "o": 1.22878,
    "h": 1.22941,
    "l": 1.22877,
    "c": 1.22909,
    "v": 1329
  },
  {
    "dt": "2020.12.30 23:00",
    "o": 1.22909,
    "h": 1.23009,
    "l": 1.22902,
    "c": 1.22989,
    "v": 878
  },
  {
    "dt": "2020.12.31 00:00",
    "o": 1.22953,
    "h": 1.22982,
    "l": 1.22914,
    "c": 1.22954,
    "v": 479
  },
  {
    "dt": "2020.12.31 01:00",
    "o": 1.22975,
    "h": 1.23035,
    "l": 1.22972,
    "c": 1.22978,
    "v": 530
  },
  {
    "dt": "2020.12.31 02:00",
    "o": 1.2298,
    "h": 1.23075,
    "l": 1.22941,
    "c": 1.23059,
    "v": 1060
  },
  {
    "dt": "2020.12.31 03:00",
    "o": 1.23057,
    "h": 1.23083,
    "l": 1.22982,
    "c": 1.23058,
    "v": 1384
  },
  {
    "dt": "2020.12.31 04:00",
    "o": 1.23057,
    "h": 1.23083,
    "l": 1.22846,
    "c": 1.22889,
    "v": 1315
  },
  {
    "dt": "2020.12.31 05:00",
    "o": 1.22887,
    "h": 1.2293,
    "l": 1.22854,
    "c": 1.22902,
    "v": 1252
  },
  {
    "dt": "2020.12.31 06:00",
    "o": 1.22899,
    "h": 1.22902,
    "l": 1.22844,
    "c": 1.22858,
    "v": 780
  },
  {
    "dt": "2020.12.31 07:00",
    "o": 1.22857,
    "h": 1.22963,
    "l": 1.22845,
    "c": 1.22887,
    "v": 1029
  },
  {
    "dt": "2020.12.31 08:00",
    "o": 1.22886,
    "h": 1.2292,
    "l": 1.22853,
    "c": 1.22906,
    "v": 1094
  },
  {
    "dt": "2020.12.31 09:00",
    "o": 1.22904,
    "h": 1.23023,
    "l": 1.22902,
    "c": 1.22956,
    "v": 1824
  },
  {
    "dt": "2020.12.31 10:00",
    "o": 1.22956,
    "h": 1.23033,
    "l": 1.22865,
    "c": 1.23003,
    "v": 2471
  },
  {
    "dt": "2020.12.31 11:00",
    "o": 1.23003,
    "h": 1.23005,
    "l": 1.22761,
    "c": 1.22781,
    "v": 2593
  },
  {
    "dt": "2020.12.31 12:00",
    "o": 1.22783,
    "h": 1.22877,
    "l": 1.22739,
    "c": 1.22789,
    "v": 2590
  },
  {
    "dt": "2020.12.31 13:00",
    "o": 1.22785,
    "h": 1.2287,
    "l": 1.22659,
    "c": 1.22742,
    "v": 2119
  },
  {
    "dt": "2020.12.31 14:00",
    "o": 1.22742,
    "h": 1.22807,
    "l": 1.22587,
    "c": 1.2271,
    "v": 2209
  },
  {
    "dt": "2020.12.31 15:00",
    "o": 1.22706,
    "h": 1.22862,
    "l": 1.22633,
    "c": 1.22836,
    "v": 1995
  },
  {
    "dt": "2020.12.31 16:00",
    "o": 1.22843,
    "h": 1.22844,
    "l": 1.22643,
    "c": 1.22683,
    "v": 2185
  },
  {
    "dt": "2020.12.31 17:00",
    "o": 1.22685,
    "h": 1.22698,
    "l": 1.22244,
    "c": 1.22376,
    "v": 3119
  },
  {
    "dt": "2020.12.31 18:00",
    "o": 1.22379,
    "h": 1.22394,
    "l": 1.22202,
    "c": 1.22292,
    "v": 2897
  },
  {
    "dt": "2020.12.31 19:00",
    "o": 1.22292,
    "h": 1.22337,
    "l": 1.22211,
    "c": 1.22243,
    "v": 1929
  },
  {
    "dt": "2020.12.31 20:00",
    "o": 1.22243,
    "h": 1.22272,
    "l": 1.22142,
    "c": 1.22159,
    "v": 1451
  },
  {
    "dt": "2020.12.31 21:00",
    "o": 1.2216,
    "h": 1.22221,
    "l": 1.22084,
    "c": 1.22089,
    "v": 1339
  },
  {
    "dt": "2020.12.31 22:00",
    "o": 1.22091,
    "h": 1.22186,
    "l": 1.2209,
    "c": 1.22155,
    "v": 1049
  },
  {
    "dt": "2020.12.31 23:00",
    "o": 1.22153,
    "h": 1.22271,
    "l": 1.22137,
    "c": 1.22156,
    "v": 1004
  }
]