[
  {
    "dt": "2023.03.01 00:00",
    "o": 144.46,
    "h": 144.609,
    "l": 144.426,
    "c": 144.581,
    "v": 292
  },
  {
    "dt": "2023.03.01 01:00",
    "o": 144.604,
    "h": 144.739,
    "l": 144.458,
    "c": 144.718,
    "v": 1717
  },
  {
    "dt": "2023.03.01 02:00",
    "o": 144.728,
    "h": 144.757,
    "l": 144.607,
    "c": 144.685,
    "v": 2177
  },
  {
    "dt": "2023.03.01 03:00",
    "o": 144.678,
    "h": 144.789,
    "l": 144.644,
    "c": 144.781,
    "v": 2572
  },
  {
    "dt": "2023.03.01 04:00",
    "o": 144.784,
    "h": 144.94,
    "l": 144.761,
    "c": 144.924,
    "v": 1926
  },
  {
    "dt": "2023.03.01 05:00",
    "o": 144.924,
    "h": 145.025,
    "l": 144.878,
    "c": 145.002,
    "v": 1494
  },
  {
    "dt": "2023.03.01 06:00",
    "o": 145.0,
    "h": 145.004,
    "l": 144.91,
    "c": 144.973,
    "v": 1147
  },
  {
    "dt": "2023.03.01 07:00",
    "o": 144.972,
    "h": 145.038,
    "l": 144.911,
    "c": 145.004,
    "v": 1607
  },
  {
    "dt": "2023.03.01 08:00",
    "o": 145.002,
    "h": 145.044,
    "l": 144.942,
    "c": 144.974,
    "v": 2378
  },
  {
    "dt": "2023.03.01 09:00",
    "o": 144.97,
    "h": 145.117,
    "l": 144.692,
    "c": 144.718,
    "v": 3607
  },
  {
    "dt": "2023.03.01 10:00",
    "o": 144.718,
    "h": 145.0,
    "l": 144.645,
    "c": 144.885,
    "v": 4256
  },
  {
    "dt": "2023.03.01 11:00",
    "o": 144.896,
    "h": 144.933,
    "l": 144.617,
    "c": 144.895,
    "v": 3907
  },
  {
    "dt": "2023.03.01 12:00",
    "o": 144.902,
    "h": 144.902,
    "l": 144.731,
    "c": 144.826,
    "v": 3888
  },
  {
    "dt": "2023.03.01 13:00",
    "o": 144.823,
    "h": 144.851,
    "l": 144.485,
    "c": 144.585,
    "v": 3669
  },
  {
    "dt": "2023.03.01 14:00",
    "o": 144.583,
    "h": 144.784,
    "l": 144.501,
    "c": 144.765,
    "v": 2965
  },
  {
    "dt": "2023.03.01 15:00",
    "o": 144.76,
    "h": 145.004,
    "l": 144.716,
    "c": 144.727,
    "v": 3835
  },
  {
    "dt": "2023.03.01 16:00",
    "o": 144.726,
    "h": 145.041,
    "l": 144.691,
    "c": 145.006,
    "v": 4266
  },
  {
    "dt": "2023.03.01 17:00",
    "o": 144.992,
    "h": 145.098,
    "l": 144.75,
    "c": 144.922,
    "v": 5509
  },
  {
    "dt": "2023.03.01 18:00",
    "o": 144.922,
    "h": 144.927,
    "l": 144.662,
    "c": 144.664,
    "v": 4050
  },
  {
    "dt": "2023.03.01 19:00",
    "o": 144.663,
    "h": 144.699,
    "l": 144.557,
    "c": 144.614,
    "v": 2971
  },
  {
    "dt": "2023.03.01 20:00",
    "o": 144.614,
    "h": 144.752,
    "l": 144.614,
    "c": 144.726,
    "v": 2054
  },
  {
    "dt": "2023.03.01 21:00",
    "o": 144.724,
    "h": 144.822,
    "l": 144.69,
    "c": 144.806,
    "v": 2041
  },
  {
    "dt": "2023.03.01 22:00",
    "o": 144.805,
    "h": 144.896,
    "l": 144.768,
    "c": 144.88,
    "v": 1830
  },
  {
    "dt": "2023.03.01 23:00",
    "o": 144.879,
    "h": 144.967,
    "l": 144.87,
    "c": 144.923,
    "v": 1065
  },
  {
    "dt": "2023.03.02 00:00",
    "o": 144.932,
    "h": 144.987,
    "l": 144.808,
    "c": 144.822,
    "v": 224
  },
  {
    "dt": "2023.03.02 01:00",
    "o": 144.835,
    "h": 144.973,
    "l": 144.762,
    "c": 144.938,
    "v": 1301
  },
  {
    "dt": "2023.03.02 02:00",
    "o": 144.932,
    "h": 144.959,
    "l": 144.762,
    "c": 144.874,
    "v": 1926
  },
  {
    "dt": "2023.03.02 03:00",
    "o": 144.865,
    "h": 144.96,
    "l": 144.78,
    "c": 144.795,
    "v": 2832
  },
  {
    "dt": "2023.03.02 04:00",
    "o": 144.793,
    "h": 144.824,
    "l": 144.675,
    "c": 144.819,
    "v": 2149
  },
  {
    "dt": "2023.03.02 05:00",
    "o": 144.819,
    "h": 144.819,
    "l": 144.708,
    "c": 144.743,
    "v": 1574
  },
  {
    "dt": "2023.03.02 06:00",
    "o": 144.741,
    "h": 144.852,
    "l": 144.721,
    "c": 144.809,
    "v": 1511
  },
  {
    "dt": "2023.03.02 07:00",
    "o": 144.808,
    "h": 144.942,
    "l": 144.784,
    "c": 144.909,
    "v": 1613
  },
  {
    "dt": "2023.03.02 08:00",
    "o": 144.909,
    "h": 145.033,
    "l": 144.859,
    "c": 145.033,
    "v": 2167
  },
  {
    "dt": "2023.03.02 09:00",
    "o": 145.035,
    "h": 145.089,
    "l": 144.89,
    "c": 145.082,
    "v": 3130
  },
  {
    "dt": "2023.03.02 10:00",
    "o": 145.083,
    "h": 145.09,
    "l": 144.658,
    "c": 144.706,
    "v": 4214
  },
  {
    "dt": "2023.03.02 11:00",
    "o": 144.708,
    "h": 144.951,
    "l": 144.682,
    "c": 144.941,
    "v": 3852
  },
  {
    "dt": "2023.03.02 12:00",
    "o": 144.956,
    "h": 145.224,
    "l": 144.886,
    "c": 145.208,
    "v": 3438
  },
  {
    "dt": "2023.03.02 13:00",
    "o": 145.207,
    "h": 145.331,
    "l": 145.141,
    "c": 145.198,
    "v": 3089
  },
  {
    "dt": "2023.03.02 14:00",
    "o": 145.199,
    "h": 145.302,
    "l": 145.154,
    "c": 145.208,
    "v": 3283
  },
  {
    "dt": "2023.03.02 15:00",
    "o": 145.212,
    "h": 145.349,
    "l": 145.121,
    "c": 145.327,
    "v": 4103
  },
  {
    "dt": "2023.03.02 16:00",
    "o": 145.329,
    "h": 145.38,
    "l": 145.032,
    "c": 145.061,
    "v": 4548
  },
  {
    "dt": "2023.03.02 17:00",
    "o": 145.063,
    "h": 145.192,
    "l": 144.826,
    "c": 145.165,
    "v": 4513
  },
  {
    "dt": "2023.03.02 18:00",
    "o": 145.176,
    "h": 145.271,
    "l": 145.117,
    "c": 145.247,
    "v": 3351
  },
  {
    "dt": "2023.03.02 19:00",
    "o": 145.247,
    "h": 145.277,
    "l": 145.097,
    "c": 145.126,
    "v": 2682
  },
  {
    "dt": "2023.03.02 20:00",
    "o": 145.128,
    "h": 145.183,
    "l": 145.056,
    "c": 145.151,
    "v": 2668
  },
  {
    "dt": "2023.03.02 21:00",
    "o": 145.151,
    "h": 145.248,
    "l": 145.111,
    "c": 145.172,
    "v": 2691
  },
  {
    "dt": "2023.03.02 22:00",
    "o": 145.175,
    "h": 145.241,
    "l": 145.077,
    "c": 145.102,
    "v": 2300
  },
  {
    "dt": "2023.03.02 23:00",
    "o": 145.102,
    "h": 145.183,
    "l": 145.089,
    "c": 145.098,
    "v": 1484
  },
  {
    "dt": "2023.03.03 00:00",
    "o": 145.106,
    "h": 145.196,
    "l": 145.005,
    "c": 145.082,
    "v": 192
  },
  {
    "dt": "2023.03.03 01:00",
    "o": 145.066,
    "h": 145.166,
    "l": 144.914,
    "c": 145.121,
    "v": 1827
  },
  {
    "dt": "2023.03.03 02:00",
    "o": 145.118,
    "h": 145.172,
    "l": 145.036,
    "c": 145.125,
    "v": 1878
  },
  {
    "dt": "2023.03.03 03:00",
    "o": 145.133,
    "h": 145.202,
    "l": 145.061,
    "c": 145.135,
    "v": 2453
  },
  {
    "dt": "2023.03.03 04:00",
    "o": 145.134,
    "h": 145.157,
    "l": 145.016,
    "c": 145.144,
    "v": 2317
  },
  {
    "dt": "2023.03.03 05:00",
    "o": 145.144,
    "h": 145.228,
    "l": 145.113,
    "c": 145.197,
    "v": 1616
  },
  {
    "dt": "2023.03.03 06:00",
    "o": 145.197,
    "h": 145.251,
    "l": 145.187,
    "c": 145.241,
    "v": 1081
  },
  {
    "dt": "2023.03.03 07:00",
    "o": 145.236,
    "h": 145.284,
    "l": 145.213,
    "c": 145.242,
    "v": 1405
  },
  {
    "dt": "2023.03.03 08:00",
    "o": 145.24,
    "h": 145.245,
    "l": 145.127,
    "c": 145.184,
    "v": 2092
  },
  {
    "dt": "2023.03.03 09:00",
    "o": 145.192,
    "h": 145.284,
    "l": 145.131,
    "c": 145.131,
    "v": 3161
  },
  {
    "dt": "2023.03.03 10:00",
    "o": 145.129,
    "h": 145.584,
    "l": 145.107,
    "c": 145.55,
    "v": 3762
  },
  {
    "dt": "2023.03.03 11:00",
    "o": 145.546,
    "h": 145.557,
    "l": 145.1,
    "c": 145.165,
    "v": 3683
  },
  {
    "dt": "2023.03.03 12:00",
    "o": 145.158,
    "h": 145.267,
    "l": 145.086,
    "c": 145.205,
    "v": 3226
  },
  {
    "dt": "2023.03.03 13:00",
    "o": 145.207,
    "h": 145.233,
    "l": 144.853,
    "c": 144.907,
    "v": 2874
  },
  {
    "dt": "2023.03.03 14:00",
    "o": 144.907,
    "h": 145.146,
    "l": 144.878,
    "c": 145.14,
    "v": 2956
  },
  {
    "dt": "2023.03.03 15:00",
    "o": 145.139,
    "h": 145.184,
    "l": 144.86,
    "c": 144.916,
    "v": 3574
  },
  {
    "dt": "2023.03.03 16:00",
    "o": 144.919,
    "h": 145.038,
    "l": 144.865,
    "c": 144.884,
    "v": 4224
  },
  {
    "dt": "2023.03.03 17:00",
    "o": 144.914,
    "h": 145.131,
    "l": 144.902,
    "c": 145.073,
    "v": 5123
  },
  {
    "dt": "2023.03.03 18:00",
    "o": 145.072,
    "h": 145.184,
    "l": 145.022,
    "c": 145.043,
    "v": 3891
  },
  {
    "dt": "2023.03.03 19:00",
    "o": 145.044,
    "h": 145.174,
    "l": 145.026,
    "c": 145.14,
    "v": 3169
  },
  {
    "dt": "2023.03.03 20:00",
    "o": 145.142,
    "h": 145.145,
    "l": 144.976,
    "c": 145.008,
    "v": 2264
  },
  {
    "dt": "2023.03.03 21:00",
    "o": 145.008,
    "h": 145.103,
    "l": 144.986,
    "c": 145.093,
    "v": 2636
  },
  {
    "dt": "2023.03.03 22:00",
    "o": 145.092,
    "h": 145.108,
    "l": 144.982,
    "c": 145.08,
    "v": 2506
  },
  {
    "dt": "2023.03.03 23:00",
    "o": 145.07,
    "h": 145.103,
    "l": 144.988,
    "c": 145.079,
    "v": 1210
  },
  {
    "dt": "2023.03.06 00:00",
    "o": 145.113,
    "h": 145.151,
    "l": 145.019,
    "c": 145.039,
    "v": 353
  },
  {
    "dt": "2023.03.06 01:00",
    "o": 144.999,
    "h": 145.157,
    "l": 144.981,
    "c": 145.138,
    "v": 2283
  },
  {
    "dt": "2023.03.06 02:00",
    "o": 145.137,
    "h": 145.203,
    "l": 144.945,
    "c": 144.945,
    "v": 2413
  },
  {
    "dt": "2023.03.06 03:00",
    "o": 144.939,
    "h": 145.022,
    "l": 144.753,
    "c": 144.984,
    "v": 2444
  },
  {
    "dt": "2023.03.06 04:00",
    "o": 144.984,
    "h": 145.077,
    "l": 144.957,
    "c": 145.065,
    "v": 2269
  },
  {
    "dt": "2023.03.06 05:00",
    "o": 145.066,
    "h": 145.076,
    "l": 144.696,
    "c": 144.763,
    "v": 1963
  },
  {
    "dt": "2023.03.06 06:00",
    "o": 144.763,
    "h": 144.946,
    "l": 144.756,
    "c": 144.941,
    "v": 1420
  },
  {
    "dt": "2023.03.06 07:00",
    "o": 144.945,
    "h": 145.105,
    "l": 144.92,
    "c": 145.098,
    "v": 1884
  },
  {
    "dt": "2023.03.06 08:00",
    "o": 145.1,
    "h": 145.1,
    "l": 144.97,
    "c": 144.981,
    "v": 2040
  },
  {
    "dt": "2023.03.06 09:00",
    "o": 145.0,
    "h": 145.552,
    "l": 144.975,
    "c": 145.551,
    "v": 3300
  },
  {
    "dt": "2023.03.06 10:00",
    "o": 145.534,
    "h": 145.657,
    "l": 145.443,
    "c": 145.443,
    "v": 3786
  },
  {
    "dt": "2023.03.06 11:00",
    "o": 145.443,
    "h": 145.728,
    "l": 145.328,
    "c": 145.667,
    "v": 3376
  },
  {
    "dt": "2023.03.06 12:00",
    "o": 145.662,
    "h": 145.693,
    "l": 145.427,
    "c": 145.446,
    "v": 2968
  },
  {
    "dt": "2023.03.06 13:00",
    "o": 145.448,
    "h": 145.634,
    "l": 145.337,
    "c": 145.58,
    "v": 3092
  },
  {
    "dt": "2023.03.06 14:00",
    "o": 145.577,
    "h": 145.63,
    "l": 145.497,
    "c": 145.536,
    "v": 2685
  },
  {
    "dt": "2023.03.06 15:00",
    "o": 145.535,
    "h": 145.579,
    "l": 145.371,
    "c": 145.399,
    "v": 3362
  },
  {
    "dt": "2023.03.06 16:00",
    "o": 145.396,
    "h": 145.62,
    "l": 145.3,
    "c": 145.546,
    "v": 3967
  },
  {
    "dt": "2023.03.06 17:00",
    "o": 145.546,
    "h": 145.882,
    "l": 145.519,
    "c": 145.821,
    "v": 4291
  },
  {
    "dt": "2023.03.06 18:00",
    "o": 145.82,
    "h": 146.032,
    "l": 145.747,
    "c": 146.012,
    "v": 3485
  },
  {
    "dt": "2023.03.06 19:00",
    "o": 146.008,
    "h": 146.035,
    "l": 145.869,
    "c": 145.897,
    "v": 2954
  },
  {
    "dt": "2023.03.06 20:00",
    "o": 145.917,
    "h": 145.95,
    "l": 145.847,
    "c": 145.928,
    "v": 2823
  },
  {
    "dt": "2023.03.06 21:00",
    "o": 145.925,
    "h": 145.952,
    "l": 145.835,
    "c": 145.934,
    "v": 2963
  },
  {
    "dt": "2023.03.06 22:00",
    "o": 145.933,
    "h": 145.945,
    "l": 145.823,
    "c": 145.904,
    "v": 2779
  },
  {
    "dt": "2023.03.06 23:00",
    "o": 145.901,
    "h": 146.039,
    "l": 145.875,
    "c": 146.032,
    "v": 1542
  },
  {
    "dt": "2023.03.07 00:00",
    "o": 146.002,
    "h": 146.002,
    "l": 145.749,
    "c": 145.928,
    "v": 165
  },
  {
    "dt": "2023.03.07 01:00",
    "o": 145.953,
    "h": 146.128,
    "l": 145.926,
    "c": 146.104,
    "v": 1177
  },
  {
    "dt": "2023.03.07 02:00",
    "o": 146.099,
    "h": 146.141,
    "l": 146.031,
    "c": 146.131,
    "v": 1715
  },
  {
    "dt": "2023.03.07 03:00",
    "o": 146.134,
    "h": 146.197,
    "l": 146.092,
    "c": 146.121,
    "v": 2256
  },
  {
    "dt": "2023.03.07 04:00",
    "o": 146.123,
    "h": 146.162,
    "l": 146.034,
    "c": 146.133,
    "v": 1755
  },
  {
    "dt": "2023.03.07 05:00",
    "o": 146.133,
    "h": 146.26,
    "l": 146.074,
    "c": 146.208,
    "v": 1976
  },
  {
    "dt": "2023.03.07 06:00",
    "o": 146.207,
    "h": 146.278,
    "l": 146.17,
    "c": 146.269,
    "v": 1191
  },
  {
    "dt": "2023.03.07 07:00",
    "o": 146.27,
    "h": 146.335,
    "l": 146.143,
    "c": 146.211,
    "v": 1494
  },
  {
    "dt": "2023.03.07 08:00",
    "o": 146.212,
    "h": 146.238,
    "l": 146.086,
    "c": 146.119,
    "v": 1928
  },
  {
    "dt": "2023.03.07 09:00",
    "o": 146.114,
    "h": 146.205,
    "l": 145.984,
    "c": 146.074,
    "v": 3250
  },
  {
    "dt": "2023.03.07 10:00",
    "o": 146.084,
    "h": 146.099,
    "l": 145.658,
    "c": 145.726,
    "v": 4091
  },
  {
    "dt": "2023.03.07 11:00",
    "o": 145.732,
    "h": 145.769,
    "l": 145.567,
    "c": 145.65,
    "v": 3522
  },
  {
    "dt": "2023.03.07 12:00",
    "o": 145.656,
    "h": 145.83,
    "l": 145.64,
    "c": 145.736,
    "v": 2783
  },
  {
    "dt": "2023.03.07 13:00",
    "o": 145.737,
    "h": 145.809,
    "l": 145.661,
    "c": 145.663,
    "v": 2867
  },
  {
    "dt": "2023.03.07 14:00",
    "o": 145.661,
    "h": 145.883,
    "l": 145.65,
    "c": 145.883,
    "v": 3589
  },
  {
    "dt": "2023.03.07 15:00",
    "o": 145.889,
    "h": 145.889,
    "l": 145.658,
    "c": 145.681,
    "v": 4199
  },
  {
    "dt": "2023.03.07 16:00",
    "o": 145.684,
    "h": 145.762,
    "l": 145.612,
    "c": 145.699,
    "v": 4569
  },
  {
    "dt": "2023.03.07 17:00",
    "o": 145.696,
    "h": 145.84,
    "l": 145.399,
    "c": 145.447,
    "v": 6177
  },
  {
    "dt": "2023.03.07 18:00",
    "o": 145.446,
    "h": 145.553,
    "l": 145.415,
    "c": 145.421,
    "v": 5193
  },
  {
    "dt": "2023.03.07 19:00",
    "o": 145.415,
    "h": 145.521,
    "l": 145.305,
    "c": 145.401,
    "v": 4601
  },
  {
    "dt": "2023.03.07 20:00",
    "o": 145.404,
    "h": 145.644,
    "l": 145.381,
    "c": 145.628,
    "v": 3741
  },
  {
    "dt": "2023.03.07 21:00",
    "o": 145.629,
    "h": 145.656,
    "l": 145.5,
    "c": 145.591,
    "v": 2517
  },
  {
    "dt": "2023.03.07 22:00",
    "o": 145.587,
    "h": 145.644,
    "l": 145.558,
    "c": 145.577,
    "v": 2371
  },
  {
    "dt": "2023.03.07 23:00",
    "o": 145.577,
    "h": 145.629,
    "l": 145.508,
    "c": 145.56,
    "v": 1122
  },
  {
    "dt": "2023.03.08 00:00",
    "o": 145.583,
    "h": 145.583,
    "l": 145.465,
    "c": 145.548,
    "v": 221
  },
  {
    "dt": "2023.03.08 01:00",
    "o": 145.565,
    "h": 145.835,
    "l": 145.551,
    "c": 145.787,
    "v": 1717
  },
  {
    "dt": "2023.03.08 02:00",
    "o": 145.786,
    "h": 145.897,
    "l": 145.659,
    "c": 145.749,
    "v": 2231
  },
  {
    "dt": "2023.03.08 03:00",
    "o": 145.757,
    "h": 145.814,
    "l": 145.675,
    "c": 145.689,
    "v": 2467
  },
  {
    "dt": "2023.03.08 04:00",
    "o": 145.705,
    "h": 145.85,
    "l": 145.649,
    "c": 145.847,
    "v": 2020
  },
  {
    "dt": "2023.03.08 05:00",
    "o": 145.848,
    "h": 145.991,
    "l": 145.846,
    "c": 145.97,
    "v": 2289
  },
  {
    "dt": "2023.03.08 06:00",
    "o": 145.97,
    "h": 146.135,
    "l": 145.941,
    "c": 146.122,
    "v": 2153
  },
  {
    "dt": "2023.03.08 07:00",
    "o": 146.124,
    "h": 146.149,
    "l": 145.973,
    "c": 145.976,
    "v": 1994
  },
  {
    "dt": "2023.03.08 08:00",
    "o": 145.97,
    "h": 146.025,
    "l": 145.922,
    "c": 145.975,
    "v": 1765
  },
  {
    "dt": "2023.03.08 09:00",
    "o": 145.974,
    "h": 146.008,
    "l": 145.897,
    "c": 145.921,
    "v": 3147
  },
  {
    "dt": "2023.03.08 10:00",
    "o": 145.915,
    "h": 146.053,
    "l": 145.856,
    "c": 145.972,
    "v": 3664
  },
  {
    "dt": "2023.03.08 11:00",
    "o": 145.97,
    "h": 146.076,
    "l": 145.889,
    "c": 145.909,
    "v": 3112
  },
  {
    "dt": "2023.03.08 12:00",
    "o": 145.911,
    "h": 146.064,
    "l": 145.7,
    "c": 145.739,
    "v": 3558
  },
  {
    "dt": "2023.03.08 13:00",
    "o": 145.743,
    "h": 145.828,
    "l": 145.466,
    "c": 145.512,
    "v": 3499
  },
  {
    "dt": "2023.03.08 14:00",
    "o": 145.513,
    "h": 145.7,
    "l": 145.482,
    "c": 145.696,
    "v": 3397
  },
  {
    "dt": "2023.03.08 15:00",
    "o": 145.695,
    "h": 145.735,
    "l": 145.449,
    "c": 145.485,
    "v": 4683
  },
  {
    "dt": "2023.03.08 16:00",
    "o": 145.487,
    "h": 145.49,
    "l": 145.268,
    "c": 145.354,
    "v": 4842
  },
  {
    "dt": "2023.03.08 17:00",
    "o": 145.352,
    "h": 145.625,
    "l": 145.21,
    "c": 145.544,
    "v": 5806
  },
  {
    "dt": "2023.03.08 18:00",
    "o": 145.543,
    "h": 146.011,
    "l": 145.521,
    "c": 145.988,
    "v": 4570
  },
  {
    "dt": "2023.03.08 19:00",
    "o": 145.986,
    "h": 145.993,
    "l": 145.636,
    "c": 145.741,
    "v": 3507
  },
  {
    "dt": "2023.03.08 20:00",
    "o": 145.741,
    "h": 145.791,
    "l": 145.628,
    "c": 145.753,
    "v": 3599
  },
  {
    "dt": "2023.03.08 21:00",
    "o": 145.753,
    "h": 145.898,
    "l": 145.738,
    "c": 145.786,
    "v": 2720
  },
  {
    "dt": "2023.03.08 22:00",
    "o": 145.783,
    "h": 145.835,
    "l": 145.714,
    "c": 145.797,
    "v": 1988
  },
  {
    "dt": "2023.03.08 23:00",
    "o": 145.799,
    "h": 145.982,
    "l": 145.786,
    "c": 145.876,
    "v": 1388
  },
  {
    "dt": "2023.03.09 00:00",
    "o": 145.77,
    "h": 145.977,
    "l": 145.678,
    "c": 145.743,
    "v": 316
  },
  {
    "dt": "2023.03.09 01:00",
    "o": 145.786,
    "h": 145.891,
    "l": 145.731,
    "c": 145.827,
    "v": 1877
  },
  {
    "dt": "2023.03.09 02:00",
    "o": 145.814,
    "h": 145.879,
    "l": 145.443,
    "c": 145.591,
    "v": 3307
  },
  {
    "dt": "2023.03.09 03:00",
    "o": 145.59,
    "h": 145.721,
    "l": 145.583,
    "c": 145.642,
    "v": 2661
  },
  {
    "dt": "2023.03.09 04:00",
    "o": 145.644,
    "h": 145.69,
    "l": 145.561,
    "c": 145.655,
    "v": 2326
  },
  {
    "dt": "2023.03.09 05:00",
    "o": 145.657,
    "h": 145.661,
    "l": 145.529,
    "c": 145.583,
    "v": 2146
  },
  {
    "dt": "2023.03.09 06:00",
    "o": 145.582,
    "h": 145.609,
    "l": 145.452,
    "c": 145.472,
    "v": 1914
  },
  {
    "dt": "2023.03.09 07:00",
    "o": 145.472,
    "h": 145.585,
    "l": 145.437,
    "c": 145.531,
    "v": 2400
  },
  {
    "dt": "2023.03.09 08:00",
    "o": 145.526,
    "h": 145.531,
    "l": 145.303,
    "c": 145.368,
    "v": 2670
  },
  {
    "dt": "2023.03.09 09:00",
    "o": 145.367,
    "h": 145.745,
    "l": 145.355,
    "c": 145.744,
    "v": 3550
  },
  {
    "dt": "2023.03.09 10:00",
    "o": 145.744,
    "h": 145.77,
    "l": 145.115,
    "c": 145.21,
    "v": 4315
  },
  {
    "dt": "2023.03.09 11:00",
    "o": 145.214,
    "h": 145.331,
    "l": 145.148,
    "c": 145.314,
    "v": 3876
  },
  {
    "dt": "2023.03.09 12:00",
    "o": 145.311,
    "h": 145.373,
    "l": 145.113,
    "c": 145.199,
    "v": 3720
  },
  {
    "dt": "2023.03.09 13:00",
    "o": 145.198,
    "h": 145.403,
    "l": 145.146,
    "c": 145.327,
    "v": 4060
  },
  {
    "dt": "2023.03.09 14:00",
    "o": 145.328,
    "h": 145.367,
    "l": 145.128,
    "c": 145.167,
    "v": 4002
  },
  {
    "dt": "2023.03.09 15:00",
    "o": 145.167,
    "h": 145.223,
    "l": 144.975,
    "c": 145.181,
    "v": 4929
  },
  {
    "dt": "2023.03.09 16:00",
    "o": 145.176,
    "h": 145.484,
    "l": 145.159,
    "c": 145.332,
    "v": 5191
  },
  {
    "dt": "2023.03.09 17:00",
    "o": 145.334,
    "h": 145.644,
    "l": 145.295,
    "c": 145.505,
    "v": 4977
  },
  {
    "dt": "2023.03.09 18:00",
    "o": 145.507,
    "h": 145.664,
    "l": 145.441,
    "c": 145.652,
    "v": 4187
  },
  {
    "dt": "2023.03.09 19:00",
    "o": 145.653,
    "h": 145.664,
    "l": 145.425,
    "c": 145.471,
    "v": 3619
  },
  {
    "dt": "2023.03.09 20:00",
    "o": 145.476,
    "h": 145.57,
    "l": 145.397,
    "c": 145.543,
    "v": 4354
  },
  {
    "dt": "2023.03.09 21:00",
    "o": 145.542,
    "h": 145.583,
    "l": 145.366,
    "c": 145.366,
    "v": 3511
  },
  {
    "dt": "2023.03.09 22:00",
    "o": 145.378,
    "h": 145.739,
    "l": 145.378,
    "c": 145.734,
    "v": 2958
  },
  {
    "dt": "2023.03.09 23:00",
    "o": 145.742,
    "h": 145.977,
    "l": 145.692,
    "c": 145.969,
    "v": 2429
  },
  {
    "dt": "2023.03.10 00:00",
    "o": 145.96,
    "h": 145.96,
    "l": 145.679,
    "c": 145.897,
    "v": 500
  },
  {
    "dt": "2023.03.10 01:00",
    "o": 145.869,
    "h": 146.214,
    "l": 145.858,
    "c": 146.159,
    "v": 3876
  },
  {
    "dt": "2023.03.10 02:00",
    "o": 146.161,
    "h": 146.224,
    "l": 145.715,
    "c": 145.885,
    "v": 4710
  },
  {
    "dt": "2023.03.10 03:00",
    "o": 145.903,
    "h": 145.986,
    "l": 145.777,
    "c": 145.871,
    "v": 4310
  },
  {
    "dt": "2023.03.10 04:00",
    "o": 145.87,
    "h": 146.89,
    "l": 145.794,
    "c": 146.89,
    "v": 5080
  },
  {
    "dt": "2023.03.10 05:00",
    "o": 146.892,
    "h": 147.017,
    "l": 146.596,
    "c": 147.001,
    "v": 4233
  },
  {
    "dt": "2023.03.10 06:00",
    "o": 147.001,
    "h": 147.282,
    "l": 146.937,
    "c": 146.957,
    "v": 3818
  },
  {
    "dt": "2023.03.10 07:00",
    "o": 146.952,
    "h": 146.999,
    "l": 146.832,
    "c": 146.832,
    "v": 3753
  },
  {
    "dt": "2023.03.10 08:00",
    "o": 146.83,
    "h": 147.061,
    "l": 146.813,
    "c": 147.061,
    "v": 3749
  },
  {
    "dt": "2023.03.10 09:00",
    "o": 147.06,
    "h": 147.19,
    "l": 146.579,
    "c": 146.658,
    "v": 5408
  },
  {
    "dt": "2023.03.10 10:00",
    "o": 146.636,
    "h": 146.841,
    "l": 146.311,
    "c": 146.787,
    "v": 5623
  },
  {
    "dt": "2023.03.10 11:00",
    "o": 146.777,
    "h": 147.18,
    "l": 146.757,
    "c": 147.015,
    "v": 4935
  },
  {
    "dt": "2023.03.10 12:00",
    "o": 147.008,
    "h": 147.396,
    "l": 146.953,
    "c": 147.324,
    "v": 4585
  },
  {
    "dt": "2023.03.10 13:00",
    "o": 147.323,
    "h": 147.603,
    "l": 147.276,
    "c": 147.42,
    "v": 4194
  },
  {
    "dt": "2023.03.10 14:00",
    "o": 147.421,
    "h": 147.579,
    "l": 147.121,
    "c": 147.522,
    "v": 4484
  },
  {
    "dt": "2023.03.10 15:00",
    "o": 147.513,
    "h": 147.541,
    "l": 146.775,
    "c": 147.222,
    "v": 6128
  },
  {
    "dt": "2023.03.10 16:00",
    "o": 147.223,
    "h": 147.392,
    "l": 146.461,
    "c": 146.574,
    "v": 5939
  },
  {
    "dt": "2023.03.10 17:00",
    "o": 146.581,
    "h": 146.655,
    "l": 146.075,
    "c": 146.095,
    "v": 6453
  },
  {
    "dt": "2023.03.10 18:00",
    "o": 146.097,
    "h": 146.78,
    "l": 146.058,
    "c": 146.558,
    "v": 6118
  },
  {
    "dt": "2023.03.10 19:00",
    "o": 146.563,
    "h": 146.73,
    "l": 146.43,
    "c": 146.637,
    "v": 5209
  },
  {
    "dt": "2023.03.10 20:00",
    "o": 146.63,
    "h": 146.731,
    "l": 146.257,
    "c": 146.34,
    "v": 4867
  },
  {
    "dt": "2023.03.10 21:00",
    "o": 146.346,
    "h": 146.355,
    "l": 146.202,
    "c": 146.296,
    "v": 4978
  },
  {
    "dt": "2023.03.10 22:00",
    "o": 146.298,
    "h": 146.356,
    "l": 146.232,
    "c": 146.343,
    "v": 4431
  },
  {
    "dt": "2023.03.10 23:00",
    "o": 146.343,
    "h": 146.624,
    "l": 146.287,
    "c": 146.553,
    "v": 2583
  },
  {
    "dt": "2023.03.13 00:00",
    "o": 146.186,
    "h": 146.304,
    "l": 145.644,
    "c": 145.664,
    "v": 394
  },
  {
    "dt": "2023.03.13 01:00",
    "o": 145.675,
    "h": 146.741,
    "l": 145.661,
    "c": 146.556,
    "v": 2738
  },
  {
    "dt": "2023.03.13 02:00",
    "o": 146.554,
    "h": 146.956,
    "l": 146.285,
    "c": 146.803,
    "v": 5188
  },
  {
    "dt": "2023.03.13 03:00",
    "o": 146.783,
    "h": 146.787,
    "l": 146.13,
    "c": 146.185,
    "v": 5432
  },
  {
    "dt": "2023.03.13 04:00",
    "o": 146.172,
    "h": 146.577,
    "l": 146.031,
    "c": 146.427,
    "v": 4935
  },
  {
    "dt": "2023.03.13 05:00",
    "o": 146.429,
    "h": 146.431,
    "l": 146.016,
    "c": 146.212,
    "v": 5492
  },
  {
    "dt": "2023.03.13 06:00",
    "o": 146.211,
    "h": 146.352,
    "l": 146.034,
    "c": 146.286,
    "v": 5048
  },
  {
    "dt": "2023.03.13 07:00",
    "o": 146.275,
    "h": 146.357,
    "l": 146.055,
    "c": 146.27,
    "v": 4648
  },
  {
    "dt": "2023.03.13 08:00",
    "o": 146.269,
    "h": 146.494,
    "l": 146.163,
    "c": 146.459,
    "v": 4201
  },
  {
    "dt": "2023.03.13 09:00",
    "o": 146.459,
    "h": 146.749,
    "l": 146.343,
    "c": 146.71,
    "v": 4829
  },
  {
    "dt": "2023.03.13 10:00",
    "o": 146.714,
    "h": 146.94,
    "l": 146.608,
    "c": 146.831,
    "v": 5505
  },
  {
    "dt": "2023.03.13 11:00",
    "o": 146.833,
    "h": 146.997,
    "l": 146.085,
    "c": 146.12,
    "v": 6050
  },
  {
    "dt": "2023.03.13 12:00",
    "o": 146.112,
    "h": 146.421,
    "l": 145.783,
    "c": 145.814,
    "v": 6531
  },
  {
    "dt": "2023.03.13 13:00",
    "o": 145.825,
    "h": 146.205,
    "l": 145.792,
    "c": 146.027,
    "v": 6287
  },
  {
    "dt": "2023.03.13 14:00",
    "o": 146.028,
    "h": 146.201,
    "l": 145.402,
    "c": 145.612,
    "v": 6116
  },
  {
    "dt": "2023.03.13 15:00",
    "o": 145.61,
    "h": 145.705,
    "l": 145.299,
    "c": 145.635,
    "v": 4581
  },
  {
    "dt": "2023.03.13 16:00",
    "o": 145.693,
    "h": 146.229,
    "l": 145.386,
    "c": 146.161,
    "v": 1957
  },
  {
    "dt": "2023.03.13 17:00",
    "o": 146.158,
    "h": 146.511,
    "l": 145.601,
    "c": 145.857,
    "v": 6321
  },
  {
    "dt": "2023.03.13 18:00",
    "o": 145.855,
    "h": 146.109,
    "l": 145.659,
    "c": 145.991,
    "v": 6009
  },
  {
    "dt": "2023.03.13 19:00",
    "o": 146.032,
    "h": 146.444,
    "l": 145.908,
    "c": 146.034,
    "v": 5924
  },
  {
    "dt": "2023.03.13 20:00",
    "o": 146.038,
    "h": 146.291,
    "l": 145.963,
    "c": 146.175,
    "v": 5437
  },
  {
    "dt": "2023.03.13 21:00",
    "o": 146.182,
    "h": 146.507,
    "l": 146.138,
    "c": 146.373,
    "v": 5589
  },
  {
    "dt": "2023.03.13 22:00",
    "o": 146.384,
    "h": 146.477,
    "l": 146.213,
    "c": 146.265,
    "v": 5446
  },
  {
    "dt": "2023.03.13 23:00",
    "o": 146.266,
    "h": 146.3,
    "l": 146.058,
    "c": 146.103,
    "v": 3688
  },
  {
    "dt": "2023.03.14 00:00",
    "o": 146.094,
    "h": 146.236,
    "l": 145.953,
    "c": 146.05,
    "v": 827
  },
  {
    "dt": "2023.03.14 01:00",
    "o": 146.05,
    "h": 146.117,
    "l": 145.953,
    "c": 146.027,
    "v": 3802
  },
  {
    "dt": "2023.03.14 02:00",
    "o": 146.029,
    "h": 146.113,
    "l": 145.796,
    "c": 145.819,
    "v": 2864
  },
  {
    "dt": "2023.03.14 03:00",
    "o": 145.821,
    "h": 146.13,
    "l": 145.787,
    "c": 146.016,
    "v": 4560
  },
  {
    "dt": "2023.03.14 04:00",
    "o": 146.026,
    "h": 146.623,
    "l": 146.015,
    "c": 146.435,
    "v": 4627
  },
  {
    "dt": "2023.03.14 05:00",
    "o": 146.434,
    "h": 146.468,
    "l": 146.27,
    "c": 146.332,
    "v": 4019
  },
  {
    "dt": "2023.03.14 06:00",
    "o": 146.331,
    "h": 146.489,
    "l": 146.296,
    "c": 146.375,
    "v": 3814
  },
  {
    "dt": "2023.03.14 07:00",
    "o": 146.375,
    "h": 146.565,
    "l": 146.337,
    "c": 146.414,
    "v": 3699
  },
  {
    "dt": "2023.03.14 08:00",
    "o": 146.424,
    "h": 146.603,
    "l": 146.356,
    "c": 146.537,
    "v": 3605
  },
  {
    "dt": "2023.03.14 09:00",
    "o": 146.542,
    "h": 146.626,
    "l": 146.178,
    "c": 146.31,
    "v": 5240
  },
  {
    "dt": "2023.03.14 10:00",
    "o": 146.313,
    "h": 146.517,
    "l": 146.073,
    "c": 146.319,
    "v": 5743
  },
  {
    "dt": "2023.03.14 11:00",
    "o": 146.318,
    "h": 147.085,
    "l": 146.306,
    "c": 146.986,
    "v": 5429
  },
  {
    "dt": "2023.03.14 12:00",
    "o": 146.98,
    "h": 147.216,
    "l": 146.827,
    "c": 147.212,
    "v": 4563
  },
  {
    "dt": "2023.03.14 13:00",
    "o": 147.209,
    "h": 147.266,
    "l": 146.914,
    "c": 147.175,
    "v": 3861
  },
  {
    "dt": "2023.03.14 14:00",
    "o": 147.173,
    "h": 147.214,
    "l": 147.003,
    "c": 147.137,
    "v": 3690
  },
  {
    "dt": "2023.03.14 15:00",
    "o": 147.143,
    "h": 147.495,
    "l": 146.847,
    "c": 147.134,
    "v": 5639
  },
  {
    "dt": "2023.03.14 16:00",
    "o": 147.13,
    "h": 147.524,
    "l": 147.086,
    "c": 147.129,
    "v": 5820
  },
  {
    "dt": "2023.03.14 17:00",
    "o": 147.131,
    "h": 147.281,
    "l": 146.733,
    "c": 146.786,
    "v": 5109
  },
  {
    "dt": "2023.03.14 18:00",
    "o": 146.785,
    "h": 147.045,
    "l": 146.719,
    "c": 146.989,
    "v": 4413
  },
  {
    "dt": "2023.03.14 19:00",
    "o": 146.993,
    "h": 147.081,
    "l": 146.789,
    "c": 146.85,
    "v": 4169
  },
  {
    "dt": "2023.03.14 20:00",
    "o": 146.851,
    "h": 147.136,
    "l": 146.825,
    "c": 147.05,
    "v": 4895
  },
  {
    "dt": "2023.03.14 21:00",
    "o": 147.05,
    "h": 147.08,
    "l": 146.869,
    "c": 146.892,
    "v": 4136
  },
  {
    "dt": "2023.03.14 22:00",
    "o": 146.893,
    "h": 146.969,
    "l": 146.802,
    "c": 146.96,
    "v": 3717
  },
  {
    "dt": "2023.03.14 23:00",
    "o": 146.962,
    "h": 146.962,
    "l": 146.78,
    "c": 146.793,
    "v": 1558
  },
  {
    "dt": "2023.03.15 00:00",
    "o": 146.935,
    "h": 146.982,
    "l": 146.788,
    "c": 146.863,
    "v": 299
  },
  {
    "dt": "2023.03.15 01:00",
    "o": 146.845,
    "h": 146.922,
    "l": 146.759,
    "c": 146.853,
    "v": 2820
  },
  {
    "dt": "2023.03.15 02:00",
    "o": 146.854,
    "h": 147.033,
    "l": 146.854,
    "c": 146.967,
    "v": 1964
  },
  {
    "dt": "2023.03.15 03:00",
    "o": 146.965,
    "h": 147.205,
    "l": 146.905,
    "c": 147.023,
    "v": 3324
  },
  {
    "dt": "2023.03.15 04:00",
    "o": 147.02,
    "h": 147.046,
    "l": 146.862,
    "c": 146.945,
    "v": 3027
  },
  {
    "dt": "2023.03.15 05:00",
    "o": 146.945,
    "h": 147.0,
    "l": 146.822,
    "c": 146.947,
    "v": 3171
  },
  {
    "dt": "2023.03.15 06:00",
    "o": 146.95,
    "h": 147.007,
    "l": 146.845,
    "c": 146.979,
    "v": 2625
  },
  {
    "dt": "2023.03.15 07:00",
    "o": 146.976,
    "h": 147.186,
    "l": 146.96,
    "c": 147.174,
    "v": 2226
  },
  {
    "dt": "2023.03.15 08:00",
    "o": 147.17,
    "h": 147.271,
    "l": 147.091,
    "c": 147.229,
    "v": 2411
  },
  {
    "dt": "2023.03.15 09:00",
    "o": 147.229,
    "h": 147.379,
    "l": 147.138,
    "c": 147.173,
    "v": 2898
  },
  {
    "dt": "2023.03.15 10:00",
    "o": 147.158,
    "h": 147.468,
    "l": 147.101,
    "c": 147.457,
    "v": 4360
  },
  {
    "dt": "2023.03.15 11:00",
    "o": 147.46,
    "h": 147.55,
    "l": 147.072,
    "c": 147.121,
    "v": 4637
  },
  {
    "dt": "2023.03.15 12:00",
    "o": 147.125,
    "h": 147.227,
    "l": 145.969,
    "c": 146.101,
    "v": 5402
  },
  {
    "dt": "2023.03.15 13:00",
    "o": 146.097,
    "h": 146.13,
    "l": 144.747,
    "c": 144.834,
    "v": 5890
  },
  {
    "dt": "2023.03.15 14:00",
    "o": 144.842,
    "h": 145.039,
    "l": 144.349,
    "c": 144.696,
    "v": 5821
  },
  {
    "dt": "2023.03.15 15:00",
    "o": 144.697,
    "h": 144.744,
    "l": 143.761,
    "c": 143.929,
    "v": 5934
  },
  {
    "dt": "2023.03.15 16:00",
    "o": 143.93,
    "h": 144.255,
    "l": 143.393,
    "c": 143.803,
    "v": 6240
  },
  {
    "dt": "2023.03.15 17:00",
    "o": 143.812,
    "h": 144.623,
    "l": 143.735,
    "c": 144.232,
    "v": 5698
  },
  {
    "dt": "2023.03.15 18:00",
    "o": 144.234,
    "h": 144.327,
    "l": 143.661,
    "c": 143.675,
    "v": 5582
  },
  {
    "dt": "2023.03.15 19:00",
    "o": 143.677,
    "h": 143.69,
    "l": 142.904,
    "c": 143.003,
    "v": 5181
  },
  {
    "dt": "2023.03.15 20:00",
    "o": 143.003,
    "h": 143.498,
    "l": 142.64,
    "c": 142.934,
    "v": 5325
  },
  {
    "dt": "2023.03.15 21:00",
    "o": 142.937,
    "h": 143.973,
    "l": 142.706,
    "c": 143.648,
    "v": 5285
  },
  {
    "dt": "2023.03.15 22:00",
    "o": 143.648,
    "h": 143.794,
    "l": 142.857,
    "c": 142.96,
    "v": 5506
  },
  {
    "dt": "2023.03.15 23:00",
    "o": 142.965,
    "h": 143.013,
    "l": 142.75,
    "c": 142.91,
    "v": 3044
  },
  {
    "dt": "2023.03.16 00:00",
    "o": 142.862,
    "h": 142.935,
    "l": 142.797,
    "c": 142.832,
    "v": 210
  },
  {
    "dt": "2023.03.16 01:00",
    "o": 142.829,
    "h": 143.036,
    "l": 142.625,
    "c": 143.035,
    "v": 2074
  },
  {
    "dt": "2023.03.16 02:00",
    "o": 143.032,
    "h": 143.049,
    "l": 142.582,
    "c": 142.653,
    "v": 3024
  },
  {
    "dt": "2023.03.16 03:00",
    "o": 142.653,
    "h": 143.18,
    "l": 142.434,
    "c": 143.093,
    "v": 4573
  },
  {
    "dt": "2023.03.16 04:00",
    "o": 143.088,
    "h": 143.239,
    "l": 142.885,
    "c": 142.924,
    "v": 4068
  },
  {
    "dt": "2023.03.16 05:00",
    "o": 142.925,
    "h": 142.974,
    "l": 142.557,
    "c": 142.612,
    "v": 4141
  },
  {
    "dt": "2023.03.16 06:00",
    "o": 142.613,
    "h": 142.793,
    "l": 142.606,
    "c": 142.625,
    "v": 3393
  },
  {
    "dt": "2023.03.16 07:00",
    "o": 142.623,
    "h": 142.751,
    "l": 142.51,
    "c": 142.737,
    "v": 3078
  },
  {
    "dt": "2023.03.16 08:00",
    "o": 142.741,
    "h": 143.111,
    "l": 142.645,
    "c": 142.707,
    "v": 2858
  },
  {
    "dt": "2023.03.16 09:00",
    "o": 142.711,
    "h": 143.107,
    "l": 142.688,
    "c": 142.946,
    "v": 3136
  },
  {
    "dt": "2023.03.16 10:00",
    "o": 142.947,
    "h": 143.983,
    "l": 142.923,
    "c": 143.927,
    "v": 4862
  },
  {
    "dt": "2023.03.16 11:00",
    "o": 143.93,
    "h": 144.068,
    "l": 143.332,
    "c": 143.471,
    "v": 5509
  },
  {
    "dt": "2023.03.16 12:00",
    "o": 143.471,
    "h": 143.552,
    "l": 143.236,
    "c": 143.271,
    "v": 4444
  },
  {
    "dt": "2023.03.16 13:00",
    "o": 143.272,
    "h": 143.318,
    "l": 142.882,
    "c": 143.012,
    "v": 3868
  },
  {
    "dt": "2023.03.16 14:00",
    "o": 143.014,
    "h": 143.062,
    "l": 142.815,
    "c": 143.062,
    "v": 4094
  },
  {
    "dt": "2023.03.16 15:00",
    "o": 143.065,
    "h": 143.127,
    "l": 142.575,
    "c": 142.79,
    "v": 5108
  },
  {
    "dt": "2023.03.16 16:00",
    "o": 142.796,
    "h": 143.075,
    "l": 141.914,
    "c": 142.619,
    "v": 6100
  },
  {
    "dt": "2023.03.16 17:00",
    "o": 142.623,
    "h": 142.798,
    "l": 141.903,
    "c": 142.578,
    "v": 5950
  },
  {
    "dt": "2023.03.16 18:00",
    "o": 142.581,
    "h": 143.055,
    "l": 142.473,
    "c": 143.014,
    "v": 5900
  },
  {
    "dt": "2023.03.16 19:00",
    "o": 143.017,
    "h": 143.642,
    "l": 142.9,
    "c": 143.58,
    "v": 5262
  },
  {
    "dt": "2023.03.16 20:00",
    "o": 143.584,
    "h": 143.776,
    "l": 143.354,
    "c": 143.451,
    "v": 4951
  },
  {
    "dt": "2023.03.16 21:00",
    "o": 143.453,
    "h": 143.664,
    "l": 143.394,
    "c": 143.546,
    "v": 4342
  },
  {
    "dt": "2023.03.16 22:00",
    "o": 143.549,
    "h": 143.7,
    "l": 143.508,
    "c": 143.537,
    "v": 3817
  },
  {
    "dt": "2023.03.16 23:00",
    "o": 143.542,
    "h": 143.939,
    "l": 143.51,
    "c": 143.912,
    "v": 2287
  },
  {
    "dt": "2023.03.17 00:00",
    "o": 143.86,
    "h": 143.877,
    "l": 143.572,
    "c": 143.649,
    "v": 210
  },
  {
    "dt": "2023.03.17 01:00",
    "o": 143.632,
    "h": 143.74,
    "l": 143.59,
    "c": 143.591,
    "v": 1686
  },
  {
    "dt": "2023.03.17 02:00",
    "o": 143.604,
    "h": 143.636,
    "l": 143.494,
    "c": 143.516,
    "v": 2167
  },
  {
    "dt": "2023.03.17 03:00",
    "o": 143.516,
    "h": 143.717,
    "l": 143.509,
    "c": 143.546,
    "v": 2871
  },
  {
    "dt": "2023.03.17 04:00",
    "o": 143.55,
    "h": 143.703,
    "l": 143.472,
    "c": 143.666,
    "v": 3253
  },
  {
    "dt": "2023.03.17 05:00",
    "o": 143.668,
    "h": 143.728,
    "l": 143.594,
    "c": 143.672,
    "v": 2497
  },
  {
    "dt": "2023.03.17 06:00",
    "o": 143.661,
    "h": 143.681,
    "l": 143.553,
    "c": 143.68,
    "v": 3085
  },
  {
    "dt": "2023.03.17 07:00",
    "o": 143.678,
    "h": 143.849,
    "l": 143.61,
    "c": 143.617,
    "v": 3061
  },
  {
    "dt": "2023.03.17 08:00",
    "o": 143.624,
    "h": 143.74,
    "l": 143.483,
    "c": 143.659,
    "v": 2839
  },
  {
    "dt": "2023.03.17 09:00",
    "o": 143.658,
    "h": 143.688,
    "l": 143.417,
    "c": 143.631,
    "v": 2731
  },
  {
    "dt": "2023.03.17 10:00",
    "o": 143.628,
    "h": 143.931,
    "l": 143.499,
    "c": 143.813,
    "v": 4304
  },
  {
    "dt": "2023.03.17 11:00",
    "o": 143.807,
    "h": 144.139,
    "l": 143.683,
    "c": 144.022,
    "v": 4775
  },
  {
    "dt": "2023.03.17 12:00",
    "o": 144.024,
    "h": 144.151,
    "l": 143.583,
    "c": 143.724,
    "v": 3902
  },
  {
    "dt": "2023.03.17 13:00",
    "o": 143.724,
    "h": 143.815,
    "l": 143.556,
    "c": 143.583,
    "v": 3725
  },
  {
    "dt": "2023.03.17 14:00",
    "o": 143.583,
    "h": 143.677,
    "l": 142.833,
    "c": 142.969,
    "v": 4654
  },
  {
    "dt": "2023.03.17 15:00",
    "o": 142.971,
    "h": 143.101,
    "l": 142.29,
    "c": 142.557,
    "v": 5099
  },
  {
    "dt": "2023.03.17 16:00",
    "o": 142.563,
    "h": 142.806,
    "l": 142.471,
    "c": 142.614,
    "v": 5393
  },
  {
    "dt": "2023.03.17 17:00",
    "o": 142.542,
    "h": 142.763,
    "l": 142.127,
    "c": 142.391,
    "v": 5643
  },
  {
    "dt": "2023.03.17 18:00",
    "o": 142.393,
    "h": 142.533,
    "l": 142.125,
    "c": 142.203,
    "v": 4957
  },
  {
    "dt": "2023.03.17 19:00",
    "o": 142.201,
    "h": 142.65,
    "l": 142.14,
    "c": 142.372,
    "v": 4131
  },
  {
    "dt": "2023.03.17 20:00",
    "o": 142.38,
    "h": 142.558,
    "l": 142.191,
    "c": 142.366,
    "v": 3579
  },
  {
    "dt": "2023.03.17 21:00",
    "o": 142.366,
    "h": 142.432,
    "l": 142.02,
    "c": 142.232,
    "v": 4333
  },
  {
    "dt": "2023.03.17 22:00",
    "o": 142.236,
    "h": 142.48,
    "l": 142.226,
    "c": 142.467,
    "v": 3805
  },
  {
    "dt": "2023.03.17 23:00",
    "o": 142.467,
    "h": 142.537,
    "l": 142.188,
    "c": 142.287,
    "v": 2615
  },
  {
    "dt": "2023.03.20 00:00",
    "o": 142.151,
    "h": 142.459,
    "l": 142.111,
    "c": 142.459,
    "v": 190
  },
  {
    "dt": "2023.03.20 01:00",
    "o": 142.131,
    "h": 142.645,
    "l": 142.11,
    "c": 142.531,
    "v": 1797
  },
  {
    "dt": "2023.03.20 02:00",
    "o": 142.53,
    "h": 142.765,
    "l": 142.395,
    "c": 142.688,
    "v": 2171
  },
  {
    "dt": "2023.03.20 03:00",
    "o": 142.693,
    "h": 143.117,
    "l": 142.649,
    "c": 143.115,
    "v": 3227
  },
  {
    "dt": "2023.03.20 04:00",
    "o": 143.112,
    "h": 143.16,
    "l": 142.731,
    "c": 142.779,
    "v": 3509
  },
  {
    "dt": "2023.03.20 05:00",
    "o": 142.779,
    "h": 142.885,
    "l": 142.574,
    "c": 142.754,
    "v": 2487
  },
  {
    "dt": "2023.03.20 06:00",
    "o": 142.749,
    "h": 142.794,
    "l": 142.407,
    "c": 142.53,
    "v": 3325
  },
  {
    "dt": "2023.03.20 07:00",
    "o": 142.527,
    "h": 142.626,
    "l": 142.3,
    "c": 142.347,
    "v": 2768
  },
  {
    "dt": "2023.03.20 08:00",
    "o": 142.344,
    "h": 142.558,
    "l": 142.266,
    "c": 142.451,
    "v": 2272
  },
  {
    "dt": "2023.03.20 09:00",
    "o": 142.449,
    "h": 142.459,
    "l": 141.552,
    "c": 141.552,
    "v": 4414
  },
  {
    "dt": "2023.03.20 10:00",
    "o": 141.554,
    "h": 141.573,
    "l": 141.169,
    "c": 141.265,
    "v": 5307
  },
  {
    "dt": "2023.03.20 11:00",
    "o": 141.275,
    "h": 141.459,
    "l": 140.237,
    "c": 140.959,
    "v": 5573
  },
  {
    "dt": "2023.03.20 12:00",
    "o": 140.962,
    "h": 141.26,
    "l": 140.746,
    "c": 141.196,
    "v": 5148
  },
  {
    "dt": "2023.03.20 13:00",
    "o": 141.203,
    "h": 141.698,
    "l": 141.074,
    "c": 141.497,
    "v": 4780
  },
  {
    "dt": "2023.03.20 14:00",
    "o": 141.497,
    "h": 141.528,
    "l": 141.103,
    "c": 141.406,
    "v": 4427
  },
  {
    "dt": "2023.03.20 15:00",
    "o": 141.402,
    "h": 142.023,
    "l": 141.289,
    "c": 141.818,
    "v": 4842
  },
  {
    "dt": "2023.03.20 16:00",
    "o": 141.799,
    "h": 142.374,
    "l": 141.634,
    "c": 142.268,
    "v": 5380
  },
  {
    "dt": "2023.03.20 17:00",
    "o": 142.272,
    "h": 142.45,
    "l": 142.151,
    "c": 142.408,
    "v": 5015
  },
  {
    "dt": "2023.03.20 18:00",
    "o": 142.408,
    "h": 142.452,
    "l": 141.973,
    "c": 141.997,
    "v": 5191
  },
  {
    "dt": "2023.03.20 19:00",
    "o": 141.998,
    "h": 142.136,
    "l": 141.775,
    "c": 142.125,
    "v": 5288
  },
  {
    "dt": "2023.03.20 20:00",
    "o": 142.122,
    "h": 142.215,
    "l": 141.736,
    "c": 141.78,
    "v": 4388
  },
  {
    "dt": "2023.03.20 21:00",
    "o": 141.782,
    "h": 141.852,
    "l": 141.404,
    "c": 141.452,
    "v": 4440
  },
  {
    "dt": "2023.03.20 22:00",
    "o": 141.446,
    "h": 141.572,
    "l": 141.442,
    "c": 141.529,
    "v": 4103
  },
  {
    "dt": "2023.03.20 23:00",
    "o": 141.528,
    "h": 141.544,
    "l": 141.296,
    "c": 141.3,
    "v": 3147
  },
  {
    "dt": "2023.03.21 00:00",
    "o": 141.365,
    "h": 141.475,
    "l": 141.251,
    "c": 141.32,
    "v": 277
  },
  {
    "dt": "2023.03.21 01:00",
    "o": 141.283,
    "h": 141.481,
    "l": 141.269,
    "c": 141.456,
    "v": 2847
  },
  {
    "dt": "2023.03.21 02:00",
    "o": 141.457,
    "h": 141.481,
    "l": 141.289,
    "c": 141.375,
    "v": 2170
  },
  {
    "dt": "2023.03.21 03:00",
    "o": 141.372,
    "h": 141.604,
    "l": 141.2,
    "c": 141.224,
    "v": 3687
  },
  {
    "dt": "2023.03.21 04:00",
    "o": 141.224,
    "h": 141.269,
    "l": 141.058,
    "c": 141.238,
    "v": 3573
  },
  {
    "dt": "2023.03.21 05:00",
    "o": 141.237,
    "h": 141.337,
    "l": 141.229,
    "c": 141.259,
    "v": 2404
  },
  {
    "dt": "2023.03.21 06:00",
    "o": 141.258,
    "h": 141.348,
    "l": 141.2,
    "c": 141.222,
    "v": 2277
  },
  {
    "dt": "2023.03.21 07:00",
    "o": 141.218,
    "h": 141.362,
    "l": 141.161,
    "c": 141.161,
    "v": 2356
  },
  {
    "dt": "2023.03.21 08:00",
    "o": 141.157,
    "h": 141.202,
    "l": 141.07,
    "c": 141.144,
    "v": 1486
  },
  {
    "dt": "2023.03.21 09:00",
    "o": 141.147,
    "h": 141.42,
    "l": 141.12,
    "c": 141.386,
    "v": 2672
  },
  {
    "dt": "2023.03.21 10:00",
    "o": 141.384,
    "h": 141.861,
    "l": 141.334,
    "c": 141.808,
    "v": 4136
  },
  {
    "dt": "2023.03.21 11:00",
    "o": 141.811,
    "h": 142.408,
    "l": 141.675,
    "c": 142.408,
    "v": 5427
  },
  {
    "dt": "2023.03.21 12:00",
    "o": 142.406,
    "h": 142.673,
    "l": 142.286,
    "c": 142.627,
    "v": 4965
  },
  {
    "dt": "2023.03.21 13:00",
    "o": 142.625,
    "h": 143.05,
    "l": 142.579,
    "c": 142.859,
    "v": 4868
  },
  {
    "dt": "2023.03.21 14:00",
    "o": 142.858,
    "h": 143.233,
    "l": 142.791,
    "c": 143.151,
    "v": 4927
  },
  {
    "dt": "2023.03.21 15:00",
    "o": 143.15,
    "h": 143.335,
    "l": 142.91,
    "c": 143.069,
    "v": 5033
  },
  {
    "dt": "2023.03.21 16:00",
    "o": 143.061,
    "h": 143.236,
    "l": 142.896,
    "c": 143.15,
    "v": 5271
  },
  {
    "dt": "2023.03.21 17:00",
    "o": 143.159,
    "h": 143.207,
    "l": 142.591,
    "c": 142.731,
    "v": 5729
  },
  {
    "dt": "2023.03.21 18:00",
    "o": 142.73,
    "h": 143.394,
    "l": 142.678,
    "c": 143.157,
    "v": 5293
  },
  {
    "dt": "2023.03.21 19:00",
    "o": 143.155,
    "h": 143.645,
    "l": 143.121,
    "c": 143.512,
    "v": 4473
  },
  {
    "dt": "2023.03.21 20:00",
    "o": 143.513,
    "h": 143.649,
    "l": 143.474,
    "c": 143.547,
    "v": 4259
  },
  {
    "dt": "2023.03.21 21:00",
    "o": 143.546,
    "h": 143.665,
    "l": 143.481,
    "c": 143.619,
    "v": 2487
  },
  {
    "dt": "2023.03.21 22:00",
    "o": 143.612,
    "h": 143.655,
    "l": 143.518,
    "c": 143.523,
    "v": 2375
  },
  {
    "dt": "2023.03.21 23:00",
    "o": 143.524,
    "h": 143.679,
    "l": 143.524,
    "c": 143.597,
    "v": 1513
  },
  {
    "dt": "2023.03.22 00:00",
    "o": 143.517,
    "h": 143.624,
    "l": 143.517,
    "c": 143.546,
    "v": 877
  },
  {
    "dt": "2023.03.22 01:00",
    "o": 143.549,
    "h": 143.604,
    "l": 143.484,
    "c": 143.514,
    "v": 1167
  },
  {
    "dt": "2023.03.22 02:00",
    "o": 143.515,
    "h": 143.619,
    "l": 143.469,
    "c": 143.613,
    "v": 1347
  },
  {
    "dt": "2023.03.22 03:00",
    "o": 143.615,
    "h": 143.839,
    "l": 143.558,
    "c": 143.677,
    "v": 2930
  },
  {
    "dt": "2023.03.22 04:00",
    "o": 143.678,
    "h": 143.927,
    "l": 143.533,
    "c": 143.719,
    "v": 3608
  },
  {
    "dt": "2023.03.22 05:00",
    "o": 143.724,
    "h": 143.769,
    "l": 143.34,
    "c": 143.438,
    "v": 2670
  },
  {
    "dt": "2023.03.22 06:00",
    "o": 143.441,
    "h": 143.5,
    "l": 143.358,
    "c": 143.475,
    "v": 2457
  },
  {
    "dt": "2023.03.22 07:00",
    "o": 143.481,
    "h": 143.562,
    "l": 143.428,
    "c": 143.526,
    "v": 2220
  },
  {
    "dt": "2023.03.22 08:00",
    "o": 143.527,
    "h": 143.589,
    "l": 143.431,
    "c": 143.517,
    "v": 2008
  },
  {
    "dt": "2023.03.22 09:00",
    "o": 143.518,
    "h": 143.553,
    "l": 143.314,
    "c": 143.418,
    "v": 2436
  },
  {
    "dt": "2023.03.22 10:00",
    "o": 143.425,
    "h": 143.672,
    "l": 143.285,
    "c": 143.645,
    "v": 4078
  },
  {
    "dt": "2023.03.22 11:00",
    "o": 143.645,
    "h": 143.859,
    "l": 143.48,
    "c": 143.623,
    "v": 4375
  },
  {
    "dt": "2023.03.22 12:00",
    "o": 143.627,
    "h": 143.808,
    "l": 143.556,
    "c": 143.771,
    "v": 3321
  },
  {
    "dt": "2023.03.22 13:00",
    "o": 143.769,
    "h": 144.075,
    "l": 143.633,
    "c": 144.013,
    "v": 3598
  },
  {
    "dt": "2023.03.22 14:00",
    "o": 144.009,
    "h": 144.139,
    "l": 143.961,
    "c": 144.055,
    "v": 3071
  },
  {
    "dt": "2023.03.22 15:00",
    "o": 144.055,
    "h": 144.188,
    "l": 143.831,
    "c": 143.865,
    "v": 3350
  },
  {
    "dt": "2023.03.22 16:00",
    "o": 143.858,
    "h": 143.868,
    "l": 143.493,
    "c": 143.622,
    "v": 3737
  },
  {
    "dt": "2023.03.22 17:00",
    "o": 143.62,
    "h": 143.794,
    "l": 143.565,
    "c": 143.725,
    "v": 3615
  },
  {
    "dt": "2023.03.22 18:00",
    "o": 143.725,
    "h": 143.73,
    "l": 143.479,
    "c": 143.61,
    "v": 3504
  },
  {
    "dt": "2023.03.22 19:00",
    "o": 143.612,
    "h": 143.72,
    "l": 143.539,
    "c": 143.601,
    "v": 2909
  },
  {
    "dt": "2023.03.22 20:00",
    "o": 143.604,
    "h": 143.717,
    "l": 143.304,
    "c": 143.319,
    "v": 2800
  },
  {
    "dt": "2023.03.22 21:00",
    "o": 143.33,
    "h": 143.58,
    "l": 143.1,
    "c": 143.255,
    "v": 6246
  },
  {
    "dt": "2023.03.22 22:00",
    "o": 143.255,
    "h": 143.369,
    "l": 142.865,
    "c": 142.906,
    "v": 5309
  },
  {
    "dt": "2023.03.22 23:00",
    "o": 142.908,
    "h": 143.345,
    "l": 142.726,
    "c": 143.33,
    "v": 2768
  },
  {
    "dt": "2023.03.23 00:00",
    "o": 143.087,
    "h": 143.239,
    "l": 143.087,
    "c": 143.13,
    "v": 223
  },
  {
    "dt": "2023.03.23 01:00",
    "o": 143.087,
    "h": 143.292,
    "l": 143.036,
    "c": 143.26,
    "v": 2053
  },
  {
    "dt": "2023.03.23 02:00",
    "o": 143.259,
    "h": 143.279,
    "l": 143.021,
    "c": 143.078,
    "v": 1511
  },
  {
    "dt": "2023.03.23 03:00",
    "o": 143.077,
    "h": 143.169,
    "l": 142.755,
    "c": 142.909,
    "v": 3692
  },
  {
    "dt": "2023.03.23 04:00",
    "o": 142.91,
    "h": 142.91,
    "l": 142.613,
    "c": 142.728,
    "v": 3532
  },
  {
    "dt": "2023.03.23 05:00",
    "o": 142.723,
    "h": 142.761,
    "l": 142.585,
    "c": 142.654,
    "v": 3296
  },
  {
    "dt": "2023.03.23 06:00",
    "o": 142.656,
    "h": 142.741,
    "l": 142.552,
    "c": 142.622,
    "v": 3155
  },
  {
    "dt": "2023.03.23 07:00",
    "o": 142.621,
    "h": 142.869,
    "l": 142.598,
    "c": 142.823,
    "v": 2379
  },
  {
    "dt": "2023.03.23 08:00",
    "o": 142.821,
    "h": 142.903,
    "l": 142.684,
    "c": 142.813,
    "v": 2773
  },
  {
    "dt": "2023.03.23 09:00",
    "o": 142.811,
    "h": 143.007,
    "l": 142.64,
    "c": 142.912,
    "v": 3447
  },
  {
    "dt": "2023.03.23 10:00",
    "o": 142.916,
    "h": 143.056,
    "l": 142.807,
    "c": 142.906,
    "v": 4752
  },
  {
    "dt": "2023.03.23 11:00",
    "o": 142.893,
    "h": 143.685,
    "l": 142.764,
    "c": 143.541,
    "v": 4985
  },
  {
    "dt": "2023.03.23 12:00",
    "o": 143.537,
    "h": 143.626,
    "l": 142.982,
    "c": 143.189,
    "v": 4126
  },
  {
    "dt": "2023.03.23 13:00",
    "o": 143.178,
    "h": 143.329,
    "l": 143.036,
    "c": 143.175,
    "v": 3791
  },
  {
    "dt": "2023.03.23 14:00",
    "o": 143.179,
    "h": 143.363,
    "l": 143.15,
    "c": 143.208,
    "v": 3586
  },
  {
    "dt": "2023.03.23 15:00",
    "o": 143.203,
    "h": 143.584,
    "l": 143.054,
    "c": 143.41,
    "v": 4706
  },
  {
    "dt": "2023.03.23 16:00",
    "o": 143.408,
    "h": 143.433,
    "l": 143.151,
    "c": 143.219,
    "v": 4702
  },
  {
    "dt": "2023.03.23 17:00",
    "o": 143.222,
    "h": 143.641,
    "l": 143.165,
    "c": 143.558,
    "v": 4361
  },
  {
    "dt": "2023.03.23 18:00",
    "o": 143.557,
    "h": 143.657,
    "l": 143.175,
    "c": 143.238,
    "v": 3950
  },
  {
    "dt": "2023.03.23 19:00",
    "o": 143.234,
    "h": 143.35,
    "l": 143.042,
    "c": 143.073,
    "v": 4120
  },
  {
    "dt": "2023.03.23 20:00",
    "o": 143.071,
    "h": 143.217,
    "l": 142.988,
    "c": 143.04,
    "v": 3633
  },
  {
    "dt": "2023.03.23 21:00",
    "o": 143.042,
    "h": 143.088,
    "l": 142.506,
    "c": 142.591,
    "v": 4147
  },
  {
    "dt": "2023.03.23 22:00",
    "o": 142.579,
    "h": 143.078,
    "l": 142.219,
    "c": 142.578,
    "v": 5649
  },
  {
    "dt": "2023.03.23 23:00",
    "o": 142.571,
    "h": 142.808,
    "l": 142.531,
    "c": 142.744,
    "v": 2825
  },
  {
    "dt": "2023.03.24 00:00",
    "o": 142.652,
    "h": 142.728,
    "l": 142.561,
    "c": 142.637,
    "v": 262
  },
  {
    "dt": "2023.03.24 01:00",
    "o": 142.622,
    "h": 142.805,
    "l": 142.609,
    "c": 142.704,
    "v": 1530
  },
  {
    "dt": "2023.03.24 02:00",
    "o": 142.699,
    "h": 142.734,
    "l": 142.553,
    "c": 142.734,
    "v": 1711
  },
  {
    "dt": "2023.03.24 03:00",
    "o": 142.748,
    "h": 142.802,
    "l": 142.424,
    "c": 142.424,
    "v": 3314
  },
  {
    "dt": "2023.03.24 04:00",
    "o": 142.427,
    "h": 142.432,
    "l": 141.976,
    "c": 142.346,
    "v": 4245
  },
  {
    "dt": "2023.03.24 05:00",
    "o": 142.339,
    "h": 142.453,
    "l": 142.166,
    "c": 142.176,
    "v": 2751
  },
  {
    "dt": "2023.03.24 06:00",
    "o": 142.161,
    "h": 142.301,
    "l": 142.101,
    "c": 142.207,
    "v": 2534
  },
  {
    "dt": "2023.03.24 07:00",
    "o": 142.206,
    "h": 142.293,
    "l": 142.035,
    "c": 142.071,
    "v": 2629
  },
  {
    "dt": "2023.03.24 08:00",
    "o": 142.07,
    "h": 142.202,
    "l": 141.975,
    "c": 142.064,
    "v": 2726
  },
  {
    "dt": "2023.03.24 09:00",
    "o": 142.063,
    "h": 142.169,
    "l": 141.924,
    "c": 142.046,
    "v": 2873
  },
  {
    "dt": "2023.03.24 10:00",
    "o": 142.051,
    "h": 142.193,
    "l": 141.906,
    "c": 141.923,
    "v": 3572
  },
  {
    "dt": "2023.03.24 11:00",
    "o": 141.921,
    "h": 141.97,
    "l": 141.387,
    "c": 141.759,
    "v": 5687
  },
  {
    "dt": "2023.03.24 12:00",
    "o": 141.757,
    "h": 141.939,
    "l": 141.112,
    "c": 141.292,
    "v": 5277
  },
  {
    "dt": "2023.03.24 13:00",
    "o": 141.295,
    "h": 141.4,
    "l": 140.99,
    "c": 141.024,
    "v": 5345
  },
  {
    "dt": "2023.03.24 14:00",
    "o": 141.023,
    "h": 141.447,
    "l": 140.828,
    "c": 141.314,
    "v": 4575
  },
  {
    "dt": "2023.03.24 15:00",
    "o": 141.319,
    "h": 141.721,
    "l": 141.143,
    "c": 141.603,
    "v": 5040
  },
  {
    "dt": "2023.03.24 16:00",
    "o": 141.605,
    "h": 142.11,
    "l": 141.459,
    "c": 142.085,
    "v": 5456
  },
  {
    "dt": "2023.03.24 17:00",
    "o": 142.095,
    "h": 142.178,
    "l": 141.921,
    "c": 142.024,
    "v": 5191
  },
  {
    "dt": "2023.03.24 18:00",
    "o": 142.031,
    "h": 142.321,
    "l": 141.748,
    "c": 142.268,
    "v": 4503
  },
  {
    "dt": "2023.03.24 19:00",
    "o": 142.271,
    "h": 142.589,
    "l": 142.238,
    "c": 142.356,
    "v": 4108
  },
  {
    "dt": "2023.03.24 20:00",
    "o": 142.353,
    "h": 142.384,
    "l": 142.126,
    "c": 142.18,
    "v": 3501
  },
  {
    "dt": "2023.03.24 21:00",
    "o": 142.175,
    "h": 142.255,
    "l": 142.075,
    "c": 142.139,
    "v": 2578
  },
  {
    "dt": "2023.03.24 22:00",
    "o": 142.144,
    "h": 142.242,
    "l": 142.084,
    "c": 142.165,
    "v": 2440
  },
  {
    "dt": "2023.03.24 23:00",
    "o": 142.161,
    "h": 142.233,
    "l": 142.06,
    "c": 142.087,
    "v": 1319
  },
  {
    "dt": "2023.03.27 00:00",
    "o": 142.102,
    "h": 142.268,
    "l": 141.896,
    "c": 141.973,
    "v": 624
  },
  {
    "dt": "2023.03.27 01:00",
    "o": 142.085,
    "h": 142.347,
    "l": 142.038,
    "c": 142.28,
    "v": 2216
  },
  {
    "dt": "2023.03.27 02:00",
    "o": 142.285,
    "h": 142.437,
    "l": 142.208,
    "c": 142.357,
    "v": 1629
  },
  {
    "dt": "2023.03.27 03:00",
    "o": 142.36,
    "h": 142.368,
    "l": 142.016,
    "c": 142.148,
    "v": 3212
  },
  {
    "dt": "2023.03.27 04:00",
    "o": 142.143,
    "h": 142.491,
    "l": 142.125,
    "c": 142.294,
    "v": 3278
  },
  {
    "dt": "2023.03.27 05:00",
    "o": 142.292,
    "h": 142.348,
    "l": 142.191,
    "c": 142.245,
    "v": 2208
  },
  {
    "dt": "2023.03.27 06:00",
    "o": 142.247,
    "h": 142.34,
    "l": 142.162,
    "c": 142.186,
    "v": 2115
  },
  {
    "dt": "2023.03.27 07:00",
    "o": 142.187,
    "h": 142.266,
    "l": 142.139,
    "c": 142.265,
    "v": 2009
  },
  {
    "dt": "2023.03.27 08:00",
    "o": 142.267,
    "h": 142.557,
    "l": 142.264,
    "c": 142.45,
    "v": 2717
  },
  {
    "dt": "2023.03.27 09:00",
    "o": 142.45,
    "h": 143.018,
    "l": 142.427,
    "c": 142.94,
    "v": 3855
  },
  {
    "dt": "2023.03.27 10:00",
    "o": 142.949,
    "h": 143.157,
    "l": 142.505,
    "c": 142.63,
    "v": 4557
  },
  {
    "dt": "2023.03.27 11:00",
    "o": 142.637,
    "h": 143.204,
    "l": 142.632,
    "c": 143.047,
    "v": 4167
  },
  {
    "dt": "2023.03.27 12:00",
    "o": 143.04,
    "h": 143.458,
    "l": 143.038,
    "c": 143.439,
    "v": 3812
  },
  {
    "dt": "2023.03.27 13:00",
    "o": 143.436,
    "h": 143.639,
    "l": 143.33,
    "c": 143.469,
    "v": 3437
  },
  {
    "dt": "2023.03.27 14:00",
    "o": 143.476,
    "h": 143.656,
    "l": 143.32,
    "c": 143.449,
    "v": 3534
  },
  {
    "dt": "2023.03.27 15:00",
    "o": 143.449,
    "h": 143.573,
    "l": 143.37,
    "c": 143.525,
    "v": 3945
  },
  {
    "dt": "2023.03.27 16:00",
    "o": 143.525,
    "h": 143.696,
    "l": 143.378,
    "c": 143.446,
    "v": 4159
  },
  {
    "dt": "2023.03.27 17:00",
    "o": 143.437,
    "h": 143.634,
    "l": 143.262,
    "c": 143.482,
    "v": 4156
  },
  {
    "dt": "2023.03.27 18:00",
    "o": 143.477,
    "h": 143.537,
    "l": 143.343,
    "c": 143.479,
    "v": 3351
  },
  {
    "dt": "2023.03.27 19:00",
    "o": 143.477,
    "h": 143.636,
    "l": 143.439,
    "c": 143.624,
    "v": 2669
  },
  {
    "dt": "2023.03.27 20:00",
    "o": 143.625,
    "h": 143.728,
    "l": 143.557,
    "c": 143.626,
    "v": 2662
  },
  {
    "dt": "2023.03.27 21:00",
    "o": 143.627,
    "h": 143.707,
    "l": 143.588,
    "c": 143.617,
    "v": 2377
  },
  {
    "dt": "2023.03.27 22:00",
    "o": 143.619,
    "h": 143.694,
    "l": 143.537,
    "c": 143.672,
    "v": 2245
  },
  {
    "dt": "2023.03.27 23:00",
    "o": 143.672,
    "h": 143.712,
    "l": 143.617,
    "c": 143.675,
    "v": 1488
  },
  {
    "dt": "2023.03.28 00:00",
    "o": 143.538,
    "h": 143.617,
    "l": 143.497,
    "c": 143.504,
    "v": 282
  },
  {
    "dt": "2023.03.28 01:00",
    "o": 143.584,
    "h": 143.677,
    "l": 143.535,
    "c": 143.573,
    "v": 2540
  },
  {
    "dt": "2023.03.28 02:00",
    "o": 143.576,
    "h": 143.592,
    "l": 143.348,
    "c": 143.389,
    "v": 1737
  },
  {
    "dt": "2023.03.28 03:00",
    "o": 143.386,
    "h": 143.386,
    "l": 142.853,
    "c": 142.988,
    "v": 3264
  },
  {
    "dt": "2023.03.28 04:00",
    "o": 142.984,
    "h": 143.076,
    "l": 142.865,
    "c": 143.017,
    "v": 3093
  },
  {
    "dt": "2023.03.28 05:00",
    "o": 143.017,
    "h": 143.078,
    "l": 142.935,
    "c": 142.944,
    "v": 1976
  },
  {
    "dt": "2023.03.28 06:00",
    "o": 142.944,
    "h": 142.978,
    "l": 142.839,
    "c": 142.855,
    "v": 1815
  },
  {
    "dt": "2023.03.28 07:00",
    "o": 142.856,
    "h": 142.947,
    "l": 142.813,
    "c": 142.853,
    "v": 2056
  },
  {
    "dt": "2023.03.28 08:00",
    "o": 142.852,
    "h": 142.897,
    "l": 142.729,
    "c": 142.878,
    "v": 2180
  },
  {
    "dt": "2023.03.28 09:00",
    "o": 142.869,
    "h": 143.112,
    "l": 142.663,
    "c": 142.724,
    "v": 3544
  },
  {
    "dt": "2023.03.28 10:00",
    "o": 142.734,
    "h": 143.309,
    "l": 142.603,
    "c": 143.085,
    "v": 4039
  },
  {
    "dt": "2023.03.28 11:00",
    "o": 143.076,
    "h": 143.209,
    "l": 142.817,
    "c": 142.864,
    "v": 3226
  },
  {
    "dt": "2023.03.28 12:00",
    "o": 142.86,
    "h": 143.038,
    "l": 142.54,
    "c": 142.607,
    "v": 3054
  },
  {
    "dt": "2023.03.28 13:00",
    "o": 142.606,
    "h": 142.859,
    "l": 142.559,
    "c": 142.7,
    "v": 2936
  },
  {
    "dt": "2023.03.28 14:00",
    "o": 142.7,
    "h": 142.913,
    "l": 142.425,
    "c": 142.463,
    "v": 2586
  },
  {
    "dt": "2023.03.28 15:00",
    "o": 142.463,
    "h": 142.524,
    "l": 142.197,
    "c": 142.287,
    "v": 3895
  },
  {
    "dt": "2023.03.28 16:00",
    "o": 142.284,
    "h": 142.517,
    "l": 142.144,
    "c": 142.149,
    "v": 4187
  },
  {
    "dt": "2023.03.28 17:00",
    "o": 142.148,
    "h": 142.385,
    "l": 142.065,
    "c": 142.226,
    "v": 3901
  },
  {
    "dt": "2023.03.28 18:00",
    "o": 142.228,
    "h": 142.543,
    "l": 142.194,
    "c": 142.37,
    "v": 3346
  },
  {
    "dt": "2023.03.28 19:00",
    "o": 142.368,
    "h": 142.43,
    "l": 142.25,
    "c": 142.429,
    "v": 2301
  },
  {
    "dt": "2023.03.28 20:00",
    "o": 142.43,
    "h": 142.442,
    "l": 142.005,
    "c": 142.042,
    "v": 2386
  },
  {
    "dt": "2023.03.28 21:00",
    "o": 142.04,
    "h": 142.261,
    "l": 142.04,
    "c": 142.25,
    "v": 2082
  },
  {
    "dt": "2023.03.28 22:00",
    "o": 142.248,
    "h": 142.322,
    "l": 142.179,
    "c": 142.307,
    "v": 1756
  },
  {
    "dt": "2023.03.28 23:00",
    "o": 142.301,
    "h": 142.371,
    "l": 142.211,
    "c": 142.333,
    "v": 1213
  },
  {
    "dt": "2023.03.29 00:00",
    "o": 142.126,
    "h": 142.312,
    "l": 142.126,
    "c": 142.189,
    "v": 480
  },
  {
    "dt": "2023.03.29 01:00",
    "o": 142.177,
    "h": 142.23,
    "l": 142.103,
    "c": 142.169,
    "v": 1078
  },
  {
    "dt": "2023.03.29 02:00",
    "o": 142.169,
    "h": 142.372,
    "l": 142.168,
    "c": 142.356,
    "v": 1223
  },
  {
    "dt": "2023.03.29 03:00",
    "o": 142.352,
    "h": 142.792,
    "l": 142.303,
    "c": 142.755,
    "v": 3006
  },
  {
    "dt": "2023.03.29 04:00",
    "o": 142.756,
    "h": 143.081,
    "l": 142.719,
    "c": 142.887,
    "v": 3087
  },
  {
    "dt": "2023.03.29 05:00",
    "o": 142.887,
    "h": 143.124,
    "l": 142.864,
    "c": 143.061,
    "v": 1950
  },
  {
    "dt": "2023.03.29 06:00",
    "o": 143.058,
    "h": 143.105,
    "l": 142.959,
    "c": 143.01,
    "v": 1466
  },
  {
    "dt": "2023.03.29 07:00",
    "o": 143.013,
    "h": 143.046,
    "l": 142.923,
    "c": 143.043,
    "v": 2251
  },
  {
    "dt": "2023.03.29 08:00",
    "o": 143.044,
    "h": 143.186,
    "l": 142.956,
    "c": 143.141,
    "v": 1999
  },
  {
    "dt": "2023.03.29 09:00",
    "o": 143.153,
    "h": 143.238,
    "l": 142.954,
    "c": 143.078,
    "v": 3466
  },
  {
    "dt": "2023.03.29 10:00",
    "o": 143.082,
    "h": 143.525,
    "l": 143.058,
    "c": 143.423,
    "v": 4013
  },
  {
    "dt": "2023.03.29 11:00",
    "o": 143.428,
    "h": 143.573,
    "l": 143.337,
    "c": 143.463,
    "v": 3588
  },
  {
    "dt": "2023.03.29 12:00",
    "o": 143.463,
    "h": 143.665,
    "l": 143.375,
    "c": 143.563,
    "v": 3721
  },
  {
    "dt": "2023.03.29 13:00",
    "o": 143.56,
    "h": 143.734,
    "l": 143.556,
    "c": 143.669,
    "v": 3314
  },
  {
    "dt": "2023.03.29 14:00",
    "o": 143.671,
    "h": 143.999,
    "l": 143.611,
    "c": 143.843,
    "v": 3389
  },
  {
    "dt": "2023.03.29 15:00",
    "o": 143.85,
    "h": 144.26,
    "l": 143.768,
    "c": 144.167,
    "v": 4293
  },
  {
    "dt": "2023.03.29 16:00",
    "o": 144.164,
    "h": 144.2,
    "l": 143.722,
    "c": 143.776,
    "v": 4082
  },
  {
    "dt": "2023.03.29 17:00",
    "o": 143.768,
    "h": 144.123,
    "l": 143.682,
    "c": 144.051,
    "v": 4209
  },
  {
    "dt": "2023.03.29 18:00",
    "o": 144.051,
    "h": 144.331,
    "l": 144.051,
    "c": 144.289,
    "v": 3830
  },
  {
    "dt": "2023.03.29 19:00",
    "o": 144.291,
    "h": 144.314,
    "l": 144.044,
    "c": 144.079,
    "v": 2680
  },
  {
    "dt": "2023.03.29 20:00",
    "o": 144.079,
    "h": 144.289,
    "l": 144.061,
    "c": 144.285,
    "v": 2368
  },
  {
    "dt": "2023.03.29 21:00",
    "o": 144.284,
    "h": 144.381,
    "l": 144.168,
    "c": 144.338,
    "v": 1962
  },
  {
    "dt": "2023.03.29 22:00",
    "o": 144.343,
    "h": 144.564,
    "l": 144.296,
    "c": 144.528,
    "v": 2175
  },
  {
    "dt": "2023.03.29 23:00",
    "o": 144.53,
    "h": 144.681,
    "l": 144.522,
    "c": 144.67,
    "v": 1327
  },
  {
    "dt": "2023.03.30 00:00",
    "o": 144.392,
    "h": 144.502,
    "l": 144.177,
    "c": 144.43,
    "v": 303
  },
  {
    "dt": "2023.03.30 01:00",
    "o": 144.488,
    "h": 144.523,
    "l": 144.407,
    "c": 144.44,
    "v": 1676
  },
  {
    "dt": "2023.03.30 02:00",
    "o": 144.439,
    "h": 144.476,
    "l": 144.336,
    "c": 144.336,
    "v": 1421
  },
  {
    "dt": "2023.03.30 03:00",
    "o": 144.336,
    "h": 144.444,
    "l": 144.107,
    "c": 144.272,
    "v": 3006
  },
  {
    "dt": "2023.03.30 04:00",
    "o": 144.271,
    "h": 144.423,
    "l": 144.239,
    "c": 144.297,
    "v": 2967
  },
  {
    "dt": "2023.03.30 05:00",
    "o": 144.292,
    "h": 144.337,
    "l": 144.182,
    "c": 144.24,
    "v": 1780
  },
  {
    "dt": "2023.03.30 06:00",
    "o": 144.239,
    "h": 144.285,
    "l": 144.187,
    "c": 144.261,
    "v": 1524
  },
  {
    "dt": "2023.03.30 07:00",
    "o": 144.263,
    "h": 144.343,
    "l": 144.221,
    "c": 144.253,
    "v": 1352
  },
  {
    "dt": "2023.03.30 08:00",
    "o": 144.257,
    "h": 144.353,
    "l": 144.177,
    "c": 144.288,
    "v": 2607
  },
  {
    "dt": "2023.03.30 09:00",
    "o": 144.292,
    "h": 144.447,
    "l": 144.28,
    "c": 144.304,
    "v": 3741
  },
  {
    "dt": "2023.03.30 10:00",
    "o": 144.292,
    "h": 144.399,
    "l": 144.084,
    "c": 144.374,
    "v": 4480
  },
  {
    "dt": "2023.03.30 11:00",
    "o": 144.381,
    "h": 144.719,
    "l": 144.357,
    "c": 144.644,
    "v": 4041
  },
  {
    "dt": "2023.03.30 12:00",
    "o": 144.649,
    "h": 144.958,
    "l": 144.649,
    "c": 144.942,
    "v": 3628
  },
  {
    "dt": "2023.03.30 13:00",
    "o": 144.942,
    "h": 145.08,
    "l": 144.831,
    "c": 144.869,
    "v": 3378
  },
  {
    "dt": "2023.03.30 14:00",
    "o": 144.875,
    "h": 144.952,
    "l": 144.657,
    "c": 144.887,
    "v": 2983
  },
  {
    "dt": "2023.03.30 15:00",
    "o": 144.887,
    "h": 145.396,
    "l": 144.855,
    "c": 145.386,
    "v": 4272
  },
  {
    "dt": "2023.03.30 16:00",
    "o": 145.387,
    "h": 145.544,
    "l": 145.121,
    "c": 145.191,
    "v": 4168
  },
  {
    "dt": "2023.03.30 17:00",
    "o": 145.193,
    "h": 145.456,
    "l": 145.168,
    "c": 145.316,
    "v": 3687
  },
  {
    "dt": "2023.03.30 18:00",
    "o": 145.312,
    "h": 145.334,
    "l": 145.065,
    "c": 145.168,
    "v": 3186
  },
  {
    "dt": "2023.03.30 19:00",
    "o": 145.164,
    "h": 145.191,
    "l": 144.814,
    "c": 144.841,
    "v": 2636
  },
  {
    "dt": "2023.03.30 20:00",
    "o": 144.843,
    "h": 144.901,
    "l": 144.76,
    "c": 144.895,
    "v": 2115
  },
  {
    "dt": "2023.03.30 21:00",
    "o": 144.894,
    "h": 144.932,
    "l": 144.842,
    "c": 144.926,
    "v": 1809
  },
  {
    "dt": "2023.03.30 22:00",
    "o": 144.923,
    "h": 145.074,
    "l": 144.893,
    "c": 145.072,
    "v": 1762
  },
  {
    "dt": "2023.03.30 23:00",
    "o": 145.077,
    "h": 145.267,
    "l": 145.031,
    "c": 145.253,
    "v": 1641
  },
  {
    "dt": "2023.03.31 00:00",
    "o": 145.2,
    "h": 145.295,
    "l": 145.095,
    "c": 145.175,
    "v": 269
  },
  {
    "dt": "2023.03.31 01:00",
    "o": 145.206,
    "h": 145.45,
    "l": 145.134,
    "c": 145.432,
    "v": 1586
  },
  {
    "dt": "2023.03.31 02:00",
    "o": 145.433,
    "h": 145.879,
    "l": 145.349,
    "c": 145.803,
    "v": 1928
  },
  {
    "dt": "2023.03.31 03:00",
    "o": 145.798,
    "h": 146.071,
    "l": 145.775,
    "c": 145.854,
    "v": 3379
  },
  {
    "dt": "2023.03.31 04:00",
    "o": 145.853,
    "h": 145.911,
    "l": 145.687,
    "c": 145.69,
    "v": 3333
  },
  {
    "dt": "2023.03.31 05:00",
    "o": 145.689,
    "h": 145.704,
    "l": 145.382,
    "c": 145.392,
    "v": 2244
  },
  {
    "dt": "2023.03.31 06:00",
    "o": 145.388,
    "h": 145.464,
    "l": 145.307,
    "c": 145.309,
    "v": 1802
  },
  {
    "dt": "2023.03.31 07:00",
    "o": 145.309,
    "h": 145.4,
    "l": 145.227,
    "c": 145.24,
    "v": 1750
  },
  {
    "dt": "2023.03.31 08:00",
    "o": 145.242,
    "h": 145.425,
    "l": 145.22,
    "c": 145.36,
    "v": 2482
  },
  {
    "dt": "2023.03.31 09:00",
    "o": 145.373,
    "h": 145.78,
    "l": 145.231,
    "c": 145.755,
    "v": 3107
  },
  {
    "dt": "2023.03.31 10:00",
    "o": 145.752,
    "h": 145.755,
    "l": 145.327,
    "c": 145.522,
    "v": 3933
  },
  {
    "dt": "2023.03.31 11:00",
    "o": 145.521,
    "h": 145.887,
    "l": 145.251,
    "c": 145.676,
    "v": 4393
  },
  {
    "dt": "2023.03.31 12:00",
    "o": 145.689,
    "h": 145.694,
    "l": 145.204,
    "c": 145.392,
    "v": 4001
  },
  {
    "dt": "2023.03.31 13:00",
    "o": 145.395,
    "h": 145.573,
    "l": 145.329,
    "c": 145.333,
    "v": 2964
  },
  {
    "dt": "2023.03.31 14:00",
    "o": 145.337,
    "h": 145.337,
    "l": 145.106,
    "c": 145.249,
    "v": 2890
  },
  {
    "dt": "2023.03.31 15:00",
    "o": 145.252,
    "h": 145.502,
    "l": 145.064,
    "c": 145.499,
    "v": 4243
  },
  {
    "dt": "2023.03.31 16:00",
    "o": 145.498,
    "h": 145.811,
    "l": 145.483,
    "c": 145.658,
    "v": 4350
  },
  {
    "dt": "2023.03.31 17:00",
    "o": 145.662,
    "h": 145.95,
    "l": 145.561,
    "c": 145.663,
    "v": 4446
  },
  {
    "dt": "2023.03.31 18:00",
    "o": 145.661,
    "h": 145.801,
    "l": 145.37,
    "c": 145.402,
    "v": 4135
  },
  {
    "dt": "2023.03.31 19:00",
    "o": 145.399,
    "h": 145.463,
    "l": 145.167,
    "c": 145.266,
    "v": 2764
  },
  {
    "dt": "2023.03.31 20:00",
    "o": 145.268,
    "h": 145.342,
    "l": 145.193,
    "c": 145.322,
    "v": 2107
  },
  {
    "dt": "2023.03.31 21:00",
    "o": 145.322,
    "h": 145.337,
    "l": 145.066,
    "c": 145.123,
    "v": 2176
  },
  {
    "dt": "2023.03.31 22:00",
    "o": 145.125,
    "h": 145.159,
    "l": 145.013,
    "c": 145.114,
    "v": 2603
  },
  {
    "dt": "2023.03.31 23:00",
    "o": 145.116,
    "h": 145.135,
    "l": 144.975,
    "c": 145.042,
    "v": 1506
  }
]