[
  {
    "dt": "2021.02.01 00:00",
    "o": 1.59029,
    "h": 1.59111,
    "l": 1.58955,
    "c": 1.58957,
    "v": 996
  },
  {
    "dt": "2021.02.01 01:00",
    "o": 1.58961,
    "h": 1.59341,
    "l": 1.58929,
    "c": 1.59056,
    "v": 3791
  },
  {
    "dt": "2021.02.01 02:00",
    "o": 1.59058,
    "h": 1.59066,
    "l": 1.58861,
    "c": 1.58879,
    "v": 3534
  },
  {
    "dt": "2021.02.01 03:00",
    "o": 1.58879,
    "h": 1.58898,
    "l": 1.58714,
    "c": 1.58781,
    "v": 4232
  },
  {
    "dt": "2021.02.01 04:00",
    "o": 1.58782,
    "h": 1.58782,
    "l": 1.58565,
    "c": 1.5866,
    "v": 3686
  },
  {
    "dt": "2021.02.01 05:00",
    "o": 1.58661,
    "h": 1.58675,
    "l": 1.58468,
    "c": 1.58537,
    "v": 3172
  },
  {
    "dt": "2021.02.01 06:00",
    "o": 1.58538,
    "h": 1.58594,
    "l": 1.58482,
    "c": 1.58487,
    "v": 2778
  },
  {
    "dt": "2021.02.01 07:00",
    "o": 1.58484,
    "h": 1.58508,
    "l": 1.58314,
    "c": 1.58379,
    "v": 2903
  },
  {
    "dt": "2021.02.01 08:00",
    "o": 1.58379,
    "h": 1.58424,
    "l": 1.58308,
    "c": 1.58372,
    "v": 2795
  },
  {
    "dt": "2021.02.01 09:00",
    "o": 1.58371,
    "h": 1.58577,
    "l": 1.58298,
    "c": 1.58517,
    "v": 4290
  },
  {
    "dt": "2021.02.01 10:00",
    "o": 1.58518,
    "h": 1.58607,
    "l": 1.58377,
    "c": 1.58492,
    "v": 5405
  },
  {
    "dt": "2021.02.01 11:00",
    "o": 1.58492,
    "h": 1.58492,
    "l": 1.58268,
    "c": 1.58296,
    "v": 4758
  },
  {
    "dt": "2021.02.01 12:00",
    "o": 1.58301,
    "h": 1.58426,
    "l": 1.58286,
    "c": 1.5838,
    "v": 4493
  },
  {
    "dt": "2021.02.01 13:00",
    "o": 1.58378,
    "h": 1.58378,
    "l": 1.58175,
    "c": 1.58248,
    "v": 4113
  },
  {
    "dt": "2021.02.01 14:00",
    "o": 1.5825,
    "h": 1.58376,
    "l": 1.58169,
    "c": 1.5832,
    "v": 4392
  },
  {
    "dt": "2021.02.01 15:00",
    "o": 1.58319,
    "h": 1.58493,
    "l": 1.58244,
    "c": 1.58463,
    "v": 4828
  },
  {
    "dt": "2021.02.01 16:00",
    "o": 1.58466,
    "h": 1.58756,
    "l": 1.58431,
    "c": 1.58578,
    "v": 5152
  },
  {
    "dt": "2021.02.01 17:00",
    "o": 1.58578,
    "h": 1.58693,
    "l": 1.58446,
    "c": 1.58596,
    "v": 5530
  },
  {
    "dt": "2021.02.01 18:00",
    "o": 1.58609,
    "h": 1.58658,
    "l": 1.58262,
    "c": 1.58302,
    "v": 4884
  },
  {
    "dt": "2021.02.01 19:00",
    "o": 1.58305,
    "h": 1.58336,
    "l": 1.58176,
    "c": 1.58246,
    "v": 4214
  },
  {
    "dt": "2021.02.01 20:00",
    "o": 1.58245,
    "h": 1.58265,
    "l": 1.58042,
    "c": 1.58069,
    "v": 3936
  },
  {
    "dt": "2021.02.01 21:00",
    "o": 1.58068,
    "h": 1.58104,
    "l": 1.57868,
    "c": 1.57882,
    "v": 3548
  },
  {
    "dt": "2021.02.01 22:00",
    "o": 1.57903,
    "h": 1.58302,
    "l": 1.57898,
    "c": 1.58207,
    "v": 3879
  },
  {
    "dt": "2021.02.01 23:00",
    "o": 1.58202,
    "h": 1.58234,
    "l": 1.58143,
    "c": 1.58224,
    "v": 2038
  },
  {
    "dt": "2021.02.02 00:00",
    "o": 1.5822,
    "h": 1.5822,
    "l": 1.58096,
    "c": 1.5814,
    "v": 401
  },
  {
    "dt": "2021.02.02 01:00",
    "o": 1.58148,
    "h": 1.58185,
    "l": 1.57966,
    "c": 1.58069,
    "v": 1854
  },
  {
    "dt": "2021.02.02 02:00",
    "o": 1.58072,
    "h": 1.58171,
    "l": 1.5806,
    "c": 1.58119,
    "v": 2939
  },
  {
    "dt": "2021.02.02 03:00",
    "o": 1.58114,
    "h": 1.58114,
    "l": 1.57868,
    "c": 1.57906,
    "v": 3717
  },
  {
    "dt": "2021.02.02 04:00",
    "o": 1.57905,
    "h": 1.58001,
    "l": 1.57766,
    "c": 1.57767,
    "v": 2874
  },
  {
    "dt": "2021.02.02 05:00",
    "o": 1.57774,
    "h": 1.5832,
    "l": 1.5769,
    "c": 1.58266,
    "v": 3436
  },
  {
    "dt": "2021.02.02 06:00",
    "o": 1.5826,
    "h": 1.58486,
    "l": 1.58248,
    "c": 1.58405,
    "v": 2340
  },
  {
    "dt": "2021.02.02 07:00",
    "o": 1.58413,
    "h": 1.58435,
    "l": 1.5818,
    "c": 1.58271,
    "v": 2665
  },
  {
    "dt": "2021.02.02 08:00",
    "o": 1.58269,
    "h": 1.58533,
    "l": 1.58236,
    "c": 1.58475,
    "v": 2733
  },
  {
    "dt": "2021.02.02 09:00",
    "o": 1.58474,
    "h": 1.58655,
    "l": 1.58457,
    "c": 1.58506,
    "v": 4165
  },
  {
    "dt": "2021.02.02 10:00",
    "o": 1.5851,
    "h": 1.58572,
    "l": 1.58169,
    "c": 1.58365,
    "v": 5114
  },
  {
    "dt": "2021.02.02 11:00",
    "o": 1.58356,
    "h": 1.58428,
    "l": 1.58264,
    "c": 1.58367,
    "v": 3999
  },
  {
    "dt": "2021.02.02 12:00",
    "o": 1.58368,
    "h": 1.58397,
    "l": 1.58091,
    "c": 1.58147,
    "v": 4597
  },
  {
    "dt": "2021.02.02 13:00",
    "o": 1.58146,
    "h": 1.5835,
    "l": 1.58146,
    "c": 1.58326,
    "v": 3944
  },
  {
    "dt": "2021.02.02 14:00",
    "o": 1.58329,
    "h": 1.58572,
    "l": 1.58258,
    "c": 1.58545,
    "v": 4082
  },
  {
    "dt": "2021.02.02 15:00",
    "o": 1.58545,
    "h": 1.58577,
    "l": 1.58368,
    "c": 1.58461,
    "v": 4830
  },
  {
    "dt": "2021.02.02 16:00",
    "o": 1.58465,
    "h": 1.58955,
    "l": 1.58355,
    "c": 1.58833,
    "v": 5310
  },
  {
    "dt": "2021.02.02 17:00",
    "o": 1.58835,
    "h": 1.58908,
    "l": 1.58435,
    "c": 1.58694,
    "v": 5600
  },
  {
    "dt": "2021.02.02 18:00",
    "o": 1.58691,
    "h": 1.58777,
    "l": 1.58436,
    "c": 1.58438,
    "v": 4620
  },
  {
    "dt": "2021.02.02 19:00",
    "o": 1.58436,
    "h": 1.58475,
    "l": 1.58349,
    "c": 1.58441,
    "v": 4151
  },
  {
    "dt": "2021.02.02 20:00",
    "o": 1.58441,
    "h": 1.58492,
    "l": 1.58404,
    "c": 1.58421,
    "v": 3592
  },
  {
    "dt": "2021.02.02 21:00",
    "o": 1.58418,
    "h": 1.58454,
    "l": 1.58324,
    "c": 1.58333,
    "v": 2888
  },
  {
    "dt": "2021.02.02 22:00",
    "o": 1.58333,
    "h": 1.58416,
    "l": 1.58276,
    "c": 1.58397,
    "v": 3463
  },
  {
    "dt": "2021.02.02 23:00",
    "o": 1.58398,
    "h": 1.58447,
    "l": 1.58225,
    "c": 1.58272,
    "v": 2719
  },
  {
    "dt": "2021.02.03 00:00",
    "o": 1.58299,
    "h": 1.58333,
    "l": 1.5823,
    "c": 1.58292,
    "v": 662
  },
  {
    "dt": "2021.02.03 01:00",
    "o": 1.58308,
    "h": 1.58312,
    "l": 1.58114,
    "c": 1.58234,
    "v": 2245
  },
  {
    "dt": "2021.02.03 02:00",
    "o": 1.58235,
    "h": 1.58321,
    "l": 1.58133,
    "c": 1.58275,
    "v": 2673
  },
  {
    "dt": "2021.02.03 03:00",
    "o": 1.58275,
    "h": 1.58364,
    "l": 1.58116,
    "c": 1.58159,
    "v": 3561
  },
  {
    "dt": "2021.02.03 04:00",
    "o": 1.58158,
    "h": 1.58281,
    "l": 1.58109,
    "c": 1.58191,
    "v": 3005
  },
  {
    "dt": "2021.02.03 05:00",
    "o": 1.58195,
    "h": 1.58257,
    "l": 1.58137,
    "c": 1.58195,
    "v": 2457
  },
  {
    "dt": "2021.02.03 06:00",
    "o": 1.58193,
    "h": 1.58204,
    "l": 1.5811,
    "c": 1.58186,
    "v": 1828
  },
  {
    "dt": "2021.02.03 07:00",
    "o": 1.58188,
    "h": 1.58188,
    "l": 1.58037,
    "c": 1.58154,
    "v": 2284
  },
  {
    "dt": "2021.02.03 08:00",
    "o": 1.58152,
    "h": 1.58246,
    "l": 1.58082,
    "c": 1.58092,
    "v": 2371
  },
  {
    "dt": "2021.02.03 09:00",
    "o": 1.58088,
    "h": 1.58116,
    "l": 1.57806,
    "c": 1.57867,
    "v": 3609
  },
  {
    "dt": "2021.02.03 10:00",
    "o": 1.57867,
    "h": 1.58048,
    "l": 1.57855,
    "c": 1.57978,
    "v": 4200
  },
  {
    "dt": "2021.02.03 11:00",
    "o": 1.57978,
    "h": 1.58023,
    "l": 1.57778,
    "c": 1.5783,
    "v": 4062
  },
  {
    "dt": "2021.02.03 12:00",
    "o": 1.57844,
    "h": 1.57859,
    "l": 1.57643,
    "c": 1.57728,
    "v": 3415
  },
  {
    "dt": "2021.02.03 13:00",
    "o": 1.57725,
    "h": 1.57837,
    "l": 1.57701,
    "c": 1.57701,
    "v": 2650
  },
  {
    "dt": "2021.02.03 14:00",
    "o": 1.57704,
    "h": 1.57839,
    "l": 1.57699,
    "c": 1.57779,
    "v": 4030
  },
  {
    "dt": "2021.02.03 15:00",
    "o": 1.57778,
    "h": 1.57841,
    "l": 1.57677,
    "c": 1.57752,
    "v": 4268
  },
  {
    "dt": "2021.02.03 16:00",
    "o": 1.57757,
    "h": 1.57934,
    "l": 1.57734,
    "c": 1.57761,
    "v": 4808
  },
  {
    "dt": "2021.02.03 17:00",
    "o": 1.57767,
    "h": 1.57846,
    "l": 1.57673,
    "c": 1.57748,
    "v": 5205
  },
  {
    "dt": "2021.02.03 18:00",
    "o": 1.5775,
    "h": 1.57868,
    "l": 1.57709,
    "c": 1.57746,
    "v": 4335
  },
  {
    "dt": "2021.02.03 19:00",
    "o": 1.57747,
    "h": 1.57866,
    "l": 1.57725,
    "c": 1.57739,
    "v": 3598
  },
  {
    "dt": "2021.02.03 20:00",
    "o": 1.57736,
    "h": 1.57868,
    "l": 1.57709,
    "c": 1.57844,
    "v": 3077
  },
  {
    "dt": "2021.02.03 21:00",
    "o": 1.57844,
    "h": 1.57844,
    "l": 1.57738,
    "c": 1.57748,
    "v": 2916
  },
  {
    "dt": "2021.02.03 22:00",
    "o": 1.57748,
    "h": 1.57909,
    "l": 1.57745,
    "c": 1.57881,
    "v": 3570
  },
  {
    "dt": "2021.02.03 23:00",
    "o": 1.57877,
    "h": 1.57917,
    "l": 1.57837,
    "c": 1.57893,
    "v": 1858
  },
  {
    "dt": "2021.02.04 00:00",
    "o": 1.57955,
    "h": 1.57957,
    "l": 1.57759,
    "c": 1.57894,
    "v": 575
  },
  {
    "dt": "2021.02.04 01:00",
    "o": 1.57897,
    "h": 1.57939,
    "l": 1.57649,
    "c": 1.57671,
    "v": 1637
  },
  {
    "dt": "2021.02.04 02:00",
    "o": 1.5767,
    "h": 1.57815,
    "l": 1.57656,
    "c": 1.57799,
    "v": 2555
  },
  {
    "dt": "2021.02.04 03:00",
    "o": 1.57802,
    "h": 1.57812,
    "l": 1.5747,
    "c": 1.57491,
    "v": 3256
  },
  {
    "dt": "2021.02.04 04:00",
    "o": 1.5749,
    "h": 1.57495,
    "l": 1.57389,
    "c": 1.57461,
    "v": 2479
  },
  {
    "dt": "2021.02.04 05:00",
    "o": 1.57462,
    "h": 1.57622,
    "l": 1.57421,
    "c": 1.57575,
    "v": 3319
  },
  {
    "dt": "2021.02.04 06:00",
    "o": 1.57575,
    "h": 1.57683,
    "l": 1.57558,
    "c": 1.57632,
    "v": 2306
  },
  {
    "dt": "2021.02.04 07:00",
    "o": 1.57625,
    "h": 1.57632,
    "l": 1.57439,
    "c": 1.57529,
    "v": 3239
  },
  {
    "dt": "2021.02.04 08:00",
    "o": 1.57528,
    "h": 1.57532,
    "l": 1.57357,
    "c": 1.5737,
    "v": 2757
  },
  {
    "dt": "2021.02.04 09:00",
    "o": 1.57371,
    "h": 1.57421,
    "l": 1.57327,
    "c": 1.57354,
    "v": 3809
  },
  {
    "dt": "2021.02.04 10:00",
    "o": 1.57348,
    "h": 1.5738,
    "l": 1.57136,
    "c": 1.57143,
    "v": 4482
  },
  {
    "dt": "2021.02.04 11:00",
    "o": 1.57143,
    "h": 1.57263,
    "l": 1.57049,
    "c": 1.57081,
    "v": 4076
  },
  {
    "dt": "2021.02.04 12:00",
    "o": 1.57078,
    "h": 1.57319,
    "l": 1.57067,
    "c": 1.57291,
    "v": 3244
  },
  {
    "dt": "2021.02.04 13:00",
    "o": 1.5729,
    "h": 1.57582,
    "l": 1.57271,
    "c": 1.57558,
    "v": 3164
  },
  {
    "dt": "2021.02.04 14:00",
    "o": 1.57556,
    "h": 1.57567,
    "l": 1.57297,
    "c": 1.57306,
    "v": 4252
  },
  {
    "dt": "2021.02.04 15:00",
    "o": 1.57309,
    "h": 1.57352,
    "l": 1.57186,
    "c": 1.57271,
    "v": 4172
  },
  {
    "dt": "2021.02.04 16:00",
    "o": 1.57274,
    "h": 1.57601,
    "l": 1.57246,
    "c": 1.57478,
    "v": 4753
  },
  {
    "dt": "2021.02.04 17:00",
    "o": 1.57479,
    "h": 1.57693,
    "l": 1.57397,
    "c": 1.57624,
    "v": 4792
  },
  {
    "dt": "2021.02.04 18:00",
    "o": 1.57627,
    "h": 1.57699,
    "l": 1.57555,
    "c": 1.57571,
    "v": 3420
  },
  {
    "dt": "2021.02.04 19:00",
    "o": 1.57571,
    "h": 1.57616,
    "l": 1.57485,
    "c": 1.5749,
    "v": 3058
  },
  {
    "dt": "2021.02.04 20:00",
    "o": 1.57485,
    "h": 1.57506,
    "l": 1.57452,
    "c": 1.5749,
    "v": 2329
  },
  {
    "dt": "2021.02.04 21:00",
    "o": 1.57489,
    "h": 1.57512,
    "l": 1.57371,
    "c": 1.57412,
    "v": 2539
  },
  {
    "dt": "2021.02.04 22:00",
    "o": 1.57412,
    "h": 1.57485,
    "l": 1.57392,
    "c": 1.57406,
    "v": 2276
  },
  {
    "dt": "2021.02.04 23:00",
    "o": 1.57406,
    "h": 1.57415,
    "l": 1.57349,
    "c": 1.57361,
    "v": 1572
  },
  {
    "dt": "2021.02.05 00:00",
    "o": 1.57394,
    "h": 1.57467,
    "l": 1.57291,
    "c": 1.57365,
    "v": 550
  },
  {
    "dt": "2021.02.05 01:00",
    "o": 1.57376,
    "h": 1.57454,
    "l": 1.57276,
    "c": 1.57427,
    "v": 1410
  },
  {
    "dt": "2021.02.05 02:00",
    "o": 1.57425,
    "h": 1.57477,
    "l": 1.57335,
    "c": 1.5744,
    "v": 2374
  },
  {
    "dt": "2021.02.05 03:00",
    "o": 1.57448,
    "h": 1.57597,
    "l": 1.57441,
    "c": 1.57575,
    "v": 2708
  },
  {
    "dt": "2021.02.05 04:00",
    "o": 1.57571,
    "h": 1.57611,
    "l": 1.57452,
    "c": 1.57582,
    "v": 2702
  },
  {
    "dt": "2021.02.05 05:00",
    "o": 1.57581,
    "h": 1.57615,
    "l": 1.57421,
    "c": 1.57438,
    "v": 2116
  },
  {
    "dt": "2021.02.05 06:00",
    "o": 1.57441,
    "h": 1.57497,
    "l": 1.57409,
    "c": 1.57454,
    "v": 1746
  },
  {
    "dt": "2021.02.05 07:00",
    "o": 1.57459,
    "h": 1.57482,
    "l": 1.57265,
    "c": 1.57289,
    "v": 1987
  },
  {
    "dt": "2021.02.05 08:00",
    "o": 1.57291,
    "h": 1.574,
    "l": 1.57278,
    "c": 1.57361,
    "v": 1796
  },
  {
    "dt": "2021.02.05 09:00",
    "o": 1.57355,
    "h": 1.57377,
    "l": 1.57252,
    "c": 1.57287,
    "v": 2632
  },
  {
    "dt": "2021.02.05 10:00",
    "o": 1.57287,
    "h": 1.57359,
    "l": 1.57166,
    "c": 1.57223,
    "v": 4593
  },
  {
    "dt": "2021.02.05 11:00",
    "o": 1.57222,
    "h": 1.57257,
    "l": 1.57123,
    "c": 1.57225,
    "v": 3299
  },
  {
    "dt": "2021.02.05 12:00",
    "o": 1.57224,
    "h": 1.57346,
    "l": 1.57198,
    "c": 1.57328,
    "v": 3023
  },
  {
    "dt": "2021.02.05 13:00",
    "o": 1.57325,
    "h": 1.57475,
    "l": 1.5728,
    "c": 1.57464,
    "v": 2992
  },
  {
    "dt": "2021.02.05 14:00",
    "o": 1.57468,
    "h": 1.57619,
    "l": 1.57463,
    "c": 1.57575,
    "v": 3496
  },
  {
    "dt": "2021.02.05 15:00",
    "o": 1.57573,
    "h": 1.57624,
    "l": 1.57254,
    "c": 1.57421,
    "v": 5092
  },
  {
    "dt": "2021.02.05 16:00",
    "o": 1.57419,
    "h": 1.57431,
    "l": 1.57054,
    "c": 1.57176,
    "v": 5103
  },
  {
    "dt": "2021.02.05 17:00",
    "o": 1.57177,
    "h": 1.57282,
    "l": 1.56998,
    "c": 1.57002,
    "v": 4944
  },
  {
    "dt": "2021.02.05 18:00",
    "o": 1.57003,
    "h": 1.57217,
    "l": 1.57003,
    "c": 1.57186,
    "v": 4053
  },
  {
    "dt": "2021.02.05 19:00",
    "o": 1.57185,
    "h": 1.57205,
    "l": 1.56924,
    "c": 1.56933,
    "v": 2928
  },
  {
    "dt": "2021.02.05 20:00",
    "o": 1.56937,
    "h": 1.57094,
    "l": 1.56937,
    "c": 1.5709,
    "v": 2398
  },
  {
    "dt": "2021.02.05 21:00",
    "o": 1.57087,
    "h": 1.57113,
    "l": 1.57019,
    "c": 1.57035,
    "v": 2043
  },
  {
    "dt": "2021.02.05 22:00",
    "o": 1.57034,
    "h": 1.57077,
    "l": 1.56983,
    "c": 1.57009,
    "v": 2005
  },
  {
    "dt": "2021.02.05 23:00",
    "o": 1.57008,
    "h": 1.5704,
    "l": 1.56883,
    "c": 1.56904,
    "v": 1826
  },
  {
    "dt": "2021.02.08 00:00",
    "o": 1.56906,
    "h": 1.57,
    "l": 1.56809,
    "c": 1.56972,
    "v": 509
  },
  {
    "dt": "2021.02.08 01:00",
    "o": 1.56919,
    "h": 1.56997,
    "l": 1.56845,
    "c": 1.56899,
    "v": 2452
  },
  {
    "dt": "2021.02.08 02:00",
    "o": 1.56898,
    "h": 1.56987,
    "l": 1.56814,
    "c": 1.56884,
    "v": 3123
  },
  {
    "dt": "2021.02.08 03:00",
    "o": 1.56882,
    "h": 1.56896,
    "l": 1.56757,
    "c": 1.56763,
    "v": 2221
  },
  {
    "dt": "2021.02.08 04:00",
    "o": 1.56756,
    "h": 1.56908,
    "l": 1.56729,
    "c": 1.56821,
    "v": 2001
  },
  {
    "dt": "2021.02.08 05:00",
    "o": 1.56815,
    "h": 1.56895,
    "l": 1.56809,
    "c": 1.56831,
    "v": 1508
  },
  {
    "dt": "2021.02.08 06:00",
    "o": 1.56831,
    "h": 1.5686,
    "l": 1.56757,
    "c": 1.56852,
    "v": 1159
  },
  {
    "dt": "2021.02.08 07:00",
    "o": 1.56857,
    "h": 1.56879,
    "l": 1.56801,
    "c": 1.56817,
    "v": 1674
  },
  {
    "dt": "2021.02.08 08:00",
    "o": 1.56818,
    "h": 1.56841,
    "l": 1.56768,
    "c": 1.56832,
    "v": 1648
  },
  {
    "dt": "2021.02.08 09:00",
    "o": 1.56836,
    "h": 1.56897,
    "l": 1.56754,
    "c": 1.56851,
    "v": 2628
  },
  {
    "dt": "2021.02.08 10:00",
    "o": 1.56852,
    "h": 1.57001,
    "l": 1.56791,
    "c": 1.56907,
    "v": 3590
  },
  {
    "dt": "2021.02.08 11:00",
    "o": 1.5691,
    "h": 1.57015,
    "l": 1.56882,
    "c": 1.56901,
    "v": 2750
  },
  {
    "dt": "2021.02.08 12:00",
    "o": 1.569,
    "h": 1.57147,
    "l": 1.56888,
    "c": 1.57139,
    "v": 2781
  },
  {
    "dt": "2021.02.08 13:00",
    "o": 1.57138,
    "h": 1.57158,
    "l": 1.57014,
    "c": 1.57122,
    "v": 2819
  },
  {
    "dt": "2021.02.08 14:00",
    "o": 1.57123,
    "h": 1.57155,
    "l": 1.56914,
    "c": 1.56932,
    "v": 3347
  },
  {
    "dt": "2021.02.08 15:00",
    "o": 1.5694,
    "h": 1.56964,
    "l": 1.56815,
    "c": 1.56888,
    "v": 3908
  },
  {
    "dt": "2021.02.08 16:00",
    "o": 1.56886,
    "h": 1.56992,
    "l": 1.56588,
    "c": 1.56642,
    "v": 4320
  },
  {
    "dt": "2021.02.08 17:00",
    "o": 1.56643,
    "h": 1.56643,
    "l": 1.56163,
    "c": 1.56238,
    "v": 4606
  },
  {
    "dt": "2021.02.08 18:00",
    "o": 1.56238,
    "h": 1.56426,
    "l": 1.56227,
    "c": 1.56388,
    "v": 3994
  },
  {
    "dt": "2021.02.08 19:00",
    "o": 1.5638,
    "h": 1.56434,
    "l": 1.56307,
    "c": 1.56379,
    "v": 2998
  },
  {
    "dt": "2021.02.08 20:00",
    "o": 1.56382,
    "h": 1.56521,
    "l": 1.56382,
    "c": 1.56502,
    "v": 2344
  },
  {
    "dt": "2021.02.08 21:00",
    "o": 1.56501,
    "h": 1.56524,
    "l": 1.56448,
    "c": 1.56467,
    "v": 2028
  },
  {
    "dt": "2021.02.08 22:00",
    "o": 1.56467,
    "h": 1.56512,
    "l": 1.56388,
    "c": 1.56392,
    "v": 2189
  },
  {
    "dt": "2021.02.08 23:00",
    "o": 1.56392,
    "h": 1.56453,
    "l": 1.56375,
    "c": 1.56393,
    "v": 1880
  },
  {
    "dt": "2021.02.09 00:00",
    "o": 1.56404,
    "h": 1.56445,
    "l": 1.56323,
    "c": 1.56382,
    "v": 328
  },
  {
    "dt": "2021.02.09 01:00",
    "o": 1.5638,
    "h": 1.56428,
    "l": 1.56338,
    "c": 1.56339,
    "v": 1240
  },
  {
    "dt": "2021.02.09 02:00",
    "o": 1.56339,
    "h": 1.56399,
    "l": 1.5627,
    "c": 1.56279,
    "v": 2224
  },
  {
    "dt": "2021.02.09 03:00",
    "o": 1.56278,
    "h": 1.56324,
    "l": 1.56213,
    "c": 1.5628,
    "v": 2318
  },
  {
    "dt": "2021.02.09 04:00",
    "o": 1.56281,
    "h": 1.56352,
    "l": 1.56247,
    "c": 1.56288,
    "v": 2817
  },
  {
    "dt": "2021.02.09 05:00",
    "o": 1.56288,
    "h": 1.56295,
    "l": 1.56239,
    "c": 1.56269,
    "v": 2029
  },
  {
    "dt": "2021.02.09 06:00",
    "o": 1.56268,
    "h": 1.56318,
    "l": 1.56251,
    "c": 1.56289,
    "v": 1382
  },
  {
    "dt": "2021.02.09 07:00",
    "o": 1.5629,
    "h": 1.56311,
    "l": 1.56255,
    "c": 1.56286,
    "v": 1718
  },
  {
    "dt": "2021.02.09 08:00",
    "o": 1.5628,
    "h": 1.56432,
    "l": 1.5627,
    "c": 1.56417,
    "v": 2164
  },
  {
    "dt": "2021.02.09 09:00",
    "o": 1.56421,
    "h": 1.56521,
    "l": 1.56371,
    "c": 1.56496,
    "v": 3127
  },
  {
    "dt": "2021.02.09 10:00",
    "o": 1.56496,
    "h": 1.56605,
    "l": 1.56492,
    "c": 1.56545,
    "v": 4127
  },
  {
    "dt": "2021.02.09 11:00",
    "o": 1.56544,
    "h": 1.56707,
    "l": 1.56487,
    "c": 1.56571,
    "v": 3939
  },
  {
    "dt": "2021.02.09 12:00",
    "o": 1.56572,
    "h": 1.56729,
    "l": 1.56539,
    "c": 1.56728,
    "v": 3068
  },
  {
    "dt": "2021.02.09 13:00",
    "o": 1.56729,
    "h": 1.56856,
    "l": 1.56703,
    "c": 1.56772,
    "v": 2967
  },
  {
    "dt": "2021.02.09 14:00",
    "o": 1.56774,
    "h": 1.56873,
    "l": 1.567,
    "c": 1.5678,
    "v": 3018
  },
  {
    "dt": "2021.02.09 15:00",
    "o": 1.5678,
    "h": 1.56869,
    "l": 1.56669,
    "c": 1.5667,
    "v": 3844
  },
  {
    "dt": "2021.02.09 16:00",
    "o": 1.56667,
    "h": 1.56823,
    "l": 1.56587,
    "c": 1.56602,
    "v": 4550
  },
  {
    "dt": "2021.02.09 17:00",
    "o": 1.56599,
    "h": 1.56789,
    "l": 1.56508,
    "c": 1.56588,
    "v": 4529
  },
  {
    "dt": "2021.02.09 18:00",
    "o": 1.56585,
    "h": 1.56798,
    "l": 1.56585,
    "c": 1.56708,
    "v": 3669
  },
  {
    "dt": "2021.02.09 19:00",
    "o": 1.56707,
    "h": 1.56716,
    "l": 1.56571,
    "c": 1.56594,
    "v": 2927
  },
  {
    "dt": "2021.02.09 20:00",
    "o": 1.56594,
    "h": 1.56734,
    "l": 1.56589,
    "c": 1.56679,
    "v": 2527
  },
  {
    "dt": "2021.02.09 21:00",
    "o": 1.5668,
    "h": 1.56693,
    "l": 1.56561,
    "c": 1.5659,
    "v": 2768
  },
  {
    "dt": "2021.02.09 22:00",
    "o": 1.56594,
    "h": 1.5665,
    "l": 1.56568,
    "c": 1.56593,
    "v": 2160
  },
  {
    "dt": "2021.02.09 23:00",
    "o": 1.56598,
    "h": 1.56662,
    "l": 1.56578,
    "c": 1.56588,
    "v": 1536
  },
  {
    "dt": "2021.02.10 00:00",
    "o": 1.5657,
    "h": 1.5666,
    "l": 1.56544,
    "c": 1.56658,
    "v": 354
  },
  {
    "dt": "2021.02.10 01:00",
    "o": 1.56663,
    "h": 1.56669,
    "l": 1.56493,
    "c": 1.56528,
    "v": 1478
  },
  {
    "dt": "2021.02.10 02:00",
    "o": 1.56528,
    "h": 1.56669,
    "l": 1.56513,
    "c": 1.56638,
    "v": 1842
  },
  {
    "dt": "2021.02.10 03:00",
    "o": 1.56639,
    "h": 1.56755,
    "l": 1.56582,
    "c": 1.56679,
    "v": 2548
  },
  {
    "dt": "2021.02.10 04:00",
    "o": 1.56678,
    "h": 1.56796,
    "l": 1.56657,
    "c": 1.56791,
    "v": 2142
  },
  {
    "dt": "2021.02.10 05:00",
    "o": 1.56796,
    "h": 1.56803,
    "l": 1.56636,
    "c": 1.56666,
    "v": 1974
  },
  {
    "dt": "2021.02.10 06:00",
    "o": 1.56666,
    "h": 1.56705,
    "l": 1.56644,
    "c": 1.567,
    "v": 1283
  },
  {
    "dt": "2021.02.10 07:00",
    "o": 1.567,
    "h": 1.56727,
    "l": 1.56624,
    "c": 1.56637,
    "v": 1595
  },
  {
    "dt": "2021.02.10 08:00",
    "o": 1.56635,
    "h": 1.56693,
    "l": 1.56606,
    "c": 1.56661,
    "v": 1578
  },
  {
    "dt": "2021.02.10 09:00",
    "o": 1.56659,
    "h": 1.56684,
    "l": 1.56537,
    "c": 1.56561,
    "v": 2718
  },
  {
    "dt": "2021.02.10 10:00",
    "o": 1.56566,
    "h": 1.56776,
    "l": 1.56553,
    "c": 1.56604,
    "v": 4026
  },
  {
    "dt": "2021.02.10 11:00",
    "o": 1.56605,
    "h": 1.56998,
    "l": 1.56597,
    "c": 1.56939,
    "v": 3987
  },
  {
    "dt": "2021.02.10 12:00",
    "o": 1.56938,
    "h": 1.57013,
    "l": 1.56793,
    "c": 1.568,
    "v": 3051
  },
  {
    "dt": "2021.02.10 13:00",
    "o": 1.56801,
    "h": 1.56801,
    "l": 1.56685,
    "c": 1.56762,
    "v": 2451
  },
  {
    "dt": "2021.02.10 14:00",
    "o": 1.56762,
    "h": 1.5681,
    "l": 1.56707,
    "c": 1.56763,
    "v": 3429
  },
  {
    "dt": "2021.02.10 15:00",
    "o": 1.5676,
    "h": 1.56826,
    "l": 1.56522,
    "c": 1.56629,
    "v": 4264
  },
  {
    "dt": "2021.02.10 16:00",
    "o": 1.56629,
    "h": 1.56655,
    "l": 1.56486,
    "c": 1.56559,
    "v": 4270
  },
  {
    "dt": "2021.02.10 17:00",
    "o": 1.56559,
    "h": 1.57036,
    "l": 1.56501,
    "c": 1.56865,
    "v": 5188
  },
  {
    "dt": "2021.02.10 18:00",
    "o": 1.56861,
    "h": 1.56995,
    "l": 1.56789,
    "c": 1.56843,
    "v": 4333
  },
  {
    "dt": "2021.02.10 19:00",
    "o": 1.56842,
    "h": 1.57018,
    "l": 1.56832,
    "c": 1.56902,
    "v": 3823
  },
  {
    "dt": "2021.02.10 20:00",
    "o": 1.569,
    "h": 1.57016,
    "l": 1.569,
    "c": 1.56971,
    "v": 2648
  },
  {
    "dt": "2021.02.10 21:00",
    "o": 1.56968,
    "h": 1.57009,
    "l": 1.56857,
    "c": 1.56928,
    "v": 2857
  },
  {
    "dt": "2021.02.10 22:00",
    "o": 1.56927,
    "h": 1.57031,
    "l": 1.56882,
    "c": 1.56978,
    "v": 2836
  },
  {
    "dt": "2021.02.10 23:00",
    "o": 1.56974,
    "h": 1.57006,
    "l": 1.56883,
    "c": 1.56917,
    "v": 1439
  },
  {
    "dt": "2021.02.11 00:00",
    "o": 1.56914,
    "h": 1.56924,
    "l": 1.56839,
    "c": 1.56891,
    "v": 879
  },
  {
    "dt": "2021.02.11 01:00",
    "o": 1.56913,
    "h": 1.56935,
    "l": 1.5687,
    "c": 1.56885,
    "v": 956
  },
  {
    "dt": "2021.02.11 02:00",
    "o": 1.56887,
    "h": 1.57063,
    "l": 1.56872,
    "c": 1.57042,
    "v": 1408
  },
  {
    "dt": "2021.02.11 03:00",
    "o": 1.57041,
    "h": 1.57052,
    "l": 1.56957,
    "c": 1.57,
    "v": 1285
  },
  {
    "dt": "2021.02.11 04:00",
    "o": 1.56996,
    "h": 1.57012,
    "l": 1.56884,
    "c": 1.56884,
    "v": 1523
  },
  {
    "dt": "2021.02.11 05:00",
    "o": 1.56885,
    "h": 1.56953,
    "l": 1.56735,
    "c": 1.5674,
    "v": 1528
  },
  {
    "dt": "2021.02.11 06:00",
    "o": 1.56741,
    "h": 1.56751,
    "l": 1.56669,
    "c": 1.56708,
    "v": 1301
  },
  {
    "dt": "2021.02.11 07:00",
    "o": 1.56708,
    "h": 1.56739,
    "l": 1.56628,
    "c": 1.56636,
    "v": 1244
  },
  {
    "dt": "2021.02.11 08:00",
    "o": 1.56629,
    "h": 1.56647,
    "l": 1.5647,
    "c": 1.56488,
    "v": 1335
  },
  {
    "dt": "2021.02.11 09:00",
    "o": 1.56488,
    "h": 1.56539,
    "l": 1.56441,
    "c": 1.56481,
    "v": 2500
  },
  {
    "dt": "2021.02.11 10:00",
    "o": 1.56486,
    "h": 1.567,
    "l": 1.5643,
    "c": 1.56693,
    "v": 3674
  },
  {
    "dt": "2021.02.11 11:00",
    "o": 1.56694,
    "h": 1.5673,
    "l": 1.5656,
    "c": 1.56607,
    "v": 2749
  },
  {
    "dt": "2021.02.11 12:00",
    "o": 1.56605,
    "h": 1.56712,
    "l": 1.56555,
    "c": 1.56645,
    "v": 2113
  },
  {
    "dt": "2021.02.11 13:00",
    "o": 1.56647,
    "h": 1.56682,
    "l": 1.56553,
    "c": 1.56563,
    "v": 2133
  },
  {
    "dt": "2021.02.11 14:00",
    "o": 1.56571,
    "h": 1.56584,
    "l": 1.56456,
    "c": 1.56485,
    "v": 2493
  },
  {
    "dt": "2021.02.11 15:00",
    "o": 1.56485,
    "h": 1.56485,
    "l": 1.56275,
    "c": 1.56332,
    "v": 3402
  },
  {
    "dt": "2021.02.11 16:00",
    "o": 1.56331,
    "h": 1.56409,
    "l": 1.56239,
    "c": 1.56398,
    "v": 4170
  },
  {
    "dt": "2021.02.11 17:00",
    "o": 1.56396,
    "h": 1.56397,
    "l": 1.56266,
    "c": 1.56286,
    "v": 4310
  },
  {
    "dt": "2021.02.11 18:00",
    "o": 1.56285,
    "h": 1.56391,
    "l": 1.56272,
    "c": 1.56343,
    "v": 3869
  },
  {
    "dt": "2021.02.11 19:00",
    "o": 1.5634,
    "h": 1.56536,
    "l": 1.56317,
    "c": 1.56437,
    "v": 4050
  },
  {
    "dt": "2021.02.11 20:00",
    "o": 1.5644,
    "h": 1.5654,
    "l": 1.56422,
    "c": 1.56476,
    "v": 2931
  },
  {
    "dt": "2021.02.11 21:00",
    "o": 1.56474,
    "h": 1.56573,
    "l": 1.56473,
    "c": 1.56535,
    "v": 2594
  },
  {
    "dt": "2021.02.11 22:00",
    "o": 1.56535,
    "h": 1.56565,
    "l": 1.5645,
    "c": 1.5646,
    "v": 2324
  },
  {
    "dt": "2021.02.11 23:00",
    "o": 1.56458,
    "h": 1.56477,
    "l": 1.56417,
    "c": 1.56442,
    "v": 1581
  },
  {
    "dt": "2021.02.12 00:00",
    "o": 1.56405,
    "h": 1.56481,
    "l": 1.56229,
    "c": 1.56432,
    "v": 436
  },
  {
    "dt": "2021.02.12 01:00",
    "o": 1.56431,
    "h": 1.56575,
    "l": 1.56431,
    "c": 1.56472,
    "v": 1027
  },
  {
    "dt": "2021.02.12 02:00",
    "o": 1.56472,
    "h": 1.5653,
    "l": 1.56417,
    "c": 1.56477,
    "v": 1492
  },
  {
    "dt": "2021.02.12 03:00",
    "o": 1.56479,
    "h": 1.5652,
    "l": 1.56421,
    "c": 1.565,
    "v": 1303
  },
  {
    "dt": "2021.02.12 04:00",
    "o": 1.565,
    "h": 1.56666,
    "l": 1.565,
    "c": 1.56637,
    "v": 1617
  },
  {
    "dt": "2021.02.12 05:00",
    "o": 1.56639,
    "h": 1.56644,
    "l": 1.5656,
    "c": 1.56571,
    "v": 1194
  },
  {
    "dt": "2021.02.12 06:00",
    "o": 1.56576,
    "h": 1.56576,
    "l": 1.56495,
    "c": 1.56527,
    "v": 1168
  },
  {
    "dt": "2021.02.12 07:00",
    "o": 1.56528,
    "h": 1.56535,
    "l": 1.56427,
    "c": 1.56523,
    "v": 1302
  },
  {
    "dt": "2021.02.12 08:00",
    "o": 1.56524,
    "h": 1.56589,
    "l": 1.56492,
    "c": 1.56554,
    "v": 1343
  },
  {
    "dt": "2021.02.12 09:00",
    "o": 1.56554,
    "h": 1.56616,
    "l": 1.56476,
    "c": 1.56528,
    "v": 2437
  },
  {
    "dt": "2021.02.12 10:00",
    "o": 1.56527,
    "h": 1.56734,
    "l": 1.56478,
    "c": 1.56682,
    "v": 3856
  },
  {
    "dt": "2021.02.12 11:00",
    "o": 1.56688,
    "h": 1.56819,
    "l": 1.56656,
    "c": 1.5672,
    "v": 3242
  },
  {
    "dt": "2021.02.12 12:00",
    "o": 1.56722,
    "h": 1.5673,
    "l": 1.56586,
    "c": 1.56611,
    "v": 2807
  },
  {
    "dt": "2021.02.12 13:00",
    "o": 1.56611,
    "h": 1.56704,
    "l": 1.56569,
    "c": 1.56693,
    "v": 2553
  },
  {
    "dt": "2021.02.12 14:00",
    "o": 1.56693,
    "h": 1.5674,
    "l": 1.56624,
    "c": 1.56636,
    "v": 2735
  },
  {
    "dt": "2021.02.12 15:00",
    "o": 1.56634,
    "h": 1.56685,
    "l": 1.56458,
    "c": 1.56487,
    "v": 3908
  },
  {
    "dt": "2021.02.12 16:00",
    "o": 1.56496,
    "h": 1.56565,
    "l": 1.56405,
    "c": 1.56445,
    "v": 4249
  },
  {
    "dt": "2021.02.12 17:00",
    "o": 1.56442,
    "h": 1.56442,
    "l": 1.5624,
    "c": 1.56382,
    "v": 4363
  },
  {
    "dt": "2021.02.12 18:00",
    "o": 1.56384,
    "h": 1.56411,
    "l": 1.56169,
    "c": 1.5622,
    "v": 3873
  },
  {
    "dt": "2021.02.12 19:00",
    "o": 1.56218,
    "h": 1.56293,
    "l": 1.56186,
    "c": 1.5623,
    "v": 2477
  },
  {
    "dt": "2021.02.12 20:00",
    "o": 1.56229,
    "h": 1.56277,
    "l": 1.56192,
    "c": 1.56192,
    "v": 2345
  },
  {
    "dt": "2021.02.12 21:00",
    "o": 1.56192,
    "h": 1.5625,
    "l": 1.56187,
    "c": 1.56213,
    "v": 1805
  },
  {
    "dt": "2021.02.12 22:00",
    "o": 1.56208,
    "h": 1.56245,
    "l": 1.56183,
    "c": 1.56214,
    "v": 1469
  },
  {
    "dt": "2021.02.12 23:00",
    "o": 1.56214,
    "h": 1.56234,
    "l": 1.56108,
    "c": 1.56133,
    "v": 1602
  },
  {
    "dt": "2021.02.15 00:00",
    "o": 1.56034,
    "h": 1.56177,
    "l": 1.56031,
    "c": 1.56177,
    "v": 396
  },
  {
    "dt": "2021.02.15 01:00",
    "o": 1.56172,
    "h": 1.56182,
    "l": 1.56071,
    "c": 1.56122,
    "v": 1810
  },
  {
    "dt": "2021.02.15 02:00",
    "o": 1.56117,
    "h": 1.56137,
    "l": 1.56004,
    "c": 1.56132,
    "v": 1792
  },
  {
    "dt": "2021.02.15 03:00",
    "o": 1.56133,
    "h": 1.56155,
    "l": 1.56063,
    "c": 1.56098,
    "v": 1915
  },
  {
    "dt": "2021.02.15 04:00",
    "o": 1.56102,
    "h": 1.56144,
    "l": 1.56043,
    "c": 1.56058,
    "v": 1704
  },
  {
    "dt": "2021.02.15 05:00",
    "o": 1.56051,
    "h": 1.56054,
    "l": 1.55878,
    "c": 1.55878,
    "v": 1498
  },
  {
    "dt": "2021.02.15 06:00",
    "o": 1.55877,
    "h": 1.55962,
    "l": 1.55861,
    "c": 1.55907,
    "v": 1323
  },
  {
    "dt": "2021.02.15 07:00",
    "o": 1.55908,
    "h": 1.55934,
    "l": 1.55851,
    "c": 1.55874,
    "v": 1323
  },
  {
    "dt": "2021.02.15 08:00",
    "o": 1.55873,
    "h": 1.55967,
    "l": 1.55872,
    "c": 1.55949,
    "v": 1463
  },
  {
    "dt": "2021.02.15 09:00",
    "o": 1.55947,
    "h": 1.56096,
    "l": 1.55928,
    "c": 1.55987,
    "v": 2449
  },
  {
    "dt": "2021.02.15 10:00",
    "o": 1.55984,
    "h": 1.56044,
    "l": 1.55886,
    "c": 1.55997,
    "v": 3492
  },
  {
    "dt": "2021.02.15 11:00",
    "o": 1.55997,
    "h": 1.56153,
    "l": 1.55975,
    "c": 1.56058,
    "v": 2724
  },
  {
    "dt": "2021.02.15 12:00",
    "o": 1.56062,
    "h": 1.56077,
    "l": 1.55956,
    "c": 1.56015,
    "v": 2162
  },
  {
    "dt": "2021.02.15 13:00",
    "o": 1.56017,
    "h": 1.56033,
    "l": 1.55955,
    "c": 1.56007,
    "v": 2118
  },
  {
    "dt": "2021.02.15 14:00",
    "o": 1.56005,
    "h": 1.56028,
    "l": 1.55929,
    "c": 1.55948,
    "v": 2572
  },
  {
    "dt": "2021.02.15 15:00",
    "o": 1.55951,
    "h": 1.56099,
    "l": 1.55926,
    "c": 1.56064,
    "v": 2356
  },
  {
    "dt": "2021.02.15 16:00",
    "o": 1.56067,
    "h": 1.56073,
    "l": 1.55941,
    "c": 1.55996,
    "v": 2715
  },
  {
    "dt": "2021.02.15 17:00",
    "o": 1.55995,
    "h": 1.56023,
    "l": 1.55836,
    "c": 1.55844,
    "v": 2776
  },
  {
    "dt": "2021.02.15 18:00",
    "o": 1.55848,
    "h": 1.5591,
    "l": 1.55782,
    "c": 1.55813,
    "v": 2438
  },
  {
    "dt": "2021.02.15 19:00",
    "o": 1.55814,
    "h": 1.55847,
    "l": 1.55749,
    "c": 1.55776,
    "v": 1632
  },
  {
    "dt": "2021.02.15 20:00",
    "o": 1.55788,
    "h": 1.55903,
    "l": 1.55768,
    "c": 1.55823,
    "v": 853
  },
  {
    "dt": "2021.02.15 21:00",
    "o": 1.55826,
    "h": 1.5586,
    "l": 1.55812,
    "c": 1.5583,
    "v": 389
  },
  {
    "dt": "2021.02.15 22:00",
    "o": 1.55829,
    "h": 1.55888,
    "l": 1.55809,
    "c": 1.55855,
    "v": 409
  },
  {
    "dt": "2021.02.15 23:00",
    "o": 1.55855,
    "h": 1.5591,
    "l": 1.55766,
    "c": 1.55825,
    "v": 594
  },
  {
    "dt": "2021.02.16 00:00",
    "o": 1.55843,
    "h": 1.55862,
    "l": 1.55755,
    "c": 1.558,
    "v": 275
  },
  {
    "dt": "2021.02.16 01:00",
    "o": 1.55821,
    "h": 1.5585,
    "l": 1.55726,
    "c": 1.55815,
    "v": 978
  },
  {
    "dt": "2021.02.16 02:00",
    "o": 1.55815,
    "h": 1.5588,
    "l": 1.55726,
    "c": 1.55861,
    "v": 1784
  },
  {
    "dt": "2021.02.16 03:00",
    "o": 1.55861,
    "h": 1.55891,
    "l": 1.55649,
    "c": 1.55713,
    "v": 2210
  },
  {
    "dt": "2021.02.16 04:00",
    "o": 1.55715,
    "h": 1.55737,
    "l": 1.55586,
    "c": 1.55628,
    "v": 1857
  },
  {
    "dt": "2021.02.16 05:00",
    "o": 1.55629,
    "h": 1.55678,
    "l": 1.55613,
    "c": 1.55652,
    "v": 1386
  },
  {
    "dt": "2021.02.16 06:00",
    "o": 1.55646,
    "h": 1.55727,
    "l": 1.55603,
    "c": 1.55715,
    "v": 1581
  },
  {
    "dt": "2021.02.16 07:00",
    "o": 1.55714,
    "h": 1.56007,
    "l": 1.55701,
    "c": 1.55913,
    "v": 2359
  },
  {
    "dt": "2021.02.16 08:00",
    "o": 1.55913,
    "h": 1.5597,
    "l": 1.55809,
    "c": 1.55892,
    "v": 2031
  },
  {
    "dt": "2021.02.16 09:00",
    "o": 1.5589,
    "h": 1.55996,
    "l": 1.55835,
    "c": 1.55951,
    "v": 3022
  },
  {
    "dt": "2021.02.16 10:00",
    "o": 1.55952,
    "h": 1.56058,
    "l": 1.55907,
    "c": 1.55946,
    "v": 3864
  },
  {
    "dt": "2021.02.16 11:00",
    "o": 1.55949,
    "h": 1.56012,
    "l": 1.55904,
    "c": 1.55985,
    "v": 3277
  },
  {
    "dt": "2021.02.16 12:00",
    "o": 1.55984,
    "h": 1.56093,
    "l": 1.55947,
    "c": 1.5598,
    "v": 3129
  },
  {
    "dt": "2021.02.16 13:00",
    "o": 1.55981,
    "h": 1.56069,
    "l": 1.55949,
    "c": 1.56021,
    "v": 2820
  },
  {
    "dt": "2021.02.16 14:00",
    "o": 1.56026,
    "h": 1.56198,
    "l": 1.55987,
    "c": 1.56134,
    "v": 3596
  },
  {
    "dt": "2021.02.16 15:00",
    "o": 1.56131,
    "h": 1.56193,
    "l": 1.55919,
    "c": 1.56124,
    "v": 4881
  },
  {
    "dt": "2021.02.16 16:00",
    "o": 1.56124,
    "h": 1.56302,
    "l": 1.56029,
    "c": 1.56103,
    "v": 5279
  },
  {
    "dt": "2021.02.16 17:00",
    "o": 1.56104,
    "h": 1.56141,
    "l": 1.55875,
    "c": 1.55881,
    "v": 5078
  },
  {
    "dt": "2021.02.16 18:00",
    "o": 1.55878,
    "h": 1.56093,
    "l": 1.55815,
    "c": 1.56032,
    "v": 4458
  },
  {
    "dt": "2021.02.16 19:00",
    "o": 1.56038,
    "h": 1.56223,
    "l": 1.56027,
    "c": 1.56103,
    "v": 3745
  },
  {
    "dt": "2021.02.16 20:00",
    "o": 1.56101,
    "h": 1.56113,
    "l": 1.55985,
    "c": 1.56021,
    "v": 2478
  },
  {
    "dt": "2021.02.16 21:00",
    "o": 1.56015,
    "h": 1.56073,
    "l": 1.55973,
    "c": 1.56061,
    "v": 2232
  },
  {
    "dt": "2021.02.16 22:00",
    "o": 1.56061,
    "h": 1.56117,
    "l": 1.56043,
    "c": 1.56065,
    "v": 2649
  },
  {
    "dt": "2021.02.16 23:00",
    "o": 1.56058,
    "h": 1.56122,
    "l": 1.56044,
    "c": 1.56099,
    "v": 1785
  },
  {
    "dt": "2021.02.17 00:00",
    "o": 1.55994,
    "h": 1.56143,
    "l": 1.55961,
    "c": 1.56113,
    "v": 457
  },
  {
    "dt": "2021.02.17 01:00",
    "o": 1.56106,
    "h": 1.56344,
    "l": 1.56102,
    "c": 1.56251,
    "v": 2588
  },
  {
    "dt": "2021.02.17 02:00",
    "o": 1.56252,
    "h": 1.56252,
    "l": 1.56074,
    "c": 1.56185,
    "v": 2589
  },
  {
    "dt": "2021.02.17 03:00",
    "o": 1.56184,
    "h": 1.56268,
    "l": 1.56063,
    "c": 1.56089,
    "v": 2326
  },
  {
    "dt": "2021.02.17 04:00",
    "o": 1.56097,
    "h": 1.56103,
    "l": 1.55933,
    "c": 1.55991,
    "v": 2455
  },
  {
    "dt": "2021.02.17 05:00",
    "o": 1.55993,
    "h": 1.56061,
    "l": 1.55922,
    "c": 1.55953,
    "v": 1968
  },
  {
    "dt": "2021.02.17 06:00",
    "o": 1.55955,
    "h": 1.56001,
    "l": 1.55936,
    "c": 1.55962,
    "v": 1625
  },
  {
    "dt": "2021.02.17 07:00",
    "o": 1.55959,
    "h": 1.55993,
    "l": 1.55883,
    "c": 1.55977,
    "v": 2114
  },
  {
    "dt": "2021.02.17 08:00",
    "o": 1.55978,
    "h": 1.5603,
    "l": 1.55844,
    "c": 1.55853,
    "v": 2404
  },
  {
    "dt": "2021.02.17 09:00",
    "o": 1.55853,
    "h": 1.5592,
    "l": 1.55794,
    "c": 1.55888,
    "v": 3613
  },
  {
    "dt": "2021.02.17 10:00",
    "o": 1.55887,
    "h": 1.55945,
    "l": 1.55393,
    "c": 1.55489,
    "v": 4405
  },
  {
    "dt": "2021.02.17 11:00",
    "o": 1.55488,
    "h": 1.55619,
    "l": 1.55425,
    "c": 1.55588,
    "v": 3810
  },
  {
    "dt": "2021.02.17 12:00",
    "o": 1.55582,
    "h": 1.55748,
    "l": 1.55531,
    "c": 1.55748,
    "v": 3120
  },
  {
    "dt": "2021.02.17 13:00",
    "o": 1.55749,
    "h": 1.55844,
    "l": 1.55716,
    "c": 1.55802,
    "v": 3095
  },
  {
    "dt": "2021.02.17 14:00",
    "o": 1.558,
    "h": 1.55846,
    "l": 1.55647,
    "c": 1.55658,
    "v": 3305
  },
  {
    "dt": "2021.02.17 15:00",
    "o": 1.55663,
    "h": 1.55805,
    "l": 1.5563,
    "c": 1.5567,
    "v": 4814
  },
  {
    "dt": "2021.02.17 16:00",
    "o": 1.55671,
    "h": 1.55881,
    "l": 1.55542,
    "c": 1.55565,
    "v": 5384
  },
  {
    "dt": "2021.02.17 17:00",
    "o": 1.55563,
    "h": 1.55738,
    "l": 1.55427,
    "c": 1.55558,
    "v": 5234
  },
  {
    "dt": "2021.02.17 18:00",
    "o": 1.55557,
    "h": 1.55688,
    "l": 1.55505,
    "c": 1.5557,
    "v": 5171
  },
  {
    "dt": "2021.02.17 19:00",
    "o": 1.55569,
    "h": 1.5559,
    "l": 1.55348,
    "c": 1.55368,
    "v": 3770
  },
  {
    "dt": "2021.02.17 20:00",
    "o": 1.55369,
    "h": 1.55408,
    "l": 1.55316,
    "c": 1.5532,
    "v": 3296
  },
  {
    "dt": "2021.02.17 21:00",
    "o": 1.55316,
    "h": 1.55369,
    "l": 1.55296,
    "c": 1.55324,
    "v": 3109
  },
  {
    "dt": "2021.02.17 22:00",
    "o": 1.55327,
    "h": 1.55387,
    "l": 1.55294,
    "c": 1.55321,
    "v": 2506
  },
  {
    "dt": "2021.02.17 23:00",
    "o": 1.55323,
    "h": 1.55357,
    "l": 1.553,
    "c": 1.55338,
    "v": 1632
  },
  {
    "dt": "2021.02.18 00:00",
    "o": 1.55311,
    "h": 1.55366,
    "l": 1.55259,
    "c": 1.553,
    "v": 524
  },
  {
    "dt": "2021.02.18 01:00",
    "o": 1.55318,
    "h": 1.5536,
    "l": 1.55237,
    "c": 1.55245,
    "v": 1282
  },
  {
    "dt": "2021.02.18 02:00",
    "o": 1.55253,
    "h": 1.55314,
    "l": 1.55067,
    "c": 1.55225,
    "v": 2669
  },
  {
    "dt": "2021.02.18 03:00",
    "o": 1.55226,
    "h": 1.5533,
    "l": 1.55173,
    "c": 1.55257,
    "v": 3015
  },
  {
    "dt": "2021.02.18 04:00",
    "o": 1.55256,
    "h": 1.55353,
    "l": 1.55147,
    "c": 1.55159,
    "v": 2384
  },
  {
    "dt": "2021.02.18 05:00",
    "o": 1.55155,
    "h": 1.55332,
    "l": 1.55147,
    "c": 1.55272,
    "v": 2344
  },
  {
    "dt": "2021.02.18 06:00",
    "o": 1.55272,
    "h": 1.55312,
    "l": 1.55205,
    "c": 1.55241,
    "v": 2136
  },
  {
    "dt": "2021.02.18 07:00",
    "o": 1.55243,
    "h": 1.55356,
    "l": 1.5522,
    "c": 1.55322,
    "v": 1954
  },
  {
    "dt": "2021.02.18 08:00",
    "o": 1.5532,
    "h": 1.55361,
    "l": 1.55264,
    "c": 1.55327,
    "v": 2082
  },
  {
    "dt": "2021.02.18 09:00",
    "o": 1.55329,
    "h": 1.55386,
    "l": 1.55245,
    "c": 1.55258,
    "v": 3254
  },
  {
    "dt": "2021.02.18 10:00",
    "o": 1.55255,
    "h": 1.55381,
    "l": 1.5515,
    "c": 1.55151,
    "v": 4208
  },
  {
    "dt": "2021.02.18 11:00",
    "o": 1.55152,
    "h": 1.55207,
    "l": 1.5506,
    "c": 1.55186,
    "v": 3657
  },
  {
    "dt": "2021.02.18 12:00",
    "o": 1.55182,
    "h": 1.55255,
    "l": 1.55135,
    "c": 1.55242,
    "v": 3080
  },
  {
    "dt": "2021.02.18 13:00",
    "o": 1.55245,
    "h": 1.55263,
    "l": 1.55122,
    "c": 1.55212,
    "v": 3307
  },
  {
    "dt": "2021.02.18 14:00",
    "o": 1.55211,
    "h": 1.55251,
    "l": 1.55073,
    "c": 1.55171,
    "v": 3586
  },
  {
    "dt": "2021.02.18 15:00",
    "o": 1.55172,
    "h": 1.55404,
    "l": 1.55129,
    "c": 1.55363,
    "v": 4097
  },
  {
    "dt": "2021.02.18 16:00",
    "o": 1.55365,
    "h": 1.55652,
    "l": 1.55361,
    "c": 1.55523,
    "v": 4956
  },
  {
    "dt": "2021.02.18 17:00",
    "o": 1.55523,
    "h": 1.5604,
    "l": 1.55523,
    "c": 1.55945,
    "v": 5151
  },
  {
    "dt": "2021.02.18 18:00",
    "o": 1.5594,
    "h": 1.55974,
    "l": 1.55718,
    "c": 1.55834,
    "v": 3968
  },
  {
    "dt": "2021.02.18 19:00",
    "o": 1.55838,
    "h": 1.55923,
    "l": 1.55738,
    "c": 1.55753,
    "v": 3503
  },
  {
    "dt": "2021.02.18 20:00",
    "o": 1.5575,
    "h": 1.5579,
    "l": 1.55618,
    "c": 1.55653,
    "v": 2806
  },
  {
    "dt": "2021.02.18 21:00",
    "o": 1.55652,
    "h": 1.55669,
    "l": 1.55568,
    "c": 1.55575,
    "v": 2302
  },
  {
    "dt": "2021.02.18 22:00",
    "o": 1.55572,
    "h": 1.55667,
    "l": 1.55535,
    "c": 1.55641,
    "v": 2323
  },
  {
    "dt": "2021.02.18 23:00",
    "o": 1.55631,
    "h": 1.5566,
    "l": 1.55564,
    "c": 1.55628,
    "v": 1880
  },
  {
    "dt": "2021.02.19 00:00",
    "o": 1.55586,
    "h": 1.55684,
    "l": 1.55542,
    "c": 1.55614,
    "v": 533
  },
  {
    "dt": "2021.02.19 01:00",
    "o": 1.55623,
    "h": 1.55671,
    "l": 1.55585,
    "c": 1.55642,
    "v": 1234
  },
  {
    "dt": "2021.02.19 02:00",
    "o": 1.55652,
    "h": 1.55652,
    "l": 1.55559,
    "c": 1.55586,
    "v": 2029
  },
  {
    "dt": "2021.02.19 03:00",
    "o": 1.55586,
    "h": 1.55746,
    "l": 1.55569,
    "c": 1.5561,
    "v": 3155
  },
  {
    "dt": "2021.02.19 04:00",
    "o": 1.5561,
    "h": 1.5574,
    "l": 1.5559,
    "c": 1.55622,
    "v": 2824
  },
  {
    "dt": "2021.02.19 05:00",
    "o": 1.55623,
    "h": 1.55714,
    "l": 1.55606,
    "c": 1.55684,
    "v": 2313
  },
  {
    "dt": "2021.02.19 06:00",
    "o": 1.55684,
    "h": 1.55724,
    "l": 1.55645,
    "c": 1.55654,
    "v": 1659
  },
  {
    "dt": "2021.02.19 07:00",
    "o": 1.55647,
    "h": 1.5566,
    "l": 1.55374,
    "c": 1.55388,
    "v": 2395
  },
  {
    "dt": "2021.02.19 08:00",
    "o": 1.55388,
    "h": 1.55421,
    "l": 1.55305,
    "c": 1.55332,
    "v": 2475
  },
  {
    "dt": "2021.02.19 09:00",
    "o": 1.55333,
    "h": 1.55376,
    "l": 1.55213,
    "c": 1.55273,
    "v": 3445
  },
  {
    "dt": "2021.02.19 10:00",
    "o": 1.55274,
    "h": 1.5532,
    "l": 1.55133,
    "c": 1.55172,
    "v": 4391
  },
  {
    "dt": "2021.02.19 11:00",
    "o": 1.55165,
    "h": 1.55271,
    "l": 1.54827,
    "c": 1.54968,
    "v": 3974
  },
  {
    "dt": "2021.02.19 12:00",
    "o": 1.5497,
    "h": 1.55052,
    "l": 1.54783,
    "c": 1.54818,
    "v": 3747
  },
  {
    "dt": "2021.02.19 13:00",
    "o": 1.54819,
    "h": 1.54915,
    "l": 1.54691,
    "c": 1.54747,
    "v": 3317
  },
  {
    "dt": "2021.02.19 14:00",
    "o": 1.54748,
    "h": 1.54748,
    "l": 1.54346,
    "c": 1.54408,
    "v": 3817
  },
  {
    "dt": "2021.02.19 15:00",
    "o": 1.5441,
    "h": 1.54522,
    "l": 1.54203,
    "c": 1.54203,
    "v": 4221
  },
  {
    "dt": "2021.02.19 16:00",
    "o": 1.54205,
    "h": 1.54379,
    "l": 1.54167,
    "c": 1.54284,
    "v": 4669
  },
  {
    "dt": "2021.02.19 17:00",
    "o": 1.54284,
    "h": 1.54347,
    "l": 1.54214,
    "c": 1.54238,
    "v": 4683
  },
  {
    "dt": "2021.02.19 18:00",
    "o": 1.5424,
    "h": 1.54292,
    "l": 1.54083,
    "c": 1.54143,
    "v": 3950
  },
  {
    "dt": "2021.02.19 19:00",
    "o": 1.54144,
    "h": 1.54168,
    "l": 1.53991,
    "c": 1.54013,
    "v": 3345
  },
  {
    "dt": "2021.02.19 20:00",
    "o": 1.54016,
    "h": 1.54177,
    "l": 1.53967,
    "c": 1.54019,
    "v": 3434
  },
  {
    "dt": "2021.02.19 21:00",
    "o": 1.54018,
    "h": 1.54142,
    "l": 1.54008,
    "c": 1.54026,
    "v": 2659
  },
  {
    "dt": "2021.02.19 22:00",
    "o": 1.54023,
    "h": 1.54075,
    "l": 1.5396,
    "c": 1.53999,
    "v": 2500
  },
  {
    "dt": "2021.02.19 23:00",
    "o": 1.53994,
    "h": 1.54011,
    "l": 1.53922,
    "c": 1.53971,
    "v": 1742
  },
  {
    "dt": "2021.02.22 00:00",
    "o": 1.53856,
    "h": 1.54002,
    "l": 1.53836,
    "c": 1.53963,
    "v": 374
  },
  {
    "dt": "2021.02.22 01:00",
    "o": 1.53997,
    "h": 1.5403,
    "l": 1.53647,
    "c": 1.53799,
    "v": 2763
  },
  {
    "dt": "2021.02.22 02:00",
    "o": 1.53798,
    "h": 1.53837,
    "l": 1.53526,
    "c": 1.53727,
    "v": 2869
  },
  {
    "dt": "2021.02.22 03:00",
    "o": 1.53726,
    "h": 1.53729,
    "l": 1.53435,
    "c": 1.53556,
    "v": 3454
  },
  {
    "dt": "2021.02.22 04:00",
    "o": 1.53556,
    "h": 1.53858,
    "l": 1.53556,
    "c": 1.53798,
    "v": 3334
  },
  {
    "dt": "2021.02.22 05:00",
    "o": 1.53795,
    "h": 1.53902,
    "l": 1.53782,
    "c": 1.53828,
    "v": 2517
  },
  {
    "dt": "2021.02.22 06:00",
    "o": 1.53828,
    "h": 1.53907,
    "l": 1.53812,
    "c": 1.53867,
    "v": 1841
  },
  {
    "dt": "2021.02.22 07:00",
    "o": 1.53869,
    "h": 1.53879,
    "l": 1.53691,
    "c": 1.53796,
    "v": 2532
  },
  {
    "dt": "2021.02.22 08:00",
    "o": 1.53793,
    "h": 1.5389,
    "l": 1.53757,
    "c": 1.53819,
    "v": 2224
  },
  {
    "dt": "2021.02.22 09:00",
    "o": 1.53818,
    "h": 1.54094,
    "l": 1.5375,
    "c": 1.53918,
    "v": 4209
  },
  {
    "dt": "2021.02.22 10:00",
    "o": 1.53916,
    "h": 1.54024,
    "l": 1.5377,
    "c": 1.538,
    "v": 4934
  },
  {
    "dt": "2021.02.22 11:00",
    "o": 1.53801,
    "h": 1.53925,
    "l": 1.53736,
    "c": 1.53753,
    "v": 4512
  },
  {
    "dt": "2021.02.22 12:00",
    "o": 1.5376,
    "h": 1.54003,
    "l": 1.53736,
    "c": 1.53981,
    "v": 3394
  },
  {
    "dt": "2021.02.22 13:00",
    "o": 1.53981,
    "h": 1.53989,
    "l": 1.53813,
    "c": 1.53879,
    "v": 3527
  },
  {
    "dt": "2021.02.22 14:00",
    "o": 1.53877,
    "h": 1.53936,
    "l": 1.53795,
    "c": 1.53858,
    "v": 3675
  },
  {
    "dt": "2021.02.22 15:00",
    "o": 1.53854,
    "h": 1.53946,
    "l": 1.53764,
    "c": 1.53768,
    "v": 4656
  },
  {
    "dt": "2021.02.22 16:00",
    "o": 1.53767,
    "h": 1.53936,
    "l": 1.53659,
    "c": 1.53685,
    "v": 5225
  },
  {
    "dt": "2021.02.22 17:00",
    "o": 1.53683,
    "h": 1.53713,
    "l": 1.53422,
    "c": 1.53538,
    "v": 5399
  },
  {
    "dt": "2021.02.22 18:00",
    "o": 1.53539,
    "h": 1.53711,
    "l": 1.53457,
    "c": 1.53537,
    "v": 4440
  },
  {
    "dt": "2021.02.22 19:00",
    "o": 1.53537,
    "h": 1.53655,
    "l": 1.53524,
    "c": 1.53593,
    "v": 3579
  },
  {
    "dt": "2021.02.22 20:00",
    "o": 1.53593,
    "h": 1.53619,
    "l": 1.53476,
    "c": 1.53537,
    "v": 2866
  },
  {
    "dt": "2021.02.22 21:00",
    "o": 1.53535,
    "h": 1.53577,
    "l": 1.53442,
    "c": 1.53534,
    "v": 2603
  },
  {
    "dt": "2021.02.22 22:00",
    "o": 1.53533,
    "h": 1.53616,
    "l": 1.53512,
    "c": 1.53547,
    "v": 3099
  },
  {
    "dt": "2021.02.22 23:00",
    "o": 1.53545,
    "h": 1.53562,
    "l": 1.53498,
    "c": 1.53562,
    "v": 1787
  },
  {
    "dt": "2021.02.23 00:00",
    "o": 1.53525,
    "h": 1.53616,
    "l": 1.53525,
    "c": 1.53587,
    "v": 546
  },
  {
    "dt": "2021.02.23 01:00",
    "o": 1.53582,
    "h": 1.53696,
    "l": 1.53563,
    "c": 1.53683,
    "v": 1609
  },
  {
    "dt": "2021.02.23 02:00",
    "o": 1.53682,
    "h": 1.53718,
    "l": 1.53586,
    "c": 1.53696,
    "v": 2089
  },
  {
    "dt": "2021.02.23 03:00",
    "o": 1.53697,
    "h": 1.53723,
    "l": 1.5344,
    "c": 1.53478,
    "v": 3267
  },
  {
    "dt": "2021.02.23 04:00",
    "o": 1.53475,
    "h": 1.53748,
    "l": 1.5347,
    "c": 1.53708,
    "v": 2521
  },
  {
    "dt": "2021.02.23 05:00",
    "o": 1.53705,
    "h": 1.53802,
    "l": 1.53688,
    "c": 1.53714,
    "v": 2199
  },
  {
    "dt": "2021.02.23 06:00",
    "o": 1.53712,
    "h": 1.53749,
    "l": 1.53598,
    "c": 1.53621,
    "v": 1466
  },
  {
    "dt": "2021.02.23 07:00",
    "o": 1.53625,
    "h": 1.53708,
    "l": 1.53615,
    "c": 1.53658,
    "v": 2016
  },
  {
    "dt": "2021.02.23 08:00",
    "o": 1.53659,
    "h": 1.53728,
    "l": 1.53627,
    "c": 1.53717,
    "v": 2372
  },
  {
    "dt": "2021.02.23 09:00",
    "o": 1.53719,
    "h": 1.53861,
    "l": 1.53673,
    "c": 1.53731,
    "v": 3474
  },
  {
    "dt": "2021.02.23 10:00",
    "o": 1.53732,
    "h": 1.5384,
    "l": 1.53611,
    "c": 1.53611,
    "v": 4248
  },
  {
    "dt": "2021.02.23 11:00",
    "o": 1.53607,
    "h": 1.53858,
    "l": 1.53585,
    "c": 1.5379,
    "v": 4270
  },
  {
    "dt": "2021.02.23 12:00",
    "o": 1.53792,
    "h": 1.53933,
    "l": 1.5378,
    "c": 1.53859,
    "v": 4168
  },
  {
    "dt": "2021.02.23 13:00",
    "o": 1.53861,
    "h": 1.53913,
    "l": 1.53702,
    "c": 1.53743,
    "v": 3879
  },
  {
    "dt": "2021.02.23 14:00",
    "o": 1.53742,
    "h": 1.53758,
    "l": 1.53581,
    "c": 1.53619,
    "v": 3928
  },
  {
    "dt": "2021.02.23 15:00",
    "o": 1.5362,
    "h": 1.53826,
    "l": 1.5362,
    "c": 1.53779,
    "v": 4050
  },
  {
    "dt": "2021.02.23 16:00",
    "o": 1.53777,
    "h": 1.54008,
    "l": 1.5366,
    "c": 1.53897,
    "v": 4934
  },
  {
    "dt": "2021.02.23 17:00",
    "o": 1.53889,
    "h": 1.5391,
    "l": 1.53582,
    "c": 1.53738,
    "v": 5742
  },
  {
    "dt": "2021.02.23 18:00",
    "o": 1.53733,
    "h": 1.53763,
    "l": 1.5357,
    "c": 1.53664,
    "v": 4775
  },
  {
    "dt": "2021.02.23 19:00",
    "o": 1.53653,
    "h": 1.53739,
    "l": 1.53588,
    "c": 1.53694,
    "v": 4359
  },
  {
    "dt": "2021.02.23 20:00",
    "o": 1.53694,
    "h": 1.53716,
    "l": 1.53587,
    "c": 1.53645,
    "v": 3902
  },
  {
    "dt": "2021.02.23 21:00",
    "o": 1.53646,
    "h": 1.53693,
    "l": 1.53469,
    "c": 1.53489,
    "v": 3543
  },
  {
    "dt": "2021.02.23 22:00",
    "o": 1.53491,
    "h": 1.53515,
    "l": 1.53417,
    "c": 1.53477,
    "v": 3145
  },
  {
    "dt": "2021.02.23 23:00",
    "o": 1.53479,
    "h": 1.53581,
    "l": 1.53449,
    "c": 1.53535,
    "v": 1822
  },
  {
    "dt": "2021.02.24 00:00",
    "o": 1.5351,
    "h": 1.53566,
    "l": 1.53394,
    "c": 1.53538,
    "v": 641
  },
  {
    "dt": "2021.02.24 01:00",
    "o": 1.53547,
    "h": 1.53679,
    "l": 1.53493,
    "c": 1.53652,
    "v": 1925
  },
  {
    "dt": "2021.02.24 02:00",
    "o": 1.53654,
    "h": 1.53688,
    "l": 1.53411,
    "c": 1.53436,
    "v": 2705
  },
  {
    "dt": "2021.02.24 03:00",
    "o": 1.53437,
    "h": 1.53512,
    "l": 1.52962,
    "c": 1.5312,
    "v": 4371
  },
  {
    "dt": "2021.02.24 04:00",
    "o": 1.53119,
    "h": 1.53345,
    "l": 1.53087,
    "c": 1.53242,
    "v": 3333
  },
  {
    "dt": "2021.02.24 05:00",
    "o": 1.5324,
    "h": 1.53443,
    "l": 1.53183,
    "c": 1.53409,
    "v": 3171
  },
  {
    "dt": "2021.02.24 06:00",
    "o": 1.53409,
    "h": 1.53569,
    "l": 1.53397,
    "c": 1.53525,
    "v": 2392
  },
  {
    "dt": "2021.02.24 07:00",
    "o": 1.53523,
    "h": 1.53643,
    "l": 1.5348,
    "c": 1.53549,
    "v": 3057
  },
  {
    "dt": "2021.02.24 08:00",
    "o": 1.53547,
    "h": 1.53617,
    "l": 1.53476,
    "c": 1.53578,
    "v": 2706
  },
  {
    "dt": "2021.02.24 09:00",
    "o": 1.53576,
    "h": 1.53603,
    "l": 1.53413,
    "c": 1.53531,
    "v": 3938
  },
  {
    "dt": "2021.02.24 10:00",
    "o": 1.53533,
    "h": 1.53742,
    "l": 1.53452,
    "c": 1.5357,
    "v": 4912
  },
  {
    "dt": "2021.02.24 11:00",
    "o": 1.53575,
    "h": 1.53692,
    "l": 1.53541,
    "c": 1.53592,
    "v": 4156
  },
  {
    "dt": "2021.02.24 12:00",
    "o": 1.53593,
    "h": 1.53679,
    "l": 1.5348,
    "c": 1.53604,
    "v": 3812
  },
  {
    "dt": "2021.02.24 13:00",
    "o": 1.53607,
    "h": 1.53693,
    "l": 1.53435,
    "c": 1.53463,
    "v": 3524
  },
  {
    "dt": "2021.02.24 14:00",
    "o": 1.53465,
    "h": 1.53508,
    "l": 1.53389,
    "c": 1.53443,
    "v": 4077
  },
  {
    "dt": "2021.02.24 15:00",
    "o": 1.5344,
    "h": 1.53599,
    "l": 1.53335,
    "c": 1.53501,
    "v": 5260
  },
  {
    "dt": "2021.02.24 16:00",
    "o": 1.535,
    "h": 1.53523,
    "l": 1.53359,
    "c": 1.53383,
    "v": 5498
  },
  {
    "dt": "2021.02.24 17:00",
    "o": 1.53376,
    "h": 1.53402,
    "l": 1.5299,
    "c": 1.53072,
    "v": 5657
  },
  {
    "dt": "2021.02.24 18:00",
    "o": 1.53072,
    "h": 1.53133,
    "l": 1.52956,
    "c": 1.53027,
    "v": 4836
  },
  {
    "dt": "2021.02.24 19:00",
    "o": 1.53028,
    "h": 1.53035,
    "l": 1.52849,
    "c": 1.52892,
    "v": 3960
  },
  {
    "dt": "2021.02.24 20:00",
    "o": 1.52891,
    "h": 1.5296,
    "l": 1.5281,
    "c": 1.52931,
    "v": 3559
  },
  {
    "dt": "2021.02.24 21:00",
    "o": 1.5293,
    "h": 1.52971,
    "l": 1.52873,
    "c": 1.52924,
    "v": 3013
  },
  {
    "dt": "2021.02.24 22:00",
    "o": 1.52922,
    "h": 1.52975,
    "l": 1.52704,
    "c": 1.52727,
    "v": 3634
  },
  {
    "dt": "2021.02.24 23:00",
    "o": 1.52729,
    "h": 1.52775,
    "l": 1.52609,
    "c": 1.52711,
    "v": 2335
  },
  {
    "dt": "2021.02.25 00:00",
    "o": 1.52728,
    "h": 1.52783,
    "l": 1.52599,
    "c": 1.52718,
    "v": 784
  },
  {
    "dt": "2021.02.25 01:00",
    "o": 1.52742,
    "h": 1.52814,
    "l": 1.52534,
    "c": 1.52558,
    "v": 2121
  },
  {
    "dt": "2021.02.25 02:00",
    "o": 1.52567,
    "h": 1.52721,
    "l": 1.52522,
    "c": 1.52634,
    "v": 2525
  },
  {
    "dt": "2021.02.25 03:00",
    "o": 1.52636,
    "h": 1.5274,
    "l": 1.52617,
    "c": 1.52731,
    "v": 3363
  },
  {
    "dt": "2021.02.25 04:00",
    "o": 1.52728,
    "h": 1.52874,
    "l": 1.52686,
    "c": 1.52861,
    "v": 2626
  },
  {
    "dt": "2021.02.25 05:00",
    "o": 1.52868,
    "h": 1.5291,
    "l": 1.52789,
    "c": 1.52822,
    "v": 2368
  },
  {
    "dt": "2021.02.25 06:00",
    "o": 1.5281,
    "h": 1.52841,
    "l": 1.52704,
    "c": 1.52841,
    "v": 2070
  },
  {
    "dt": "2021.02.25 07:00",
    "o": 1.52841,
    "h": 1.52874,
    "l": 1.52639,
    "c": 1.52739,
    "v": 2837
  },
  {
    "dt": "2021.02.25 08:00",
    "o": 1.52738,
    "h": 1.52782,
    "l": 1.5267,
    "c": 1.5268,
    "v": 2591
  },
  {
    "dt": "2021.02.25 09:00",
    "o": 1.52691,
    "h": 1.5272,
    "l": 1.52522,
    "c": 1.52555,
    "v": 3804
  },
  {
    "dt": "2021.02.25 10:00",
    "o": 1.5255,
    "h": 1.52736,
    "l": 1.52514,
    "c": 1.52672,
    "v": 4759
  },
  {
    "dt": "2021.02.25 11:00",
    "o": 1.5267,
    "h": 1.52857,
    "l": 1.52583,
    "c": 1.52701,
    "v": 4549
  },
  {
    "dt": "2021.02.25 12:00",
    "o": 1.52698,
    "h": 1.531,
    "l": 1.52698,
    "c": 1.52828,
    "v": 4567
  },
  {
    "dt": "2021.02.25 13:00",
    "o": 1.5283,
    "h": 1.53259,
    "l": 1.52785,
    "c": 1.53252,
    "v": 4561
  },
  {
    "dt": "2021.02.25 14:00",
    "o": 1.53244,
    "h": 1.53294,
    "l": 1.53063,
    "c": 1.53088,
    "v": 4439
  },
  {
    "dt": "2021.02.25 15:00",
    "o": 1.53093,
    "h": 1.53282,
    "l": 1.53038,
    "c": 1.53138,
    "v": 4958
  },
  {
    "dt": "2021.02.25 16:00",
    "o": 1.53138,
    "h": 1.53359,
    "l": 1.53052,
    "c": 1.53359,
    "v": 5499
  },
  {
    "dt": "2021.02.25 17:00",
    "o": 1.53366,
    "h": 1.53686,
    "l": 1.53358,
    "c": 1.53586,
    "v": 5901
  },
  {
    "dt": "2021.02.25 18:00",
    "o": 1.5359,
    "h": 1.53784,
    "l": 1.53546,
    "c": 1.5376,
    "v": 5477
  },
  {
    "dt": "2021.02.25 19:00",
    "o": 1.53759,
    "h": 1.5431,
    "l": 1.53758,
    "c": 1.54256,
    "v": 5613
  },
  {
    "dt": "2021.02.25 20:00",
    "o": 1.54257,
    "h": 1.5446,
    "l": 1.54078,
    "c": 1.54268,
    "v": 6202
  },
  {
    "dt": "2021.02.25 21:00",
    "o": 1.54273,
    "h": 1.54336,
    "l": 1.53997,
    "c": 1.54156,
    "v": 5427
  },
  {
    "dt": "2021.02.25 22:00",
    "o": 1.54159,
    "h": 1.54772,
    "l": 1.54125,
    "c": 1.54636,
    "v": 5514
  },
  {
    "dt": "2021.02.25 23:00",
    "o": 1.54628,
    "h": 1.547,
    "l": 1.54513,
    "c": 1.54645,
    "v": 3064
  },
  {
    "dt": "2021.02.26 00:00",
    "o": 1.54663,
    "h": 1.54663,
    "l": 1.54488,
    "c": 1.54646,
    "v": 657
  },
  {
    "dt": "2021.02.26 01:00",
    "o": 1.54634,
    "h": 1.5475,
    "l": 1.5444,
    "c": 1.54614,
    "v": 3685
  },
  {
    "dt": "2021.02.26 02:00",
    "o": 1.54615,
    "h": 1.55143,
    "l": 1.54533,
    "c": 1.54864,
    "v": 5012
  },
  {
    "dt": "2021.02.26 03:00",
    "o": 1.54868,
    "h": 1.54917,
    "l": 1.54735,
    "c": 1.54866,
    "v": 4609
  },
  {
    "dt": "2021.02.26 04:00",
    "o": 1.54864,
    "h": 1.54937,
    "l": 1.54741,
    "c": 1.54809,
    "v": 3762
  },
  {
    "dt": "2021.02.26 05:00",
    "o": 1.54809,
    "h": 1.54901,
    "l": 1.54722,
    "c": 1.54798,
    "v": 3487
  },
  {
    "dt": "2021.02.26 06:00",
    "o": 1.54794,
    "h": 1.55368,
    "l": 1.5474,
    "c": 1.55219,
    "v": 3636
  },
  {
    "dt": "2021.02.26 07:00",
    "o": 1.55219,
    "h": 1.55281,
    "l": 1.55058,
    "c": 1.55152,
    "v": 4025
  },
  {
    "dt": "2021.02.26 08:00",
    "o": 1.55152,
    "h": 1.55304,
    "l": 1.54978,
    "c": 1.553,
    "v": 3911
  },
  {
    "dt": "2021.02.26 09:00",
    "o": 1.55299,
    "h": 1.55507,
    "l": 1.54888,
    "c": 1.55072,
    "v": 5262
  },
  {
    "dt": "2021.02.26 10:00",
    "o": 1.55071,
    "h": 1.55164,
    "l": 1.5488,
    "c": 1.55011,
    "v": 5127
  },
  {
    "dt": "2021.02.26 11:00",
    "o": 1.55012,
    "h": 1.5528,
    "l": 1.54935,
    "c": 1.5527,
    "v": 4613
  },
  {
    "dt": "2021.02.26 12:00",
    "o": 1.55271,
    "h": 1.56007,
    "l": 1.5518,
    "c": 1.55951,
    "v": 4631
  },
  {
    "dt": "2021.02.26 13:00",
    "o": 1.55949,
    "h": 1.56483,
    "l": 1.55616,
    "c": 1.56211,
    "v": 5347
  },
  {
    "dt": "2021.02.26 14:00",
    "o": 1.56208,
    "h": 1.56406,
    "l": 1.55871,
    "c": 1.56103,
    "v": 5243
  },
  {
    "dt": "2021.02.26 15:00",
    "o": 1.56102,
    "h": 1.56231,
    "l": 1.55687,
    "c": 1.55706,
    "v": 5444
  },
  {
    "dt": "2021.02.26 16:00",
    "o": 1.55712,
    "h": 1.56132,
    "l": 1.55525,
    "c": 1.56086,
    "v": 5644
  },
  {
    "dt": "2021.02.26 17:00",
    "o": 1.56085,
    "h": 1.5685,
    "l": 1.55991,
    "c": 1.56725,
    "v": 6187
  },
  {
    "dt": "2021.02.26 18:00",
    "o": 1.56719,
    "h": 1.569,
    "l": 1.56375,
    "c": 1.56697,
    "v": 6029
  },
  {
    "dt": "2021.02.26 19:00",
    "o": 1.56692,
    "h": 1.56694,
    "l": 1.56326,
    "c": 1.56416,
    "v": 5148
  },
  {
    "dt": "2021.02.26 20:00",
    "o": 1.56415,
    "h": 1.56538,
    "l": 1.5622,
    "c": 1.56531,
    "v": 4833
  },
  {
    "dt": "2021.02.26 21:00",
    "o": 1.56528,
    "h": 1.56746,
    "l": 1.56477,
    "c": 1.56659,
    "v": 4634
  },
  {
    "dt": "2021.02.26 22:00",
    "o": 1.5666,
    "h": 1.5686,
    "l": 1.56507,
    "c": 1.56787,
    "v": 4012
  },
  {
    "dt": "2021.02.26 23:00",
    "o": 1.56784,
    "h": 1.56819,
    "l": 1.5653,
    "c": 1.56616,
    "v": 3131
  }
]