[
  {
    "dt": "2019.11.20 21:00",
    "o": 1.47373,
    "h": 1.47389,
    "l": 1.47283,
    "c": 1.47363,
    "v": 2455
  },
  {
    "dt": "2019.11.20 22:00",
    "o": 1.47361,
    "h": 1.47365,
    "l": 1.47285,
    "c": 1.47325,
    "v": 1810
  },
  {
    "dt": "2019.11.20 23:00",
    "o": 1.47329,
    "h": 1.47353,
    "l": 1.47263,
    "c": 1.47263,
    "v": 1168
  },
  {
    "dt": "2019.11.21 00:00",
    "o": 1.47289,
    "h": 1.47396,
    "l": 1.47254,
    "c": 1.47373,
    "v": 971
  },
  {
    "dt": "2019.11.21 01:00",
    "o": 1.47373,
    "h": 1.47456,
    "l": 1.47357,
    "c": 1.47365,
    "v": 1316
  },
  {
    "dt": "2019.11.21 02:00",
    "o": 1.47365,
    "h": 1.47533,
    "l": 1.47365,
    "c": 1.47514,
    "v": 1625
  },
  {
    "dt": "2019.11.21 03:00",
    "o": 1.47513,
    "h": 1.47544,
    "l": 1.47464,
    "c": 1.47526,
    "v": 1944
  },
  {
    "dt": "2019.11.21 04:00",
    "o": 1.47525,
    "h": 1.47535,
    "l": 1.47386,
    "c": 1.47464,
    "v": 2486
  },
  {
    "dt": "2019.11.21 05:00",
    "o": 1.47465,
    "h": 1.47476,
    "l": 1.47379,
    "c": 1.47392,
    "v": 1706
  },
  {
    "dt": "2019.11.21 06:00",
    "o": 1.47391,
    "h": 1.47391,
    "l": 1.47357,
    "c": 1.47386,
    "v": 1037
  },
  {
    "dt": "2019.11.21 07:00",
    "o": 1.47386,
    "h": 1.47394,
    "l": 1.47346,
    "c": 1.47359,
    "v": 1366
  },
  {
    "dt": "2019.11.21 08:00",
    "o": 1.47357,
    "h": 1.474,
    "l": 1.47349,
    "c": 1.4736,
    "v": 1341
  },
  {
    "dt": "2019.11.21 09:00",
    "o": 1.47362,
    "h": 1.47425,
    "l": 1.47332,
    "c": 1.47388,
    "v": 2472
  },
  {
    "dt": "2019.11.21 10:00",
    "o": 1.47391,
    "h": 1.47521,
    "l": 1.47371,
    "c": 1.47477,
    "v": 3094
  },
  {
    "dt": "2019.11.21 11:00",
    "o": 1.47474,
    "h": 1.47541,
    "l": 1.47442,
    "c": 1.47527,
    "v": 2734
  },
  {
    "dt": "2019.11.21 12:00",
    "o": 1.47528,
    "h": 1.47541,
    "l": 1.47357,
    "c": 1.47398,
    "v": 2665
  },
  {
    "dt": "2019.11.21 13:00",
    "o": 1.47398,
    "h": 1.47525,
    "l": 1.47381,
    "c": 1.47517,
    "v": 2180
  },
  {
    "dt": "2019.11.21 14:00",
    "o": 1.47516,
    "h": 1.47615,
    "l": 1.47499,
    "c": 1.47599,
    "v": 2450
  },
  {
    "dt": "2019.11.21 15:00",
    "o": 1.47598,
    "h": 1.47705,
    "l": 1.47549,
    "c": 1.47554,
    "v": 3262
  },
  {
    "dt": "2019.11.21 16:00",
    "o": 1.47549,
    "h": 1.47587,
    "l": 1.46952,
    "c": 1.47064,
    "v": 3784
  },
  {
    "dt": "2019.11.21 17:00",
    "o": 1.47062,
    "h": 1.47121,
    "l": 1.4695,
    "c": 1.47054,
    "v": 3484
  },
  {
    "dt": "2019.11.21 18:00",
    "o": 1.47053,
    "h": 1.4707,
    "l": 1.46897,
    "c": 1.46926,
    "v": 2969
  },
  {
    "dt": "2019.11.21 19:00",
    "o": 1.46925,
    "h": 1.46935,
    "l": 1.46804,
    "c": 1.46889,
    "v": 2001
  },
  {
    "dt": "2019.11.21 20:00",
    "o": 1.4689,
    "h": 1.46923,
    "l": 1.46824,
    "c": 1.46846,
    "v": 1782
  },
  {
    "dt": "2019.11.21 21:00",
    "o": 1.46844,
    "h": 1.46893,
    "l": 1.46808,
    "c": 1.46818,
    "v": 1706
  },
  {
    "dt": "2019.11.21 22:00",
    "o": 1.46823,
    "h": 1.46889,
    "l": 1.46813,
    "c": 1.46852,
    "v": 1430
  },
  {
    "dt": "2019.11.21 23:00",
    "o": 1.46852,
    "h": 1.46926,
    "l": 1.46848,
    "c": 1.46885,
    "v": 1145
  },
  {
    "dt": "2019.11.22 00:00",
    "o": 1.46874,
    "h": 1.46939,
    "l": 1.46819,
    "c": 1.46914,
    "v": 896
  },
  {
    "dt": "2019.11.22 01:00",
    "o": 1.46915,
    "h": 1.46947,
    "l": 1.46898,
    "c": 1.46947,
    "v": 875
  },
  {
    "dt": "2019.11.22 02:00",
    "o": 1.46947,
    "h": 1.46968,
    "l": 1.46799,
    "c": 1.46809,
    "v": 1663
  },
  {
    "dt": "2019.11.22 03:00",
    "o": 1.46809,
    "h": 1.46936,
    "l": 1.46788,
    "c": 1.46919,
    "v": 1744
  },
  {
    "dt": "2019.11.22 04:00",
    "o": 1.46918,
    "h": 1.46955,
    "l": 1.46881,
    "c": 1.46929,
    "v": 1432
  },
  {
    "dt": "2019.11.22 05:00",
    "o": 1.46929,
    "h": 1.46955,
    "l": 1.46904,
    "c": 1.46921,
    "v": 1232
  },
  {
    "dt": "2019.11.22 06:00",
    "o": 1.46921,
    "h": 1.46971,
    "l": 1.46916,
    "c": 1.46969,
    "v": 795
  },
  {
    "dt": "2019.11.22 07:00",
    "o": 1.46971,
    "h": 1.47035,
    "l": 1.46958,
    "c": 1.47032,
    "v": 1223
  },
  {
    "dt": "2019.11.22 08:00",
    "o": 1.47031,
    "h": 1.47057,
    "l": 1.46979,
    "c": 1.47038,
    "v": 1562
  },
  {
    "dt": "2019.11.22 09:00",
    "o": 1.47034,
    "h": 1.4706,
    "l": 1.46909,
    "c": 1.46919,
    "v": 2284
  },
  {
    "dt": "2019.11.22 10:00",
    "o": 1.4692,
    "h": 1.47094,
    "l": 1.46826,
    "c": 1.46967,
    "v": 3907
  },
  {
    "dt": "2019.11.22 11:00",
    "o": 1.46961,
    "h": 1.46969,
    "l": 1.46704,
    "c": 1.46965,
    "v": 3935
  },
  {
    "dt": "2019.11.22 12:00",
    "o": 1.46965,
    "h": 1.47018,
    "l": 1.46846,
    "c": 1.46846,
    "v": 2407
  },
  {
    "dt": "2019.11.22 13:00",
    "o": 1.46846,
    "h": 1.46958,
    "l": 1.46826,
    "c": 1.46957,
    "v": 2533
  },
  {
    "dt": "2019.11.22 14:00",
    "o": 1.46956,
    "h": 1.46982,
    "l": 1.46761,
    "c": 1.46804,
    "v": 2439
  },
  {
    "dt": "2019.11.22 15:00",
    "o": 1.46805,
    "h": 1.46842,
    "l": 1.46513,
    "c": 1.46655,
    "v": 2990
  },
  {
    "dt": "2019.11.22 16:00",
    "o": 1.46655,
    "h": 1.46776,
    "l": 1.46609,
    "c": 1.46656,
    "v": 3032
  },
  {
    "dt": "2019.11.22 17:00",
    "o": 1.46653,
    "h": 1.46696,
    "l": 1.46589,
    "c": 1.46615,
    "v": 3483
  },
  {
    "dt": "2019.11.22 18:00",
    "o": 1.46617,
    "h": 1.46682,
    "l": 1.46577,
    "c": 1.46597,
    "v": 2760
  },
  {
    "dt": "2019.11.22 19:00",
    "o": 1.46597,
    "h": 1.46671,
    "l": 1.46535,
    "c": 1.46568,
    "v": 1972
  },
  {
    "dt": "2019.11.22 20:00",
    "o": 1.46568,
    "h": 1.46597,
    "l": 1.46533,
    "c": 1.4658,
    "v": 1489
  },
  {
    "dt": "2019.11.22 21:00",
    "o": 1.46581,
    "h": 1.46588,
    "l": 1.46444,
    "c": 1.46494,
    "v": 1706
  },
  {
    "dt": "2019.11.22 22:00",
    "o": 1.46492,
    "h": 1.46536,
    "l": 1.46472,
    "c": 1.46499,
    "v": 1241
  },
  {
    "dt": "2019.11.22 23:00",
    "o": 1.46496,
    "h": 1.46572,
    "l": 1.46477,
    "c": 1.46525,
    "v": 1492
  },
  {
    "dt": "2019.11.25 00:00",
    "o": 1.46446,
    "h": 1.46562,
    "l": 1.46441,
    "c": 1.46529,
    "v": 719
  },
  {
    "dt": "2019.11.25 01:00",
    "o": 1.46527,
    "h": 1.46582,
    "l": 1.4652,
    "c": 1.4656,
    "v": 1107
  },
  {
    "dt": "2019.11.25 02:00",
    "o": 1.46555,
    "h": 1.4656,
    "l": 1.46507,
    "c": 1.4652,
    "v": 1503
  },
  {
    "dt": "2019.11.25 03:00",
    "o": 1.4652,
    "h": 1.46573,
    "l": 1.46516,
    "c": 1.4654,
    "v": 1750
  },
  {
    "dt": "2019.11.25 04:00",
    "o": 1.4654,
    "h": 1.46558,
    "l": 1.46491,
    "c": 1.46529,
    "v": 1420
  },
  {
    "dt": "2019.11.25 05:00",
    "o": 1.46529,
    "h": 1.4656,
    "l": 1.46484,
    "c": 1.465,
    "v": 1400
  },
  {
    "dt": "2019.11.25 06:00",
    "o": 1.46497,
    "h": 1.46547,
    "l": 1.46494,
    "c": 1.46544,
    "v": 957
  },
  {
    "dt": "2019.11.25 07:00",
    "o": 1.46545,
    "h": 1.46583,
    "l": 1.46517,
    "c": 1.4657,
    "v": 1675
  },
  {
    "dt": "2019.11.25 08:00",
    "o": 1.46568,
    "h": 1.46588,
    "l": 1.46522,
    "c": 1.46527,
    "v": 1643
  },
  {
    "dt": "2019.11.25 09:00",
    "o": 1.46523,
    "h": 1.46582,
    "l": 1.46477,
    "c": 1.46542,
    "v": 2157
  },
  {
    "dt": "2019.11.25 10:00",
    "o": 1.4654,
    "h": 1.46571,
    "l": 1.46448,
    "c": 1.46451,
    "v": 2725
  },
  {
    "dt": "2019.11.25 11:00",
    "o": 1.46445,
    "h": 1.46488,
    "l": 1.46374,
    "c": 1.46391,
    "v": 2469
  },
  {
    "dt": "2019.11.25 12:00",
    "o": 1.4639,
    "h": 1.46499,
    "l": 1.4638,
    "c": 1.4646,
    "v": 1877
  },
  {
    "dt": "2019.11.25 13:00",
    "o": 1.46459,
    "h": 1.465,
    "l": 1.4644,
    "c": 1.46473,
    "v": 1468
  },
  {
    "dt": "2019.11.25 14:00",
    "o": 1.46475,
    "h": 1.46568,
    "l": 1.46441,
    "c": 1.46528,
    "v": 1997
  },
  {
    "dt": "2019.11.25 15:00",
    "o": 1.46528,
    "h": 1.46571,
    "l": 1.46461,
    "c": 1.4655,
    "v": 2577
  },
  {
    "dt": "2019.11.25 16:00",
    "o": 1.46549,
    "h": 1.46587,
    "l": 1.46449,
    "c": 1.46486,
    "v": 3228
  },
  {
    "dt": "2019.11.25 17:00",
    "o": 1.46486,
    "h": 1.46596,
    "l": 1.46417,
    "c": 1.4658,
    "v": 2818
  },
  {
    "dt": "2019.11.25 18:00",
    "o": 1.46577,
    "h": 1.46634,
    "l": 1.46507,
    "c": 1.46541,
    "v": 2678
  },
  {
    "dt": "2019.11.25 19:00",
    "o": 1.46541,
    "h": 1.46577,
    "l": 1.46468,
    "c": 1.46468,
    "v": 1932
  },
  {
    "dt": "2019.11.25 20:00",
    "o": 1.46468,
    "h": 1.46526,
    "l": 1.46425,
    "c": 1.46513,
    "v": 1825
  },
  {
    "dt": "2019.11.25 21:00",
    "o": 1.46511,
    "h": 1.46525,
    "l": 1.46444,
    "c": 1.46499,
    "v": 1225
  },
  {
    "dt": "2019.11.25 22:00",
    "o": 1.465,
    "h": 1.4652,
    "l": 1.46455,
    "c": 1.46461,
    "v": 1538
  },
  {
    "dt": "2019.11.25 23:00",
    "o": 1.4646,
    "h": 1.46482,
    "l": 1.46405,
    "c": 1.46417,
    "v": 1109
  },
  {
    "dt": "2019.11.26 00:00",
    "o": 1.46468,
    "h": 1.46538,
    "l": 1.464,
    "c": 1.46454,
    "v": 1005
  },
  {
    "dt": "2019.11.26 01:00",
    "o": 1.46453,
    "h": 1.46483,
    "l": 1.46434,
    "c": 1.4647,
    "v": 986
  },
  {
    "dt": "2019.11.26 02:00",
    "o": 1.46471,
    "h": 1.46485,
    "l": 1.46434,
    "c": 1.46442,
    "v": 1277
  },
  {
    "dt": "2019.11.26 03:00",
    "o": 1.46443,
    "h": 1.46511,
    "l": 1.46439,
    "c": 1.46489,
    "v": 1826
  },
  {
    "dt": "2019.11.26 04:00",
    "o": 1.46492,
    "h": 1.46568,
    "l": 1.46483,
    "c": 1.46554,
    "v": 1649
  },
  {
    "dt": "2019.11.26 05:00",
    "o": 1.46553,
    "h": 1.46604,
    "l": 1.46543,
    "c": 1.46576,
    "v": 1436
  },
  {
    "dt": "2019.11.26 06:00",
    "o": 1.46575,
    "h": 1.46603,
    "l": 1.46567,
    "c": 1.46583,
    "v": 1174
  },
  {
    "dt": "2019.11.26 07:00",
    "o": 1.4658,
    "h": 1.46594,
    "l": 1.46555,
    "c": 1.46569,
    "v": 1276
  },
  {
    "dt": "2019.11.26 08:00",
    "o": 1.46569,
    "h": 1.46598,
    "l": 1.46554,
    "c": 1.46565,
    "v": 1191
  },
  {
    "dt": "2019.11.26 09:00",
    "o": 1.46574,
    "h": 1.46627,
    "l": 1.46544,
    "c": 1.46611,
    "v": 2110
  },
  {
    "dt": "2019.11.26 10:00",
    "o": 1.46611,
    "h": 1.46657,
    "l": 1.4657,
    "c": 1.46645,
    "v": 3005
  },
  {
    "dt": "2019.11.26 11:00",
    "o": 1.46644,
    "h": 1.46705,
    "l": 1.46605,
    "c": 1.46638,
    "v": 2383
  },
  {
    "dt": "2019.11.26 12:00",
    "o": 1.46636,
    "h": 1.46724,
    "l": 1.46621,
    "c": 1.46671,
    "v": 2105
  },
  {
    "dt": "2019.11.26 13:00",
    "o": 1.46671,
    "h": 1.46681,
    "l": 1.46615,
    "c": 1.46661,
    "v": 2145
  },
  {
    "dt": "2019.11.26 14:00",
    "o": 1.46661,
    "h": 1.46666,
    "l": 1.46579,
    "c": 1.46617,
    "v": 2062
  },
  {
    "dt": "2019.11.26 15:00",
    "o": 1.4662,
    "h": 1.46671,
    "l": 1.46562,
    "c": 1.46565,
    "v": 2491
  },
  {
    "dt": "2019.11.26 16:00",
    "o": 1.46569,
    "h": 1.46664,
    "l": 1.46407,
    "c": 1.46458,
    "v": 3114
  },
  {
    "dt": "2019.11.26 17:00",
    "o": 1.46463,
    "h": 1.4655,
    "l": 1.46338,
    "c": 1.46352,
    "v": 3402
  },
  {
    "dt": "2019.11.26 18:00",
    "o": 1.46353,
    "h": 1.46451,
    "l": 1.46273,
    "c": 1.46291,
    "v": 3005
  },
  {
    "dt": "2019.11.26 19:00",
    "o": 1.46289,
    "h": 1.46385,
    "l": 1.46233,
    "c": 1.46299,
    "v": 2274
  },
  {
    "dt": "2019.11.26 20:00",
    "o": 1.463,
    "h": 1.46367,
    "l": 1.46257,
    "c": 1.46325,
    "v": 1962
  },
  {
    "dt": "2019.11.26 21:00",
    "o": 1.46326,
    "h": 1.46379,
    "l": 1.46285,
    "c": 1.46317,
    "v": 1767
  },
  {
    "dt": "2019.11.26 22:00",
    "o": 1.46315,
    "h": 1.46341,
    "l": 1.46273,
    "c": 1.46332,
    "v": 1768
  },
  {
    "dt": "2019.11.26 23:00",
    "o": 1.4633,
    "h": 1.4633,
    "l": 1.46241,
    "c": 1.46244,
    "v": 1270
  },
  {
    "dt": "2019.11.27 00:00",
    "o": 1.46244,
    "h": 1.46298,
    "l": 1.46237,
    "c": 1.46281,
    "v": 935
  },
  {
    "dt": "2019.11.27 01:00",
    "o": 1.46282,
    "h": 1.46307,
    "l": 1.46249,
    "c": 1.46257,
    "v": 936
  },
  {
    "dt": "2019.11.27 02:00",
    "o": 1.46258,
    "h": 1.46268,
    "l": 1.46203,
    "c": 1.46245,
    "v": 1700
  },
  {
    "dt": "2019.11.27 03:00",
    "o": 1.46243,
    "h": 1.46294,
    "l": 1.46224,
    "c": 1.46253,
    "v": 1646
  },
  {
    "dt": "2019.11.27 04:00",
    "o": 1.46253,
    "h": 1.4626,
    "l": 1.46227,
    "c": 1.46255,
    "v": 1042
  },
  {
    "dt": "2019.11.27 05:00",
    "o": 1.46253,
    "h": 1.46271,
    "l": 1.46231,
    "c": 1.46245,
    "v": 1119
  },
  {
    "dt": "2019.11.27 06:00",
    "o": 1.46244,
    "h": 1.46246,
    "l": 1.46206,
    "c": 1.46221,
    "v": 1527
  },
  {
    "dt": "2019.11.27 07:00",
    "o": 1.4622,
    "h": 1.4622,
    "l": 1.46173,
    "c": 1.4622,
    "v": 1229
  },
  {
    "dt": "2019.11.27 08:00",
    "o": 1.46218,
    "h": 1.46219,
    "l": 1.46169,
    "c": 1.46197,
    "v": 1426
  },
  {
    "dt": "2019.11.27 09:00",
    "o": 1.46202,
    "h": 1.46217,
    "l": 1.46092,
    "c": 1.46138,
    "v": 2094
  },
  {
    "dt": "2019.11.27 10:00",
    "o": 1.46137,
    "h": 1.4615,
    "l": 1.46049,
    "c": 1.46049,
    "v": 2467
  },
  {
    "dt": "2019.11.27 11:00",
    "o": 1.4604,
    "h": 1.46062,
    "l": 1.45943,
    "c": 1.46024,
    "v": 2186
  },
  {
    "dt": "2019.11.27 12:00",
    "o": 1.46025,
    "h": 1.46046,
    "l": 1.45969,
    "c": 1.45978,
    "v": 2169
  },
  {
    "dt": "2019.11.27 13:00",
    "o": 1.45977,
    "h": 1.46071,
    "l": 1.45974,
    "c": 1.46015,
    "v": 2016
  },
  {
    "dt": "2019.11.27 14:00",
    "o": 1.46011,
    "h": 1.46079,
    "l": 1.45977,
    "c": 1.46059,
    "v": 1996
  },
  {
    "dt": "2019.11.27 15:00",
    "o": 1.46063,
    "h": 1.46111,
    "l": 1.45867,
    "c": 1.45951,
    "v": 3034
  },
  {
    "dt": "2019.11.27 16:00",
    "o": 1.45951,
    "h": 1.46024,
    "l": 1.45875,
    "c": 1.45927,
    "v": 3154
  },
  {
    "dt": "2019.11.27 17:00",
    "o": 1.45928,
    "h": 1.46107,
    "l": 1.45928,
    "c": 1.46103,
    "v": 3247
  },
  {
    "dt": "2019.11.27 18:00",
    "o": 1.46101,
    "h": 1.46174,
    "l": 1.4599,
    "c": 1.46132,
    "v": 2988
  },
  {
    "dt": "2019.11.27 19:00",
    "o": 1.46131,
    "h": 1.46177,
    "l": 1.46102,
    "c": 1.46115,
    "v": 1867
  },
  {
    "dt": "2019.11.27 20:00",
    "o": 1.46114,
    "h": 1.46145,
    "l": 1.46039,
    "c": 1.46129,
    "v": 2143
  },
  {
    "dt": "2019.11.27 21:00",
    "o": 1.46129,
    "h": 1.46184,
    "l": 1.46085,
    "c": 1.46155,
    "v": 1915
  },
  {
    "dt": "2019.11.27 22:00",
    "o": 1.46151,
    "h": 1.46155,
    "l": 1.46083,
    "c": 1.46115,
    "v": 1773
  },
  {
    "dt": "2019.11.27 23:00",
    "o": 1.46116,
    "h": 1.46124,
    "l": 1.4604,
    "c": 1.4605,
    "v": 1201
  },
  {
    "dt": "2019.11.28 00:00",
    "o": 1.46059,
    "h": 1.46192,
    "l": 1.46045,
    "c": 1.46178,
    "v": 979
  },
  {
    "dt": "2019.11.28 01:00",
    "o": 1.46176,
    "h": 1.46239,
    "l": 1.46113,
    "c": 1.46192,
    "v": 1022
  },
  {
    "dt": "2019.11.28 02:00",
    "o": 1.4619,
    "h": 1.46265,
    "l": 1.46156,
    "c": 1.4623,
    "v": 1701
  },
  {
    "dt": "2019.11.28 03:00",
    "o": 1.46231,
    "h": 1.46255,
    "l": 1.46209,
    "c": 1.46217,
    "v": 1663
  },
  {
    "dt": "2019.11.28 04:00",
    "o": 1.46223,
    "h": 1.46233,
    "l": 1.46197,
    "c": 1.4623,
    "v": 1254
  },
  {
    "dt": "2019.11.28 05:00",
    "o": 1.4623,
    "h": 1.46272,
    "l": 1.4622,
    "c": 1.46268,
    "v": 893
  },
  {
    "dt": "2019.11.28 06:00",
    "o": 1.46266,
    "h": 1.46266,
    "l": 1.46221,
    "c": 1.46257,
    "v": 975
  },
  {
    "dt": "2019.11.28 07:00",
    "o": 1.46257,
    "h": 1.46274,
    "l": 1.46248,
    "c": 1.46249,
    "v": 942
  },
  {
    "dt": "2019.11.28 08:00",
    "o": 1.46249,
    "h": 1.46293,
    "l": 1.46241,
    "c": 1.46279,
    "v": 1284
  },
  {
    "dt": "2019.11.28 09:00",
    "o": 1.4628,
    "h": 1.46366,
    "l": 1.46239,
    "c": 1.46357,
    "v": 2243
  },
  {
    "dt": "2019.11.28 10:00",
    "o": 1.46353,
    "h": 1.46435,
    "l": 1.46336,
    "c": 1.46418,
    "v": 2410
  },
  {
    "dt": "2019.11.28 11:00",
    "o": 1.46418,
    "h": 1.46462,
    "l": 1.46395,
    "c": 1.46428,
    "v": 1967
  },
  {
    "dt": "2019.11.28 12:00",
    "o": 1.46436,
    "h": 1.46455,
    "l": 1.46373,
    "c": 1.46384,
    "v": 1999
  },
  {
    "dt": "2019.11.28 13:00",
    "o": 1.46383,
    "h": 1.46386,
    "l": 1.46201,
    "c": 1.46206,
    "v": 2379
  },
  {
    "dt": "2019.11.28 14:00",
    "o": 1.46202,
    "h": 1.46253,
    "l": 1.46171,
    "c": 1.46218,
    "v": 1967
  },
  {
    "dt": "2019.11.28 15:00",
    "o": 1.46217,
    "h": 1.46298,
    "l": 1.462,
    "c": 1.4625,
    "v": 1929
  },
  {
    "dt": "2019.11.28 16:00",
    "o": 1.46252,
    "h": 1.46259,
    "l": 1.46143,
    "c": 1.46158,
    "v": 1776
  },
  {
    "dt": "2019.11.28 17:00",
    "o": 1.46159,
    "h": 1.46284,
    "l": 1.46142,
    "c": 1.46235,
    "v": 1812
  },
  {
    "dt": "2019.11.28 18:00",
    "o": 1.46234,
    "h": 1.46295,
    "l": 1.46214,
    "c": 1.46219,
    "v": 1657
  },
  {
    "dt": "2019.11.28 19:00",
    "o": 1.46219,
    "h": 1.46246,
    "l": 1.46192,
    "c": 1.46201,
    "v": 1295
  },
  {
    "dt": "2019.11.28 20:00",
    "o": 1.46201,
    "h": 1.46207,
    "l": 1.46173,
    "c": 1.46198,
    "v": 1173
  },
  {
    "dt": "2019.11.28 21:00",
    "o": 1.462,
    "h": 1.46218,
    "l": 1.46187,
    "c": 1.46202,
    "v": 849
  },
  {
    "dt": "2019.11.28 22:00",
    "o": 1.46194,
    "h": 1.46238,
    "l": 1.46193,
    "c": 1.46204,
    "v": 1738
  },
  {
    "dt": "2019.11.28 23:00",
    "o": 1.46203,
    "h": 1.46212,
    "l": 1.46145,
    "c": 1.46173,
    "v": 1465
  },
  {
    "dt": "2019.11.29 00:00",
    "o": 1.4618,
    "h": 1.46236,
    "l": 1.46172,
    "c": 1.46214,
    "v": 530
  },
  {
    "dt": "2019.11.29 01:00",
    "o": 1.46209,
    "h": 1.46239,
    "l": 1.46205,
    "c": 1.46223,
    "v": 620
  },
  {
    "dt": "2019.11.29 02:00",
    "o": 1.46228,
    "h": 1.46265,
    "l": 1.46208,
    "c": 1.46258,
    "v": 1062
  },
  {
    "dt": "2019.11.29 03:00",
    "o": 1.46257,
    "h": 1.46303,
    "l": 1.46246,
    "c": 1.46294,
    "v": 1336
  },
  {
    "dt": "2019.11.29 04:00",
    "o": 1.46294,
    "h": 1.46306,
    "l": 1.46266,
    "c": 1.46295,
    "v": 1234
  },
  {
    "dt": "2019.11.29 05:00",
    "o": 1.46292,
    "h": 1.46303,
    "l": 1.46266,
    "c": 1.46289,
    "v": 1197
  },
  {
    "dt": "2019.11.29 06:00",
    "o": 1.4629,
    "h": 1.46304,
    "l": 1.46262,
    "c": 1.46269,
    "v": 981
  },
  {
    "dt": "2019.11.29 07:00",
    "o": 1.46269,
    "h": 1.4633,
    "l": 1.46268,
    "c": 1.46279,
    "v": 1182
  },
  {
    "dt": "2019.11.29 08:00",
    "o": 1.46279,
    "h": 1.46307,
    "l": 1.46275,
    "c": 1.46289,
    "v": 1446
  },
  {
    "dt": "2019.11.29 09:00",
    "o": 1.46292,
    "h": 1.46297,
    "l": 1.46205,
    "c": 1.46223,
    "v": 1824
  },
  {
    "dt": "2019.11.29 10:00",
    "o": 1.46226,
    "h": 1.46274,
    "l": 1.46195,
    "c": 1.46221,
    "v": 2014
  },
  {
    "dt": "2019.11.29 11:00",
    "o": 1.46217,
    "h": 1.46264,
    "l": 1.46206,
    "c": 1.4623,
    "v": 2154
  },
  {
    "dt": "2019.11.29 12:00",
    "o": 1.46233,
    "h": 1.46291,
    "l": 1.46202,
    "c": 1.46255,
    "v": 2146
  },
  {
    "dt": "2019.11.29 13:00",
    "o": 1.46254,
    "h": 1.46257,
    "l": 1.46122,
    "c": 1.46138,
    "v": 1963
  },
  {
    "dt": "2019.11.29 14:00",
    "o": 1.46137,
    "h": 1.4624,
    "l": 1.4612,
    "c": 1.46209,
    "v": 2206
  },
  {
    "dt": "2019.11.29 15:00",
    "o": 1.4621,
    "h": 1.46232,
    "l": 1.45996,
    "c": 1.462,
    "v": 3095
  },
  {
    "dt": "2019.11.29 16:00",
    "o": 1.46198,
    "h": 1.46383,
    "l": 1.46175,
    "c": 1.46261,
    "v": 3231
  },
  {
    "dt": "2019.11.29 17:00",
    "o": 1.46263,
    "h": 1.4646,
    "l": 1.4625,
    "c": 1.46451,
    "v": 3741
  },
  {
    "dt": "2019.11.29 18:00",
    "o": 1.46456,
    "h": 1.46481,
    "l": 1.46369,
    "c": 1.46444,
    "v": 3031
  },
  {
    "dt": "2019.11.29 19:00",
    "o": 1.46444,
    "h": 1.46452,
    "l": 1.46301,
    "c": 1.46304,
    "v": 2360
  },
  {
    "dt": "2019.11.29 20:00",
    "o": 1.46304,
    "h": 1.46407,
    "l": 1.46288,
    "c": 1.46293,
    "v": 1605
  },
  {
    "dt": "2019.11.29 21:00",
    "o": 1.46295,
    "h": 1.46335,
    "l": 1.46223,
    "c": 1.46224,
    "v": 2082
  },
  {
    "dt": "2019.11.29 22:00",
    "o": 1.46222,
    "h": 1.46333,
    "l": 1.46214,
    "c": 1.46317,
    "v": 1112
  },
  {
    "dt": "2019.11.29 23:00",
    "o": 1.46316,
    "h": 1.46347,
    "l": 1.46231,
    "c": 1.46257,
    "v": 1099
  }
]