[
  {
    "dt": "2023.02.01 00:00",
    "o": 1.44484,
    "h": 1.44548,
    "l": 1.44435,
    "c": 1.44475,
    "v": 609
  },
  {
    "dt": "2023.02.01 01:00",
    "o": 1.44477,
    "h": 1.44564,
    "l": 1.44466,
    "c": 1.44518,
    "v": 1602
  },
  {
    "dt": "2023.02.01 02:00",
    "o": 1.44519,
    "h": 1.44541,
    "l": 1.44478,
    "c": 1.4452,
    "v": 1975
  },
  {
    "dt": "2023.02.01 03:00",
    "o": 1.44522,
    "h": 1.44532,
    "l": 1.44421,
    "c": 1.44481,
    "v": 2505
  },
  {
    "dt": "2023.02.01 04:00",
    "o": 1.4448,
    "h": 1.44606,
    "l": 1.44454,
    "c": 1.44572,
    "v": 2072
  },
  {
    "dt": "2023.02.01 05:00",
    "o": 1.44575,
    "h": 1.44596,
    "l": 1.44539,
    "c": 1.44575,
    "v": 1576
  },
  {
    "dt": "2023.02.01 06:00",
    "o": 1.44582,
    "h": 1.44612,
    "l": 1.44567,
    "c": 1.44603,
    "v": 1875
  },
  {
    "dt": "2023.02.01 07:00",
    "o": 1.44601,
    "h": 1.44849,
    "l": 1.44598,
    "c": 1.44846,
    "v": 1972
  },
  {
    "dt": "2023.02.01 08:00",
    "o": 1.44842,
    "h": 1.44842,
    "l": 1.44675,
    "c": 1.44722,
    "v": 2292
  },
  {
    "dt": "2023.02.01 09:00",
    "o": 1.44718,
    "h": 1.44827,
    "l": 1.44697,
    "c": 1.44804,
    "v": 3272
  },
  {
    "dt": "2023.02.01 10:00",
    "o": 1.44802,
    "h": 1.44841,
    "l": 1.44586,
    "c": 1.44678,
    "v": 3810
  },
  {
    "dt": "2023.02.01 11:00",
    "o": 1.44678,
    "h": 1.44838,
    "l": 1.44588,
    "c": 1.44787,
    "v": 3479
  },
  {
    "dt": "2023.02.01 12:00",
    "o": 1.44779,
    "h": 1.44993,
    "l": 1.44774,
    "c": 1.44954,
    "v": 3189
  },
  {
    "dt": "2023.02.01 13:00",
    "o": 1.44955,
    "h": 1.45054,
    "l": 1.44898,
    "c": 1.44898,
    "v": 2949
  },
  {
    "dt": "2023.02.01 14:00",
    "o": 1.44898,
    "h": 1.4502,
    "l": 1.44861,
    "c": 1.44976,
    "v": 3036
  },
  {
    "dt": "2023.02.01 15:00",
    "o": 1.44977,
    "h": 1.45152,
    "l": 1.44955,
    "c": 1.4513,
    "v": 4477
  },
  {
    "dt": "2023.02.01 16:00",
    "o": 1.45126,
    "h": 1.45201,
    "l": 1.44954,
    "c": 1.44967,
    "v": 4385
  },
  {
    "dt": "2023.02.01 17:00",
    "o": 1.44981,
    "h": 1.45539,
    "l": 1.44878,
    "c": 1.45467,
    "v": 5536
  },
  {
    "dt": "2023.02.01 18:00",
    "o": 1.45463,
    "h": 1.45582,
    "l": 1.45411,
    "c": 1.45552,
    "v": 4329
  },
  {
    "dt": "2023.02.01 19:00",
    "o": 1.45556,
    "h": 1.45643,
    "l": 1.45515,
    "c": 1.45557,
    "v": 3775
  },
  {
    "dt": "2023.02.01 20:00",
    "o": 1.45557,
    "h": 1.45829,
    "l": 1.45519,
    "c": 1.45725,
    "v": 3624
  },
  {
    "dt": "2023.02.01 21:00",
    "o": 1.45736,
    "h": 1.46098,
    "l": 1.45521,
    "c": 1.45989,
    "v": 6407
  },
  {
    "dt": "2023.02.01 22:00",
    "o": 1.45987,
    "h": 1.46099,
    "l": 1.45856,
    "c": 1.45992,
    "v": 5886
  },
  {
    "dt": "2023.02.01 23:00",
    "o": 1.45988,
    "h": 1.46057,
    "l": 1.45941,
    "c": 1.46044,
    "v": 3005
  },
  {
    "dt": "2023.02.02 00:00",
    "o": 1.4599,
    "h": 1.4602,
    "l": 1.45876,
    "c": 1.45964,
    "v": 643
  },
  {
    "dt": "2023.02.02 01:00",
    "o": 1.45964,
    "h": 1.4634,
    "l": 1.4594,
    "c": 1.4617,
    "v": 3184
  },
  {
    "dt": "2023.02.02 02:00",
    "o": 1.4617,
    "h": 1.46347,
    "l": 1.46153,
    "c": 1.46304,
    "v": 3295
  },
  {
    "dt": "2023.02.02 03:00",
    "o": 1.463,
    "h": 1.4633,
    "l": 1.46217,
    "c": 1.4628,
    "v": 3291
  },
  {
    "dt": "2023.02.02 04:00",
    "o": 1.46263,
    "h": 1.46382,
    "l": 1.46251,
    "c": 1.46357,
    "v": 2871
  },
  {
    "dt": "2023.02.02 05:00",
    "o": 1.4636,
    "h": 1.46374,
    "l": 1.46305,
    "c": 1.46334,
    "v": 2264
  },
  {
    "dt": "2023.02.02 06:00",
    "o": 1.46333,
    "h": 1.46376,
    "l": 1.46287,
    "c": 1.46287,
    "v": 1827
  },
  {
    "dt": "2023.02.02 07:00",
    "o": 1.46287,
    "h": 1.46403,
    "l": 1.46275,
    "c": 1.46398,
    "v": 2257
  },
  {
    "dt": "2023.02.02 08:00",
    "o": 1.46399,
    "h": 1.46399,
    "l": 1.46228,
    "c": 1.46262,
    "v": 2890
  },
  {
    "dt": "2023.02.02 09:00",
    "o": 1.46265,
    "h": 1.4629,
    "l": 1.4606,
    "c": 1.46067,
    "v": 3518
  },
  {
    "dt": "2023.02.02 10:00",
    "o": 1.46067,
    "h": 1.46126,
    "l": 1.45904,
    "c": 1.46079,
    "v": 4142
  },
  {
    "dt": "2023.02.02 11:00",
    "o": 1.46078,
    "h": 1.46181,
    "l": 1.46002,
    "c": 1.46049,
    "v": 3960
  },
  {
    "dt": "2023.02.02 12:00",
    "o": 1.46048,
    "h": 1.46076,
    "l": 1.45903,
    "c": 1.46001,
    "v": 3684
  },
  {
    "dt": "2023.02.02 13:00",
    "o": 1.46001,
    "h": 1.46116,
    "l": 1.45958,
    "c": 1.46014,
    "v": 3322
  },
  {
    "dt": "2023.02.02 14:00",
    "o": 1.46006,
    "h": 1.46186,
    "l": 1.45963,
    "c": 1.45984,
    "v": 4819
  },
  {
    "dt": "2023.02.02 15:00",
    "o": 1.45985,
    "h": 1.46167,
    "l": 1.45456,
    "c": 1.45487,
    "v": 5446
  },
  {
    "dt": "2023.02.02 16:00",
    "o": 1.45478,
    "h": 1.45702,
    "l": 1.45139,
    "c": 1.45326,
    "v": 5860
  },
  {
    "dt": "2023.02.02 17:00",
    "o": 1.4532,
    "h": 1.45502,
    "l": 1.45225,
    "c": 1.45485,
    "v": 5658
  },
  {
    "dt": "2023.02.02 18:00",
    "o": 1.45487,
    "h": 1.45623,
    "l": 1.45314,
    "c": 1.45375,
    "v": 4953
  },
  {
    "dt": "2023.02.02 19:00",
    "o": 1.45379,
    "h": 1.45466,
    "l": 1.45257,
    "c": 1.45274,
    "v": 4298
  },
  {
    "dt": "2023.02.02 20:00",
    "o": 1.45277,
    "h": 1.45401,
    "l": 1.45189,
    "c": 1.4527,
    "v": 3847
  },
  {
    "dt": "2023.02.02 21:00",
    "o": 1.45267,
    "h": 1.45411,
    "l": 1.45264,
    "c": 1.45337,
    "v": 4481
  },
  {
    "dt": "2023.02.02 22:00",
    "o": 1.45337,
    "h": 1.45387,
    "l": 1.45271,
    "c": 1.45278,
    "v": 4274
  },
  {
    "dt": "2023.02.02 23:00",
    "o": 1.45279,
    "h": 1.45342,
    "l": 1.45225,
    "c": 1.4527,
    "v": 3439
  },
  {
    "dt": "2023.02.03 00:00",
    "o": 1.45244,
    "h": 1.45258,
    "l": 1.45171,
    "c": 1.45224,
    "v": 532
  },
  {
    "dt": "2023.02.03 01:00",
    "o": 1.4522,
    "h": 1.45309,
    "l": 1.45195,
    "c": 1.45208,
    "v": 2013
  },
  {
    "dt": "2023.02.03 02:00",
    "o": 1.45213,
    "h": 1.45217,
    "l": 1.45104,
    "c": 1.45194,
    "v": 2862
  },
  {
    "dt": "2023.02.03 03:00",
    "o": 1.45194,
    "h": 1.45229,
    "l": 1.45086,
    "c": 1.45152,
    "v": 2760
  },
  {
    "dt": "2023.02.03 04:00",
    "o": 1.45151,
    "h": 1.45265,
    "l": 1.45135,
    "c": 1.4521,
    "v": 2628
  },
  {
    "dt": "2023.02.03 05:00",
    "o": 1.45211,
    "h": 1.45252,
    "l": 1.45162,
    "c": 1.45196,
    "v": 2045
  },
  {
    "dt": "2023.02.03 06:00",
    "o": 1.45191,
    "h": 1.45203,
    "l": 1.4513,
    "c": 1.4516,
    "v": 1825
  },
  {
    "dt": "2023.02.03 07:00",
    "o": 1.4516,
    "h": 1.45195,
    "l": 1.45101,
    "c": 1.45171,
    "v": 2155
  },
  {
    "dt": "2023.02.03 08:00",
    "o": 1.45169,
    "h": 1.45239,
    "l": 1.45128,
    "c": 1.45233,
    "v": 2193
  },
  {
    "dt": "2023.02.03 09:00",
    "o": 1.45234,
    "h": 1.45381,
    "l": 1.45151,
    "c": 1.45375,
    "v": 3874
  },
  {
    "dt": "2023.02.03 10:00",
    "o": 1.4538,
    "h": 1.4579,
    "l": 1.45285,
    "c": 1.45739,
    "v": 4161
  },
  {
    "dt": "2023.02.03 11:00",
    "o": 1.45736,
    "h": 1.45873,
    "l": 1.45669,
    "c": 1.45863,
    "v": 3785
  },
  {
    "dt": "2023.02.03 12:00",
    "o": 1.45855,
    "h": 1.45992,
    "l": 1.45821,
    "c": 1.45927,
    "v": 3358
  },
  {
    "dt": "2023.02.03 13:00",
    "o": 1.45927,
    "h": 1.45947,
    "l": 1.45799,
    "c": 1.45896,
    "v": 3229
  },
  {
    "dt": "2023.02.03 14:00",
    "o": 1.45888,
    "h": 1.4615,
    "l": 1.45874,
    "c": 1.46019,
    "v": 3366
  },
  {
    "dt": "2023.02.03 15:00",
    "o": 1.46013,
    "h": 1.46158,
    "l": 1.45281,
    "c": 1.45347,
    "v": 5364
  },
  {
    "dt": "2023.02.03 16:00",
    "o": 1.4535,
    "h": 1.4561,
    "l": 1.45272,
    "c": 1.45557,
    "v": 5791
  },
  {
    "dt": "2023.02.03 17:00",
    "o": 1.45339,
    "h": 1.45456,
    "l": 1.4496,
    "c": 1.45144,
    "v": 6127
  },
  {
    "dt": "2023.02.03 18:00",
    "o": 1.45142,
    "h": 1.4516,
    "l": 1.44951,
    "c": 1.44988,
    "v": 5222
  },
  {
    "dt": "2023.02.03 19:00",
    "o": 1.44987,
    "h": 1.45146,
    "l": 1.44839,
    "c": 1.44964,
    "v": 4556
  },
  {
    "dt": "2023.02.03 20:00",
    "o": 1.44966,
    "h": 1.44988,
    "l": 1.44744,
    "c": 1.44767,
    "v": 4853
  },
  {
    "dt": "2023.02.03 21:00",
    "o": 1.44765,
    "h": 1.44816,
    "l": 1.44597,
    "c": 1.44674,
    "v": 4273
  },
  {
    "dt": "2023.02.03 22:00",
    "o": 1.44685,
    "h": 1.44758,
    "l": 1.44629,
    "c": 1.44633,
    "v": 4095
  },
  {
    "dt": "2023.02.03 23:00",
    "o": 1.44638,
    "h": 1.44764,
    "l": 1.44613,
    "c": 1.4463,
    "v": 2025
  },
  {
    "dt": "2023.02.06 00:00",
    "o": 1.44591,
    "h": 1.44765,
    "l": 1.4458,
    "c": 1.44695,
    "v": 229
  },
  {
    "dt": "2023.02.06 01:00",
    "o": 1.4471,
    "h": 1.44761,
    "l": 1.44559,
    "c": 1.44594,
    "v": 2708
  },
  {
    "dt": "2023.02.06 02:00",
    "o": 1.44592,
    "h": 1.44649,
    "l": 1.44526,
    "c": 1.44557,
    "v": 2722
  },
  {
    "dt": "2023.02.06 03:00",
    "o": 1.44559,
    "h": 1.44643,
    "l": 1.44539,
    "c": 1.44585,
    "v": 2511
  },
  {
    "dt": "2023.02.06 04:00",
    "o": 1.44584,
    "h": 1.44717,
    "l": 1.44563,
    "c": 1.44623,
    "v": 2542
  },
  {
    "dt": "2023.02.06 05:00",
    "o": 1.44621,
    "h": 1.44689,
    "l": 1.44619,
    "c": 1.44652,
    "v": 1905
  },
  {
    "dt": "2023.02.06 06:00",
    "o": 1.44646,
    "h": 1.44713,
    "l": 1.44637,
    "c": 1.44679,
    "v": 2002
  },
  {
    "dt": "2023.02.06 07:00",
    "o": 1.44678,
    "h": 1.44726,
    "l": 1.44611,
    "c": 1.44648,
    "v": 1567
  },
  {
    "dt": "2023.02.06 08:00",
    "o": 1.44652,
    "h": 1.44679,
    "l": 1.44622,
    "c": 1.44639,
    "v": 2285
  },
  {
    "dt": "2023.02.06 09:00",
    "o": 1.44641,
    "h": 1.44678,
    "l": 1.4452,
    "c": 1.4456,
    "v": 3630
  },
  {
    "dt": "2023.02.06 10:00",
    "o": 1.44561,
    "h": 1.44725,
    "l": 1.44534,
    "c": 1.44587,
    "v": 4230
  },
  {
    "dt": "2023.02.06 11:00",
    "o": 1.44581,
    "h": 1.44783,
    "l": 1.44566,
    "c": 1.44646,
    "v": 4212
  },
  {
    "dt": "2023.02.06 12:00",
    "o": 1.44644,
    "h": 1.44764,
    "l": 1.44608,
    "c": 1.44678,
    "v": 4297
  },
  {
    "dt": "2023.02.06 13:00",
    "o": 1.44677,
    "h": 1.44724,
    "l": 1.44578,
    "c": 1.44599,
    "v": 3513
  },
  {
    "dt": "2023.02.06 14:00",
    "o": 1.44601,
    "h": 1.44679,
    "l": 1.44539,
    "c": 1.44566,
    "v": 3823
  },
  {
    "dt": "2023.02.06 15:00",
    "o": 1.4457,
    "h": 1.44582,
    "l": 1.44447,
    "c": 1.44466,
    "v": 4592
  },
  {
    "dt": "2023.02.06 16:00",
    "o": 1.44465,
    "h": 1.4462,
    "l": 1.44432,
    "c": 1.4453,
    "v": 5306
  },
  {
    "dt": "2023.02.06 17:00",
    "o": 1.44541,
    "h": 1.44563,
    "l": 1.44335,
    "c": 1.44365,
    "v": 5542
  },
  {
    "dt": "2023.02.06 18:00",
    "o": 1.44365,
    "h": 1.44389,
    "l": 1.44046,
    "c": 1.44097,
    "v": 4831
  },
  {
    "dt": "2023.02.06 19:00",
    "o": 1.44083,
    "h": 1.44141,
    "l": 1.43996,
    "c": 1.4403,
    "v": 4313
  },
  {
    "dt": "2023.02.06 20:00",
    "o": 1.44028,
    "h": 1.44157,
    "l": 1.44008,
    "c": 1.44113,
    "v": 3632
  },
  {
    "dt": "2023.02.06 21:00",
    "o": 1.4411,
    "h": 1.44194,
    "l": 1.44078,
    "c": 1.44168,
    "v": 3560
  },
  {
    "dt": "2023.02.06 22:00",
    "o": 1.44168,
    "h": 1.44251,
    "l": 1.44156,
    "c": 1.44224,
    "v": 3530
  },
  {
    "dt": "2023.02.06 23:00",
    "o": 1.44221,
    "h": 1.44234,
    "l": 1.44178,
    "c": 1.44205,
    "v": 1394
  },
  {
    "dt": "2023.02.07 00:00",
    "o": 1.4421,
    "h": 1.44232,
    "l": 1.44146,
    "c": 1.44224,
    "v": 794
  },
  {
    "dt": "2023.02.07 01:00",
    "o": 1.44218,
    "h": 1.44229,
    "l": 1.44111,
    "c": 1.44211,
    "v": 843
  },
  {
    "dt": "2023.02.07 02:00",
    "o": 1.44213,
    "h": 1.44241,
    "l": 1.44146,
    "c": 1.44232,
    "v": 1377
  },
  {
    "dt": "2023.02.07 03:00",
    "o": 1.4423,
    "h": 1.44258,
    "l": 1.44147,
    "c": 1.44183,
    "v": 1922
  },
  {
    "dt": "2023.02.07 04:00",
    "o": 1.44179,
    "h": 1.44183,
    "l": 1.44032,
    "c": 1.44052,
    "v": 1973
  },
  {
    "dt": "2023.02.07 05:00",
    "o": 1.44059,
    "h": 1.44099,
    "l": 1.43914,
    "c": 1.44097,
    "v": 2654
  },
  {
    "dt": "2023.02.07 06:00",
    "o": 1.44097,
    "h": 1.44131,
    "l": 1.4407,
    "c": 1.44113,
    "v": 1869
  },
  {
    "dt": "2023.02.07 07:00",
    "o": 1.44109,
    "h": 1.44171,
    "l": 1.44059,
    "c": 1.44135,
    "v": 1976
  },
  {
    "dt": "2023.02.07 08:00",
    "o": 1.4413,
    "h": 1.44135,
    "l": 1.44027,
    "c": 1.44079,
    "v": 2820
  },
  {
    "dt": "2023.02.07 09:00",
    "o": 1.44076,
    "h": 1.44111,
    "l": 1.43971,
    "c": 1.43991,
    "v": 3911
  },
  {
    "dt": "2023.02.07 10:00",
    "o": 1.43997,
    "h": 1.43997,
    "l": 1.43758,
    "c": 1.43858,
    "v": 5068
  },
  {
    "dt": "2023.02.07 11:00",
    "o": 1.43852,
    "h": 1.43908,
    "l": 1.43632,
    "c": 1.43639,
    "v": 4430
  },
  {
    "dt": "2023.02.07 12:00",
    "o": 1.43639,
    "h": 1.43825,
    "l": 1.43621,
    "c": 1.43768,
    "v": 3784
  },
  {
    "dt": "2023.02.07 13:00",
    "o": 1.43767,
    "h": 1.43823,
    "l": 1.43702,
    "c": 1.43722,
    "v": 4007
  },
  {
    "dt": "2023.02.07 14:00",
    "o": 1.43724,
    "h": 1.43772,
    "l": 1.43647,
    "c": 1.43704,
    "v": 3944
  },
  {
    "dt": "2023.02.07 15:00",
    "o": 1.43707,
    "h": 1.43894,
    "l": 1.436,
    "c": 1.43814,
    "v": 4839
  },
  {
    "dt": "2023.02.07 16:00",
    "o": 1.4381,
    "h": 1.43938,
    "l": 1.43634,
    "c": 1.43697,
    "v": 5147
  },
  {
    "dt": "2023.02.07 17:00",
    "o": 1.43701,
    "h": 1.43859,
    "l": 1.43642,
    "c": 1.4381,
    "v": 5243
  },
  {
    "dt": "2023.02.07 18:00",
    "o": 1.43803,
    "h": 1.43868,
    "l": 1.4359,
    "c": 1.43848,
    "v": 5164
  },
  {
    "dt": "2023.02.07 19:00",
    "o": 1.43845,
    "h": 1.44095,
    "l": 1.43692,
    "c": 1.4406,
    "v": 5119
  },
  {
    "dt": "2023.02.07 20:00",
    "o": 1.44051,
    "h": 1.44051,
    "l": 1.43805,
    "c": 1.43877,
    "v": 6316
  },
  {
    "dt": "2023.02.07 21:00",
    "o": 1.43874,
    "h": 1.43909,
    "l": 1.43743,
    "c": 1.43749,
    "v": 5231
  },
  {
    "dt": "2023.02.07 22:00",
    "o": 1.43749,
    "h": 1.43773,
    "l": 1.43689,
    "c": 1.43743,
    "v": 4047
  },
  {
    "dt": "2023.02.07 23:00",
    "o": 1.43742,
    "h": 1.43766,
    "l": 1.43685,
    "c": 1.43711,
    "v": 2100
  },
  {
    "dt": "2023.02.08 00:00",
    "o": 1.43596,
    "h": 1.43692,
    "l": 1.43539,
    "c": 1.43656,
    "v": 374
  },
  {
    "dt": "2023.02.08 01:00",
    "o": 1.43651,
    "h": 1.43739,
    "l": 1.43651,
    "c": 1.43677,
    "v": 1023
  },
  {
    "dt": "2023.02.08 02:00",
    "o": 1.43677,
    "h": 1.43778,
    "l": 1.43664,
    "c": 1.43728,
    "v": 2090
  },
  {
    "dt": "2023.02.08 03:00",
    "o": 1.43729,
    "h": 1.43771,
    "l": 1.43704,
    "c": 1.43717,
    "v": 2341
  },
  {
    "dt": "2023.02.08 04:00",
    "o": 1.43716,
    "h": 1.43783,
    "l": 1.43703,
    "c": 1.43737,
    "v": 1908
  },
  {
    "dt": "2023.02.08 05:00",
    "o": 1.43736,
    "h": 1.43742,
    "l": 1.4369,
    "c": 1.43718,
    "v": 1933
  },
  {
    "dt": "2023.02.08 06:00",
    "o": 1.43717,
    "h": 1.43749,
    "l": 1.43701,
    "c": 1.4374,
    "v": 1595
  },
  {
    "dt": "2023.02.08 07:00",
    "o": 1.43734,
    "h": 1.4375,
    "l": 1.43698,
    "c": 1.43739,
    "v": 1234
  },
  {
    "dt": "2023.02.08 08:00",
    "o": 1.43734,
    "h": 1.43752,
    "l": 1.43618,
    "c": 1.43621,
    "v": 1887
  },
  {
    "dt": "2023.02.08 09:00",
    "o": 1.43621,
    "h": 1.43864,
    "l": 1.43621,
    "c": 1.43857,
    "v": 3601
  },
  {
    "dt": "2023.02.08 10:00",
    "o": 1.43862,
    "h": 1.43866,
    "l": 1.4367,
    "c": 1.4371,
    "v": 4644
  },
  {
    "dt": "2023.02.08 11:00",
    "o": 1.43709,
    "h": 1.43819,
    "l": 1.43684,
    "c": 1.43773,
    "v": 4102
  },
  {
    "dt": "2023.02.08 12:00",
    "o": 1.43773,
    "h": 1.43774,
    "l": 1.43669,
    "c": 1.43714,
    "v": 3286
  },
  {
    "dt": "2023.02.08 13:00",
    "o": 1.43714,
    "h": 1.43727,
    "l": 1.43586,
    "c": 1.43587,
    "v": 3017
  },
  {
    "dt": "2023.02.08 14:00",
    "o": 1.43587,
    "h": 1.4388,
    "l": 1.43582,
    "c": 1.43821,
    "v": 3342
  },
  {
    "dt": "2023.02.08 15:00",
    "o": 1.43823,
    "h": 1.43923,
    "l": 1.4381,
    "c": 1.43888,
    "v": 4148
  },
  {
    "dt": "2023.02.08 16:00",
    "o": 1.43887,
    "h": 1.44032,
    "l": 1.43826,
    "c": 1.43894,
    "v": 4957
  },
  {
    "dt": "2023.02.08 17:00",
    "o": 1.43902,
    "h": 1.4413,
    "l": 1.4382,
    "c": 1.43996,
    "v": 5319
  },
  {
    "dt": "2023.02.08 18:00",
    "o": 1.44002,
    "h": 1.44199,
    "l": 1.43964,
    "c": 1.44133,
    "v": 4736
  },
  {
    "dt": "2023.02.08 19:00",
    "o": 1.4413,
    "h": 1.44222,
    "l": 1.44051,
    "c": 1.44072,
    "v": 4317
  },
  {
    "dt": "2023.02.08 20:00",
    "o": 1.4407,
    "h": 1.44203,
    "l": 1.44056,
    "c": 1.44181,
    "v": 4405
  },
  {
    "dt": "2023.02.08 21:00",
    "o": 1.44184,
    "h": 1.4421,
    "l": 1.4407,
    "c": 1.44079,
    "v": 3765
  },
  {
    "dt": "2023.02.08 22:00",
    "o": 1.44082,
    "h": 1.44105,
    "l": 1.43946,
    "c": 1.44053,
    "v": 3566
  },
  {
    "dt": "2023.02.08 23:00",
    "o": 1.4405,
    "h": 1.44089,
    "l": 1.44013,
    "c": 1.44056,
    "v": 1460
  },
  {
    "dt": "2023.02.09 00:00",
    "o": 1.4393,
    "h": 1.44036,
    "l": 1.43919,
    "c": 1.4397,
    "v": 1254
  },
  {
    "dt": "2023.02.09 01:00",
    "o": 1.43976,
    "h": 1.44071,
    "l": 1.43967,
    "c": 1.44062,
    "v": 1704
  },
  {
    "dt": "2023.02.09 02:00",
    "o": 1.44059,
    "h": 1.44133,
    "l": 1.44054,
    "c": 1.44111,
    "v": 2156
  },
  {
    "dt": "2023.02.09 03:00",
    "o": 1.44113,
    "h": 1.44244,
    "l": 1.441,
    "c": 1.44222,
    "v": 2791
  },
  {
    "dt": "2023.02.09 04:00",
    "o": 1.4422,
    "h": 1.44261,
    "l": 1.44191,
    "c": 1.44244,
    "v": 2190
  },
  {
    "dt": "2023.02.09 05:00",
    "o": 1.44244,
    "h": 1.4426,
    "l": 1.44149,
    "c": 1.44161,
    "v": 1981
  },
  {
    "dt": "2023.02.09 06:00",
    "o": 1.44159,
    "h": 1.44182,
    "l": 1.44141,
    "c": 1.44167,
    "v": 1602
  },
  {
    "dt": "2023.02.09 07:00",
    "o": 1.44166,
    "h": 1.44215,
    "l": 1.44103,
    "c": 1.44202,
    "v": 2375
  },
  {
    "dt": "2023.02.09 08:00",
    "o": 1.44207,
    "h": 1.44293,
    "l": 1.44175,
    "c": 1.44242,
    "v": 2687
  },
  {
    "dt": "2023.02.09 09:00",
    "o": 1.4424,
    "h": 1.4424,
    "l": 1.43952,
    "c": 1.43992,
    "v": 3677
  },
  {
    "dt": "2023.02.09 10:00",
    "o": 1.43994,
    "h": 1.44196,
    "l": 1.43938,
    "c": 1.44137,
    "v": 4208
  },
  {
    "dt": "2023.02.09 11:00",
    "o": 1.44139,
    "h": 1.44335,
    "l": 1.44112,
    "c": 1.44255,
    "v": 3686
  },
  {
    "dt": "2023.02.09 12:00",
    "o": 1.44252,
    "h": 1.44406,
    "l": 1.4422,
    "c": 1.44372,
    "v": 3506
  },
  {
    "dt": "2023.02.09 13:00",
    "o": 1.44369,
    "h": 1.44381,
    "l": 1.44234,
    "c": 1.44292,
    "v": 3089
  },
  {
    "dt": "2023.02.09 14:00",
    "o": 1.44297,
    "h": 1.44351,
    "l": 1.44174,
    "c": 1.44249,
    "v": 3151
  },
  {
    "dt": "2023.02.09 15:00",
    "o": 1.44247,
    "h": 1.44342,
    "l": 1.44192,
    "c": 1.44333,
    "v": 4373
  },
  {
    "dt": "2023.02.09 16:00",
    "o": 1.44328,
    "h": 1.44528,
    "l": 1.44235,
    "c": 1.44502,
    "v": 4923
  },
  {
    "dt": "2023.02.09 17:00",
    "o": 1.44501,
    "h": 1.44601,
    "l": 1.44307,
    "c": 1.44365,
    "v": 5002
  },
  {
    "dt": "2023.02.09 18:00",
    "o": 1.44363,
    "h": 1.44489,
    "l": 1.44331,
    "c": 1.44476,
    "v": 4756
  },
  {
    "dt": "2023.02.09 19:00",
    "o": 1.44477,
    "h": 1.44565,
    "l": 1.44413,
    "c": 1.44514,
    "v": 3831
  },
  {
    "dt": "2023.02.09 20:00",
    "o": 1.44515,
    "h": 1.44517,
    "l": 1.44378,
    "c": 1.44427,
    "v": 3992
  },
  {
    "dt": "2023.02.09 21:00",
    "o": 1.44428,
    "h": 1.44475,
    "l": 1.44378,
    "c": 1.44415,
    "v": 4260
  },
  {
    "dt": "2023.02.09 22:00",
    "o": 1.44417,
    "h": 1.44484,
    "l": 1.44386,
    "c": 1.44467,
    "v": 3594
  },
  {
    "dt": "2023.02.09 23:00",
    "o": 1.44463,
    "h": 1.4449,
    "l": 1.44438,
    "c": 1.44467,
    "v": 1731
  },
  {
    "dt": "2023.02.10 00:00",
    "o": 1.44374,
    "h": 1.4446,
    "l": 1.44343,
    "c": 1.44414,
    "v": 644
  },
  {
    "dt": "2023.02.10 01:00",
    "o": 1.44414,
    "h": 1.4449,
    "l": 1.44401,
    "c": 1.44412,
    "v": 1385
  },
  {
    "dt": "2023.02.10 02:00",
    "o": 1.44413,
    "h": 1.4445,
    "l": 1.44314,
    "c": 1.44359,
    "v": 2480
  },
  {
    "dt": "2023.02.10 03:00",
    "o": 1.44361,
    "h": 1.44429,
    "l": 1.44335,
    "c": 1.44395,
    "v": 2915
  },
  {
    "dt": "2023.02.10 04:00",
    "o": 1.44395,
    "h": 1.4441,
    "l": 1.44353,
    "c": 1.44373,
    "v": 2357
  },
  {
    "dt": "2023.02.10 05:00",
    "o": 1.44377,
    "h": 1.44409,
    "l": 1.44335,
    "c": 1.44393,
    "v": 2514
  },
  {
    "dt": "2023.02.10 06:00",
    "o": 1.44394,
    "h": 1.44418,
    "l": 1.44333,
    "c": 1.44349,
    "v": 2360
  },
  {
    "dt": "2023.02.10 07:00",
    "o": 1.44352,
    "h": 1.44364,
    "l": 1.44314,
    "c": 1.44337,
    "v": 2391
  },
  {
    "dt": "2023.02.10 08:00",
    "o": 1.44336,
    "h": 1.44338,
    "l": 1.44232,
    "c": 1.44235,
    "v": 2721
  },
  {
    "dt": "2023.02.10 09:00",
    "o": 1.44234,
    "h": 1.44425,
    "l": 1.44229,
    "c": 1.44401,
    "v": 4389
  },
  {
    "dt": "2023.02.10 10:00",
    "o": 1.44402,
    "h": 1.44455,
    "l": 1.4402,
    "c": 1.44153,
    "v": 4948
  },
  {
    "dt": "2023.02.10 11:00",
    "o": 1.44159,
    "h": 1.44159,
    "l": 1.43797,
    "c": 1.43851,
    "v": 4672
  },
  {
    "dt": "2023.02.10 12:00",
    "o": 1.43849,
    "h": 1.43946,
    "l": 1.43746,
    "c": 1.43902,
    "v": 4118
  },
  {
    "dt": "2023.02.10 13:00",
    "o": 1.43897,
    "h": 1.43947,
    "l": 1.43819,
    "c": 1.43874,
    "v": 3969
  },
  {
    "dt": "2023.02.10 14:00",
    "o": 1.4387,
    "h": 1.43927,
    "l": 1.43581,
    "c": 1.4361,
    "v": 3898
  },
  {
    "dt": "2023.02.10 15:00",
    "o": 1.4361,
    "h": 1.43692,
    "l": 1.42812,
    "c": 1.43057,
    "v": 5022
  },
  {
    "dt": "2023.02.10 16:00",
    "o": 1.43057,
    "h": 1.43096,
    "l": 1.42747,
    "c": 1.42924,
    "v": 5259
  },
  {
    "dt": "2023.02.10 17:00",
    "o": 1.42926,
    "h": 1.42986,
    "l": 1.42549,
    "c": 1.42559,
    "v": 5876
  },
  {
    "dt": "2023.02.10 18:00",
    "o": 1.42562,
    "h": 1.42688,
    "l": 1.42522,
    "c": 1.42553,
    "v": 4935
  },
  {
    "dt": "2023.02.10 19:00",
    "o": 1.42553,
    "h": 1.42665,
    "l": 1.42512,
    "c": 1.42524,
    "v": 4502
  },
  {
    "dt": "2023.02.10 20:00",
    "o": 1.42522,
    "h": 1.42617,
    "l": 1.4251,
    "c": 1.4259,
    "v": 3247
  },
  {
    "dt": "2023.02.10 21:00",
    "o": 1.4259,
    "h": 1.42597,
    "l": 1.42414,
    "c": 1.42423,
    "v": 3466
  },
  {
    "dt": "2023.02.10 22:00",
    "o": 1.42423,
    "h": 1.4253,
    "l": 1.42422,
    "c": 1.42496,
    "v": 3197
  },
  {
    "dt": "2023.02.10 23:00",
    "o": 1.42495,
    "h": 1.42531,
    "l": 1.4243,
    "c": 1.42451,
    "v": 2003
  },
  {
    "dt": "2023.02.13 00:00",
    "o": 1.42485,
    "h": 1.4256,
    "l": 1.42429,
    "c": 1.42479,
    "v": 314
  },
  {
    "dt": "2023.02.13 01:00",
    "o": 1.42461,
    "h": 1.42618,
    "l": 1.42425,
    "c": 1.42609,
    "v": 2112
  },
  {
    "dt": "2023.02.13 02:00",
    "o": 1.42609,
    "h": 1.42627,
    "l": 1.42506,
    "c": 1.4253,
    "v": 1589
  },
  {
    "dt": "2023.02.13 03:00",
    "o": 1.42536,
    "h": 1.42624,
    "l": 1.425,
    "c": 1.42521,
    "v": 2577
  },
  {
    "dt": "2023.02.13 04:00",
    "o": 1.42522,
    "h": 1.42635,
    "l": 1.42491,
    "c": 1.4261,
    "v": 2053
  },
  {
    "dt": "2023.02.13 05:00",
    "o": 1.42614,
    "h": 1.42621,
    "l": 1.42557,
    "c": 1.42574,
    "v": 1442
  },
  {
    "dt": "2023.02.13 06:00",
    "o": 1.42574,
    "h": 1.42696,
    "l": 1.42574,
    "c": 1.42678,
    "v": 1291
  },
  {
    "dt": "2023.02.13 07:00",
    "o": 1.4268,
    "h": 1.42683,
    "l": 1.42593,
    "c": 1.42668,
    "v": 1950
  },
  {
    "dt": "2023.02.13 08:00",
    "o": 1.42665,
    "h": 1.42758,
    "l": 1.42628,
    "c": 1.42699,
    "v": 2153
  },
  {
    "dt": "2023.02.13 09:00",
    "o": 1.42696,
    "h": 1.42844,
    "l": 1.4264,
    "c": 1.42745,
    "v": 3590
  },
  {
    "dt": "2023.02.13 10:00",
    "o": 1.42747,
    "h": 1.4277,
    "l": 1.42551,
    "c": 1.42558,
    "v": 3871
  },
  {
    "dt": "2023.02.13 11:00",
    "o": 1.42554,
    "h": 1.42728,
    "l": 1.42495,
    "c": 1.42686,
    "v": 3949
  },
  {
    "dt": "2023.02.13 12:00",
    "o": 1.42683,
    "h": 1.4278,
    "l": 1.42635,
    "c": 1.42691,
    "v": 3139
  },
  {
    "dt": "2023.02.13 13:00",
    "o": 1.42698,
    "h": 1.42703,
    "l": 1.42416,
    "c": 1.42424,
    "v": 2888
  },
  {
    "dt": "2023.02.13 14:00",
    "o": 1.42421,
    "h": 1.42687,
    "l": 1.4237,
    "c": 1.42659,
    "v": 3495
  },
  {
    "dt": "2023.02.13 15:00",
    "o": 1.42659,
    "h": 1.4273,
    "l": 1.42569,
    "c": 1.42651,
    "v": 3947
  },
  {
    "dt": "2023.02.13 16:00",
    "o": 1.42651,
    "h": 1.4297,
    "l": 1.42613,
    "c": 1.42867,
    "v": 4766
  },
  {
    "dt": "2023.02.13 17:00",
    "o": 1.42864,
    "h": 1.43079,
    "l": 1.42787,
    "c": 1.43023,
    "v": 4809
  },
  {
    "dt": "2023.02.13 18:00",
    "o": 1.43011,
    "h": 1.43114,
    "l": 1.42956,
    "c": 1.43038,
    "v": 4009
  },
  {
    "dt": "2023.02.13 19:00",
    "o": 1.43034,
    "h": 1.43105,
    "l": 1.42832,
    "c": 1.42893,
    "v": 3144
  },
  {
    "dt": "2023.02.13 20:00",
    "o": 1.42895,
    "h": 1.43005,
    "l": 1.42868,
    "c": 1.42991,
    "v": 3150
  },
  {
    "dt": "2023.02.13 21:00",
    "o": 1.42995,
    "h": 1.43,
    "l": 1.42881,
    "c": 1.42919,
    "v": 3242
  },
  {
    "dt": "2023.02.13 22:00",
    "o": 1.4292,
    "h": 1.43043,
    "l": 1.42914,
    "c": 1.42984,
    "v": 3438
  },
  {
    "dt": "2023.02.13 23:00",
    "o": 1.42986,
    "h": 1.43018,
    "l": 1.42951,
    "c": 1.42967,
    "v": 1554
  },
  {
    "dt": "2023.02.14 00:00",
    "o": 1.42906,
    "h": 1.42977,
    "l": 1.42876,
    "c": 1.42954,
    "v": 216
  },
  {
    "dt": "2023.02.14 01:00",
    "o": 1.42954,
    "h": 1.43093,
    "l": 1.42952,
    "c": 1.43086,
    "v": 1735
  },
  {
    "dt": "2023.02.14 02:00",
    "o": 1.43085,
    "h": 1.43161,
    "l": 1.4307,
    "c": 1.43151,
    "v": 2467
  },
  {
    "dt": "2023.02.14 03:00",
    "o": 1.43149,
    "h": 1.43249,
    "l": 1.431,
    "c": 1.43184,
    "v": 2840
  },
  {
    "dt": "2023.02.14 04:00",
    "o": 1.43188,
    "h": 1.43257,
    "l": 1.43162,
    "c": 1.43163,
    "v": 2731
  },
  {
    "dt": "2023.02.14 05:00",
    "o": 1.43163,
    "h": 1.43171,
    "l": 1.43091,
    "c": 1.43113,
    "v": 2284
  },
  {
    "dt": "2023.02.14 06:00",
    "o": 1.43109,
    "h": 1.43159,
    "l": 1.4309,
    "c": 1.43154,
    "v": 2241
  },
  {
    "dt": "2023.02.14 07:00",
    "o": 1.43153,
    "h": 1.43231,
    "l": 1.43128,
    "c": 1.43197,
    "v": 2024
  },
  {
    "dt": "2023.02.14 08:00",
    "o": 1.43194,
    "h": 1.43297,
    "l": 1.43186,
    "c": 1.43211,
    "v": 2605
  },
  {
    "dt": "2023.02.14 09:00",
    "o": 1.43221,
    "h": 1.4326,
    "l": 1.43145,
    "c": 1.43194,
    "v": 3667
  },
  {
    "dt": "2023.02.14 10:00",
    "o": 1.43201,
    "h": 1.43369,
    "l": 1.43148,
    "c": 1.43354,
    "v": 3899
  },
  {
    "dt": "2023.02.14 11:00",
    "o": 1.43363,
    "h": 1.43554,
    "l": 1.43301,
    "c": 1.43491,
    "v": 3598
  },
  {
    "dt": "2023.02.14 12:00",
    "o": 1.4349,
    "h": 1.43554,
    "l": 1.43361,
    "c": 1.43507,
    "v": 3341
  },
  {
    "dt": "2023.02.14 13:00",
    "o": 1.43506,
    "h": 1.43637,
    "l": 1.43436,
    "c": 1.43515,
    "v": 3146
  },
  {
    "dt": "2023.02.14 14:00",
    "o": 1.43514,
    "h": 1.43519,
    "l": 1.43235,
    "c": 1.43337,
    "v": 3602
  },
  {
    "dt": "2023.02.14 15:00",
    "o": 1.43331,
    "h": 1.43569,
    "l": 1.42966,
    "c": 1.43373,
    "v": 5654
  },
  {
    "dt": "2023.02.14 16:00",
    "o": 1.43375,
    "h": 1.43583,
    "l": 1.43267,
    "c": 1.4344,
    "v": 6435
  },
  {
    "dt": "2023.02.14 17:00",
    "o": 1.43435,
    "h": 1.43483,
    "l": 1.4308,
    "c": 1.43095,
    "v": 6049
  },
  {
    "dt": "2023.02.14 18:00",
    "o": 1.43093,
    "h": 1.43362,
    "l": 1.43064,
    "c": 1.43302,
    "v": 5722
  },
  {
    "dt": "2023.02.14 19:00",
    "o": 1.43301,
    "h": 1.43356,
    "l": 1.43165,
    "c": 1.43225,
    "v": 4517
  },
  {
    "dt": "2023.02.14 20:00",
    "o": 1.43217,
    "h": 1.43316,
    "l": 1.43215,
    "c": 1.43282,
    "v": 4713
  },
  {
    "dt": "2023.02.14 21:00",
    "o": 1.43284,
    "h": 1.43284,
    "l": 1.43195,
    "c": 1.43232,
    "v": 4095
  },
  {
    "dt": "2023.02.14 22:00",
    "o": 1.43226,
    "h": 1.43277,
    "l": 1.43193,
    "c": 1.43203,
    "v": 3574
  },
  {
    "dt": "2023.02.14 23:00",
    "o": 1.43202,
    "h": 1.4325,
    "l": 1.43152,
    "c": 1.43158,
    "v": 1739
  },
  {
    "dt": "2023.02.15 00:00",
    "o": 1.43152,
    "h": 1.43193,
    "l": 1.43128,
    "c": 1.43151,
    "v": 614
  },
  {
    "dt": "2023.02.15 01:00",
    "o": 1.43159,
    "h": 1.4321,
    "l": 1.43107,
    "c": 1.43203,
    "v": 1868
  },
  {
    "dt": "2023.02.15 02:00",
    "o": 1.43203,
    "h": 1.43278,
    "l": 1.43192,
    "c": 1.43241,
    "v": 2784
  },
  {
    "dt": "2023.02.15 03:00",
    "o": 1.43242,
    "h": 1.43354,
    "l": 1.43241,
    "c": 1.43309,
    "v": 2863
  },
  {
    "dt": "2023.02.15 04:00",
    "o": 1.43308,
    "h": 1.43311,
    "l": 1.43204,
    "c": 1.4327,
    "v": 3099
  },
  {
    "dt": "2023.02.15 05:00",
    "o": 1.43271,
    "h": 1.43303,
    "l": 1.43195,
    "c": 1.43231,
    "v": 2856
  },
  {
    "dt": "2023.02.15 06:00",
    "o": 1.43232,
    "h": 1.43241,
    "l": 1.43164,
    "c": 1.43164,
    "v": 2412
  },
  {
    "dt": "2023.02.15 07:00",
    "o": 1.43166,
    "h": 1.43227,
    "l": 1.43166,
    "c": 1.43173,
    "v": 2564
  },
  {
    "dt": "2023.02.15 08:00",
    "o": 1.43178,
    "h": 1.43212,
    "l": 1.43133,
    "c": 1.43158,
    "v": 3029
  },
  {
    "dt": "2023.02.15 09:00",
    "o": 1.43158,
    "h": 1.43363,
    "l": 1.43123,
    "c": 1.43293,
    "v": 4252
  },
  {
    "dt": "2023.02.15 10:00",
    "o": 1.43303,
    "h": 1.43645,
    "l": 1.43299,
    "c": 1.43595,
    "v": 4574
  },
  {
    "dt": "2023.02.15 11:00",
    "o": 1.43601,
    "h": 1.43708,
    "l": 1.43517,
    "c": 1.43663,
    "v": 3907
  },
  {
    "dt": "2023.02.15 12:00",
    "o": 1.43664,
    "h": 1.43763,
    "l": 1.43584,
    "c": 1.43584,
    "v": 3693
  },
  {
    "dt": "2023.02.15 13:00",
    "o": 1.43585,
    "h": 1.4368,
    "l": 1.43572,
    "c": 1.43573,
    "v": 3270
  },
  {
    "dt": "2023.02.15 14:00",
    "o": 1.43575,
    "h": 1.43626,
    "l": 1.43402,
    "c": 1.43423,
    "v": 3641
  },
  {
    "dt": "2023.02.15 15:00",
    "o": 1.43419,
    "h": 1.43639,
    "l": 1.43231,
    "c": 1.43378,
    "v": 5091
  },
  {
    "dt": "2023.02.15 16:00",
    "o": 1.43376,
    "h": 1.43471,
    "l": 1.43231,
    "c": 1.4331,
    "v": 5379
  },
  {
    "dt": "2023.02.15 17:00",
    "o": 1.43313,
    "h": 1.4343,
    "l": 1.43111,
    "c": 1.43235,
    "v": 5069
  },
  {
    "dt": "2023.02.15 18:00",
    "o": 1.43233,
    "h": 1.43275,
    "l": 1.43071,
    "c": 1.43143,
    "v": 4634
  },
  {
    "dt": "2023.02.15 19:00",
    "o": 1.43139,
    "h": 1.43244,
    "l": 1.43106,
    "c": 1.43166,
    "v": 4373
  },
  {
    "dt": "2023.02.15 20:00",
    "o": 1.43168,
    "h": 1.43193,
    "l": 1.42965,
    "c": 1.42973,
    "v": 3635
  },
  {
    "dt": "2023.02.15 21:00",
    "o": 1.42973,
    "h": 1.43119,
    "l": 1.42968,
    "c": 1.43112,
    "v": 3003
  },
  {
    "dt": "2023.02.15 22:00",
    "o": 1.43111,
    "h": 1.43159,
    "l": 1.43091,
    "c": 1.43137,
    "v": 3019
  },
  {
    "dt": "2023.02.15 23:00",
    "o": 1.43136,
    "h": 1.43182,
    "l": 1.43108,
    "c": 1.43118,
    "v": 1832
  },
  {
    "dt": "2023.02.16 00:00",
    "o": 1.43052,
    "h": 1.43109,
    "l": 1.43016,
    "c": 1.431,
    "v": 944
  },
  {
    "dt": "2023.02.16 01:00",
    "o": 1.43052,
    "h": 1.43186,
    "l": 1.43052,
    "c": 1.43163,
    "v": 1313
  },
  {
    "dt": "2023.02.16 02:00",
    "o": 1.43161,
    "h": 1.43283,
    "l": 1.43139,
    "c": 1.43253,
    "v": 2594
  },
  {
    "dt": "2023.02.16 03:00",
    "o": 1.43255,
    "h": 1.43302,
    "l": 1.43203,
    "c": 1.43234,
    "v": 3087
  },
  {
    "dt": "2023.02.16 04:00",
    "o": 1.43234,
    "h": 1.43288,
    "l": 1.43186,
    "c": 1.43249,
    "v": 2391
  },
  {
    "dt": "2023.02.16 05:00",
    "o": 1.43251,
    "h": 1.43318,
    "l": 1.43224,
    "c": 1.43314,
    "v": 1410
  },
  {
    "dt": "2023.02.16 06:00",
    "o": 1.43313,
    "h": 1.43321,
    "l": 1.43204,
    "c": 1.43216,
    "v": 1530
  },
  {
    "dt": "2023.02.16 07:00",
    "o": 1.43216,
    "h": 1.43272,
    "l": 1.43186,
    "c": 1.43251,
    "v": 1660
  },
  {
    "dt": "2023.02.16 08:00",
    "o": 1.43253,
    "h": 1.43292,
    "l": 1.43218,
    "c": 1.43238,
    "v": 2106
  },
  {
    "dt": "2023.02.16 09:00",
    "o": 1.43246,
    "h": 1.43279,
    "l": 1.43188,
    "c": 1.43232,
    "v": 3502
  },
  {
    "dt": "2023.02.16 10:00",
    "o": 1.43232,
    "h": 1.43293,
    "l": 1.43062,
    "c": 1.43213,
    "v": 4478
  },
  {
    "dt": "2023.02.16 11:00",
    "o": 1.43211,
    "h": 1.43221,
    "l": 1.43022,
    "c": 1.43162,
    "v": 3983
  },
  {
    "dt": "2023.02.16 12:00",
    "o": 1.43166,
    "h": 1.43286,
    "l": 1.43161,
    "c": 1.43271,
    "v": 3416
  },
  {
    "dt": "2023.02.16 13:00",
    "o": 1.43274,
    "h": 1.43286,
    "l": 1.43142,
    "c": 1.43268,
    "v": 3216
  },
  {
    "dt": "2023.02.16 14:00",
    "o": 1.43267,
    "h": 1.43377,
    "l": 1.43242,
    "c": 1.43322,
    "v": 3474
  },
  {
    "dt": "2023.02.16 15:00",
    "o": 1.43325,
    "h": 1.4345,
    "l": 1.43183,
    "c": 1.43325,
    "v": 5415
  },
  {
    "dt": "2023.02.16 16:00",
    "o": 1.43326,
    "h": 1.43526,
    "l": 1.43291,
    "c": 1.4347,
    "v": 5923
  },
  {
    "dt": "2023.02.16 17:00",
    "o": 1.43472,
    "h": 1.43696,
    "l": 1.43451,
    "c": 1.43548,
    "v": 5630
  },
  {
    "dt": "2023.02.16 18:00",
    "o": 1.43549,
    "h": 1.43705,
    "l": 1.43538,
    "c": 1.43683,
    "v": 5014
  },
  {
    "dt": "2023.02.16 19:00",
    "o": 1.43682,
    "h": 1.43689,
    "l": 1.43549,
    "c": 1.43614,
    "v": 4537
  },
  {
    "dt": "2023.02.16 20:00",
    "o": 1.43606,
    "h": 1.43655,
    "l": 1.43571,
    "c": 1.43597,
    "v": 3825
  },
  {
    "dt": "2023.02.16 21:00",
    "o": 1.43599,
    "h": 1.4364,
    "l": 1.43519,
    "c": 1.43524,
    "v": 3034
  },
  {
    "dt": "2023.02.16 22:00",
    "o": 1.43522,
    "h": 1.43641,
    "l": 1.43473,
    "c": 1.43612,
    "v": 4634
  },
  {
    "dt": "2023.02.16 23:00",
    "o": 1.43611,
    "h": 1.43644,
    "l": 1.43584,
    "c": 1.43608,
    "v": 2075
  },
  {
    "dt": "2023.02.17 00:00",
    "o": 1.43522,
    "h": 1.43616,
    "l": 1.43481,
    "c": 1.4357,
    "v": 406
  },
  {
    "dt": "2023.02.17 01:00",
    "o": 1.4357,
    "h": 1.43689,
    "l": 1.4357,
    "c": 1.43688,
    "v": 1376
  },
  {
    "dt": "2023.02.17 02:00",
    "o": 1.43686,
    "h": 1.43687,
    "l": 1.43545,
    "c": 1.43574,
    "v": 2168
  },
  {
    "dt": "2023.02.17 03:00",
    "o": 1.43574,
    "h": 1.43623,
    "l": 1.43557,
    "c": 1.43591,
    "v": 2250
  },
  {
    "dt": "2023.02.17 04:00",
    "o": 1.43591,
    "h": 1.43621,
    "l": 1.43549,
    "c": 1.43574,
    "v": 2387
  },
  {
    "dt": "2023.02.17 05:00",
    "o": 1.43572,
    "h": 1.43633,
    "l": 1.43557,
    "c": 1.43631,
    "v": 1381
  },
  {
    "dt": "2023.02.17 06:00",
    "o": 1.43623,
    "h": 1.43638,
    "l": 1.43408,
    "c": 1.43435,
    "v": 1708
  },
  {
    "dt": "2023.02.17 07:00",
    "o": 1.43435,
    "h": 1.43496,
    "l": 1.43419,
    "c": 1.43464,
    "v": 1821
  },
  {
    "dt": "2023.02.17 08:00",
    "o": 1.43464,
    "h": 1.43505,
    "l": 1.43404,
    "c": 1.43471,
    "v": 2368
  },
  {
    "dt": "2023.02.17 09:00",
    "o": 1.43475,
    "h": 1.43687,
    "l": 1.43452,
    "c": 1.43675,
    "v": 3862
  },
  {
    "dt": "2023.02.17 10:00",
    "o": 1.43676,
    "h": 1.43825,
    "l": 1.43605,
    "c": 1.43821,
    "v": 4506
  },
  {
    "dt": "2023.02.17 11:00",
    "o": 1.43816,
    "h": 1.43925,
    "l": 1.43626,
    "c": 1.43629,
    "v": 4187
  },
  {
    "dt": "2023.02.17 12:00",
    "o": 1.43627,
    "h": 1.43832,
    "l": 1.43622,
    "c": 1.43832,
    "v": 3565
  },
  {
    "dt": "2023.02.17 13:00",
    "o": 1.43828,
    "h": 1.43848,
    "l": 1.43686,
    "c": 1.43806,
    "v": 3672
  },
  {
    "dt": "2023.02.17 14:00",
    "o": 1.43804,
    "h": 1.43808,
    "l": 1.43433,
    "c": 1.43567,
    "v": 3988
  },
  {
    "dt": "2023.02.17 15:00",
    "o": 1.43569,
    "h": 1.4368,
    "l": 1.43489,
    "c": 1.43617,
    "v": 4335
  },
  {
    "dt": "2023.02.17 16:00",
    "o": 1.43618,
    "h": 1.43882,
    "l": 1.43586,
    "c": 1.438,
    "v": 4743
  },
  {
    "dt": "2023.02.17 17:00",
    "o": 1.43799,
    "h": 1.44046,
    "l": 1.43795,
    "c": 1.43848,
    "v": 5719
  },
  {
    "dt": "2023.02.17 18:00",
    "o": 1.43846,
    "h": 1.44042,
    "l": 1.43821,
    "c": 1.43991,
    "v": 4795
  },
  {
    "dt": "2023.02.17 19:00",
    "o": 1.43993,
    "h": 1.44082,
    "l": 1.43954,
    "c": 1.43989,
    "v": 4160
  },
  {
    "dt": "2023.02.17 20:00",
    "o": 1.43991,
    "h": 1.4412,
    "l": 1.43989,
    "c": 1.44035,
    "v": 3434
  },
  {
    "dt": "2023.02.17 21:00",
    "o": 1.44033,
    "h": 1.4408,
    "l": 1.43999,
    "c": 1.44068,
    "v": 3702
  },
  {
    "dt": "2023.02.17 22:00",
    "o": 1.44068,
    "h": 1.44124,
    "l": 1.44025,
    "c": 1.4411,
    "v": 3343
  },
  {
    "dt": "2023.02.17 23:00",
    "o": 1.44112,
    "h": 1.44139,
    "l": 1.44014,
    "c": 1.44053,
    "v": 1666
  },
  {
    "dt": "2023.02.20 00:00",
    "o": 1.43985,
    "h": 1.44087,
    "l": 1.43955,
    "c": 1.43955,
    "v": 374
  },
  {
    "dt": "2023.02.20 01:00",
    "o": 1.44092,
    "h": 1.44102,
    "l": 1.44026,
    "c": 1.44035,
    "v": 1366
  },
  {
    "dt": "2023.02.20 02:00",
    "o": 1.4403,
    "h": 1.44065,
    "l": 1.43986,
    "c": 1.44065,
    "v": 2086
  },
  {
    "dt": "2023.02.20 03:00",
    "o": 1.44062,
    "h": 1.44074,
    "l": 1.43934,
    "c": 1.43973,
    "v": 2144
  },
  {
    "dt": "2023.02.20 04:00",
    "o": 1.43973,
    "h": 1.44024,
    "l": 1.43942,
    "c": 1.43993,
    "v": 1768
  },
  {
    "dt": "2023.02.20 05:00",
    "o": 1.43988,
    "h": 1.44,
    "l": 1.43939,
    "c": 1.43982,
    "v": 1799
  },
  {
    "dt": "2023.02.20 06:00",
    "o": 1.43981,
    "h": 1.4404,
    "l": 1.43967,
    "c": 1.44028,
    "v": 2126
  },
  {
    "dt": "2023.02.20 07:00",
    "o": 1.44027,
    "h": 1.44037,
    "l": 1.4397,
    "c": 1.4397,
    "v": 1922
  },
  {
    "dt": "2023.02.20 08:00",
    "o": 1.43968,
    "h": 1.44024,
    "l": 1.43962,
    "c": 1.44006,
    "v": 2498
  },
  {
    "dt": "2023.02.20 09:00",
    "o": 1.44006,
    "h": 1.44111,
    "l": 1.43987,
    "c": 1.44056,
    "v": 3246
  },
  {
    "dt": "2023.02.20 10:00",
    "o": 1.44059,
    "h": 1.44078,
    "l": 1.43906,
    "c": 1.43925,
    "v": 3634
  },
  {
    "dt": "2023.02.20 11:00",
    "o": 1.43922,
    "h": 1.43995,
    "l": 1.43782,
    "c": 1.43785,
    "v": 3417
  },
  {
    "dt": "2023.02.20 12:00",
    "o": 1.43785,
    "h": 1.43915,
    "l": 1.43762,
    "c": 1.4384,
    "v": 3182
  },
  {
    "dt": "2023.02.20 13:00",
    "o": 1.43837,
    "h": 1.43841,
    "l": 1.43723,
    "c": 1.43833,
    "v": 3246
  },
  {
    "dt": "2023.02.20 14:00",
    "o": 1.43839,
    "h": 1.43859,
    "l": 1.4366,
    "c": 1.43666,
    "v": 3263
  },
  {
    "dt": "2023.02.20 15:00",
    "o": 1.43674,
    "h": 1.43787,
    "l": 1.43631,
    "c": 1.43681,
    "v": 3696
  },
  {
    "dt": "2023.02.20 16:00",
    "o": 1.43675,
    "h": 1.43779,
    "l": 1.43624,
    "c": 1.43756,
    "v": 3433
  },
  {
    "dt": "2023.02.20 17:00",
    "o": 1.43755,
    "h": 1.43839,
    "l": 1.43713,
    "c": 1.43773,
    "v": 3440
  },
  {
    "dt": "2023.02.20 18:00",
    "o": 1.43774,
    "h": 1.43818,
    "l": 1.43732,
    "c": 1.43735,
    "v": 2531
  },
  {
    "dt": "2023.02.20 19:00",
    "o": 1.43738,
    "h": 1.43772,
    "l": 1.43703,
    "c": 1.4372,
    "v": 1925
  },
  {
    "dt": "2023.02.20 20:00",
    "o": 1.43719,
    "h": 1.43732,
    "l": 1.437,
    "c": 1.43701,
    "v": 585
  },
  {
    "dt": "2023.02.20 21:00",
    "o": 1.43707,
    "h": 1.43744,
    "l": 1.43707,
    "c": 1.43742,
    "v": 895
  },
  {
    "dt": "2023.02.20 22:00",
    "o": 1.4374,
    "h": 1.43754,
    "l": 1.4372,
    "c": 1.43721,
    "v": 525
  },
  {
    "dt": "2023.02.20 23:00",
    "o": 1.43719,
    "h": 1.43758,
    "l": 1.437,
    "c": 1.43722,
    "v": 691
  },
  {
    "dt": "2023.02.21 00:00",
    "o": 1.43703,
    "h": 1.43744,
    "l": 1.43619,
    "c": 1.43701,
    "v": 773
  },
  {
    "dt": "2023.02.21 01:00",
    "o": 1.43685,
    "h": 1.43759,
    "l": 1.43675,
    "c": 1.43701,
    "v": 1040
  },
  {
    "dt": "2023.02.21 02:00",
    "o": 1.43702,
    "h": 1.43786,
    "l": 1.43702,
    "c": 1.43731,
    "v": 1914
  },
  {
    "dt": "2023.02.21 03:00",
    "o": 1.43731,
    "h": 1.43815,
    "l": 1.4372,
    "c": 1.43779,
    "v": 2655
  },
  {
    "dt": "2023.02.21 04:00",
    "o": 1.43781,
    "h": 1.43797,
    "l": 1.43622,
    "c": 1.43634,
    "v": 2000
  },
  {
    "dt": "2023.02.21 05:00",
    "o": 1.43631,
    "h": 1.43719,
    "l": 1.43627,
    "c": 1.43712,
    "v": 1541
  },
  {
    "dt": "2023.02.21 06:00",
    "o": 1.43713,
    "h": 1.43728,
    "l": 1.43679,
    "c": 1.43718,
    "v": 1161
  },
  {
    "dt": "2023.02.21 07:00",
    "o": 1.43717,
    "h": 1.43768,
    "l": 1.43696,
    "c": 1.43738,
    "v": 1849
  },
  {
    "dt": "2023.02.21 08:00",
    "o": 1.43737,
    "h": 1.43801,
    "l": 1.43724,
    "c": 1.43748,
    "v": 2048
  },
  {
    "dt": "2023.02.21 09:00",
    "o": 1.43755,
    "h": 1.43861,
    "l": 1.43755,
    "c": 1.43858,
    "v": 2950
  },
  {
    "dt": "2023.02.21 10:00",
    "o": 1.43865,
    "h": 1.43979,
    "l": 1.43724,
    "c": 1.43742,
    "v": 4741
  },
  {
    "dt": "2023.02.21 11:00",
    "o": 1.43744,
    "h": 1.43811,
    "l": 1.43401,
    "c": 1.43449,
    "v": 5046
  },
  {
    "dt": "2023.02.21 12:00",
    "o": 1.4346,
    "h": 1.43533,
    "l": 1.43343,
    "c": 1.43378,
    "v": 4295
  },
  {
    "dt": "2023.02.21 13:00",
    "o": 1.43375,
    "h": 1.43427,
    "l": 1.43294,
    "c": 1.43377,
    "v": 3998
  },
  {
    "dt": "2023.02.21 14:00",
    "o": 1.43375,
    "h": 1.43469,
    "l": 1.43261,
    "c": 1.43435,
    "v": 3751
  },
  {
    "dt": "2023.02.21 15:00",
    "o": 1.43433,
    "h": 1.43869,
    "l": 1.43302,
    "c": 1.43765,
    "v": 4826
  },
  {
    "dt": "2023.02.21 16:00",
    "o": 1.43765,
    "h": 1.44038,
    "l": 1.43758,
    "c": 1.43953,
    "v": 5460
  },
  {
    "dt": "2023.02.21 17:00",
    "o": 1.43957,
    "h": 1.44336,
    "l": 1.43914,
    "c": 1.44208,
    "v": 5823
  },
  {
    "dt": "2023.02.21 18:00",
    "o": 1.44206,
    "h": 1.44207,
    "l": 1.43989,
    "c": 1.44,
    "v": 4714
  },
  {
    "dt": "2023.02.21 19:00",
    "o": 1.44001,
    "h": 1.44221,
    "l": 1.43989,
    "c": 1.44111,
    "v": 4044
  },
  {
    "dt": "2023.02.21 20:00",
    "o": 1.44111,
    "h": 1.4412,
    "l": 1.43994,
    "c": 1.44066,
    "v": 3554
  },
  {
    "dt": "2023.02.21 21:00",
    "o": 1.44068,
    "h": 1.44197,
    "l": 1.44055,
    "c": 1.4412,
    "v": 3363
  },
  {
    "dt": "2023.02.21 22:00",
    "o": 1.4412,
    "h": 1.44204,
    "l": 1.44087,
    "c": 1.44099,
    "v": 3052
  },
  {
    "dt": "2023.02.21 23:00",
    "o": 1.44097,
    "h": 1.44143,
    "l": 1.44084,
    "c": 1.44098,
    "v": 1501
  },
  {
    "dt": "2023.02.22 00:00",
    "o": 1.44077,
    "h": 1.44131,
    "l": 1.44023,
    "c": 1.44064,
    "v": 1132
  },
  {
    "dt": "2023.02.22 01:00",
    "o": 1.44075,
    "h": 1.44189,
    "l": 1.44067,
    "c": 1.44136,
    "v": 1286
  },
  {
    "dt": "2023.02.22 02:00",
    "o": 1.44134,
    "h": 1.4423,
    "l": 1.44102,
    "c": 1.44182,
    "v": 2460
  },
  {
    "dt": "2023.02.22 03:00",
    "o": 1.44184,
    "h": 1.44307,
    "l": 1.44164,
    "c": 1.44294,
    "v": 2481
  },
  {
    "dt": "2023.02.22 04:00",
    "o": 1.44293,
    "h": 1.44328,
    "l": 1.44199,
    "c": 1.44213,
    "v": 2854
  },
  {
    "dt": "2023.02.22 05:00",
    "o": 1.44213,
    "h": 1.44316,
    "l": 1.44206,
    "c": 1.44311,
    "v": 1264
  },
  {
    "dt": "2023.02.22 06:00",
    "o": 1.44304,
    "h": 1.44347,
    "l": 1.44291,
    "c": 1.44307,
    "v": 1233
  },
  {
    "dt": "2023.02.22 07:00",
    "o": 1.44308,
    "h": 1.44343,
    "l": 1.44262,
    "c": 1.44323,
    "v": 1679
  },
  {
    "dt": "2023.02.22 08:00",
    "o": 1.44325,
    "h": 1.44346,
    "l": 1.44269,
    "c": 1.44274,
    "v": 1470
  },
  {
    "dt": "2023.02.22 09:00",
    "o": 1.44273,
    "h": 1.443,
    "l": 1.44183,
    "c": 1.44233,
    "v": 3352
  },
  {
    "dt": "2023.02.22 10:00",
    "o": 1.44232,
    "h": 1.44419,
    "l": 1.44172,
    "c": 1.44243,
    "v": 4398
  },
  {
    "dt": "2023.02.22 11:00",
    "o": 1.44244,
    "h": 1.44326,
    "l": 1.44146,
    "c": 1.44153,
    "v": 4470
  },
  {
    "dt": "2023.02.22 12:00",
    "o": 1.44157,
    "h": 1.44213,
    "l": 1.44014,
    "c": 1.44015,
    "v": 3986
  },
  {
    "dt": "2023.02.22 13:00",
    "o": 1.44018,
    "h": 1.44104,
    "l": 1.43962,
    "c": 1.44035,
    "v": 3522
  },
  {
    "dt": "2023.02.22 14:00",
    "o": 1.44037,
    "h": 1.44042,
    "l": 1.43803,
    "c": 1.44041,
    "v": 4196
  },
  {
    "dt": "2023.02.22 15:00",
    "o": 1.44037,
    "h": 1.44135,
    "l": 1.43961,
    "c": 1.4405,
    "v": 4457
  },
  {
    "dt": "2023.02.22 16:00",
    "o": 1.44051,
    "h": 1.44289,
    "l": 1.44003,
    "c": 1.44212,
    "v": 5048
  },
  {
    "dt": "2023.02.22 17:00",
    "o": 1.44211,
    "h": 1.44302,
    "l": 1.43866,
    "c": 1.43909,
    "v": 5408
  },
  {
    "dt": "2023.02.22 18:00",
    "o": 1.4391,
    "h": 1.43978,
    "l": 1.43795,
    "c": 1.43819,
    "v": 5094
  },
  {
    "dt": "2023.02.22 19:00",
    "o": 1.43818,
    "h": 1.43859,
    "l": 1.43779,
    "c": 1.43788,
    "v": 3702
  },
  {
    "dt": "2023.02.22 20:00",
    "o": 1.43791,
    "h": 1.43838,
    "l": 1.43681,
    "c": 1.43764,
    "v": 3605
  },
  {
    "dt": "2023.02.22 21:00",
    "o": 1.43751,
    "h": 1.43828,
    "l": 1.43699,
    "c": 1.43814,
    "v": 5630
  },
  {
    "dt": "2023.02.22 22:00",
    "o": 1.43817,
    "h": 1.43824,
    "l": 1.43697,
    "c": 1.43711,
    "v": 4347
  },
  {
    "dt": "2023.02.22 23:00",
    "o": 1.43714,
    "h": 1.43746,
    "l": 1.43669,
    "c": 1.437,
    "v": 1728
  },
  {
    "dt": "2023.02.23 00:00",
    "o": 1.4368,
    "h": 1.43727,
    "l": 1.4361,
    "c": 1.43716,
    "v": 267
  },
  {
    "dt": "2023.02.23 01:00",
    "o": 1.43712,
    "h": 1.4373,
    "l": 1.43641,
    "c": 1.43642,
    "v": 1236
  },
  {
    "dt": "2023.02.23 02:00",
    "o": 1.43645,
    "h": 1.43685,
    "l": 1.43619,
    "c": 1.43654,
    "v": 1305
  },
  {
    "dt": "2023.02.23 03:00",
    "o": 1.4365,
    "h": 1.43666,
    "l": 1.43618,
    "c": 1.43634,
    "v": 1676
  },
  {
    "dt": "2023.02.23 04:00",
    "o": 1.43633,
    "h": 1.4365,
    "l": 1.43581,
    "c": 1.43631,
    "v": 1605
  },
  {
    "dt": "2023.02.23 05:00",
    "o": 1.43631,
    "h": 1.43642,
    "l": 1.43587,
    "c": 1.43623,
    "v": 1475
  },
  {
    "dt": "2023.02.23 06:00",
    "o": 1.43621,
    "h": 1.43641,
    "l": 1.43592,
    "c": 1.43638,
    "v": 720
  },
  {
    "dt": "2023.02.23 07:00",
    "o": 1.43639,
    "h": 1.43668,
    "l": 1.43594,
    "c": 1.43668,
    "v": 1262
  },
  {
    "dt": "2023.02.23 08:00",
    "o": 1.43663,
    "h": 1.4368,
    "l": 1.43621,
    "c": 1.43657,
    "v": 1740
  },
  {
    "dt": "2023.02.23 09:00",
    "o": 1.43656,
    "h": 1.43676,
    "l": 1.43524,
    "c": 1.43573,
    "v": 3149
  },
  {
    "dt": "2023.02.23 10:00",
    "o": 1.43567,
    "h": 1.4362,
    "l": 1.43463,
    "c": 1.43514,
    "v": 4049
  },
  {
    "dt": "2023.02.23 11:00",
    "o": 1.43515,
    "h": 1.43519,
    "l": 1.43363,
    "c": 1.43393,
    "v": 4061
  },
  {
    "dt": "2023.02.23 12:00",
    "o": 1.43387,
    "h": 1.43439,
    "l": 1.43316,
    "c": 1.4339,
    "v": 3433
  },
  {
    "dt": "2023.02.23 13:00",
    "o": 1.4339,
    "h": 1.43425,
    "l": 1.43292,
    "c": 1.43418,
    "v": 3247
  },
  {
    "dt": "2023.02.23 14:00",
    "o": 1.43417,
    "h": 1.43648,
    "l": 1.43395,
    "c": 1.43591,
    "v": 3746
  },
  {
    "dt": "2023.02.23 15:00",
    "o": 1.43588,
    "h": 1.43719,
    "l": 1.4353,
    "c": 1.43694,
    "v": 4855
  },
  {
    "dt": "2023.02.23 16:00",
    "o": 1.43694,
    "h": 1.43707,
    "l": 1.43354,
    "c": 1.43415,
    "v": 5340
  },
  {
    "dt": "2023.02.23 17:00",
    "o": 1.43417,
    "h": 1.4356,
    "l": 1.43368,
    "c": 1.43543,
    "v": 5569
  },
  {
    "dt": "2023.02.23 18:00",
    "o": 1.43553,
    "h": 1.43675,
    "l": 1.43488,
    "c": 1.43552,
    "v": 4824
  },
  {
    "dt": "2023.02.23 19:00",
    "o": 1.43555,
    "h": 1.4368,
    "l": 1.43486,
    "c": 1.43568,
    "v": 4025
  },
  {
    "dt": "2023.02.23 20:00",
    "o": 1.43571,
    "h": 1.43634,
    "l": 1.43512,
    "c": 1.43608,
    "v": 3286
  },
  {
    "dt": "2023.02.23 21:00",
    "o": 1.43608,
    "h": 1.43618,
    "l": 1.43452,
    "c": 1.43557,
    "v": 3678
  },
  {
    "dt": "2023.02.23 22:00",
    "o": 1.43551,
    "h": 1.43583,
    "l": 1.43469,
    "c": 1.43578,
    "v": 3114
  },
  {
    "dt": "2023.02.23 23:00",
    "o": 1.43578,
    "h": 1.43578,
    "l": 1.43499,
    "c": 1.43519,
    "v": 1423
  },
  {
    "dt": "2023.02.24 00:00",
    "o": 1.43468,
    "h": 1.43505,
    "l": 1.4337,
    "c": 1.43489,
    "v": 448
  },
  {
    "dt": "2023.02.24 01:00",
    "o": 1.43494,
    "h": 1.43571,
    "l": 1.43486,
    "c": 1.43513,
    "v": 1344
  },
  {
    "dt": "2023.02.24 02:00",
    "o": 1.43518,
    "h": 1.43558,
    "l": 1.43488,
    "c": 1.43549,
    "v": 2229
  },
  {
    "dt": "2023.02.24 03:00",
    "o": 1.43547,
    "h": 1.43584,
    "l": 1.43449,
    "c": 1.43506,
    "v": 3205
  },
  {
    "dt": "2023.02.24 04:00",
    "o": 1.43491,
    "h": 1.43534,
    "l": 1.43413,
    "c": 1.43425,
    "v": 2358
  },
  {
    "dt": "2023.02.24 05:00",
    "o": 1.43424,
    "h": 1.43475,
    "l": 1.43422,
    "c": 1.43473,
    "v": 2108
  },
  {
    "dt": "2023.02.24 06:00",
    "o": 1.4347,
    "h": 1.43547,
    "l": 1.43457,
    "c": 1.43532,
    "v": 1607
  },
  {
    "dt": "2023.02.24 07:00",
    "o": 1.43533,
    "h": 1.43571,
    "l": 1.43502,
    "c": 1.43522,
    "v": 1937
  },
  {
    "dt": "2023.02.24 08:00",
    "o": 1.43522,
    "h": 1.43618,
    "l": 1.43519,
    "c": 1.43583,
    "v": 2132
  },
  {
    "dt": "2023.02.24 09:00",
    "o": 1.43581,
    "h": 1.43594,
    "l": 1.43501,
    "c": 1.43552,
    "v": 3413
  },
  {
    "dt": "2023.02.24 10:00",
    "o": 1.43548,
    "h": 1.43684,
    "l": 1.43512,
    "c": 1.43681,
    "v": 4304
  },
  {
    "dt": "2023.02.24 11:00",
    "o": 1.4368,
    "h": 1.43783,
    "l": 1.43618,
    "c": 1.43618,
    "v": 3543
  },
  {
    "dt": "2023.02.24 12:00",
    "o": 1.43623,
    "h": 1.43788,
    "l": 1.43578,
    "c": 1.43697,
    "v": 3185
  },
  {
    "dt": "2023.02.24 13:00",
    "o": 1.43697,
    "h": 1.43841,
    "l": 1.43681,
    "c": 1.43713,
    "v": 3463
  },
  {
    "dt": "2023.02.24 14:00",
    "o": 1.43712,
    "h": 1.43766,
    "l": 1.43643,
    "c": 1.43654,
    "v": 3735
  },
  {
    "dt": "2023.02.24 15:00",
    "o": 1.43657,
    "h": 1.43821,
    "l": 1.43489,
    "c": 1.43795,
    "v": 5429
  },
  {
    "dt": "2023.02.24 16:00",
    "o": 1.43797,
    "h": 1.44075,
    "l": 1.43675,
    "c": 1.43864,
    "v": 5784
  },
  {
    "dt": "2023.02.24 17:00",
    "o": 1.43886,
    "h": 1.44074,
    "l": 1.4372,
    "c": 1.4383,
    "v": 5979
  },
  {
    "dt": "2023.02.24 18:00",
    "o": 1.43825,
    "h": 1.43833,
    "l": 1.43507,
    "c": 1.43588,
    "v": 5178
  },
  {
    "dt": "2023.02.24 19:00",
    "o": 1.43593,
    "h": 1.43728,
    "l": 1.43541,
    "c": 1.43599,
    "v": 4464
  },
  {
    "dt": "2023.02.24 20:00",
    "o": 1.43598,
    "h": 1.43772,
    "l": 1.43582,
    "c": 1.43636,
    "v": 4230
  },
  {
    "dt": "2023.02.24 21:00",
    "o": 1.43634,
    "h": 1.4369,
    "l": 1.435,
    "c": 1.43555,
    "v": 4075
  },
  {
    "dt": "2023.02.24 22:00",
    "o": 1.43562,
    "h": 1.43599,
    "l": 1.43483,
    "c": 1.43485,
    "v": 3910
  },
  {
    "dt": "2023.02.24 23:00",
    "o": 1.43483,
    "h": 1.43525,
    "l": 1.43441,
    "c": 1.43486,
    "v": 1841
  },
  {
    "dt": "2023.02.27 00:00",
    "o": 1.4352,
    "h": 1.43559,
    "l": 1.4345,
    "c": 1.43464,
    "v": 198
  },
  {
    "dt": "2023.02.27 01:00",
    "o": 1.4347,
    "h": 1.43533,
    "l": 1.43427,
    "c": 1.43478,
    "v": 1789
  },
  {
    "dt": "2023.02.27 02:00",
    "o": 1.43482,
    "h": 1.4353,
    "l": 1.43425,
    "c": 1.43493,
    "v": 2736
  },
  {
    "dt": "2023.02.27 03:00",
    "o": 1.43495,
    "h": 1.43543,
    "l": 1.43459,
    "c": 1.43524,
    "v": 2041
  },
  {
    "dt": "2023.02.27 04:00",
    "o": 1.43526,
    "h": 1.43565,
    "l": 1.43509,
    "c": 1.43538,
    "v": 1803
  },
  {
    "dt": "2023.02.27 05:00",
    "o": 1.43538,
    "h": 1.43576,
    "l": 1.43495,
    "c": 1.43561,
    "v": 1970
  },
  {
    "dt": "2023.02.27 06:00",
    "o": 1.43562,
    "h": 1.43613,
    "l": 1.43535,
    "c": 1.43613,
    "v": 1354
  },
  {
    "dt": "2023.02.27 07:00",
    "o": 1.43613,
    "h": 1.43621,
    "l": 1.4353,
    "c": 1.43544,
    "v": 1836
  },
  {
    "dt": "2023.02.27 08:00",
    "o": 1.43544,
    "h": 1.43574,
    "l": 1.4348,
    "c": 1.43497,
    "v": 2581
  },
  {
    "dt": "2023.02.27 09:00",
    "o": 1.43496,
    "h": 1.4356,
    "l": 1.43448,
    "c": 1.43453,
    "v": 3861
  },
  {
    "dt": "2023.02.27 10:00",
    "o": 1.43468,
    "h": 1.43527,
    "l": 1.43411,
    "c": 1.43451,
    "v": 4248
  },
  {
    "dt": "2023.02.27 11:00",
    "o": 1.43443,
    "h": 1.43507,
    "l": 1.43404,
    "c": 1.43445,
    "v": 3676
  },
  {
    "dt": "2023.02.27 12:00",
    "o": 1.43445,
    "h": 1.4366,
    "l": 1.4343,
    "c": 1.43657,
    "v": 3219
  },
  {
    "dt": "2023.02.27 13:00",
    "o": 1.43658,
    "h": 1.43665,
    "l": 1.43561,
    "c": 1.43612,
    "v": 3270
  },
  {
    "dt": "2023.02.27 14:00",
    "o": 1.43612,
    "h": 1.43704,
    "l": 1.43453,
    "c": 1.43502,
    "v": 3102
  },
  {
    "dt": "2023.02.27 15:00",
    "o": 1.43508,
    "h": 1.43574,
    "l": 1.43265,
    "c": 1.43574,
    "v": 4486
  },
  {
    "dt": "2023.02.27 16:00",
    "o": 1.43576,
    "h": 1.43792,
    "l": 1.43536,
    "c": 1.4376,
    "v": 4993
  },
  {
    "dt": "2023.02.27 17:00",
    "o": 1.43759,
    "h": 1.43889,
    "l": 1.43665,
    "c": 1.43788,
    "v": 5478
  },
  {
    "dt": "2023.02.27 18:00",
    "o": 1.43786,
    "h": 1.43865,
    "l": 1.43685,
    "c": 1.43817,
    "v": 4367
  },
  {
    "dt": "2023.02.27 19:00",
    "o": 1.43807,
    "h": 1.43881,
    "l": 1.43766,
    "c": 1.43848,
    "v": 3574
  },
  {
    "dt": "2023.02.27 20:00",
    "o": 1.43847,
    "h": 1.43987,
    "l": 1.43792,
    "c": 1.43942,
    "v": 3321
  },
  {
    "dt": "2023.02.27 21:00",
    "o": 1.43944,
    "h": 1.44068,
    "l": 1.43912,
    "c": 1.44037,
    "v": 3456
  },
  {
    "dt": "2023.02.27 22:00",
    "o": 1.44037,
    "h": 1.44048,
    "l": 1.43973,
    "c": 1.43994,
    "v": 3357
  },
  {
    "dt": "2023.02.27 23:00",
    "o": 1.43992,
    "h": 1.44038,
    "l": 1.4396,
    "c": 1.44002,
    "v": 1463
  },
  {
    "dt": "2023.02.28 00:00",
    "o": 1.43951,
    "h": 1.44014,
    "l": 1.43874,
    "c": 1.43912,
    "v": 675
  },
  {
    "dt": "2023.02.28 01:00",
    "o": 1.43914,
    "h": 1.44021,
    "l": 1.4391,
    "c": 1.4402,
    "v": 1026
  },
  {
    "dt": "2023.02.28 02:00",
    "o": 1.44022,
    "h": 1.44061,
    "l": 1.43955,
    "c": 1.44016,
    "v": 1847
  },
  {
    "dt": "2023.02.28 03:00",
    "o": 1.44016,
    "h": 1.44017,
    "l": 1.43735,
    "c": 1.43738,
    "v": 2345
  },
  {
    "dt": "2023.02.28 04:00",
    "o": 1.43736,
    "h": 1.43828,
    "l": 1.43727,
    "c": 1.43812,
    "v": 2162
  },
  {
    "dt": "2023.02.28 05:00",
    "o": 1.43815,
    "h": 1.43847,
    "l": 1.43791,
    "c": 1.43825,
    "v": 1417
  },
  {
    "dt": "2023.02.28 06:00",
    "o": 1.43823,
    "h": 1.43854,
    "l": 1.43783,
    "c": 1.43843,
    "v": 1104
  },
  {
    "dt": "2023.02.28 07:00",
    "o": 1.43842,
    "h": 1.43849,
    "l": 1.43791,
    "c": 1.43818,
    "v": 2165
  },
  {
    "dt": "2023.02.28 08:00",
    "o": 1.4381,
    "h": 1.43833,
    "l": 1.43751,
    "c": 1.43756,
    "v": 2282
  },
  {
    "dt": "2023.02.28 09:00",
    "o": 1.43756,
    "h": 1.44043,
    "l": 1.43746,
    "c": 1.44019,
    "v": 3106
  },
  {
    "dt": "2023.02.28 10:00",
    "o": 1.44055,
    "h": 1.44276,
    "l": 1.44055,
    "c": 1.44224,
    "v": 4547
  },
  {
    "dt": "2023.02.28 11:00",
    "o": 1.44224,
    "h": 1.44345,
    "l": 1.44088,
    "c": 1.44119,
    "v": 4011
  },
  {
    "dt": "2023.02.28 12:00",
    "o": 1.44116,
    "h": 1.44159,
    "l": 1.44014,
    "c": 1.44039,
    "v": 3574
  },
  {
    "dt": "2023.02.28 13:00",
    "o": 1.44039,
    "h": 1.44045,
    "l": 1.43875,
    "c": 1.43904,
    "v": 3078
  },
  {
    "dt": "2023.02.28 14:00",
    "o": 1.43904,
    "h": 1.44081,
    "l": 1.43882,
    "c": 1.44074,
    "v": 3320
  },
  {
    "dt": "2023.02.28 15:00",
    "o": 1.44072,
    "h": 1.44416,
    "l": 1.44001,
    "c": 1.44412,
    "v": 4396
  },
  {
    "dt": "2023.02.28 16:00",
    "o": 1.44425,
    "h": 1.4462,
    "l": 1.44279,
    "c": 1.44575,
    "v": 5023
  },
  {
    "dt": "2023.02.28 17:00",
    "o": 1.44577,
    "h": 1.4482,
    "l": 1.44344,
    "c": 1.4443,
    "v": 5848
  },
  {
    "dt": "2023.02.28 18:00",
    "o": 1.44429,
    "h": 1.44434,
    "l": 1.44254,
    "c": 1.44326,
    "v": 4905
  },
  {
    "dt": "2023.02.28 19:00",
    "o": 1.44326,
    "h": 1.44407,
    "l": 1.44245,
    "c": 1.44396,
    "v": 3905
  },
  {
    "dt": "2023.02.28 20:00",
    "o": 1.44395,
    "h": 1.44412,
    "l": 1.44176,
    "c": 1.44186,
    "v": 3329
  },
  {
    "dt": "2023.02.28 21:00",
    "o": 1.44184,
    "h": 1.44277,
    "l": 1.44142,
    "c": 1.44235,
    "v": 3239
  },
  {
    "dt": "2023.02.28 22:00",
    "o": 1.44228,
    "h": 1.44339,
    "l": 1.44181,
    "c": 1.44304,
    "v": 3210
  },
  {
    "dt": "2023.02.28 23:00",
    "o": 1.44304,
    "h": 1.44343,
    "l": 1.44283,
    "c": 1.44298,
    "v": 1922
  }
]