[
  {
    "dt": "2023.07.03 00:00",
    "o": 1.4445,
    "h": 1.44479,
    "l": 1.44391,
    "c": 1.44436,
    "v": 114
  },
  {
    "dt": "2023.07.03 01:00",
    "o": 1.44435,
    "h": 1.44541,
    "l": 1.44435,
    "c": 1.44533,
    "v": 905
  },
  {
    "dt": "2023.07.03 02:00",
    "o": 1.44533,
    "h": 1.4454,
    "l": 1.44486,
    "c": 1.44507,
    "v": 1008
  },
  {
    "dt": "2023.07.03 03:00",
    "o": 1.44507,
    "h": 1.44553,
    "l": 1.44483,
    "c": 1.44501,
    "v": 2064
  },
  {
    "dt": "2023.07.03 04:00",
    "o": 1.44504,
    "h": 1.44562,
    "l": 1.44481,
    "c": 1.44517,
    "v": 2439
  },
  {
    "dt": "2023.07.03 05:00",
    "o": 1.44517,
    "h": 1.44562,
    "l": 1.44501,
    "c": 1.44502,
    "v": 1566
  },
  {
    "dt": "2023.07.03 06:00",
    "o": 1.44503,
    "h": 1.44503,
    "l": 1.44459,
    "c": 1.44481,
    "v": 1755
  },
  {
    "dt": "2023.07.03 07:00",
    "o": 1.4448,
    "h": 1.44541,
    "l": 1.44471,
    "c": 1.44532,
    "v": 1697
  },
  {
    "dt": "2023.07.03 08:00",
    "o": 1.44531,
    "h": 1.44574,
    "l": 1.44447,
    "c": 1.4445,
    "v": 2078
  },
  {
    "dt": "2023.07.03 09:00",
    "o": 1.44445,
    "h": 1.44511,
    "l": 1.44294,
    "c": 1.443,
    "v": 3790
  },
  {
    "dt": "2023.07.03 10:00",
    "o": 1.443,
    "h": 1.44346,
    "l": 1.44221,
    "c": 1.4428,
    "v": 4091
  },
  {
    "dt": "2023.07.03 11:00",
    "o": 1.4428,
    "h": 1.44505,
    "l": 1.44269,
    "c": 1.44399,
    "v": 3619
  },
  {
    "dt": "2023.07.03 12:00",
    "o": 1.44398,
    "h": 1.4449,
    "l": 1.44248,
    "c": 1.44376,
    "v": 3365
  },
  {
    "dt": "2023.07.03 13:00",
    "o": 1.44377,
    "h": 1.44429,
    "l": 1.44264,
    "c": 1.44349,
    "v": 3001
  },
  {
    "dt": "2023.07.03 14:00",
    "o": 1.44349,
    "h": 1.44485,
    "l": 1.44309,
    "c": 1.44403,
    "v": 3755
  },
  {
    "dt": "2023.07.03 15:00",
    "o": 1.44399,
    "h": 1.44574,
    "l": 1.44351,
    "c": 1.44544,
    "v": 3918
  },
  {
    "dt": "2023.07.03 16:00",
    "o": 1.44545,
    "h": 1.44687,
    "l": 1.44505,
    "c": 1.44513,
    "v": 4345
  },
  {
    "dt": "2023.07.03 17:00",
    "o": 1.44505,
    "h": 1.44673,
    "l": 1.44279,
    "c": 1.44313,
    "v": 4708
  },
  {
    "dt": "2023.07.03 18:00",
    "o": 1.44307,
    "h": 1.44618,
    "l": 1.44273,
    "c": 1.44596,
    "v": 3973
  },
  {
    "dt": "2023.07.03 19:00",
    "o": 1.44594,
    "h": 1.44676,
    "l": 1.44532,
    "c": 1.4463,
    "v": 3025
  },
  {
    "dt": "2023.07.03 20:00",
    "o": 1.44632,
    "h": 1.44653,
    "l": 1.44557,
    "c": 1.44563,
    "v": 1453
  },
  {
    "dt": "2023.07.03 21:00",
    "o": 1.44565,
    "h": 1.44631,
    "l": 1.44529,
    "c": 1.44599,
    "v": 1144
  },
  {
    "dt": "2023.07.03 22:00",
    "o": 1.44597,
    "h": 1.44598,
    "l": 1.44555,
    "c": 1.44579,
    "v": 675
  },
  {
    "dt": "2023.07.03 23:00",
    "o": 1.44573,
    "h": 1.4461,
    "l": 1.44555,
    "c": 1.44594,
    "v": 493
  },
  {
    "dt": "2023.07.04 00:00",
    "o": 1.44513,
    "h": 1.44555,
    "l": 1.44506,
    "c": 1.44515,
    "v": 270
  },
  {
    "dt": "2023.07.04 01:00",
    "o": 1.44521,
    "h": 1.44618,
    "l": 1.44521,
    "c": 1.44573,
    "v": 505
  },
  {
    "dt": "2023.07.04 02:00",
    "o": 1.44575,
    "h": 1.44598,
    "l": 1.44543,
    "c": 1.4456,
    "v": 565
  },
  {
    "dt": "2023.07.04 03:00",
    "o": 1.44561,
    "h": 1.44571,
    "l": 1.44505,
    "c": 1.44529,
    "v": 2107
  },
  {
    "dt": "2023.07.04 04:00",
    "o": 1.4453,
    "h": 1.44626,
    "l": 1.44517,
    "c": 1.44527,
    "v": 2006
  },
  {
    "dt": "2023.07.04 05:00",
    "o": 1.44527,
    "h": 1.44531,
    "l": 1.44452,
    "c": 1.44512,
    "v": 1272
  },
  {
    "dt": "2023.07.04 06:00",
    "o": 1.44513,
    "h": 1.44535,
    "l": 1.44445,
    "c": 1.44446,
    "v": 1517
  },
  {
    "dt": "2023.07.04 07:00",
    "o": 1.44446,
    "h": 1.44496,
    "l": 1.44394,
    "c": 1.44439,
    "v": 1838
  },
  {
    "dt": "2023.07.04 08:00",
    "o": 1.44439,
    "h": 1.44462,
    "l": 1.44336,
    "c": 1.44391,
    "v": 1781
  },
  {
    "dt": "2023.07.04 09:00",
    "o": 1.444,
    "h": 1.44457,
    "l": 1.44363,
    "c": 1.44422,
    "v": 2939
  },
  {
    "dt": "2023.07.04 10:00",
    "o": 1.44423,
    "h": 1.44423,
    "l": 1.44215,
    "c": 1.44259,
    "v": 3738
  },
  {
    "dt": "2023.07.04 11:00",
    "o": 1.44262,
    "h": 1.44333,
    "l": 1.44192,
    "c": 1.44214,
    "v": 3206
  },
  {
    "dt": "2023.07.04 12:00",
    "o": 1.44211,
    "h": 1.44322,
    "l": 1.4419,
    "c": 1.4422,
    "v": 2827
  },
  {
    "dt": "2023.07.04 13:00",
    "o": 1.44214,
    "h": 1.44241,
    "l": 1.44131,
    "c": 1.44188,
    "v": 2740
  },
  {
    "dt": "2023.07.04 14:00",
    "o": 1.4419,
    "h": 1.4419,
    "l": 1.44018,
    "c": 1.44091,
    "v": 2509
  },
  {
    "dt": "2023.07.04 15:00",
    "o": 1.4409,
    "h": 1.44102,
    "l": 1.43932,
    "c": 1.43946,
    "v": 2895
  },
  {
    "dt": "2023.07.04 16:00",
    "o": 1.43946,
    "h": 1.44128,
    "l": 1.43889,
    "c": 1.44115,
    "v": 3117
  },
  {
    "dt": "2023.07.04 17:00",
    "o": 1.44112,
    "h": 1.44152,
    "l": 1.44033,
    "c": 1.4404,
    "v": 2740
  },
  {
    "dt": "2023.07.04 18:00",
    "o": 1.4404,
    "h": 1.4405,
    "l": 1.43944,
    "c": 1.43999,
    "v": 2356
  },
  {
    "dt": "2023.07.04 19:00",
    "o": 1.43999,
    "h": 1.44042,
    "l": 1.43972,
    "c": 1.44005,
    "v": 1635
  },
  {
    "dt": "2023.07.04 20:00",
    "o": 1.44003,
    "h": 1.44102,
    "l": 1.43976,
    "c": 1.44046,
    "v": 727
  },
  {
    "dt": "2023.07.04 21:00",
    "o": 1.44045,
    "h": 1.44086,
    "l": 1.43946,
    "c": 1.43952,
    "v": 568
  },
  {
    "dt": "2023.07.04 22:00",
    "o": 1.43952,
    "h": 1.43968,
    "l": 1.43868,
    "c": 1.43899,
    "v": 884
  },
  {
    "dt": "2023.07.04 23:00",
    "o": 1.43898,
    "h": 1.43903,
    "l": 1.4381,
    "c": 1.43838,
    "v": 748
  },
  {
    "dt": "2023.07.05 00:00",
    "o": 1.43847,
    "h": 1.43868,
    "l": 1.43816,
    "c": 1.43842,
    "v": 354
  },
  {
    "dt": "2023.07.05 01:00",
    "o": 1.43842,
    "h": 1.43863,
    "l": 1.4381,
    "c": 1.43842,
    "v": 714
  },
  {
    "dt": "2023.07.05 02:00",
    "o": 1.43842,
    "h": 1.43913,
    "l": 1.43838,
    "c": 1.43904,
    "v": 644
  },
  {
    "dt": "2023.07.05 03:00",
    "o": 1.43905,
    "h": 1.43972,
    "l": 1.43891,
    "c": 1.43933,
    "v": 1231
  },
  {
    "dt": "2023.07.05 04:00",
    "o": 1.43931,
    "h": 1.43956,
    "l": 1.43867,
    "c": 1.43879,
    "v": 1885
  },
  {
    "dt": "2023.07.05 05:00",
    "o": 1.43881,
    "h": 1.4392,
    "l": 1.4388,
    "c": 1.43904,
    "v": 1354
  },
  {
    "dt": "2023.07.05 06:00",
    "o": 1.4391,
    "h": 1.43937,
    "l": 1.43885,
    "c": 1.43905,
    "v": 1242
  },
  {
    "dt": "2023.07.05 07:00",
    "o": 1.43907,
    "h": 1.43939,
    "l": 1.439,
    "c": 1.43939,
    "v": 1541
  },
  {
    "dt": "2023.07.05 08:00",
    "o": 1.43938,
    "h": 1.43974,
    "l": 1.43833,
    "c": 1.43946,
    "v": 2104
  },
  {
    "dt": "2023.07.05 09:00",
    "o": 1.43946,
    "h": 1.44133,
    "l": 1.43915,
    "c": 1.44093,
    "v": 3050
  },
  {
    "dt": "2023.07.05 10:00",
    "o": 1.44092,
    "h": 1.44397,
    "l": 1.44073,
    "c": 1.44228,
    "v": 4152
  },
  {
    "dt": "2023.07.05 11:00",
    "o": 1.44231,
    "h": 1.44542,
    "l": 1.44035,
    "c": 1.44497,
    "v": 4357
  },
  {
    "dt": "2023.07.05 12:00",
    "o": 1.44496,
    "h": 1.44575,
    "l": 1.4434,
    "c": 1.4457,
    "v": 3613
  },
  {
    "dt": "2023.07.05 13:00",
    "o": 1.4457,
    "h": 1.44656,
    "l": 1.44521,
    "c": 1.44585,
    "v": 3026
  },
  {
    "dt": "2023.07.05 14:00",
    "o": 1.44585,
    "h": 1.44615,
    "l": 1.44349,
    "c": 1.4439,
    "v": 3042
  },
  {
    "dt": "2023.07.05 15:00",
    "o": 1.44388,
    "h": 1.44748,
    "l": 1.44365,
    "c": 1.44642,
    "v": 4097
  },
  {
    "dt": "2023.07.05 16:00",
    "o": 1.44641,
    "h": 1.4466,
    "l": 1.4429,
    "c": 1.44476,
    "v": 4595
  },
  {
    "dt": "2023.07.05 17:00",
    "o": 1.44485,
    "h": 1.44489,
    "l": 1.44212,
    "c": 1.44254,
    "v": 4880
  },
  {
    "dt": "2023.07.05 18:00",
    "o": 1.44253,
    "h": 1.44303,
    "l": 1.4416,
    "c": 1.44217,
    "v": 3981
  },
  {
    "dt": "2023.07.05 19:00",
    "o": 1.44216,
    "h": 1.44242,
    "l": 1.44108,
    "c": 1.44152,
    "v": 3175
  },
  {
    "dt": "2023.07.05 20:00",
    "o": 1.44151,
    "h": 1.44174,
    "l": 1.44077,
    "c": 1.44144,
    "v": 2922
  },
  {
    "dt": "2023.07.05 21:00",
    "o": 1.44141,
    "h": 1.44201,
    "l": 1.44099,
    "c": 1.44148,
    "v": 3458
  },
  {
    "dt": "2023.07.05 22:00",
    "o": 1.44146,
    "h": 1.44185,
    "l": 1.44099,
    "c": 1.44158,
    "v": 2561
  },
  {
    "dt": "2023.07.05 23:00",
    "o": 1.44161,
    "h": 1.44196,
    "l": 1.4414,
    "c": 1.44156,
    "v": 1204
  },
  {
    "dt": "2023.07.06 00:00",
    "o": 1.44135,
    "h": 1.44149,
    "l": 1.44083,
    "c": 1.44113,
    "v": 263
  },
  {
    "dt": "2023.07.06 01:00",
    "o": 1.44103,
    "h": 1.44207,
    "l": 1.44103,
    "c": 1.44182,
    "v": 665
  },
  {
    "dt": "2023.07.06 02:00",
    "o": 1.44185,
    "h": 1.44208,
    "l": 1.44171,
    "c": 1.44198,
    "v": 667
  },
  {
    "dt": "2023.07.06 03:00",
    "o": 1.44201,
    "h": 1.44219,
    "l": 1.44127,
    "c": 1.44144,
    "v": 1978
  },
  {
    "dt": "2023.07.06 04:00",
    "o": 1.44143,
    "h": 1.4416,
    "l": 1.4411,
    "c": 1.44126,
    "v": 2260
  },
  {
    "dt": "2023.07.06 05:00",
    "o": 1.44124,
    "h": 1.44148,
    "l": 1.44095,
    "c": 1.44107,
    "v": 2087
  },
  {
    "dt": "2023.07.06 06:00",
    "o": 1.44107,
    "h": 1.44168,
    "l": 1.44075,
    "c": 1.44124,
    "v": 2046
  },
  {
    "dt": "2023.07.06 07:00",
    "o": 1.44126,
    "h": 1.4416,
    "l": 1.44075,
    "c": 1.44147,
    "v": 2453
  },
  {
    "dt": "2023.07.06 08:00",
    "o": 1.44142,
    "h": 1.44321,
    "l": 1.44124,
    "c": 1.44308,
    "v": 2693
  },
  {
    "dt": "2023.07.06 09:00",
    "o": 1.44296,
    "h": 1.44422,
    "l": 1.4428,
    "c": 1.44383,
    "v": 3550
  },
  {
    "dt": "2023.07.06 10:00",
    "o": 1.44383,
    "h": 1.44475,
    "l": 1.44326,
    "c": 1.44332,
    "v": 4539
  },
  {
    "dt": "2023.07.06 11:00",
    "o": 1.44337,
    "h": 1.44465,
    "l": 1.4421,
    "c": 1.44436,
    "v": 4104
  },
  {
    "dt": "2023.07.06 12:00",
    "o": 1.44436,
    "h": 1.44495,
    "l": 1.44365,
    "c": 1.44378,
    "v": 3423
  },
  {
    "dt": "2023.07.06 13:00",
    "o": 1.44376,
    "h": 1.44638,
    "l": 1.44333,
    "c": 1.44586,
    "v": 3763
  },
  {
    "dt": "2023.07.06 14:00",
    "o": 1.44586,
    "h": 1.4478,
    "l": 1.44498,
    "c": 1.44748,
    "v": 3372
  },
  {
    "dt": "2023.07.06 15:00",
    "o": 1.44747,
    "h": 1.449,
    "l": 1.4458,
    "c": 1.44823,
    "v": 5531
  },
  {
    "dt": "2023.07.06 16:00",
    "o": 1.44827,
    "h": 1.45042,
    "l": 1.44672,
    "c": 1.44953,
    "v": 5455
  },
  {
    "dt": "2023.07.06 17:00",
    "o": 1.44888,
    "h": 1.45108,
    "l": 1.44657,
    "c": 1.45012,
    "v": 5881
  },
  {
    "dt": "2023.07.06 18:00",
    "o": 1.45008,
    "h": 1.4531,
    "l": 1.44931,
    "c": 1.45182,
    "v": 4897
  },
  {
    "dt": "2023.07.06 19:00",
    "o": 1.45182,
    "h": 1.45364,
    "l": 1.4517,
    "c": 1.45241,
    "v": 4040
  },
  {
    "dt": "2023.07.06 20:00",
    "o": 1.45239,
    "h": 1.45379,
    "l": 1.45221,
    "c": 1.45333,
    "v": 3242
  },
  {
    "dt": "2023.07.06 21:00",
    "o": 1.45335,
    "h": 1.45377,
    "l": 1.45278,
    "c": 1.45323,
    "v": 3008
  },
  {
    "dt": "2023.07.06 22:00",
    "o": 1.45322,
    "h": 1.4552,
    "l": 1.45321,
    "c": 1.45513,
    "v": 2822
  },
  {
    "dt": "2023.07.06 23:00",
    "o": 1.45517,
    "h": 1.45618,
    "l": 1.45479,
    "c": 1.45584,
    "v": 1495
  },
  {
    "dt": "2023.07.07 00:00",
    "o": 1.45498,
    "h": 1.45511,
    "l": 1.45437,
    "c": 1.4547,
    "v": 432
  },
  {
    "dt": "2023.07.07 01:00",
    "o": 1.45471,
    "h": 1.45556,
    "l": 1.45471,
    "c": 1.45555,
    "v": 841
  },
  {
    "dt": "2023.07.07 02:00",
    "o": 1.45549,
    "h": 1.45599,
    "l": 1.45505,
    "c": 1.45523,
    "v": 1386
  },
  {
    "dt": "2023.07.07 03:00",
    "o": 1.4552,
    "h": 1.45573,
    "l": 1.45492,
    "c": 1.45507,
    "v": 1891
  },
  {
    "dt": "2023.07.07 04:00",
    "o": 1.45507,
    "h": 1.45545,
    "l": 1.4548,
    "c": 1.45503,
    "v": 2332
  },
  {
    "dt": "2023.07.07 05:00",
    "o": 1.45505,
    "h": 1.45509,
    "l": 1.45449,
    "c": 1.45488,
    "v": 1729
  },
  {
    "dt": "2023.07.07 06:00",
    "o": 1.4549,
    "h": 1.45524,
    "l": 1.45472,
    "c": 1.45487,
    "v": 1674
  },
  {
    "dt": "2023.07.07 07:00",
    "o": 1.45488,
    "h": 1.45564,
    "l": 1.4548,
    "c": 1.4553,
    "v": 1193
  },
  {
    "dt": "2023.07.07 08:00",
    "o": 1.45534,
    "h": 1.45574,
    "l": 1.45486,
    "c": 1.45495,
    "v": 2099
  },
  {
    "dt": "2023.07.07 09:00",
    "o": 1.45507,
    "h": 1.45662,
    "l": 1.45501,
    "c": 1.45536,
    "v": 3238
  },
  {
    "dt": "2023.07.07 10:00",
    "o": 1.45536,
    "h": 1.45647,
    "l": 1.45435,
    "c": 1.45475,
    "v": 4382
  },
  {
    "dt": "2023.07.07 11:00",
    "o": 1.45469,
    "h": 1.45569,
    "l": 1.45355,
    "c": 1.45473,
    "v": 3930
  },
  {
    "dt": "2023.07.07 12:00",
    "o": 1.45473,
    "h": 1.45528,
    "l": 1.45283,
    "c": 1.45448,
    "v": 3534
  },
  {
    "dt": "2023.07.07 13:00",
    "o": 1.45453,
    "h": 1.45614,
    "l": 1.45416,
    "c": 1.45596,
    "v": 2820
  },
  {
    "dt": "2023.07.07 14:00",
    "o": 1.45596,
    "h": 1.45606,
    "l": 1.45499,
    "c": 1.45522,
    "v": 3167
  },
  {
    "dt": "2023.07.07 15:00",
    "o": 1.45527,
    "h": 1.45656,
    "l": 1.4529,
    "c": 1.45472,
    "v": 5088
  },
  {
    "dt": "2023.07.07 16:00",
    "o": 1.45472,
    "h": 1.45491,
    "l": 1.45111,
    "c": 1.45212,
    "v": 5658
  },
  {
    "dt": "2023.07.07 17:00",
    "o": 1.45215,
    "h": 1.45615,
    "l": 1.45166,
    "c": 1.4556,
    "v": 5148
  },
  {
    "dt": "2023.07.07 18:00",
    "o": 1.45559,
    "h": 1.45642,
    "l": 1.45515,
    "c": 1.45635,
    "v": 3823
  },
  {
    "dt": "2023.07.07 19:00",
    "o": 1.45636,
    "h": 1.45708,
    "l": 1.45513,
    "c": 1.45562,
    "v": 3763
  },
  {
    "dt": "2023.07.07 20:00",
    "o": 1.45558,
    "h": 1.45594,
    "l": 1.45494,
    "c": 1.45494,
    "v": 2751
  },
  {
    "dt": "2023.07.07 21:00",
    "o": 1.45497,
    "h": 1.45581,
    "l": 1.45497,
    "c": 1.45549,
    "v": 2666
  },
  {
    "dt": "2023.07.07 22:00",
    "o": 1.45547,
    "h": 1.4562,
    "l": 1.4553,
    "c": 1.4561,
    "v": 2689
  },
  {
    "dt": "2023.07.07 23:00",
    "o": 1.45613,
    "h": 1.4563,
    "l": 1.45543,
    "c": 1.45593,
    "v": 1658
  },
  {
    "dt": "2023.07.10 00:00",
    "o": 1.45458,
    "h": 1.45568,
    "l": 1.45437,
    "c": 1.45551,
    "v": 95
  },
  {
    "dt": "2023.07.10 01:00",
    "o": 1.45547,
    "h": 1.45619,
    "l": 1.45547,
    "c": 1.45588,
    "v": 1355
  },
  {
    "dt": "2023.07.10 02:00",
    "o": 1.45585,
    "h": 1.45628,
    "l": 1.4554,
    "c": 1.45612,
    "v": 915
  },
  {
    "dt": "2023.07.10 03:00",
    "o": 1.45615,
    "h": 1.45661,
    "l": 1.45518,
    "c": 1.45631,
    "v": 2174
  },
  {
    "dt": "2023.07.10 04:00",
    "o": 1.45631,
    "h": 1.45642,
    "l": 1.4554,
    "c": 1.4557,
    "v": 2641
  },
  {
    "dt": "2023.07.10 05:00",
    "o": 1.45569,
    "h": 1.4559,
    "l": 1.45526,
    "c": 1.45587,
    "v": 1945
  },
  {
    "dt": "2023.07.10 06:00",
    "o": 1.45584,
    "h": 1.45626,
    "l": 1.45559,
    "c": 1.45611,
    "v": 1744
  },
  {
    "dt": "2023.07.10 07:00",
    "o": 1.45615,
    "h": 1.45636,
    "l": 1.45564,
    "c": 1.45583,
    "v": 1779
  },
  {
    "dt": "2023.07.10 08:00",
    "o": 1.45583,
    "h": 1.45642,
    "l": 1.45533,
    "c": 1.45568,
    "v": 2126
  },
  {
    "dt": "2023.07.10 09:00",
    "o": 1.4557,
    "h": 1.45654,
    "l": 1.45498,
    "c": 1.45508,
    "v": 3227
  },
  {
    "dt": "2023.07.10 10:00",
    "o": 1.45509,
    "h": 1.45609,
    "l": 1.45391,
    "c": 1.45432,
    "v": 3802
  },
  {
    "dt": "2023.07.10 11:00",
    "o": 1.45435,
    "h": 1.45604,
    "l": 1.45403,
    "c": 1.45588,
    "v": 3503
  },
  {
    "dt": "2023.07.10 12:00",
    "o": 1.45585,
    "h": 1.4572,
    "l": 1.45568,
    "c": 1.45627,
    "v": 3328
  },
  {
    "dt": "2023.07.10 13:00",
    "o": 1.45626,
    "h": 1.45717,
    "l": 1.45574,
    "c": 1.45592,
    "v": 2998
  },
  {
    "dt": "2023.07.10 14:00",
    "o": 1.45592,
    "h": 1.45628,
    "l": 1.45506,
    "c": 1.45526,
    "v": 3258
  },
  {
    "dt": "2023.07.10 15:00",
    "o": 1.45526,
    "h": 1.45593,
    "l": 1.45465,
    "c": 1.45583,
    "v": 4233
  },
  {
    "dt": "2023.07.10 16:00",
    "o": 1.45583,
    "h": 1.45795,
    "l": 1.45566,
    "c": 1.45619,
    "v": 4541
  },
  {
    "dt": "2023.07.10 17:00",
    "o": 1.45619,
    "h": 1.45736,
    "l": 1.45584,
    "c": 1.45674,
    "v": 4538
  },
  {
    "dt": "2023.07.10 18:00",
    "o": 1.4568,
    "h": 1.4603,
    "l": 1.45674,
    "c": 1.45942,
    "v": 4263
  },
  {
    "dt": "2023.07.10 19:00",
    "o": 1.45946,
    "h": 1.46032,
    "l": 1.45872,
    "c": 1.45992,
    "v": 3659
  },
  {
    "dt": "2023.07.10 20:00",
    "o": 1.45992,
    "h": 1.46077,
    "l": 1.45956,
    "c": 1.46003,
    "v": 3187
  },
  {
    "dt": "2023.07.10 21:00",
    "o": 1.46003,
    "h": 1.4605,
    "l": 1.45964,
    "c": 1.46041,
    "v": 2916
  },
  {
    "dt": "2023.07.10 22:00",
    "o": 1.4604,
    "h": 1.46055,
    "l": 1.45979,
    "c": 1.46022,
    "v": 2498
  },
  {
    "dt": "2023.07.10 23:00",
    "o": 1.46026,
    "h": 1.46089,
    "l": 1.46006,
    "c": 1.46072,
    "v": 1276
  },
  {
    "dt": "2023.07.11 00:00",
    "o": 1.46067,
    "h": 1.4607,
    "l": 1.45958,
    "c": 1.46041,
    "v": 313
  },
  {
    "dt": "2023.07.11 01:00",
    "o": 1.46028,
    "h": 1.46078,
    "l": 1.46023,
    "c": 1.46046,
    "v": 738
  },
  {
    "dt": "2023.07.11 02:00",
    "o": 1.46045,
    "h": 1.46084,
    "l": 1.46042,
    "c": 1.46078,
    "v": 895
  },
  {
    "dt": "2023.07.11 03:00",
    "o": 1.46075,
    "h": 1.46093,
    "l": 1.4598,
    "c": 1.45994,
    "v": 2260
  },
  {
    "dt": "2023.07.11 04:00",
    "o": 1.45997,
    "h": 1.46079,
    "l": 1.45979,
    "c": 1.46052,
    "v": 2440
  },
  {
    "dt": "2023.07.11 05:00",
    "o": 1.46051,
    "h": 1.46072,
    "l": 1.45957,
    "c": 1.46027,
    "v": 2421
  },
  {
    "dt": "2023.07.11 06:00",
    "o": 1.46025,
    "h": 1.46114,
    "l": 1.46006,
    "c": 1.46111,
    "v": 2331
  },
  {
    "dt": "2023.07.11 07:00",
    "o": 1.46111,
    "h": 1.46156,
    "l": 1.46104,
    "c": 1.46148,
    "v": 1790
  },
  {
    "dt": "2023.07.11 08:00",
    "o": 1.46146,
    "h": 1.46168,
    "l": 1.46019,
    "c": 1.46036,
    "v": 2169
  },
  {
    "dt": "2023.07.11 09:00",
    "o": 1.46054,
    "h": 1.46133,
    "l": 1.45932,
    "c": 1.45977,
    "v": 3658
  },
  {
    "dt": "2023.07.11 10:00",
    "o": 1.45981,
    "h": 1.46087,
    "l": 1.45931,
    "c": 1.46077,
    "v": 4116
  },
  {
    "dt": "2023.07.11 11:00",
    "o": 1.46076,
    "h": 1.46192,
    "l": 1.45998,
    "c": 1.46064,
    "v": 3829
  },
  {
    "dt": "2023.07.11 12:00",
    "o": 1.46063,
    "h": 1.46125,
    "l": 1.45955,
    "c": 1.45973,
    "v": 3731
  },
  {
    "dt": "2023.07.11 13:00",
    "o": 1.45974,
    "h": 1.46095,
    "l": 1.45958,
    "c": 1.46088,
    "v": 3099
  },
  {
    "dt": "2023.07.11 14:00",
    "o": 1.46088,
    "h": 1.46115,
    "l": 1.45815,
    "c": 1.45822,
    "v": 3296
  },
  {
    "dt": "2023.07.11 15:00",
    "o": 1.45822,
    "h": 1.45904,
    "l": 1.45761,
    "c": 1.45848,
    "v": 4166
  },
  {
    "dt": "2023.07.11 16:00",
    "o": 1.45846,
    "h": 1.45987,
    "l": 1.45741,
    "c": 1.45824,
    "v": 4670
  },
  {
    "dt": "2023.07.11 17:00",
    "o": 1.45811,
    "h": 1.45832,
    "l": 1.45701,
    "c": 1.45772,
    "v": 4505
  },
  {
    "dt": "2023.07.11 18:00",
    "o": 1.4577,
    "h": 1.45825,
    "l": 1.45597,
    "c": 1.45617,
    "v": 4142
  },
  {
    "dt": "2023.07.11 19:00",
    "o": 1.45616,
    "h": 1.45762,
    "l": 1.45586,
    "c": 1.45755,
    "v": 3000
  },
  {
    "dt": "2023.07.11 20:00",
    "o": 1.45757,
    "h": 1.45828,
    "l": 1.45738,
    "c": 1.45817,
    "v": 3067
  },
  {
    "dt": "2023.07.11 21:00",
    "o": 1.45817,
    "h": 1.45819,
    "l": 1.45642,
    "c": 1.45659,
    "v": 2728
  },
  {
    "dt": "2023.07.11 22:00",
    "o": 1.45659,
    "h": 1.45715,
    "l": 1.45634,
    "c": 1.45656,
    "v": 2466
  },
  {
    "dt": "2023.07.11 23:00",
    "o": 1.45659,
    "h": 1.45664,
    "l": 1.45603,
    "c": 1.45622,
    "v": 1304
  },
  {
    "dt": "2023.07.12 00:00",
    "o": 1.4562,
    "h": 1.4564,
    "l": 1.4554,
    "c": 1.45611,
    "v": 383
  },
  {
    "dt": "2023.07.12 01:00",
    "o": 1.45619,
    "h": 1.45664,
    "l": 1.45618,
    "c": 1.45635,
    "v": 775
  },
  {
    "dt": "2023.07.12 02:00",
    "o": 1.45633,
    "h": 1.45697,
    "l": 1.4561,
    "c": 1.45687,
    "v": 1212
  },
  {
    "dt": "2023.07.12 03:00",
    "o": 1.45689,
    "h": 1.45719,
    "l": 1.45608,
    "c": 1.45639,
    "v": 3013
  },
  {
    "dt": "2023.07.12 04:00",
    "o": 1.45638,
    "h": 1.45726,
    "l": 1.45624,
    "c": 1.45652,
    "v": 2840
  },
  {
    "dt": "2023.07.12 05:00",
    "o": 1.45654,
    "h": 1.45687,
    "l": 1.45595,
    "c": 1.45631,
    "v": 2477
  },
  {
    "dt": "2023.07.12 06:00",
    "o": 1.45634,
    "h": 1.45652,
    "l": 1.45604,
    "c": 1.45651,
    "v": 1678
  },
  {
    "dt": "2023.07.12 07:00",
    "o": 1.45659,
    "h": 1.45722,
    "l": 1.45645,
    "c": 1.45719,
    "v": 1868
  },
  {
    "dt": "2023.07.12 08:00",
    "o": 1.45716,
    "h": 1.45747,
    "l": 1.45663,
    "c": 1.45701,
    "v": 2528
  },
  {
    "dt": "2023.07.12 09:00",
    "o": 1.45701,
    "h": 1.45737,
    "l": 1.45602,
    "c": 1.45656,
    "v": 2978
  },
  {
    "dt": "2023.07.12 10:00",
    "o": 1.45657,
    "h": 1.45858,
    "l": 1.45646,
    "c": 1.45745,
    "v": 3632
  },
  {
    "dt": "2023.07.12 11:00",
    "o": 1.45742,
    "h": 1.45779,
    "l": 1.45604,
    "c": 1.45608,
    "v": 3411
  },
  {
    "dt": "2023.07.12 12:00",
    "o": 1.4561,
    "h": 1.45692,
    "l": 1.45547,
    "c": 1.45589,
    "v": 3103
  },
  {
    "dt": "2023.07.12 13:00",
    "o": 1.45588,
    "h": 1.45687,
    "l": 1.45567,
    "c": 1.45641,
    "v": 3102
  },
  {
    "dt": "2023.07.12 14:00",
    "o": 1.45641,
    "h": 1.45685,
    "l": 1.45571,
    "c": 1.45614,
    "v": 3541
  },
  {
    "dt": "2023.07.12 15:00",
    "o": 1.45613,
    "h": 1.46215,
    "l": 1.45613,
    "c": 1.46203,
    "v": 5100
  },
  {
    "dt": "2023.07.12 16:00",
    "o": 1.46206,
    "h": 1.46527,
    "l": 1.462,
    "c": 1.46332,
    "v": 5720
  },
  {
    "dt": "2023.07.12 17:00",
    "o": 1.46107,
    "h": 1.46346,
    "l": 1.45822,
    "c": 1.46313,
    "v": 5397
  },
  {
    "dt": "2023.07.12 18:00",
    "o": 1.46317,
    "h": 1.46695,
    "l": 1.46225,
    "c": 1.4658,
    "v": 4858
  },
  {
    "dt": "2023.07.12 19:00",
    "o": 1.46594,
    "h": 1.46821,
    "l": 1.46558,
    "c": 1.46795,
    "v": 4115
  },
  {
    "dt": "2023.07.12 20:00",
    "o": 1.4679,
    "h": 1.46792,
    "l": 1.46661,
    "c": 1.46783,
    "v": 3508
  },
  {
    "dt": "2023.07.12 21:00",
    "o": 1.46783,
    "h": 1.46911,
    "l": 1.46716,
    "c": 1.46866,
    "v": 3357
  },
  {
    "dt": "2023.07.12 22:00",
    "o": 1.46869,
    "h": 1.46945,
    "l": 1.46802,
    "c": 1.46816,
    "v": 3245
  },
  {
    "dt": "2023.07.12 23:00",
    "o": 1.46813,
    "h": 1.46845,
    "l": 1.46741,
    "c": 1.46778,
    "v": 1812
  },
  {
    "dt": "2023.07.13 00:00",
    "o": 1.46738,
    "h": 1.46793,
    "l": 1.46658,
    "c": 1.46707,
    "v": 454
  },
  {
    "dt": "2023.07.13 01:00",
    "o": 1.46707,
    "h": 1.46833,
    "l": 1.46707,
    "c": 1.46829,
    "v": 1031
  },
  {
    "dt": "2023.07.13 02:00",
    "o": 1.46828,
    "h": 1.4686,
    "l": 1.46805,
    "c": 1.4686,
    "v": 1065
  },
  {
    "dt": "2023.07.13 03:00",
    "o": 1.46862,
    "h": 1.46891,
    "l": 1.46817,
    "c": 1.46859,
    "v": 1999
  },
  {
    "dt": "2023.07.13 04:00",
    "o": 1.46862,
    "h": 1.46979,
    "l": 1.46832,
    "c": 1.46972,
    "v": 2340
  },
  {
    "dt": "2023.07.13 05:00",
    "o": 1.4697,
    "h": 1.4697,
    "l": 1.46878,
    "c": 1.46913,
    "v": 2234
  },
  {
    "dt": "2023.07.13 06:00",
    "o": 1.46909,
    "h": 1.46929,
    "l": 1.46806,
    "c": 1.46849,
    "v": 1735
  },
  {
    "dt": "2023.07.13 07:00",
    "o": 1.4685,
    "h": 1.46861,
    "l": 1.46753,
    "c": 1.46786,
    "v": 1569
  },
  {
    "dt": "2023.07.13 08:00",
    "o": 1.46787,
    "h": 1.46801,
    "l": 1.4672,
    "c": 1.46752,
    "v": 2871
  },
  {
    "dt": "2023.07.13 09:00",
    "o": 1.46754,
    "h": 1.46818,
    "l": 1.46627,
    "c": 1.46687,
    "v": 4054
  },
  {
    "dt": "2023.07.13 10:00",
    "o": 1.46687,
    "h": 1.46773,
    "l": 1.46524,
    "c": 1.46736,
    "v": 4451
  },
  {
    "dt": "2023.07.13 11:00",
    "o": 1.46735,
    "h": 1.46976,
    "l": 1.46715,
    "c": 1.46864,
    "v": 4315
  },
  {
    "dt": "2023.07.13 12:00",
    "o": 1.46862,
    "h": 1.47066,
    "l": 1.46837,
    "c": 1.46991,
    "v": 3878
  },
  {
    "dt": "2023.07.13 13:00",
    "o": 1.46994,
    "h": 1.46998,
    "l": 1.46878,
    "c": 1.4694,
    "v": 3520
  },
  {
    "dt": "2023.07.13 14:00",
    "o": 1.4694,
    "h": 1.47006,
    "l": 1.46881,
    "c": 1.46973,
    "v": 3410
  },
  {
    "dt": "2023.07.13 15:00",
    "o": 1.46977,
    "h": 1.47213,
    "l": 1.46945,
    "c": 1.471,
    "v": 5084
  },
  {
    "dt": "2023.07.13 16:00",
    "o": 1.47099,
    "h": 1.47272,
    "l": 1.46903,
    "c": 1.46939,
    "v": 5182
  },
  {
    "dt": "2023.07.13 17:00",
    "o": 1.46939,
    "h": 1.47001,
    "l": 1.4665,
    "c": 1.46783,
    "v": 5003
  },
  {
    "dt": "2023.07.13 18:00",
    "o": 1.46772,
    "h": 1.46969,
    "l": 1.46736,
    "c": 1.46927,
    "v": 4238
  },
  {
    "dt": "2023.07.13 19:00",
    "o": 1.46925,
    "h": 1.4706,
    "l": 1.46908,
    "c": 1.46994,
    "v": 3785
  },
  {
    "dt": "2023.07.13 20:00",
    "o": 1.46996,
    "h": 1.47104,
    "l": 1.46967,
    "c": 1.47038,
    "v": 3170
  },
  {
    "dt": "2023.07.13 21:00",
    "o": 1.47044,
    "h": 1.47113,
    "l": 1.46964,
    "c": 1.47075,
    "v": 3269
  },
  {
    "dt": "2023.07.13 22:00",
    "o": 1.47073,
    "h": 1.47182,
    "l": 1.47033,
    "c": 1.47171,
    "v": 2932
  },
  {
    "dt": "2023.07.13 23:00",
    "o": 1.47173,
    "h": 1.47202,
    "l": 1.4714,
    "c": 1.4715,
    "v": 1587
  },
  {
    "dt": "2023.07.14 00:00",
    "o": 1.47086,
    "h": 1.47151,
    "l": 1.47051,
    "c": 1.47148,
    "v": 536
  },
  {
    "dt": "2023.07.14 01:00",
    "o": 1.47132,
    "h": 1.47196,
    "l": 1.47103,
    "c": 1.47145,
    "v": 1029
  },
  {
    "dt": "2023.07.14 02:00",
    "o": 1.47146,
    "h": 1.47196,
    "l": 1.47131,
    "c": 1.4716,
    "v": 1164
  },
  {
    "dt": "2023.07.14 03:00",
    "o": 1.4716,
    "h": 1.47163,
    "l": 1.47037,
    "c": 1.4715,
    "v": 2534
  },
  {
    "dt": "2023.07.14 04:00",
    "o": 1.47153,
    "h": 1.47207,
    "l": 1.47144,
    "c": 1.47185,
    "v": 2759
  },
  {
    "dt": "2023.07.14 05:00",
    "o": 1.47184,
    "h": 1.47229,
    "l": 1.47127,
    "c": 1.47148,
    "v": 2146
  },
  {
    "dt": "2023.07.14 06:00",
    "o": 1.47151,
    "h": 1.47198,
    "l": 1.47114,
    "c": 1.47173,
    "v": 2127
  },
  {
    "dt": "2023.07.14 07:00",
    "o": 1.47174,
    "h": 1.47174,
    "l": 1.47117,
    "c": 1.47128,
    "v": 1804
  },
  {
    "dt": "2023.07.14 08:00",
    "o": 1.47127,
    "h": 1.47183,
    "l": 1.4698,
    "c": 1.46988,
    "v": 2480
  },
  {
    "dt": "2023.07.14 09:00",
    "o": 1.4699,
    "h": 1.47247,
    "l": 1.4699,
    "c": 1.47239,
    "v": 3706
  },
  {
    "dt": "2023.07.14 10:00",
    "o": 1.4724,
    "h": 1.47253,
    "l": 1.4702,
    "c": 1.47148,
    "v": 3890
  },
  {
    "dt": "2023.07.14 11:00",
    "o": 1.47149,
    "h": 1.47344,
    "l": 1.47147,
    "c": 1.47337,
    "v": 3645
  },
  {
    "dt": "2023.07.14 12:00",
    "o": 1.47338,
    "h": 1.47407,
    "l": 1.47236,
    "c": 1.4725,
    "v": 3517
  },
  {
    "dt": "2023.07.14 13:00",
    "o": 1.47249,
    "h": 1.47311,
    "l": 1.47107,
    "c": 1.47138,
    "v": 3687
  },
  {
    "dt": "2023.07.14 14:00",
    "o": 1.47138,
    "h": 1.47373,
    "l": 1.471,
    "c": 1.47265,
    "v": 3319
  },
  {
    "dt": "2023.07.14 15:00",
    "o": 1.4727,
    "h": 1.4729,
    "l": 1.4713,
    "c": 1.4723,
    "v": 3964
  },
  {
    "dt": "2023.07.14 16:00",
    "o": 1.47233,
    "h": 1.47664,
    "l": 1.47144,
    "c": 1.4757,
    "v": 4436
  },
  {
    "dt": "2023.07.14 17:00",
    "o": 1.47505,
    "h": 1.48135,
    "l": 1.47488,
    "c": 1.48067,
    "v": 5635
  },
  {
    "dt": "2023.07.14 18:00",
    "o": 1.48064,
    "h": 1.4836,
    "l": 1.48021,
    "c": 1.48351,
    "v": 4026
  },
  {
    "dt": "2023.07.14 19:00",
    "o": 1.48351,
    "h": 1.48538,
    "l": 1.48308,
    "c": 1.48525,
    "v": 3764
  },
  {
    "dt": "2023.07.14 20:00",
    "o": 1.48525,
    "h": 1.48552,
    "l": 1.48355,
    "c": 1.48416,
    "v": 3105
  },
  {
    "dt": "2023.07.14 21:00",
    "o": 1.48417,
    "h": 1.48423,
    "l": 1.48304,
    "c": 1.48385,
    "v": 3370
  },
  {
    "dt": "2023.07.14 22:00",
    "o": 1.48386,
    "h": 1.48498,
    "l": 1.48376,
    "c": 1.48443,
    "v": 2629
  },
  {
    "dt": "2023.07.14 23:00",
    "o": 1.48441,
    "h": 1.48461,
    "l": 1.48301,
    "c": 1.48323,
    "v": 1571
  },
  {
    "dt": "2023.07.17 00:00",
    "o": 1.4829,
    "h": 1.48444,
    "l": 1.48257,
    "c": 1.48437,
    "v": 107
  },
  {
    "dt": "2023.07.17 01:00",
    "o": 1.48455,
    "h": 1.48532,
    "l": 1.48434,
    "c": 1.48493,
    "v": 1059
  },
  {
    "dt": "2023.07.17 02:00",
    "o": 1.48495,
    "h": 1.48528,
    "l": 1.48467,
    "c": 1.48489,
    "v": 1233
  },
  {
    "dt": "2023.07.17 03:00",
    "o": 1.48489,
    "h": 1.48511,
    "l": 1.48405,
    "c": 1.48422,
    "v": 2082
  },
  {
    "dt": "2023.07.17 04:00",
    "o": 1.48426,
    "h": 1.48446,
    "l": 1.48372,
    "c": 1.48391,
    "v": 2029
  },
  {
    "dt": "2023.07.17 05:00",
    "o": 1.48389,
    "h": 1.48477,
    "l": 1.48365,
    "c": 1.48458,
    "v": 1516
  },
  {
    "dt": "2023.07.17 06:00",
    "o": 1.48461,
    "h": 1.48479,
    "l": 1.4842,
    "c": 1.48431,
    "v": 1444
  },
  {
    "dt": "2023.07.17 07:00",
    "o": 1.48429,
    "h": 1.48431,
    "l": 1.48372,
    "c": 1.48402,
    "v": 1323
  },
  {
    "dt": "2023.07.17 08:00",
    "o": 1.48402,
    "h": 1.48527,
    "l": 1.48385,
    "c": 1.48507,
    "v": 1902
  },
  {
    "dt": "2023.07.17 09:00",
    "o": 1.48505,
    "h": 1.48544,
    "l": 1.48382,
    "c": 1.48412,
    "v": 2936
  },
  {
    "dt": "2023.07.17 10:00",
    "o": 1.4841,
    "h": 1.4866,
    "l": 1.48384,
    "c": 1.48648,
    "v": 3631
  },
  {
    "dt": "2023.07.17 11:00",
    "o": 1.48651,
    "h": 1.48713,
    "l": 1.48539,
    "c": 1.48556,
    "v": 3410
  },
  {
    "dt": "2023.07.17 12:00",
    "o": 1.48556,
    "h": 1.48644,
    "l": 1.48421,
    "c": 1.48633,
    "v": 3715
  },
  {
    "dt": "2023.07.17 13:00",
    "o": 1.48629,
    "h": 1.48634,
    "l": 1.48485,
    "c": 1.48508,
    "v": 3148
  },
  {
    "dt": "2023.07.17 14:00",
    "o": 1.48508,
    "h": 1.48552,
    "l": 1.48453,
    "c": 1.48478,
    "v": 2734
  },
  {
    "dt": "2023.07.17 15:00",
    "o": 1.48478,
    "h": 1.48524,
    "l": 1.48294,
    "c": 1.4841,
    "v": 4359
  },
  {
    "dt": "2023.07.17 16:00",
    "o": 1.48414,
    "h": 1.48414,
    "l": 1.47892,
    "c": 1.48,
    "v": 4775
  },
  {
    "dt": "2023.07.17 17:00",
    "o": 1.48003,
    "h": 1.48064,
    "l": 1.4776,
    "c": 1.47878,
    "v": 4574
  },
  {
    "dt": "2023.07.17 18:00",
    "o": 1.47884,
    "h": 1.48017,
    "l": 1.47833,
    "c": 1.4799,
    "v": 3491
  },
  {
    "dt": "2023.07.17 19:00",
    "o": 1.47994,
    "h": 1.48021,
    "l": 1.47941,
    "c": 1.47994,
    "v": 2592
  },
  {
    "dt": "2023.07.17 20:00",
    "o": 1.47995,
    "h": 1.4829,
    "l": 1.47985,
    "c": 1.48215,
    "v": 2623
  },
  {
    "dt": "2023.07.17 21:00",
    "o": 1.48216,
    "h": 1.48273,
    "l": 1.48193,
    "c": 1.48199,
    "v": 2455
  },
  {
    "dt": "2023.07.17 22:00",
    "o": 1.48198,
    "h": 1.48305,
    "l": 1.4819,
    "c": 1.483,
    "v": 2686
  },
  {
    "dt": "2023.07.17 23:00",
    "o": 1.483,
    "h": 1.48364,
    "l": 1.48244,
    "c": 1.48323,
    "v": 1816
  },
  {
    "dt": "2023.07.18 00:00",
    "o": 1.4823,
    "h": 1.48285,
    "l": 1.48201,
    "c": 1.48266,
    "v": 432
  },
  {
    "dt": "2023.07.18 01:00",
    "o": 1.48271,
    "h": 1.48336,
    "l": 1.48261,
    "c": 1.48314,
    "v": 847
  },
  {
    "dt": "2023.07.18 02:00",
    "o": 1.48313,
    "h": 1.48357,
    "l": 1.48294,
    "c": 1.48335,
    "v": 698
  },
  {
    "dt": "2023.07.18 03:00",
    "o": 1.48344,
    "h": 1.48394,
    "l": 1.48295,
    "c": 1.48353,
    "v": 1632
  },
  {
    "dt": "2023.07.18 04:00",
    "o": 1.48357,
    "h": 1.4843,
    "l": 1.48326,
    "c": 1.48402,
    "v": 2973
  },
  {
    "dt": "2023.07.18 05:00",
    "o": 1.48403,
    "h": 1.4842,
    "l": 1.48321,
    "c": 1.48322,
    "v": 2780
  },
  {
    "dt": "2023.07.18 06:00",
    "o": 1.48324,
    "h": 1.48413,
    "l": 1.48316,
    "c": 1.48383,
    "v": 1596
  },
  {
    "dt": "2023.07.18 07:00",
    "o": 1.48385,
    "h": 1.48404,
    "l": 1.48363,
    "c": 1.48401,
    "v": 1499
  },
  {
    "dt": "2023.07.18 08:00",
    "o": 1.48402,
    "h": 1.4852,
    "l": 1.48393,
    "c": 1.48417,
    "v": 2400
  },
  {
    "dt": "2023.07.18 09:00",
    "o": 1.48426,
    "h": 1.4853,
    "l": 1.48426,
    "c": 1.4853,
    "v": 3182
  },
  {
    "dt": "2023.07.18 10:00",
    "o": 1.48525,
    "h": 1.48797,
    "l": 1.48473,
    "c": 1.48597,
    "v": 4120
  },
  {
    "dt": "2023.07.18 11:00",
    "o": 1.48597,
    "h": 1.486,
    "l": 1.48292,
    "c": 1.48459,
    "v": 4176
  },
  {
    "dt": "2023.07.18 12:00",
    "o": 1.4846,
    "h": 1.48487,
    "l": 1.48364,
    "c": 1.48409,
    "v": 3213
  },
  {
    "dt": "2023.07.18 13:00",
    "o": 1.48409,
    "h": 1.48623,
    "l": 1.48395,
    "c": 1.48614,
    "v": 3152
  },
  {
    "dt": "2023.07.18 14:00",
    "o": 1.48612,
    "h": 1.48667,
    "l": 1.48493,
    "c": 1.48588,
    "v": 3261
  },
  {
    "dt": "2023.07.18 15:00",
    "o": 1.48601,
    "h": 1.48685,
    "l": 1.48283,
    "c": 1.48579,
    "v": 5041
  },
  {
    "dt": "2023.07.18 16:00",
    "o": 1.48581,
    "h": 1.48713,
    "l": 1.4826,
    "c": 1.48337,
    "v": 5444
  },
  {
    "dt": "2023.07.18 17:00",
    "o": 1.48331,
    "h": 1.48354,
    "l": 1.47954,
    "c": 1.48046,
    "v": 5232
  },
  {
    "dt": "2023.07.18 18:00",
    "o": 1.48049,
    "h": 1.48142,
    "l": 1.47863,
    "c": 1.47868,
    "v": 4255
  },
  {
    "dt": "2023.07.18 19:00",
    "o": 1.47868,
    "h": 1.48035,
    "l": 1.47793,
    "c": 1.47881,
    "v": 3273
  },
  {
    "dt": "2023.07.18 20:00",
    "o": 1.47883,
    "h": 1.47959,
    "l": 1.47837,
    "c": 1.4792,
    "v": 2859
  },
  {
    "dt": "2023.07.18 21:00",
    "o": 1.47919,
    "h": 1.47943,
    "l": 1.47854,
    "c": 1.47925,
    "v": 2959
  },
  {
    "dt": "2023.07.18 22:00",
    "o": 1.47924,
    "h": 1.4793,
    "l": 1.47865,
    "c": 1.4788,
    "v": 2356
  },
  {
    "dt": "2023.07.18 23:00",
    "o": 1.47883,
    "h": 1.47929,
    "l": 1.47826,
    "c": 1.47837,
    "v": 1582
  },
  {
    "dt": "2023.07.19 00:00",
    "o": 1.47807,
    "h": 1.47888,
    "l": 1.47804,
    "c": 1.47857,
    "v": 394
  },
  {
    "dt": "2023.07.19 01:00",
    "o": 1.47854,
    "h": 1.47894,
    "l": 1.47842,
    "c": 1.47846,
    "v": 727
  },
  {
    "dt": "2023.07.19 02:00",
    "o": 1.47845,
    "h": 1.47849,
    "l": 1.47771,
    "c": 1.47823,
    "v": 1511
  },
  {
    "dt": "2023.07.19 03:00",
    "o": 1.47823,
    "h": 1.47924,
    "l": 1.47822,
    "c": 1.47871,
    "v": 2176
  },
  {
    "dt": "2023.07.19 04:00",
    "o": 1.4787,
    "h": 1.4788,
    "l": 1.47782,
    "c": 1.47782,
    "v": 2660
  },
  {
    "dt": "2023.07.19 05:00",
    "o": 1.47781,
    "h": 1.47846,
    "l": 1.47766,
    "c": 1.47843,
    "v": 2210
  },
  {
    "dt": "2023.07.19 06:00",
    "o": 1.47842,
    "h": 1.4788,
    "l": 1.4782,
    "c": 1.47855,
    "v": 1636
  },
  {
    "dt": "2023.07.19 07:00",
    "o": 1.47855,
    "h": 1.47904,
    "l": 1.47832,
    "c": 1.47851,
    "v": 1556
  },
  {
    "dt": "2023.07.19 08:00",
    "o": 1.47855,
    "h": 1.47898,
    "l": 1.47818,
    "c": 1.47883,
    "v": 2321
  },
  {
    "dt": "2023.07.19 09:00",
    "o": 1.47879,
    "h": 1.47879,
    "l": 1.47572,
    "c": 1.47663,
    "v": 4583
  },
  {
    "dt": "2023.07.19 10:00",
    "o": 1.47662,
    "h": 1.48007,
    "l": 1.4765,
    "c": 1.47813,
    "v": 4439
  },
  {
    "dt": "2023.07.19 11:00",
    "o": 1.47805,
    "h": 1.47947,
    "l": 1.47754,
    "c": 1.47945,
    "v": 4030
  },
  {
    "dt": "2023.07.19 12:00",
    "o": 1.47945,
    "h": 1.48036,
    "l": 1.47873,
    "c": 1.47949,
    "v": 3524
  },
  {
    "dt": "2023.07.19 13:00",
    "o": 1.47948,
    "h": 1.47951,
    "l": 1.47819,
    "c": 1.47822,
    "v": 3451
  },
  {
    "dt": "2023.07.19 14:00",
    "o": 1.47827,
    "h": 1.47942,
    "l": 1.47803,
    "c": 1.47838,
    "v": 3503
  },
  {
    "dt": "2023.07.19 15:00",
    "o": 1.47841,
    "h": 1.47962,
    "l": 1.47748,
    "c": 1.4785,
    "v": 4311
  },
  {
    "dt": "2023.07.19 16:00",
    "o": 1.47853,
    "h": 1.47853,
    "l": 1.4758,
    "c": 1.47598,
    "v": 4540
  },
  {
    "dt": "2023.07.19 17:00",
    "o": 1.47599,
    "h": 1.47616,
    "l": 1.47245,
    "c": 1.4743,
    "v": 5067
  },
  {
    "dt": "2023.07.19 18:00",
    "o": 1.47429,
    "h": 1.47519,
    "l": 1.47301,
    "c": 1.47301,
    "v": 4340
  },
  {
    "dt": "2023.07.19 19:00",
    "o": 1.47303,
    "h": 1.47475,
    "l": 1.47273,
    "c": 1.47412,
    "v": 4179
  },
  {
    "dt": "2023.07.19 20:00",
    "o": 1.47413,
    "h": 1.47454,
    "l": 1.47304,
    "c": 1.4745,
    "v": 3429
  },
  {
    "dt": "2023.07.19 21:00",
    "o": 1.47451,
    "h": 1.47535,
    "l": 1.47382,
    "c": 1.47406,
    "v": 2954
  },
  {
    "dt": "2023.07.19 22:00",
    "o": 1.47411,
    "h": 1.47532,
    "l": 1.47384,
    "c": 1.4751,
    "v": 2999
  },
  {
    "dt": "2023.07.19 23:00",
    "o": 1.47511,
    "h": 1.47511,
    "l": 1.47438,
    "c": 1.47455,
    "v": 1639
  },
  {
    "dt": "2023.07.20 00:00",
    "o": 1.4737,
    "h": 1.47451,
    "l": 1.47358,
    "c": 1.474,
    "v": 604
  },
  {
    "dt": "2023.07.20 01:00",
    "o": 1.47411,
    "h": 1.47495,
    "l": 1.4739,
    "c": 1.47432,
    "v": 1025
  },
  {
    "dt": "2023.07.20 02:00",
    "o": 1.4743,
    "h": 1.47484,
    "l": 1.4742,
    "c": 1.47479,
    "v": 1370
  },
  {
    "dt": "2023.07.20 03:00",
    "o": 1.47482,
    "h": 1.47589,
    "l": 1.47458,
    "c": 1.47574,
    "v": 2187
  },
  {
    "dt": "2023.07.20 04:00",
    "o": 1.47572,
    "h": 1.47582,
    "l": 1.47415,
    "c": 1.47467,
    "v": 3496
  },
  {
    "dt": "2023.07.20 05:00",
    "o": 1.4747,
    "h": 1.47545,
    "l": 1.47458,
    "c": 1.47471,
    "v": 2640
  },
  {
    "dt": "2023.07.20 06:00",
    "o": 1.4747,
    "h": 1.47505,
    "l": 1.47448,
    "c": 1.47495,
    "v": 1981
  },
  {
    "dt": "2023.07.20 07:00",
    "o": 1.47493,
    "h": 1.47503,
    "l": 1.47457,
    "c": 1.47488,
    "v": 1740
  },
  {
    "dt": "2023.07.20 08:00",
    "o": 1.4749,
    "h": 1.47518,
    "l": 1.47392,
    "c": 1.47405,
    "v": 2555
  },
  {
    "dt": "2023.07.20 09:00",
    "o": 1.47413,
    "h": 1.47487,
    "l": 1.47313,
    "c": 1.47341,
    "v": 3153
  },
  {
    "dt": "2023.07.20 10:00",
    "o": 1.47339,
    "h": 1.47367,
    "l": 1.47161,
    "c": 1.47255,
    "v": 4166
  },
  {
    "dt": "2023.07.20 11:00",
    "o": 1.47253,
    "h": 1.47288,
    "l": 1.47011,
    "c": 1.47085,
    "v": 3580
  },
  {
    "dt": "2023.07.20 12:00",
    "o": 1.47073,
    "h": 1.47206,
    "l": 1.47049,
    "c": 1.47142,
    "v": 3246
  },
  {
    "dt": "2023.07.20 13:00",
    "o": 1.47142,
    "h": 1.47155,
    "l": 1.4704,
    "c": 1.47061,
    "v": 3251
  },
  {
    "dt": "2023.07.20 14:00",
    "o": 1.47057,
    "h": 1.47218,
    "l": 1.47015,
    "c": 1.47178,
    "v": 3283
  },
  {
    "dt": "2023.07.20 15:00",
    "o": 1.47178,
    "h": 1.47181,
    "l": 1.46976,
    "c": 1.47018,
    "v": 4628
  },
  {
    "dt": "2023.07.20 16:00",
    "o": 1.47021,
    "h": 1.47136,
    "l": 1.46951,
    "c": 1.47087,
    "v": 4630
  },
  {
    "dt": "2023.07.20 17:00",
    "o": 1.47101,
    "h": 1.47183,
    "l": 1.46832,
    "c": 1.46845,
    "v": 5542
  },
  {
    "dt": "2023.07.20 18:00",
    "o": 1.46846,
    "h": 1.46937,
    "l": 1.46775,
    "c": 1.46787,
    "v": 4226
  },
  {
    "dt": "2023.07.20 19:00",
    "o": 1.46786,
    "h": 1.46811,
    "l": 1.46531,
    "c": 1.46601,
    "v": 3432
  },
  {
    "dt": "2023.07.20 20:00",
    "o": 1.46606,
    "h": 1.46638,
    "l": 1.46478,
    "c": 1.4662,
    "v": 2969
  },
  {
    "dt": "2023.07.20 21:00",
    "o": 1.46617,
    "h": 1.46631,
    "l": 1.46567,
    "c": 1.46588,
    "v": 2753
  },
  {
    "dt": "2023.07.20 22:00",
    "o": 1.46587,
    "h": 1.46706,
    "l": 1.46587,
    "c": 1.46624,
    "v": 2819
  },
  {
    "dt": "2023.07.20 23:00",
    "o": 1.46623,
    "h": 1.46628,
    "l": 1.46567,
    "c": 1.4659,
    "v": 1249
  },
  {
    "dt": "2023.07.21 00:00",
    "o": 1.46558,
    "h": 1.46663,
    "l": 1.46546,
    "c": 1.46652,
    "v": 607
  },
  {
    "dt": "2023.07.21 01:00",
    "o": 1.4663,
    "h": 1.46684,
    "l": 1.46621,
    "c": 1.4668,
    "v": 1113
  },
  {
    "dt": "2023.07.21 02:00",
    "o": 1.46682,
    "h": 1.46709,
    "l": 1.46667,
    "c": 1.46676,
    "v": 1697
  },
  {
    "dt": "2023.07.21 03:00",
    "o": 1.46675,
    "h": 1.46691,
    "l": 1.46627,
    "c": 1.46667,
    "v": 2155
  },
  {
    "dt": "2023.07.21 04:00",
    "o": 1.46663,
    "h": 1.4672,
    "l": 1.46651,
    "c": 1.46684,
    "v": 2769
  },
  {
    "dt": "2023.07.21 05:00",
    "o": 1.46685,
    "h": 1.46685,
    "l": 1.46591,
    "c": 1.46621,
    "v": 2307
  },
  {
    "dt": "2023.07.21 06:00",
    "o": 1.46621,
    "h": 1.46646,
    "l": 1.46612,
    "c": 1.46645,
    "v": 1613
  },
  {
    "dt": "2023.07.21 07:00",
    "o": 1.46646,
    "h": 1.46676,
    "l": 1.46633,
    "c": 1.46671,
    "v": 1698
  },
  {
    "dt": "2023.07.21 08:00",
    "o": 1.46673,
    "h": 1.4676,
    "l": 1.46653,
    "c": 1.46754,
    "v": 1839
  },
  {
    "dt": "2023.07.21 09:00",
    "o": 1.46755,
    "h": 1.4676,
    "l": 1.46613,
    "c": 1.46674,
    "v": 2843
  },
  {
    "dt": "2023.07.21 10:00",
    "o": 1.46663,
    "h": 1.46667,
    "l": 1.46487,
    "c": 1.46567,
    "v": 4083
  },
  {
    "dt": "2023.07.21 11:00",
    "o": 1.46564,
    "h": 1.46739,
    "l": 1.46541,
    "c": 1.46634,
    "v": 4393
  },
  {
    "dt": "2023.07.21 12:00",
    "o": 1.46632,
    "h": 1.46685,
    "l": 1.46485,
    "c": 1.4651,
    "v": 3584
  },
  {
    "dt": "2023.07.21 13:00",
    "o": 1.46508,
    "h": 1.46559,
    "l": 1.4632,
    "c": 1.46346,
    "v": 3246
  },
  {
    "dt": "2023.07.21 14:00",
    "o": 1.46353,
    "h": 1.46691,
    "l": 1.4635,
    "c": 1.46645,
    "v": 3231
  },
  {
    "dt": "2023.07.21 15:00",
    "o": 1.46645,
    "h": 1.47078,
    "l": 1.46606,
    "c": 1.46995,
    "v": 4185
  },
  {
    "dt": "2023.07.21 16:00",
    "o": 1.46991,
    "h": 1.47032,
    "l": 1.46824,
    "c": 1.46969,
    "v": 4670
  },
  {
    "dt": "2023.07.21 17:00",
    "o": 1.4698,
    "h": 1.4698,
    "l": 1.4672,
    "c": 1.4676,
    "v": 4394
  },
  {
    "dt": "2023.07.21 18:00",
    "o": 1.46765,
    "h": 1.47056,
    "l": 1.46752,
    "c": 1.46971,
    "v": 3962
  },
  {
    "dt": "2023.07.21 19:00",
    "o": 1.4697,
    "h": 1.4701,
    "l": 1.46878,
    "c": 1.46948,
    "v": 2821
  },
  {
    "dt": "2023.07.21 20:00",
    "o": 1.46948,
    "h": 1.4704,
    "l": 1.46928,
    "c": 1.46964,
    "v": 2720
  },
  {
    "dt": "2023.07.21 21:00",
    "o": 1.46963,
    "h": 1.4702,
    "l": 1.46887,
    "c": 1.4689,
    "v": 2761
  },
  {
    "dt": "2023.07.21 22:00",
    "o": 1.46892,
    "h": 1.47031,
    "l": 1.46862,
    "c": 1.47031,
    "v": 2769
  },
  {
    "dt": "2023.07.21 23:00",
    "o": 1.47038,
    "h": 1.47131,
    "l": 1.46994,
    "c": 1.47098,
    "v": 1750
  },
  {
    "dt": "2023.07.24 00:00",
    "o": 1.47032,
    "h": 1.47119,
    "l": 1.47007,
    "c": 1.47065,
    "v": 96
  },
  {
    "dt": "2023.07.24 01:00",
    "o": 1.47027,
    "h": 1.47155,
    "l": 1.46996,
    "c": 1.47146,
    "v": 1112
  },
  {
    "dt": "2023.07.24 02:00",
    "o": 1.47146,
    "h": 1.47182,
    "l": 1.47098,
    "c": 1.47111,
    "v": 872
  },
  {
    "dt": "2023.07.24 03:00",
    "o": 1.4711,
    "h": 1.47155,
    "l": 1.47085,
    "c": 1.47094,
    "v": 1438
  },
  {
    "dt": "2023.07.24 04:00",
    "o": 1.47088,
    "h": 1.47121,
    "l": 1.47043,
    "c": 1.47096,
    "v": 2917
  },
  {
    "dt": "2023.07.24 05:00",
    "o": 1.47095,
    "h": 1.47137,
    "l": 1.4707,
    "c": 1.47074,
    "v": 2387
  },
  {
    "dt": "2023.07.24 06:00",
    "o": 1.47073,
    "h": 1.47092,
    "l": 1.4705,
    "c": 1.47055,
    "v": 1484
  },
  {
    "dt": "2023.07.24 07:00",
    "o": 1.47052,
    "h": 1.47053,
    "l": 1.46961,
    "c": 1.46968,
    "v": 1477
  },
  {
    "dt": "2023.07.24 08:00",
    "o": 1.46964,
    "h": 1.47061,
    "l": 1.46954,
    "c": 1.47052,
    "v": 2473
  },
  {
    "dt": "2023.07.24 09:00",
    "o": 1.47045,
    "h": 1.47167,
    "l": 1.4703,
    "c": 1.47096,
    "v": 2985
  },
  {
    "dt": "2023.07.24 10:00",
    "o": 1.47089,
    "h": 1.47173,
    "l": 1.46273,
    "c": 1.46318,
    "v": 4764
  },
  {
    "dt": "2023.07.24 11:00",
    "o": 1.46319,
    "h": 1.46385,
    "l": 1.4611,
    "c": 1.46121,
    "v": 4511
  },
  {
    "dt": "2023.07.24 12:00",
    "o": 1.46121,
    "h": 1.46247,
    "l": 1.46101,
    "c": 1.46164,
    "v": 3866
  },
  {
    "dt": "2023.07.24 13:00",
    "o": 1.46162,
    "h": 1.46383,
    "l": 1.46142,
    "c": 1.46369,
    "v": 3172
  },
  {
    "dt": "2023.07.24 14:00",
    "o": 1.46371,
    "h": 1.46458,
    "l": 1.46295,
    "c": 1.46342,
    "v": 3487
  },
  {
    "dt": "2023.07.24 15:00",
    "o": 1.4635,
    "h": 1.46416,
    "l": 1.4621,
    "c": 1.46285,
    "v": 3829
  },
  {
    "dt": "2023.07.24 16:00",
    "o": 1.46285,
    "h": 1.46387,
    "l": 1.4612,
    "c": 1.46193,
    "v": 4891
  },
  {
    "dt": "2023.07.24 17:00",
    "o": 1.46195,
    "h": 1.4623,
    "l": 1.45797,
    "c": 1.45948,
    "v": 4969
  },
  {
    "dt": "2023.07.24 18:00",
    "o": 1.4595,
    "h": 1.45977,
    "l": 1.45771,
    "c": 1.45777,
    "v": 3888
  },
  {
    "dt": "2023.07.24 19:00",
    "o": 1.45782,
    "h": 1.45818,
    "l": 1.45693,
    "c": 1.45756,
    "v": 3570
  },
  {
    "dt": "2023.07.24 20:00",
    "o": 1.45755,
    "h": 1.45768,
    "l": 1.45612,
    "c": 1.45724,
    "v": 2956
  },
  {
    "dt": "2023.07.24 21:00",
    "o": 1.45721,
    "h": 1.45788,
    "l": 1.45694,
    "c": 1.45763,
    "v": 2680
  },
  {
    "dt": "2023.07.24 22:00",
    "o": 1.45762,
    "h": 1.4577,
    "l": 1.45646,
    "c": 1.45648,
    "v": 2668
  },
  {
    "dt": "2023.07.24 23:00",
    "o": 1.45649,
    "h": 1.45719,
    "l": 1.45648,
    "c": 1.45686,
    "v": 1397
  },
  {
    "dt": "2023.07.25 00:00",
    "o": 1.45684,
    "h": 1.45746,
    "l": 1.45624,
    "c": 1.45649,
    "v": 710
  },
  {
    "dt": "2023.07.25 01:00",
    "o": 1.45642,
    "h": 1.4572,
    "l": 1.45642,
    "c": 1.45693,
    "v": 850
  },
  {
    "dt": "2023.07.25 02:00",
    "o": 1.4569,
    "h": 1.45749,
    "l": 1.45671,
    "c": 1.45744,
    "v": 932
  },
  {
    "dt": "2023.07.25 03:00",
    "o": 1.45745,
    "h": 1.45789,
    "l": 1.45717,
    "c": 1.45757,
    "v": 1626
  },
  {
    "dt": "2023.07.25 04:00",
    "o": 1.4576,
    "h": 1.45813,
    "l": 1.45741,
    "c": 1.45744,
    "v": 2468
  },
  {
    "dt": "2023.07.25 05:00",
    "o": 1.45742,
    "h": 1.45755,
    "l": 1.45692,
    "c": 1.45747,
    "v": 2026
  },
  {
    "dt": "2023.07.25 06:00",
    "o": 1.45743,
    "h": 1.45765,
    "l": 1.45716,
    "c": 1.45719,
    "v": 1850
  },
  {
    "dt": "2023.07.25 07:00",
    "o": 1.45719,
    "h": 1.45762,
    "l": 1.45656,
    "c": 1.45703,
    "v": 1259
  },
  {
    "dt": "2023.07.25 08:00",
    "o": 1.45701,
    "h": 1.45742,
    "l": 1.45673,
    "c": 1.45705,
    "v": 1957
  },
  {
    "dt": "2023.07.25 09:00",
    "o": 1.45715,
    "h": 1.45842,
    "l": 1.45667,
    "c": 1.45705,
    "v": 2618
  },
  {
    "dt": "2023.07.25 10:00",
    "o": 1.45703,
    "h": 1.45828,
    "l": 1.45625,
    "c": 1.45723,
    "v": 3934
  },
  {
    "dt": "2023.07.25 11:00",
    "o": 1.45725,
    "h": 1.45727,
    "l": 1.45517,
    "c": 1.45626,
    "v": 4104
  },
  {
    "dt": "2023.07.25 12:00",
    "o": 1.45627,
    "h": 1.45674,
    "l": 1.45493,
    "c": 1.45518,
    "v": 3201
  },
  {
    "dt": "2023.07.25 13:00",
    "o": 1.45516,
    "h": 1.45558,
    "l": 1.45498,
    "c": 1.45517,
    "v": 2645
  },
  {
    "dt": "2023.07.25 14:00",
    "o": 1.45517,
    "h": 1.45649,
    "l": 1.45461,
    "c": 1.45577,
    "v": 3078
  },
  {
    "dt": "2023.07.25 15:00",
    "o": 1.4558,
    "h": 1.45758,
    "l": 1.45535,
    "c": 1.45681,
    "v": 3390
  },
  {
    "dt": "2023.07.25 16:00",
    "o": 1.45682,
    "h": 1.458,
    "l": 1.45435,
    "c": 1.45642,
    "v": 4157
  },
  {
    "dt": "2023.07.25 17:00",
    "o": 1.45642,
    "h": 1.45703,
    "l": 1.45429,
    "c": 1.45692,
    "v": 4621
  },
  {
    "dt": "2023.07.25 18:00",
    "o": 1.45694,
    "h": 1.45799,
    "l": 1.45605,
    "c": 1.4562,
    "v": 3366
  },
  {
    "dt": "2023.07.25 19:00",
    "o": 1.45622,
    "h": 1.45697,
    "l": 1.45575,
    "c": 1.45603,
    "v": 3046
  },
  {
    "dt": "2023.07.25 20:00",
    "o": 1.45602,
    "h": 1.45603,
    "l": 1.45427,
    "c": 1.45432,
    "v": 2782
  },
  {
    "dt": "2023.07.25 21:00",
    "o": 1.45433,
    "h": 1.45518,
    "l": 1.45287,
    "c": 1.4548,
    "v": 2837
  },
  {
    "dt": "2023.07.25 22:00",
    "o": 1.45479,
    "h": 1.45593,
    "l": 1.45457,
    "c": 1.45573,
    "v": 2904
  },
  {
    "dt": "2023.07.25 23:00",
    "o": 1.4557,
    "h": 1.4562,
    "l": 1.4556,
    "c": 1.45607,
    "v": 1845
  },
  {
    "dt": "2023.07.26 00:00",
    "o": 1.45486,
    "h": 1.45672,
    "l": 1.45486,
    "c": 1.45651,
    "v": 548
  },
  {
    "dt": "2023.07.26 01:00",
    "o": 1.45643,
    "h": 1.45689,
    "l": 1.45609,
    "c": 1.45686,
    "v": 1053
  },
  {
    "dt": "2023.07.26 02:00",
    "o": 1.45686,
    "h": 1.45724,
    "l": 1.4567,
    "c": 1.457,
    "v": 1141
  },
  {
    "dt": "2023.07.26 03:00",
    "o": 1.45699,
    "h": 1.45718,
    "l": 1.45622,
    "c": 1.45669,
    "v": 1759
  },
  {
    "dt": "2023.07.26 04:00",
    "o": 1.45669,
    "h": 1.45761,
    "l": 1.4563,
    "c": 1.45638,
    "v": 2647
  },
  {
    "dt": "2023.07.26 05:00",
    "o": 1.45642,
    "h": 1.45698,
    "l": 1.45624,
    "c": 1.45648,
    "v": 2099
  },
  {
    "dt": "2023.07.26 06:00",
    "o": 1.45651,
    "h": 1.45672,
    "l": 1.4561,
    "c": 1.4566,
    "v": 1436
  },
  {
    "dt": "2023.07.26 07:00",
    "o": 1.4566,
    "h": 1.45722,
    "l": 1.45651,
    "c": 1.45718,
    "v": 1198
  },
  {
    "dt": "2023.07.26 08:00",
    "o": 1.45719,
    "h": 1.45832,
    "l": 1.45681,
    "c": 1.45821,
    "v": 2650
  },
  {
    "dt": "2023.07.26 09:00",
    "o": 1.45819,
    "h": 1.45851,
    "l": 1.45759,
    "c": 1.45825,
    "v": 3442
  },
  {
    "dt": "2023.07.26 10:00",
    "o": 1.45827,
    "h": 1.46039,
    "l": 1.45794,
    "c": 1.45955,
    "v": 4243
  },
  {
    "dt": "2023.07.26 11:00",
    "o": 1.45955,
    "h": 1.46197,
    "l": 1.45913,
    "c": 1.46154,
    "v": 3971
  },
  {
    "dt": "2023.07.26 12:00",
    "o": 1.46156,
    "h": 1.46289,
    "l": 1.46122,
    "c": 1.46273,
    "v": 3188
  },
  {
    "dt": "2023.07.26 13:00",
    "o": 1.46271,
    "h": 1.46412,
    "l": 1.46255,
    "c": 1.46382,
    "v": 3449
  },
  {
    "dt": "2023.07.26 14:00",
    "o": 1.46381,
    "h": 1.46422,
    "l": 1.4616,
    "c": 1.46192,
    "v": 3366
  },
  {
    "dt": "2023.07.26 15:00",
    "o": 1.46192,
    "h": 1.46498,
    "l": 1.46156,
    "c": 1.46436,
    "v": 3692
  },
  {
    "dt": "2023.07.26 16:00",
    "o": 1.46437,
    "h": 1.46457,
    "l": 1.4612,
    "c": 1.46152,
    "v": 4608
  },
  {
    "dt": "2023.07.26 17:00",
    "o": 1.46136,
    "h": 1.46312,
    "l": 1.46023,
    "c": 1.46241,
    "v": 4414
  },
  {
    "dt": "2023.07.26 18:00",
    "o": 1.46239,
    "h": 1.46474,
    "l": 1.46156,
    "c": 1.4642,
    "v": 4457
  },
  {
    "dt": "2023.07.26 19:00",
    "o": 1.46418,
    "h": 1.46519,
    "l": 1.4636,
    "c": 1.46383,
    "v": 3391
  },
  {
    "dt": "2023.07.26 20:00",
    "o": 1.46378,
    "h": 1.46475,
    "l": 1.46298,
    "c": 1.46308,
    "v": 2896
  },
  {
    "dt": "2023.07.26 21:00",
    "o": 1.46277,
    "h": 1.46534,
    "l": 1.46277,
    "c": 1.46509,
    "v": 5807
  },
  {
    "dt": "2023.07.26 22:00",
    "o": 1.46505,
    "h": 1.46557,
    "l": 1.46405,
    "c": 1.46476,
    "v": 4669
  },
  {
    "dt": "2023.07.26 23:00",
    "o": 1.46476,
    "h": 1.46481,
    "l": 1.46322,
    "c": 1.46401,
    "v": 1781
  },
  {
    "dt": "2023.07.27 00:00",
    "o": 1.463,
    "h": 1.4644,
    "l": 1.46297,
    "c": 1.46334,
    "v": 359
  },
  {
    "dt": "2023.07.27 01:00",
    "o": 1.46329,
    "h": 1.46432,
    "l": 1.46329,
    "c": 1.46391,
    "v": 1136
  },
  {
    "dt": "2023.07.27 02:00",
    "o": 1.46387,
    "h": 1.46405,
    "l": 1.46264,
    "c": 1.46265,
    "v": 809
  },
  {
    "dt": "2023.07.27 03:00",
    "o": 1.46263,
    "h": 1.46304,
    "l": 1.46172,
    "c": 1.46178,
    "v": 2023
  },
  {
    "dt": "2023.07.27 04:00",
    "o": 1.46182,
    "h": 1.46311,
    "l": 1.4616,
    "c": 1.46291,
    "v": 2631
  },
  {
    "dt": "2023.07.27 05:00",
    "o": 1.4629,
    "h": 1.46349,
    "l": 1.46224,
    "c": 1.46264,
    "v": 3167
  },
  {
    "dt": "2023.07.27 06:00",
    "o": 1.46262,
    "h": 1.46303,
    "l": 1.46237,
    "c": 1.46243,
    "v": 1817
  },
  {
    "dt": "2023.07.27 07:00",
    "o": 1.46241,
    "h": 1.46267,
    "l": 1.46143,
    "c": 1.46143,
    "v": 1980
  },
  {
    "dt": "2023.07.27 08:00",
    "o": 1.46139,
    "h": 1.46255,
    "l": 1.46131,
    "c": 1.46161,
    "v": 2301
  },
  {
    "dt": "2023.07.27 09:00",
    "o": 1.46162,
    "h": 1.46273,
    "l": 1.46132,
    "c": 1.46228,
    "v": 3504
  },
  {
    "dt": "2023.07.27 10:00",
    "o": 1.4624,
    "h": 1.46611,
    "l": 1.46217,
    "c": 1.46559,
    "v": 4317
  },
  {
    "dt": "2023.07.27 11:00",
    "o": 1.46556,
    "h": 1.46643,
    "l": 1.46498,
    "c": 1.46613,
    "v": 3782
  },
  {
    "dt": "2023.07.27 12:00",
    "o": 1.46611,
    "h": 1.46767,
    "l": 1.46519,
    "c": 1.46762,
    "v": 3617
  },
  {
    "dt": "2023.07.27 13:00",
    "o": 1.46765,
    "h": 1.47005,
    "l": 1.46747,
    "c": 1.46771,
    "v": 3364
  },
  {
    "dt": "2023.07.27 14:00",
    "o": 1.46767,
    "h": 1.46796,
    "l": 1.46653,
    "c": 1.46668,
    "v": 3358
  },
  {
    "dt": "2023.07.27 15:00",
    "o": 1.46673,
    "h": 1.46705,
    "l": 1.45531,
    "c": 1.45684,
    "v": 5677
  },
  {
    "dt": "2023.07.27 16:00",
    "o": 1.4568,
    "h": 1.45775,
    "l": 1.45013,
    "c": 1.45259,
    "v": 5893
  },
  {
    "dt": "2023.07.27 17:00",
    "o": 1.45256,
    "h": 1.45302,
    "l": 1.44884,
    "c": 1.45032,
    "v": 5629
  },
  {
    "dt": "2023.07.27 18:00",
    "o": 1.45037,
    "h": 1.45195,
    "l": 1.44973,
    "c": 1.45095,
    "v": 4409
  },
  {
    "dt": "2023.07.27 19:00",
    "o": 1.45095,
    "h": 1.45152,
    "l": 1.44915,
    "c": 1.44956,
    "v": 3251
  },
  {
    "dt": "2023.07.27 20:00",
    "o": 1.44961,
    "h": 1.45262,
    "l": 1.44908,
    "c": 1.45259,
    "v": 4834
  },
  {
    "dt": "2023.07.27 21:00",
    "o": 1.45255,
    "h": 1.45312,
    "l": 1.45155,
    "c": 1.45166,
    "v": 4154
  },
  {
    "dt": "2023.07.27 22:00",
    "o": 1.45166,
    "h": 1.45215,
    "l": 1.4511,
    "c": 1.45141,
    "v": 3801
  },
  {
    "dt": "2023.07.27 23:00",
    "o": 1.45141,
    "h": 1.45167,
    "l": 1.45101,
    "c": 1.45143,
    "v": 1803
  },
  {
    "dt": "2023.07.28 00:00",
    "o": 1.4515,
    "h": 1.45176,
    "l": 1.45058,
    "c": 1.45121,
    "v": 388
  },
  {
    "dt": "2023.07.28 01:00",
    "o": 1.45139,
    "h": 1.45227,
    "l": 1.45133,
    "c": 1.45227,
    "v": 955
  },
  {
    "dt": "2023.07.28 02:00",
    "o": 1.45227,
    "h": 1.45256,
    "l": 1.45172,
    "c": 1.45205,
    "v": 1236
  },
  {
    "dt": "2023.07.28 03:00",
    "o": 1.45206,
    "h": 1.4529,
    "l": 1.45202,
    "c": 1.45284,
    "v": 2064
  },
  {
    "dt": "2023.07.28 04:00",
    "o": 1.45282,
    "h": 1.45283,
    "l": 1.45179,
    "c": 1.45252,
    "v": 2836
  },
  {
    "dt": "2023.07.28 05:00",
    "o": 1.4525,
    "h": 1.45303,
    "l": 1.45227,
    "c": 1.45242,
    "v": 2546
  },
  {
    "dt": "2023.07.28 06:00",
    "o": 1.45239,
    "h": 1.45293,
    "l": 1.45128,
    "c": 1.45228,
    "v": 3539
  },
  {
    "dt": "2023.07.28 07:00",
    "o": 1.45229,
    "h": 1.45332,
    "l": 1.4515,
    "c": 1.45274,
    "v": 4252
  },
  {
    "dt": "2023.07.28 08:00",
    "o": 1.45275,
    "h": 1.45283,
    "l": 1.44831,
    "c": 1.452,
    "v": 3449
  },
  {
    "dt": "2023.07.28 09:00",
    "o": 1.45198,
    "h": 1.45373,
    "l": 1.45129,
    "c": 1.45296,
    "v": 4388
  },
  {
    "dt": "2023.07.28 10:00",
    "o": 1.45261,
    "h": 1.45363,
    "l": 1.44957,
    "c": 1.4505,
    "v": 5001
  },
  {
    "dt": "2023.07.28 11:00",
    "o": 1.45058,
    "h": 1.45159,
    "l": 1.44934,
    "c": 1.45104,
    "v": 4210
  },
  {
    "dt": "2023.07.28 12:00",
    "o": 1.4512,
    "h": 1.45127,
    "l": 1.45004,
    "c": 1.45086,
    "v": 3997
  },
  {
    "dt": "2023.07.28 13:00",
    "o": 1.45084,
    "h": 1.45478,
    "l": 1.45067,
    "c": 1.45455,
    "v": 3526
  },
  {
    "dt": "2023.07.28 14:00",
    "o": 1.45458,
    "h": 1.45594,
    "l": 1.45441,
    "c": 1.45475,
    "v": 3778
  },
  {
    "dt": "2023.07.28 15:00",
    "o": 1.45478,
    "h": 1.45649,
    "l": 1.45409,
    "c": 1.45498,
    "v": 4748
  },
  {
    "dt": "2023.07.28 16:00",
    "o": 1.45499,
    "h": 1.45804,
    "l": 1.45416,
    "c": 1.45774,
    "v": 5206
  },
  {
    "dt": "2023.07.28 17:00",
    "o": 1.45754,
    "h": 1.46168,
    "l": 1.45741,
    "c": 1.46027,
    "v": 4652
  },
  {
    "dt": "2023.07.28 18:00",
    "o": 1.46027,
    "h": 1.46036,
    "l": 1.45837,
    "c": 1.45992,
    "v": 3898
  },
  {
    "dt": "2023.07.28 19:00",
    "o": 1.45996,
    "h": 1.4605,
    "l": 1.45852,
    "c": 1.45853,
    "v": 3634
  },
  {
    "dt": "2023.07.28 20:00",
    "o": 1.45856,
    "h": 1.45969,
    "l": 1.45826,
    "c": 1.45909,
    "v": 3704
  },
  {
    "dt": "2023.07.28 21:00",
    "o": 1.45902,
    "h": 1.45956,
    "l": 1.45865,
    "c": 1.45935,
    "v": 3291
  },
  {
    "dt": "2023.07.28 22:00",
    "o": 1.45934,
    "h": 1.45961,
    "l": 1.4583,
    "c": 1.45877,
    "v": 3251
  },
  {
    "dt": "2023.07.28 23:00",
    "o": 1.45876,
    "h": 1.45971,
    "l": 1.45801,
    "c": 1.45943,
    "v": 1914
  },
  {
    "dt": "2023.07.31 00:00",
    "o": 1.45824,
    "h": 1.45969,
    "l": 1.45823,
    "c": 1.45924,
    "v": 122
  },
  {
    "dt": "2023.07.31 01:00",
    "o": 1.45933,
    "h": 1.46078,
    "l": 1.45928,
    "c": 1.46061,
    "v": 1394
  },
  {
    "dt": "2023.07.31 02:00",
    "o": 1.46065,
    "h": 1.46107,
    "l": 1.4604,
    "c": 1.46073,
    "v": 1242
  },
  {
    "dt": "2023.07.31 03:00",
    "o": 1.46076,
    "h": 1.46092,
    "l": 1.45999,
    "c": 1.46008,
    "v": 1585
  },
  {
    "dt": "2023.07.31 04:00",
    "o": 1.46008,
    "h": 1.46127,
    "l": 1.45944,
    "c": 1.45955,
    "v": 2467
  },
  {
    "dt": "2023.07.31 05:00",
    "o": 1.45956,
    "h": 1.45957,
    "l": 1.45822,
    "c": 1.4586,
    "v": 2552
  },
  {
    "dt": "2023.07.31 06:00",
    "o": 1.45864,
    "h": 1.45934,
    "l": 1.45848,
    "c": 1.45912,
    "v": 2069
  },
  {
    "dt": "2023.07.31 07:00",
    "o": 1.45913,
    "h": 1.45932,
    "l": 1.45831,
    "c": 1.45843,
    "v": 1361
  },
  {
    "dt": "2023.07.31 08:00",
    "o": 1.45841,
    "h": 1.45932,
    "l": 1.45841,
    "c": 1.45926,
    "v": 2103
  },
  {
    "dt": "2023.07.31 09:00",
    "o": 1.45913,
    "h": 1.45916,
    "l": 1.4566,
    "c": 1.45746,
    "v": 3512
  },
  {
    "dt": "2023.07.31 10:00",
    "o": 1.45751,
    "h": 1.45957,
    "l": 1.45751,
    "c": 1.45919,
    "v": 4031
  },
  {
    "dt": "2023.07.31 11:00",
    "o": 1.45921,
    "h": 1.4602,
    "l": 1.45743,
    "c": 1.46005,
    "v": 4001
  },
  {
    "dt": "2023.07.31 12:00",
    "o": 1.46008,
    "h": 1.46024,
    "l": 1.45873,
    "c": 1.45904,
    "v": 3252
  },
  {
    "dt": "2023.07.31 13:00",
    "o": 1.45903,
    "h": 1.46019,
    "l": 1.45852,
    "c": 1.45859,
    "v": 2778
  },
  {
    "dt": "2023.07.31 14:00",
    "o": 1.45856,
    "h": 1.45856,
    "l": 1.45674,
    "c": 1.45711,
    "v": 2854
  },
  {
    "dt": "2023.07.31 15:00",
    "o": 1.45709,
    "h": 1.45759,
    "l": 1.45548,
    "c": 1.45661,
    "v": 3890
  },
  {
    "dt": "2023.07.31 16:00",
    "o": 1.45662,
    "h": 1.45673,
    "l": 1.45395,
    "c": 1.45398,
    "v": 4387
  },
  {
    "dt": "2023.07.31 17:00",
    "o": 1.45395,
    "h": 1.45491,
    "l": 1.45086,
    "c": 1.451,
    "v": 4702
  },
  {
    "dt": "2023.07.31 18:00",
    "o": 1.45103,
    "h": 1.45127,
    "l": 1.44887,
    "c": 1.44997,
    "v": 3771
  },
  {
    "dt": "2023.07.31 19:00",
    "o": 1.44997,
    "h": 1.45036,
    "l": 1.44831,
    "c": 1.44894,
    "v": 3043
  },
  {
    "dt": "2023.07.31 20:00",
    "o": 1.44894,
    "h": 1.4497,
    "l": 1.44834,
    "c": 1.44957,
    "v": 2306
  },
  {
    "dt": "2023.07.31 21:00",
    "o": 1.44959,
    "h": 1.44996,
    "l": 1.44875,
    "c": 1.44906,
    "v": 3144
  },
  {
    "dt": "2023.07.31 22:00",
    "o": 1.44911,
    "h": 1.44977,
    "l": 1.44901,
    "c": 1.44966,
    "v": 2958
  },
  {
    "dt": "2023.07.31 23:00",
    "o": 1.44966,
    "h": 1.45035,
    "l": 1.44961,
    "c": 1.45017,
    "v": 1410
  }
]