[
  {
    "dt": "2022.08.01 00:00",
    "o": 136.117,
    "h": 136.218,
    "l": 136.07,
    "c": 136.106,
    "v": 352
  },
  {
    "dt": "2022.08.01 01:00",
    "o": 136.193,
    "h": 136.251,
    "l": 136.096,
    "c": 136.201,
    "v": 1781
  },
  {
    "dt": "2022.08.01 02:00",
    "o": 136.2,
    "h": 136.331,
    "l": 136.137,
    "c": 136.169,
    "v": 2060
  },
  {
    "dt": "2022.08.01 03:00",
    "o": 136.153,
    "h": 136.219,
    "l": 135.702,
    "c": 135.795,
    "v": 3818
  },
  {
    "dt": "2022.08.01 04:00",
    "o": 135.801,
    "h": 135.861,
    "l": 135.129,
    "c": 135.496,
    "v": 4573
  },
  {
    "dt": "2022.08.01 05:00",
    "o": 135.498,
    "h": 135.627,
    "l": 135.368,
    "c": 135.571,
    "v": 2677
  },
  {
    "dt": "2022.08.01 06:00",
    "o": 135.579,
    "h": 135.768,
    "l": 135.471,
    "c": 135.568,
    "v": 2890
  },
  {
    "dt": "2022.08.01 07:00",
    "o": 135.564,
    "h": 135.587,
    "l": 135.363,
    "c": 135.56,
    "v": 2351
  },
  {
    "dt": "2022.08.01 08:00",
    "o": 135.553,
    "h": 135.591,
    "l": 135.374,
    "c": 135.406,
    "v": 2450
  },
  {
    "dt": "2022.08.01 09:00",
    "o": 135.402,
    "h": 135.536,
    "l": 135.337,
    "c": 135.367,
    "v": 3727
  },
  {
    "dt": "2022.08.01 10:00",
    "o": 135.375,
    "h": 135.653,
    "l": 135.16,
    "c": 135.593,
    "v": 4503
  },
  {
    "dt": "2022.08.01 11:00",
    "o": 135.588,
    "h": 135.868,
    "l": 135.576,
    "c": 135.726,
    "v": 4321
  },
  {
    "dt": "2022.08.01 12:00",
    "o": 135.726,
    "h": 135.854,
    "l": 135.364,
    "c": 135.495,
    "v": 4200
  },
  {
    "dt": "2022.08.01 13:00",
    "o": 135.494,
    "h": 135.611,
    "l": 135.285,
    "c": 135.567,
    "v": 4031
  },
  {
    "dt": "2022.08.01 14:00",
    "o": 135.564,
    "h": 135.663,
    "l": 135.431,
    "c": 135.494,
    "v": 3893
  },
  {
    "dt": "2022.08.01 15:00",
    "o": 135.497,
    "h": 135.53,
    "l": 135.133,
    "c": 135.16,
    "v": 4318
  },
  {
    "dt": "2022.08.01 16:00",
    "o": 135.172,
    "h": 135.362,
    "l": 134.995,
    "c": 135.283,
    "v": 5114
  },
  {
    "dt": "2022.08.01 17:00",
    "o": 135.249,
    "h": 135.614,
    "l": 135.066,
    "c": 135.395,
    "v": 5487
  },
  {
    "dt": "2022.08.01 18:00",
    "o": 135.397,
    "h": 135.482,
    "l": 135.176,
    "c": 135.355,
    "v": 4308
  },
  {
    "dt": "2022.08.01 19:00",
    "o": 135.35,
    "h": 135.448,
    "l": 135.294,
    "c": 135.364,
    "v": 3473
  },
  {
    "dt": "2022.08.01 20:00",
    "o": 135.362,
    "h": 135.383,
    "l": 135.168,
    "c": 135.338,
    "v": 3395
  },
  {
    "dt": "2022.08.01 21:00",
    "o": 135.336,
    "h": 135.371,
    "l": 135.135,
    "c": 135.141,
    "v": 3363
  },
  {
    "dt": "2022.08.01 22:00",
    "o": 135.146,
    "h": 135.183,
    "l": 134.987,
    "c": 135.039,
    "v": 3183
  },
  {
    "dt": "2022.08.01 23:00",
    "o": 135.032,
    "h": 135.079,
    "l": 134.989,
    "c": 135.012,
    "v": 2047
  },
  {
    "dt": "2022.08.02 00:00",
    "o": 135.186,
    "h": 135.186,
    "l": 134.97,
    "c": 135.024,
    "v": 858
  },
  {
    "dt": "2022.08.02 01:00",
    "o": 135.028,
    "h": 135.159,
    "l": 134.925,
    "c": 134.999,
    "v": 2335
  },
  {
    "dt": "2022.08.02 02:00",
    "o": 135.001,
    "h": 135.133,
    "l": 134.815,
    "c": 134.844,
    "v": 3064
  },
  {
    "dt": "2022.08.02 03:00",
    "o": 134.858,
    "h": 134.999,
    "l": 134.307,
    "c": 134.683,
    "v": 4913
  },
  {
    "dt": "2022.08.02 04:00",
    "o": 134.678,
    "h": 134.681,
    "l": 134.036,
    "c": 134.178,
    "v": 4638
  },
  {
    "dt": "2022.08.02 05:00",
    "o": 134.168,
    "h": 134.29,
    "l": 134.02,
    "c": 134.256,
    "v": 3997
  },
  {
    "dt": "2022.08.02 06:00",
    "o": 134.26,
    "h": 134.519,
    "l": 134.173,
    "c": 134.41,
    "v": 3696
  },
  {
    "dt": "2022.08.02 07:00",
    "o": 134.411,
    "h": 134.441,
    "l": 134.252,
    "c": 134.253,
    "v": 3371
  },
  {
    "dt": "2022.08.02 08:00",
    "o": 134.247,
    "h": 134.271,
    "l": 134.006,
    "c": 134.137,
    "v": 4007
  },
  {
    "dt": "2022.08.02 09:00",
    "o": 134.122,
    "h": 134.392,
    "l": 133.892,
    "c": 134.016,
    "v": 4770
  },
  {
    "dt": "2022.08.02 10:00",
    "o": 134.015,
    "h": 134.12,
    "l": 133.624,
    "c": 133.759,
    "v": 5323
  },
  {
    "dt": "2022.08.02 11:00",
    "o": 133.761,
    "h": 134.245,
    "l": 133.744,
    "c": 134.016,
    "v": 5052
  },
  {
    "dt": "2022.08.02 12:00",
    "o": 134.023,
    "h": 134.218,
    "l": 133.824,
    "c": 133.914,
    "v": 4429
  },
  {
    "dt": "2022.08.02 13:00",
    "o": 133.911,
    "h": 134.047,
    "l": 133.809,
    "c": 133.956,
    "v": 3925
  },
  {
    "dt": "2022.08.02 14:00",
    "o": 133.957,
    "h": 134.141,
    "l": 133.855,
    "c": 133.909,
    "v": 4385
  },
  {
    "dt": "2022.08.02 15:00",
    "o": 133.915,
    "h": 134.04,
    "l": 133.391,
    "c": 133.515,
    "v": 4918
  },
  {
    "dt": "2022.08.02 16:00",
    "o": 133.51,
    "h": 134.214,
    "l": 133.496,
    "c": 134.119,
    "v": 5612
  },
  {
    "dt": "2022.08.02 17:00",
    "o": 134.12,
    "h": 134.416,
    "l": 133.911,
    "c": 134.345,
    "v": 5696
  },
  {
    "dt": "2022.08.02 18:00",
    "o": 134.341,
    "h": 134.946,
    "l": 134.307,
    "c": 134.889,
    "v": 5138
  },
  {
    "dt": "2022.08.02 19:00",
    "o": 134.888,
    "h": 134.953,
    "l": 134.812,
    "c": 134.827,
    "v": 4386
  },
  {
    "dt": "2022.08.02 20:00",
    "o": 134.825,
    "h": 135.228,
    "l": 134.778,
    "c": 135.215,
    "v": 4689
  },
  {
    "dt": "2022.08.02 21:00",
    "o": 135.214,
    "h": 135.372,
    "l": 135.137,
    "c": 135.271,
    "v": 4428
  },
  {
    "dt": "2022.08.02 22:00",
    "o": 135.27,
    "h": 135.33,
    "l": 135.067,
    "c": 135.31,
    "v": 4039
  },
  {
    "dt": "2022.08.02 23:00",
    "o": 135.311,
    "h": 135.395,
    "l": 135.273,
    "c": 135.351,
    "v": 2689
  },
  {
    "dt": "2022.08.03 00:00",
    "o": 135.349,
    "h": 135.367,
    "l": 135.303,
    "c": 135.342,
    "v": 594
  },
  {
    "dt": "2022.08.03 01:00",
    "o": 135.374,
    "h": 135.466,
    "l": 135.121,
    "c": 135.169,
    "v": 3081
  },
  {
    "dt": "2022.08.03 02:00",
    "o": 135.17,
    "h": 135.692,
    "l": 135.166,
    "c": 135.418,
    "v": 3617
  },
  {
    "dt": "2022.08.03 03:00",
    "o": 135.409,
    "h": 135.948,
    "l": 135.377,
    "c": 135.898,
    "v": 4723
  },
  {
    "dt": "2022.08.03 04:00",
    "o": 135.91,
    "h": 135.988,
    "l": 135.596,
    "c": 135.896,
    "v": 4515
  },
  {
    "dt": "2022.08.03 05:00",
    "o": 135.903,
    "h": 135.968,
    "l": 135.433,
    "c": 135.531,
    "v": 4009
  },
  {
    "dt": "2022.08.03 06:00",
    "o": 135.531,
    "h": 135.603,
    "l": 135.104,
    "c": 135.133,
    "v": 3948
  },
  {
    "dt": "2022.08.03 07:00",
    "o": 135.134,
    "h": 135.231,
    "l": 134.821,
    "c": 135.175,
    "v": 4095
  },
  {
    "dt": "2022.08.03 08:00",
    "o": 135.174,
    "h": 135.565,
    "l": 135.166,
    "c": 135.562,
    "v": 3733
  },
  {
    "dt": "2022.08.03 09:00",
    "o": 135.546,
    "h": 135.679,
    "l": 135.238,
    "c": 135.263,
    "v": 4911
  },
  {
    "dt": "2022.08.03 10:00",
    "o": 135.257,
    "h": 135.774,
    "l": 135.091,
    "c": 135.569,
    "v": 5318
  },
  {
    "dt": "2022.08.03 11:00",
    "o": 135.586,
    "h": 135.755,
    "l": 135.53,
    "c": 135.697,
    "v": 4457
  },
  {
    "dt": "2022.08.03 12:00",
    "o": 135.695,
    "h": 135.745,
    "l": 135.424,
    "c": 135.629,
    "v": 4195
  },
  {
    "dt": "2022.08.03 13:00",
    "o": 135.635,
    "h": 135.965,
    "l": 135.627,
    "c": 135.858,
    "v": 4545
  },
  {
    "dt": "2022.08.03 14:00",
    "o": 135.854,
    "h": 135.949,
    "l": 135.753,
    "c": 135.919,
    "v": 4439
  },
  {
    "dt": "2022.08.03 15:00",
    "o": 135.905,
    "h": 136.22,
    "l": 135.905,
    "c": 136.053,
    "v": 4870
  },
  {
    "dt": "2022.08.03 16:00",
    "o": 136.052,
    "h": 136.101,
    "l": 135.786,
    "c": 135.827,
    "v": 4978
  },
  {
    "dt": "2022.08.03 17:00",
    "o": 135.878,
    "h": 136.409,
    "l": 135.878,
    "c": 136.122,
    "v": 5833
  },
  {
    "dt": "2022.08.03 18:00",
    "o": 136.123,
    "h": 136.153,
    "l": 135.967,
    "c": 136.132,
    "v": 4753
  },
  {
    "dt": "2022.08.03 19:00",
    "o": 136.135,
    "h": 136.142,
    "l": 135.853,
    "c": 136.126,
    "v": 4287
  },
  {
    "dt": "2022.08.03 20:00",
    "o": 136.124,
    "h": 136.229,
    "l": 136.069,
    "c": 136.131,
    "v": 3370
  },
  {
    "dt": "2022.08.03 21:00",
    "o": 136.132,
    "h": 136.252,
    "l": 136.104,
    "c": 136.178,
    "v": 3298
  },
  {
    "dt": "2022.08.03 22:00",
    "o": 136.174,
    "h": 136.29,
    "l": 136.166,
    "c": 136.188,
    "v": 3157
  },
  {
    "dt": "2022.08.03 23:00",
    "o": 136.191,
    "h": 136.213,
    "l": 136.011,
    "c": 136.011,
    "v": 2422
  },
  {
    "dt": "2022.08.04 00:00",
    "o": 135.976,
    "h": 136.098,
    "l": 135.958,
    "c": 136.089,
    "v": 699
  },
  {
    "dt": "2022.08.04 01:00",
    "o": 136.087,
    "h": 136.179,
    "l": 136.049,
    "c": 136.086,
    "v": 1892
  },
  {
    "dt": "2022.08.04 02:00",
    "o": 136.088,
    "h": 136.26,
    "l": 136.003,
    "c": 136.018,
    "v": 2440
  },
  {
    "dt": "2022.08.04 03:00",
    "o": 136.011,
    "h": 136.096,
    "l": 135.753,
    "c": 135.831,
    "v": 3847
  },
  {
    "dt": "2022.08.04 04:00",
    "o": 135.825,
    "h": 136.188,
    "l": 135.626,
    "c": 136.129,
    "v": 3848
  },
  {
    "dt": "2022.08.04 05:00",
    "o": 136.132,
    "h": 136.173,
    "l": 135.889,
    "c": 136.008,
    "v": 2745
  },
  {
    "dt": "2022.08.04 06:00",
    "o": 136.007,
    "h": 136.052,
    "l": 135.912,
    "c": 135.962,
    "v": 2481
  },
  {
    "dt": "2022.08.04 07:00",
    "o": 135.962,
    "h": 135.998,
    "l": 135.852,
    "c": 135.884,
    "v": 2522
  },
  {
    "dt": "2022.08.04 08:00",
    "o": 135.885,
    "h": 136.3,
    "l": 135.877,
    "c": 136.235,
    "v": 3182
  },
  {
    "dt": "2022.08.04 09:00",
    "o": 136.245,
    "h": 136.471,
    "l": 136.216,
    "c": 136.43,
    "v": 4245
  },
  {
    "dt": "2022.08.04 10:00",
    "o": 136.427,
    "h": 136.651,
    "l": 136.409,
    "c": 136.547,
    "v": 4624
  },
  {
    "dt": "2022.08.04 11:00",
    "o": 136.546,
    "h": 136.913,
    "l": 136.488,
    "c": 136.863,
    "v": 4227
  },
  {
    "dt": "2022.08.04 12:00",
    "o": 136.865,
    "h": 136.91,
    "l": 136.618,
    "c": 136.633,
    "v": 3825
  },
  {
    "dt": "2022.08.04 13:00",
    "o": 136.631,
    "h": 136.834,
    "l": 136.615,
    "c": 136.73,
    "v": 3660
  },
  {
    "dt": "2022.08.04 14:00",
    "o": 136.73,
    "h": 136.854,
    "l": 135.951,
    "c": 136.133,
    "v": 5265
  },
  {
    "dt": "2022.08.04 15:00",
    "o": 136.118,
    "h": 136.197,
    "l": 135.647,
    "c": 136.029,
    "v": 5286
  },
  {
    "dt": "2022.08.04 16:00",
    "o": 136.026,
    "h": 136.221,
    "l": 135.947,
    "c": 135.983,
    "v": 5342
  },
  {
    "dt": "2022.08.04 17:00",
    "o": 135.985,
    "h": 136.021,
    "l": 135.682,
    "c": 135.933,
    "v": 4831
  },
  {
    "dt": "2022.08.04 18:00",
    "o": 135.929,
    "h": 136.343,
    "l": 135.901,
    "c": 136.234,
    "v": 4681
  },
  {
    "dt": "2022.08.04 19:00",
    "o": 136.235,
    "h": 136.308,
    "l": 136.042,
    "c": 136.226,
    "v": 4083
  },
  {
    "dt": "2022.08.04 20:00",
    "o": 136.23,
    "h": 136.323,
    "l": 136.172,
    "c": 136.291,
    "v": 3006
  },
  {
    "dt": "2022.08.04 21:00",
    "o": 136.29,
    "h": 136.375,
    "l": 136.174,
    "c": 136.212,
    "v": 3302
  },
  {
    "dt": "2022.08.04 22:00",
    "o": 136.207,
    "h": 136.273,
    "l": 136.041,
    "c": 136.124,
    "v": 3102
  },
  {
    "dt": "2022.08.04 23:00",
    "o": 136.137,
    "h": 136.231,
    "l": 136.069,
    "c": 136.069,
    "v": 2163
  },
  {
    "dt": "2022.08.05 00:00",
    "o": 136.079,
    "h": 136.299,
    "l": 136.079,
    "c": 136.252,
    "v": 815
  },
  {
    "dt": "2022.08.05 01:00",
    "o": 136.251,
    "h": 136.373,
    "l": 136.145,
    "c": 136.152,
    "v": 2841
  },
  {
    "dt": "2022.08.05 02:00",
    "o": 136.143,
    "h": 136.187,
    "l": 135.791,
    "c": 135.889,
    "v": 2466
  },
  {
    "dt": "2022.08.05 03:00",
    "o": 135.897,
    "h": 136.172,
    "l": 135.845,
    "c": 136.053,
    "v": 3373
  },
  {
    "dt": "2022.08.05 04:00",
    "o": 136.052,
    "h": 136.46,
    "l": 136.019,
    "c": 136.348,
    "v": 3500
  },
  {
    "dt": "2022.08.05 05:00",
    "o": 136.343,
    "h": 136.374,
    "l": 136.143,
    "c": 136.356,
    "v": 2207
  },
  {
    "dt": "2022.08.05 06:00",
    "o": 136.358,
    "h": 136.383,
    "l": 136.243,
    "c": 136.368,
    "v": 2092
  },
  {
    "dt": "2022.08.05 07:00",
    "o": 136.369,
    "h": 136.49,
    "l": 136.331,
    "c": 136.451,
    "v": 1948
  },
  {
    "dt": "2022.08.05 08:00",
    "o": 136.451,
    "h": 136.548,
    "l": 136.331,
    "c": 136.358,
    "v": 2715
  },
  {
    "dt": "2022.08.05 09:00",
    "o": 136.351,
    "h": 136.427,
    "l": 136.164,
    "c": 136.247,
    "v": 3322
  },
  {
    "dt": "2022.08.05 10:00",
    "o": 136.257,
    "h": 136.456,
    "l": 136.217,
    "c": 136.408,
    "v": 3881
  },
  {
    "dt": "2022.08.05 11:00",
    "o": 136.4,
    "h": 136.403,
    "l": 136.019,
    "c": 136.053,
    "v": 3848
  },
  {
    "dt": "2022.08.05 12:00",
    "o": 136.047,
    "h": 136.167,
    "l": 135.902,
    "c": 136.092,
    "v": 3306
  },
  {
    "dt": "2022.08.05 13:00",
    "o": 136.096,
    "h": 136.287,
    "l": 135.959,
    "c": 136.26,
    "v": 3116
  },
  {
    "dt": "2022.08.05 14:00",
    "o": 136.265,
    "h": 136.314,
    "l": 136.16,
    "c": 136.211,
    "v": 3217
  },
  {
    "dt": "2022.08.05 15:00",
    "o": 136.216,
    "h": 137.026,
    "l": 136.159,
    "c": 136.797,
    "v": 5045
  },
  {
    "dt": "2022.08.05 16:00",
    "o": 136.79,
    "h": 137.242,
    "l": 136.768,
    "c": 137.228,
    "v": 5690
  },
  {
    "dt": "2022.08.05 17:00",
    "o": 137.232,
    "h": 137.75,
    "l": 137.232,
    "c": 137.55,
    "v": 5318
  },
  {
    "dt": "2022.08.05 18:00",
    "o": 137.547,
    "h": 137.617,
    "l": 137.347,
    "c": 137.58,
    "v": 4445
  },
  {
    "dt": "2022.08.05 19:00",
    "o": 137.584,
    "h": 137.703,
    "l": 137.539,
    "c": 137.598,
    "v": 4094
  },
  {
    "dt": "2022.08.05 20:00",
    "o": 137.61,
    "h": 137.662,
    "l": 137.394,
    "c": 137.485,
    "v": 3770
  },
  {
    "dt": "2022.08.05 21:00",
    "o": 137.484,
    "h": 137.514,
    "l": 137.418,
    "c": 137.477,
    "v": 3303
  },
  {
    "dt": "2022.08.05 22:00",
    "o": 137.475,
    "h": 137.521,
    "l": 137.344,
    "c": 137.437,
    "v": 2805
  },
  {
    "dt": "2022.08.05 23:00",
    "o": 137.439,
    "h": 137.497,
    "l": 137.35,
    "c": 137.438,
    "v": 1968
  },
  {
    "dt": "2022.08.08 00:00",
    "o": 137.359,
    "h": 137.495,
    "l": 137.265,
    "c": 137.481,
    "v": 219
  },
  {
    "dt": "2022.08.08 01:00",
    "o": 137.457,
    "h": 137.632,
    "l": 137.406,
    "c": 137.501,
    "v": 2723
  },
  {
    "dt": "2022.08.08 02:00",
    "o": 137.502,
    "h": 137.507,
    "l": 137.323,
    "c": 137.377,
    "v": 2110
  },
  {
    "dt": "2022.08.08 03:00",
    "o": 137.389,
    "h": 137.742,
    "l": 137.362,
    "c": 137.586,
    "v": 3593
  },
  {
    "dt": "2022.08.08 04:00",
    "o": 137.573,
    "h": 137.573,
    "l": 137.368,
    "c": 137.537,
    "v": 3261
  },
  {
    "dt": "2022.08.08 05:00",
    "o": 137.535,
    "h": 137.863,
    "l": 137.529,
    "c": 137.661,
    "v": 2816
  },
  {
    "dt": "2022.08.08 06:00",
    "o": 137.669,
    "h": 137.734,
    "l": 137.542,
    "c": 137.617,
    "v": 2328
  },
  {
    "dt": "2022.08.08 07:00",
    "o": 137.616,
    "h": 137.756,
    "l": 137.594,
    "c": 137.752,
    "v": 1931
  },
  {
    "dt": "2022.08.08 08:00",
    "o": 137.748,
    "h": 137.843,
    "l": 137.686,
    "c": 137.725,
    "v": 2374
  },
  {
    "dt": "2022.08.08 09:00",
    "o": 137.728,
    "h": 137.91,
    "l": 137.665,
    "c": 137.725,
    "v": 3783
  },
  {
    "dt": "2022.08.08 10:00",
    "o": 137.728,
    "h": 137.916,
    "l": 137.611,
    "c": 137.806,
    "v": 4467
  },
  {
    "dt": "2022.08.08 11:00",
    "o": 137.809,
    "h": 137.819,
    "l": 137.459,
    "c": 137.71,
    "v": 3919
  },
  {
    "dt": "2022.08.08 12:00",
    "o": 137.707,
    "h": 137.71,
    "l": 137.425,
    "c": 137.538,
    "v": 3456
  },
  {
    "dt": "2022.08.08 13:00",
    "o": 137.537,
    "h": 137.597,
    "l": 137.334,
    "c": 137.422,
    "v": 3422
  },
  {
    "dt": "2022.08.08 14:00",
    "o": 137.422,
    "h": 137.522,
    "l": 137.253,
    "c": 137.491,
    "v": 3709
  },
  {
    "dt": "2022.08.08 15:00",
    "o": 137.5,
    "h": 137.612,
    "l": 137.397,
    "c": 137.516,
    "v": 4032
  },
  {
    "dt": "2022.08.08 16:00",
    "o": 137.518,
    "h": 137.567,
    "l": 137.059,
    "c": 137.151,
    "v": 4556
  },
  {
    "dt": "2022.08.08 17:00",
    "o": 137.155,
    "h": 137.654,
    "l": 137.126,
    "c": 137.647,
    "v": 4664
  },
  {
    "dt": "2022.08.08 18:00",
    "o": 137.645,
    "h": 137.648,
    "l": 137.348,
    "c": 137.5,
    "v": 3811
  },
  {
    "dt": "2022.08.08 19:00",
    "o": 137.501,
    "h": 137.555,
    "l": 137.246,
    "c": 137.254,
    "v": 3155
  },
  {
    "dt": "2022.08.08 20:00",
    "o": 137.255,
    "h": 137.452,
    "l": 137.237,
    "c": 137.442,
    "v": 3152
  },
  {
    "dt": "2022.08.08 21:00",
    "o": 137.447,
    "h": 137.461,
    "l": 137.334,
    "c": 137.373,
    "v": 3428
  },
  {
    "dt": "2022.08.08 22:00",
    "o": 137.372,
    "h": 137.67,
    "l": 137.369,
    "c": 137.659,
    "v": 2827
  },
  {
    "dt": "2022.08.08 23:00",
    "o": 137.66,
    "h": 137.669,
    "l": 137.581,
    "c": 137.636,
    "v": 1823
  },
  {
    "dt": "2022.08.09 00:00",
    "o": 137.38,
    "h": 137.627,
    "l": 137.38,
    "c": 137.601,
    "v": 1122
  },
  {
    "dt": "2022.08.09 01:00",
    "o": 137.595,
    "h": 137.639,
    "l": 137.525,
    "c": 137.63,
    "v": 1965
  },
  {
    "dt": "2022.08.09 02:00",
    "o": 137.63,
    "h": 137.636,
    "l": 137.477,
    "c": 137.508,
    "v": 1777
  },
  {
    "dt": "2022.08.09 03:00",
    "o": 137.514,
    "h": 137.719,
    "l": 137.34,
    "c": 137.459,
    "v": 3266
  },
  {
    "dt": "2022.08.09 04:00",
    "o": 137.462,
    "h": 137.481,
    "l": 137.254,
    "c": 137.319,
    "v": 3163
  },
  {
    "dt": "2022.08.09 05:00",
    "o": 137.318,
    "h": 137.472,
    "l": 137.27,
    "c": 137.469,
    "v": 2085
  },
  {
    "dt": "2022.08.09 06:00",
    "o": 137.472,
    "h": 137.68,
    "l": 137.464,
    "c": 137.572,
    "v": 1970
  },
  {
    "dt": "2022.08.09 07:00",
    "o": 137.571,
    "h": 137.582,
    "l": 137.439,
    "c": 137.524,
    "v": 1798
  },
  {
    "dt": "2022.08.09 08:00",
    "o": 137.525,
    "h": 137.748,
    "l": 137.494,
    "c": 137.709,
    "v": 2111
  },
  {
    "dt": "2022.08.09 09:00",
    "o": 137.717,
    "h": 137.89,
    "l": 137.634,
    "c": 137.683,
    "v": 3645
  },
  {
    "dt": "2022.08.09 10:00",
    "o": 137.686,
    "h": 137.801,
    "l": 137.511,
    "c": 137.779,
    "v": 4054
  },
  {
    "dt": "2022.08.09 11:00",
    "o": 137.78,
    "h": 138.174,
    "l": 137.78,
    "c": 138.13,
    "v": 4335
  },
  {
    "dt": "2022.08.09 12:00",
    "o": 138.132,
    "h": 138.275,
    "l": 138.024,
    "c": 138.064,
    "v": 3810
  },
  {
    "dt": "2022.08.09 13:00",
    "o": 138.044,
    "h": 138.069,
    "l": 137.91,
    "c": 137.925,
    "v": 3703
  },
  {
    "dt": "2022.08.09 14:00",
    "o": 137.93,
    "h": 138.084,
    "l": 137.908,
    "c": 138.048,
    "v": 3613
  },
  {
    "dt": "2022.08.09 15:00",
    "o": 138.059,
    "h": 138.304,
    "l": 138.028,
    "c": 138.128,
    "v": 3976
  },
  {
    "dt": "2022.08.09 16:00",
    "o": 138.121,
    "h": 138.294,
    "l": 138.09,
    "c": 138.248,
    "v": 4189
  },
  {
    "dt": "2022.08.09 17:00",
    "o": 138.244,
    "h": 138.248,
    "l": 137.911,
    "c": 137.954,
    "v": 4395
  },
  {
    "dt": "2022.08.09 18:00",
    "o": 137.955,
    "h": 138.073,
    "l": 137.931,
    "c": 137.989,
    "v": 3536
  },
  {
    "dt": "2022.08.09 19:00",
    "o": 137.99,
    "h": 138.066,
    "l": 137.904,
    "c": 137.979,
    "v": 2958
  },
  {
    "dt": "2022.08.09 20:00",
    "o": 137.979,
    "h": 138.012,
    "l": 137.917,
    "c": 137.986,
    "v": 2674
  },
  {
    "dt": "2022.08.09 21:00",
    "o": 137.987,
    "h": 138.055,
    "l": 137.893,
    "c": 137.937,
    "v": 2841
  },
  {
    "dt": "2022.08.09 22:00",
    "o": 137.939,
    "h": 137.987,
    "l": 137.927,
    "c": 137.928,
    "v": 2713
  },
  {
    "dt": "2022.08.09 23:00",
    "o": 137.929,
    "h": 138.044,
    "l": 137.833,
    "c": 137.833,
    "v": 1851
  },
  {
    "dt": "2022.08.10 00:00",
    "o": 137.899,
    "h": 138.063,
    "l": 137.899,
    "c": 137.971,
    "v": 1537
  },
  {
    "dt": "2022.08.10 01:00",
    "o": 137.969,
    "h": 138.015,
    "l": 137.898,
    "c": 137.912,
    "v": 2032
  },
  {
    "dt": "2022.08.10 02:00",
    "o": 137.901,
    "h": 138.023,
    "l": 137.897,
    "c": 138.02,
    "v": 2240
  },
  {
    "dt": "2022.08.10 03:00",
    "o": 138.032,
    "h": 138.069,
    "l": 137.898,
    "c": 138.044,
    "v": 3506
  },
  {
    "dt": "2022.08.10 04:00",
    "o": 138.043,
    "h": 138.08,
    "l": 137.93,
    "c": 137.936,
    "v": 3360
  },
  {
    "dt": "2022.08.10 05:00",
    "o": 137.937,
    "h": 138.02,
    "l": 137.914,
    "c": 137.955,
    "v": 3003
  },
  {
    "dt": "2022.08.10 06:00",
    "o": 137.957,
    "h": 137.989,
    "l": 137.824,
    "c": 137.85,
    "v": 2262
  },
  {
    "dt": "2022.08.10 07:00",
    "o": 137.853,
    "h": 137.896,
    "l": 137.777,
    "c": 137.88,
    "v": 1814
  },
  {
    "dt": "2022.08.10 08:00",
    "o": 137.878,
    "h": 137.964,
    "l": 137.862,
    "c": 137.867,
    "v": 2272
  },
  {
    "dt": "2022.08.10 09:00",
    "o": 137.869,
    "h": 137.93,
    "l": 137.812,
    "c": 137.913,
    "v": 3492
  },
  {
    "dt": "2022.08.10 10:00",
    "o": 137.913,
    "h": 137.978,
    "l": 137.757,
    "c": 137.808,
    "v": 4038
  },
  {
    "dt": "2022.08.10 11:00",
    "o": 137.808,
    "h": 138.018,
    "l": 137.709,
    "c": 137.986,
    "v": 3813
  },
  {
    "dt": "2022.08.10 12:00",
    "o": 137.987,
    "h": 138.053,
    "l": 137.884,
    "c": 138.022,
    "v": 3277
  },
  {
    "dt": "2022.08.10 13:00",
    "o": 138.02,
    "h": 138.286,
    "l": 137.959,
    "c": 138.253,
    "v": 3421
  },
  {
    "dt": "2022.08.10 14:00",
    "o": 138.251,
    "h": 138.387,
    "l": 138.182,
    "c": 138.313,
    "v": 3459
  },
  {
    "dt": "2022.08.10 15:00",
    "o": 138.309,
    "h": 138.36,
    "l": 136.926,
    "c": 137.48,
    "v": 5368
  },
  {
    "dt": "2022.08.10 16:00",
    "o": 137.469,
    "h": 137.611,
    "l": 136.841,
    "c": 136.876,
    "v": 5793
  },
  {
    "dt": "2022.08.10 17:00",
    "o": 136.876,
    "h": 136.936,
    "l": 136.603,
    "c": 136.809,
    "v": 5524
  },
  {
    "dt": "2022.08.10 18:00",
    "o": 136.807,
    "h": 137.126,
    "l": 136.803,
    "c": 137.011,
    "v": 4887
  },
  {
    "dt": "2022.08.10 19:00",
    "o": 137.01,
    "h": 137.072,
    "l": 136.771,
    "c": 136.869,
    "v": 4341
  },
  {
    "dt": "2022.08.10 20:00",
    "o": 136.867,
    "h": 136.869,
    "l": 136.637,
    "c": 136.82,
    "v": 3630
  },
  {
    "dt": "2022.08.10 21:00",
    "o": 136.82,
    "h": 137.146,
    "l": 136.8,
    "c": 136.922,
    "v": 4439
  },
  {
    "dt": "2022.08.10 22:00",
    "o": 136.924,
    "h": 137.024,
    "l": 136.914,
    "c": 136.959,
    "v": 3539
  },
  {
    "dt": "2022.08.10 23:00",
    "o": 136.958,
    "h": 136.981,
    "l": 136.811,
    "c": 136.844,
    "v": 2360
  },
  {
    "dt": "2022.08.11 00:00",
    "o": 136.851,
    "h": 136.886,
    "l": 136.815,
    "c": 136.84,
    "v": 2339
  },
  {
    "dt": "2022.08.11 01:00",
    "o": 136.84,
    "h": 136.918,
    "l": 136.729,
    "c": 136.85,
    "v": 2325
  },
  {
    "dt": "2022.08.11 02:00",
    "o": 136.849,
    "h": 136.893,
    "l": 136.767,
    "c": 136.767,
    "v": 1585
  },
  {
    "dt": "2022.08.11 03:00",
    "o": 136.761,
    "h": 136.838,
    "l": 136.583,
    "c": 136.724,
    "v": 3545
  },
  {
    "dt": "2022.08.11 04:00",
    "o": 136.722,
    "h": 137.022,
    "l": 136.71,
    "c": 136.942,
    "v": 3346
  },
  {
    "dt": "2022.08.11 05:00",
    "o": 136.94,
    "h": 137.073,
    "l": 136.859,
    "c": 137.014,
    "v": 2496
  },
  {
    "dt": "2022.08.11 06:00",
    "o": 137.013,
    "h": 137.041,
    "l": 136.921,
    "c": 136.99,
    "v": 2130
  },
  {
    "dt": "2022.08.11 07:00",
    "o": 136.991,
    "h": 136.991,
    "l": 136.888,
    "c": 136.889,
    "v": 2202
  },
  {
    "dt": "2022.08.11 08:00",
    "o": 136.887,
    "h": 136.947,
    "l": 136.817,
    "c": 136.903,
    "v": 2359
  },
  {
    "dt": "2022.08.11 09:00",
    "o": 136.903,
    "h": 136.977,
    "l": 136.672,
    "c": 136.808,
    "v": 3831
  },
  {
    "dt": "2022.08.11 10:00",
    "o": 136.801,
    "h": 136.915,
    "l": 136.673,
    "c": 136.738,
    "v": 4391
  },
  {
    "dt": "2022.08.11 11:00",
    "o": 136.742,
    "h": 137.029,
    "l": 136.718,
    "c": 137.024,
    "v": 3947
  },
  {
    "dt": "2022.08.11 12:00",
    "o": 137.02,
    "h": 137.126,
    "l": 136.952,
    "c": 137.03,
    "v": 3674
  },
  {
    "dt": "2022.08.11 13:00",
    "o": 137.027,
    "h": 137.132,
    "l": 137.015,
    "c": 137.086,
    "v": 3220
  },
  {
    "dt": "2022.08.11 14:00",
    "o": 137.09,
    "h": 137.095,
    "l": 136.637,
    "c": 136.664,
    "v": 3718
  },
  {
    "dt": "2022.08.11 15:00",
    "o": 136.668,
    "h": 136.669,
    "l": 136.291,
    "c": 136.504,
    "v": 5180
  },
  {
    "dt": "2022.08.11 16:00",
    "o": 136.5,
    "h": 136.842,
    "l": 136.476,
    "c": 136.842,
    "v": 5005
  },
  {
    "dt": "2022.08.11 17:00",
    "o": 136.835,
    "h": 137.263,
    "l": 136.811,
    "c": 137.146,
    "v": 5132
  },
  {
    "dt": "2022.08.11 18:00",
    "o": 137.147,
    "h": 137.241,
    "l": 137.052,
    "c": 137.149,
    "v": 4457
  },
  {
    "dt": "2022.08.11 19:00",
    "o": 137.149,
    "h": 137.204,
    "l": 137.033,
    "c": 137.153,
    "v": 3349
  },
  {
    "dt": "2022.08.11 20:00",
    "o": 137.156,
    "h": 137.281,
    "l": 137.137,
    "c": 137.28,
    "v": 3526
  },
  {
    "dt": "2022.08.11 21:00",
    "o": 137.273,
    "h": 137.282,
    "l": 137.112,
    "c": 137.233,
    "v": 3489
  },
  {
    "dt": "2022.08.11 22:00",
    "o": 137.23,
    "h": 137.327,
    "l": 137.151,
    "c": 137.324,
    "v": 2823
  },
  {
    "dt": "2022.08.11 23:00",
    "o": 137.324,
    "h": 137.383,
    "l": 137.191,
    "c": 137.231,
    "v": 2010
  },
  {
    "dt": "2022.08.12 00:00",
    "o": 137.251,
    "h": 137.288,
    "l": 137.177,
    "c": 137.246,
    "v": 799
  },
  {
    "dt": "2022.08.12 01:00",
    "o": 137.27,
    "h": 137.278,
    "l": 137.17,
    "c": 137.216,
    "v": 1848
  },
  {
    "dt": "2022.08.12 02:00",
    "o": 137.221,
    "h": 137.349,
    "l": 137.217,
    "c": 137.268,
    "v": 2334
  },
  {
    "dt": "2022.08.12 03:00",
    "o": 137.278,
    "h": 137.57,
    "l": 137.202,
    "c": 137.435,
    "v": 3560
  },
  {
    "dt": "2022.08.12 04:00",
    "o": 137.439,
    "h": 137.474,
    "l": 137.313,
    "c": 137.375,
    "v": 2845
  },
  {
    "dt": "2022.08.12 05:00",
    "o": 137.378,
    "h": 137.606,
    "l": 137.375,
    "c": 137.593,
    "v": 2447
  },
  {
    "dt": "2022.08.12 06:00",
    "o": 137.589,
    "h": 137.589,
    "l": 137.464,
    "c": 137.501,
    "v": 1975
  },
  {
    "dt": "2022.08.12 07:00",
    "o": 137.507,
    "h": 137.558,
    "l": 137.356,
    "c": 137.468,
    "v": 2231
  },
  {
    "dt": "2022.08.12 08:00",
    "o": 137.465,
    "h": 137.491,
    "l": 137.334,
    "c": 137.37,
    "v": 2328
  },
  {
    "dt": "2022.08.12 09:00",
    "o": 137.367,
    "h": 137.564,
    "l": 137.362,
    "c": 137.476,
    "v": 3447
  },
  {
    "dt": "2022.08.12 10:00",
    "o": 137.486,
    "h": 137.549,
    "l": 137.176,
    "c": 137.214,
    "v": 4312
  },
  {
    "dt": "2022.08.12 11:00",
    "o": 137.216,
    "h": 137.294,
    "l": 137.097,
    "c": 137.247,
    "v": 3753
  },
  {
    "dt": "2022.08.12 12:00",
    "o": 137.245,
    "h": 137.575,
    "l": 137.186,
    "c": 137.445,
    "v": 3605
  },
  {
    "dt": "2022.08.12 13:00",
    "o": 137.448,
    "h": 137.569,
    "l": 137.251,
    "c": 137.494,
    "v": 3892
  },
  {
    "dt": "2022.08.12 14:00",
    "o": 137.493,
    "h": 137.708,
    "l": 137.417,
    "c": 137.53,
    "v": 4107
  },
  {
    "dt": "2022.08.12 15:00",
    "o": 137.532,
    "h": 137.618,
    "l": 137.291,
    "c": 137.293,
    "v": 4652
  },
  {
    "dt": "2022.08.12 16:00",
    "o": 137.297,
    "h": 137.377,
    "l": 137.188,
    "c": 137.191,
    "v": 5270
  },
  {
    "dt": "2022.08.12 17:00",
    "o": 137.117,
    "h": 137.413,
    "l": 136.88,
    "c": 136.985,
    "v": 5459
  },
  {
    "dt": "2022.08.12 18:00",
    "o": 136.982,
    "h": 137.038,
    "l": 136.905,
    "c": 136.978,
    "v": 4045
  },
  {
    "dt": "2022.08.12 19:00",
    "o": 136.972,
    "h": 137.051,
    "l": 136.898,
    "c": 137.009,
    "v": 2887
  },
  {
    "dt": "2022.08.12 20:00",
    "o": 137.005,
    "h": 137.071,
    "l": 136.917,
    "c": 136.957,
    "v": 2582
  },
  {
    "dt": "2022.08.12 21:00",
    "o": 136.955,
    "h": 137.04,
    "l": 136.945,
    "c": 137.016,
    "v": 2381
  },
  {
    "dt": "2022.08.12 22:00",
    "o": 137.02,
    "h": 137.03,
    "l": 136.925,
    "c": 136.953,
    "v": 2146
  },
  {
    "dt": "2022.08.12 23:00",
    "o": 136.953,
    "h": 136.966,
    "l": 136.78,
    "c": 136.836,
    "v": 1827
  },
  {
    "dt": "2022.08.15 00:00",
    "o": 136.847,
    "h": 136.961,
    "l": 136.824,
    "c": 136.961,
    "v": 268
  },
  {
    "dt": "2022.08.15 01:00",
    "o": 136.933,
    "h": 137.057,
    "l": 136.926,
    "c": 136.96,
    "v": 2042
  },
  {
    "dt": "2022.08.15 02:00",
    "o": 136.961,
    "h": 136.964,
    "l": 136.624,
    "c": 136.691,
    "v": 2001
  },
  {
    "dt": "2022.08.15 03:00",
    "o": 136.687,
    "h": 136.789,
    "l": 136.446,
    "c": 136.564,
    "v": 3169
  },
  {
    "dt": "2022.08.15 04:00",
    "o": 136.562,
    "h": 136.72,
    "l": 136.504,
    "c": 136.709,
    "v": 2857
  },
  {
    "dt": "2022.08.15 05:00",
    "o": 136.715,
    "h": 136.716,
    "l": 136.447,
    "c": 136.568,
    "v": 2741
  },
  {
    "dt": "2022.08.15 06:00",
    "o": 136.568,
    "h": 136.647,
    "l": 136.47,
    "c": 136.535,
    "v": 1952
  },
  {
    "dt": "2022.08.15 07:00",
    "o": 136.533,
    "h": 136.602,
    "l": 136.513,
    "c": 136.525,
    "v": 1784
  },
  {
    "dt": "2022.08.15 08:00",
    "o": 136.527,
    "h": 136.577,
    "l": 136.325,
    "c": 136.381,
    "v": 2003
  },
  {
    "dt": "2022.08.15 09:00",
    "o": 136.383,
    "h": 136.515,
    "l": 136.363,
    "c": 136.462,
    "v": 3430
  },
  {
    "dt": "2022.08.15 10:00",
    "o": 136.477,
    "h": 136.734,
    "l": 136.409,
    "c": 136.632,
    "v": 3981
  },
  {
    "dt": "2022.08.15 11:00",
    "o": 136.638,
    "h": 136.66,
    "l": 136.057,
    "c": 136.122,
    "v": 3942
  },
  {
    "dt": "2022.08.15 12:00",
    "o": 136.12,
    "h": 136.135,
    "l": 135.84,
    "c": 136.071,
    "v": 3929
  },
  {
    "dt": "2022.08.15 13:00",
    "o": 136.075,
    "h": 136.232,
    "l": 135.914,
    "c": 136.071,
    "v": 3337
  },
  {
    "dt": "2022.08.15 14:00",
    "o": 136.071,
    "h": 136.074,
    "l": 135.695,
    "c": 135.763,
    "v": 3470
  },
  {
    "dt": "2022.08.15 15:00",
    "o": 135.76,
    "h": 135.762,
    "l": 135.263,
    "c": 135.343,
    "v": 4924
  },
  {
    "dt": "2022.08.15 16:00",
    "o": 135.348,
    "h": 135.604,
    "l": 135.336,
    "c": 135.366,
    "v": 4550
  },
  {
    "dt": "2022.08.15 17:00",
    "o": 135.37,
    "h": 135.671,
    "l": 135.327,
    "c": 135.564,
    "v": 4334
  },
  {
    "dt": "2022.08.15 18:00",
    "o": 135.559,
    "h": 135.704,
    "l": 135.473,
    "c": 135.6,
    "v": 3508
  },
  {
    "dt": "2022.08.15 19:00",
    "o": 135.604,
    "h": 135.638,
    "l": 135.423,
    "c": 135.469,
    "v": 3010
  },
  {
    "dt": "2022.08.15 20:00",
    "o": 135.47,
    "h": 135.52,
    "l": 135.395,
    "c": 135.479,
    "v": 2694
  },
  {
    "dt": "2022.08.15 21:00",
    "o": 135.478,
    "h": 135.507,
    "l": 135.294,
    "c": 135.382,
    "v": 2617
  },
  {
    "dt": "2022.08.15 22:00",
    "o": 135.384,
    "h": 135.489,
    "l": 135.373,
    "c": 135.428,
    "v": 2646
  },
  {
    "dt": "2022.08.15 23:00",
    "o": 135.429,
    "h": 135.496,
    "l": 135.37,
    "c": 135.443,
    "v": 2078
  },
  {
    "dt": "2022.08.16 00:00",
    "o": 135.481,
    "h": 135.506,
    "l": 135.372,
    "c": 135.393,
    "v": 997
  },
  {
    "dt": "2022.08.16 01:00",
    "o": 135.393,
    "h": 135.41,
    "l": 135.148,
    "c": 135.317,
    "v": 2097
  },
  {
    "dt": "2022.08.16 02:00",
    "o": 135.312,
    "h": 135.33,
    "l": 135.166,
    "c": 135.268,
    "v": 2149
  },
  {
    "dt": "2022.08.16 03:00",
    "o": 135.269,
    "h": 135.35,
    "l": 134.937,
    "c": 135.231,
    "v": 3281
  },
  {
    "dt": "2022.08.16 04:00",
    "o": 135.229,
    "h": 135.587,
    "l": 135.228,
    "c": 135.467,
    "v": 3265
  },
  {
    "dt": "2022.08.16 05:00",
    "o": 135.465,
    "h": 135.615,
    "l": 135.387,
    "c": 135.607,
    "v": 2395
  },
  {
    "dt": "2022.08.16 06:00",
    "o": 135.611,
    "h": 135.629,
    "l": 135.443,
    "c": 135.499,
    "v": 1965
  },
  {
    "dt": "2022.08.16 07:00",
    "o": 135.498,
    "h": 135.632,
    "l": 135.466,
    "c": 135.556,
    "v": 1496
  },
  {
    "dt": "2022.08.16 08:00",
    "o": 135.56,
    "h": 135.57,
    "l": 135.434,
    "c": 135.473,
    "v": 2165
  },
  {
    "dt": "2022.08.16 09:00",
    "o": 135.453,
    "h": 135.619,
    "l": 135.397,
    "c": 135.466,
    "v": 3435
  },
  {
    "dt": "2022.08.16 10:00",
    "o": 135.474,
    "h": 135.819,
    "l": 135.452,
    "c": 135.79,
    "v": 4345
  },
  {
    "dt": "2022.08.16 11:00",
    "o": 135.788,
    "h": 135.906,
    "l": 135.628,
    "c": 135.795,
    "v": 4076
  },
  {
    "dt": "2022.08.16 12:00",
    "o": 135.787,
    "h": 135.977,
    "l": 135.646,
    "c": 135.933,
    "v": 4069
  },
  {
    "dt": "2022.08.16 13:00",
    "o": 135.937,
    "h": 135.993,
    "l": 135.772,
    "c": 135.983,
    "v": 3486
  },
  {
    "dt": "2022.08.16 14:00",
    "o": 135.981,
    "h": 136.178,
    "l": 135.969,
    "c": 136.096,
    "v": 3860
  },
  {
    "dt": "2022.08.16 15:00",
    "o": 136.094,
    "h": 136.559,
    "l": 136.042,
    "c": 136.516,
    "v": 4340
  },
  {
    "dt": "2022.08.16 16:00",
    "o": 136.515,
    "h": 136.894,
    "l": 136.46,
    "c": 136.867,
    "v": 4573
  },
  {
    "dt": "2022.08.16 17:00",
    "o": 136.861,
    "h": 136.906,
    "l": 136.647,
    "c": 136.771,
    "v": 4599
  },
  {
    "dt": "2022.08.16 18:00",
    "o": 136.778,
    "h": 136.782,
    "l": 136.595,
    "c": 136.703,
    "v": 3506
  },
  {
    "dt": "2022.08.16 19:00",
    "o": 136.704,
    "h": 136.706,
    "l": 136.588,
    "c": 136.62,
    "v": 2977
  },
  {
    "dt": "2022.08.16 20:00",
    "o": 136.619,
    "h": 136.714,
    "l": 136.601,
    "c": 136.691,
    "v": 2421
  },
  {
    "dt": "2022.08.16 21:00",
    "o": 136.691,
    "h": 136.691,
    "l": 136.48,
    "c": 136.484,
    "v": 2963
  },
  {
    "dt": "2022.08.16 22:00",
    "o": 136.478,
    "h": 136.5,
    "l": 136.366,
    "c": 136.47,
    "v": 2759
  },
  {
    "dt": "2022.08.16 23:00",
    "o": 136.469,
    "h": 136.548,
    "l": 136.425,
    "c": 136.425,
    "v": 1560
  },
  {
    "dt": "2022.08.17 00:00",
    "o": 136.417,
    "h": 136.491,
    "l": 136.399,
    "c": 136.48,
    "v": 1073
  },
  {
    "dt": "2022.08.17 01:00",
    "o": 136.479,
    "h": 136.576,
    "l": 136.479,
    "c": 136.567,
    "v": 1544
  },
  {
    "dt": "2022.08.17 02:00",
    "o": 136.572,
    "h": 136.654,
    "l": 136.545,
    "c": 136.554,
    "v": 1428
  },
  {
    "dt": "2022.08.17 03:00",
    "o": 136.562,
    "h": 136.705,
    "l": 136.378,
    "c": 136.408,
    "v": 3215
  },
  {
    "dt": "2022.08.17 04:00",
    "o": 136.406,
    "h": 136.522,
    "l": 136.287,
    "c": 136.311,
    "v": 3370
  },
  {
    "dt": "2022.08.17 05:00",
    "o": 136.321,
    "h": 136.47,
    "l": 136.252,
    "c": 136.469,
    "v": 2508
  },
  {
    "dt": "2022.08.17 06:00",
    "o": 136.47,
    "h": 136.523,
    "l": 136.422,
    "c": 136.457,
    "v": 2004
  },
  {
    "dt": "2022.08.17 07:00",
    "o": 136.456,
    "h": 136.591,
    "l": 136.426,
    "c": 136.576,
    "v": 1792
  },
  {
    "dt": "2022.08.17 08:00",
    "o": 136.578,
    "h": 136.6,
    "l": 136.47,
    "c": 136.592,
    "v": 2278
  },
  {
    "dt": "2022.08.17 09:00",
    "o": 136.589,
    "h": 136.84,
    "l": 136.566,
    "c": 136.608,
    "v": 4031
  },
  {
    "dt": "2022.08.17 10:00",
    "o": 136.604,
    "h": 137.039,
    "l": 136.577,
    "c": 137.03,
    "v": 4573
  },
  {
    "dt": "2022.08.17 11:00",
    "o": 137.029,
    "h": 137.251,
    "l": 136.908,
    "c": 137.145,
    "v": 4275
  },
  {
    "dt": "2022.08.17 12:00",
    "o": 137.141,
    "h": 137.247,
    "l": 136.997,
    "c": 137.225,
    "v": 3521
  },
  {
    "dt": "2022.08.17 13:00",
    "o": 137.218,
    "h": 137.348,
    "l": 137.095,
    "c": 137.307,
    "v": 3389
  },
  {
    "dt": "2022.08.17 14:00",
    "o": 137.309,
    "h": 137.418,
    "l": 137.238,
    "c": 137.416,
    "v": 3877
  },
  {
    "dt": "2022.08.17 15:00",
    "o": 137.412,
    "h": 137.452,
    "l": 137.231,
    "c": 137.231,
    "v": 4543
  },
  {
    "dt": "2022.08.17 16:00",
    "o": 137.233,
    "h": 137.6,
    "l": 137.134,
    "c": 137.54,
    "v": 4827
  },
  {
    "dt": "2022.08.17 17:00",
    "o": 137.543,
    "h": 137.869,
    "l": 137.54,
    "c": 137.649,
    "v": 4637
  },
  {
    "dt": "2022.08.17 18:00",
    "o": 137.648,
    "h": 137.713,
    "l": 137.592,
    "c": 137.607,
    "v": 3919
  },
  {
    "dt": "2022.08.17 19:00",
    "o": 137.604,
    "h": 137.713,
    "l": 137.588,
    "c": 137.626,
    "v": 3220
  },
  {
    "dt": "2022.08.17 20:00",
    "o": 137.629,
    "h": 137.751,
    "l": 137.623,
    "c": 137.691,
    "v": 3043
  },
  {
    "dt": "2022.08.17 21:00",
    "o": 137.687,
    "h": 137.706,
    "l": 137.393,
    "c": 137.523,
    "v": 4926
  },
  {
    "dt": "2022.08.17 22:00",
    "o": 137.52,
    "h": 137.579,
    "l": 137.41,
    "c": 137.448,
    "v": 3274
  },
  {
    "dt": "2022.08.17 23:00",
    "o": 137.449,
    "h": 137.499,
    "l": 137.408,
    "c": 137.432,
    "v": 1728
  },
  {
    "dt": "2022.08.18 00:00",
    "o": 137.471,
    "h": 137.583,
    "l": 137.38,
    "c": 137.476,
    "v": 453
  },
  {
    "dt": "2022.08.18 01:00",
    "o": 137.476,
    "h": 137.557,
    "l": 137.435,
    "c": 137.468,
    "v": 1421
  },
  {
    "dt": "2022.08.18 02:00",
    "o": 137.47,
    "h": 137.531,
    "l": 137.31,
    "c": 137.34,
    "v": 1863
  },
  {
    "dt": "2022.08.18 03:00",
    "o": 137.351,
    "h": 137.441,
    "l": 137.252,
    "c": 137.338,
    "v": 3097
  },
  {
    "dt": "2022.08.18 04:00",
    "o": 137.336,
    "h": 137.495,
    "l": 137.3,
    "c": 137.361,
    "v": 3355
  },
  {
    "dt": "2022.08.18 05:00",
    "o": 137.362,
    "h": 137.454,
    "l": 137.287,
    "c": 137.294,
    "v": 2495
  },
  {
    "dt": "2022.08.18 06:00",
    "o": 137.293,
    "h": 137.377,
    "l": 137.216,
    "c": 137.364,
    "v": 2067
  },
  {
    "dt": "2022.08.18 07:00",
    "o": 137.36,
    "h": 137.372,
    "l": 137.276,
    "c": 137.316,
    "v": 1994
  },
  {
    "dt": "2022.08.18 08:00",
    "o": 137.311,
    "h": 137.45,
    "l": 137.297,
    "c": 137.43,
    "v": 2605
  },
  {
    "dt": "2022.08.18 09:00",
    "o": 137.417,
    "h": 137.545,
    "l": 137.348,
    "c": 137.453,
    "v": 3971
  },
  {
    "dt": "2022.08.18 10:00",
    "o": 137.463,
    "h": 137.515,
    "l": 137.145,
    "c": 137.473,
    "v": 4579
  },
  {
    "dt": "2022.08.18 11:00",
    "o": 137.472,
    "h": 137.649,
    "l": 137.429,
    "c": 137.453,
    "v": 4087
  },
  {
    "dt": "2022.08.18 12:00",
    "o": 137.454,
    "h": 137.574,
    "l": 137.409,
    "c": 137.488,
    "v": 3689
  },
  {
    "dt": "2022.08.18 13:00",
    "o": 137.488,
    "h": 137.585,
    "l": 137.404,
    "c": 137.558,
    "v": 3439
  },
  {
    "dt": "2022.08.18 14:00",
    "o": 137.552,
    "h": 137.566,
    "l": 137.182,
    "c": 137.182,
    "v": 3865
  },
  {
    "dt": "2022.08.18 15:00",
    "o": 137.181,
    "h": 137.394,
    "l": 137.089,
    "c": 137.212,
    "v": 4751
  },
  {
    "dt": "2022.08.18 16:00",
    "o": 137.226,
    "h": 137.234,
    "l": 136.627,
    "c": 136.664,
    "v": 4937
  },
  {
    "dt": "2022.08.18 17:00",
    "o": 136.662,
    "h": 136.962,
    "l": 136.55,
    "c": 136.935,
    "v": 4505
  },
  {
    "dt": "2022.08.18 18:00",
    "o": 136.939,
    "h": 137.004,
    "l": 136.812,
    "c": 136.812,
    "v": 3897
  },
  {
    "dt": "2022.08.18 19:00",
    "o": 136.826,
    "h": 136.915,
    "l": 136.665,
    "c": 136.861,
    "v": 3474
  },
  {
    "dt": "2022.08.18 20:00",
    "o": 136.862,
    "h": 137.078,
    "l": 136.862,
    "c": 136.996,
    "v": 3984
  },
  {
    "dt": "2022.08.18 21:00",
    "o": 136.997,
    "h": 137.117,
    "l": 136.958,
    "c": 137.117,
    "v": 2869
  },
  {
    "dt": "2022.08.18 22:00",
    "o": 137.118,
    "h": 137.199,
    "l": 137.101,
    "c": 137.155,
    "v": 2440
  },
  {
    "dt": "2022.08.18 23:00",
    "o": 137.153,
    "h": 137.165,
    "l": 136.981,
    "c": 136.992,
    "v": 1393
  },
  {
    "dt": "2022.08.19 00:00",
    "o": 137.122,
    "h": 137.122,
    "l": 136.994,
    "c": 137.051,
    "v": 1013
  },
  {
    "dt": "2022.08.19 01:00",
    "o": 137.051,
    "h": 137.114,
    "l": 137.022,
    "c": 137.064,
    "v": 2007
  },
  {
    "dt": "2022.08.19 02:00",
    "o": 137.067,
    "h": 137.079,
    "l": 136.929,
    "c": 137.009,
    "v": 1735
  },
  {
    "dt": "2022.08.19 03:00",
    "o": 137.011,
    "h": 137.396,
    "l": 137.011,
    "c": 137.348,
    "v": 3985
  },
  {
    "dt": "2022.08.19 04:00",
    "o": 137.35,
    "h": 137.424,
    "l": 137.219,
    "c": 137.256,
    "v": 3135
  },
  {
    "dt": "2022.08.19 05:00",
    "o": 137.256,
    "h": 137.286,
    "l": 137.137,
    "c": 137.277,
    "v": 2868
  },
  {
    "dt": "2022.08.19 06:00",
    "o": 137.278,
    "h": 137.415,
    "l": 137.275,
    "c": 137.388,
    "v": 2500
  },
  {
    "dt": "2022.08.19 07:00",
    "o": 137.389,
    "h": 137.407,
    "l": 137.233,
    "c": 137.292,
    "v": 2026
  },
  {
    "dt": "2022.08.19 08:00",
    "o": 137.297,
    "h": 137.343,
    "l": 137.217,
    "c": 137.325,
    "v": 2292
  },
  {
    "dt": "2022.08.19 09:00",
    "o": 137.323,
    "h": 137.61,
    "l": 137.288,
    "c": 137.583,
    "v": 3959
  },
  {
    "dt": "2022.08.19 10:00",
    "o": 137.585,
    "h": 137.95,
    "l": 137.539,
    "c": 137.885,
    "v": 4383
  },
  {
    "dt": "2022.08.19 11:00",
    "o": 137.881,
    "h": 137.94,
    "l": 137.518,
    "c": 137.677,
    "v": 4040
  },
  {
    "dt": "2022.08.19 12:00",
    "o": 137.676,
    "h": 137.705,
    "l": 137.556,
    "c": 137.562,
    "v": 3548
  },
  {
    "dt": "2022.08.19 13:00",
    "o": 137.565,
    "h": 137.729,
    "l": 137.395,
    "c": 137.644,
    "v": 3649
  },
  {
    "dt": "2022.08.19 14:00",
    "o": 137.645,
    "h": 137.823,
    "l": 137.585,
    "c": 137.677,
    "v": 4059
  },
  {
    "dt": "2022.08.19 15:00",
    "o": 137.678,
    "h": 137.788,
    "l": 137.617,
    "c": 137.71,
    "v": 4461
  },
  {
    "dt": "2022.08.19 16:00",
    "o": 137.716,
    "h": 137.851,
    "l": 137.527,
    "c": 137.64,
    "v": 4417
  },
  {
    "dt": "2022.08.19 17:00",
    "o": 137.645,
    "h": 137.842,
    "l": 137.544,
    "c": 137.683,
    "v": 4413
  },
  {
    "dt": "2022.08.19 18:00",
    "o": 137.681,
    "h": 137.728,
    "l": 137.515,
    "c": 137.522,
    "v": 3765
  },
  {
    "dt": "2022.08.19 19:00",
    "o": 137.523,
    "h": 137.539,
    "l": 137.335,
    "c": 137.356,
    "v": 3121
  },
  {
    "dt": "2022.08.19 20:00",
    "o": 137.359,
    "h": 137.443,
    "l": 137.292,
    "c": 137.384,
    "v": 2864
  },
  {
    "dt": "2022.08.19 21:00",
    "o": 137.381,
    "h": 137.392,
    "l": 137.284,
    "c": 137.337,
    "v": 2830
  },
  {
    "dt": "2022.08.19 22:00",
    "o": 137.334,
    "h": 137.374,
    "l": 137.28,
    "c": 137.328,
    "v": 2212
  },
  {
    "dt": "2022.08.19 23:00",
    "o": 137.329,
    "h": 137.467,
    "l": 137.324,
    "c": 137.463,
    "v": 1446
  },
  {
    "dt": "2022.08.22 00:00",
    "o": 137.385,
    "h": 137.424,
    "l": 137.336,
    "c": 137.359,
    "v": 105
  },
  {
    "dt": "2022.08.22 01:00",
    "o": 137.31,
    "h": 137.547,
    "l": 137.291,
    "c": 137.483,
    "v": 1782
  },
  {
    "dt": "2022.08.22 02:00",
    "o": 137.482,
    "h": 137.534,
    "l": 137.412,
    "c": 137.517,
    "v": 2262
  },
  {
    "dt": "2022.08.22 03:00",
    "o": 137.507,
    "h": 137.645,
    "l": 137.389,
    "c": 137.605,
    "v": 3047
  },
  {
    "dt": "2022.08.22 04:00",
    "o": 137.618,
    "h": 137.72,
    "l": 137.561,
    "c": 137.706,
    "v": 3113
  },
  {
    "dt": "2022.08.22 05:00",
    "o": 137.697,
    "h": 137.936,
    "l": 137.697,
    "c": 137.918,
    "v": 2667
  },
  {
    "dt": "2022.08.22 06:00",
    "o": 137.921,
    "h": 137.935,
    "l": 137.79,
    "c": 137.821,
    "v": 2287
  },
  {
    "dt": "2022.08.22 07:00",
    "o": 137.819,
    "h": 137.826,
    "l": 137.652,
    "c": 137.753,
    "v": 1988
  },
  {
    "dt": "2022.08.22 08:00",
    "o": 137.753,
    "h": 137.761,
    "l": 137.658,
    "c": 137.723,
    "v": 2664
  },
  {
    "dt": "2022.08.22 09:00",
    "o": 137.726,
    "h": 137.74,
    "l": 137.254,
    "c": 137.364,
    "v": 3731
  },
  {
    "dt": "2022.08.22 10:00",
    "o": 137.356,
    "h": 137.382,
    "l": 136.795,
    "c": 136.888,
    "v": 4270
  },
  {
    "dt": "2022.08.22 11:00",
    "o": 136.895,
    "h": 137.147,
    "l": 136.603,
    "c": 137.115,
    "v": 4507
  },
  {
    "dt": "2022.08.22 12:00",
    "o": 137.109,
    "h": 137.181,
    "l": 136.836,
    "c": 136.954,
    "v": 3629
  },
  {
    "dt": "2022.08.22 13:00",
    "o": 136.955,
    "h": 137.204,
    "l": 136.872,
    "c": 137.161,
    "v": 3417
  },
  {
    "dt": "2022.08.22 14:00",
    "o": 137.168,
    "h": 137.247,
    "l": 136.849,
    "c": 136.98,
    "v": 3460
  },
  {
    "dt": "2022.08.22 15:00",
    "o": 136.983,
    "h": 137.304,
    "l": 136.973,
    "c": 137.261,
    "v": 4011
  },
  {
    "dt": "2022.08.22 16:00",
    "o": 137.26,
    "h": 137.28,
    "l": 136.854,
    "c": 136.932,
    "v": 4408
  },
  {
    "dt": "2022.08.22 17:00",
    "o": 136.931,
    "h": 136.988,
    "l": 136.68,
    "c": 136.722,
    "v": 4556
  },
  {
    "dt": "2022.08.22 18:00",
    "o": 136.725,
    "h": 136.798,
    "l": 136.639,
    "c": 136.667,
    "v": 4360
  },
  {
    "dt": "2022.08.22 19:00",
    "o": 136.668,
    "h": 136.709,
    "l": 136.495,
    "c": 136.511,
    "v": 3187
  },
  {
    "dt": "2022.08.22 20:00",
    "o": 136.511,
    "h": 136.557,
    "l": 136.389,
    "c": 136.438,
    "v": 2911
  },
  {
    "dt": "2022.08.22 21:00",
    "o": 136.437,
    "h": 136.609,
    "l": 136.432,
    "c": 136.593,
    "v": 2587
  },
  {
    "dt": "2022.08.22 22:00",
    "o": 136.595,
    "h": 136.666,
    "l": 136.589,
    "c": 136.645,
    "v": 2052
  },
  {
    "dt": "2022.08.22 23:00",
    "o": 136.646,
    "h": 136.728,
    "l": 136.635,
    "c": 136.635,
    "v": 1245
  },
  {
    "dt": "2022.08.23 00:00",
    "o": 136.663,
    "h": 136.716,
    "l": 136.618,
    "c": 136.712,
    "v": 877
  },
  {
    "dt": "2022.08.23 01:00",
    "o": 136.707,
    "h": 136.736,
    "l": 136.641,
    "c": 136.666,
    "v": 1618
  },
  {
    "dt": "2022.08.23 02:00",
    "o": 136.665,
    "h": 136.766,
    "l": 136.623,
    "c": 136.718,
    "v": 1640
  },
  {
    "dt": "2022.08.23 03:00",
    "o": 136.715,
    "h": 136.857,
    "l": 136.403,
    "c": 136.411,
    "v": 3225
  },
  {
    "dt": "2022.08.23 04:00",
    "o": 136.413,
    "h": 136.594,
    "l": 136.299,
    "c": 136.316,
    "v": 3016
  },
  {
    "dt": "2022.08.23 05:00",
    "o": 136.318,
    "h": 136.52,
    "l": 136.24,
    "c": 136.515,
    "v": 2352
  },
  {
    "dt": "2022.08.23 06:00",
    "o": 136.516,
    "h": 136.569,
    "l": 136.388,
    "c": 136.4,
    "v": 2221
  },
  {
    "dt": "2022.08.23 07:00",
    "o": 136.404,
    "h": 136.448,
    "l": 136.29,
    "c": 136.381,
    "v": 1829
  },
  {
    "dt": "2022.08.23 08:00",
    "o": 136.378,
    "h": 136.406,
    "l": 136.091,
    "c": 136.188,
    "v": 2887
  },
  {
    "dt": "2022.08.23 09:00",
    "o": 136.183,
    "h": 136.319,
    "l": 135.826,
    "c": 135.846,
    "v": 3666
  },
  {
    "dt": "2022.08.23 10:00",
    "o": 135.856,
    "h": 136.536,
    "l": 135.717,
    "c": 136.35,
    "v": 5201
  },
  {
    "dt": "2022.08.23 11:00",
    "o": 136.355,
    "h": 136.452,
    "l": 136.209,
    "c": 136.274,
    "v": 4588
  },
  {
    "dt": "2022.08.23 12:00",
    "o": 136.275,
    "h": 136.415,
    "l": 136.201,
    "c": 136.395,
    "v": 4213
  },
  {
    "dt": "2022.08.23 13:00",
    "o": 136.399,
    "h": 136.469,
    "l": 136.251,
    "c": 136.392,
    "v": 3693
  },
  {
    "dt": "2022.08.23 14:00",
    "o": 136.395,
    "h": 136.425,
    "l": 136.272,
    "c": 136.319,
    "v": 3345
  },
  {
    "dt": "2022.08.23 15:00",
    "o": 136.321,
    "h": 136.514,
    "l": 136.27,
    "c": 136.465,
    "v": 4520
  },
  {
    "dt": "2022.08.23 16:00",
    "o": 136.46,
    "h": 137.054,
    "l": 136.389,
    "c": 136.751,
    "v": 5174
  },
  {
    "dt": "2022.08.23 17:00",
    "o": 136.762,
    "h": 136.762,
    "l": 135.885,
    "c": 136.076,
    "v": 5801
  },
  {
    "dt": "2022.08.23 18:00",
    "o": 136.078,
    "h": 136.146,
    "l": 135.95,
    "c": 135.999,
    "v": 4918
  },
  {
    "dt": "2022.08.23 19:00",
    "o": 136.0,
    "h": 136.142,
    "l": 135.924,
    "c": 136.142,
    "v": 4016
  },
  {
    "dt": "2022.08.23 20:00",
    "o": 136.137,
    "h": 136.394,
    "l": 136.115,
    "c": 136.278,
    "v": 3892
  },
  {
    "dt": "2022.08.23 21:00",
    "o": 136.284,
    "h": 136.345,
    "l": 136.22,
    "c": 136.337,
    "v": 3273
  },
  {
    "dt": "2022.08.23 22:00",
    "o": 136.334,
    "h": 136.366,
    "l": 136.26,
    "c": 136.366,
    "v": 2766
  },
  {
    "dt": "2022.08.23 23:00",
    "o": 136.368,
    "h": 136.378,
    "l": 136.275,
    "c": 136.295,
    "v": 1713
  },
  {
    "dt": "2022.08.24 00:00",
    "o": 136.369,
    "h": 136.38,
    "l": 136.281,
    "c": 136.282,
    "v": 1718
  },
  {
    "dt": "2022.08.24 01:00",
    "o": 136.287,
    "h": 136.335,
    "l": 136.225,
    "c": 136.24,
    "v": 1911
  },
  {
    "dt": "2022.08.24 02:00",
    "o": 136.238,
    "h": 136.357,
    "l": 136.232,
    "c": 136.274,
    "v": 3032
  },
  {
    "dt": "2022.08.24 03:00",
    "o": 136.279,
    "h": 136.372,
    "l": 136.211,
    "c": 136.239,
    "v": 3419
  },
  {
    "dt": "2022.08.24 04:00",
    "o": 136.24,
    "h": 136.31,
    "l": 136.071,
    "c": 136.144,
    "v": 3251
  },
  {
    "dt": "2022.08.24 05:00",
    "o": 136.142,
    "h": 136.252,
    "l": 136.115,
    "c": 136.145,
    "v": 3337
  },
  {
    "dt": "2022.08.24 06:00",
    "o": 136.145,
    "h": 136.203,
    "l": 136.061,
    "c": 136.083,
    "v": 2763
  },
  {
    "dt": "2022.08.24 07:00",
    "o": 136.082,
    "h": 136.112,
    "l": 135.753,
    "c": 135.894,
    "v": 3160
  },
  {
    "dt": "2022.08.24 08:00",
    "o": 135.896,
    "h": 135.932,
    "l": 135.802,
    "c": 135.855,
    "v": 2934
  },
  {
    "dt": "2022.08.24 09:00",
    "o": 135.857,
    "h": 136.019,
    "l": 135.76,
    "c": 135.95,
    "v": 3917
  },
  {
    "dt": "2022.08.24 10:00",
    "o": 135.955,
    "h": 136.188,
    "l": 135.846,
    "c": 135.899,
    "v": 4661
  },
  {
    "dt": "2022.08.24 11:00",
    "o": 135.9,
    "h": 135.94,
    "l": 135.653,
    "c": 135.718,
    "v": 4310
  },
  {
    "dt": "2022.08.24 12:00",
    "o": 135.716,
    "h": 135.818,
    "l": 135.505,
    "c": 135.775,
    "v": 4322
  },
  {
    "dt": "2022.08.24 13:00",
    "o": 135.774,
    "h": 135.788,
    "l": 135.572,
    "c": 135.692,
    "v": 3953
  },
  {
    "dt": "2022.08.24 14:00",
    "o": 135.689,
    "h": 135.861,
    "l": 135.666,
    "c": 135.708,
    "v": 4180
  },
  {
    "dt": "2022.08.24 15:00",
    "o": 135.711,
    "h": 135.929,
    "l": 135.67,
    "c": 135.875,
    "v": 4847
  },
  {
    "dt": "2022.08.24 16:00",
    "o": 135.874,
    "h": 136.103,
    "l": 135.861,
    "c": 135.966,
    "v": 4883
  },
  {
    "dt": "2022.08.24 17:00",
    "o": 135.967,
    "h": 136.624,
    "l": 135.929,
    "c": 136.616,
    "v": 5113
  },
  {
    "dt": "2022.08.24 18:00",
    "o": 136.607,
    "h": 136.772,
    "l": 136.41,
    "c": 136.465,
    "v": 4472
  },
  {
    "dt": "2022.08.24 19:00",
    "o": 136.465,
    "h": 136.567,
    "l": 136.349,
    "c": 136.421,
    "v": 3629
  },
  {
    "dt": "2022.08.24 20:00",
    "o": 136.424,
    "h": 136.563,
    "l": 136.407,
    "c": 136.559,
    "v": 3092
  },
  {
    "dt": "2022.08.24 21:00",
    "o": 136.559,
    "h": 136.588,
    "l": 136.515,
    "c": 136.577,
    "v": 2649
  },
  {
    "dt": "2022.08.24 22:00",
    "o": 136.578,
    "h": 136.743,
    "l": 136.555,
    "c": 136.702,
    "v": 2591
  },
  {
    "dt": "2022.08.24 23:00",
    "o": 136.702,
    "h": 136.75,
    "l": 136.621,
    "c": 136.621,
    "v": 1557
  },
  {
    "dt": "2022.08.25 00:00",
    "o": 136.572,
    "h": 136.709,
    "l": 136.515,
    "c": 136.652,
    "v": 2420
  },
  {
    "dt": "2022.08.25 01:00",
    "o": 136.652,
    "h": 136.682,
    "l": 136.541,
    "c": 136.645,
    "v": 1895
  },
  {
    "dt": "2022.08.25 02:00",
    "o": 136.645,
    "h": 136.694,
    "l": 136.594,
    "c": 136.651,
    "v": 1768
  },
  {
    "dt": "2022.08.25 03:00",
    "o": 136.651,
    "h": 136.776,
    "l": 136.544,
    "c": 136.69,
    "v": 3448
  },
  {
    "dt": "2022.08.25 04:00",
    "o": 136.683,
    "h": 136.716,
    "l": 136.455,
    "c": 136.501,
    "v": 3297
  },
  {
    "dt": "2022.08.25 05:00",
    "o": 136.505,
    "h": 136.636,
    "l": 136.5,
    "c": 136.581,
    "v": 2612
  },
  {
    "dt": "2022.08.25 06:00",
    "o": 136.584,
    "h": 136.643,
    "l": 136.556,
    "c": 136.62,
    "v": 2262
  },
  {
    "dt": "2022.08.25 07:00",
    "o": 136.622,
    "h": 136.693,
    "l": 136.557,
    "c": 136.634,
    "v": 2484
  },
  {
    "dt": "2022.08.25 08:00",
    "o": 136.635,
    "h": 136.656,
    "l": 136.547,
    "c": 136.592,
    "v": 2458
  },
  {
    "dt": "2022.08.25 09:00",
    "o": 136.594,
    "h": 136.973,
    "l": 136.572,
    "c": 136.794,
    "v": 4230
  },
  {
    "dt": "2022.08.25 10:00",
    "o": 136.8,
    "h": 136.874,
    "l": 136.452,
    "c": 136.468,
    "v": 4594
  },
  {
    "dt": "2022.08.25 11:00",
    "o": 136.471,
    "h": 136.625,
    "l": 136.392,
    "c": 136.564,
    "v": 4105
  },
  {
    "dt": "2022.08.25 12:00",
    "o": 136.559,
    "h": 136.565,
    "l": 136.309,
    "c": 136.408,
    "v": 3977
  },
  {
    "dt": "2022.08.25 13:00",
    "o": 136.408,
    "h": 136.451,
    "l": 136.121,
    "c": 136.254,
    "v": 3477
  },
  {
    "dt": "2022.08.25 14:00",
    "o": 136.257,
    "h": 136.355,
    "l": 136.005,
    "c": 136.075,
    "v": 3823
  },
  {
    "dt": "2022.08.25 15:00",
    "o": 136.073,
    "h": 136.412,
    "l": 136.022,
    "c": 136.255,
    "v": 4459
  },
  {
    "dt": "2022.08.25 16:00",
    "o": 136.254,
    "h": 136.454,
    "l": 136.187,
    "c": 136.38,
    "v": 4583
  },
  {
    "dt": "2022.08.25 17:00",
    "o": 136.383,
    "h": 136.645,
    "l": 136.297,
    "c": 136.437,
    "v": 4679
  },
  {
    "dt": "2022.08.25 18:00",
    "o": 136.437,
    "h": 136.463,
    "l": 136.191,
    "c": 136.241,
    "v": 4199
  },
  {
    "dt": "2022.08.25 19:00",
    "o": 136.239,
    "h": 136.263,
    "l": 136.052,
    "c": 136.099,
    "v": 3390
  },
  {
    "dt": "2022.08.25 20:00",
    "o": 136.097,
    "h": 136.125,
    "l": 136.033,
    "c": 136.051,
    "v": 3078
  },
  {
    "dt": "2022.08.25 21:00",
    "o": 136.051,
    "h": 136.1,
    "l": 136.009,
    "c": 136.027,
    "v": 2855
  },
  {
    "dt": "2022.08.25 22:00",
    "o": 136.031,
    "h": 136.225,
    "l": 136.031,
    "c": 136.192,
    "v": 2390
  },
  {
    "dt": "2022.08.25 23:00",
    "o": 136.193,
    "h": 136.212,
    "l": 136.096,
    "c": 136.143,
    "v": 1530
  },
  {
    "dt": "2022.08.26 00:00",
    "o": 136.159,
    "h": 136.173,
    "l": 136.087,
    "c": 136.147,
    "v": 1130
  },
  {
    "dt": "2022.08.26 01:00",
    "o": 136.145,
    "h": 136.176,
    "l": 136.079,
    "c": 136.154,
    "v": 1158
  },
  {
    "dt": "2022.08.26 02:00",
    "o": 136.142,
    "h": 136.201,
    "l": 136.118,
    "c": 136.152,
    "v": 1638
  },
  {
    "dt": "2022.08.26 03:00",
    "o": 136.146,
    "h": 136.25,
    "l": 136.091,
    "c": 136.207,
    "v": 2579
  },
  {
    "dt": "2022.08.26 04:00",
    "o": 136.208,
    "h": 136.313,
    "l": 136.129,
    "c": 136.299,
    "v": 2863
  },
  {
    "dt": "2022.08.26 05:00",
    "o": 136.296,
    "h": 136.353,
    "l": 136.267,
    "c": 136.28,
    "v": 2042
  },
  {
    "dt": "2022.08.26 06:00",
    "o": 136.276,
    "h": 136.347,
    "l": 136.232,
    "c": 136.242,
    "v": 1539
  },
  {
    "dt": "2022.08.26 07:00",
    "o": 136.237,
    "h": 136.347,
    "l": 136.23,
    "c": 136.311,
    "v": 1966
  },
  {
    "dt": "2022.08.26 08:00",
    "o": 136.308,
    "h": 136.351,
    "l": 136.231,
    "c": 136.303,
    "v": 2114
  },
  {
    "dt": "2022.08.26 09:00",
    "o": 136.304,
    "h": 136.522,
    "l": 136.304,
    "c": 136.352,
    "v": 3299
  },
  {
    "dt": "2022.08.26 10:00",
    "o": 136.366,
    "h": 136.687,
    "l": 136.335,
    "c": 136.662,
    "v": 4087
  },
  {
    "dt": "2022.08.26 11:00",
    "o": 136.661,
    "h": 136.783,
    "l": 136.556,
    "c": 136.755,
    "v": 3740
  },
  {
    "dt": "2022.08.26 12:00",
    "o": 136.754,
    "h": 136.934,
    "l": 136.746,
    "c": 136.917,
    "v": 3709
  },
  {
    "dt": "2022.08.26 13:00",
    "o": 136.916,
    "h": 137.208,
    "l": 136.899,
    "c": 137.113,
    "v": 3461
  },
  {
    "dt": "2022.08.26 14:00",
    "o": 137.111,
    "h": 137.112,
    "l": 136.838,
    "c": 136.935,
    "v": 3384
  },
  {
    "dt": "2022.08.26 15:00",
    "o": 136.936,
    "h": 137.132,
    "l": 136.789,
    "c": 137.118,
    "v": 4700
  },
  {
    "dt": "2022.08.26 16:00",
    "o": 137.116,
    "h": 137.736,
    "l": 136.978,
    "c": 137.547,
    "v": 5504
  },
  {
    "dt": "2022.08.26 17:00",
    "o": 137.539,
    "h": 137.962,
    "l": 137.392,
    "c": 137.491,
    "v": 5888
  },
  {
    "dt": "2022.08.26 18:00",
    "o": 137.488,
    "h": 137.496,
    "l": 136.975,
    "c": 137.036,
    "v": 5083
  },
  {
    "dt": "2022.08.26 19:00",
    "o": 137.036,
    "h": 137.099,
    "l": 136.964,
    "c": 137.048,
    "v": 3990
  },
  {
    "dt": "2022.08.26 20:00",
    "o": 137.046,
    "h": 137.084,
    "l": 136.758,
    "c": 136.912,
    "v": 3511
  },
  {
    "dt": "2022.08.26 21:00",
    "o": 136.912,
    "h": 136.949,
    "l": 136.829,
    "c": 136.889,
    "v": 3225
  },
  {
    "dt": "2022.08.26 22:00",
    "o": 136.879,
    "h": 136.996,
    "l": 136.81,
    "c": 136.97,
    "v": 3032
  },
  {
    "dt": "2022.08.26 23:00",
    "o": 136.965,
    "h": 137.159,
    "l": 136.894,
    "c": 137.092,
    "v": 2088
  },
  {
    "dt": "2022.08.29 00:00",
    "o": 137.165,
    "h": 137.165,
    "l": 136.972,
    "c": 137.035,
    "v": 397
  },
  {
    "dt": "2022.08.29 01:00",
    "o": 137.063,
    "h": 137.266,
    "l": 137.063,
    "c": 137.146,
    "v": 2246
  },
  {
    "dt": "2022.08.29 02:00",
    "o": 137.136,
    "h": 137.347,
    "l": 137.12,
    "c": 137.27,
    "v": 2920
  },
  {
    "dt": "2022.08.29 03:00",
    "o": 137.284,
    "h": 137.483,
    "l": 137.24,
    "c": 137.408,
    "v": 3729
  },
  {
    "dt": "2022.08.29 04:00",
    "o": 137.409,
    "h": 137.571,
    "l": 137.344,
    "c": 137.538,
    "v": 3264
  },
  {
    "dt": "2022.08.29 05:00",
    "o": 137.54,
    "h": 137.613,
    "l": 137.409,
    "c": 137.453,
    "v": 2988
  },
  {
    "dt": "2022.08.29 06:00",
    "o": 137.452,
    "h": 137.586,
    "l": 137.408,
    "c": 137.522,
    "v": 2212
  },
  {
    "dt": "2022.08.29 07:00",
    "o": 137.522,
    "h": 137.724,
    "l": 137.504,
    "c": 137.695,
    "v": 2932
  },
  {
    "dt": "2022.08.29 08:00",
    "o": 137.696,
    "h": 137.815,
    "l": 137.655,
    "c": 137.757,
    "v": 3241
  },
  {
    "dt": "2022.08.29 09:00",
    "o": 137.751,
    "h": 137.984,
    "l": 137.659,
    "c": 137.892,
    "v": 3776
  },
  {
    "dt": "2022.08.29 10:00",
    "o": 137.899,
    "h": 138.125,
    "l": 137.79,
    "c": 137.903,
    "v": 4332
  },
  {
    "dt": "2022.08.29 11:00",
    "o": 137.908,
    "h": 137.909,
    "l": 137.657,
    "c": 137.835,
    "v": 3831
  },
  {
    "dt": "2022.08.29 12:00",
    "o": 137.829,
    "h": 138.122,
    "l": 137.798,
    "c": 138.069,
    "v": 3780
  },
  {
    "dt": "2022.08.29 13:00",
    "o": 138.069,
    "h": 138.337,
    "l": 138.019,
    "c": 138.289,
    "v": 3879
  },
  {
    "dt": "2022.08.29 14:00",
    "o": 138.289,
    "h": 138.556,
    "l": 138.211,
    "c": 138.529,
    "v": 3726
  },
  {
    "dt": "2022.08.29 15:00",
    "o": 138.53,
    "h": 138.824,
    "l": 138.447,
    "c": 138.613,
    "v": 4506
  },
  {
    "dt": "2022.08.29 16:00",
    "o": 138.612,
    "h": 138.704,
    "l": 138.447,
    "c": 138.642,
    "v": 4686
  },
  {
    "dt": "2022.08.29 17:00",
    "o": 138.639,
    "h": 138.761,
    "l": 138.472,
    "c": 138.482,
    "v": 4659
  },
  {
    "dt": "2022.08.29 18:00",
    "o": 138.481,
    "h": 138.777,
    "l": 138.343,
    "c": 138.701,
    "v": 4005
  },
  {
    "dt": "2022.08.29 19:00",
    "o": 138.694,
    "h": 138.935,
    "l": 138.688,
    "c": 138.927,
    "v": 3534
  },
  {
    "dt": "2022.08.29 20:00",
    "o": 138.926,
    "h": 138.963,
    "l": 138.774,
    "c": 138.854,
    "v": 3559
  },
  {
    "dt": "2022.08.29 21:00",
    "o": 138.853,
    "h": 138.887,
    "l": 138.683,
    "c": 138.691,
    "v": 3566
  },
  {
    "dt": "2022.08.29 22:00",
    "o": 138.69,
    "h": 138.742,
    "l": 138.616,
    "c": 138.628,
    "v": 2594
  },
  {
    "dt": "2022.08.29 23:00",
    "o": 138.627,
    "h": 138.717,
    "l": 138.597,
    "c": 138.618,
    "v": 1114
  },
  {
    "dt": "2022.08.30 00:00",
    "o": 138.658,
    "h": 138.694,
    "l": 138.525,
    "c": 138.675,
    "v": 464
  },
  {
    "dt": "2022.08.30 01:00",
    "o": 138.671,
    "h": 138.785,
    "l": 138.653,
    "c": 138.71,
    "v": 1457
  },
  {
    "dt": "2022.08.30 02:00",
    "o": 138.715,
    "h": 138.784,
    "l": 138.667,
    "c": 138.783,
    "v": 1829
  },
  {
    "dt": "2022.08.30 03:00",
    "o": 138.785,
    "h": 138.817,
    "l": 138.52,
    "c": 138.564,
    "v": 3061
  },
  {
    "dt": "2022.08.30 04:00",
    "o": 138.566,
    "h": 138.612,
    "l": 138.454,
    "c": 138.479,
    "v": 3449
  },
  {
    "dt": "2022.08.30 05:00",
    "o": 138.478,
    "h": 138.485,
    "l": 138.324,
    "c": 138.444,
    "v": 3032
  },
  {
    "dt": "2022.08.30 06:00",
    "o": 138.443,
    "h": 138.576,
    "l": 138.403,
    "c": 138.546,
    "v": 2605
  },
  {
    "dt": "2022.08.30 07:00",
    "o": 138.544,
    "h": 138.592,
    "l": 138.418,
    "c": 138.47,
    "v": 2754
  },
  {
    "dt": "2022.08.30 08:00",
    "o": 138.467,
    "h": 138.506,
    "l": 138.385,
    "c": 138.486,
    "v": 2636
  },
  {
    "dt": "2022.08.30 09:00",
    "o": 138.481,
    "h": 138.614,
    "l": 138.351,
    "c": 138.352,
    "v": 3967
  },
  {
    "dt": "2022.08.30 10:00",
    "o": 138.336,
    "h": 138.882,
    "l": 138.252,
    "c": 138.848,
    "v": 4861
  },
  {
    "dt": "2022.08.30 11:00",
    "o": 138.835,
    "h": 138.842,
    "l": 138.536,
    "c": 138.608,
    "v": 4436
  },
  {
    "dt": "2022.08.30 12:00",
    "o": 138.617,
    "h": 138.977,
    "l": 138.617,
    "c": 138.789,
    "v": 4003
  },
  {
    "dt": "2022.08.30 13:00",
    "o": 138.79,
    "h": 138.942,
    "l": 138.64,
    "c": 138.68,
    "v": 3706
  },
  {
    "dt": "2022.08.30 14:00",
    "o": 138.678,
    "h": 138.701,
    "l": 138.426,
    "c": 138.528,
    "v": 3795
  },
  {
    "dt": "2022.08.30 15:00",
    "o": 138.528,
    "h": 138.729,
    "l": 138.525,
    "c": 138.641,
    "v": 4337
  },
  {
    "dt": "2022.08.30 16:00",
    "o": 138.641,
    "h": 138.912,
    "l": 138.504,
    "c": 138.753,
    "v": 4975
  },
  {
    "dt": "2022.08.30 17:00",
    "o": 138.754,
    "h": 138.893,
    "l": 138.565,
    "c": 138.743,
    "v": 5265
  },
  {
    "dt": "2022.08.30 18:00",
    "o": 138.74,
    "h": 139.096,
    "l": 138.736,
    "c": 138.972,
    "v": 4830
  },
  {
    "dt": "2022.08.30 19:00",
    "o": 138.972,
    "h": 139.206,
    "l": 138.96,
    "c": 139.007,
    "v": 4157
  },
  {
    "dt": "2022.08.30 20:00",
    "o": 139.009,
    "h": 139.072,
    "l": 138.865,
    "c": 138.975,
    "v": 3664
  },
  {
    "dt": "2022.08.30 21:00",
    "o": 138.972,
    "h": 139.044,
    "l": 138.872,
    "c": 138.938,
    "v": 3608
  },
  {
    "dt": "2022.08.30 22:00",
    "o": 138.932,
    "h": 139.085,
    "l": 138.927,
    "c": 138.95,
    "v": 3183
  },
  {
    "dt": "2022.08.30 23:00",
    "o": 138.952,
    "h": 139.106,
    "l": 138.952,
    "c": 138.957,
    "v": 1655
  },
  {
    "dt": "2022.08.31 00:00",
    "o": 138.926,
    "h": 138.997,
    "l": 138.885,
    "c": 138.975,
    "v": 1368
  },
  {
    "dt": "2022.08.31 01:00",
    "o": 138.974,
    "h": 139.059,
    "l": 138.957,
    "c": 139.017,
    "v": 1440
  },
  {
    "dt": "2022.08.31 02:00",
    "o": 139.017,
    "h": 139.116,
    "l": 139.017,
    "c": 139.077,
    "v": 1872
  },
  {
    "dt": "2022.08.31 03:00",
    "o": 139.078,
    "h": 139.094,
    "l": 138.888,
    "c": 138.997,
    "v": 3059
  },
  {
    "dt": "2022.08.31 04:00",
    "o": 138.993,
    "h": 139.027,
    "l": 138.788,
    "c": 138.826,
    "v": 3185
  },
  {
    "dt": "2022.08.31 05:00",
    "o": 138.823,
    "h": 138.895,
    "l": 138.779,
    "c": 138.869,
    "v": 2536
  },
  {
    "dt": "2022.08.31 06:00",
    "o": 138.869,
    "h": 139.047,
    "l": 138.808,
    "c": 139.031,
    "v": 2347
  },
  {
    "dt": "2022.08.31 07:00",
    "o": 139.035,
    "h": 139.083,
    "l": 138.889,
    "c": 139.024,
    "v": 2346
  },
  {
    "dt": "2022.08.31 08:00",
    "o": 139.03,
    "h": 139.086,
    "l": 138.911,
    "c": 138.968,
    "v": 2600
  },
  {
    "dt": "2022.08.31 09:00",
    "o": 138.966,
    "h": 138.995,
    "l": 138.49,
    "c": 138.534,
    "v": 3787
  },
  {
    "dt": "2022.08.31 10:00",
    "o": 138.552,
    "h": 138.743,
    "l": 138.465,
    "c": 138.608,
    "v": 4519
  },
  {
    "dt": "2022.08.31 11:00",
    "o": 138.609,
    "h": 138.933,
    "l": 138.258,
    "c": 138.287,
    "v": 4752
  },
  {
    "dt": "2022.08.31 12:00",
    "o": 138.313,
    "h": 138.676,
    "l": 138.313,
    "c": 138.55,
    "v": 4443
  },
  {
    "dt": "2022.08.31 13:00",
    "o": 138.551,
    "h": 138.675,
    "l": 138.406,
    "c": 138.414,
    "v": 4278
  },
  {
    "dt": "2022.08.31 14:00",
    "o": 138.414,
    "h": 138.792,
    "l": 138.366,
    "c": 138.754,
    "v": 4110
  },
  {
    "dt": "2022.08.31 15:00",
    "o": 138.752,
    "h": 138.799,
    "l": 138.422,
    "c": 138.701,
    "v": 4746
  },
  {
    "dt": "2022.08.31 16:00",
    "o": 138.709,
    "h": 138.94,
    "l": 138.663,
    "c": 138.853,
    "v": 5023
  },
  {
    "dt": "2022.08.31 17:00",
    "o": 138.855,
    "h": 139.406,
    "l": 138.803,
    "c": 139.338,
    "v": 5403
  },
  {
    "dt": "2022.08.31 18:00",
    "o": 139.331,
    "h": 139.669,
    "l": 139.274,
    "c": 139.574,
    "v": 4940
  },
  {
    "dt": "2022.08.31 19:00",
    "o": 139.573,
    "h": 139.581,
    "l": 139.411,
    "c": 139.439,
    "v": 3764
  },
  {
    "dt": "2022.08.31 20:00",
    "o": 139.438,
    "h": 139.51,
    "l": 139.279,
    "c": 139.422,
    "v": 3524
  },
  {
    "dt": "2022.08.31 21:00",
    "o": 139.42,
    "h": 139.503,
    "l": 139.323,
    "c": 139.328,
    "v": 3520
  },
  {
    "dt": "2022.08.31 22:00",
    "o": 139.331,
    "h": 139.614,
    "l": 139.304,
    "c": 139.592,
    "v": 3667
  },
  {
    "dt": "2022.08.31 23:00",
    "o": 139.591,
    "h": 139.719,
    "l": 139.545,
    "c": 139.67,
    "v": 2073
  }
]