[
  {
    "dt": "2023.04.03 00:00",
    "o": 133.31,
    "h": 133.356,
    "l": 133.21,
    "c": 133.242,
    "v": 207
  },
  {
    "dt": "2023.04.03 01:00",
    "o": 133.247,
    "h": 133.363,
    "l": 133.05,
    "c": 133.271,
    "v": 3678
  },
  {
    "dt": "2023.04.03 02:00",
    "o": 133.284,
    "h": 133.372,
    "l": 133.122,
    "c": 133.347,
    "v": 2789
  },
  {
    "dt": "2023.04.03 03:00",
    "o": 133.341,
    "h": 133.342,
    "l": 132.912,
    "c": 133.026,
    "v": 4067
  },
  {
    "dt": "2023.04.03 04:00",
    "o": 133.022,
    "h": 133.148,
    "l": 132.809,
    "c": 133.091,
    "v": 3500
  },
  {
    "dt": "2023.04.03 05:00",
    "o": 133.091,
    "h": 133.256,
    "l": 132.99,
    "c": 133.251,
    "v": 2783
  },
  {
    "dt": "2023.04.03 06:00",
    "o": 133.25,
    "h": 133.453,
    "l": 133.244,
    "c": 133.434,
    "v": 2716
  },
  {
    "dt": "2023.04.03 07:00",
    "o": 133.437,
    "h": 133.486,
    "l": 133.368,
    "c": 133.461,
    "v": 2426
  },
  {
    "dt": "2023.04.03 08:00",
    "o": 133.463,
    "h": 133.559,
    "l": 133.324,
    "c": 133.483,
    "v": 2836
  },
  {
    "dt": "2023.04.03 09:00",
    "o": 133.48,
    "h": 133.745,
    "l": 133.446,
    "c": 133.576,
    "v": 3450
  },
  {
    "dt": "2023.04.03 10:00",
    "o": 133.582,
    "h": 133.665,
    "l": 133.446,
    "c": 133.529,
    "v": 3562
  },
  {
    "dt": "2023.04.03 11:00",
    "o": 133.528,
    "h": 133.643,
    "l": 133.422,
    "c": 133.433,
    "v": 3063
  },
  {
    "dt": "2023.04.03 12:00",
    "o": 133.431,
    "h": 133.525,
    "l": 133.337,
    "c": 133.345,
    "v": 2797
  },
  {
    "dt": "2023.04.03 13:00",
    "o": 133.345,
    "h": 133.363,
    "l": 133.173,
    "c": 133.252,
    "v": 2752
  },
  {
    "dt": "2023.04.03 14:00",
    "o": 133.255,
    "h": 133.292,
    "l": 132.858,
    "c": 132.877,
    "v": 3227
  },
  {
    "dt": "2023.04.03 15:00",
    "o": 132.879,
    "h": 133.158,
    "l": 132.835,
    "c": 133.09,
    "v": 3124
  },
  {
    "dt": "2023.04.03 16:00",
    "o": 133.092,
    "h": 133.131,
    "l": 132.77,
    "c": 132.848,
    "v": 2879
  },
  {
    "dt": "2023.04.03 17:00",
    "o": 132.507,
    "h": 132.636,
    "l": 132.266,
    "c": 132.324,
    "v": 3583
  },
  {
    "dt": "2023.04.03 18:00",
    "o": 132.326,
    "h": 132.382,
    "l": 132.192,
    "c": 132.345,
    "v": 3102
  },
  {
    "dt": "2023.04.03 19:00",
    "o": 132.347,
    "h": 132.488,
    "l": 132.318,
    "c": 132.446,
    "v": 2543
  },
  {
    "dt": "2023.04.03 20:00",
    "o": 132.446,
    "h": 132.559,
    "l": 132.355,
    "c": 132.453,
    "v": 2326
  },
  {
    "dt": "2023.04.03 21:00",
    "o": 132.454,
    "h": 132.454,
    "l": 132.269,
    "c": 132.349,
    "v": 2266
  },
  {
    "dt": "2023.04.03 22:00",
    "o": 132.348,
    "h": 132.451,
    "l": 132.312,
    "c": 132.435,
    "v": 1833
  },
  {
    "dt": "2023.04.03 23:00",
    "o": 132.44,
    "h": 132.445,
    "l": 132.345,
    "c": 132.393,
    "v": 1370
  },
  {
    "dt": "2023.04.04 00:00",
    "o": 132.41,
    "h": 132.426,
    "l": 132.386,
    "c": 132.395,
    "v": 194
  },
  {
    "dt": "2023.04.04 01:00",
    "o": 132.4,
    "h": 132.424,
    "l": 132.316,
    "c": 132.344,
    "v": 1954
  },
  {
    "dt": "2023.04.04 02:00",
    "o": 132.349,
    "h": 132.351,
    "l": 132.16,
    "c": 132.311,
    "v": 1913
  },
  {
    "dt": "2023.04.04 03:00",
    "o": 132.308,
    "h": 132.589,
    "l": 132.198,
    "c": 132.546,
    "v": 3210
  },
  {
    "dt": "2023.04.04 04:00",
    "o": 132.546,
    "h": 132.811,
    "l": 132.536,
    "c": 132.773,
    "v": 2522
  },
  {
    "dt": "2023.04.04 05:00",
    "o": 132.772,
    "h": 132.788,
    "l": 132.676,
    "c": 132.734,
    "v": 2412
  },
  {
    "dt": "2023.04.04 06:00",
    "o": 132.737,
    "h": 132.873,
    "l": 132.726,
    "c": 132.838,
    "v": 1910
  },
  {
    "dt": "2023.04.04 07:00",
    "o": 132.844,
    "h": 132.931,
    "l": 132.653,
    "c": 132.722,
    "v": 2573
  },
  {
    "dt": "2023.04.04 08:00",
    "o": 132.738,
    "h": 132.969,
    "l": 132.68,
    "c": 132.872,
    "v": 2180
  },
  {
    "dt": "2023.04.04 09:00",
    "o": 132.873,
    "h": 132.903,
    "l": 132.602,
    "c": 132.723,
    "v": 3068
  },
  {
    "dt": "2023.04.04 10:00",
    "o": 132.725,
    "h": 132.813,
    "l": 132.497,
    "c": 132.601,
    "v": 3777
  },
  {
    "dt": "2023.04.04 11:00",
    "o": 132.601,
    "h": 132.923,
    "l": 132.579,
    "c": 132.892,
    "v": 3478
  },
  {
    "dt": "2023.04.04 12:00",
    "o": 132.886,
    "h": 133.053,
    "l": 132.776,
    "c": 132.806,
    "v": 3375
  },
  {
    "dt": "2023.04.04 13:00",
    "o": 132.812,
    "h": 133.006,
    "l": 132.812,
    "c": 132.903,
    "v": 2870
  },
  {
    "dt": "2023.04.04 14:00",
    "o": 132.903,
    "h": 133.157,
    "l": 132.854,
    "c": 133.023,
    "v": 2774
  },
  {
    "dt": "2023.04.04 15:00",
    "o": 133.03,
    "h": 133.069,
    "l": 132.776,
    "c": 132.894,
    "v": 3507
  },
  {
    "dt": "2023.04.04 16:00",
    "o": 132.895,
    "h": 132.94,
    "l": 132.483,
    "c": 132.692,
    "v": 3625
  },
  {
    "dt": "2023.04.04 17:00",
    "o": 132.692,
    "h": 132.694,
    "l": 131.65,
    "c": 131.818,
    "v": 5254
  },
  {
    "dt": "2023.04.04 18:00",
    "o": 131.8,
    "h": 131.88,
    "l": 131.546,
    "c": 131.593,
    "v": 3882
  },
  {
    "dt": "2023.04.04 19:00",
    "o": 131.596,
    "h": 131.673,
    "l": 131.512,
    "c": 131.613,
    "v": 2816
  },
  {
    "dt": "2023.04.04 20:00",
    "o": 131.614,
    "h": 131.747,
    "l": 131.608,
    "c": 131.736,
    "v": 2280
  },
  {
    "dt": "2023.04.04 21:00",
    "o": 131.736,
    "h": 131.738,
    "l": 131.605,
    "c": 131.615,
    "v": 1886
  },
  {
    "dt": "2023.04.04 22:00",
    "o": 131.616,
    "h": 131.672,
    "l": 131.572,
    "c": 131.636,
    "v": 1940
  },
  {
    "dt": "2023.04.04 23:00",
    "o": 131.635,
    "h": 131.764,
    "l": 131.627,
    "c": 131.704,
    "v": 1184
  },
  {
    "dt": "2023.04.05 00:00",
    "o": 131.665,
    "h": 131.715,
    "l": 131.665,
    "c": 131.709,
    "v": 543
  },
  {
    "dt": "2023.04.05 01:00",
    "o": 131.695,
    "h": 131.713,
    "l": 131.621,
    "c": 131.679,
    "v": 1291
  },
  {
    "dt": "2023.04.05 02:00",
    "o": 131.674,
    "h": 131.703,
    "l": 131.363,
    "c": 131.422,
    "v": 2350
  },
  {
    "dt": "2023.04.05 03:00",
    "o": 131.423,
    "h": 131.555,
    "l": 131.292,
    "c": 131.55,
    "v": 3207
  },
  {
    "dt": "2023.04.05 04:00",
    "o": 131.548,
    "h": 131.628,
    "l": 131.373,
    "c": 131.562,
    "v": 2828
  },
  {
    "dt": "2023.04.05 05:00",
    "o": 131.554,
    "h": 131.809,
    "l": 131.541,
    "c": 131.762,
    "v": 2976
  },
  {
    "dt": "2023.04.05 06:00",
    "o": 131.764,
    "h": 131.833,
    "l": 131.659,
    "c": 131.668,
    "v": 2131
  },
  {
    "dt": "2023.04.05 07:00",
    "o": 131.67,
    "h": 131.801,
    "l": 131.663,
    "c": 131.689,
    "v": 2235
  },
  {
    "dt": "2023.04.05 08:00",
    "o": 131.686,
    "h": 131.73,
    "l": 131.496,
    "c": 131.529,
    "v": 2224
  },
  {
    "dt": "2023.04.05 09:00",
    "o": 131.525,
    "h": 131.618,
    "l": 131.404,
    "c": 131.504,
    "v": 3134
  },
  {
    "dt": "2023.04.05 10:00",
    "o": 131.504,
    "h": 131.607,
    "l": 131.308,
    "c": 131.401,
    "v": 4025
  },
  {
    "dt": "2023.04.05 11:00",
    "o": 131.401,
    "h": 131.497,
    "l": 131.224,
    "c": 131.457,
    "v": 3761
  },
  {
    "dt": "2023.04.05 12:00",
    "o": 131.455,
    "h": 131.723,
    "l": 131.443,
    "c": 131.626,
    "v": 3461
  },
  {
    "dt": "2023.04.05 13:00",
    "o": 131.626,
    "h": 131.77,
    "l": 131.564,
    "c": 131.644,
    "v": 3017
  },
  {
    "dt": "2023.04.05 14:00",
    "o": 131.644,
    "h": 131.73,
    "l": 131.425,
    "c": 131.467,
    "v": 3036
  },
  {
    "dt": "2023.04.05 15:00",
    "o": 131.463,
    "h": 131.508,
    "l": 130.906,
    "c": 131.008,
    "v": 4351
  },
  {
    "dt": "2023.04.05 16:00",
    "o": 131.005,
    "h": 131.194,
    "l": 130.918,
    "c": 131.085,
    "v": 3903
  },
  {
    "dt": "2023.04.05 17:00",
    "o": 131.08,
    "h": 131.181,
    "l": 130.621,
    "c": 130.876,
    "v": 4731
  },
  {
    "dt": "2023.04.05 18:00",
    "o": 130.877,
    "h": 131.122,
    "l": 130.809,
    "c": 131.104,
    "v": 3467
  },
  {
    "dt": "2023.04.05 19:00",
    "o": 131.103,
    "h": 131.231,
    "l": 131.05,
    "c": 131.176,
    "v": 2795
  },
  {
    "dt": "2023.04.05 20:00",
    "o": 131.18,
    "h": 131.237,
    "l": 131.079,
    "c": 131.082,
    "v": 2410
  },
  {
    "dt": "2023.04.05 21:00",
    "o": 131.081,
    "h": 131.148,
    "l": 131.076,
    "c": 131.09,
    "v": 2106
  },
  {
    "dt": "2023.04.05 22:00",
    "o": 131.09,
    "h": 131.34,
    "l": 131.089,
    "c": 131.3,
    "v": 1751
  },
  {
    "dt": "2023.04.05 23:00",
    "o": 131.299,
    "h": 131.402,
    "l": 131.264,
    "c": 131.314,
    "v": 1493
  },
  {
    "dt": "2023.04.06 00:00",
    "o": 131.275,
    "h": 131.32,
    "l": 131.215,
    "c": 131.216,
    "v": 337
  },
  {
    "dt": "2023.04.06 01:00",
    "o": 131.232,
    "h": 131.258,
    "l": 131.093,
    "c": 131.104,
    "v": 1985
  },
  {
    "dt": "2023.04.06 02:00",
    "o": 131.096,
    "h": 131.104,
    "l": 130.81,
    "c": 130.93,
    "v": 2132
  },
  {
    "dt": "2023.04.06 03:00",
    "o": 130.932,
    "h": 131.173,
    "l": 130.767,
    "c": 131.154,
    "v": 2560
  },
  {
    "dt": "2023.04.06 04:00",
    "o": 131.152,
    "h": 131.281,
    "l": 131.1,
    "c": 131.145,
    "v": 2365
  },
  {
    "dt": "2023.04.06 05:00",
    "o": 131.15,
    "h": 131.188,
    "l": 130.992,
    "c": 131.155,
    "v": 2274
  },
  {
    "dt": "2023.04.06 06:00",
    "o": 131.155,
    "h": 131.216,
    "l": 131.125,
    "c": 131.195,
    "v": 1831
  },
  {
    "dt": "2023.04.06 07:00",
    "o": 131.186,
    "h": 131.249,
    "l": 131.102,
    "c": 131.151,
    "v": 1684
  },
  {
    "dt": "2023.04.06 08:00",
    "o": 131.152,
    "h": 131.324,
    "l": 131.14,
    "c": 131.236,
    "v": 1909
  },
  {
    "dt": "2023.04.06 09:00",
    "o": 131.235,
    "h": 131.484,
    "l": 131.234,
    "c": 131.368,
    "v": 2817
  },
  {
    "dt": "2023.04.06 10:00",
    "o": 131.375,
    "h": 131.471,
    "l": 131.209,
    "c": 131.358,
    "v": 3408
  },
  {
    "dt": "2023.04.06 11:00",
    "o": 131.357,
    "h": 131.439,
    "l": 131.178,
    "c": 131.402,
    "v": 3166
  },
  {
    "dt": "2023.04.06 12:00",
    "o": 131.406,
    "h": 131.416,
    "l": 131.167,
    "c": 131.319,
    "v": 2756
  },
  {
    "dt": "2023.04.06 13:00",
    "o": 131.319,
    "h": 131.565,
    "l": 131.31,
    "c": 131.442,
    "v": 2752
  },
  {
    "dt": "2023.04.06 14:00",
    "o": 131.442,
    "h": 131.561,
    "l": 131.337,
    "c": 131.469,
    "v": 2562
  },
  {
    "dt": "2023.04.06 15:00",
    "o": 131.467,
    "h": 131.654,
    "l": 130.952,
    "c": 131.585,
    "v": 4025
  },
  {
    "dt": "2023.04.06 16:00",
    "o": 131.599,
    "h": 131.808,
    "l": 131.53,
    "c": 131.786,
    "v": 3975
  },
  {
    "dt": "2023.04.06 17:00",
    "o": 131.784,
    "h": 131.894,
    "l": 131.695,
    "c": 131.749,
    "v": 3662
  },
  {
    "dt": "2023.04.06 18:00",
    "o": 131.75,
    "h": 131.787,
    "l": 131.656,
    "c": 131.666,
    "v": 2687
  },
  {
    "dt": "2023.04.06 19:00",
    "o": 131.668,
    "h": 131.68,
    "l": 131.573,
    "c": 131.598,
    "v": 1767
  },
  {
    "dt": "2023.04.06 20:00",
    "o": 131.6,
    "h": 131.698,
    "l": 131.561,
    "c": 131.698,
    "v": 1664
  },
  {
    "dt": "2023.04.06 21:00",
    "o": 131.697,
    "h": 131.775,
    "l": 131.677,
    "c": 131.747,
    "v": 1745
  },
  {
    "dt": "2023.04.06 22:00",
    "o": 131.744,
    "h": 131.84,
    "l": 131.744,
    "c": 131.774,
    "v": 1346
  },
  {
    "dt": "2023.04.06 23:00",
    "o": 131.775,
    "h": 131.831,
    "l": 131.747,
    "c": 131.761,
    "v": 846
  },
  {
    "dt": "2023.04.07 00:00",
    "o": 131.722,
    "h": 131.749,
    "l": 131.67,
    "c": 131.697,
    "v": 139
  },
  {
    "dt": "2023.04.07 01:00",
    "o": 131.697,
    "h": 131.855,
    "l": 131.678,
    "c": 131.836,
    "v": 1550
  },
  {
    "dt": "2023.04.07 02:00",
    "o": 131.835,
    "h": 131.903,
    "l": 131.644,
    "c": 131.667,
    "v": 1697
  },
  {
    "dt": "2023.04.07 03:00",
    "o": 131.665,
    "h": 131.772,
    "l": 131.589,
    "c": 131.732,
    "v": 2520
  },
  {
    "dt": "2023.04.07 04:00",
    "o": 131.737,
    "h": 131.752,
    "l": 131.557,
    "c": 131.61,
    "v": 2187
  },
  {
    "dt": "2023.04.07 05:00",
    "o": 131.608,
    "h": 131.748,
    "l": 131.594,
    "c": 131.743,
    "v": 2158
  },
  {
    "dt": "2023.04.07 06:00",
    "o": 131.743,
    "h": 131.818,
    "l": 131.68,
    "c": 131.7,
    "v": 1740
  },
  {
    "dt": "2023.04.07 07:00",
    "o": 131.697,
    "h": 131.733,
    "l": 131.651,
    "c": 131.692,
    "v": 1364
  },
  {
    "dt": "2023.04.07 08:00",
    "o": 131.692,
    "h": 131.778,
    "l": 131.638,
    "c": 131.774,
    "v": 1834
  },
  {
    "dt": "2023.04.07 09:00",
    "o": 131.773,
    "h": 131.938,
    "l": 131.762,
    "c": 131.84,
    "v": 2272
  },
  {
    "dt": "2023.04.07 10:00",
    "o": 131.84,
    "h": 131.912,
    "l": 131.792,
    "c": 131.876,
    "v": 1887
  },
  {
    "dt": "2023.04.07 11:00",
    "o": 131.875,
    "h": 131.886,
    "l": 131.761,
    "c": 131.794,
    "v": 1639
  },
  {
    "dt": "2023.04.07 12:00",
    "o": 131.794,
    "h": 131.823,
    "l": 131.673,
    "c": 131.683,
    "v": 1798
  },
  {
    "dt": "2023.04.07 13:00",
    "o": 131.686,
    "h": 131.694,
    "l": 131.518,
    "c": 131.519,
    "v": 1886
  },
  {
    "dt": "2023.04.07 14:00",
    "o": 131.52,
    "h": 131.67,
    "l": 131.516,
    "c": 131.651,
    "v": 1811
  },
  {
    "dt": "2023.04.07 15:00",
    "o": 131.65,
    "h": 132.362,
    "l": 131.535,
    "c": 132.11,
    "v": 3459
  },
  {
    "dt": "2023.04.07 16:00",
    "o": 132.11,
    "h": 132.273,
    "l": 132.048,
    "c": 132.196,
    "v": 2415
  },
  {
    "dt": "2023.04.07 17:00",
    "o": 132.197,
    "h": 132.23,
    "l": 132.054,
    "c": 132.059,
    "v": 1582
  },
  {
    "dt": "2023.04.07 18:00",
    "o": 132.077,
    "h": 132.116,
    "l": 131.986,
    "c": 132.116,
    "v": 2494
  },
  {
    "dt": "2023.04.07 19:00",
    "o": 132.116,
    "h": 132.152,
    "l": 132.094,
    "c": 132.129,
    "v": 1664
  },
  {
    "dt": "2023.04.07 20:00",
    "o": 132.129,
    "h": 132.19,
    "l": 132.115,
    "c": 132.169,
    "v": 1078
  },
  {
    "dt": "2023.04.07 21:00",
    "o": 132.172,
    "h": 132.245,
    "l": 132.127,
    "c": 132.2,
    "v": 2047
  },
  {
    "dt": "2023.04.07 22:00",
    "o": 132.199,
    "h": 132.247,
    "l": 132.152,
    "c": 132.242,
    "v": 965
  },
  {
    "dt": "2023.04.07 23:00",
    "o": 132.246,
    "h": 132.246,
    "l": 132.118,
    "c": 132.147,
    "v": 198
  },
  {
    "dt": "2023.04.10 00:00",
    "o": 132.121,
    "h": 132.143,
    "l": 132.115,
    "c": 132.143,
    "v": 83
  },
  {
    "dt": "2023.04.10 01:00",
    "o": 132.122,
    "h": 132.127,
    "l": 131.82,
    "c": 131.997,
    "v": 2105
  },
  {
    "dt": "2023.04.10 02:00",
    "o": 131.971,
    "h": 132.156,
    "l": 131.945,
    "c": 132.087,
    "v": 1528
  },
  {
    "dt": "2023.04.10 03:00",
    "o": 132.082,
    "h": 132.662,
    "l": 132.082,
    "c": 132.592,
    "v": 3528
  },
  {
    "dt": "2023.04.10 04:00",
    "o": 132.593,
    "h": 132.729,
    "l": 132.461,
    "c": 132.631,
    "v": 3052
  },
  {
    "dt": "2023.04.10 05:00",
    "o": 132.632,
    "h": 132.673,
    "l": 132.517,
    "c": 132.589,
    "v": 2446
  },
  {
    "dt": "2023.04.10 06:00",
    "o": 132.588,
    "h": 132.72,
    "l": 132.576,
    "c": 132.698,
    "v": 1610
  },
  {
    "dt": "2023.04.10 07:00",
    "o": 132.703,
    "h": 132.786,
    "l": 132.63,
    "c": 132.647,
    "v": 2343
  },
  {
    "dt": "2023.04.10 08:00",
    "o": 132.65,
    "h": 132.73,
    "l": 132.561,
    "c": 132.59,
    "v": 2344
  },
  {
    "dt": "2023.04.10 09:00",
    "o": 132.587,
    "h": 132.657,
    "l": 132.485,
    "c": 132.52,
    "v": 2267
  },
  {
    "dt": "2023.04.10 10:00",
    "o": 132.521,
    "h": 132.533,
    "l": 132.037,
    "c": 132.056,
    "v": 3204
  },
  {
    "dt": "2023.04.10 11:00",
    "o": 132.048,
    "h": 132.155,
    "l": 131.987,
    "c": 132.069,
    "v": 3017
  },
  {
    "dt": "2023.04.10 12:00",
    "o": 132.069,
    "h": 132.195,
    "l": 132.026,
    "c": 132.156,
    "v": 2482
  },
  {
    "dt": "2023.04.10 13:00",
    "o": 132.155,
    "h": 132.385,
    "l": 132.09,
    "c": 132.29,
    "v": 2598
  },
  {
    "dt": "2023.04.10 14:00",
    "o": 132.296,
    "h": 132.855,
    "l": 132.23,
    "c": 132.852,
    "v": 3347
  },
  {
    "dt": "2023.04.10 15:00",
    "o": 132.851,
    "h": 133.332,
    "l": 132.842,
    "c": 133.312,
    "v": 4165
  },
  {
    "dt": "2023.04.10 16:00",
    "o": 133.317,
    "h": 133.532,
    "l": 133.26,
    "c": 133.525,
    "v": 3767
  },
  {
    "dt": "2023.04.10 17:00",
    "o": 133.525,
    "h": 133.858,
    "l": 133.522,
    "c": 133.828,
    "v": 3559
  },
  {
    "dt": "2023.04.10 18:00",
    "o": 133.825,
    "h": 133.846,
    "l": 133.678,
    "c": 133.741,
    "v": 2693
  },
  {
    "dt": "2023.04.10 19:00",
    "o": 133.736,
    "h": 133.746,
    "l": 133.641,
    "c": 133.686,
    "v": 1999
  },
  {
    "dt": "2023.04.10 20:00",
    "o": 133.685,
    "h": 133.685,
    "l": 133.553,
    "c": 133.633,
    "v": 2170
  },
  {
    "dt": "2023.04.10 21:00",
    "o": 133.634,
    "h": 133.67,
    "l": 133.58,
    "c": 133.623,
    "v": 2031
  },
  {
    "dt": "2023.04.10 22:00",
    "o": 133.626,
    "h": 133.626,
    "l": 133.542,
    "c": 133.551,
    "v": 1935
  },
  {
    "dt": "2023.04.10 23:00",
    "o": 133.55,
    "h": 133.621,
    "l": 133.55,
    "c": 133.593,
    "v": 1421
  },
  {
    "dt": "2023.04.11 00:00",
    "o": 133.575,
    "h": 133.589,
    "l": 133.497,
    "c": 133.566,
    "v": 646
  },
  {
    "dt": "2023.04.11 01:00",
    "o": 133.566,
    "h": 133.588,
    "l": 133.486,
    "c": 133.521,
    "v": 1175
  },
  {
    "dt": "2023.04.11 02:00",
    "o": 133.523,
    "h": 133.616,
    "l": 133.451,
    "c": 133.462,
    "v": 1867
  },
  {
    "dt": "2023.04.11 03:00",
    "o": 133.456,
    "h": 133.462,
    "l": 133.235,
    "c": 133.395,
    "v": 2941
  },
  {
    "dt": "2023.04.11 04:00",
    "o": 133.396,
    "h": 133.677,
    "l": 133.394,
    "c": 133.495,
    "v": 2959
  },
  {
    "dt": "2023.04.11 05:00",
    "o": 133.499,
    "h": 133.552,
    "l": 133.333,
    "c": 133.347,
    "v": 2763
  },
  {
    "dt": "2023.04.11 06:00",
    "o": 133.35,
    "h": 133.413,
    "l": 133.289,
    "c": 133.401,
    "v": 2108
  },
  {
    "dt": "2023.04.11 07:00",
    "o": 133.4,
    "h": 133.469,
    "l": 133.348,
    "c": 133.391,
    "v": 2284
  },
  {
    "dt": "2023.04.11 08:00",
    "o": 133.386,
    "h": 133.388,
    "l": 133.215,
    "c": 133.254,
    "v": 2480
  },
  {
    "dt": "2023.04.11 09:00",
    "o": 133.244,
    "h": 133.516,
    "l": 133.227,
    "c": 133.468,
    "v": 2898
  },
  {
    "dt": "2023.04.11 10:00",
    "o": 133.472,
    "h": 133.546,
    "l": 133.034,
    "c": 133.136,
    "v": 3742
  },
  {
    "dt": "2023.04.11 11:00",
    "o": 133.135,
    "h": 133.228,
    "l": 132.991,
    "c": 133.09,
    "v": 3353
  },
  {
    "dt": "2023.04.11 12:00",
    "o": 133.091,
    "h": 133.132,
    "l": 132.99,
    "c": 133.081,
    "v": 2937
  },
  {
    "dt": "2023.04.11 13:00",
    "o": 133.081,
    "h": 133.213,
    "l": 132.975,
    "c": 133.025,
    "v": 3173
  },
  {
    "dt": "2023.04.11 14:00",
    "o": 133.026,
    "h": 133.33,
    "l": 132.961,
    "c": 133.254,
    "v": 3166
  },
  {
    "dt": "2023.04.11 15:00",
    "o": 133.253,
    "h": 133.259,
    "l": 133.042,
    "c": 133.097,
    "v": 3520
  },
  {
    "dt": "2023.04.11 16:00",
    "o": 133.096,
    "h": 133.376,
    "l": 133.073,
    "c": 133.267,
    "v": 3471
  },
  {
    "dt": "2023.04.11 17:00",
    "o": 133.255,
    "h": 133.512,
    "l": 133.226,
    "c": 133.494,
    "v": 3409
  },
  {
    "dt": "2023.04.11 18:00",
    "o": 133.493,
    "h": 133.657,
    "l": 133.493,
    "c": 133.624,
    "v": 2818
  },
  {
    "dt": "2023.04.11 19:00",
    "o": 133.624,
    "h": 133.725,
    "l": 133.622,
    "c": 133.714,
    "v": 2295
  },
  {
    "dt": "2023.04.11 20:00",
    "o": 133.716,
    "h": 133.756,
    "l": 133.604,
    "c": 133.647,
    "v": 1822
  },
  {
    "dt": "2023.04.11 21:00",
    "o": 133.647,
    "h": 133.794,
    "l": 133.64,
    "c": 133.763,
    "v": 1582
  },
  {
    "dt": "2023.04.11 22:00",
    "o": 133.764,
    "h": 133.768,
    "l": 133.647,
    "c": 133.679,
    "v": 1714
  },
  {
    "dt": "2023.04.11 23:00",
    "o": 133.674,
    "h": 133.742,
    "l": 133.663,
    "c": 133.679,
    "v": 937
  },
  {
    "dt": "2023.04.12 00:00",
    "o": 133.613,
    "h": 133.665,
    "l": 133.613,
    "c": 133.631,
    "v": 431
  },
  {
    "dt": "2023.04.12 01:00",
    "o": 133.636,
    "h": 133.697,
    "l": 133.571,
    "c": 133.595,
    "v": 2782
  },
  {
    "dt": "2023.04.12 02:00",
    "o": 133.595,
    "h": 133.653,
    "l": 133.548,
    "c": 133.592,
    "v": 2216
  },
  {
    "dt": "2023.04.12 03:00",
    "o": 133.593,
    "h": 133.759,
    "l": 133.548,
    "c": 133.672,
    "v": 2675
  },
  {
    "dt": "2023.04.12 04:00",
    "o": 133.671,
    "h": 133.672,
    "l": 133.593,
    "c": 133.607,
    "v": 2424
  },
  {
    "dt": "2023.04.12 05:00",
    "o": 133.605,
    "h": 133.917,
    "l": 133.581,
    "c": 133.875,
    "v": 2774
  },
  {
    "dt": "2023.04.12 06:00",
    "o": 133.877,
    "h": 134.035,
    "l": 133.806,
    "c": 133.835,
    "v": 2670
  },
  {
    "dt": "2023.04.12 07:00",
    "o": 133.833,
    "h": 133.89,
    "l": 133.678,
    "c": 133.751,
    "v": 1978
  },
  {
    "dt": "2023.04.12 08:00",
    "o": 133.75,
    "h": 133.833,
    "l": 133.707,
    "c": 133.791,
    "v": 2064
  },
  {
    "dt": "2023.04.12 09:00",
    "o": 133.794,
    "h": 133.86,
    "l": 133.62,
    "c": 133.642,
    "v": 3126
  },
  {
    "dt": "2023.04.12 10:00",
    "o": 133.638,
    "h": 133.846,
    "l": 133.547,
    "c": 133.836,
    "v": 3586
  },
  {
    "dt": "2023.04.12 11:00",
    "o": 133.837,
    "h": 133.958,
    "l": 133.742,
    "c": 133.811,
    "v": 2968
  },
  {
    "dt": "2023.04.12 12:00",
    "o": 133.813,
    "h": 133.839,
    "l": 133.697,
    "c": 133.745,
    "v": 2759
  },
  {
    "dt": "2023.04.12 13:00",
    "o": 133.746,
    "h": 133.754,
    "l": 133.589,
    "c": 133.72,
    "v": 2401
  },
  {
    "dt": "2023.04.12 14:00",
    "o": 133.719,
    "h": 133.771,
    "l": 133.631,
    "c": 133.727,
    "v": 2679
  },
  {
    "dt": "2023.04.12 15:00",
    "o": 133.724,
    "h": 133.892,
    "l": 132.723,
    "c": 133.029,
    "v": 4435
  },
  {
    "dt": "2023.04.12 16:00",
    "o": 133.029,
    "h": 133.334,
    "l": 132.793,
    "c": 133.152,
    "v": 4852
  },
  {
    "dt": "2023.04.12 17:00",
    "o": 133.149,
    "h": 133.301,
    "l": 132.981,
    "c": 133.295,
    "v": 4327
  },
  {
    "dt": "2023.04.12 18:00",
    "o": 133.297,
    "h": 133.321,
    "l": 133.115,
    "c": 133.236,
    "v": 3376
  },
  {
    "dt": "2023.04.12 19:00",
    "o": 133.239,
    "h": 133.27,
    "l": 133.078,
    "c": 133.179,
    "v": 2642
  },
  {
    "dt": "2023.04.12 20:00",
    "o": 133.188,
    "h": 133.391,
    "l": 133.161,
    "c": 133.358,
    "v": 2610
  },
  {
    "dt": "2023.04.12 21:00",
    "o": 133.362,
    "h": 133.383,
    "l": 133.06,
    "c": 133.178,
    "v": 3261
  },
  {
    "dt": "2023.04.12 22:00",
    "o": 133.178,
    "h": 133.197,
    "l": 133.04,
    "c": 133.181,
    "v": 2343
  },
  {
    "dt": "2023.04.12 23:00",
    "o": 133.184,
    "h": 133.208,
    "l": 133.094,
    "c": 133.128,
    "v": 1358
  },
  {
    "dt": "2023.04.13 00:00",
    "o": 133.096,
    "h": 133.117,
    "l": 133.021,
    "c": 133.106,
    "v": 442
  },
  {
    "dt": "2023.04.13 01:00",
    "o": 133.096,
    "h": 133.275,
    "l": 133.03,
    "c": 133.051,
    "v": 1834
  },
  {
    "dt": "2023.04.13 02:00",
    "o": 133.05,
    "h": 133.088,
    "l": 132.931,
    "c": 133.079,
    "v": 1840
  },
  {
    "dt": "2023.04.13 03:00",
    "o": 133.08,
    "h": 133.225,
    "l": 132.975,
    "c": 133.154,
    "v": 2897
  },
  {
    "dt": "2023.04.13 04:00",
    "o": 133.152,
    "h": 133.212,
    "l": 133.032,
    "c": 133.174,
    "v": 2910
  },
  {
    "dt": "2023.04.13 05:00",
    "o": 133.177,
    "h": 133.262,
    "l": 133.134,
    "c": 133.236,
    "v": 2468
  },
  {
    "dt": "2023.04.13 06:00",
    "o": 133.236,
    "h": 133.296,
    "l": 133.213,
    "c": 133.256,
    "v": 2194
  },
  {
    "dt": "2023.04.13 07:00",
    "o": 133.257,
    "h": 133.297,
    "l": 133.174,
    "c": 133.265,
    "v": 2336
  },
  {
    "dt": "2023.04.13 08:00",
    "o": 133.263,
    "h": 133.318,
    "l": 133.184,
    "c": 133.283,
    "v": 1976
  },
  {
    "dt": "2023.04.13 09:00",
    "o": 133.287,
    "h": 133.366,
    "l": 133.137,
    "c": 133.145,
    "v": 2685
  },
  {
    "dt": "2023.04.13 10:00",
    "o": 133.138,
    "h": 133.145,
    "l": 132.989,
    "c": 133.012,
    "v": 3267
  },
  {
    "dt": "2023.04.13 11:00",
    "o": 133.013,
    "h": 133.18,
    "l": 132.89,
    "c": 133.153,
    "v": 3211
  },
  {
    "dt": "2023.04.13 12:00",
    "o": 133.156,
    "h": 133.168,
    "l": 133.012,
    "c": 133.164,
    "v": 2629
  },
  {
    "dt": "2023.04.13 13:00",
    "o": 133.163,
    "h": 133.287,
    "l": 133.156,
    "c": 133.221,
    "v": 2747
  },
  {
    "dt": "2023.04.13 14:00",
    "o": 133.219,
    "h": 133.368,
    "l": 133.114,
    "c": 133.329,
    "v": 2368
  },
  {
    "dt": "2023.04.13 15:00",
    "o": 133.328,
    "h": 133.383,
    "l": 132.49,
    "c": 132.504,
    "v": 4314
  },
  {
    "dt": "2023.04.13 16:00",
    "o": 132.502,
    "h": 132.526,
    "l": 132.011,
    "c": 132.13,
    "v": 4626
  },
  {
    "dt": "2023.04.13 17:00",
    "o": 132.134,
    "h": 132.489,
    "l": 132.12,
    "c": 132.41,
    "v": 4267
  },
  {
    "dt": "2023.04.13 18:00",
    "o": 132.416,
    "h": 132.488,
    "l": 132.272,
    "c": 132.367,
    "v": 2925
  },
  {
    "dt": "2023.04.13 19:00",
    "o": 132.378,
    "h": 132.484,
    "l": 132.35,
    "c": 132.369,
    "v": 2469
  },
  {
    "dt": "2023.04.13 20:00",
    "o": 132.369,
    "h": 132.571,
    "l": 132.361,
    "c": 132.564,
    "v": 2205
  },
  {
    "dt": "2023.04.13 21:00",
    "o": 132.567,
    "h": 132.787,
    "l": 132.567,
    "c": 132.754,
    "v": 2257
  },
  {
    "dt": "2023.04.13 22:00",
    "o": 132.746,
    "h": 132.777,
    "l": 132.699,
    "c": 132.724,
    "v": 1759
  },
  {
    "dt": "2023.04.13 23:00",
    "o": 132.724,
    "h": 132.735,
    "l": 132.558,
    "c": 132.565,
    "v": 1253
  },
  {
    "dt": "2023.04.14 00:00",
    "o": 132.538,
    "h": 132.563,
    "l": 132.483,
    "c": 132.543,
    "v": 698
  },
  {
    "dt": "2023.04.14 01:00",
    "o": 132.555,
    "h": 132.602,
    "l": 132.519,
    "c": 132.573,
    "v": 1588
  },
  {
    "dt": "2023.04.14 02:00",
    "o": 132.573,
    "h": 132.586,
    "l": 132.456,
    "c": 132.479,
    "v": 1820
  },
  {
    "dt": "2023.04.14 03:00",
    "o": 132.491,
    "h": 132.626,
    "l": 132.44,
    "c": 132.578,
    "v": 2922
  },
  {
    "dt": "2023.04.14 04:00",
    "o": 132.578,
    "h": 132.608,
    "l": 132.364,
    "c": 132.434,
    "v": 2885
  },
  {
    "dt": "2023.04.14 05:00",
    "o": 132.421,
    "h": 132.46,
    "l": 132.257,
    "c": 132.407,
    "v": 2857
  },
  {
    "dt": "2023.04.14 06:00",
    "o": 132.408,
    "h": 132.473,
    "l": 132.333,
    "c": 132.392,
    "v": 2248
  },
  {
    "dt": "2023.04.14 07:00",
    "o": 132.389,
    "h": 132.477,
    "l": 132.276,
    "c": 132.465,
    "v": 2289
  },
  {
    "dt": "2023.04.14 08:00",
    "o": 132.466,
    "h": 132.564,
    "l": 132.457,
    "c": 132.467,
    "v": 2195
  },
  {
    "dt": "2023.04.14 09:00",
    "o": 132.451,
    "h": 132.539,
    "l": 132.356,
    "c": 132.455,
    "v": 2791
  },
  {
    "dt": "2023.04.14 10:00",
    "o": 132.453,
    "h": 132.584,
    "l": 132.184,
    "c": 132.219,
    "v": 3389
  },
  {
    "dt": "2023.04.14 11:00",
    "o": 132.219,
    "h": 132.487,
    "l": 132.158,
    "c": 132.487,
    "v": 3181
  },
  {
    "dt": "2023.04.14 12:00",
    "o": 132.486,
    "h": 132.542,
    "l": 132.41,
    "c": 132.485,
    "v": 2579
  },
  {
    "dt": "2023.04.14 13:00",
    "o": 132.484,
    "h": 132.51,
    "l": 132.391,
    "c": 132.498,
    "v": 2630
  },
  {
    "dt": "2023.04.14 14:00",
    "o": 132.495,
    "h": 132.735,
    "l": 132.495,
    "c": 132.598,
    "v": 3099
  },
  {
    "dt": "2023.04.14 15:00",
    "o": 132.596,
    "h": 133.177,
    "l": 132.191,
    "c": 132.999,
    "v": 4447
  },
  {
    "dt": "2023.04.14 16:00",
    "o": 133.003,
    "h": 133.208,
    "l": 132.937,
    "c": 133.044,
    "v": 4267
  },
  {
    "dt": "2023.04.14 17:00",
    "o": 133.039,
    "h": 133.462,
    "l": 133.039,
    "c": 133.453,
    "v": 4204
  },
  {
    "dt": "2023.04.14 18:00",
    "o": 133.451,
    "h": 133.752,
    "l": 133.432,
    "c": 133.74,
    "v": 3464
  },
  {
    "dt": "2023.04.14 19:00",
    "o": 133.739,
    "h": 133.826,
    "l": 133.634,
    "c": 133.775,
    "v": 2568
  },
  {
    "dt": "2023.04.14 20:00",
    "o": 133.772,
    "h": 133.786,
    "l": 133.618,
    "c": 133.756,
    "v": 2360
  },
  {
    "dt": "2023.04.14 21:00",
    "o": 133.755,
    "h": 133.804,
    "l": 133.735,
    "c": 133.776,
    "v": 1544
  },
  {
    "dt": "2023.04.14 22:00",
    "o": 133.779,
    "h": 133.788,
    "l": 133.7,
    "c": 133.754,
    "v": 1552
  },
  {
    "dt": "2023.04.14 23:00",
    "o": 133.753,
    "h": 133.801,
    "l": 133.714,
    "c": 133.745,
    "v": 927
  },
  {
    "dt": "2023.04.17 00:00",
    "o": 133.769,
    "h": 133.817,
    "l": 133.769,
    "c": 133.816,
    "v": 61
  },
  {
    "dt": "2023.04.17 01:00",
    "o": 133.801,
    "h": 133.914,
    "l": 133.741,
    "c": 133.891,
    "v": 2048
  },
  {
    "dt": "2023.04.17 02:00",
    "o": 133.893,
    "h": 133.983,
    "l": 133.793,
    "c": 133.977,
    "v": 1828
  },
  {
    "dt": "2023.04.17 03:00",
    "o": 133.974,
    "h": 133.987,
    "l": 133.702,
    "c": 133.836,
    "v": 2549
  },
  {
    "dt": "2023.04.17 04:00",
    "o": 133.834,
    "h": 134.096,
    "l": 133.828,
    "c": 133.979,
    "v": 2373
  },
  {
    "dt": "2023.04.17 05:00",
    "o": 133.979,
    "h": 133.979,
    "l": 133.793,
    "c": 133.84,
    "v": 2484
  },
  {
    "dt": "2023.04.17 06:00",
    "o": 133.839,
    "h": 133.985,
    "l": 133.797,
    "c": 133.973,
    "v": 2283
  },
  {
    "dt": "2023.04.17 07:00",
    "o": 133.973,
    "h": 134.117,
    "l": 133.909,
    "c": 134.051,
    "v": 2371
  },
  {
    "dt": "2023.04.17 08:00",
    "o": 134.05,
    "h": 134.207,
    "l": 133.912,
    "c": 133.932,
    "v": 2640
  },
  {
    "dt": "2023.04.17 09:00",
    "o": 133.947,
    "h": 134.078,
    "l": 133.834,
    "c": 134.009,
    "v": 3267
  },
  {
    "dt": "2023.04.17 10:00",
    "o": 134.02,
    "h": 134.052,
    "l": 133.855,
    "c": 134.037,
    "v": 3346
  },
  {
    "dt": "2023.04.17 11:00",
    "o": 134.043,
    "h": 134.049,
    "l": 133.827,
    "c": 133.961,
    "v": 3334
  },
  {
    "dt": "2023.04.17 12:00",
    "o": 133.964,
    "h": 134.079,
    "l": 133.934,
    "c": 134.05,
    "v": 3054
  },
  {
    "dt": "2023.04.17 13:00",
    "o": 134.051,
    "h": 134.169,
    "l": 133.947,
    "c": 133.965,
    "v": 2403
  },
  {
    "dt": "2023.04.17 14:00",
    "o": 133.966,
    "h": 134.067,
    "l": 133.74,
    "c": 133.766,
    "v": 2770
  },
  {
    "dt": "2023.04.17 15:00",
    "o": 133.757,
    "h": 134.14,
    "l": 133.735,
    "c": 134.059,
    "v": 3818
  },
  {
    "dt": "2023.04.17 16:00",
    "o": 134.059,
    "h": 134.392,
    "l": 134.019,
    "c": 134.3,
    "v": 3925
  },
  {
    "dt": "2023.04.17 17:00",
    "o": 134.305,
    "h": 134.561,
    "l": 134.246,
    "c": 134.542,
    "v": 3740
  },
  {
    "dt": "2023.04.17 18:00",
    "o": 134.543,
    "h": 134.551,
    "l": 134.422,
    "c": 134.508,
    "v": 3260
  },
  {
    "dt": "2023.04.17 19:00",
    "o": 134.505,
    "h": 134.522,
    "l": 134.388,
    "c": 134.448,
    "v": 2098
  },
  {
    "dt": "2023.04.17 20:00",
    "o": 134.447,
    "h": 134.492,
    "l": 134.377,
    "c": 134.476,
    "v": 1732
  },
  {
    "dt": "2023.04.17 21:00",
    "o": 134.477,
    "h": 134.479,
    "l": 134.383,
    "c": 134.392,
    "v": 1434
  },
  {
    "dt": "2023.04.17 22:00",
    "o": 134.399,
    "h": 134.436,
    "l": 134.378,
    "c": 134.416,
    "v": 1398
  },
  {
    "dt": "2023.04.17 23:00",
    "o": 134.416,
    "h": 134.492,
    "l": 134.416,
    "c": 134.463,
    "v": 780
  },
  {
    "dt": "2023.04.18 00:00",
    "o": 134.425,
    "h": 134.473,
    "l": 134.403,
    "c": 134.41,
    "v": 1268
  },
  {
    "dt": "2023.04.18 01:00",
    "o": 134.408,
    "h": 134.486,
    "l": 134.403,
    "c": 134.439,
    "v": 1594
  },
  {
    "dt": "2023.04.18 02:00",
    "o": 134.44,
    "h": 134.472,
    "l": 134.4,
    "c": 134.444,
    "v": 1479
  },
  {
    "dt": "2023.04.18 03:00",
    "o": 134.444,
    "h": 134.448,
    "l": 134.27,
    "c": 134.376,
    "v": 2609
  },
  {
    "dt": "2023.04.18 04:00",
    "o": 134.378,
    "h": 134.696,
    "l": 134.353,
    "c": 134.505,
    "v": 3187
  },
  {
    "dt": "2023.04.18 05:00",
    "o": 134.507,
    "h": 134.57,
    "l": 134.444,
    "c": 134.505,
    "v": 3263
  },
  {
    "dt": "2023.04.18 06:00",
    "o": 134.506,
    "h": 134.537,
    "l": 134.368,
    "c": 134.432,
    "v": 2599
  },
  {
    "dt": "2023.04.18 07:00",
    "o": 134.433,
    "h": 134.527,
    "l": 134.416,
    "c": 134.433,
    "v": 2431
  },
  {
    "dt": "2023.04.18 08:00",
    "o": 134.431,
    "h": 134.464,
    "l": 134.298,
    "c": 134.346,
    "v": 2592
  },
  {
    "dt": "2023.04.18 09:00",
    "o": 134.351,
    "h": 134.432,
    "l": 134.235,
    "c": 134.314,
    "v": 3407
  },
  {
    "dt": "2023.04.18 10:00",
    "o": 134.311,
    "h": 134.42,
    "l": 134.195,
    "c": 134.223,
    "v": 3727
  },
  {
    "dt": "2023.04.18 11:00",
    "o": 134.224,
    "h": 134.275,
    "l": 134.128,
    "c": 134.14,
    "v": 3227
  },
  {
    "dt": "2023.04.18 12:00",
    "o": 134.139,
    "h": 134.206,
    "l": 134.05,
    "c": 134.074,
    "v": 3121
  },
  {
    "dt": "2023.04.18 13:00",
    "o": 134.079,
    "h": 134.123,
    "l": 133.987,
    "c": 134.076,
    "v": 2828
  },
  {
    "dt": "2023.04.18 14:00",
    "o": 134.075,
    "h": 134.077,
    "l": 133.856,
    "c": 133.883,
    "v": 2999
  },
  {
    "dt": "2023.04.18 15:00",
    "o": 133.881,
    "h": 134.195,
    "l": 133.854,
    "c": 134.184,
    "v": 3375
  },
  {
    "dt": "2023.04.18 16:00",
    "o": 134.177,
    "h": 134.313,
    "l": 134.084,
    "c": 134.142,
    "v": 3736
  },
  {
    "dt": "2023.04.18 17:00",
    "o": 134.138,
    "h": 134.214,
    "l": 133.905,
    "c": 133.964,
    "v": 3559
  },
  {
    "dt": "2023.04.18 18:00",
    "o": 133.962,
    "h": 134.138,
    "l": 133.912,
    "c": 134.108,
    "v": 2819
  },
  {
    "dt": "2023.04.18 19:00",
    "o": 134.102,
    "h": 134.186,
    "l": 134.079,
    "c": 134.079,
    "v": 2140
  },
  {
    "dt": "2023.04.18 20:00",
    "o": 134.081,
    "h": 134.101,
    "l": 134.006,
    "c": 134.091,
    "v": 1925
  },
  {
    "dt": "2023.04.18 21:00",
    "o": 134.091,
    "h": 134.109,
    "l": 134.012,
    "c": 134.058,
    "v": 1752
  },
  {
    "dt": "2023.04.18 22:00",
    "o": 134.059,
    "h": 134.089,
    "l": 134.025,
    "c": 134.072,
    "v": 1618
  },
  {
    "dt": "2023.04.18 23:00",
    "o": 134.071,
    "h": 134.098,
    "l": 134.024,
    "c": 134.093,
    "v": 965
  },
  {
    "dt": "2023.04.19 00:00",
    "o": 134.079,
    "h": 134.107,
    "l": 134.028,
    "c": 134.061,
    "v": 1270
  },
  {
    "dt": "2023.04.19 01:00",
    "o": 134.073,
    "h": 134.076,
    "l": 133.974,
    "c": 134.023,
    "v": 1985
  },
  {
    "dt": "2023.04.19 02:00",
    "o": 134.023,
    "h": 134.043,
    "l": 133.988,
    "c": 134.036,
    "v": 1936
  },
  {
    "dt": "2023.04.19 03:00",
    "o": 134.032,
    "h": 134.122,
    "l": 133.944,
    "c": 134.002,
    "v": 2695
  },
  {
    "dt": "2023.04.19 04:00",
    "o": 134.002,
    "h": 134.319,
    "l": 133.943,
    "c": 134.256,
    "v": 3048
  },
  {
    "dt": "2023.04.19 05:00",
    "o": 134.254,
    "h": 134.377,
    "l": 134.253,
    "c": 134.303,
    "v": 3018
  },
  {
    "dt": "2023.04.19 06:00",
    "o": 134.306,
    "h": 134.328,
    "l": 134.252,
    "c": 134.285,
    "v": 1979
  },
  {
    "dt": "2023.04.19 07:00",
    "o": 134.286,
    "h": 134.322,
    "l": 134.27,
    "c": 134.312,
    "v": 1717
  },
  {
    "dt": "2023.04.19 08:00",
    "o": 134.314,
    "h": 134.454,
    "l": 134.304,
    "c": 134.432,
    "v": 1974
  },
  {
    "dt": "2023.04.19 09:00",
    "o": 134.434,
    "h": 134.726,
    "l": 134.432,
    "c": 134.603,
    "v": 4117
  },
  {
    "dt": "2023.04.19 10:00",
    "o": 134.602,
    "h": 134.804,
    "l": 134.495,
    "c": 134.724,
    "v": 3863
  },
  {
    "dt": "2023.04.19 11:00",
    "o": 134.728,
    "h": 134.912,
    "l": 134.714,
    "c": 134.879,
    "v": 3326
  },
  {
    "dt": "2023.04.19 12:00",
    "o": 134.887,
    "h": 135.126,
    "l": 134.737,
    "c": 134.779,
    "v": 3677
  },
  {
    "dt": "2023.04.19 13:00",
    "o": 134.786,
    "h": 134.927,
    "l": 134.725,
    "c": 134.819,
    "v": 2982
  },
  {
    "dt": "2023.04.19 14:00",
    "o": 134.822,
    "h": 134.905,
    "l": 134.641,
    "c": 134.667,
    "v": 3146
  },
  {
    "dt": "2023.04.19 15:00",
    "o": 134.667,
    "h": 134.718,
    "l": 134.366,
    "c": 134.375,
    "v": 3604
  },
  {
    "dt": "2023.04.19 16:00",
    "o": 134.365,
    "h": 134.467,
    "l": 134.283,
    "c": 134.457,
    "v": 3746
  },
  {
    "dt": "2023.04.19 17:00",
    "o": 134.451,
    "h": 134.623,
    "l": 134.283,
    "c": 134.615,
    "v": 3385
  },
  {
    "dt": "2023.04.19 18:00",
    "o": 134.614,
    "h": 134.803,
    "l": 134.566,
    "c": 134.786,
    "v": 2741
  },
  {
    "dt": "2023.04.19 19:00",
    "o": 134.793,
    "h": 134.844,
    "l": 134.649,
    "c": 134.652,
    "v": 2066
  },
  {
    "dt": "2023.04.19 20:00",
    "o": 134.65,
    "h": 134.788,
    "l": 134.639,
    "c": 134.771,
    "v": 2088
  },
  {
    "dt": "2023.04.19 21:00",
    "o": 134.771,
    "h": 134.771,
    "l": 134.67,
    "c": 134.718,
    "v": 2275
  },
  {
    "dt": "2023.04.19 22:00",
    "o": 134.717,
    "h": 134.789,
    "l": 134.71,
    "c": 134.784,
    "v": 1632
  },
  {
    "dt": "2023.04.19 23:00",
    "o": 134.784,
    "h": 134.817,
    "l": 134.662,
    "c": 134.699,
    "v": 1259
  },
  {
    "dt": "2023.04.20 00:00",
    "o": 134.657,
    "h": 134.713,
    "l": 134.574,
    "c": 134.595,
    "v": 1236
  },
  {
    "dt": "2023.04.20 01:00",
    "o": 134.607,
    "h": 134.786,
    "l": 134.593,
    "c": 134.716,
    "v": 1763
  },
  {
    "dt": "2023.04.20 02:00",
    "o": 134.721,
    "h": 134.757,
    "l": 134.667,
    "c": 134.706,
    "v": 1986
  },
  {
    "dt": "2023.04.20 03:00",
    "o": 134.7,
    "h": 134.836,
    "l": 134.601,
    "c": 134.83,
    "v": 3142
  },
  {
    "dt": "2023.04.20 04:00",
    "o": 134.832,
    "h": 134.961,
    "l": 134.78,
    "c": 134.816,
    "v": 3180
  },
  {
    "dt": "2023.04.20 05:00",
    "o": 134.822,
    "h": 134.851,
    "l": 134.713,
    "c": 134.793,
    "v": 2551
  },
  {
    "dt": "2023.04.20 06:00",
    "o": 134.794,
    "h": 134.796,
    "l": 134.667,
    "c": 134.728,
    "v": 2529
  },
  {
    "dt": "2023.04.20 07:00",
    "o": 134.727,
    "h": 134.818,
    "l": 134.703,
    "c": 134.771,
    "v": 2517
  },
  {
    "dt": "2023.04.20 08:00",
    "o": 134.773,
    "h": 134.825,
    "l": 134.673,
    "c": 134.692,
    "v": 2522
  },
  {
    "dt": "2023.04.20 09:00",
    "o": 134.687,
    "h": 134.702,
    "l": 134.377,
    "c": 134.482,
    "v": 3510
  },
  {
    "dt": "2023.04.20 10:00",
    "o": 134.483,
    "h": 134.62,
    "l": 134.433,
    "c": 134.601,
    "v": 3710
  },
  {
    "dt": "2023.04.20 11:00",
    "o": 134.601,
    "h": 134.667,
    "l": 134.494,
    "c": 134.662,
    "v": 3316
  },
  {
    "dt": "2023.04.20 12:00",
    "o": 134.659,
    "h": 134.854,
    "l": 134.644,
    "c": 134.679,
    "v": 3330
  },
  {
    "dt": "2023.04.20 13:00",
    "o": 134.68,
    "h": 134.7,
    "l": 134.5,
    "c": 134.553,
    "v": 3043
  },
  {
    "dt": "2023.04.20 14:00",
    "o": 134.552,
    "h": 134.659,
    "l": 134.521,
    "c": 134.657,
    "v": 2746
  },
  {
    "dt": "2023.04.20 15:00",
    "o": 134.658,
    "h": 134.819,
    "l": 134.163,
    "c": 134.264,
    "v": 4365
  },
  {
    "dt": "2023.04.20 16:00",
    "o": 134.271,
    "h": 134.345,
    "l": 134.151,
    "c": 134.255,
    "v": 3910
  },
  {
    "dt": "2023.04.20 17:00",
    "o": 134.241,
    "h": 134.249,
    "l": 134.003,
    "c": 134.038,
    "v": 3609
  },
  {
    "dt": "2023.04.20 18:00",
    "o": 134.037,
    "h": 134.137,
    "l": 134.02,
    "c": 134.097,
    "v": 2985
  },
  {
    "dt": "2023.04.20 19:00",
    "o": 134.096,
    "h": 134.184,
    "l": 134.042,
    "c": 134.143,
    "v": 2068
  },
  {
    "dt": "2023.04.20 20:00",
    "o": 134.142,
    "h": 134.282,
    "l": 134.142,
    "c": 134.272,
    "v": 1790
  },
  {
    "dt": "2023.04.20 21:00",
    "o": 134.272,
    "h": 134.335,
    "l": 134.265,
    "c": 134.322,
    "v": 1859
  },
  {
    "dt": "2023.04.20 22:00",
    "o": 134.321,
    "h": 134.347,
    "l": 134.252,
    "c": 134.268,
    "v": 1971
  },
  {
    "dt": "2023.04.20 23:00",
    "o": 134.27,
    "h": 134.274,
    "l": 134.192,
    "c": 134.23,
    "v": 1149
  },
  {
    "dt": "2023.04.21 00:00",
    "o": 134.207,
    "h": 134.227,
    "l": 134.127,
    "c": 134.186,
    "v": 1435
  },
  {
    "dt": "2023.04.21 01:00",
    "o": 134.204,
    "h": 134.281,
    "l": 134.123,
    "c": 134.168,
    "v": 2082
  },
  {
    "dt": "2023.04.21 02:00",
    "o": 134.162,
    "h": 134.163,
    "l": 133.942,
    "c": 133.988,
    "v": 1687
  },
  {
    "dt": "2023.04.21 03:00",
    "o": 133.988,
    "h": 134.241,
    "l": 133.969,
    "c": 134.133,
    "v": 2636
  },
  {
    "dt": "2023.04.21 04:00",
    "o": 134.133,
    "h": 134.151,
    "l": 133.843,
    "c": 133.907,
    "v": 2827
  },
  {
    "dt": "2023.04.21 05:00",
    "o": 133.907,
    "h": 133.973,
    "l": 133.795,
    "c": 133.944,
    "v": 2570
  },
  {
    "dt": "2023.04.21 06:00",
    "o": 133.944,
    "h": 133.962,
    "l": 133.844,
    "c": 133.852,
    "v": 1917
  },
  {
    "dt": "2023.04.21 07:00",
    "o": 133.855,
    "h": 133.886,
    "l": 133.746,
    "c": 133.869,
    "v": 2206
  },
  {
    "dt": "2023.04.21 08:00",
    "o": 133.868,
    "h": 133.904,
    "l": 133.769,
    "c": 133.788,
    "v": 2293
  },
  {
    "dt": "2023.04.21 09:00",
    "o": 133.79,
    "h": 133.887,
    "l": 133.688,
    "c": 133.875,
    "v": 3240
  },
  {
    "dt": "2023.04.21 10:00",
    "o": 133.878,
    "h": 134.096,
    "l": 133.813,
    "c": 133.924,
    "v": 3619
  },
  {
    "dt": "2023.04.21 11:00",
    "o": 133.925,
    "h": 134.037,
    "l": 133.717,
    "c": 133.759,
    "v": 3586
  },
  {
    "dt": "2023.04.21 12:00",
    "o": 133.76,
    "h": 133.924,
    "l": 133.742,
    "c": 133.775,
    "v": 2621
  },
  {
    "dt": "2023.04.21 13:00",
    "o": 133.776,
    "h": 133.81,
    "l": 133.659,
    "c": 133.78,
    "v": 2720
  },
  {
    "dt": "2023.04.21 14:00",
    "o": 133.773,
    "h": 133.897,
    "l": 133.741,
    "c": 133.751,
    "v": 2609
  },
  {
    "dt": "2023.04.21 15:00",
    "o": 133.751,
    "h": 133.91,
    "l": 133.588,
    "c": 133.63,
    "v": 3533
  },
  {
    "dt": "2023.04.21 16:00",
    "o": 133.629,
    "h": 134.377,
    "l": 133.54,
    "c": 134.286,
    "v": 4177
  },
  {
    "dt": "2023.04.21 17:00",
    "o": 134.293,
    "h": 134.483,
    "l": 134.202,
    "c": 134.401,
    "v": 4109
  },
  {
    "dt": "2023.04.21 18:00",
    "o": 134.404,
    "h": 134.449,
    "l": 134.239,
    "c": 134.273,
    "v": 3155
  },
  {
    "dt": "2023.04.21 19:00",
    "o": 134.272,
    "h": 134.279,
    "l": 134.115,
    "c": 134.123,
    "v": 2186
  },
  {
    "dt": "2023.04.21 20:00",
    "o": 134.123,
    "h": 134.18,
    "l": 134.06,
    "c": 134.104,
    "v": 1733
  },
  {
    "dt": "2023.04.21 21:00",
    "o": 134.104,
    "h": 134.209,
    "l": 134.062,
    "c": 134.207,
    "v": 1919
  },
  {
    "dt": "2023.04.21 22:00",
    "o": 134.205,
    "h": 134.206,
    "l": 134.054,
    "c": 134.065,
    "v": 1580
  },
  {
    "dt": "2023.04.21 23:00",
    "o": 134.064,
    "h": 134.125,
    "l": 134.061,
    "c": 134.115,
    "v": 974
  },
  {
    "dt": "2023.04.24 00:00",
    "o": 134.01,
    "h": 134.069,
    "l": 133.91,
    "c": 133.983,
    "v": 256
  },
  {
    "dt": "2023.04.24 01:00",
    "o": 133.999,
    "h": 134.11,
    "l": 133.998,
    "c": 134.065,
    "v": 1383
  },
  {
    "dt": "2023.04.24 02:00",
    "o": 134.062,
    "h": 134.066,
    "l": 133.928,
    "c": 133.956,
    "v": 1372
  },
  {
    "dt": "2023.04.24 03:00",
    "o": 133.956,
    "h": 134.093,
    "l": 133.882,
    "c": 133.967,
    "v": 2227
  },
  {
    "dt": "2023.04.24 04:00",
    "o": 133.965,
    "h": 134.179,
    "l": 133.924,
    "c": 134.141,
    "v": 2804
  },
  {
    "dt": "2023.04.24 05:00",
    "o": 134.14,
    "h": 134.447,
    "l": 134.138,
    "c": 134.447,
    "v": 2781
  },
  {
    "dt": "2023.04.24 06:00",
    "o": 134.458,
    "h": 134.462,
    "l": 134.31,
    "c": 134.356,
    "v": 2619
  },
  {
    "dt": "2023.04.24 07:00",
    "o": 134.363,
    "h": 134.43,
    "l": 134.339,
    "c": 134.353,
    "v": 2208
  },
  {
    "dt": "2023.04.24 08:00",
    "o": 134.351,
    "h": 134.466,
    "l": 134.304,
    "c": 134.37,
    "v": 2351
  },
  {
    "dt": "2023.04.24 09:00",
    "o": 134.368,
    "h": 134.377,
    "l": 134.148,
    "c": 134.173,
    "v": 3070
  },
  {
    "dt": "2023.04.24 10:00",
    "o": 134.188,
    "h": 134.289,
    "l": 134.115,
    "c": 134.215,
    "v": 3353
  },
  {
    "dt": "2023.04.24 11:00",
    "o": 134.215,
    "h": 134.398,
    "l": 134.174,
    "c": 134.283,
    "v": 3102
  },
  {
    "dt": "2023.04.24 12:00",
    "o": 134.284,
    "h": 134.407,
    "l": 134.24,
    "c": 134.397,
    "v": 3074
  },
  {
    "dt": "2023.04.24 13:00",
    "o": 134.397,
    "h": 134.662,
    "l": 134.366,
    "c": 134.578,
    "v": 2888
  },
  {
    "dt": "2023.04.24 14:00",
    "o": 134.578,
    "h": 134.688,
    "l": 134.559,
    "c": 134.616,
    "v": 2543
  },
  {
    "dt": "2023.04.24 15:00",
    "o": 134.617,
    "h": 134.72,
    "l": 134.468,
    "c": 134.494,
    "v": 3232
  },
  {
    "dt": "2023.04.24 16:00",
    "o": 134.494,
    "h": 134.66,
    "l": 134.455,
    "c": 134.595,
    "v": 3312
  },
  {
    "dt": "2023.04.24 17:00",
    "o": 134.593,
    "h": 134.651,
    "l": 134.326,
    "c": 134.424,
    "v": 3239
  },
  {
    "dt": "2023.04.24 18:00",
    "o": 134.423,
    "h": 134.45,
    "l": 134.343,
    "c": 134.399,
    "v": 2482
  },
  {
    "dt": "2023.04.24 19:00",
    "o": 134.4,
    "h": 134.411,
    "l": 134.338,
    "c": 134.373,
    "v": 1727
  },
  {
    "dt": "2023.04.24 20:00",
    "o": 134.375,
    "h": 134.385,
    "l": 134.276,
    "c": 134.338,
    "v": 1710
  },
  {
    "dt": "2023.04.24 21:00",
    "o": 134.338,
    "h": 134.355,
    "l": 134.215,
    "c": 134.247,
    "v": 1410
  },
  {
    "dt": "2023.04.24 22:00",
    "o": 134.252,
    "h": 134.324,
    "l": 134.252,
    "c": 134.292,
    "v": 1759
  },
  {
    "dt": "2023.04.24 23:00",
    "o": 134.293,
    "h": 134.311,
    "l": 134.234,
    "c": 134.24,
    "v": 1203
  },
  {
    "dt": "2023.04.25 00:00",
    "o": 134.206,
    "h": 134.249,
    "l": 134.05,
    "c": 134.17,
    "v": 1017
  },
  {
    "dt": "2023.04.25 01:00",
    "o": 134.172,
    "h": 134.193,
    "l": 133.97,
    "c": 134.098,
    "v": 1917
  },
  {
    "dt": "2023.04.25 02:00",
    "o": 134.092,
    "h": 134.115,
    "l": 134.01,
    "c": 134.077,
    "v": 1874
  },
  {
    "dt": "2023.04.25 03:00",
    "o": 134.076,
    "h": 134.307,
    "l": 133.995,
    "c": 134.287,
    "v": 2891
  },
  {
    "dt": "2023.04.25 04:00",
    "o": 134.29,
    "h": 134.356,
    "l": 134.203,
    "c": 134.245,
    "v": 3123
  },
  {
    "dt": "2023.04.25 05:00",
    "o": 134.245,
    "h": 134.3,
    "l": 134.154,
    "c": 134.28,
    "v": 2413
  },
  {
    "dt": "2023.04.25 06:00",
    "o": 134.282,
    "h": 134.406,
    "l": 134.249,
    "c": 134.351,
    "v": 2274
  },
  {
    "dt": "2023.04.25 07:00",
    "o": 134.349,
    "h": 134.363,
    "l": 134.251,
    "c": 134.282,
    "v": 2126
  },
  {
    "dt": "2023.04.25 08:00",
    "o": 134.285,
    "h": 134.292,
    "l": 134.142,
    "c": 134.184,
    "v": 2393
  },
  {
    "dt": "2023.04.25 09:00",
    "o": 134.187,
    "h": 134.464,
    "l": 134.062,
    "c": 134.442,
    "v": 3065
  },
  {
    "dt": "2023.04.25 10:00",
    "o": 134.439,
    "h": 134.452,
    "l": 134.043,
    "c": 134.139,
    "v": 4217
  },
  {
    "dt": "2023.04.25 11:00",
    "o": 134.147,
    "h": 134.193,
    "l": 134.013,
    "c": 134.105,
    "v": 3313
  },
  {
    "dt": "2023.04.25 12:00",
    "o": 134.108,
    "h": 134.146,
    "l": 133.805,
    "c": 133.835,
    "v": 3109
  },
  {
    "dt": "2023.04.25 13:00",
    "o": 133.832,
    "h": 134.089,
    "l": 133.818,
    "c": 134.089,
    "v": 2658
  },
  {
    "dt": "2023.04.25 14:00",
    "o": 134.09,
    "h": 134.198,
    "l": 134.007,
    "c": 134.189,
    "v": 2861
  },
  {
    "dt": "2023.04.25 15:00",
    "o": 134.196,
    "h": 134.242,
    "l": 133.87,
    "c": 133.907,
    "v": 3570
  },
  {
    "dt": "2023.04.25 16:00",
    "o": 133.919,
    "h": 134.026,
    "l": 133.784,
    "c": 133.868,
    "v": 3604
  },
  {
    "dt": "2023.04.25 17:00",
    "o": 133.858,
    "h": 133.991,
    "l": 133.724,
    "c": 133.863,
    "v": 4125
  },
  {
    "dt": "2023.04.25 18:00",
    "o": 133.862,
    "h": 134.016,
    "l": 133.824,
    "c": 133.964,
    "v": 2936
  },
  {
    "dt": "2023.04.25 19:00",
    "o": 133.96,
    "h": 134.005,
    "l": 133.823,
    "c": 133.826,
    "v": 2889
  },
  {
    "dt": "2023.04.25 20:00",
    "o": 133.825,
    "h": 133.858,
    "l": 133.557,
    "c": 133.571,
    "v": 3139
  },
  {
    "dt": "2023.04.25 21:00",
    "o": 133.57,
    "h": 133.593,
    "l": 133.36,
    "c": 133.569,
    "v": 2723
  },
  {
    "dt": "2023.04.25 22:00",
    "o": 133.579,
    "h": 133.621,
    "l": 133.434,
    "c": 133.486,
    "v": 2111
  },
  {
    "dt": "2023.04.25 23:00",
    "o": 133.484,
    "h": 133.718,
    "l": 133.484,
    "c": 133.717,
    "v": 1443
  },
  {
    "dt": "2023.04.26 00:00",
    "o": 133.759,
    "h": 133.892,
    "l": 133.671,
    "c": 133.692,
    "v": 637
  },
  {
    "dt": "2023.04.26 01:00",
    "o": 133.704,
    "h": 133.867,
    "l": 133.673,
    "c": 133.713,
    "v": 1741
  },
  {
    "dt": "2023.04.26 02:00",
    "o": 133.705,
    "h": 133.749,
    "l": 133.611,
    "c": 133.697,
    "v": 2595
  },
  {
    "dt": "2023.04.26 03:00",
    "o": 133.686,
    "h": 133.74,
    "l": 133.484,
    "c": 133.687,
    "v": 3650
  },
  {
    "dt": "2023.04.26 04:00",
    "o": 133.687,
    "h": 133.735,
    "l": 133.428,
    "c": 133.507,
    "v": 3588
  },
  {
    "dt": "2023.04.26 05:00",
    "o": 133.512,
    "h": 133.601,
    "l": 133.449,
    "c": 133.567,
    "v": 2911
  },
  {
    "dt": "2023.04.26 06:00",
    "o": 133.569,
    "h": 133.627,
    "l": 133.482,
    "c": 133.518,
    "v": 2610
  },
  {
    "dt": "2023.04.26 07:00",
    "o": 133.519,
    "h": 133.594,
    "l": 133.479,
    "c": 133.572,
    "v": 2704
  },
  {
    "dt": "2023.04.26 08:00",
    "o": 133.572,
    "h": 133.707,
    "l": 133.545,
    "c": 133.628,
    "v": 3007
  },
  {
    "dt": "2023.04.26 09:00",
    "o": 133.624,
    "h": 133.779,
    "l": 133.613,
    "c": 133.657,
    "v": 3003
  },
  {
    "dt": "2023.04.26 10:00",
    "o": 133.658,
    "h": 133.713,
    "l": 133.382,
    "c": 133.443,
    "v": 4184
  },
  {
    "dt": "2023.04.26 11:00",
    "o": 133.442,
    "h": 133.679,
    "l": 133.412,
    "c": 133.53,
    "v": 3890
  },
  {
    "dt": "2023.04.26 12:00",
    "o": 133.532,
    "h": 133.572,
    "l": 133.412,
    "c": 133.425,
    "v": 3617
  },
  {
    "dt": "2023.04.26 13:00",
    "o": 133.426,
    "h": 133.476,
    "l": 133.28,
    "c": 133.404,
    "v": 3387
  },
  {
    "dt": "2023.04.26 14:00",
    "o": 133.407,
    "h": 133.839,
    "l": 133.254,
    "c": 133.725,
    "v": 3925
  },
  {
    "dt": "2023.04.26 15:00",
    "o": 133.725,
    "h": 133.927,
    "l": 133.591,
    "c": 133.608,
    "v": 4500
  },
  {
    "dt": "2023.04.26 16:00",
    "o": 133.618,
    "h": 133.641,
    "l": 133.066,
    "c": 133.158,
    "v": 4463
  },
  {
    "dt": "2023.04.26 17:00",
    "o": 133.161,
    "h": 133.358,
    "l": 133.008,
    "c": 133.321,
    "v": 4269
  },
  {
    "dt": "2023.04.26 18:00",
    "o": 133.313,
    "h": 133.723,
    "l": 133.296,
    "c": 133.716,
    "v": 3682
  },
  {
    "dt": "2023.04.26 19:00",
    "o": 133.711,
    "h": 133.872,
    "l": 133.706,
    "c": 133.802,
    "v": 3019
  },
  {
    "dt": "2023.04.26 20:00",
    "o": 133.812,
    "h": 133.852,
    "l": 133.711,
    "c": 133.735,
    "v": 2590
  },
  {
    "dt": "2023.04.26 21:00",
    "o": 133.735,
    "h": 133.789,
    "l": 133.513,
    "c": 133.529,
    "v": 2759
  },
  {
    "dt": "2023.04.26 22:00",
    "o": 133.53,
    "h": 133.69,
    "l": 133.465,
    "c": 133.62,
    "v": 2589
  },
  {
    "dt": "2023.04.26 23:00",
    "o": 133.618,
    "h": 133.679,
    "l": 133.607,
    "c": 133.647,
    "v": 1317
  },
  {
    "dt": "2023.04.27 00:00",
    "o": 133.624,
    "h": 133.663,
    "l": 133.558,
    "c": 133.607,
    "v": 494
  },
  {
    "dt": "2023.04.27 01:00",
    "o": 133.616,
    "h": 133.667,
    "l": 133.541,
    "c": 133.568,
    "v": 1550
  },
  {
    "dt": "2023.04.27 02:00",
    "o": 133.565,
    "h": 133.566,
    "l": 133.399,
    "c": 133.457,
    "v": 1946
  },
  {
    "dt": "2023.04.27 03:00",
    "o": 133.44,
    "h": 133.681,
    "l": 133.383,
    "c": 133.533,
    "v": 3239
  },
  {
    "dt": "2023.04.27 04:00",
    "o": 133.533,
    "h": 133.642,
    "l": 133.449,
    "c": 133.543,
    "v": 3065
  },
  {
    "dt": "2023.04.27 05:00",
    "o": 133.563,
    "h": 133.615,
    "l": 133.487,
    "c": 133.518,
    "v": 2749
  },
  {
    "dt": "2023.04.27 06:00",
    "o": 133.52,
    "h": 133.7,
    "l": 133.518,
    "c": 133.68,
    "v": 2541
  },
  {
    "dt": "2023.04.27 07:00",
    "o": 133.68,
    "h": 133.737,
    "l": 133.636,
    "c": 133.716,
    "v": 2709
  },
  {
    "dt": "2023.04.27 08:00",
    "o": 133.716,
    "h": 133.759,
    "l": 133.619,
    "c": 133.661,
    "v": 2735
  },
  {
    "dt": "2023.04.27 09:00",
    "o": 133.66,
    "h": 133.84,
    "l": 133.65,
    "c": 133.733,
    "v": 3218
  },
  {
    "dt": "2023.04.27 10:00",
    "o": 133.731,
    "h": 133.789,
    "l": 133.608,
    "c": 133.777,
    "v": 3683
  },
  {
    "dt": "2023.04.27 11:00",
    "o": 133.776,
    "h": 133.928,
    "l": 133.751,
    "c": 133.864,
    "v": 3256
  },
  {
    "dt": "2023.04.27 12:00",
    "o": 133.871,
    "h": 133.888,
    "l": 133.72,
    "c": 133.795,
    "v": 2896
  },
  {
    "dt": "2023.04.27 13:00",
    "o": 133.788,
    "h": 133.835,
    "l": 133.569,
    "c": 133.579,
    "v": 2570
  },
  {
    "dt": "2023.04.27 14:00",
    "o": 133.584,
    "h": 133.584,
    "l": 133.402,
    "c": 133.48,
    "v": 3269
  },
  {
    "dt": "2023.04.27 15:00",
    "o": 133.481,
    "h": 134.049,
    "l": 133.188,
    "c": 133.899,
    "v": 4288
  },
  {
    "dt": "2023.04.27 16:00",
    "o": 133.895,
    "h": 134.184,
    "l": 133.826,
    "c": 134.066,
    "v": 4393
  },
  {
    "dt": "2023.04.27 17:00",
    "o": 134.072,
    "h": 134.172,
    "l": 133.99,
    "c": 134.112,
    "v": 3852
  },
  {
    "dt": "2023.04.27 18:00",
    "o": 134.109,
    "h": 134.129,
    "l": 133.912,
    "c": 134.043,
    "v": 3062
  },
  {
    "dt": "2023.04.27 19:00",
    "o": 134.043,
    "h": 134.052,
    "l": 133.969,
    "c": 133.986,
    "v": 2410
  },
  {
    "dt": "2023.04.27 20:00",
    "o": 133.986,
    "h": 134.046,
    "l": 133.811,
    "c": 133.958,
    "v": 2381
  },
  {
    "dt": "2023.04.27 21:00",
    "o": 133.957,
    "h": 134.051,
    "l": 133.94,
    "c": 133.975,
    "v": 2350
  },
  {
    "dt": "2023.04.27 22:00",
    "o": 133.973,
    "h": 133.982,
    "l": 133.882,
    "c": 133.901,
    "v": 2243
  },
  {
    "dt": "2023.04.27 23:00",
    "o": 133.901,
    "h": 134.026,
    "l": 133.87,
    "c": 133.978,
    "v": 1514
  },
  {
    "dt": "2023.04.28 00:00",
    "o": 133.899,
    "h": 133.966,
    "l": 133.845,
    "c": 133.88,
    "v": 1542
  },
  {
    "dt": "2023.04.28 01:00",
    "o": 133.883,
    "h": 133.949,
    "l": 133.813,
    "c": 133.902,
    "v": 1657
  },
  {
    "dt": "2023.04.28 02:00",
    "o": 133.902,
    "h": 133.922,
    "l": 133.722,
    "c": 133.793,
    "v": 2636
  },
  {
    "dt": "2023.04.28 03:00",
    "o": 133.783,
    "h": 134.065,
    "l": 133.782,
    "c": 134.028,
    "v": 3059
  },
  {
    "dt": "2023.04.28 04:00",
    "o": 134.027,
    "h": 134.275,
    "l": 133.6,
    "c": 134.193,
    "v": 3601
  },
  {
    "dt": "2023.04.28 05:00",
    "o": 134.192,
    "h": 134.28,
    "l": 133.945,
    "c": 134.088,
    "v": 3625
  },
  {
    "dt": "2023.04.28 06:00",
    "o": 134.089,
    "h": 134.123,
    "l": 133.333,
    "c": 133.801,
    "v": 3301
  },
  {
    "dt": "2023.04.28 07:00",
    "o": 133.803,
    "h": 134.923,
    "l": 133.376,
    "c": 134.765,
    "v": 4863
  },
  {
    "dt": "2023.04.28 08:00",
    "o": 134.77,
    "h": 135.124,
    "l": 134.7,
    "c": 134.966,
    "v": 4079
  },
  {
    "dt": "2023.04.28 09:00",
    "o": 134.975,
    "h": 135.742,
    "l": 134.972,
    "c": 135.639,
    "v": 4679
  },
  {
    "dt": "2023.04.28 10:00",
    "o": 135.63,
    "h": 135.847,
    "l": 135.59,
    "c": 135.726,
    "v": 4408
  },
  {
    "dt": "2023.04.28 11:00",
    "o": 135.711,
    "h": 135.784,
    "l": 135.506,
    "c": 135.623,
    "v": 3971
  },
  {
    "dt": "2023.04.28 12:00",
    "o": 135.619,
    "h": 136.174,
    "l": 135.619,
    "c": 136.148,
    "v": 3552
  },
  {
    "dt": "2023.04.28 13:00",
    "o": 136.143,
    "h": 136.158,
    "l": 135.875,
    "c": 136.061,
    "v": 3037
  },
  {
    "dt": "2023.04.28 14:00",
    "o": 136.061,
    "h": 136.168,
    "l": 135.966,
    "c": 136.122,
    "v": 2957
  },
  {
    "dt": "2023.04.28 15:00",
    "o": 136.12,
    "h": 136.405,
    "l": 135.968,
    "c": 136.058,
    "v": 4425
  },
  {
    "dt": "2023.04.28 16:00",
    "o": 136.057,
    "h": 136.233,
    "l": 135.843,
    "c": 136.208,
    "v": 4272
  },
  {
    "dt": "2023.04.28 17:00",
    "o": 136.21,
    "h": 136.549,
    "l": 136.124,
    "c": 136.162,
    "v": 4710
  },
  {
    "dt": "2023.04.28 18:00",
    "o": 136.163,
    "h": 136.217,
    "l": 135.945,
    "c": 135.987,
    "v": 3815
  },
  {
    "dt": "2023.04.28 19:00",
    "o": 135.987,
    "h": 136.091,
    "l": 135.948,
    "c": 136.067,
    "v": 2782
  },
  {
    "dt": "2023.04.28 20:00",
    "o": 136.065,
    "h": 136.196,
    "l": 136.034,
    "c": 136.163,
    "v": 2172
  },
  {
    "dt": "2023.04.28 21:00",
    "o": 136.164,
    "h": 136.283,
    "l": 136.142,
    "c": 136.247,
    "v": 2679
  },
  {
    "dt": "2023.04.28 22:00",
    "o": 136.242,
    "h": 136.248,
    "l": 136.132,
    "c": 136.227,
    "v": 2126
  },
  {
    "dt": "2023.04.28 23:00",
    "o": 136.225,
    "h": 136.338,
    "l": 136.191,
    "c": 136.297,
    "v": 1734
  }
]