[
  {
    "dt": "2023.08.01 00:00",
    "o": 142.248,
    "h": 142.285,
    "l": 142.212,
    "c": 142.26,
    "v": 370
  },
  {
    "dt": "2023.08.01 01:00",
    "o": 142.262,
    "h": 142.273,
    "l": 142.202,
    "c": 142.247,
    "v": 1158
  },
  {
    "dt": "2023.08.01 02:00",
    "o": 142.247,
    "h": 142.399,
    "l": 142.221,
    "c": 142.319,
    "v": 2062
  },
  {
    "dt": "2023.08.01 03:00",
    "o": 142.316,
    "h": 142.492,
    "l": 142.246,
    "c": 142.488,
    "v": 3492
  },
  {
    "dt": "2023.08.01 04:00",
    "o": 142.486,
    "h": 142.755,
    "l": 142.428,
    "c": 142.744,
    "v": 3736
  },
  {
    "dt": "2023.08.01 05:00",
    "o": 142.767,
    "h": 142.785,
    "l": 142.526,
    "c": 142.568,
    "v": 3481
  },
  {
    "dt": "2023.08.01 06:00",
    "o": 142.568,
    "h": 142.715,
    "l": 142.528,
    "c": 142.66,
    "v": 3036
  },
  {
    "dt": "2023.08.01 07:00",
    "o": 142.666,
    "h": 142.833,
    "l": 142.641,
    "c": 142.712,
    "v": 3160
  },
  {
    "dt": "2023.08.01 08:00",
    "o": 142.715,
    "h": 142.798,
    "l": 142.678,
    "c": 142.77,
    "v": 3122
  },
  {
    "dt": "2023.08.01 09:00",
    "o": 142.77,
    "h": 142.775,
    "l": 142.522,
    "c": 142.65,
    "v": 3331
  },
  {
    "dt": "2023.08.01 10:00",
    "o": 142.652,
    "h": 142.75,
    "l": 142.546,
    "c": 142.704,
    "v": 3907
  },
  {
    "dt": "2023.08.01 11:00",
    "o": 142.705,
    "h": 142.804,
    "l": 142.633,
    "c": 142.679,
    "v": 3520
  },
  {
    "dt": "2023.08.01 12:00",
    "o": 142.688,
    "h": 142.769,
    "l": 142.606,
    "c": 142.631,
    "v": 3184
  },
  {
    "dt": "2023.08.01 13:00",
    "o": 142.63,
    "h": 142.757,
    "l": 142.627,
    "c": 142.735,
    "v": 2716
  },
  {
    "dt": "2023.08.01 14:00",
    "o": 142.732,
    "h": 142.972,
    "l": 142.726,
    "c": 142.963,
    "v": 3095
  },
  {
    "dt": "2023.08.01 15:00",
    "o": 142.963,
    "h": 143.282,
    "l": 142.937,
    "c": 143.257,
    "v": 4097
  },
  {
    "dt": "2023.08.01 16:00",
    "o": 143.259,
    "h": 143.33,
    "l": 143.094,
    "c": 143.258,
    "v": 3968
  },
  {
    "dt": "2023.08.01 17:00",
    "o": 143.214,
    "h": 143.461,
    "l": 142.868,
    "c": 143.26,
    "v": 4873
  },
  {
    "dt": "2023.08.01 18:00",
    "o": 143.26,
    "h": 143.403,
    "l": 143.24,
    "c": 143.33,
    "v": 3391
  },
  {
    "dt": "2023.08.01 19:00",
    "o": 143.332,
    "h": 143.396,
    "l": 143.247,
    "c": 143.384,
    "v": 2563
  },
  {
    "dt": "2023.08.01 20:00",
    "o": 143.385,
    "h": 143.536,
    "l": 143.351,
    "c": 143.495,
    "v": 2277
  },
  {
    "dt": "2023.08.01 21:00",
    "o": 143.495,
    "h": 143.495,
    "l": 143.306,
    "c": 143.399,
    "v": 2441
  },
  {
    "dt": "2023.08.01 22:00",
    "o": 143.398,
    "h": 143.403,
    "l": 143.3,
    "c": 143.368,
    "v": 2521
  },
  {
    "dt": "2023.08.01 23:00",
    "o": 143.369,
    "h": 143.41,
    "l": 143.307,
    "c": 143.318,
    "v": 1646
  },
  {
    "dt": "2023.08.02 00:00",
    "o": 143.322,
    "h": 143.322,
    "l": 142.689,
    "c": 142.749,
    "v": 937
  },
  {
    "dt": "2023.08.02 01:00",
    "o": 142.747,
    "h": 143.078,
    "l": 142.747,
    "c": 142.909,
    "v": 2894
  },
  {
    "dt": "2023.08.02 02:00",
    "o": 142.908,
    "h": 142.97,
    "l": 142.824,
    "c": 142.952,
    "v": 2663
  },
  {
    "dt": "2023.08.02 03:00",
    "o": 142.952,
    "h": 143.164,
    "l": 142.932,
    "c": 143.074,
    "v": 3969
  },
  {
    "dt": "2023.08.02 04:00",
    "o": 143.075,
    "h": 143.222,
    "l": 142.926,
    "c": 143.144,
    "v": 3834
  },
  {
    "dt": "2023.08.02 05:00",
    "o": 143.152,
    "h": 143.302,
    "l": 143.142,
    "c": 143.261,
    "v": 3178
  },
  {
    "dt": "2023.08.02 06:00",
    "o": 143.26,
    "h": 143.337,
    "l": 143.127,
    "c": 143.138,
    "v": 2986
  },
  {
    "dt": "2023.08.02 07:00",
    "o": 143.138,
    "h": 143.219,
    "l": 142.972,
    "c": 142.985,
    "v": 2923
  },
  {
    "dt": "2023.08.02 08:00",
    "o": 142.986,
    "h": 142.986,
    "l": 142.627,
    "c": 142.881,
    "v": 3898
  },
  {
    "dt": "2023.08.02 09:00",
    "o": 142.88,
    "h": 142.884,
    "l": 142.532,
    "c": 142.609,
    "v": 3854
  },
  {
    "dt": "2023.08.02 10:00",
    "o": 142.609,
    "h": 142.801,
    "l": 142.608,
    "c": 142.63,
    "v": 4162
  },
  {
    "dt": "2023.08.02 11:00",
    "o": 142.627,
    "h": 142.629,
    "l": 142.225,
    "c": 142.331,
    "v": 4143
  },
  {
    "dt": "2023.08.02 12:00",
    "o": 142.356,
    "h": 142.685,
    "l": 142.3,
    "c": 142.636,
    "v": 3382
  },
  {
    "dt": "2023.08.02 13:00",
    "o": 142.635,
    "h": 142.774,
    "l": 142.614,
    "c": 142.727,
    "v": 2851
  },
  {
    "dt": "2023.08.02 14:00",
    "o": 142.728,
    "h": 142.928,
    "l": 142.663,
    "c": 142.793,
    "v": 3065
  },
  {
    "dt": "2023.08.02 15:00",
    "o": 142.793,
    "h": 143.193,
    "l": 142.712,
    "c": 143.169,
    "v": 4603
  },
  {
    "dt": "2023.08.02 16:00",
    "o": 143.171,
    "h": 143.315,
    "l": 143.023,
    "c": 143.302,
    "v": 4226
  },
  {
    "dt": "2023.08.02 17:00",
    "o": 143.302,
    "h": 143.464,
    "l": 143.288,
    "c": 143.352,
    "v": 4537
  },
  {
    "dt": "2023.08.02 18:00",
    "o": 143.371,
    "h": 143.404,
    "l": 143.134,
    "c": 143.197,
    "v": 3903
  },
  {
    "dt": "2023.08.02 19:00",
    "o": 143.201,
    "h": 143.238,
    "l": 143.07,
    "c": 143.154,
    "v": 3324
  },
  {
    "dt": "2023.08.02 20:00",
    "o": 143.153,
    "h": 143.188,
    "l": 143.05,
    "c": 143.182,
    "v": 2939
  },
  {
    "dt": "2023.08.02 21:00",
    "o": 143.182,
    "h": 143.273,
    "l": 143.171,
    "c": 143.257,
    "v": 2780
  },
  {
    "dt": "2023.08.02 22:00",
    "o": 143.259,
    "h": 143.376,
    "l": 143.219,
    "c": 143.37,
    "v": 2581
  },
  {
    "dt": "2023.08.02 23:00",
    "o": 143.371,
    "h": 143.414,
    "l": 143.311,
    "c": 143.316,
    "v": 1556
  },
  {
    "dt": "2023.08.03 00:00",
    "o": 143.313,
    "h": 143.339,
    "l": 143.252,
    "c": 143.259,
    "v": 451
  },
  {
    "dt": "2023.08.03 01:00",
    "o": 143.253,
    "h": 143.28,
    "l": 143.184,
    "c": 143.251,
    "v": 1697
  },
  {
    "dt": "2023.08.03 02:00",
    "o": 143.24,
    "h": 143.354,
    "l": 143.184,
    "c": 143.345,
    "v": 1967
  },
  {
    "dt": "2023.08.03 03:00",
    "o": 143.347,
    "h": 143.405,
    "l": 143.214,
    "c": 143.343,
    "v": 3485
  },
  {
    "dt": "2023.08.03 04:00",
    "o": 143.341,
    "h": 143.454,
    "l": 143.154,
    "c": 143.267,
    "v": 3681
  },
  {
    "dt": "2023.08.03 05:00",
    "o": 143.267,
    "h": 143.364,
    "l": 143.178,
    "c": 143.292,
    "v": 3163
  },
  {
    "dt": "2023.08.03 06:00",
    "o": 143.296,
    "h": 143.322,
    "l": 143.228,
    "c": 143.241,
    "v": 3152
  },
  {
    "dt": "2023.08.03 07:00",
    "o": 143.24,
    "h": 143.724,
    "l": 143.238,
    "c": 143.686,
    "v": 3854
  },
  {
    "dt": "2023.08.03 08:00",
    "o": 143.678,
    "h": 143.879,
    "l": 143.494,
    "c": 143.515,
    "v": 3894
  },
  {
    "dt": "2023.08.03 09:00",
    "o": 143.516,
    "h": 143.688,
    "l": 143.408,
    "c": 143.657,
    "v": 4182
  },
  {
    "dt": "2023.08.03 10:00",
    "o": 143.661,
    "h": 143.721,
    "l": 142.842,
    "c": 142.898,
    "v": 4972
  },
  {
    "dt": "2023.08.03 11:00",
    "o": 142.894,
    "h": 143.149,
    "l": 142.786,
    "c": 142.833,
    "v": 4501
  },
  {
    "dt": "2023.08.03 12:00",
    "o": 142.834,
    "h": 142.942,
    "l": 142.764,
    "c": 142.906,
    "v": 4074
  },
  {
    "dt": "2023.08.03 13:00",
    "o": 142.909,
    "h": 143.046,
    "l": 142.85,
    "c": 142.908,
    "v": 3702
  },
  {
    "dt": "2023.08.03 14:00",
    "o": 142.907,
    "h": 142.995,
    "l": 142.823,
    "c": 142.926,
    "v": 4178
  },
  {
    "dt": "2023.08.03 15:00",
    "o": 142.941,
    "h": 142.957,
    "l": 142.489,
    "c": 142.697,
    "v": 4418
  },
  {
    "dt": "2023.08.03 16:00",
    "o": 142.697,
    "h": 142.842,
    "l": 142.592,
    "c": 142.813,
    "v": 4060
  },
  {
    "dt": "2023.08.03 17:00",
    "o": 142.803,
    "h": 142.823,
    "l": 142.28,
    "c": 142.286,
    "v": 4395
  },
  {
    "dt": "2023.08.03 18:00",
    "o": 142.285,
    "h": 142.448,
    "l": 142.054,
    "c": 142.409,
    "v": 3515
  },
  {
    "dt": "2023.08.03 19:00",
    "o": 142.409,
    "h": 142.542,
    "l": 142.347,
    "c": 142.506,
    "v": 2645
  },
  {
    "dt": "2023.08.03 20:00",
    "o": 142.502,
    "h": 142.695,
    "l": 142.497,
    "c": 142.634,
    "v": 2283
  },
  {
    "dt": "2023.08.03 21:00",
    "o": 142.634,
    "h": 142.712,
    "l": 142.598,
    "c": 142.693,
    "v": 1905
  },
  {
    "dt": "2023.08.03 22:00",
    "o": 142.694,
    "h": 142.735,
    "l": 142.546,
    "c": 142.547,
    "v": 1824
  },
  {
    "dt": "2023.08.03 23:00",
    "o": 142.556,
    "h": 142.57,
    "l": 142.478,
    "c": 142.519,
    "v": 1031
  },
  {
    "dt": "2023.08.04 00:00",
    "o": 142.515,
    "h": 142.559,
    "l": 142.472,
    "c": 142.516,
    "v": 486
  },
  {
    "dt": "2023.08.04 01:00",
    "o": 142.523,
    "h": 142.544,
    "l": 142.442,
    "c": 142.48,
    "v": 1302
  },
  {
    "dt": "2023.08.04 02:00",
    "o": 142.484,
    "h": 142.646,
    "l": 142.484,
    "c": 142.596,
    "v": 992
  },
  {
    "dt": "2023.08.04 03:00",
    "o": 142.597,
    "h": 142.874,
    "l": 142.542,
    "c": 142.723,
    "v": 2437
  },
  {
    "dt": "2023.08.04 04:00",
    "o": 142.724,
    "h": 142.734,
    "l": 142.491,
    "c": 142.627,
    "v": 2692
  },
  {
    "dt": "2023.08.04 05:00",
    "o": 142.62,
    "h": 142.704,
    "l": 142.304,
    "c": 142.47,
    "v": 2735
  },
  {
    "dt": "2023.08.04 06:00",
    "o": 142.473,
    "h": 142.599,
    "l": 142.458,
    "c": 142.533,
    "v": 1999
  },
  {
    "dt": "2023.08.04 07:00",
    "o": 142.534,
    "h": 142.563,
    "l": 142.444,
    "c": 142.476,
    "v": 1878
  },
  {
    "dt": "2023.08.04 08:00",
    "o": 142.487,
    "h": 142.54,
    "l": 142.342,
    "c": 142.457,
    "v": 2004
  },
  {
    "dt": "2023.08.04 09:00",
    "o": 142.456,
    "h": 142.684,
    "l": 142.343,
    "c": 142.638,
    "v": 2742
  },
  {
    "dt": "2023.08.04 10:00",
    "o": 142.641,
    "h": 142.707,
    "l": 142.475,
    "c": 142.646,
    "v": 3227
  },
  {
    "dt": "2023.08.04 11:00",
    "o": 142.643,
    "h": 142.713,
    "l": 142.598,
    "c": 142.651,
    "v": 2596
  },
  {
    "dt": "2023.08.04 12:00",
    "o": 142.65,
    "h": 142.794,
    "l": 142.594,
    "c": 142.723,
    "v": 2124
  },
  {
    "dt": "2023.08.04 13:00",
    "o": 142.722,
    "h": 142.831,
    "l": 142.656,
    "c": 142.775,
    "v": 1988
  },
  {
    "dt": "2023.08.04 14:00",
    "o": 142.762,
    "h": 142.783,
    "l": 142.658,
    "c": 142.687,
    "v": 1999
  },
  {
    "dt": "2023.08.04 15:00",
    "o": 142.694,
    "h": 142.84,
    "l": 142.131,
    "c": 142.235,
    "v": 4259
  },
  {
    "dt": "2023.08.04 16:00",
    "o": 142.242,
    "h": 142.248,
    "l": 141.642,
    "c": 141.756,
    "v": 4445
  },
  {
    "dt": "2023.08.04 17:00",
    "o": 141.756,
    "h": 141.881,
    "l": 141.541,
    "c": 141.783,
    "v": 3868
  },
  {
    "dt": "2023.08.04 18:00",
    "o": 141.787,
    "h": 141.924,
    "l": 141.657,
    "c": 141.788,
    "v": 3092
  },
  {
    "dt": "2023.08.04 19:00",
    "o": 141.788,
    "h": 141.893,
    "l": 141.761,
    "c": 141.833,
    "v": 2341
  },
  {
    "dt": "2023.08.04 20:00",
    "o": 141.829,
    "h": 141.877,
    "l": 141.787,
    "c": 141.827,
    "v": 1826
  },
  {
    "dt": "2023.08.04 21:00",
    "o": 141.827,
    "h": 141.854,
    "l": 141.803,
    "c": 141.841,
    "v": 2008
  },
  {
    "dt": "2023.08.04 22:00",
    "o": 141.833,
    "h": 141.862,
    "l": 141.798,
    "c": 141.807,
    "v": 1984
  },
  {
    "dt": "2023.08.04 23:00",
    "o": 141.803,
    "h": 141.823,
    "l": 141.724,
    "c": 141.739,
    "v": 876
  },
  {
    "dt": "2023.08.07 00:00",
    "o": 141.658,
    "h": 141.731,
    "l": 141.625,
    "c": 141.718,
    "v": 131
  },
  {
    "dt": "2023.08.07 01:00",
    "o": 141.702,
    "h": 141.858,
    "l": 141.698,
    "c": 141.811,
    "v": 1478
  },
  {
    "dt": "2023.08.07 02:00",
    "o": 141.812,
    "h": 141.931,
    "l": 141.804,
    "c": 141.863,
    "v": 1770
  },
  {
    "dt": "2023.08.07 03:00",
    "o": 141.858,
    "h": 141.903,
    "l": 141.508,
    "c": 141.585,
    "v": 2247
  },
  {
    "dt": "2023.08.07 04:00",
    "o": 141.587,
    "h": 141.917,
    "l": 141.572,
    "c": 141.762,
    "v": 2310
  },
  {
    "dt": "2023.08.07 05:00",
    "o": 141.752,
    "h": 142.032,
    "l": 141.752,
    "c": 142.009,
    "v": 1807
  },
  {
    "dt": "2023.08.07 06:00",
    "o": 142.007,
    "h": 142.201,
    "l": 141.956,
    "c": 142.174,
    "v": 1477
  },
  {
    "dt": "2023.08.07 07:00",
    "o": 142.174,
    "h": 142.291,
    "l": 142.101,
    "c": 142.114,
    "v": 1556
  },
  {
    "dt": "2023.08.07 08:00",
    "o": 142.109,
    "h": 142.234,
    "l": 142.047,
    "c": 142.172,
    "v": 1678
  },
  {
    "dt": "2023.08.07 09:00",
    "o": 142.173,
    "h": 142.29,
    "l": 142.127,
    "c": 142.217,
    "v": 2361
  },
  {
    "dt": "2023.08.07 10:00",
    "o": 142.217,
    "h": 142.342,
    "l": 142.097,
    "c": 142.107,
    "v": 2618
  },
  {
    "dt": "2023.08.07 11:00",
    "o": 142.109,
    "h": 142.391,
    "l": 142.1,
    "c": 142.293,
    "v": 2523
  },
  {
    "dt": "2023.08.07 12:00",
    "o": 142.281,
    "h": 142.325,
    "l": 142.198,
    "c": 142.323,
    "v": 1784
  },
  {
    "dt": "2023.08.07 13:00",
    "o": 142.326,
    "h": 142.437,
    "l": 142.268,
    "c": 142.334,
    "v": 1671
  },
  {
    "dt": "2023.08.07 14:00",
    "o": 142.335,
    "h": 142.377,
    "l": 142.175,
    "c": 142.175,
    "v": 1920
  },
  {
    "dt": "2023.08.07 15:00",
    "o": 142.182,
    "h": 142.233,
    "l": 141.993,
    "c": 142.003,
    "v": 1868
  },
  {
    "dt": "2023.08.07 16:00",
    "o": 141.999,
    "h": 142.105,
    "l": 141.804,
    "c": 142.103,
    "v": 2726
  },
  {
    "dt": "2023.08.07 17:00",
    "o": 142.121,
    "h": 142.348,
    "l": 142.038,
    "c": 142.338,
    "v": 2693
  },
  {
    "dt": "2023.08.07 18:00",
    "o": 142.344,
    "h": 142.446,
    "l": 142.234,
    "c": 142.438,
    "v": 2392
  },
  {
    "dt": "2023.08.07 19:00",
    "o": 142.44,
    "h": 142.569,
    "l": 142.434,
    "c": 142.507,
    "v": 2126
  },
  {
    "dt": "2023.08.07 20:00",
    "o": 142.508,
    "h": 142.543,
    "l": 142.439,
    "c": 142.454,
    "v": 1513
  },
  {
    "dt": "2023.08.07 21:00",
    "o": 142.445,
    "h": 142.464,
    "l": 142.406,
    "c": 142.415,
    "v": 1671
  },
  {
    "dt": "2023.08.07 22:00",
    "o": 142.417,
    "h": 142.472,
    "l": 142.403,
    "c": 142.468,
    "v": 1661
  },
  {
    "dt": "2023.08.07 23:00",
    "o": 142.469,
    "h": 142.515,
    "l": 142.447,
    "c": 142.469,
    "v": 818
  },
  {
    "dt": "2023.08.08 00:00",
    "o": 142.471,
    "h": 142.481,
    "l": 142.454,
    "c": 142.476,
    "v": 280
  },
  {
    "dt": "2023.08.08 01:00",
    "o": 142.481,
    "h": 142.481,
    "l": 142.402,
    "c": 142.413,
    "v": 1016
  },
  {
    "dt": "2023.08.08 02:00",
    "o": 142.405,
    "h": 142.535,
    "l": 142.392,
    "c": 142.528,
    "v": 1108
  },
  {
    "dt": "2023.08.08 03:00",
    "o": 142.517,
    "h": 143.032,
    "l": 142.517,
    "c": 143.002,
    "v": 2524
  },
  {
    "dt": "2023.08.08 04:00",
    "o": 143.004,
    "h": 143.324,
    "l": 142.932,
    "c": 143.294,
    "v": 2723
  },
  {
    "dt": "2023.08.08 05:00",
    "o": 143.297,
    "h": 143.366,
    "l": 143.206,
    "c": 143.319,
    "v": 2277
  },
  {
    "dt": "2023.08.08 06:00",
    "o": 143.319,
    "h": 143.337,
    "l": 143.247,
    "c": 143.326,
    "v": 1899
  },
  {
    "dt": "2023.08.08 07:00",
    "o": 143.322,
    "h": 143.422,
    "l": 143.216,
    "c": 143.219,
    "v": 1878
  },
  {
    "dt": "2023.08.08 08:00",
    "o": 143.217,
    "h": 143.332,
    "l": 143.128,
    "c": 143.302,
    "v": 1971
  },
  {
    "dt": "2023.08.08 09:00",
    "o": 143.302,
    "h": 143.386,
    "l": 142.893,
    "c": 142.972,
    "v": 2899
  },
  {
    "dt": "2023.08.08 10:00",
    "o": 142.974,
    "h": 143.118,
    "l": 142.827,
    "c": 143.083,
    "v": 3223
  },
  {
    "dt": "2023.08.08 11:00",
    "o": 143.062,
    "h": 143.178,
    "l": 142.994,
    "c": 143.082,
    "v": 2720
  },
  {
    "dt": "2023.08.08 12:00",
    "o": 143.083,
    "h": 143.113,
    "l": 142.982,
    "c": 143.021,
    "v": 2730
  },
  {
    "dt": "2023.08.08 13:00",
    "o": 143.02,
    "h": 143.264,
    "l": 142.963,
    "c": 143.217,
    "v": 2357
  },
  {
    "dt": "2023.08.08 14:00",
    "o": 143.215,
    "h": 143.223,
    "l": 142.852,
    "c": 143.113,
    "v": 2996
  },
  {
    "dt": "2023.08.08 15:00",
    "o": 143.111,
    "h": 143.167,
    "l": 142.907,
    "c": 143.14,
    "v": 3338
  },
  {
    "dt": "2023.08.08 16:00",
    "o": 143.151,
    "h": 143.226,
    "l": 142.953,
    "c": 143.082,
    "v": 3271
  },
  {
    "dt": "2023.08.08 17:00",
    "o": 143.083,
    "h": 143.219,
    "l": 143.037,
    "c": 143.122,
    "v": 3104
  },
  {
    "dt": "2023.08.08 18:00",
    "o": 143.121,
    "h": 143.327,
    "l": 143.11,
    "c": 143.169,
    "v": 2479
  },
  {
    "dt": "2023.08.08 19:00",
    "o": 143.169,
    "h": 143.328,
    "l": 143.169,
    "c": 143.302,
    "v": 2070
  },
  {
    "dt": "2023.08.08 20:00",
    "o": 143.299,
    "h": 143.328,
    "l": 143.211,
    "c": 143.264,
    "v": 2106
  },
  {
    "dt": "2023.08.08 21:00",
    "o": 143.264,
    "h": 143.481,
    "l": 143.252,
    "c": 143.367,
    "v": 1693
  },
  {
    "dt": "2023.08.08 22:00",
    "o": 143.368,
    "h": 143.45,
    "l": 143.357,
    "c": 143.445,
    "v": 1706
  },
  {
    "dt": "2023.08.08 23:00",
    "o": 143.443,
    "h": 143.45,
    "l": 143.357,
    "c": 143.376,
    "v": 1247
  },
  {
    "dt": "2023.08.09 00:00",
    "o": 143.348,
    "h": 143.357,
    "l": 143.27,
    "c": 143.325,
    "v": 522
  },
  {
    "dt": "2023.08.09 01:00",
    "o": 143.32,
    "h": 143.363,
    "l": 143.297,
    "c": 143.359,
    "v": 1019
  },
  {
    "dt": "2023.08.09 02:00",
    "o": 143.362,
    "h": 143.364,
    "l": 143.197,
    "c": 143.25,
    "v": 1249
  },
  {
    "dt": "2023.08.09 03:00",
    "o": 143.244,
    "h": 143.378,
    "l": 143.086,
    "c": 143.337,
    "v": 2432
  },
  {
    "dt": "2023.08.09 04:00",
    "o": 143.332,
    "h": 143.388,
    "l": 143.23,
    "c": 143.346,
    "v": 2134
  },
  {
    "dt": "2023.08.09 05:00",
    "o": 143.348,
    "h": 143.372,
    "l": 143.211,
    "c": 143.227,
    "v": 1586
  },
  {
    "dt": "2023.08.09 06:00",
    "o": 143.228,
    "h": 143.245,
    "l": 143.156,
    "c": 143.206,
    "v": 1275
  },
  {
    "dt": "2023.08.09 07:00",
    "o": 143.205,
    "h": 143.228,
    "l": 143.137,
    "c": 143.194,
    "v": 1143
  },
  {
    "dt": "2023.08.09 08:00",
    "o": 143.194,
    "h": 143.194,
    "l": 143.05,
    "c": 143.054,
    "v": 1431
  },
  {
    "dt": "2023.08.09 09:00",
    "o": 143.055,
    "h": 143.193,
    "l": 142.991,
    "c": 143.055,
    "v": 2150
  },
  {
    "dt": "2023.08.09 10:00",
    "o": 143.063,
    "h": 143.236,
    "l": 143.052,
    "c": 143.236,
    "v": 2706
  },
  {
    "dt": "2023.08.09 11:00",
    "o": 143.239,
    "h": 143.33,
    "l": 143.211,
    "c": 143.277,
    "v": 2127
  },
  {
    "dt": "2023.08.09 12:00",
    "o": 143.277,
    "h": 143.402,
    "l": 143.276,
    "c": 143.276,
    "v": 2028
  },
  {
    "dt": "2023.08.09 13:00",
    "o": 143.275,
    "h": 143.366,
    "l": 143.226,
    "c": 143.362,
    "v": 1953
  },
  {
    "dt": "2023.08.09 14:00",
    "o": 143.365,
    "h": 143.444,
    "l": 143.337,
    "c": 143.435,
    "v": 2261
  },
  {
    "dt": "2023.08.09 15:00",
    "o": 143.434,
    "h": 143.523,
    "l": 143.353,
    "c": 143.384,
    "v": 2898
  },
  {
    "dt": "2023.08.09 16:00",
    "o": 143.387,
    "h": 143.413,
    "l": 143.234,
    "c": 143.39,
    "v": 2246
  },
  {
    "dt": "2023.08.09 17:00",
    "o": 143.391,
    "h": 143.715,
    "l": 143.299,
    "c": 143.703,
    "v": 3348
  },
  {
    "dt": "2023.08.09 18:00",
    "o": 143.703,
    "h": 143.72,
    "l": 143.523,
    "c": 143.577,
    "v": 2753
  },
  {
    "dt": "2023.08.09 19:00",
    "o": 143.577,
    "h": 143.642,
    "l": 143.398,
    "c": 143.629,
    "v": 2156
  },
  {
    "dt": "2023.08.09 20:00",
    "o": 143.627,
    "h": 143.665,
    "l": 143.498,
    "c": 143.613,
    "v": 2110
  },
  {
    "dt": "2023.08.09 21:00",
    "o": 143.613,
    "h": 143.731,
    "l": 143.602,
    "c": 143.673,
    "v": 1743
  },
  {
    "dt": "2023.08.09 22:00",
    "o": 143.676,
    "h": 143.738,
    "l": 143.622,
    "c": 143.698,
    "v": 2009
  },
  {
    "dt": "2023.08.09 23:00",
    "o": 143.698,
    "h": 143.733,
    "l": 143.664,
    "c": 143.72,
    "v": 812
  },
  {
    "dt": "2023.08.10 00:00",
    "o": 143.662,
    "h": 143.688,
    "l": 143.652,
    "c": 143.669,
    "v": 237
  },
  {
    "dt": "2023.08.10 01:00",
    "o": 143.663,
    "h": 143.684,
    "l": 143.621,
    "c": 143.652,
    "v": 962
  },
  {
    "dt": "2023.08.10 02:00",
    "o": 143.658,
    "h": 143.748,
    "l": 143.624,
    "c": 143.698,
    "v": 847
  },
  {
    "dt": "2023.08.10 03:00",
    "o": 143.701,
    "h": 143.878,
    "l": 143.678,
    "c": 143.798,
    "v": 1980
  },
  {
    "dt": "2023.08.10 04:00",
    "o": 143.8,
    "h": 143.836,
    "l": 143.727,
    "c": 143.767,
    "v": 1601
  },
  {
    "dt": "2023.08.10 05:00",
    "o": 143.768,
    "h": 143.876,
    "l": 143.741,
    "c": 143.841,
    "v": 1406
  },
  {
    "dt": "2023.08.10 06:00",
    "o": 143.842,
    "h": 143.873,
    "l": 143.827,
    "c": 143.87,
    "v": 1170
  },
  {
    "dt": "2023.08.10 07:00",
    "o": 143.872,
    "h": 144.075,
    "l": 143.865,
    "c": 144.025,
    "v": 1450
  },
  {
    "dt": "2023.08.10 08:00",
    "o": 144.025,
    "h": 144.066,
    "l": 143.922,
    "c": 143.983,
    "v": 1407
  },
  {
    "dt": "2023.08.10 09:00",
    "o": 143.983,
    "h": 144.095,
    "l": 143.889,
    "c": 143.941,
    "v": 2068
  },
  {
    "dt": "2023.08.10 10:00",
    "o": 143.942,
    "h": 143.943,
    "l": 143.785,
    "c": 143.799,
    "v": 2735
  },
  {
    "dt": "2023.08.10 11:00",
    "o": 143.798,
    "h": 143.843,
    "l": 143.705,
    "c": 143.793,
    "v": 2625
  },
  {
    "dt": "2023.08.10 12:00",
    "o": 143.795,
    "h": 143.882,
    "l": 143.757,
    "c": 143.852,
    "v": 1750
  },
  {
    "dt": "2023.08.10 13:00",
    "o": 143.847,
    "h": 143.874,
    "l": 143.76,
    "c": 143.812,
    "v": 1635
  },
  {
    "dt": "2023.08.10 14:00",
    "o": 143.812,
    "h": 143.835,
    "l": 143.717,
    "c": 143.775,
    "v": 1700
  },
  {
    "dt": "2023.08.10 15:00",
    "o": 143.772,
    "h": 144.012,
    "l": 143.271,
    "c": 143.81,
    "v": 3782
  },
  {
    "dt": "2023.08.10 16:00",
    "o": 143.82,
    "h": 144.273,
    "l": 143.75,
    "c": 144.128,
    "v": 4064
  },
  {
    "dt": "2023.08.10 17:00",
    "o": 144.134,
    "h": 144.417,
    "l": 144.058,
    "c": 144.368,
    "v": 3585
  },
  {
    "dt": "2023.08.10 18:00",
    "o": 144.369,
    "h": 144.479,
    "l": 144.355,
    "c": 144.392,
    "v": 2506
  },
  {
    "dt": "2023.08.10 19:00",
    "o": 144.389,
    "h": 144.472,
    "l": 144.375,
    "c": 144.439,
    "v": 2005
  },
  {
    "dt": "2023.08.10 20:00",
    "o": 144.44,
    "h": 144.685,
    "l": 144.418,
    "c": 144.645,
    "v": 2803
  },
  {
    "dt": "2023.08.10 21:00",
    "o": 144.646,
    "h": 144.721,
    "l": 144.605,
    "c": 144.71,
    "v": 2234
  },
  {
    "dt": "2023.08.10 22:00",
    "o": 144.71,
    "h": 144.788,
    "l": 144.67,
    "c": 144.784,
    "v": 1672
  },
  {
    "dt": "2023.08.10 23:00",
    "o": 144.783,
    "h": 144.807,
    "l": 144.728,
    "c": 144.745,
    "v": 974
  },
  {
    "dt": "2023.08.11 00:00",
    "o": 144.667,
    "h": 144.716,
    "l": 144.666,
    "c": 144.673,
    "v": 364
  },
  {
    "dt": "2023.08.11 01:00",
    "o": 144.681,
    "h": 144.837,
    "l": 144.681,
    "c": 144.817,
    "v": 1071
  },
  {
    "dt": "2023.08.11 02:00",
    "o": 144.818,
    "h": 144.863,
    "l": 144.75,
    "c": 144.844,
    "v": 1002
  },
  {
    "dt": "2023.08.11 03:00",
    "o": 144.845,
    "h": 144.885,
    "l": 144.754,
    "c": 144.811,
    "v": 1487
  },
  {
    "dt": "2023.08.11 04:00",
    "o": 144.819,
    "h": 144.819,
    "l": 144.622,
    "c": 144.702,
    "v": 1544
  },
  {
    "dt": "2023.08.11 05:00",
    "o": 144.703,
    "h": 144.781,
    "l": 144.681,
    "c": 144.723,
    "v": 1539
  },
  {
    "dt": "2023.08.11 06:00",
    "o": 144.725,
    "h": 144.729,
    "l": 144.661,
    "c": 144.669,
    "v": 988
  },
  {
    "dt": "2023.08.11 07:00",
    "o": 144.668,
    "h": 144.689,
    "l": 144.648,
    "c": 144.675,
    "v": 1054
  },
  {
    "dt": "2023.08.11 08:00",
    "o": 144.676,
    "h": 144.746,
    "l": 144.664,
    "c": 144.724,
    "v": 1565
  },
  {
    "dt": "2023.08.11 09:00",
    "o": 144.738,
    "h": 144.785,
    "l": 144.691,
    "c": 144.746,
    "v": 2175
  },
  {
    "dt": "2023.08.11 10:00",
    "o": 144.732,
    "h": 144.75,
    "l": 144.545,
    "c": 144.614,
    "v": 2336
  },
  {
    "dt": "2023.08.11 11:00",
    "o": 144.612,
    "h": 144.638,
    "l": 144.548,
    "c": 144.577,
    "v": 2098
  },
  {
    "dt": "2023.08.11 12:00",
    "o": 144.579,
    "h": 144.628,
    "l": 144.549,
    "c": 144.592,
    "v": 1752
  },
  {
    "dt": "2023.08.11 13:00",
    "o": 144.594,
    "h": 144.635,
    "l": 144.542,
    "c": 144.561,
    "v": 1501
  },
  {
    "dt": "2023.08.11 14:00",
    "o": 144.562,
    "h": 144.582,
    "l": 144.468,
    "c": 144.47,
    "v": 1723
  },
  {
    "dt": "2023.08.11 15:00",
    "o": 144.47,
    "h": 144.838,
    "l": 144.413,
    "c": 144.783,
    "v": 2956
  },
  {
    "dt": "2023.08.11 16:00",
    "o": 144.793,
    "h": 144.87,
    "l": 144.678,
    "c": 144.792,
    "v": 3047
  },
  {
    "dt": "2023.08.11 17:00",
    "o": 144.478,
    "h": 144.831,
    "l": 144.39,
    "c": 144.721,
    "v": 3605
  },
  {
    "dt": "2023.08.11 18:00",
    "o": 144.726,
    "h": 144.959,
    "l": 144.695,
    "c": 144.932,
    "v": 2451
  },
  {
    "dt": "2023.08.11 19:00",
    "o": 144.931,
    "h": 144.935,
    "l": 144.806,
    "c": 144.919,
    "v": 1965
  },
  {
    "dt": "2023.08.11 20:00",
    "o": 144.921,
    "h": 144.989,
    "l": 144.874,
    "c": 144.976,
    "v": 1665
  },
  {
    "dt": "2023.08.11 21:00",
    "o": 144.975,
    "h": 144.983,
    "l": 144.895,
    "c": 144.947,
    "v": 1479
  },
  {
    "dt": "2023.08.11 22:00",
    "o": 144.948,
    "h": 144.987,
    "l": 144.913,
    "c": 144.936,
    "v": 1358
  },
  {
    "dt": "2023.08.11 23:00",
    "o": 144.936,
    "h": 144.959,
    "l": 144.912,
    "c": 144.939,
    "v": 740
  },
  {
    "dt": "2023.08.14 00:00",
    "o": 144.845,
    "h": 144.969,
    "l": 144.845,
    "c": 144.952,
    "v": 156
  },
  {
    "dt": "2023.08.14 01:00",
    "o": 144.95,
    "h": 144.978,
    "l": 144.871,
    "c": 144.915,
    "v": 1178
  },
  {
    "dt": "2023.08.14 02:00",
    "o": 144.91,
    "h": 144.929,
    "l": 144.811,
    "c": 144.849,
    "v": 1150
  },
  {
    "dt": "2023.08.14 03:00",
    "o": 144.854,
    "h": 145.211,
    "l": 144.778,
    "c": 144.979,
    "v": 2512
  },
  {
    "dt": "2023.08.14 04:00",
    "o": 144.969,
    "h": 144.988,
    "l": 144.645,
    "c": 144.95,
    "v": 2689
  },
  {
    "dt": "2023.08.14 05:00",
    "o": 144.951,
    "h": 144.987,
    "l": 144.87,
    "c": 144.96,
    "v": 1858
  },
  {
    "dt": "2023.08.14 06:00",
    "o": 144.961,
    "h": 144.975,
    "l": 144.889,
    "c": 144.906,
    "v": 1572
  },
  {
    "dt": "2023.08.14 07:00",
    "o": 144.904,
    "h": 144.926,
    "l": 144.882,
    "c": 144.898,
    "v": 1300
  },
  {
    "dt": "2023.08.14 08:00",
    "o": 144.897,
    "h": 144.967,
    "l": 144.817,
    "c": 144.823,
    "v": 1253
  },
  {
    "dt": "2023.08.14 09:00",
    "o": 144.828,
    "h": 144.876,
    "l": 144.734,
    "c": 144.858,
    "v": 2276
  },
  {
    "dt": "2023.08.14 10:00",
    "o": 144.861,
    "h": 144.897,
    "l": 144.735,
    "c": 144.786,
    "v": 2619
  },
  {
    "dt": "2023.08.14 11:00",
    "o": 144.787,
    "h": 144.964,
    "l": 144.754,
    "c": 144.936,
    "v": 2477
  },
  {
    "dt": "2023.08.14 12:00",
    "o": 144.937,
    "h": 145.062,
    "l": 144.847,
    "c": 144.932,
    "v": 2104
  },
  {
    "dt": "2023.08.14 13:00",
    "o": 144.932,
    "h": 145.015,
    "l": 144.92,
    "c": 145.002,
    "v": 1708
  },
  {
    "dt": "2023.08.14 14:00",
    "o": 145.005,
    "h": 145.119,
    "l": 144.983,
    "c": 145.055,
    "v": 1724
  },
  {
    "dt": "2023.08.14 15:00",
    "o": 145.057,
    "h": 145.39,
    "l": 145.057,
    "c": 145.338,
    "v": 2846
  },
  {
    "dt": "2023.08.14 16:00",
    "o": 145.341,
    "h": 145.57,
    "l": 145.292,
    "c": 145.517,
    "v": 2971
  },
  {
    "dt": "2023.08.14 17:00",
    "o": 145.519,
    "h": 145.539,
    "l": 145.213,
    "c": 145.431,
    "v": 3172
  },
  {
    "dt": "2023.08.14 18:00",
    "o": 145.43,
    "h": 145.438,
    "l": 145.24,
    "c": 145.294,
    "v": 2304
  },
  {
    "dt": "2023.08.14 19:00",
    "o": 145.289,
    "h": 145.304,
    "l": 145.172,
    "c": 145.273,
    "v": 1985
  },
  {
    "dt": "2023.08.14 20:00",
    "o": 145.273,
    "h": 145.36,
    "l": 145.239,
    "c": 145.357,
    "v": 1349
  },
  {
    "dt": "2023.08.14 21:00",
    "o": 145.356,
    "h": 145.497,
    "l": 145.329,
    "c": 145.493,
    "v": 1528
  },
  {
    "dt": "2023.08.14 22:00",
    "o": 145.492,
    "h": 145.51,
    "l": 145.407,
    "c": 145.444,
    "v": 1632
  },
  {
    "dt": "2023.08.14 23:00",
    "o": 145.443,
    "h": 145.541,
    "l": 145.433,
    "c": 145.537,
    "v": 722
  },
  {
    "dt": "2023.08.15 00:00",
    "o": 145.526,
    "h": 145.558,
    "l": 145.509,
    "c": 145.529,
    "v": 405
  },
  {
    "dt": "2023.08.15 01:00",
    "o": 145.528,
    "h": 145.534,
    "l": 145.459,
    "c": 145.501,
    "v": 795
  },
  {
    "dt": "2023.08.15 02:00",
    "o": 145.507,
    "h": 145.535,
    "l": 145.361,
    "c": 145.427,
    "v": 846
  },
  {
    "dt": "2023.08.15 03:00",
    "o": 145.426,
    "h": 145.582,
    "l": 145.413,
    "c": 145.433,
    "v": 1864
  },
  {
    "dt": "2023.08.15 04:00",
    "o": 145.429,
    "h": 145.483,
    "l": 145.317,
    "c": 145.404,
    "v": 2265
  },
  {
    "dt": "2023.08.15 05:00",
    "o": 145.403,
    "h": 145.538,
    "l": 145.358,
    "c": 145.536,
    "v": 1756
  },
  {
    "dt": "2023.08.15 06:00",
    "o": 145.539,
    "h": 145.542,
    "l": 145.451,
    "c": 145.488,
    "v": 1277
  },
  {
    "dt": "2023.08.15 07:00",
    "o": 145.487,
    "h": 145.529,
    "l": 145.457,
    "c": 145.507,
    "v": 1164
  },
  {
    "dt": "2023.08.15 08:00",
    "o": 145.508,
    "h": 145.517,
    "l": 145.315,
    "c": 145.439,
    "v": 1557
  },
  {
    "dt": "2023.08.15 09:00",
    "o": 145.441,
    "h": 145.724,
    "l": 145.408,
    "c": 145.712,
    "v": 2734
  },
  {
    "dt": "2023.08.15 10:00",
    "o": 145.711,
    "h": 145.836,
    "l": 145.643,
    "c": 145.793,
    "v": 2844
  },
  {
    "dt": "2023.08.15 11:00",
    "o": 145.791,
    "h": 145.854,
    "l": 145.566,
    "c": 145.629,
    "v": 2657
  },
  {
    "dt": "2023.08.15 12:00",
    "o": 145.632,
    "h": 145.704,
    "l": 145.499,
    "c": 145.54,
    "v": 2691
  },
  {
    "dt": "2023.08.15 13:00",
    "o": 145.538,
    "h": 145.653,
    "l": 145.496,
    "c": 145.53,
    "v": 2730
  },
  {
    "dt": "2023.08.15 14:00",
    "o": 145.532,
    "h": 145.582,
    "l": 145.454,
    "c": 145.523,
    "v": 1813
  },
  {
    "dt": "2023.08.15 15:00",
    "o": 145.522,
    "h": 145.815,
    "l": 145.494,
    "c": 145.58,
    "v": 3546
  },
  {
    "dt": "2023.08.15 16:00",
    "o": 145.569,
    "h": 145.601,
    "l": 145.253,
    "c": 145.316,
    "v": 3926
  },
  {
    "dt": "2023.08.15 17:00",
    "o": 145.316,
    "h": 145.406,
    "l": 145.093,
    "c": 145.126,
    "v": 3521
  },
  {
    "dt": "2023.08.15 18:00",
    "o": 145.129,
    "h": 145.426,
    "l": 145.126,
    "c": 145.391,
    "v": 2621
  },
  {
    "dt": "2023.08.15 19:00",
    "o": 145.389,
    "h": 145.557,
    "l": 145.385,
    "c": 145.548,
    "v": 2077
  },
  {
    "dt": "2023.08.15 20:00",
    "o": 145.552,
    "h": 145.562,
    "l": 145.473,
    "c": 145.493,
    "v": 1640
  },
  {
    "dt": "2023.08.15 21:00",
    "o": 145.495,
    "h": 145.655,
    "l": 145.493,
    "c": 145.654,
    "v": 1360
  },
  {
    "dt": "2023.08.15 22:00",
    "o": 145.654,
    "h": 145.656,
    "l": 145.523,
    "c": 145.539,
    "v": 1507
  },
  {
    "dt": "2023.08.15 23:00",
    "o": 145.538,
    "h": 145.589,
    "l": 145.511,
    "c": 145.571,
    "v": 787
  },
  {
    "dt": "2023.08.16 00:00",
    "o": 145.55,
    "h": 145.575,
    "l": 145.539,
    "c": 145.556,
    "v": 794
  },
  {
    "dt": "2023.08.16 01:00",
    "o": 145.556,
    "h": 145.589,
    "l": 145.503,
    "c": 145.589,
    "v": 929
  },
  {
    "dt": "2023.08.16 02:00",
    "o": 145.591,
    "h": 145.643,
    "l": 145.557,
    "c": 145.602,
    "v": 875
  },
  {
    "dt": "2023.08.16 03:00",
    "o": 145.597,
    "h": 145.673,
    "l": 145.5,
    "c": 145.572,
    "v": 1789
  },
  {
    "dt": "2023.08.16 04:00",
    "o": 145.577,
    "h": 145.682,
    "l": 145.525,
    "c": 145.555,
    "v": 1786
  },
  {
    "dt": "2023.08.16 05:00",
    "o": 145.539,
    "h": 145.557,
    "l": 145.44,
    "c": 145.544,
    "v": 1604
  },
  {
    "dt": "2023.08.16 06:00",
    "o": 145.547,
    "h": 145.547,
    "l": 145.473,
    "c": 145.491,
    "v": 1160
  },
  {
    "dt": "2023.08.16 07:00",
    "o": 145.497,
    "h": 145.507,
    "l": 145.435,
    "c": 145.446,
    "v": 1192
  },
  {
    "dt": "2023.08.16 08:00",
    "o": 145.444,
    "h": 145.468,
    "l": 145.403,
    "c": 145.408,
    "v": 1319
  },
  {
    "dt": "2023.08.16 09:00",
    "o": 145.424,
    "h": 145.501,
    "l": 145.298,
    "c": 145.338,
    "v": 2417
  },
  {
    "dt": "2023.08.16 10:00",
    "o": 145.338,
    "h": 145.511,
    "l": 145.319,
    "c": 145.36,
    "v": 2341
  },
  {
    "dt": "2023.08.16 11:00",
    "o": 145.362,
    "h": 145.546,
    "l": 145.355,
    "c": 145.512,
    "v": 2430
  },
  {
    "dt": "2023.08.16 12:00",
    "o": 145.514,
    "h": 145.624,
    "l": 145.47,
    "c": 145.555,
    "v": 1800
  },
  {
    "dt": "2023.08.16 13:00",
    "o": 145.557,
    "h": 145.66,
    "l": 145.545,
    "c": 145.603,
    "v": 1816
  },
  {
    "dt": "2023.08.16 14:00",
    "o": 145.601,
    "h": 145.765,
    "l": 145.599,
    "c": 145.754,
    "v": 1942
  },
  {
    "dt": "2023.08.16 15:00",
    "o": 145.753,
    "h": 145.869,
    "l": 145.684,
    "c": 145.856,
    "v": 2560
  },
  {
    "dt": "2023.08.16 16:00",
    "o": 145.858,
    "h": 145.915,
    "l": 145.643,
    "c": 145.807,
    "v": 3375
  },
  {
    "dt": "2023.08.16 17:00",
    "o": 145.81,
    "h": 145.858,
    "l": 145.695,
    "c": 145.794,
    "v": 3039
  },
  {
    "dt": "2023.08.16 18:00",
    "o": 145.792,
    "h": 145.865,
    "l": 145.706,
    "c": 145.808,
    "v": 2294
  },
  {
    "dt": "2023.08.16 19:00",
    "o": 145.809,
    "h": 145.929,
    "l": 145.793,
    "c": 145.907,
    "v": 1863
  },
  {
    "dt": "2023.08.16 20:00",
    "o": 145.906,
    "h": 146.143,
    "l": 145.906,
    "c": 146.045,
    "v": 2046
  },
  {
    "dt": "2023.08.16 21:00",
    "o": 146.049,
    "h": 146.249,
    "l": 145.987,
    "c": 146.222,
    "v": 2822
  },
  {
    "dt": "2023.08.16 22:00",
    "o": 146.221,
    "h": 146.396,
    "l": 146.221,
    "c": 146.368,
    "v": 2153
  },
  {
    "dt": "2023.08.16 23:00",
    "o": 146.359,
    "h": 146.368,
    "l": 146.297,
    "c": 146.343,
    "v": 1046
  },
  {
    "dt": "2023.08.17 00:00",
    "o": 146.237,
    "h": 146.32,
    "l": 146.161,
    "c": 146.245,
    "v": 611
  },
  {
    "dt": "2023.08.17 01:00",
    "o": 146.257,
    "h": 146.289,
    "l": 146.223,
    "c": 146.268,
    "v": 722
  },
  {
    "dt": "2023.08.17 02:00",
    "o": 146.265,
    "h": 146.337,
    "l": 146.264,
    "c": 146.327,
    "v": 1143
  },
  {
    "dt": "2023.08.17 03:00",
    "o": 146.327,
    "h": 146.548,
    "l": 146.321,
    "c": 146.382,
    "v": 2219
  },
  {
    "dt": "2023.08.17 04:00",
    "o": 146.382,
    "h": 146.488,
    "l": 146.343,
    "c": 146.394,
    "v": 1900
  },
  {
    "dt": "2023.08.17 05:00",
    "o": 146.394,
    "h": 146.42,
    "l": 146.349,
    "c": 146.41,
    "v": 1344
  },
  {
    "dt": "2023.08.17 06:00",
    "o": 146.409,
    "h": 146.427,
    "l": 146.353,
    "c": 146.412,
    "v": 1144
  },
  {
    "dt": "2023.08.17 07:00",
    "o": 146.413,
    "h": 146.42,
    "l": 146.361,
    "c": 146.402,
    "v": 1355
  },
  {
    "dt": "2023.08.17 08:00",
    "o": 146.402,
    "h": 146.419,
    "l": 146.282,
    "c": 146.301,
    "v": 1718
  },
  {
    "dt": "2023.08.17 09:00",
    "o": 146.301,
    "h": 146.405,
    "l": 146.271,
    "c": 146.349,
    "v": 2109
  },
  {
    "dt": "2023.08.17 10:00",
    "o": 146.35,
    "h": 146.355,
    "l": 146.193,
    "c": 146.212,
    "v": 2324
  },
  {
    "dt": "2023.08.17 11:00",
    "o": 146.212,
    "h": 146.254,
    "l": 146.091,
    "c": 146.227,
    "v": 2330
  },
  {
    "dt": "2023.08.17 12:00",
    "o": 146.227,
    "h": 146.288,
    "l": 146.147,
    "c": 146.191,
    "v": 1987
  },
  {
    "dt": "2023.08.17 13:00",
    "o": 146.19,
    "h": 146.215,
    "l": 145.916,
    "c": 145.952,
    "v": 2405
  },
  {
    "dt": "2023.08.17 14:00",
    "o": 145.951,
    "h": 146.031,
    "l": 145.782,
    "c": 145.809,
    "v": 2302
  },
  {
    "dt": "2023.08.17 15:00",
    "o": 145.811,
    "h": 145.965,
    "l": 145.66,
    "c": 145.781,
    "v": 3316
  },
  {
    "dt": "2023.08.17 16:00",
    "o": 145.78,
    "h": 145.892,
    "l": 145.609,
    "c": 145.878,
    "v": 3670
  },
  {
    "dt": "2023.08.17 17:00",
    "o": 145.881,
    "h": 146.149,
    "l": 145.869,
    "c": 146.002,
    "v": 2658
  },
  {
    "dt": "2023.08.17 18:00",
    "o": 146.004,
    "h": 146.189,
    "l": 145.915,
    "c": 146.159,
    "v": 2477
  },
  {
    "dt": "2023.08.17 19:00",
    "o": 146.15,
    "h": 146.157,
    "l": 146.02,
    "c": 146.12,
    "v": 1635
  },
  {
    "dt": "2023.08.17 20:00",
    "o": 146.123,
    "h": 146.286,
    "l": 146.12,
    "c": 146.266,
    "v": 1623
  },
  {
    "dt": "2023.08.17 21:00",
    "o": 146.266,
    "h": 146.29,
    "l": 146.126,
    "c": 146.141,
    "v": 1697
  },
  {
    "dt": "2023.08.17 22:00",
    "o": 146.142,
    "h": 146.157,
    "l": 145.625,
    "c": 145.712,
    "v": 2488
  },
  {
    "dt": "2023.08.17 23:00",
    "o": 145.711,
    "h": 145.843,
    "l": 145.711,
    "c": 145.842,
    "v": 942
  },
  {
    "dt": "2023.08.18 00:00",
    "o": 145.788,
    "h": 145.852,
    "l": 145.772,
    "c": 145.811,
    "v": 508
  },
  {
    "dt": "2023.08.18 01:00",
    "o": 145.814,
    "h": 145.832,
    "l": 145.681,
    "c": 145.703,
    "v": 835
  },
  {
    "dt": "2023.08.18 02:00",
    "o": 145.703,
    "h": 145.724,
    "l": 145.567,
    "c": 145.701,
    "v": 1061
  },
  {
    "dt": "2023.08.18 03:00",
    "o": 145.679,
    "h": 145.784,
    "l": 145.521,
    "c": 145.535,
    "v": 2150
  },
  {
    "dt": "2023.08.18 04:00",
    "o": 145.536,
    "h": 145.563,
    "l": 145.318,
    "c": 145.457,
    "v": 2307
  },
  {
    "dt": "2023.08.18 05:00",
    "o": 145.451,
    "h": 145.546,
    "l": 145.433,
    "c": 145.503,
    "v": 1655
  },
  {
    "dt": "2023.08.18 06:00",
    "o": 145.502,
    "h": 145.521,
    "l": 145.314,
    "c": 145.357,
    "v": 1912
  },
  {
    "dt": "2023.08.18 07:00",
    "o": 145.356,
    "h": 145.499,
    "l": 145.323,
    "c": 145.461,
    "v": 1527
  },
  {
    "dt": "2023.08.18 08:00",
    "o": 145.462,
    "h": 145.462,
    "l": 145.316,
    "c": 145.35,
    "v": 1452
  },
  {
    "dt": "2023.08.18 09:00",
    "o": 145.338,
    "h": 145.394,
    "l": 145.173,
    "c": 145.364,
    "v": 2435
  },
  {
    "dt": "2023.08.18 10:00",
    "o": 145.367,
    "h": 145.379,
    "l": 145.143,
    "c": 145.285,
    "v": 2788
  },
  {
    "dt": "2023.08.18 11:00",
    "o": 145.285,
    "h": 145.623,
    "l": 145.249,
    "c": 145.57,
    "v": 2172
  },
  {
    "dt": "2023.08.18 12:00",
    "o": 145.57,
    "h": 145.622,
    "l": 145.441,
    "c": 145.55,
    "v": 1977
  },
  {
    "dt": "2023.08.18 13:00",
    "o": 145.548,
    "h": 145.549,
    "l": 145.412,
    "c": 145.475,
    "v": 1747
  },
  {
    "dt": "2023.08.18 14:00",
    "o": 145.476,
    "h": 145.518,
    "l": 145.294,
    "c": 145.378,
    "v": 2161
  },
  {
    "dt": "2023.08.18 15:00",
    "o": 145.378,
    "h": 145.757,
    "l": 145.375,
    "c": 145.631,
    "v": 2931
  },
  {
    "dt": "2023.08.18 16:00",
    "o": 145.631,
    "h": 145.726,
    "l": 145.278,
    "c": 145.33,
    "v": 3266
  },
  {
    "dt": "2023.08.18 17:00",
    "o": 145.33,
    "h": 145.391,
    "l": 145.131,
    "c": 145.173,
    "v": 2883
  },
  {
    "dt": "2023.08.18 18:00",
    "o": 145.172,
    "h": 145.319,
    "l": 145.103,
    "c": 145.141,
    "v": 2176
  },
  {
    "dt": "2023.08.18 19:00",
    "o": 145.14,
    "h": 145.271,
    "l": 145.05,
    "c": 145.059,
    "v": 1947
  },
  {
    "dt": "2023.08.18 20:00",
    "o": 145.057,
    "h": 145.14,
    "l": 144.919,
    "c": 145.112,
    "v": 1901
  },
  {
    "dt": "2023.08.18 21:00",
    "o": 145.111,
    "h": 145.297,
    "l": 145.109,
    "c": 145.294,
    "v": 1558
  },
  {
    "dt": "2023.08.18 22:00",
    "o": 145.292,
    "h": 145.386,
    "l": 145.277,
    "c": 145.335,
    "v": 1791
  },
  {
    "dt": "2023.08.18 23:00",
    "o": 145.335,
    "h": 145.397,
    "l": 145.286,
    "c": 145.378,
    "v": 961
  },
  {
    "dt": "2023.08.21 00:00",
    "o": 145.283,
    "h": 145.438,
    "l": 145.283,
    "c": 145.391,
    "v": 149
  },
  {
    "dt": "2023.08.21 01:00",
    "o": 145.366,
    "h": 145.438,
    "l": 145.264,
    "c": 145.289,
    "v": 1008
  },
  {
    "dt": "2023.08.21 02:00",
    "o": 145.293,
    "h": 145.342,
    "l": 145.271,
    "c": 145.315,
    "v": 886
  },
  {
    "dt": "2023.08.21 03:00",
    "o": 145.309,
    "h": 145.318,
    "l": 145.14,
    "c": 145.173,
    "v": 2016
  },
  {
    "dt": "2023.08.21 04:00",
    "o": 145.17,
    "h": 145.542,
    "l": 145.135,
    "c": 145.532,
    "v": 2233
  },
  {
    "dt": "2023.08.21 05:00",
    "o": 145.527,
    "h": 145.616,
    "l": 145.297,
    "c": 145.34,
    "v": 1773
  },
  {
    "dt": "2023.08.21 06:00",
    "o": 145.341,
    "h": 145.455,
    "l": 145.337,
    "c": 145.411,
    "v": 1414
  },
  {
    "dt": "2023.08.21 07:00",
    "o": 145.411,
    "h": 145.436,
    "l": 145.305,
    "c": 145.362,
    "v": 1282
  },
  {
    "dt": "2023.08.21 08:00",
    "o": 145.361,
    "h": 145.434,
    "l": 145.329,
    "c": 145.387,
    "v": 1562
  },
  {
    "dt": "2023.08.21 09:00",
    "o": 145.38,
    "h": 145.529,
    "l": 145.376,
    "c": 145.429,
    "v": 1850
  },
  {
    "dt": "2023.08.21 10:00",
    "o": 145.418,
    "h": 145.463,
    "l": 145.332,
    "c": 145.445,
    "v": 2528
  },
  {
    "dt": "2023.08.21 11:00",
    "o": 145.447,
    "h": 145.686,
    "l": 145.424,
    "c": 145.666,
    "v": 2344
  },
  {
    "dt": "2023.08.21 12:00",
    "o": 145.666,
    "h": 145.788,
    "l": 145.622,
    "c": 145.762,
    "v": 2132
  },
  {
    "dt": "2023.08.21 13:00",
    "o": 145.762,
    "h": 145.956,
    "l": 145.761,
    "c": 145.92,
    "v": 1988
  },
  {
    "dt": "2023.08.21 14:00",
    "o": 145.92,
    "h": 145.933,
    "l": 145.748,
    "c": 145.826,
    "v": 1875
  },
  {
    "dt": "2023.08.21 15:00",
    "o": 145.822,
    "h": 146.159,
    "l": 145.817,
    "c": 146.082,
    "v": 2558
  },
  {
    "dt": "2023.08.21 16:00",
    "o": 146.065,
    "h": 146.185,
    "l": 146.0,
    "c": 146.127,
    "v": 2999
  },
  {
    "dt": "2023.08.21 17:00",
    "o": 146.127,
    "h": 146.308,
    "l": 146.106,
    "c": 146.28,
    "v": 2688
  },
  {
    "dt": "2023.08.21 18:00",
    "o": 146.28,
    "h": 146.39,
    "l": 146.217,
    "c": 146.254,
    "v": 2281
  },
  {
    "dt": "2023.08.21 19:00",
    "o": 146.259,
    "h": 146.273,
    "l": 146.106,
    "c": 146.176,
    "v": 1535
  },
  {
    "dt": "2023.08.21 20:00",
    "o": 146.174,
    "h": 146.208,
    "l": 146.077,
    "c": 146.155,
    "v": 1279
  },
  {
    "dt": "2023.08.21 21:00",
    "o": 146.154,
    "h": 146.166,
    "l": 146.086,
    "c": 146.097,
    "v": 1273
  },
  {
    "dt": "2023.08.21 22:00",
    "o": 146.098,
    "h": 146.271,
    "l": 146.058,
    "c": 146.22,
    "v": 1425
  },
  {
    "dt": "2023.08.21 23:00",
    "o": 146.22,
    "h": 146.239,
    "l": 146.179,
    "c": 146.218,
    "v": 669
  },
  {
    "dt": "2023.08.22 00:00",
    "o": 146.156,
    "h": 146.211,
    "l": 146.147,
    "c": 146.198,
    "v": 373
  },
  {
    "dt": "2023.08.22 01:00",
    "o": 146.203,
    "h": 146.203,
    "l": 146.129,
    "c": 146.175,
    "v": 679
  },
  {
    "dt": "2023.08.22 02:00",
    "o": 146.175,
    "h": 146.238,
    "l": 146.156,
    "c": 146.236,
    "v": 881
  },
  {
    "dt": "2023.08.22 03:00",
    "o": 146.238,
    "h": 146.389,
    "l": 146.173,
    "c": 146.201,
    "v": 1819
  },
  {
    "dt": "2023.08.22 04:00",
    "o": 146.201,
    "h": 146.218,
    "l": 146.048,
    "c": 146.107,
    "v": 1706
  },
  {
    "dt": "2023.08.22 05:00",
    "o": 146.106,
    "h": 146.107,
    "l": 145.972,
    "c": 146.059,
    "v": 1371
  },
  {
    "dt": "2023.08.22 06:00",
    "o": 146.061,
    "h": 146.086,
    "l": 145.84,
    "c": 146.003,
    "v": 1767
  },
  {
    "dt": "2023.08.22 07:00",
    "o": 146.004,
    "h": 146.063,
    "l": 145.961,
    "c": 146.0,
    "v": 1248
  },
  {
    "dt": "2023.08.22 08:00",
    "o": 145.999,
    "h": 146.071,
    "l": 145.907,
    "c": 146.071,
    "v": 1596
  },
  {
    "dt": "2023.08.22 09:00",
    "o": 146.07,
    "h": 146.096,
    "l": 145.865,
    "c": 145.897,
    "v": 2240
  },
  {
    "dt": "2023.08.22 10:00",
    "o": 145.903,
    "h": 145.921,
    "l": 145.736,
    "c": 145.757,
    "v": 2281
  },
  {
    "dt": "2023.08.22 11:00",
    "o": 145.75,
    "h": 145.753,
    "l": 145.583,
    "c": 145.609,
    "v": 2102
  },
  {
    "dt": "2023.08.22 12:00",
    "o": 145.61,
    "h": 145.723,
    "l": 145.511,
    "c": 145.551,
    "v": 2094
  },
  {
    "dt": "2023.08.22 13:00",
    "o": 145.548,
    "h": 145.711,
    "l": 145.488,
    "c": 145.685,
    "v": 2125
  },
  {
    "dt": "2023.08.22 14:00",
    "o": 145.686,
    "h": 145.843,
    "l": 145.682,
    "c": 145.766,
    "v": 1850
  },
  {
    "dt": "2023.08.22 15:00",
    "o": 145.768,
    "h": 146.003,
    "l": 145.711,
    "c": 145.947,
    "v": 2445
  },
  {
    "dt": "2023.08.22 16:00",
    "o": 145.946,
    "h": 146.122,
    "l": 145.918,
    "c": 146.058,
    "v": 3050
  },
  {
    "dt": "2023.08.22 17:00",
    "o": 146.049,
    "h": 146.059,
    "l": 145.802,
    "c": 145.856,
    "v": 2812
  },
  {
    "dt": "2023.08.22 18:00",
    "o": 145.856,
    "h": 145.882,
    "l": 145.701,
    "c": 145.782,
    "v": 2167
  },
  {
    "dt": "2023.08.22 19:00",
    "o": 145.784,
    "h": 145.857,
    "l": 145.719,
    "c": 145.831,
    "v": 1540
  },
  {
    "dt": "2023.08.22 20:00",
    "o": 145.831,
    "h": 145.833,
    "l": 145.695,
    "c": 145.78,
    "v": 1248
  },
  {
    "dt": "2023.08.22 21:00",
    "o": 145.78,
    "h": 145.871,
    "l": 145.749,
    "c": 145.846,
    "v": 1184
  },
  {
    "dt": "2023.08.22 22:00",
    "o": 145.846,
    "h": 145.897,
    "l": 145.845,
    "c": 145.874,
    "v": 1307
  },
  {
    "dt": "2023.08.22 23:00",
    "o": 145.875,
    "h": 145.921,
    "l": 145.837,
    "c": 145.871,
    "v": 569
  },
  {
    "dt": "2023.08.23 00:00",
    "o": 145.787,
    "h": 145.851,
    "l": 145.787,
    "c": 145.848,
    "v": 367
  },
  {
    "dt": "2023.08.23 01:00",
    "o": 145.846,
    "h": 145.863,
    "l": 145.766,
    "c": 145.806,
    "v": 541
  },
  {
    "dt": "2023.08.23 02:00",
    "o": 145.804,
    "h": 145.818,
    "l": 145.713,
    "c": 145.766,
    "v": 702
  },
  {
    "dt": "2023.08.23 03:00",
    "o": 145.77,
    "h": 145.804,
    "l": 145.64,
    "c": 145.649,
    "v": 1753
  },
  {
    "dt": "2023.08.23 04:00",
    "o": 145.649,
    "h": 145.691,
    "l": 145.568,
    "c": 145.591,
    "v": 2067
  },
  {
    "dt": "2023.08.23 05:00",
    "o": 145.589,
    "h": 145.696,
    "l": 145.579,
    "c": 145.67,
    "v": 1507
  },
  {
    "dt": "2023.08.23 06:00",
    "o": 145.67,
    "h": 145.705,
    "l": 145.596,
    "c": 145.641,
    "v": 1321
  },
  {
    "dt": "2023.08.23 07:00",
    "o": 145.641,
    "h": 145.73,
    "l": 145.631,
    "c": 145.631,
    "v": 1126
  },
  {
    "dt": "2023.08.23 08:00",
    "o": 145.628,
    "h": 145.702,
    "l": 145.555,
    "c": 145.662,
    "v": 1202
  },
  {
    "dt": "2023.08.23 09:00",
    "o": 145.665,
    "h": 145.687,
    "l": 145.522,
    "c": 145.677,
    "v": 2110
  },
  {
    "dt": "2023.08.23 10:00",
    "o": 145.68,
    "h": 145.748,
    "l": 145.347,
    "c": 145.389,
    "v": 3353
  },
  {
    "dt": "2023.08.23 11:00",
    "o": 145.388,
    "h": 145.421,
    "l": 145.254,
    "c": 145.354,
    "v": 2826
  },
  {
    "dt": "2023.08.23 12:00",
    "o": 145.353,
    "h": 145.467,
    "l": 145.273,
    "c": 145.42,
    "v": 2565
  },
  {
    "dt": "2023.08.23 13:00",
    "o": 145.422,
    "h": 145.532,
    "l": 145.371,
    "c": 145.433,
    "v": 1789
  },
  {
    "dt": "2023.08.23 14:00",
    "o": 145.433,
    "h": 145.444,
    "l": 145.233,
    "c": 145.424,
    "v": 1926
  },
  {
    "dt": "2023.08.23 15:00",
    "o": 145.428,
    "h": 145.584,
    "l": 145.335,
    "c": 145.469,
    "v": 2682
  },
  {
    "dt": "2023.08.23 16:00",
    "o": 145.459,
    "h": 145.488,
    "l": 144.699,
    "c": 144.746,
    "v": 3647
  },
  {
    "dt": "2023.08.23 17:00",
    "o": 144.741,
    "h": 144.985,
    "l": 144.623,
    "c": 144.75,
    "v": 3633
  },
  {
    "dt": "2023.08.23 18:00",
    "o": 144.748,
    "h": 144.803,
    "l": 144.57,
    "c": 144.617,
    "v": 2599
  },
  {
    "dt": "2023.08.23 19:00",
    "o": 144.615,
    "h": 144.711,
    "l": 144.588,
    "c": 144.615,
    "v": 1836
  },
  {
    "dt": "2023.08.23 20:00",
    "o": 144.612,
    "h": 144.757,
    "l": 144.533,
    "c": 144.754,
    "v": 1811
  },
  {
    "dt": "2023.08.23 21:00",
    "o": 144.755,
    "h": 144.876,
    "l": 144.719,
    "c": 144.777,
    "v": 1777
  },
  {
    "dt": "2023.08.23 22:00",
    "o": 144.779,
    "h": 144.898,
    "l": 144.767,
    "c": 144.862,
    "v": 2002
  },
  {
    "dt": "2023.08.23 23:00",
    "o": 144.86,
    "h": 144.907,
    "l": 144.832,
    "c": 144.844,
    "v": 1128
  },
  {
    "dt": "2023.08.24 00:00",
    "o": 144.778,
    "h": 144.812,
    "l": 144.712,
    "c": 144.783,
    "v": 356
  },
  {
    "dt": "2023.08.24 01:00",
    "o": 144.805,
    "h": 144.805,
    "l": 144.753,
    "c": 144.787,
    "v": 819
  },
  {
    "dt": "2023.08.24 02:00",
    "o": 144.787,
    "h": 144.789,
    "l": 144.587,
    "c": 144.67,
    "v": 1281
  },
  {
    "dt": "2023.08.24 03:00",
    "o": 144.67,
    "h": 144.82,
    "l": 144.607,
    "c": 144.786,
    "v": 1977
  },
  {
    "dt": "2023.08.24 04:00",
    "o": 144.776,
    "h": 145.026,
    "l": 144.776,
    "c": 144.995,
    "v": 1884
  },
  {
    "dt": "2023.08.24 05:00",
    "o": 144.996,
    "h": 145.055,
    "l": 144.932,
    "c": 144.989,
    "v": 1753
  },
  {
    "dt": "2023.08.24 06:00",
    "o": 144.986,
    "h": 145.046,
    "l": 144.922,
    "c": 145.003,
    "v": 1399
  },
  {
    "dt": "2023.08.24 07:00",
    "o": 145.004,
    "h": 145.189,
    "l": 144.975,
    "c": 145.162,
    "v": 1989
  },
  {
    "dt": "2023.08.24 08:00",
    "o": 145.156,
    "h": 145.191,
    "l": 145.127,
    "c": 145.171,
    "v": 1584
  },
  {
    "dt": "2023.08.24 09:00",
    "o": 145.17,
    "h": 145.183,
    "l": 144.93,
    "c": 145.037,
    "v": 1891
  },
  {
    "dt": "2023.08.24 10:00",
    "o": 145.033,
    "h": 145.341,
    "l": 145.033,
    "c": 145.319,
    "v": 2787
  },
  {
    "dt": "2023.08.24 11:00",
    "o": 145.317,
    "h": 145.348,
    "l": 145.182,
    "c": 145.297,
    "v": 2059
  },
  {
    "dt": "2023.08.24 12:00",
    "o": 145.295,
    "h": 145.444,
    "l": 145.267,
    "c": 145.421,
    "v": 2009
  },
  {
    "dt": "2023.08.24 13:00",
    "o": 145.415,
    "h": 145.467,
    "l": 145.38,
    "c": 145.431,
    "v": 1868
  },
  {
    "dt": "2023.08.24 14:00",
    "o": 145.427,
    "h": 145.668,
    "l": 145.397,
    "c": 145.651,
    "v": 1906
  },
  {
    "dt": "2023.08.24 15:00",
    "o": 145.651,
    "h": 145.947,
    "l": 145.634,
    "c": 145.893,
    "v": 2514
  },
  {
    "dt": "2023.08.24 16:00",
    "o": 145.882,
    "h": 145.948,
    "l": 145.684,
    "c": 145.706,
    "v": 2911
  },
  {
    "dt": "2023.08.24 17:00",
    "o": 145.705,
    "h": 145.706,
    "l": 145.421,
    "c": 145.586,
    "v": 3029
  },
  {
    "dt": "2023.08.24 18:00",
    "o": 145.585,
    "h": 145.79,
    "l": 145.53,
    "c": 145.741,
    "v": 2156
  },
  {
    "dt": "2023.08.24 19:00",
    "o": 145.751,
    "h": 145.897,
    "l": 145.744,
    "c": 145.893,
    "v": 1560
  },
  {
    "dt": "2023.08.24 20:00",
    "o": 145.892,
    "h": 145.927,
    "l": 145.748,
    "c": 145.867,
    "v": 1434
  },
  {
    "dt": "2023.08.24 21:00",
    "o": 145.866,
    "h": 145.87,
    "l": 145.785,
    "c": 145.851,
    "v": 1368
  },
  {
    "dt": "2023.08.24 22:00",
    "o": 145.85,
    "h": 145.861,
    "l": 145.8,
    "c": 145.841,
    "v": 1210
  },
  {
    "dt": "2023.08.24 23:00",
    "o": 145.841,
    "h": 145.856,
    "l": 145.796,
    "c": 145.838,
    "v": 643
  },
  {
    "dt": "2023.08.25 00:00",
    "o": 145.796,
    "h": 145.846,
    "l": 145.758,
    "c": 145.802,
    "v": 445
  },
  {
    "dt": "2023.08.25 01:00",
    "o": 145.804,
    "h": 145.946,
    "l": 145.787,
    "c": 145.939,
    "v": 1170
  },
  {
    "dt": "2023.08.25 02:00",
    "o": 145.942,
    "h": 146.068,
    "l": 145.941,
    "c": 146.039,
    "v": 973
  },
  {
    "dt": "2023.08.25 03:00",
    "o": 146.037,
    "h": 146.095,
    "l": 145.905,
    "c": 146.033,
    "v": 1710
  },
  {
    "dt": "2023.08.25 04:00",
    "o": 146.031,
    "h": 146.201,
    "l": 146.021,
    "c": 146.146,
    "v": 1726
  },
  {
    "dt": "2023.08.25 05:00",
    "o": 146.152,
    "h": 146.17,
    "l": 145.972,
    "c": 145.999,
    "v": 1490
  },
  {
    "dt": "2023.08.25 06:00",
    "o": 145.998,
    "h": 146.086,
    "l": 145.902,
    "c": 146.083,
    "v": 1277
  },
  {
    "dt": "2023.08.25 07:00",
    "o": 146.085,
    "h": 146.169,
    "l": 146.037,
    "c": 146.04,
    "v": 1478
  },
  {
    "dt": "2023.08.25 08:00",
    "o": 146.038,
    "h": 146.132,
    "l": 145.991,
    "c": 146.081,
    "v": 1261
  },
  {
    "dt": "2023.08.25 09:00",
    "o": 146.057,
    "h": 146.248,
    "l": 146.023,
    "c": 146.079,
    "v": 1995
  },
  {
    "dt": "2023.08.25 10:00",
    "o": 146.078,
    "h": 146.092,
    "l": 145.897,
    "c": 146.047,
    "v": 2488
  },
  {
    "dt": "2023.08.25 11:00",
    "o": 146.048,
    "h": 146.068,
    "l": 145.975,
    "c": 146.014,
    "v": 1947
  },
  {
    "dt": "2023.08.25 12:00",
    "o": 146.02,
    "h": 146.067,
    "l": 146.005,
    "c": 146.043,
    "v": 1531
  },
  {
    "dt": "2023.08.25 13:00",
    "o": 146.044,
    "h": 146.142,
    "l": 145.918,
    "c": 145.921,
    "v": 1574
  },
  {
    "dt": "2023.08.25 14:00",
    "o": 145.921,
    "h": 146.016,
    "l": 145.917,
    "c": 145.986,
    "v": 1661
  },
  {
    "dt": "2023.08.25 15:00",
    "o": 145.985,
    "h": 145.997,
    "l": 145.86,
    "c": 145.938,
    "v": 1951
  },
  {
    "dt": "2023.08.25 16:00",
    "o": 145.938,
    "h": 146.194,
    "l": 145.905,
    "c": 146.093,
    "v": 2020
  },
  {
    "dt": "2023.08.25 17:00",
    "o": 146.048,
    "h": 146.599,
    "l": 145.71,
    "c": 146.557,
    "v": 4611
  },
  {
    "dt": "2023.08.25 18:00",
    "o": 146.549,
    "h": 146.584,
    "l": 146.204,
    "c": 146.37,
    "v": 3310
  },
  {
    "dt": "2023.08.25 19:00",
    "o": 146.368,
    "h": 146.383,
    "l": 146.234,
    "c": 146.344,
    "v": 1885
  },
  {
    "dt": "2023.08.25 20:00",
    "o": 146.342,
    "h": 146.356,
    "l": 146.217,
    "c": 146.288,
    "v": 1564
  },
  {
    "dt": "2023.08.25 21:00",
    "o": 146.289,
    "h": 146.336,
    "l": 146.194,
    "c": 146.324,
    "v": 1527
  },
  {
    "dt": "2023.08.25 22:00",
    "o": 146.326,
    "h": 146.389,
    "l": 146.299,
    "c": 146.366,
    "v": 1406
  },
  {
    "dt": "2023.08.25 23:00",
    "o": 146.365,
    "h": 146.462,
    "l": 146.347,
    "c": 146.415,
    "v": 751
  },
  {
    "dt": "2023.08.28 00:00",
    "o": 146.391,
    "h": 146.43,
    "l": 146.369,
    "c": 146.399,
    "v": 174
  },
  {
    "dt": "2023.08.28 01:00",
    "o": 146.403,
    "h": 146.548,
    "l": 146.388,
    "c": 146.534,
    "v": 698
  },
  {
    "dt": "2023.08.28 02:00",
    "o": 146.528,
    "h": 146.605,
    "l": 146.498,
    "c": 146.536,
    "v": 1198
  },
  {
    "dt": "2023.08.28 03:00",
    "o": 146.534,
    "h": 146.576,
    "l": 146.44,
    "c": 146.502,
    "v": 1710
  },
  {
    "dt": "2023.08.28 04:00",
    "o": 146.507,
    "h": 146.544,
    "l": 146.388,
    "c": 146.503,
    "v": 1838
  },
  {
    "dt": "2023.08.28 05:00",
    "o": 146.503,
    "h": 146.539,
    "l": 146.448,
    "c": 146.501,
    "v": 1162
  },
  {
    "dt": "2023.08.28 06:00",
    "o": 146.502,
    "h": 146.513,
    "l": 146.443,
    "c": 146.459,
    "v": 908
  },
  {
    "dt": "2023.08.28 07:00",
    "o": 146.458,
    "h": 146.492,
    "l": 146.443,
    "c": 146.455,
    "v": 1173
  },
  {
    "dt": "2023.08.28 08:00",
    "o": 146.458,
    "h": 146.47,
    "l": 146.281,
    "c": 146.38,
    "v": 1519
  },
  {
    "dt": "2023.08.28 09:00",
    "o": 146.387,
    "h": 146.395,
    "l": 146.265,
    "c": 146.332,
    "v": 1595
  },
  {
    "dt": "2023.08.28 10:00",
    "o": 146.332,
    "h": 146.537,
    "l": 146.302,
    "c": 146.536,
    "v": 1857
  },
  {
    "dt": "2023.08.28 11:00",
    "o": 146.538,
    "h": 146.59,
    "l": 146.479,
    "c": 146.529,
    "v": 1761
  },
  {
    "dt": "2023.08.28 12:00",
    "o": 146.528,
    "h": 146.589,
    "l": 146.502,
    "c": 146.541,
    "v": 1423
  },
  {
    "dt": "2023.08.28 13:00",
    "o": 146.542,
    "h": 146.581,
    "l": 146.47,
    "c": 146.528,
    "v": 1563
  },
  {
    "dt": "2023.08.28 14:00",
    "o": 146.531,
    "h": 146.555,
    "l": 146.481,
    "c": 146.535,
    "v": 1338
  },
  {
    "dt": "2023.08.28 15:00",
    "o": 146.532,
    "h": 146.573,
    "l": 146.396,
    "c": 146.42,
    "v": 2187
  },
  {
    "dt": "2023.08.28 16:00",
    "o": 146.42,
    "h": 146.662,
    "l": 146.395,
    "c": 146.539,
    "v": 2239
  },
  {
    "dt": "2023.08.28 17:00",
    "o": 146.539,
    "h": 146.671,
    "l": 146.531,
    "c": 146.653,
    "v": 2369
  },
  {
    "dt": "2023.08.28 18:00",
    "o": 146.651,
    "h": 146.733,
    "l": 146.352,
    "c": 146.395,
    "v": 2495
  },
  {
    "dt": "2023.08.28 19:00",
    "o": 146.394,
    "h": 146.497,
    "l": 146.363,
    "c": 146.484,
    "v": 1348
  },
  {
    "dt": "2023.08.28 20:00",
    "o": 146.483,
    "h": 146.57,
    "l": 146.451,
    "c": 146.465,
    "v": 1700
  },
  {
    "dt": "2023.08.28 21:00",
    "o": 146.462,
    "h": 146.548,
    "l": 146.416,
    "c": 146.512,
    "v": 1425
  },
  {
    "dt": "2023.08.28 22:00",
    "o": 146.503,
    "h": 146.512,
    "l": 146.447,
    "c": 146.502,
    "v": 1274
  },
  {
    "dt": "2023.08.28 23:00",
    "o": 146.493,
    "h": 146.536,
    "l": 146.485,
    "c": 146.536,
    "v": 655
  },
  {
    "dt": "2023.08.29 00:00",
    "o": 146.522,
    "h": 146.538,
    "l": 146.49,
    "c": 146.513,
    "v": 565
  },
  {
    "dt": "2023.08.29 01:00",
    "o": 146.521,
    "h": 146.523,
    "l": 146.412,
    "c": 146.417,
    "v": 754
  },
  {
    "dt": "2023.08.29 02:00",
    "o": 146.412,
    "h": 146.464,
    "l": 146.368,
    "c": 146.452,
    "v": 844
  },
  {
    "dt": "2023.08.29 03:00",
    "o": 146.442,
    "h": 146.485,
    "l": 146.299,
    "c": 146.447,
    "v": 1666
  },
  {
    "dt": "2023.08.29 04:00",
    "o": 146.448,
    "h": 146.448,
    "l": 146.302,
    "c": 146.343,
    "v": 1749
  },
  {
    "dt": "2023.08.29 05:00",
    "o": 146.342,
    "h": 146.403,
    "l": 146.33,
    "c": 146.359,
    "v": 1289
  },
  {
    "dt": "2023.08.29 06:00",
    "o": 146.355,
    "h": 146.414,
    "l": 146.328,
    "c": 146.395,
    "v": 1115
  },
  {
    "dt": "2023.08.29 07:00",
    "o": 146.395,
    "h": 146.483,
    "l": 146.394,
    "c": 146.477,
    "v": 1130
  },
  {
    "dt": "2023.08.29 08:00",
    "o": 146.478,
    "h": 146.551,
    "l": 146.374,
    "c": 146.395,
    "v": 1175
  },
  {
    "dt": "2023.08.29 09:00",
    "o": 146.397,
    "h": 146.441,
    "l": 146.329,
    "c": 146.402,
    "v": 2164
  },
  {
    "dt": "2023.08.29 10:00",
    "o": 146.405,
    "h": 146.461,
    "l": 146.346,
    "c": 146.447,
    "v": 2447
  },
  {
    "dt": "2023.08.29 11:00",
    "o": 146.445,
    "h": 146.515,
    "l": 146.393,
    "c": 146.5,
    "v": 2224
  },
  {
    "dt": "2023.08.29 12:00",
    "o": 146.503,
    "h": 146.566,
    "l": 146.486,
    "c": 146.535,
    "v": 1705
  },
  {
    "dt": "2023.08.29 13:00",
    "o": 146.534,
    "h": 146.781,
    "l": 146.504,
    "c": 146.774,
    "v": 1974
  },
  {
    "dt": "2023.08.29 14:00",
    "o": 146.774,
    "h": 147.15,
    "l": 146.773,
    "c": 147.13,
    "v": 2522
  },
  {
    "dt": "2023.08.29 15:00",
    "o": 147.134,
    "h": 147.357,
    "l": 147.102,
    "c": 147.228,
    "v": 2654
  },
  {
    "dt": "2023.08.29 16:00",
    "o": 147.227,
    "h": 147.254,
    "l": 147.082,
    "c": 147.113,
    "v": 2950
  },
  {
    "dt": "2023.08.29 17:00",
    "o": 146.795,
    "h": 146.902,
    "l": 146.18,
    "c": 146.322,
    "v": 4457
  },
  {
    "dt": "2023.08.29 18:00",
    "o": 146.318,
    "h": 146.354,
    "l": 145.845,
    "c": 146.0,
    "v": 3281
  },
  {
    "dt": "2023.08.29 19:00",
    "o": 146.0,
    "h": 146.092,
    "l": 145.899,
    "c": 145.907,
    "v": 2349
  },
  {
    "dt": "2023.08.29 20:00",
    "o": 145.911,
    "h": 145.911,
    "l": 145.762,
    "c": 145.786,
    "v": 2286
  },
  {
    "dt": "2023.08.29 21:00",
    "o": 145.788,
    "h": 145.985,
    "l": 145.784,
    "c": 145.836,
    "v": 1476
  },
  {
    "dt": "2023.08.29 22:00",
    "o": 145.836,
    "h": 145.867,
    "l": 145.658,
    "c": 145.805,
    "v": 1977
  },
  {
    "dt": "2023.08.29 23:00",
    "o": 145.807,
    "h": 145.872,
    "l": 145.748,
    "c": 145.866,
    "v": 1099
  },
  {
    "dt": "2023.08.30 00:00",
    "o": 145.877,
    "h": 145.911,
    "l": 145.807,
    "c": 145.897,
    "v": 582
  },
  {
    "dt": "2023.08.30 01:00",
    "o": 145.898,
    "h": 145.906,
    "l": 145.789,
    "c": 145.79,
    "v": 1013
  },
  {
    "dt": "2023.08.30 02:00",
    "o": 145.789,
    "h": 145.991,
    "l": 145.768,
    "c": 145.97,
    "v": 1173
  },
  {
    "dt": "2023.08.30 03:00",
    "o": 145.97,
    "h": 146.093,
    "l": 145.844,
    "c": 145.901,
    "v": 2096
  },
  {
    "dt": "2023.08.30 04:00",
    "o": 145.897,
    "h": 146.175,
    "l": 145.855,
    "c": 146.146,
    "v": 1927
  },
  {
    "dt": "2023.08.30 05:00",
    "o": 146.14,
    "h": 146.227,
    "l": 146.075,
    "c": 146.225,
    "v": 1812
  },
  {
    "dt": "2023.08.30 06:00",
    "o": 146.224,
    "h": 146.245,
    "l": 146.139,
    "c": 146.152,
    "v": 1497
  },
  {
    "dt": "2023.08.30 07:00",
    "o": 146.15,
    "h": 146.235,
    "l": 146.125,
    "c": 146.212,
    "v": 1499
  },
  {
    "dt": "2023.08.30 08:00",
    "o": 146.213,
    "h": 146.246,
    "l": 146.138,
    "c": 146.234,
    "v": 1926
  },
  {
    "dt": "2023.08.30 09:00",
    "o": 146.232,
    "h": 146.344,
    "l": 146.148,
    "c": 146.322,
    "v": 2251
  },
  {
    "dt": "2023.08.30 10:00",
    "o": 146.323,
    "h": 146.498,
    "l": 146.307,
    "c": 146.384,
    "v": 2733
  },
  {
    "dt": "2023.08.30 11:00",
    "o": 146.369,
    "h": 146.526,
    "l": 146.339,
    "c": 146.43,
    "v": 2787
  },
  {
    "dt": "2023.08.30 12:00",
    "o": 146.432,
    "h": 146.47,
    "l": 146.245,
    "c": 146.325,
    "v": 2616
  },
  {
    "dt": "2023.08.30 13:00",
    "o": 146.321,
    "h": 146.406,
    "l": 146.297,
    "c": 146.318,
    "v": 1871
  },
  {
    "dt": "2023.08.30 14:00",
    "o": 146.317,
    "h": 146.426,
    "l": 146.306,
    "c": 146.333,
    "v": 2084
  },
  {
    "dt": "2023.08.30 15:00",
    "o": 146.333,
    "h": 146.358,
    "l": 145.811,
    "c": 145.862,
    "v": 3725
  },
  {
    "dt": "2023.08.30 16:00",
    "o": 145.862,
    "h": 145.936,
    "l": 145.548,
    "c": 145.61,
    "v": 3468
  },
  {
    "dt": "2023.08.30 17:00",
    "o": 145.612,
    "h": 145.933,
    "l": 145.579,
    "c": 145.831,
    "v": 3473
  },
  {
    "dt": "2023.08.30 18:00",
    "o": 145.831,
    "h": 145.963,
    "l": 145.745,
    "c": 145.934,
    "v": 2441
  },
  {
    "dt": "2023.08.30 19:00",
    "o": 145.936,
    "h": 146.136,
    "l": 145.927,
    "c": 146.085,
    "v": 2152
  },
  {
    "dt": "2023.08.30 20:00",
    "o": 146.084,
    "h": 146.188,
    "l": 145.969,
    "c": 146.182,
    "v": 1600
  },
  {
    "dt": "2023.08.30 21:00",
    "o": 146.183,
    "h": 146.24,
    "l": 146.126,
    "c": 146.17,
    "v": 1648
  },
  {
    "dt": "2023.08.30 22:00",
    "o": 146.175,
    "h": 146.282,
    "l": 146.159,
    "c": 146.26,
    "v": 1535
  },
  {
    "dt": "2023.08.30 23:00",
    "o": 146.262,
    "h": 146.27,
    "l": 146.192,
    "c": 146.249,
    "v": 786
  },
  {
    "dt": "2023.08.31 00:00",
    "o": 146.148,
    "h": 146.177,
    "l": 146.1,
    "c": 146.167,
    "v": 682
  },
  {
    "dt": "2023.08.31 01:00",
    "o": 146.148,
    "h": 146.16,
    "l": 146.051,
    "c": 146.102,
    "v": 762
  },
  {
    "dt": "2023.08.31 02:00",
    "o": 146.101,
    "h": 146.113,
    "l": 145.942,
    "c": 146.08,
    "v": 914
  },
  {
    "dt": "2023.08.31 03:00",
    "o": 146.071,
    "h": 146.116,
    "l": 145.963,
    "c": 146.06,
    "v": 1632
  },
  {
    "dt": "2023.08.31 04:00",
    "o": 146.059,
    "h": 146.064,
    "l": 145.776,
    "c": 145.844,
    "v": 1922
  },
  {
    "dt": "2023.08.31 05:00",
    "o": 145.845,
    "h": 145.918,
    "l": 145.744,
    "c": 145.78,
    "v": 1415
  },
  {
    "dt": "2023.08.31 06:00",
    "o": 145.783,
    "h": 145.937,
    "l": 145.779,
    "c": 145.937,
    "v": 1237
  },
  {
    "dt": "2023.08.31 07:00",
    "o": 145.938,
    "h": 146.021,
    "l": 145.858,
    "c": 145.875,
    "v": 1195
  },
  {
    "dt": "2023.08.31 08:00",
    "o": 145.876,
    "h": 146.035,
    "l": 145.875,
    "c": 145.905,
    "v": 1505
  },
  {
    "dt": "2023.08.31 09:00",
    "o": 145.905,
    "h": 146.036,
    "l": 145.882,
    "c": 146.036,
    "v": 2005
  },
  {
    "dt": "2023.08.31 10:00",
    "o": 146.04,
    "h": 146.042,
    "l": 145.709,
    "c": 145.905,
    "v": 2784
  },
  {
    "dt": "2023.08.31 11:00",
    "o": 145.904,
    "h": 145.945,
    "l": 145.742,
    "c": 145.938,
    "v": 2496
  },
  {
    "dt": "2023.08.31 12:00",
    "o": 145.944,
    "h": 145.944,
    "l": 145.814,
    "c": 145.888,
    "v": 2762
  },
  {
    "dt": "2023.08.31 13:00",
    "o": 145.881,
    "h": 145.962,
    "l": 145.844,
    "c": 145.915,
    "v": 1964
  },
  {
    "dt": "2023.08.31 14:00",
    "o": 145.91,
    "h": 145.926,
    "l": 145.795,
    "c": 145.807,
    "v": 2402
  },
  {
    "dt": "2023.08.31 15:00",
    "o": 145.803,
    "h": 146.056,
    "l": 145.61,
    "c": 145.856,
    "v": 3343
  },
  {
    "dt": "2023.08.31 16:00",
    "o": 145.858,
    "h": 146.214,
    "l": 145.773,
    "c": 146.133,
    "v": 3523
  },
  {
    "dt": "2023.08.31 17:00",
    "o": 146.136,
    "h": 146.155,
    "l": 145.529,
    "c": 145.587,
    "v": 3473
  },
  {
    "dt": "2023.08.31 18:00",
    "o": 145.581,
    "h": 145.729,
    "l": 145.463,
    "c": 145.673,
    "v": 2874
  },
  {
    "dt": "2023.08.31 19:00",
    "o": 145.672,
    "h": 145.678,
    "l": 145.423,
    "c": 145.488,
    "v": 1927
  },
  {
    "dt": "2023.08.31 20:00",
    "o": 145.489,
    "h": 145.53,
    "l": 145.414,
    "c": 145.436,
    "v": 1454
  },
  {
    "dt": "2023.08.31 21:00",
    "o": 145.435,
    "h": 145.437,
    "l": 145.341,
    "c": 145.416,
    "v": 1459
  },
  {
    "dt": "2023.08.31 22:00",
    "o": 145.422,
    "h": 145.497,
    "l": 145.356,
    "c": 145.446,
    "v": 1589
  },
  {
    "dt": "2023.08.31 23:00",
    "o": 145.449,
    "h": 145.54,
    "l": 145.449,
    "c": 145.524,
    "v": 755
  }
]