[
  {
    "dt": "2023.10.02 00:00",
    "o": 149.571,
    "h": 149.584,
    "l": 149.476,
    "c": 149.48,
    "v": 850
  },
  {
    "dt": "2023.10.02 01:00",
    "o": 149.501,
    "h": 149.584,
    "l": 149.387,
    "c": 149.58,
    "v": 1529
  },
  {
    "dt": "2023.10.02 02:00",
    "o": 149.58,
    "h": 149.623,
    "l": 149.479,
    "c": 149.519,
    "v": 1647
  },
  {
    "dt": "2023.10.02 03:00",
    "o": 149.521,
    "h": 149.712,
    "l": 149.446,
    "c": 149.67,
    "v": 2255
  },
  {
    "dt": "2023.10.02 04:00",
    "o": 149.674,
    "h": 149.728,
    "l": 149.613,
    "c": 149.705,
    "v": 1670
  },
  {
    "dt": "2023.10.02 05:00",
    "o": 149.705,
    "h": 149.784,
    "l": 149.678,
    "c": 149.769,
    "v": 1102
  },
  {
    "dt": "2023.10.02 06:00",
    "o": 149.771,
    "h": 149.79,
    "l": 149.706,
    "c": 149.769,
    "v": 1077
  },
  {
    "dt": "2023.10.02 07:00",
    "o": 149.771,
    "h": 149.807,
    "l": 149.708,
    "c": 149.719,
    "v": 1121
  },
  {
    "dt": "2023.10.02 08:00",
    "o": 149.721,
    "h": 149.75,
    "l": 149.609,
    "c": 149.656,
    "v": 1345
  },
  {
    "dt": "2023.10.02 09:00",
    "o": 149.659,
    "h": 149.728,
    "l": 149.611,
    "c": 149.62,
    "v": 1843
  },
  {
    "dt": "2023.10.02 10:00",
    "o": 149.621,
    "h": 149.745,
    "l": 149.546,
    "c": 149.74,
    "v": 2670
  },
  {
    "dt": "2023.10.02 11:00",
    "o": 149.741,
    "h": 149.779,
    "l": 149.649,
    "c": 149.717,
    "v": 2460
  },
  {
    "dt": "2023.10.02 12:00",
    "o": 149.718,
    "h": 149.728,
    "l": 149.641,
    "c": 149.723,
    "v": 1915
  },
  {
    "dt": "2023.10.02 13:00",
    "o": 149.722,
    "h": 149.758,
    "l": 149.624,
    "c": 149.722,
    "v": 2048
  },
  {
    "dt": "2023.10.02 14:00",
    "o": 149.72,
    "h": 149.742,
    "l": 149.686,
    "c": 149.73,
    "v": 1734
  },
  {
    "dt": "2023.10.02 15:00",
    "o": 149.721,
    "h": 149.807,
    "l": 149.688,
    "c": 149.794,
    "v": 2644
  },
  {
    "dt": "2023.10.02 16:00",
    "o": 149.793,
    "h": 149.848,
    "l": 149.756,
    "c": 149.821,
    "v": 2659
  },
  {
    "dt": "2023.10.02 17:00",
    "o": 149.811,
    "h": 149.869,
    "l": 149.673,
    "c": 149.834,
    "v": 4275
  },
  {
    "dt": "2023.10.02 18:00",
    "o": 149.829,
    "h": 149.856,
    "l": 149.753,
    "c": 149.797,
    "v": 2833
  },
  {
    "dt": "2023.10.02 19:00",
    "o": 149.797,
    "h": 149.836,
    "l": 149.764,
    "c": 149.812,
    "v": 2029
  },
  {
    "dt": "2023.10.02 20:00",
    "o": 149.81,
    "h": 149.811,
    "l": 149.734,
    "c": 149.764,
    "v": 1863
  },
  {
    "dt": "2023.10.02 21:00",
    "o": 149.765,
    "h": 149.802,
    "l": 149.701,
    "c": 149.741,
    "v": 1718
  },
  {
    "dt": "2023.10.02 22:00",
    "o": 149.741,
    "h": 149.798,
    "l": 149.711,
    "c": 149.787,
    "v": 1572
  },
  {
    "dt": "2023.10.02 23:00",
    "o": 149.796,
    "h": 149.864,
    "l": 149.796,
    "c": 149.858,
    "v": 1006
  },
  {
    "dt": "2023.10.03 00:00",
    "o": 149.833,
    "h": 149.846,
    "l": 149.745,
    "c": 149.818,
    "v": 244
  },
  {
    "dt": "2023.10.03 01:00",
    "o": 149.829,
    "h": 149.84,
    "l": 149.791,
    "c": 149.837,
    "v": 522
  },
  {
    "dt": "2023.10.03 02:00",
    "o": 149.836,
    "h": 149.864,
    "l": 149.822,
    "c": 149.856,
    "v": 1073
  },
  {
    "dt": "2023.10.03 03:00",
    "o": 149.855,
    "h": 149.873,
    "l": 149.777,
    "c": 149.87,
    "v": 2239
  },
  {
    "dt": "2023.10.03 04:00",
    "o": 149.869,
    "h": 149.879,
    "l": 149.818,
    "c": 149.845,
    "v": 1683
  },
  {
    "dt": "2023.10.03 05:00",
    "o": 149.846,
    "h": 149.88,
    "l": 149.814,
    "c": 149.839,
    "v": 1551
  },
  {
    "dt": "2023.10.03 06:00",
    "o": 149.839,
    "h": 149.87,
    "l": 149.819,
    "c": 149.856,
    "v": 1376
  },
  {
    "dt": "2023.10.03 07:00",
    "o": 149.855,
    "h": 149.883,
    "l": 149.83,
    "c": 149.869,
    "v": 1092
  },
  {
    "dt": "2023.10.03 08:00",
    "o": 149.869,
    "h": 149.924,
    "l": 149.845,
    "c": 149.906,
    "v": 1481
  },
  {
    "dt": "2023.10.03 09:00",
    "o": 149.907,
    "h": 149.916,
    "l": 149.705,
    "c": 149.731,
    "v": 2369
  },
  {
    "dt": "2023.10.03 10:00",
    "o": 149.726,
    "h": 149.785,
    "l": 149.644,
    "c": 149.785,
    "v": 2698
  },
  {
    "dt": "2023.10.03 11:00",
    "o": 149.771,
    "h": 149.836,
    "l": 149.729,
    "c": 149.809,
    "v": 2084
  },
  {
    "dt": "2023.10.03 12:00",
    "o": 149.81,
    "h": 149.867,
    "l": 149.81,
    "c": 149.847,
    "v": 1290
  },
  {
    "dt": "2023.10.03 13:00",
    "o": 149.849,
    "h": 149.904,
    "l": 149.829,
    "c": 149.872,
    "v": 1954
  },
  {
    "dt": "2023.10.03 14:00",
    "o": 149.871,
    "h": 149.965,
    "l": 149.866,
    "c": 149.965,
    "v": 2181
  },
  {
    "dt": "2023.10.03 15:00",
    "o": 149.965,
    "h": 149.969,
    "l": 149.877,
    "c": 149.908,
    "v": 2667
  },
  {
    "dt": "2023.10.03 16:00",
    "o": 149.905,
    "h": 149.953,
    "l": 149.836,
    "c": 149.879,
    "v": 3152
  },
  {
    "dt": "2023.10.03 17:00",
    "o": 149.88,
    "h": 150.149,
    "l": 147.271,
    "c": 149.038,
    "v": 7038
  },
  {
    "dt": "2023.10.03 18:00",
    "o": 149.042,
    "h": 149.324,
    "l": 149.033,
    "c": 149.158,
    "v": 4269
  },
  {
    "dt": "2023.10.03 19:00",
    "o": 149.157,
    "h": 149.187,
    "l": 148.95,
    "c": 149.091,
    "v": 3449
  },
  {
    "dt": "2023.10.03 20:00",
    "o": 149.089,
    "h": 149.094,
    "l": 148.932,
    "c": 149.003,
    "v": 2378
  },
  {
    "dt": "2023.10.03 21:00",
    "o": 149.004,
    "h": 149.057,
    "l": 148.849,
    "c": 148.853,
    "v": 2402
  },
  {
    "dt": "2023.10.03 22:00",
    "o": 148.854,
    "h": 148.991,
    "l": 148.701,
    "c": 148.756,
    "v": 2826
  },
  {
    "dt": "2023.10.03 23:00",
    "o": 148.756,
    "h": 149.078,
    "l": 148.728,
    "c": 149.031,
    "v": 2055
  },
  {
    "dt": "2023.10.04 00:00",
    "o": 148.974,
    "h": 149.061,
    "l": 148.936,
    "c": 149.038,
    "v": 822
  },
  {
    "dt": "2023.10.04 01:00",
    "o": 149.032,
    "h": 149.103,
    "l": 148.954,
    "c": 149.052,
    "v": 1540
  },
  {
    "dt": "2023.10.04 02:00",
    "o": 149.127,
    "h": 149.198,
    "l": 149.062,
    "c": 149.169,
    "v": 1790
  },
  {
    "dt": "2023.10.04 03:00",
    "o": 149.164,
    "h": 149.228,
    "l": 149.072,
    "c": 149.182,
    "v": 2844
  },
  {
    "dt": "2023.10.04 04:00",
    "o": 149.181,
    "h": 149.238,
    "l": 149.138,
    "c": 149.225,
    "v": 2789
  },
  {
    "dt": "2023.10.04 05:00",
    "o": 149.228,
    "h": 149.309,
    "l": 149.181,
    "c": 149.291,
    "v": 1760
  },
  {
    "dt": "2023.10.04 06:00",
    "o": 149.291,
    "h": 149.304,
    "l": 149.238,
    "c": 149.271,
    "v": 2124
  },
  {
    "dt": "2023.10.04 07:00",
    "o": 149.27,
    "h": 149.273,
    "l": 149.155,
    "c": 149.156,
    "v": 1523
  },
  {
    "dt": "2023.10.04 08:00",
    "o": 149.157,
    "h": 149.228,
    "l": 149.137,
    "c": 149.224,
    "v": 1497
  },
  {
    "dt": "2023.10.04 09:00",
    "o": 149.227,
    "h": 149.261,
    "l": 149.14,
    "c": 149.185,
    "v": 2622
  },
  {
    "dt": "2023.10.04 10:00",
    "o": 149.175,
    "h": 149.232,
    "l": 148.725,
    "c": 148.838,
    "v": 3971
  },
  {
    "dt": "2023.10.04 11:00",
    "o": 148.837,
    "h": 149.074,
    "l": 148.833,
    "c": 148.977,
    "v": 2848
  },
  {
    "dt": "2023.10.04 12:00",
    "o": 148.975,
    "h": 149.155,
    "l": 148.963,
    "c": 149.128,
    "v": 2967
  },
  {
    "dt": "2023.10.04 13:00",
    "o": 149.127,
    "h": 149.189,
    "l": 149.008,
    "c": 149.019,
    "v": 2187
  },
  {
    "dt": "2023.10.04 14:00",
    "o": 149.017,
    "h": 149.028,
    "l": 148.831,
    "c": 148.994,
    "v": 3067
  },
  {
    "dt": "2023.10.04 15:00",
    "o": 148.993,
    "h": 149.072,
    "l": 148.777,
    "c": 148.871,
    "v": 4643
  },
  {
    "dt": "2023.10.04 16:00",
    "o": 148.867,
    "h": 148.98,
    "l": 148.831,
    "c": 148.928,
    "v": 3784
  },
  {
    "dt": "2023.10.04 17:00",
    "o": 148.917,
    "h": 149.123,
    "l": 148.867,
    "c": 148.956,
    "v": 4856
  },
  {
    "dt": "2023.10.04 18:00",
    "o": 148.958,
    "h": 148.984,
    "l": 148.754,
    "c": 148.823,
    "v": 3637
  },
  {
    "dt": "2023.10.04 19:00",
    "o": 148.822,
    "h": 148.895,
    "l": 148.808,
    "c": 148.873,
    "v": 2683
  },
  {
    "dt": "2023.10.04 20:00",
    "o": 148.875,
    "h": 149.067,
    "l": 148.872,
    "c": 149.058,
    "v": 2657
  },
  {
    "dt": "2023.10.04 21:00",
    "o": 149.06,
    "h": 149.123,
    "l": 149.023,
    "c": 149.027,
    "v": 2535
  },
  {
    "dt": "2023.10.04 22:00",
    "o": 149.025,
    "h": 149.112,
    "l": 148.986,
    "c": 149.043,
    "v": 2593
  },
  {
    "dt": "2023.10.04 23:00",
    "o": 149.037,
    "h": 149.12,
    "l": 149.026,
    "c": 149.116,
    "v": 1587
  },
  {
    "dt": "2023.10.05 00:00",
    "o": 149.02,
    "h": 149.054,
    "l": 148.976,
    "c": 149.003,
    "v": 646
  },
  {
    "dt": "2023.10.05 01:00",
    "o": 149.005,
    "h": 149.032,
    "l": 148.93,
    "c": 148.988,
    "v": 857
  },
  {
    "dt": "2023.10.05 02:00",
    "o": 148.985,
    "h": 148.989,
    "l": 148.91,
    "c": 148.973,
    "v": 1135
  },
  {
    "dt": "2023.10.05 03:00",
    "o": 148.972,
    "h": 149.002,
    "l": 148.48,
    "c": 148.536,
    "v": 2707
  },
  {
    "dt": "2023.10.05 04:00",
    "o": 148.537,
    "h": 148.589,
    "l": 148.25,
    "c": 148.297,
    "v": 3403
  },
  {
    "dt": "2023.10.05 05:00",
    "o": 148.295,
    "h": 148.516,
    "l": 148.28,
    "c": 148.456,
    "v": 1956
  },
  {
    "dt": "2023.10.05 06:00",
    "o": 148.46,
    "h": 148.582,
    "l": 148.406,
    "c": 148.509,
    "v": 1966
  },
  {
    "dt": "2023.10.05 07:00",
    "o": 148.508,
    "h": 148.543,
    "l": 148.434,
    "c": 148.541,
    "v": 1423
  },
  {
    "dt": "2023.10.05 08:00",
    "o": 148.545,
    "h": 148.593,
    "l": 148.499,
    "c": 148.583,
    "v": 1386
  },
  {
    "dt": "2023.10.05 09:00",
    "o": 148.58,
    "h": 148.824,
    "l": 148.562,
    "c": 148.823,
    "v": 1721
  },
  {
    "dt": "2023.10.05 10:00",
    "o": 148.822,
    "h": 149.086,
    "l": 148.761,
    "c": 149.047,
    "v": 3344
  },
  {
    "dt": "2023.10.05 11:00",
    "o": 149.045,
    "h": 149.08,
    "l": 148.912,
    "c": 148.995,
    "v": 2592
  },
  {
    "dt": "2023.10.05 12:00",
    "o": 149.0,
    "h": 149.019,
    "l": 148.822,
    "c": 148.954,
    "v": 2502
  },
  {
    "dt": "2023.10.05 13:00",
    "o": 148.953,
    "h": 148.998,
    "l": 148.796,
    "c": 148.833,
    "v": 2342
  },
  {
    "dt": "2023.10.05 14:00",
    "o": 148.833,
    "h": 148.927,
    "l": 148.806,
    "c": 148.813,
    "v": 2401
  },
  {
    "dt": "2023.10.05 15:00",
    "o": 148.811,
    "h": 149.108,
    "l": 148.807,
    "c": 148.917,
    "v": 4257
  },
  {
    "dt": "2023.10.05 16:00",
    "o": 148.919,
    "h": 148.957,
    "l": 148.53,
    "c": 148.59,
    "v": 4378
  },
  {
    "dt": "2023.10.05 17:00",
    "o": 148.593,
    "h": 148.774,
    "l": 148.541,
    "c": 148.601,
    "v": 4302
  },
  {
    "dt": "2023.10.05 18:00",
    "o": 148.593,
    "h": 148.684,
    "l": 148.425,
    "c": 148.481,
    "v": 3679
  },
  {
    "dt": "2023.10.05 19:00",
    "o": 148.481,
    "h": 148.518,
    "l": 148.367,
    "c": 148.396,
    "v": 2998
  },
  {
    "dt": "2023.10.05 20:00",
    "o": 148.396,
    "h": 148.438,
    "l": 148.296,
    "c": 148.422,
    "v": 2512
  },
  {
    "dt": "2023.10.05 21:00",
    "o": 148.42,
    "h": 148.42,
    "l": 148.318,
    "c": 148.383,
    "v": 1890
  },
  {
    "dt": "2023.10.05 22:00",
    "o": 148.382,
    "h": 148.447,
    "l": 148.381,
    "c": 148.441,
    "v": 1541
  },
  {
    "dt": "2023.10.05 23:00",
    "o": 148.44,
    "h": 148.508,
    "l": 148.436,
    "c": 148.497,
    "v": 1252
  },
  {
    "dt": "2023.10.06 00:00",
    "o": 148.399,
    "h": 148.479,
    "l": 148.395,
    "c": 148.475,
    "v": 359
  },
  {
    "dt": "2023.10.06 01:00",
    "o": 148.474,
    "h": 148.481,
    "l": 148.426,
    "c": 148.438,
    "v": 576
  },
  {
    "dt": "2023.10.06 02:00",
    "o": 148.456,
    "h": 148.485,
    "l": 148.348,
    "c": 148.461,
    "v": 745
  },
  {
    "dt": "2023.10.06 03:00",
    "o": 148.473,
    "h": 148.65,
    "l": 148.458,
    "c": 148.633,
    "v": 2093
  },
  {
    "dt": "2023.10.06 04:00",
    "o": 148.633,
    "h": 148.68,
    "l": 148.454,
    "c": 148.498,
    "v": 1633
  },
  {
    "dt": "2023.10.06 05:00",
    "o": 148.503,
    "h": 148.649,
    "l": 148.479,
    "c": 148.605,
    "v": 1544
  },
  {
    "dt": "2023.10.06 06:00",
    "o": 148.596,
    "h": 148.684,
    "l": 148.551,
    "c": 148.681,
    "v": 1939
  },
  {
    "dt": "2023.10.06 07:00",
    "o": 148.68,
    "h": 148.757,
    "l": 148.648,
    "c": 148.746,
    "v": 1451
  },
  {
    "dt": "2023.10.06 08:00",
    "o": 148.747,
    "h": 148.837,
    "l": 148.741,
    "c": 148.826,
    "v": 1275
  },
  {
    "dt": "2023.10.06 09:00",
    "o": 148.825,
    "h": 148.979,
    "l": 148.81,
    "c": 148.942,
    "v": 1716
  },
  {
    "dt": "2023.10.06 10:00",
    "o": 148.939,
    "h": 148.939,
    "l": 148.828,
    "c": 148.88,
    "v": 2335
  },
  {
    "dt": "2023.10.06 11:00",
    "o": 148.878,
    "h": 148.936,
    "l": 148.832,
    "c": 148.901,
    "v": 2214
  },
  {
    "dt": "2023.10.06 12:00",
    "o": 148.901,
    "h": 149.055,
    "l": 148.849,
    "c": 149.029,
    "v": 1781
  },
  {
    "dt": "2023.10.06 13:00",
    "o": 149.03,
    "h": 149.047,
    "l": 148.971,
    "c": 149.027,
    "v": 1704
  },
  {
    "dt": "2023.10.06 14:00",
    "o": 149.026,
    "h": 149.082,
    "l": 149.01,
    "c": 149.042,
    "v": 1815
  },
  {
    "dt": "2023.10.06 15:00",
    "o": 149.046,
    "h": 149.527,
    "l": 148.951,
    "c": 149.416,
    "v": 5554
  },
  {
    "dt": "2023.10.06 16:00",
    "o": 149.4,
    "h": 149.45,
    "l": 149.205,
    "c": 149.361,
    "v": 5462
  },
  {
    "dt": "2023.10.06 17:00",
    "o": 149.361,
    "h": 149.372,
    "l": 149.16,
    "c": 149.365,
    "v": 4392
  },
  {
    "dt": "2023.10.06 18:00",
    "o": 149.364,
    "h": 149.366,
    "l": 149.03,
    "c": 149.077,
    "v": 4538
  },
  {
    "dt": "2023.10.06 19:00",
    "o": 149.076,
    "h": 149.287,
    "l": 149.053,
    "c": 149.284,
    "v": 2970
  },
  {
    "dt": "2023.10.06 20:00",
    "o": 149.283,
    "h": 149.343,
    "l": 149.22,
    "c": 149.337,
    "v": 1932
  },
  {
    "dt": "2023.10.06 21:00",
    "o": 149.335,
    "h": 149.349,
    "l": 149.262,
    "c": 149.331,
    "v": 1845
  },
  {
    "dt": "2023.10.06 22:00",
    "o": 149.33,
    "h": 149.348,
    "l": 149.271,
    "c": 149.325,
    "v": 1992
  },
  {
    "dt": "2023.10.06 23:00",
    "o": 149.319,
    "h": 149.337,
    "l": 149.256,
    "c": 149.278,
    "v": 1173
  },
  {
    "dt": "2023.10.09 00:00",
    "o": 149.076,
    "h": 149.126,
    "l": 149.054,
    "c": 149.081,
    "v": 509
  },
  {
    "dt": "2023.10.09 01:00",
    "o": 149.05,
    "h": 149.231,
    "l": 148.969,
    "c": 149.158,
    "v": 3091
  },
  {
    "dt": "2023.10.09 02:00",
    "o": 149.157,
    "h": 149.2,
    "l": 149.127,
    "c": 149.141,
    "v": 1677
  },
  {
    "dt": "2023.10.09 03:00",
    "o": 149.129,
    "h": 149.193,
    "l": 149.092,
    "c": 149.093,
    "v": 1897
  },
  {
    "dt": "2023.10.09 04:00",
    "o": 149.094,
    "h": 149.167,
    "l": 149.07,
    "c": 149.125,
    "v": 1133
  },
  {
    "dt": "2023.10.09 05:00",
    "o": 149.126,
    "h": 149.144,
    "l": 149.083,
    "c": 149.115,
    "v": 962
  },
  {
    "dt": "2023.10.09 06:00",
    "o": 149.12,
    "h": 149.168,
    "l": 149.112,
    "c": 149.147,
    "v": 697
  },
  {
    "dt": "2023.10.09 07:00",
    "o": 149.145,
    "h": 149.198,
    "l": 149.121,
    "c": 149.19,
    "v": 1053
  },
  {
    "dt": "2023.10.09 08:00",
    "o": 149.19,
    "h": 149.214,
    "l": 149.155,
    "c": 149.181,
    "v": 1106
  },
  {
    "dt": "2023.10.09 09:00",
    "o": 149.181,
    "h": 149.191,
    "l": 149.103,
    "c": 149.178,
    "v": 1730
  },
  {
    "dt": "2023.10.09 10:00",
    "o": 149.177,
    "h": 149.188,
    "l": 149.101,
    "c": 149.159,
    "v": 1981
  },
  {
    "dt": "2023.10.09 11:00",
    "o": 149.157,
    "h": 149.167,
    "l": 149.125,
    "c": 149.13,
    "v": 1674
  },
  {
    "dt": "2023.10.09 12:00",
    "o": 149.13,
    "h": 149.142,
    "l": 149.081,
    "c": 149.106,
    "v": 1227
  },
  {
    "dt": "2023.10.09 13:00",
    "o": 149.106,
    "h": 149.162,
    "l": 149.072,
    "c": 149.139,
    "v": 1783
  },
  {
    "dt": "2023.10.09 14:00",
    "o": 149.138,
    "h": 149.171,
    "l": 149.106,
    "c": 149.143,
    "v": 1252
  },
  {
    "dt": "2023.10.09 15:00",
    "o": 149.142,
    "h": 149.166,
    "l": 149.038,
    "c": 149.054,
    "v": 2466
  },
  {
    "dt": "2023.10.09 16:00",
    "o": 149.055,
    "h": 149.062,
    "l": 148.832,
    "c": 148.868,
    "v": 3114
  },
  {
    "dt": "2023.10.09 17:00",
    "o": 148.87,
    "h": 148.87,
    "l": 148.511,
    "c": 148.531,
    "v": 2996
  },
  {
    "dt": "2023.10.09 18:00",
    "o": 148.532,
    "h": 148.711,
    "l": 148.512,
    "c": 148.694,
    "v": 2057
  },
  {
    "dt": "2023.10.09 19:00",
    "o": 148.694,
    "h": 148.771,
    "l": 148.691,
    "c": 148.713,
    "v": 1332
  },
  {
    "dt": "2023.10.09 20:00",
    "o": 148.715,
    "h": 148.736,
    "l": 148.44,
    "c": 148.519,
    "v": 2028
  },
  {
    "dt": "2023.10.09 21:00",
    "o": 148.519,
    "h": 148.58,
    "l": 148.44,
    "c": 148.448,
    "v": 1625
  },
  {
    "dt": "2023.10.09 22:00",
    "o": 148.448,
    "h": 148.541,
    "l": 148.428,
    "c": 148.43,
    "v": 1800
  },
  {
    "dt": "2023.10.09 23:00",
    "o": 148.432,
    "h": 148.525,
    "l": 148.426,
    "c": 148.501,
    "v": 1249
  },
  {
    "dt": "2023.10.10 00:00",
    "o": 148.486,
    "h": 148.517,
    "l": 148.437,
    "c": 148.506,
    "v": 660
  },
  {
    "dt": "2023.10.10 01:00",
    "o": 148.523,
    "h": 148.523,
    "l": 148.36,
    "c": 148.409,
    "v": 1109
  },
  {
    "dt": "2023.10.10 02:00",
    "o": 148.422,
    "h": 148.449,
    "l": 148.283,
    "c": 148.322,
    "v": 1468
  },
  {
    "dt": "2023.10.10 03:00",
    "o": 148.322,
    "h": 148.657,
    "l": 148.167,
    "c": 148.509,
    "v": 3455
  },
  {
    "dt": "2023.10.10 04:00",
    "o": 148.514,
    "h": 148.545,
    "l": 148.299,
    "c": 148.504,
    "v": 2436
  },
  {
    "dt": "2023.10.10 05:00",
    "o": 148.505,
    "h": 148.624,
    "l": 148.477,
    "c": 148.608,
    "v": 1460
  },
  {
    "dt": "2023.10.10 06:00",
    "o": 148.61,
    "h": 148.627,
    "l": 148.517,
    "c": 148.606,
    "v": 1307
  },
  {
    "dt": "2023.10.10 07:00",
    "o": 148.607,
    "h": 148.748,
    "l": 148.605,
    "c": 148.73,
    "v": 1439
  },
  {
    "dt": "2023.10.10 08:00",
    "o": 148.734,
    "h": 148.767,
    "l": 148.666,
    "c": 148.751,
    "v": 1407
  },
  {
    "dt": "2023.10.10 09:00",
    "o": 148.751,
    "h": 148.92,
    "l": 148.511,
    "c": 148.884,
    "v": 2847
  },
  {
    "dt": "2023.10.10 10:00",
    "o": 148.884,
    "h": 149.059,
    "l": 148.839,
    "c": 148.948,
    "v": 2581
  },
  {
    "dt": "2023.10.10 11:00",
    "o": 148.952,
    "h": 149.0,
    "l": 148.728,
    "c": 148.82,
    "v": 3225
  },
  {
    "dt": "2023.10.10 12:00",
    "o": 148.821,
    "h": 148.931,
    "l": 148.812,
    "c": 148.856,
    "v": 2266
  },
  {
    "dt": "2023.10.10 13:00",
    "o": 148.855,
    "h": 148.948,
    "l": 148.849,
    "c": 148.935,
    "v": 1810
  },
  {
    "dt": "2023.10.10 14:00",
    "o": 148.936,
    "h": 149.088,
    "l": 148.931,
    "c": 149.056,
    "v": 2112
  },
  {
    "dt": "2023.10.10 15:00",
    "o": 149.057,
    "h": 149.085,
    "l": 148.884,
    "c": 148.922,
    "v": 3529
  },
  {
    "dt": "2023.10.10 16:00",
    "o": 148.918,
    "h": 149.072,
    "l": 148.918,
    "c": 148.926,
    "v": 3637
  },
  {
    "dt": "2023.10.10 17:00",
    "o": 148.926,
    "h": 148.95,
    "l": 148.801,
    "c": 148.831,
    "v": 3810
  },
  {
    "dt": "2023.10.10 18:00",
    "o": 148.835,
    "h": 148.841,
    "l": 148.564,
    "c": 148.614,
    "v": 3123
  },
  {
    "dt": "2023.10.10 19:00",
    "o": 148.613,
    "h": 148.676,
    "l": 148.534,
    "c": 148.544,
    "v": 2634
  },
  {
    "dt": "2023.10.10 20:00",
    "o": 148.543,
    "h": 148.761,
    "l": 148.543,
    "c": 148.759,
    "v": 2632
  },
  {
    "dt": "2023.10.10 21:00",
    "o": 148.757,
    "h": 148.767,
    "l": 148.683,
    "c": 148.72,
    "v": 1774
  },
  {
    "dt": "2023.10.10 22:00",
    "o": 148.72,
    "h": 148.752,
    "l": 148.647,
    "c": 148.673,
    "v": 1472
  },
  {
    "dt": "2023.10.10 23:00",
    "o": 148.672,
    "h": 148.726,
    "l": 148.651,
    "c": 148.699,
    "v": 736
  },
  {
    "dt": "2023.10.11 00:00",
    "o": 148.689,
    "h": 148.689,
    "l": 148.65,
    "c": 148.662,
    "v": 512
  },
  {
    "dt": "2023.10.11 01:00",
    "o": 148.666,
    "h": 148.677,
    "l": 148.614,
    "c": 148.617,
    "v": 551
  },
  {
    "dt": "2023.10.11 02:00",
    "o": 148.616,
    "h": 148.629,
    "l": 148.54,
    "c": 148.618,
    "v": 1412
  },
  {
    "dt": "2023.10.11 03:00",
    "o": 148.609,
    "h": 148.641,
    "l": 148.415,
    "c": 148.563,
    "v": 2364
  },
  {
    "dt": "2023.10.11 04:00",
    "o": 148.565,
    "h": 148.701,
    "l": 148.533,
    "c": 148.63,
    "v": 1946
  },
  {
    "dt": "2023.10.11 05:00",
    "o": 148.629,
    "h": 148.742,
    "l": 148.622,
    "c": 148.715,
    "v": 1573
  },
  {
    "dt": "2023.10.11 06:00",
    "o": 148.715,
    "h": 148.828,
    "l": 148.695,
    "c": 148.808,
    "v": 1712
  },
  {
    "dt": "2023.10.11 07:00",
    "o": 148.806,
    "h": 148.883,
    "l": 148.788,
    "c": 148.866,
    "v": 1149
  },
  {
    "dt": "2023.10.11 08:00",
    "o": 148.865,
    "h": 148.944,
    "l": 148.802,
    "c": 148.913,
    "v": 1125
  },
  {
    "dt": "2023.10.11 09:00",
    "o": 148.912,
    "h": 148.961,
    "l": 148.847,
    "c": 148.886,
    "v": 2165
  },
  {
    "dt": "2023.10.11 10:00",
    "o": 148.887,
    "h": 148.904,
    "l": 148.57,
    "c": 148.75,
    "v": 3424
  },
  {
    "dt": "2023.10.11 11:00",
    "o": 148.753,
    "h": 148.814,
    "l": 148.611,
    "c": 148.655,
    "v": 3641
  },
  {
    "dt": "2023.10.11 12:00",
    "o": 148.654,
    "h": 148.711,
    "l": 148.598,
    "c": 148.664,
    "v": 2231
  },
  {
    "dt": "2023.10.11 13:00",
    "o": 148.666,
    "h": 148.74,
    "l": 148.639,
    "c": 148.696,
    "v": 2072
  },
  {
    "dt": "2023.10.11 14:00",
    "o": 148.697,
    "h": 148.829,
    "l": 148.652,
    "c": 148.823,
    "v": 2581
  },
  {
    "dt": "2023.10.11 15:00",
    "o": 148.824,
    "h": 149.05,
    "l": 148.821,
    "c": 148.87,
    "v": 4146
  },
  {
    "dt": "2023.10.11 16:00",
    "o": 148.863,
    "h": 149.037,
    "l": 148.813,
    "c": 148.949,
    "v": 3816
  },
  {
    "dt": "2023.10.11 17:00",
    "o": 148.952,
    "h": 149.136,
    "l": 148.941,
    "c": 149.123,
    "v": 3444
  },
  {
    "dt": "2023.10.11 18:00",
    "o": 149.124,
    "h": 149.177,
    "l": 148.952,
    "c": 148.993,
    "v": 3111
  },
  {
    "dt": "2023.10.11 19:00",
    "o": 148.992,
    "h": 149.163,
    "l": 148.982,
    "c": 149.142,
    "v": 2169
  },
  {
    "dt": "2023.10.11 20:00",
    "o": 149.148,
    "h": 149.303,
    "l": 149.128,
    "c": 149.197,
    "v": 2684
  },
  {
    "dt": "2023.10.11 21:00",
    "o": 149.187,
    "h": 149.314,
    "l": 149.046,
    "c": 149.25,
    "v": 2473
  },
  {
    "dt": "2023.10.11 22:00",
    "o": 149.252,
    "h": 149.255,
    "l": 149.151,
    "c": 149.191,
    "v": 1631
  },
  {
    "dt": "2023.10.11 23:00",
    "o": 149.191,
    "h": 149.22,
    "l": 149.133,
    "c": 149.164,
    "v": 1293
  },
  {
    "dt": "2023.10.12 00:00",
    "o": 149.093,
    "h": 149.106,
    "l": 149.03,
    "c": 149.06,
    "v": 550
  },
  {
    "dt": "2023.10.12 01:00",
    "o": 149.065,
    "h": 149.119,
    "l": 148.991,
    "c": 148.996,
    "v": 882
  },
  {
    "dt": "2023.10.12 02:00",
    "o": 148.991,
    "h": 149.051,
    "l": 148.969,
    "c": 149.027,
    "v": 1111
  },
  {
    "dt": "2023.10.12 03:00",
    "o": 149.027,
    "h": 149.155,
    "l": 149.014,
    "c": 149.129,
    "v": 2337
  },
  {
    "dt": "2023.10.12 04:00",
    "o": 149.127,
    "h": 149.155,
    "l": 149.011,
    "c": 149.101,
    "v": 2087
  },
  {
    "dt": "2023.10.12 05:00",
    "o": 149.102,
    "h": 149.264,
    "l": 149.076,
    "c": 149.247,
    "v": 1771
  },
  {
    "dt": "2023.10.12 06:00",
    "o": 149.249,
    "h": 149.254,
    "l": 149.127,
    "c": 149.128,
    "v": 1000
  },
  {
    "dt": "2023.10.12 07:00",
    "o": 149.129,
    "h": 149.167,
    "l": 149.076,
    "c": 149.119,
    "v": 897
  },
  {
    "dt": "2023.10.12 08:00",
    "o": 149.119,
    "h": 149.144,
    "l": 149.036,
    "c": 149.089,
    "v": 1214
  },
  {
    "dt": "2023.10.12 09:00",
    "o": 149.093,
    "h": 149.14,
    "l": 148.945,
    "c": 149.026,
    "v": 2424
  },
  {
    "dt": "2023.10.12 10:00",
    "o": 149.028,
    "h": 149.189,
    "l": 149.021,
    "c": 149.169,
    "v": 2813
  },
  {
    "dt": "2023.10.12 11:00",
    "o": 149.17,
    "h": 149.181,
    "l": 149.046,
    "c": 149.072,
    "v": 2362
  },
  {
    "dt": "2023.10.12 12:00",
    "o": 149.071,
    "h": 149.137,
    "l": 149.048,
    "c": 149.132,
    "v": 2245
  },
  {
    "dt": "2023.10.12 13:00",
    "o": 149.131,
    "h": 149.153,
    "l": 149.098,
    "c": 149.148,
    "v": 1843
  },
  {
    "dt": "2023.10.12 14:00",
    "o": 149.15,
    "h": 149.195,
    "l": 149.131,
    "c": 149.141,
    "v": 2554
  },
  {
    "dt": "2023.10.12 15:00",
    "o": 149.138,
    "h": 149.471,
    "l": 149.01,
    "c": 149.433,
    "v": 5204
  },
  {
    "dt": "2023.10.12 16:00",
    "o": 149.436,
    "h": 149.582,
    "l": 149.382,
    "c": 149.581,
    "v": 4906
  },
  {
    "dt": "2023.10.12 17:00",
    "o": 149.582,
    "h": 149.733,
    "l": 149.568,
    "c": 149.722,
    "v": 4229
  },
  {
    "dt": "2023.10.12 18:00",
    "o": 149.721,
    "h": 149.786,
    "l": 149.666,
    "c": 149.706,
    "v": 2857
  },
  {
    "dt": "2023.10.12 19:00",
    "o": 149.702,
    "h": 149.772,
    "l": 149.652,
    "c": 149.728,
    "v": 2065
  },
  {
    "dt": "2023.10.12 20:00",
    "o": 149.727,
    "h": 149.789,
    "l": 149.704,
    "c": 149.788,
    "v": 2860
  },
  {
    "dt": "2023.10.12 21:00",
    "o": 149.789,
    "h": 149.815,
    "l": 149.702,
    "c": 149.811,
    "v": 2138
  },
  {
    "dt": "2023.10.12 22:00",
    "o": 149.809,
    "h": 149.82,
    "l": 149.763,
    "c": 149.805,
    "v": 1842
  },
  {
    "dt": "2023.10.12 23:00",
    "o": 149.8,
    "h": 149.816,
    "l": 149.776,
    "c": 149.801,
    "v": 756
  },
  {
    "dt": "2023.10.13 00:00",
    "o": 149.752,
    "h": 149.8,
    "l": 149.745,
    "c": 149.758,
    "v": 370
  },
  {
    "dt": "2023.10.13 01:00",
    "o": 149.76,
    "h": 149.782,
    "l": 149.753,
    "c": 149.76,
    "v": 562
  },
  {
    "dt": "2023.10.13 02:00",
    "o": 149.76,
    "h": 149.791,
    "l": 149.731,
    "c": 149.779,
    "v": 959
  },
  {
    "dt": "2023.10.13 03:00",
    "o": 149.779,
    "h": 149.818,
    "l": 149.724,
    "c": 149.743,
    "v": 2365
  },
  {
    "dt": "2023.10.13 04:00",
    "o": 149.744,
    "h": 149.816,
    "l": 149.717,
    "c": 149.79,
    "v": 1654
  },
  {
    "dt": "2023.10.13 05:00",
    "o": 149.789,
    "h": 149.812,
    "l": 149.753,
    "c": 149.791,
    "v": 1457
  },
  {
    "dt": "2023.10.13 06:00",
    "o": 149.791,
    "h": 149.791,
    "l": 149.738,
    "c": 149.755,
    "v": 1523
  },
  {
    "dt": "2023.10.13 07:00",
    "o": 149.755,
    "h": 149.757,
    "l": 149.594,
    "c": 149.637,
    "v": 1430
  },
  {
    "dt": "2023.10.13 08:00",
    "o": 149.625,
    "h": 149.729,
    "l": 149.563,
    "c": 149.704,
    "v": 1564
  },
  {
    "dt": "2023.10.13 09:00",
    "o": 149.706,
    "h": 149.751,
    "l": 149.63,
    "c": 149.74,
    "v": 2163
  },
  {
    "dt": "2023.10.13 10:00",
    "o": 149.741,
    "h": 149.741,
    "l": 149.629,
    "c": 149.645,
    "v": 2950
  },
  {
    "dt": "2023.10.13 11:00",
    "o": 149.644,
    "h": 149.701,
    "l": 149.61,
    "c": 149.691,
    "v": 2958
  },
  {
    "dt": "2023.10.13 12:00",
    "o": 149.692,
    "h": 149.768,
    "l": 149.631,
    "c": 149.632,
    "v": 3364
  },
  {
    "dt": "2023.10.13 13:00",
    "o": 149.631,
    "h": 149.649,
    "l": 149.552,
    "c": 149.614,
    "v": 2061
  },
  {
    "dt": "2023.10.13 14:00",
    "o": 149.615,
    "h": 149.626,
    "l": 149.548,
    "c": 149.605,
    "v": 2452
  },
  {
    "dt": "2023.10.13 15:00",
    "o": 149.603,
    "h": 149.613,
    "l": 149.445,
    "c": 149.524,
    "v": 4132
  },
  {
    "dt": "2023.10.13 16:00",
    "o": 149.522,
    "h": 149.639,
    "l": 149.444,
    "c": 149.619,
    "v": 3833
  },
  {
    "dt": "2023.10.13 17:00",
    "o": 149.618,
    "h": 149.725,
    "l": 149.551,
    "c": 149.652,
    "v": 4079
  },
  {
    "dt": "2023.10.13 18:00",
    "o": 149.653,
    "h": 149.68,
    "l": 149.584,
    "c": 149.608,
    "v": 2535
  },
  {
    "dt": "2023.10.13 19:00",
    "o": 149.606,
    "h": 149.615,
    "l": 149.532,
    "c": 149.562,
    "v": 2027
  },
  {
    "dt": "2023.10.13 20:00",
    "o": 149.562,
    "h": 149.578,
    "l": 149.485,
    "c": 149.518,
    "v": 1857
  },
  {
    "dt": "2023.10.13 21:00",
    "o": 149.518,
    "h": 149.531,
    "l": 149.478,
    "c": 149.488,
    "v": 1447
  },
  {
    "dt": "2023.10.13 22:00",
    "o": 149.488,
    "h": 149.524,
    "l": 149.461,
    "c": 149.497,
    "v": 1830
  },
  {
    "dt": "2023.10.13 23:00",
    "o": 149.497,
    "h": 149.587,
    "l": 149.496,
    "c": 149.548,
    "v": 1179
  },
  {
    "dt": "2023.10.16 00:00",
    "o": 149.34,
    "h": 149.534,
    "l": 149.332,
    "c": 149.416,
    "v": 236
  },
  {
    "dt": "2023.10.16 01:00",
    "o": 149.425,
    "h": 149.594,
    "l": 149.425,
    "c": 149.578,
    "v": 1212
  },
  {
    "dt": "2023.10.16 02:00",
    "o": 149.582,
    "h": 149.621,
    "l": 149.543,
    "c": 149.552,
    "v": 1137
  },
  {
    "dt": "2023.10.16 03:00",
    "o": 149.551,
    "h": 149.566,
    "l": 149.409,
    "c": 149.489,
    "v": 2548
  },
  {
    "dt": "2023.10.16 04:00",
    "o": 149.489,
    "h": 149.514,
    "l": 149.452,
    "c": 149.46,
    "v": 1188
  },
  {
    "dt": "2023.10.16 05:00",
    "o": 149.459,
    "h": 149.468,
    "l": 149.419,
    "c": 149.436,
    "v": 1021
  },
  {
    "dt": "2023.10.16 06:00",
    "o": 149.434,
    "h": 149.51,
    "l": 149.421,
    "c": 149.468,
    "v": 854
  },
  {
    "dt": "2023.10.16 07:00",
    "o": 149.467,
    "h": 149.468,
    "l": 149.398,
    "c": 149.425,
    "v": 927
  },
  {
    "dt": "2023.10.16 08:00",
    "o": 149.423,
    "h": 149.47,
    "l": 149.365,
    "c": 149.436,
    "v": 1202
  },
  {
    "dt": "2023.10.16 09:00",
    "o": 149.436,
    "h": 149.575,
    "l": 149.426,
    "c": 149.565,
    "v": 2246
  },
  {
    "dt": "2023.10.16 10:00",
    "o": 149.566,
    "h": 149.604,
    "l": 149.527,
    "c": 149.562,
    "v": 3372
  },
  {
    "dt": "2023.10.16 11:00",
    "o": 149.562,
    "h": 149.586,
    "l": 149.466,
    "c": 149.486,
    "v": 2472
  },
  {
    "dt": "2023.10.16 12:00",
    "o": 149.485,
    "h": 149.506,
    "l": 149.438,
    "c": 149.473,
    "v": 2001
  },
  {
    "dt": "2023.10.16 13:00",
    "o": 149.472,
    "h": 149.575,
    "l": 149.469,
    "c": 149.546,
    "v": 1749
  },
  {
    "dt": "2023.10.16 14:00",
    "o": 149.548,
    "h": 149.568,
    "l": 149.462,
    "c": 149.499,
    "v": 1681
  },
  {
    "dt": "2023.10.16 15:00",
    "o": 149.506,
    "h": 149.531,
    "l": 149.399,
    "c": 149.441,
    "v": 3087
  },
  {
    "dt": "2023.10.16 16:00",
    "o": 149.442,
    "h": 149.705,
    "l": 149.429,
    "c": 149.701,
    "v": 3549
  },
  {
    "dt": "2023.10.16 17:00",
    "o": 149.702,
    "h": 149.749,
    "l": 149.628,
    "c": 149.63,
    "v": 3286
  },
  {
    "dt": "2023.10.16 18:00",
    "o": 149.623,
    "h": 149.635,
    "l": 149.541,
    "c": 149.564,
    "v": 2302
  },
  {
    "dt": "2023.10.16 19:00",
    "o": 149.559,
    "h": 149.596,
    "l": 149.539,
    "c": 149.573,
    "v": 1564
  },
  {
    "dt": "2023.10.16 20:00",
    "o": 149.573,
    "h": 149.603,
    "l": 149.536,
    "c": 149.58,
    "v": 1288
  },
  {
    "dt": "2023.10.16 21:00",
    "o": 149.58,
    "h": 149.588,
    "l": 149.506,
    "c": 149.507,
    "v": 909
  },
  {
    "dt": "2023.10.16 22:00",
    "o": 149.507,
    "h": 149.574,
    "l": 149.501,
    "c": 149.509,
    "v": 1246
  },
  {
    "dt": "2023.10.16 23:00",
    "o": 149.51,
    "h": 149.529,
    "l": 149.49,
    "c": 149.512,
    "v": 839
  },
  {
    "dt": "2023.10.17 00:00",
    "o": 149.49,
    "h": 149.576,
    "l": 149.479,
    "c": 149.505,
    "v": 892
  },
  {
    "dt": "2023.10.17 01:00",
    "o": 149.505,
    "h": 149.571,
    "l": 149.474,
    "c": 149.569,
    "v": 786
  },
  {
    "dt": "2023.10.17 02:00",
    "o": 149.584,
    "h": 149.596,
    "l": 149.538,
    "c": 149.569,
    "v": 1050
  },
  {
    "dt": "2023.10.17 03:00",
    "o": 149.57,
    "h": 149.622,
    "l": 149.47,
    "c": 149.496,
    "v": 1856
  },
  {
    "dt": "2023.10.17 04:00",
    "o": 149.494,
    "h": 149.563,
    "l": 149.475,
    "c": 149.533,
    "v": 1470
  },
  {
    "dt": "2023.10.17 05:00",
    "o": 149.53,
    "h": 149.561,
    "l": 149.523,
    "c": 149.538,
    "v": 1142
  },
  {
    "dt": "2023.10.17 06:00",
    "o": 149.537,
    "h": 149.567,
    "l": 149.513,
    "c": 149.535,
    "v": 1246
  },
  {
    "dt": "2023.10.17 07:00",
    "o": 149.536,
    "h": 149.55,
    "l": 149.492,
    "c": 149.542,
    "v": 930
  },
  {
    "dt": "2023.10.17 08:00",
    "o": 149.541,
    "h": 149.603,
    "l": 149.539,
    "c": 149.598,
    "v": 997
  },
  {
    "dt": "2023.10.17 09:00",
    "o": 149.594,
    "h": 149.647,
    "l": 149.555,
    "c": 149.646,
    "v": 2019
  },
  {
    "dt": "2023.10.17 10:00",
    "o": 149.646,
    "h": 149.646,
    "l": 149.521,
    "c": 149.591,
    "v": 2201
  },
  {
    "dt": "2023.10.17 11:00",
    "o": 149.592,
    "h": 149.681,
    "l": 149.574,
    "c": 149.663,
    "v": 2155
  },
  {
    "dt": "2023.10.17 12:00",
    "o": 149.66,
    "h": 149.687,
    "l": 149.653,
    "c": 149.672,
    "v": 1616
  },
  {
    "dt": "2023.10.17 13:00",
    "o": 149.673,
    "h": 149.735,
    "l": 148.705,
    "c": 149.542,
    "v": 3479
  },
  {
    "dt": "2023.10.17 14:00",
    "o": 149.539,
    "h": 149.545,
    "l": 149.346,
    "c": 149.452,
    "v": 2538
  },
  {
    "dt": "2023.10.17 15:00",
    "o": 149.451,
    "h": 149.784,
    "l": 149.441,
    "c": 149.763,
    "v": 4267
  },
  {
    "dt": "2023.10.17 16:00",
    "o": 149.769,
    "h": 149.785,
    "l": 149.673,
    "c": 149.764,
    "v": 4291
  },
  {
    "dt": "2023.10.17 17:00",
    "o": 149.762,
    "h": 149.768,
    "l": 149.587,
    "c": 149.688,
    "v": 3724
  },
  {
    "dt": "2023.10.17 18:00",
    "o": 149.687,
    "h": 149.746,
    "l": 149.659,
    "c": 149.705,
    "v": 2933
  },
  {
    "dt": "2023.10.17 19:00",
    "o": 149.705,
    "h": 149.761,
    "l": 149.68,
    "c": 149.75,
    "v": 1803
  },
  {
    "dt": "2023.10.17 20:00",
    "o": 149.75,
    "h": 149.84,
    "l": 149.75,
    "c": 149.816,
    "v": 1905
  },
  {
    "dt": "2023.10.17 21:00",
    "o": 149.811,
    "h": 149.821,
    "l": 149.757,
    "c": 149.773,
    "v": 1767
  },
  {
    "dt": "2023.10.17 22:00",
    "o": 149.774,
    "h": 149.774,
    "l": 149.705,
    "c": 149.766,
    "v": 1993
  },
  {
    "dt": "2023.10.17 23:00",
    "o": 149.767,
    "h": 149.837,
    "l": 149.761,
    "c": 149.8,
    "v": 931
  },
  {
    "dt": "2023.10.18 00:00",
    "o": 149.786,
    "h": 149.816,
    "l": 149.729,
    "c": 149.756,
    "v": 304
  },
  {
    "dt": "2023.10.18 01:00",
    "o": 149.76,
    "h": 149.783,
    "l": 149.732,
    "c": 149.763,
    "v": 714
  },
  {
    "dt": "2023.10.18 02:00",
    "o": 149.748,
    "h": 149.784,
    "l": 149.743,
    "c": 149.751,
    "v": 754
  },
  {
    "dt": "2023.10.18 03:00",
    "o": 149.742,
    "h": 149.782,
    "l": 149.711,
    "c": 149.763,
    "v": 1364
  },
  {
    "dt": "2023.10.18 04:00",
    "o": 149.762,
    "h": 149.783,
    "l": 149.733,
    "c": 149.741,
    "v": 1490
  },
  {
    "dt": "2023.10.18 05:00",
    "o": 149.74,
    "h": 149.744,
    "l": 149.645,
    "c": 149.674,
    "v": 1638
  },
  {
    "dt": "2023.10.18 06:00",
    "o": 149.671,
    "h": 149.678,
    "l": 149.473,
    "c": 149.659,
    "v": 1344
  },
  {
    "dt": "2023.10.18 07:00",
    "o": 149.657,
    "h": 149.685,
    "l": 149.645,
    "c": 149.661,
    "v": 1228
  },
  {
    "dt": "2023.10.18 08:00",
    "o": 149.658,
    "h": 149.688,
    "l": 149.63,
    "c": 149.635,
    "v": 1298
  },
  {
    "dt": "2023.10.18 09:00",
    "o": 149.636,
    "h": 149.688,
    "l": 149.593,
    "c": 149.671,
    "v": 2906
  },
  {
    "dt": "2023.10.18 10:00",
    "o": 149.671,
    "h": 149.743,
    "l": 149.643,
    "c": 149.737,
    "v": 2753
  },
  {
    "dt": "2023.10.18 11:00",
    "o": 149.735,
    "h": 149.773,
    "l": 149.713,
    "c": 149.764,
    "v": 1825
  },
  {
    "dt": "2023.10.18 12:00",
    "o": 149.763,
    "h": 149.775,
    "l": 149.601,
    "c": 149.721,
    "v": 1807
  },
  {
    "dt": "2023.10.18 13:00",
    "o": 149.721,
    "h": 149.749,
    "l": 149.656,
    "c": 149.692,
    "v": 1421
  },
  {
    "dt": "2023.10.18 14:00",
    "o": 149.691,
    "h": 149.701,
    "l": 149.618,
    "c": 149.669,
    "v": 1479
  },
  {
    "dt": "2023.10.18 15:00",
    "o": 149.67,
    "h": 149.769,
    "l": 149.62,
    "c": 149.724,
    "v": 2477
  },
  {
    "dt": "2023.10.18 16:00",
    "o": 149.725,
    "h": 149.751,
    "l": 149.667,
    "c": 149.705,
    "v": 2977
  },
  {
    "dt": "2023.10.18 17:00",
    "o": 149.701,
    "h": 149.873,
    "l": 149.668,
    "c": 149.773,
    "v": 3754
  },
  {
    "dt": "2023.10.18 18:00",
    "o": 149.774,
    "h": 149.872,
    "l": 149.758,
    "c": 149.855,
    "v": 2899
  },
  {
    "dt": "2023.10.18 19:00",
    "o": 149.855,
    "h": 149.874,
    "l": 149.759,
    "c": 149.811,
    "v": 2770
  },
  {
    "dt": "2023.10.18 20:00",
    "o": 149.811,
    "h": 149.818,
    "l": 149.722,
    "c": 149.772,
    "v": 2542
  },
  {
    "dt": "2023.10.18 21:00",
    "o": 149.772,
    "h": 149.89,
    "l": 149.762,
    "c": 149.881,
    "v": 1588
  },
  {
    "dt": "2023.10.18 22:00",
    "o": 149.88,
    "h": 149.907,
    "l": 149.851,
    "c": 149.868,
    "v": 1376
  },
  {
    "dt": "2023.10.18 23:00",
    "o": 149.864,
    "h": 149.927,
    "l": 149.86,
    "c": 149.918,
    "v": 882
  },
  {
    "dt": "2023.10.19 00:00",
    "o": 149.877,
    "h": 149.882,
    "l": 149.729,
    "c": 149.793,
    "v": 734
  },
  {
    "dt": "2023.10.19 01:00",
    "o": 149.779,
    "h": 149.854,
    "l": 149.778,
    "c": 149.845,
    "v": 839
  },
  {
    "dt": "2023.10.19 02:00",
    "o": 149.844,
    "h": 149.879,
    "l": 149.736,
    "c": 149.76,
    "v": 1399
  },
  {
    "dt": "2023.10.19 03:00",
    "o": 149.761,
    "h": 149.793,
    "l": 149.657,
    "c": 149.743,
    "v": 2690
  },
  {
    "dt": "2023.10.19 04:00",
    "o": 149.747,
    "h": 149.832,
    "l": 149.725,
    "c": 149.792,
    "v": 1916
  },
  {
    "dt": "2023.10.19 05:00",
    "o": 149.792,
    "h": 149.832,
    "l": 149.777,
    "c": 149.798,
    "v": 1128
  },
  {
    "dt": "2023.10.19 06:00",
    "o": 149.799,
    "h": 149.819,
    "l": 149.78,
    "c": 149.798,
    "v": 1175
  },
  {
    "dt": "2023.10.19 07:00",
    "o": 149.8,
    "h": 149.802,
    "l": 149.756,
    "c": 149.8,
    "v": 684
  },
  {
    "dt": "2023.10.19 08:00",
    "o": 149.799,
    "h": 149.821,
    "l": 149.761,
    "c": 149.771,
    "v": 730
  },
  {
    "dt": "2023.10.19 09:00",
    "o": 149.767,
    "h": 149.794,
    "l": 149.713,
    "c": 149.777,
    "v": 1363
  },
  {
    "dt": "2023.10.19 10:00",
    "o": 149.778,
    "h": 149.799,
    "l": 149.725,
    "c": 149.791,
    "v": 2331
  },
  {
    "dt": "2023.10.19 11:00",
    "o": 149.792,
    "h": 149.844,
    "l": 149.778,
    "c": 149.823,
    "v": 2038
  },
  {
    "dt": "2023.10.19 12:00",
    "o": 149.824,
    "h": 149.869,
    "l": 149.813,
    "c": 149.831,
    "v": 1564
  },
  {
    "dt": "2023.10.19 13:00",
    "o": 149.829,
    "h": 149.832,
    "l": 149.767,
    "c": 149.792,
    "v": 1680
  },
  {
    "dt": "2023.10.19 14:00",
    "o": 149.791,
    "h": 149.856,
    "l": 149.779,
    "c": 149.849,
    "v": 1497
  },
  {
    "dt": "2023.10.19 15:00",
    "o": 149.849,
    "h": 149.876,
    "l": 149.77,
    "c": 149.814,
    "v": 2937
  },
  {
    "dt": "2023.10.19 16:00",
    "o": 149.814,
    "h": 149.836,
    "l": 149.756,
    "c": 149.779,
    "v": 2882
  },
  {
    "dt": "2023.10.19 17:00",
    "o": 149.784,
    "h": 149.917,
    "l": 149.76,
    "c": 149.912,
    "v": 3176
  },
  {
    "dt": "2023.10.19 18:00",
    "o": 149.913,
    "h": 149.925,
    "l": 149.805,
    "c": 149.911,
    "v": 2356
  },
  {
    "dt": "2023.10.19 19:00",
    "o": 149.909,
    "h": 149.952,
    "l": 149.667,
    "c": 149.726,
    "v": 5773
  },
  {
    "dt": "2023.10.19 20:00",
    "o": 149.725,
    "h": 149.826,
    "l": 149.681,
    "c": 149.758,
    "v": 3707
  },
  {
    "dt": "2023.10.19 21:00",
    "o": 149.758,
    "h": 149.849,
    "l": 149.705,
    "c": 149.843,
    "v": 2271
  },
  {
    "dt": "2023.10.19 22:00",
    "o": 149.844,
    "h": 149.848,
    "l": 149.768,
    "c": 149.786,
    "v": 2181
  },
  {
    "dt": "2023.10.19 23:00",
    "o": 149.788,
    "h": 149.824,
    "l": 149.766,
    "c": 149.784,
    "v": 1054
  },
  {
    "dt": "2023.10.20 00:00",
    "o": 149.702,
    "h": 149.783,
    "l": 149.689,
    "c": 149.744,
    "v": 495
  },
  {
    "dt": "2023.10.20 01:00",
    "o": 149.76,
    "h": 149.829,
    "l": 149.751,
    "c": 149.822,
    "v": 781
  },
  {
    "dt": "2023.10.20 02:00",
    "o": 149.819,
    "h": 149.829,
    "l": 149.744,
    "c": 149.796,
    "v": 1308
  },
  {
    "dt": "2023.10.20 03:00",
    "o": 149.795,
    "h": 149.85,
    "l": 149.787,
    "c": 149.838,
    "v": 2009
  },
  {
    "dt": "2023.10.20 04:00",
    "o": 149.838,
    "h": 149.931,
    "l": 149.837,
    "c": 149.861,
    "v": 1605
  },
  {
    "dt": "2023.10.20 05:00",
    "o": 149.86,
    "h": 149.875,
    "l": 149.815,
    "c": 149.84,
    "v": 1129
  },
  {
    "dt": "2023.10.20 06:00",
    "o": 149.84,
    "h": 149.841,
    "l": 149.808,
    "c": 149.84,
    "v": 1046
  },
  {
    "dt": "2023.10.20 07:00",
    "o": 149.841,
    "h": 149.869,
    "l": 149.833,
    "c": 149.85,
    "v": 956
  },
  {
    "dt": "2023.10.20 08:00",
    "o": 149.85,
    "h": 149.885,
    "l": 149.837,
    "c": 149.843,
    "v": 1155
  },
  {
    "dt": "2023.10.20 09:00",
    "o": 149.846,
    "h": 149.942,
    "l": 149.832,
    "c": 149.886,
    "v": 2409
  },
  {
    "dt": "2023.10.20 10:00",
    "o": 149.887,
    "h": 149.971,
    "l": 149.853,
    "c": 149.957,
    "v": 2968
  },
  {
    "dt": "2023.10.20 11:00",
    "o": 149.956,
    "h": 149.983,
    "l": 149.642,
    "c": 149.936,
    "v": 3129
  },
  {
    "dt": "2023.10.20 12:00",
    "o": 149.936,
    "h": 149.962,
    "l": 149.875,
    "c": 149.927,
    "v": 2392
  },
  {
    "dt": "2023.10.20 13:00",
    "o": 149.927,
    "h": 149.939,
    "l": 149.893,
    "c": 149.928,
    "v": 1171
  },
  {
    "dt": "2023.10.20 14:00",
    "o": 149.929,
    "h": 149.95,
    "l": 149.905,
    "c": 149.935,
    "v": 1805
  },
  {
    "dt": "2023.10.20 15:00",
    "o": 149.934,
    "h": 149.978,
    "l": 149.916,
    "c": 149.954,
    "v": 3056
  },
  {
    "dt": "2023.10.20 16:00",
    "o": 149.954,
    "h": 149.969,
    "l": 149.845,
    "c": 149.909,
    "v": 3024
  },
  {
    "dt": "2023.10.20 17:00",
    "o": 149.907,
    "h": 149.931,
    "l": 149.847,
    "c": 149.886,
    "v": 2938
  },
  {
    "dt": "2023.10.20 18:00",
    "o": 149.888,
    "h": 149.888,
    "l": 149.787,
    "c": 149.841,
    "v": 2763
  },
  {
    "dt": "2023.10.20 19:00",
    "o": 149.841,
    "h": 149.874,
    "l": 149.805,
    "c": 149.841,
    "v": 1954
  },
  {
    "dt": "2023.10.20 20:00",
    "o": 149.84,
    "h": 149.867,
    "l": 149.765,
    "c": 149.827,
    "v": 2645
  },
  {
    "dt": "2023.10.20 21:00",
    "o": 149.827,
    "h": 149.876,
    "l": 149.822,
    "c": 149.844,
    "v": 1861
  },
  {
    "dt": "2023.10.20 22:00",
    "o": 149.845,
    "h": 149.877,
    "l": 149.829,
    "c": 149.855,
    "v": 1784
  },
  {
    "dt": "2023.10.20 23:00",
    "o": 149.856,
    "h": 149.865,
    "l": 149.822,
    "c": 149.84,
    "v": 1245
  },
  {
    "dt": "2023.10.23 00:00",
    "o": 149.834,
    "h": 149.857,
    "l": 149.732,
    "c": 149.771,
    "v": 161
  },
  {
    "dt": "2023.10.23 01:00",
    "o": 149.763,
    "h": 149.871,
    "l": 149.761,
    "c": 149.861,
    "v": 825
  },
  {
    "dt": "2023.10.23 02:00",
    "o": 149.861,
    "h": 149.884,
    "l": 149.841,
    "c": 149.877,
    "v": 943
  },
  {
    "dt": "2023.10.23 03:00",
    "o": 149.876,
    "h": 149.876,
    "l": 149.772,
    "c": 149.85,
    "v": 1614
  },
  {
    "dt": "2023.10.23 04:00",
    "o": 149.85,
    "h": 149.875,
    "l": 149.838,
    "c": 149.869,
    "v": 1237
  },
  {
    "dt": "2023.10.23 05:00",
    "o": 149.866,
    "h": 149.913,
    "l": 149.852,
    "c": 149.911,
    "v": 947
  },
  {
    "dt": "2023.10.23 06:00",
    "o": 149.911,
    "h": 149.933,
    "l": 149.895,
    "c": 149.929,
    "v": 991
  },
  {
    "dt": "2023.10.23 07:00",
    "o": 149.929,
    "h": 149.932,
    "l": 149.915,
    "c": 149.927,
    "v": 928
  },
  {
    "dt": "2023.10.23 08:00",
    "o": 149.927,
    "h": 149.952,
    "l": 149.913,
    "c": 149.923,
    "v": 1046
  },
  {
    "dt": "2023.10.23 09:00",
    "o": 149.923,
    "h": 149.934,
    "l": 149.896,
    "c": 149.923,
    "v": 1357
  },
  {
    "dt": "2023.10.23 10:00",
    "o": 149.922,
    "h": 149.942,
    "l": 149.878,
    "c": 149.891,
    "v": 2011
  },
  {
    "dt": "2023.10.23 11:00",
    "o": 149.891,
    "h": 149.931,
    "l": 149.857,
    "c": 149.93,
    "v": 1852
  },
  {
    "dt": "2023.10.23 12:00",
    "o": 149.93,
    "h": 149.975,
    "l": 149.911,
    "c": 149.972,
    "v": 1561
  },
  {
    "dt": "2023.10.23 13:00",
    "o": 149.974,
    "h": 149.981,
    "l": 149.861,
    "c": 149.961,
    "v": 1987
  },
  {
    "dt": "2023.10.23 14:00",
    "o": 149.962,
    "h": 149.964,
    "l": 149.888,
    "c": 149.917,
    "v": 1527
  },
  {
    "dt": "2023.10.23 15:00",
    "o": 149.916,
    "h": 149.952,
    "l": 149.862,
    "c": 149.93,
    "v": 2112
  },
  {
    "dt": "2023.10.23 16:00",
    "o": 149.931,
    "h": 149.943,
    "l": 149.891,
    "c": 149.939,
    "v": 2154
  },
  {
    "dt": "2023.10.23 17:00",
    "o": 149.937,
    "h": 149.94,
    "l": 149.838,
    "c": 149.854,
    "v": 3428
  },
  {
    "dt": "2023.10.23 18:00",
    "o": 149.854,
    "h": 149.86,
    "l": 149.727,
    "c": 149.778,
    "v": 2460
  },
  {
    "dt": "2023.10.23 19:00",
    "o": 149.78,
    "h": 149.806,
    "l": 149.667,
    "c": 149.667,
    "v": 2864
  },
  {
    "dt": "2023.10.23 20:00",
    "o": 149.668,
    "h": 149.721,
    "l": 149.636,
    "c": 149.692,
    "v": 1902
  },
  {
    "dt": "2023.10.23 21:00",
    "o": 149.693,
    "h": 149.716,
    "l": 149.55,
    "c": 149.552,
    "v": 1572
  },
  {
    "dt": "2023.10.23 22:00",
    "o": 149.553,
    "h": 149.637,
    "l": 149.546,
    "c": 149.633,
    "v": 1918
  },
  {
    "dt": "2023.10.23 23:00",
    "o": 149.634,
    "h": 149.713,
    "l": 149.621,
    "c": 149.704,
    "v": 1088
  },
  {
    "dt": "2023.10.24 00:00",
    "o": 149.643,
    "h": 149.706,
    "l": 149.623,
    "c": 149.689,
    "v": 725
  },
  {
    "dt": "2023.10.24 01:00",
    "o": 149.702,
    "h": 149.702,
    "l": 149.632,
    "c": 149.666,
    "v": 720
  },
  {
    "dt": "2023.10.24 02:00",
    "o": 149.681,
    "h": 149.779,
    "l": 149.664,
    "c": 149.769,
    "v": 1072
  },
  {
    "dt": "2023.10.24 03:00",
    "o": 149.766,
    "h": 149.778,
    "l": 149.654,
    "c": 149.666,
    "v": 1899
  },
  {
    "dt": "2023.10.24 04:00",
    "o": 149.667,
    "h": 149.689,
    "l": 149.567,
    "c": 149.599,
    "v": 2040
  },
  {
    "dt": "2023.10.24 05:00",
    "o": 149.568,
    "h": 149.64,
    "l": 149.489,
    "c": 149.575,
    "v": 1768
  },
  {
    "dt": "2023.10.24 06:00",
    "o": 149.576,
    "h": 149.618,
    "l": 149.512,
    "c": 149.601,
    "v": 1248
  },
  {
    "dt": "2023.10.24 07:00",
    "o": 149.601,
    "h": 149.658,
    "l": 149.601,
    "c": 149.643,
    "v": 994
  },
  {
    "dt": "2023.10.24 08:00",
    "o": 149.644,
    "h": 149.741,
    "l": 149.605,
    "c": 149.675,
    "v": 1607
  },
  {
    "dt": "2023.10.24 09:00",
    "o": 149.677,
    "h": 149.688,
    "l": 149.394,
    "c": 149.455,
    "v": 2306
  },
  {
    "dt": "2023.10.24 10:00",
    "o": 149.443,
    "h": 149.481,
    "l": 149.311,
    "c": 149.478,
    "v": 3340
  },
  {
    "dt": "2023.10.24 11:00",
    "o": 149.47,
    "h": 149.544,
    "l": 149.316,
    "c": 149.506,
    "v": 2716
  },
  {
    "dt": "2023.10.24 12:00",
    "o": 149.506,
    "h": 149.691,
    "l": 149.506,
    "c": 149.638,
    "v": 2092
  },
  {
    "dt": "2023.10.24 13:00",
    "o": 149.636,
    "h": 149.789,
    "l": 149.616,
    "c": 149.782,
    "v": 2014
  },
  {
    "dt": "2023.10.24 14:00",
    "o": 149.785,
    "h": 149.834,
    "l": 149.714,
    "c": 149.745,
    "v": 2256
  },
  {
    "dt": "2023.10.24 15:00",
    "o": 149.745,
    "h": 149.818,
    "l": 149.744,
    "c": 149.795,
    "v": 2808
  },
  {
    "dt": "2023.10.24 16:00",
    "o": 149.801,
    "h": 149.919,
    "l": 149.782,
    "c": 149.841,
    "v": 3220
  },
  {
    "dt": "2023.10.24 17:00",
    "o": 149.839,
    "h": 149.883,
    "l": 149.79,
    "c": 149.867,
    "v": 3052
  },
  {
    "dt": "2023.10.24 18:00",
    "o": 149.863,
    "h": 149.912,
    "l": 149.83,
    "c": 149.834,
    "v": 2603
  },
  {
    "dt": "2023.10.24 19:00",
    "o": 149.83,
    "h": 149.834,
    "l": 149.736,
    "c": 149.786,
    "v": 1978
  },
  {
    "dt": "2023.10.24 20:00",
    "o": 149.786,
    "h": 149.863,
    "l": 149.744,
    "c": 149.856,
    "v": 1767
  },
  {
    "dt": "2023.10.24 21:00",
    "o": 149.857,
    "h": 149.898,
    "l": 149.856,
    "c": 149.894,
    "v": 1985
  },
  {
    "dt": "2023.10.24 22:00",
    "o": 149.893,
    "h": 149.903,
    "l": 149.858,
    "c": 149.881,
    "v": 1769
  },
  {
    "dt": "2023.10.24 23:00",
    "o": 149.874,
    "h": 149.91,
    "l": 149.853,
    "c": 149.896,
    "v": 977
  },
  {
    "dt": "2023.10.25 00:00",
    "o": 149.833,
    "h": 149.87,
    "l": 149.797,
    "c": 149.837,
    "v": 529
  },
  {
    "dt": "2023.10.25 01:00",
    "o": 149.843,
    "h": 149.865,
    "l": 149.829,
    "c": 149.844,
    "v": 692
  },
  {
    "dt": "2023.10.25 02:00",
    "o": 149.848,
    "h": 149.864,
    "l": 149.841,
    "c": 149.846,
    "v": 540
  },
  {
    "dt": "2023.10.25 03:00",
    "o": 149.846,
    "h": 149.916,
    "l": 149.822,
    "c": 149.876,
    "v": 1913
  },
  {
    "dt": "2023.10.25 04:00",
    "o": 149.878,
    "h": 149.881,
    "l": 149.817,
    "c": 149.849,
    "v": 1240
  },
  {
    "dt": "2023.10.25 05:00",
    "o": 149.847,
    "h": 149.851,
    "l": 149.786,
    "c": 149.794,
    "v": 794
  },
  {
    "dt": "2023.10.25 06:00",
    "o": 149.794,
    "h": 149.84,
    "l": 149.791,
    "c": 149.837,
    "v": 1065
  },
  {
    "dt": "2023.10.25 07:00",
    "o": 149.838,
    "h": 149.856,
    "l": 149.832,
    "c": 149.835,
    "v": 878
  },
  {
    "dt": "2023.10.25 08:00",
    "o": 149.837,
    "h": 149.855,
    "l": 149.811,
    "c": 149.845,
    "v": 945
  },
  {
    "dt": "2023.10.25 09:00",
    "o": 149.846,
    "h": 149.882,
    "l": 149.814,
    "c": 149.881,
    "v": 1305
  },
  {
    "dt": "2023.10.25 10:00",
    "o": 149.881,
    "h": 149.904,
    "l": 149.867,
    "c": 149.891,
    "v": 2153
  },
  {
    "dt": "2023.10.25 11:00",
    "o": 149.892,
    "h": 149.913,
    "l": 149.856,
    "c": 149.9,
    "v": 1705
  },
  {
    "dt": "2023.10.25 12:00",
    "o": 149.899,
    "h": 149.935,
    "l": 149.886,
    "c": 149.927,
    "v": 1829
  },
  {
    "dt": "2023.10.25 13:00",
    "o": 149.928,
    "h": 149.933,
    "l": 149.892,
    "c": 149.919,
    "v": 1283
  },
  {
    "dt": "2023.10.25 14:00",
    "o": 149.919,
    "h": 149.929,
    "l": 149.897,
    "c": 149.919,
    "v": 1591
  },
  {
    "dt": "2023.10.25 15:00",
    "o": 149.917,
    "h": 149.931,
    "l": 149.895,
    "c": 149.911,
    "v": 1790
  },
  {
    "dt": "2023.10.25 16:00",
    "o": 149.91,
    "h": 149.934,
    "l": 149.87,
    "c": 149.879,
    "v": 2366
  },
  {
    "dt": "2023.10.25 17:00",
    "o": 149.888,
    "h": 149.935,
    "l": 149.881,
    "c": 149.917,
    "v": 3331
  },
  {
    "dt": "2023.10.25 18:00",
    "o": 149.916,
    "h": 149.955,
    "l": 149.896,
    "c": 149.927,
    "v": 2307
  },
  {
    "dt": "2023.10.25 19:00",
    "o": 149.928,
    "h": 149.967,
    "l": 149.922,
    "c": 149.96,
    "v": 1898
  },
  {
    "dt": "2023.10.25 20:00",
    "o": 149.959,
    "h": 150.037,
    "l": 149.875,
    "c": 149.978,
    "v": 2765
  },
  {
    "dt": "2023.10.25 21:00",
    "o": 149.978,
    "h": 150.025,
    "l": 149.96,
    "c": 150.003,
    "v": 1919
  },
  {
    "dt": "2023.10.25 22:00",
    "o": 150.003,
    "h": 150.047,
    "l": 149.986,
    "c": 150.047,
    "v": 1363
  },
  {
    "dt": "2023.10.25 23:00",
    "o": 150.047,
    "h": 150.306,
    "l": 150.041,
    "c": 150.211,
    "v": 1839
  },
  {
    "dt": "2023.10.26 00:00",
    "o": 150.134,
    "h": 150.164,
    "l": 150.041,
    "c": 150.151,
    "v": 777
  },
  {
    "dt": "2023.10.26 01:00",
    "o": 150.153,
    "h": 150.177,
    "l": 150.052,
    "c": 150.171,
    "v": 931
  },
  {
    "dt": "2023.10.26 02:00",
    "o": 150.157,
    "h": 150.179,
    "l": 150.068,
    "c": 150.085,
    "v": 1341
  },
  {
    "dt": "2023.10.26 03:00",
    "o": 150.086,
    "h": 150.217,
    "l": 150.034,
    "c": 150.195,
    "v": 1814
  },
  {
    "dt": "2023.10.26 04:00",
    "o": 150.193,
    "h": 150.29,
    "l": 150.166,
    "c": 150.254,
    "v": 1624
  },
  {
    "dt": "2023.10.26 05:00",
    "o": 150.255,
    "h": 150.428,
    "l": 150.244,
    "c": 150.422,
    "v": 1628
  },
  {
    "dt": "2023.10.26 06:00",
    "o": 150.424,
    "h": 150.467,
    "l": 150.386,
    "c": 150.409,
    "v": 1139
  },
  {
    "dt": "2023.10.26 07:00",
    "o": 150.408,
    "h": 150.426,
    "l": 150.37,
    "c": 150.422,
    "v": 1042
  },
  {
    "dt": "2023.10.26 08:00",
    "o": 150.422,
    "h": 150.487,
    "l": 150.399,
    "c": 150.48,
    "v": 1536
  },
  {
    "dt": "2023.10.26 09:00",
    "o": 150.481,
    "h": 150.766,
    "l": 149.907,
    "c": 150.432,
    "v": 3398
  },
  {
    "dt": "2023.10.26 10:00",
    "o": 150.437,
    "h": 150.613,
    "l": 150.409,
    "c": 150.466,
    "v": 3458
  },
  {
    "dt": "2023.10.26 11:00",
    "o": 150.468,
    "h": 150.468,
    "l": 150.311,
    "c": 150.394,
    "v": 2084
  },
  {
    "dt": "2023.10.26 12:00",
    "o": 150.393,
    "h": 150.4,
    "l": 150.255,
    "c": 150.313,
    "v": 1767
  },
  {
    "dt": "2023.10.26 13:00",
    "o": 150.312,
    "h": 150.313,
    "l": 150.19,
    "c": 150.261,
    "v": 1489
  },
  {
    "dt": "2023.10.26 14:00",
    "o": 150.26,
    "h": 150.436,
    "l": 150.26,
    "c": 150.425,
    "v": 1679
  },
  {
    "dt": "2023.10.26 15:00",
    "o": 150.421,
    "h": 150.499,
    "l": 150.16,
    "c": 150.186,
    "v": 4574
  },
  {
    "dt": "2023.10.26 16:00",
    "o": 150.181,
    "h": 150.261,
    "l": 150.076,
    "c": 150.243,
    "v": 4116
  },
  {
    "dt": "2023.10.26 17:00",
    "o": 150.246,
    "h": 150.439,
    "l": 150.233,
    "c": 150.331,
    "v": 3644
  },
  {
    "dt": "2023.10.26 18:00",
    "o": 150.331,
    "h": 150.493,
    "l": 150.289,
    "c": 150.438,
    "v": 2687
  },
  {
    "dt": "2023.10.26 19:00",
    "o": 150.436,
    "h": 150.45,
    "l": 150.334,
    "c": 150.411,
    "v": 2141
  },
  {
    "dt": "2023.10.26 20:00",
    "o": 150.411,
    "h": 150.419,
    "l": 150.224,
    "c": 150.394,
    "v": 2647
  },
  {
    "dt": "2023.10.26 21:00",
    "o": 150.395,
    "h": 150.417,
    "l": 150.348,
    "c": 150.357,
    "v": 1850
  },
  {
    "dt": "2023.10.26 22:00",
    "o": 150.358,
    "h": 150.409,
    "l": 150.321,
    "c": 150.381,
    "v": 1436
  },
  {
    "dt": "2023.10.26 23:00",
    "o": 150.381,
    "h": 150.43,
    "l": 150.33,
    "c": 150.396,
    "v": 1173
  },
  {
    "dt": "2023.10.27 00:00",
    "o": 150.373,
    "h": 150.384,
    "l": 150.314,
    "c": 150.355,
    "v": 428
  },
  {
    "dt": "2023.10.27 01:00",
    "o": 150.362,
    "h": 150.386,
    "l": 150.347,
    "c": 150.359,
    "v": 486
  },
  {
    "dt": "2023.10.27 02:00",
    "o": 150.363,
    "h": 150.375,
    "l": 150.283,
    "c": 150.356,
    "v": 994
  },
  {
    "dt": "2023.10.27 03:00",
    "o": 150.353,
    "h": 150.403,
    "l": 150.27,
    "c": 150.365,
    "v": 1637
  },
  {
    "dt": "2023.10.27 04:00",
    "o": 150.366,
    "h": 150.381,
    "l": 150.243,
    "c": 150.27,
    "v": 1169
  },
  {
    "dt": "2023.10.27 05:00",
    "o": 150.271,
    "h": 150.302,
    "l": 150.156,
    "c": 150.161,
    "v": 1103
  },
  {
    "dt": "2023.10.27 06:00",
    "o": 150.161,
    "h": 150.224,
    "l": 150.134,
    "c": 150.206,
    "v": 810
  },
  {
    "dt": "2023.10.27 07:00",
    "o": 150.211,
    "h": 150.239,
    "l": 150.161,
    "c": 150.162,
    "v": 723
  },
  {
    "dt": "2023.10.27 08:00",
    "o": 150.164,
    "h": 150.212,
    "l": 150.075,
    "c": 150.092,
    "v": 1361
  },
  {
    "dt": "2023.10.27 09:00",
    "o": 150.089,
    "h": 150.268,
    "l": 150.069,
    "c": 150.176,
    "v": 1620
  },
  {
    "dt": "2023.10.27 10:00",
    "o": 150.175,
    "h": 150.236,
    "l": 150.101,
    "c": 150.146,
    "v": 2462
  },
  {
    "dt": "2023.10.27 11:00",
    "o": 150.145,
    "h": 150.17,
    "l": 150.055,
    "c": 150.067,
    "v": 1703
  },
  {
    "dt": "2023.10.27 12:00",
    "o": 150.067,
    "h": 150.082,
    "l": 149.963,
    "c": 150.004,
    "v": 1700
  },
  {
    "dt": "2023.10.27 13:00",
    "o": 150.003,
    "h": 150.073,
    "l": 149.977,
    "c": 150.06,
    "v": 1522
  },
  {
    "dt": "2023.10.27 14:00",
    "o": 150.064,
    "h": 150.133,
    "l": 150.051,
    "c": 150.074,
    "v": 1457
  },
  {
    "dt": "2023.10.27 15:00",
    "o": 150.073,
    "h": 150.074,
    "l": 149.715,
    "c": 149.862,
    "v": 3628
  },
  {
    "dt": "2023.10.27 16:00",
    "o": 149.866,
    "h": 149.889,
    "l": 149.601,
    "c": 149.696,
    "v": 3848
  },
  {
    "dt": "2023.10.27 17:00",
    "o": 149.679,
    "h": 149.786,
    "l": 149.571,
    "c": 149.609,
    "v": 3607
  },
  {
    "dt": "2023.10.27 18:00",
    "o": 149.609,
    "h": 149.651,
    "l": 149.539,
    "c": 149.597,
    "v": 2247
  },
  {
    "dt": "2023.10.27 19:00",
    "o": 149.599,
    "h": 149.689,
    "l": 149.584,
    "c": 149.619,
    "v": 1377
  },
  {
    "dt": "2023.10.27 20:00",
    "o": 149.619,
    "h": 149.631,
    "l": 149.501,
    "c": 149.51,
    "v": 2210
  },
  {
    "dt": "2023.10.27 21:00",
    "o": 149.511,
    "h": 149.516,
    "l": 149.451,
    "c": 149.501,
    "v": 1941
  },
  {
    "dt": "2023.10.27 22:00",
    "o": 149.501,
    "h": 149.569,
    "l": 149.487,
    "c": 149.543,
    "v": 1446
  },
  {
    "dt": "2023.10.27 23:00",
    "o": 149.547,
    "h": 149.722,
    "l": 149.506,
    "c": 149.636,
    "v": 1375
  },
  {
    "dt": "2023.10.30 00:00",
    "o": 149.471,
    "h": 149.584,
    "l": 149.457,
    "c": 149.527,
    "v": 217
  },
  {
    "dt": "2023.10.30 01:00",
    "o": 149.528,
    "h": 149.692,
    "l": 149.528,
    "c": 149.691,
    "v": 827
  },
  {
    "dt": "2023.10.30 02:00",
    "o": 149.693,
    "h": 149.758,
    "l": 149.666,
    "c": 149.726,
    "v": 1357
  },
  {
    "dt": "2023.10.30 03:00",
    "o": 149.728,
    "h": 149.805,
    "l": 149.673,
    "c": 149.792,
    "v": 1631
  },
  {
    "dt": "2023.10.30 04:00",
    "o": 149.792,
    "h": 149.797,
    "l": 149.683,
    "c": 149.719,
    "v": 1183
  },
  {
    "dt": "2023.10.30 05:00",
    "o": 149.744,
    "h": 149.744,
    "l": 149.612,
    "c": 149.635,
    "v": 959
  },
  {
    "dt": "2023.10.30 06:00",
    "o": 149.635,
    "h": 149.636,
    "l": 149.555,
    "c": 149.573,
    "v": 597
  },
  {
    "dt": "2023.10.30 07:00",
    "o": 149.579,
    "h": 149.595,
    "l": 149.522,
    "c": 149.548,
    "v": 691
  },
  {
    "dt": "2023.10.30 08:00",
    "o": 149.55,
    "h": 149.639,
    "l": 149.549,
    "c": 149.634,
    "v": 907
  },
  {
    "dt": "2023.10.30 09:00",
    "o": 149.63,
    "h": 149.655,
    "l": 149.402,
    "c": 149.431,
    "v": 1412
  },
  {
    "dt": "2023.10.30 10:00",
    "o": 149.434,
    "h": 149.581,
    "l": 149.272,
    "c": 149.513,
    "v": 2683
  },
  {
    "dt": "2023.10.30 11:00",
    "o": 149.494,
    "h": 149.629,
    "l": 149.463,
    "c": 149.572,
    "v": 2270
  },
  {
    "dt": "2023.10.30 12:00",
    "o": 149.573,
    "h": 149.68,
    "l": 149.548,
    "c": 149.623,
    "v": 1898
  },
  {
    "dt": "2023.10.30 13:00",
    "o": 149.624,
    "h": 149.683,
    "l": 149.601,
    "c": 149.677,
    "v": 1513
  },
  {
    "dt": "2023.10.30 14:00",
    "o": 149.678,
    "h": 149.771,
    "l": 149.677,
    "c": 149.745,
    "v": 2089
  },
  {
    "dt": "2023.10.30 15:00",
    "o": 149.745,
    "h": 149.844,
    "l": 149.739,
    "c": 149.752,
    "v": 2488
  },
  {
    "dt": "2023.10.30 16:00",
    "o": 149.752,
    "h": 149.791,
    "l": 149.689,
    "c": 149.746,
    "v": 2251
  },
  {
    "dt": "2023.10.30 17:00",
    "o": 149.752,
    "h": 149.757,
    "l": 149.03,
    "c": 149.076,
    "v": 5121
  },
  {
    "dt": "2023.10.30 18:00",
    "o": 149.076,
    "h": 149.101,
    "l": 148.794,
    "c": 149.002,
    "v": 3270
  },
  {
    "dt": "2023.10.30 19:00",
    "o": 149.001,
    "h": 149.163,
    "l": 148.953,
    "c": 149.006,
    "v": 2190
  },
  {
    "dt": "2023.10.30 20:00",
    "o": 149.007,
    "h": 149.075,
    "l": 148.954,
    "c": 149.03,
    "v": 1572
  },
  {
    "dt": "2023.10.30 21:00",
    "o": 149.031,
    "h": 149.047,
    "l": 148.961,
    "c": 148.989,
    "v": 1312
  },
  {
    "dt": "2023.10.30 22:00",
    "o": 148.99,
    "h": 149.101,
    "l": 148.944,
    "c": 149.054,
    "v": 1518
  },
  {
    "dt": "2023.10.30 23:00",
    "o": 149.055,
    "h": 149.104,
    "l": 149.03,
    "c": 149.046,
    "v": 787
  },
  {
    "dt": "2023.10.31 00:00",
    "o": 149.032,
    "h": 149.067,
    "l": 149.009,
    "c": 149.027,
    "v": 873
  },
  {
    "dt": "2023.10.31 01:00",
    "o": 149.002,
    "h": 149.113,
    "l": 149.0,
    "c": 149.098,
    "v": 731
  },
  {
    "dt": "2023.10.31 02:00",
    "o": 149.109,
    "h": 149.151,
    "l": 149.074,
    "c": 149.087,
    "v": 833
  },
  {
    "dt": "2023.10.31 03:00",
    "o": 149.088,
    "h": 149.442,
    "l": 149.08,
    "c": 149.407,
    "v": 2108
  },
  {
    "dt": "2023.10.31 04:00",
    "o": 149.407,
    "h": 149.521,
    "l": 149.361,
    "c": 149.444,
    "v": 1886
  },
  {
    "dt": "2023.10.31 05:00",
    "o": 149.446,
    "h": 149.548,
    "l": 149.404,
    "c": 149.434,
    "v": 2349
  },
  {
    "dt": "2023.10.31 06:00",
    "o": 149.433,
    "h": 150.089,
    "l": 149.317,
    "c": 149.886,
    "v": 4329
  },
  {
    "dt": "2023.10.31 07:00",
    "o": 149.884,
    "h": 150.173,
    "l": 149.851,
    "c": 150.139,
    "v": 2418
  },
  {
    "dt": "2023.10.31 08:00",
    "o": 150.14,
    "h": 150.23,
    "l": 150.087,
    "c": 150.218,
    "v": 1930
  },
  {
    "dt": "2023.10.31 09:00",
    "o": 150.218,
    "h": 150.3,
    "l": 150.127,
    "c": 150.194,
    "v": 2158
  },
  {
    "dt": "2023.10.31 10:00",
    "o": 150.182,
    "h": 150.296,
    "l": 150.06,
    "c": 150.272,
    "v": 2697
  },
  {
    "dt": "2023.10.31 11:00",
    "o": 150.273,
    "h": 150.432,
    "l": 150.222,
    "c": 150.397,
    "v": 3139
  },
  {
    "dt": "2023.10.31 12:00",
    "o": 150.404,
    "h": 150.71,
    "l": 150.052,
    "c": 150.675,
    "v": 3459
  },
  {
    "dt": "2023.10.31 13:00",
    "o": 150.672,
    "h": 150.746,
    "l": 150.573,
    "c": 150.674,
    "v": 2693
  },
  {
    "dt": "2023.10.31 14:00",
    "o": 150.675,
    "h": 150.766,
    "l": 150.629,
    "c": 150.728,
    "v": 1748
  },
  {
    "dt": "2023.10.31 15:00",
    "o": 150.728,
    "h": 150.94,
    "l": 150.626,
    "c": 150.922,
    "v": 3429
  },
  {
    "dt": "2023.10.31 16:00",
    "o": 150.928,
    "h": 150.981,
    "l": 150.816,
    "c": 150.971,
    "v": 3273
  },
  {
    "dt": "2023.10.31 17:00",
    "o": 150.972,
    "h": 151.32,
    "l": 150.904,
    "c": 151.249,
    "v": 3666
  },
  {
    "dt": "2023.10.31 18:00",
    "o": 151.246,
    "h": 151.537,
    "l": 151.198,
    "c": 151.448,
    "v": 3151
  },
  {
    "dt": "2023.10.31 19:00",
    "o": 151.447,
    "h": 151.694,
    "l": 151.324,
    "c": 151.693,
    "v": 3264
  },
  {
    "dt": "2023.10.31 20:00",
    "o": 151.691,
    "h": 151.697,
    "l": 151.033,
    "c": 151.5,
    "v": 3481
  },
  {
    "dt": "2023.10.31 21:00",
    "o": 151.5,
    "h": 151.603,
    "l": 151.446,
    "c": 151.576,
    "v": 2050
  },
  {
    "dt": "2023.10.31 22:00",
    "o": 151.576,
    "h": 151.587,
    "l": 151.498,
    "c": 151.567,
    "v": 1715
  },
  {
    "dt": "2023.10.31 23:00",
    "o": 151.567,
    "h": 151.707,
    "l": 151.544,
    "c": 151.66,
    "v": 1332
  }
]