[
  {
    "dt": "2023.05.01 00:00",
    "o": 1.25553,
    "h": 1.25632,
    "l": 1.25526,
    "c": 1.25627,
    "v": 100
  },
  {
    "dt": "2023.05.01 01:00",
    "o": 1.25638,
    "h": 1.2568,
    "l": 1.2555,
    "c": 1.25555,
    "v": 1245
  },
  {
    "dt": "2023.05.01 02:00",
    "o": 1.25558,
    "h": 1.25624,
    "l": 1.25554,
    "c": 1.25569,
    "v": 1624
  },
  {
    "dt": "2023.05.01 03:00",
    "o": 1.25569,
    "h": 1.25612,
    "l": 1.25498,
    "c": 1.25575,
    "v": 2018
  },
  {
    "dt": "2023.05.01 04:00",
    "o": 1.25577,
    "h": 1.25599,
    "l": 1.25528,
    "c": 1.25582,
    "v": 2071
  },
  {
    "dt": "2023.05.01 05:00",
    "o": 1.25582,
    "h": 1.25609,
    "l": 1.25545,
    "c": 1.25607,
    "v": 1734
  },
  {
    "dt": "2023.05.01 06:00",
    "o": 1.25606,
    "h": 1.25679,
    "l": 1.25585,
    "c": 1.25678,
    "v": 2038
  },
  {
    "dt": "2023.05.01 07:00",
    "o": 1.25681,
    "h": 1.25681,
    "l": 1.25538,
    "c": 1.25567,
    "v": 1778
  },
  {
    "dt": "2023.05.01 08:00",
    "o": 1.25555,
    "h": 1.25568,
    "l": 1.25459,
    "c": 1.25521,
    "v": 1697
  },
  {
    "dt": "2023.05.01 09:00",
    "o": 1.25519,
    "h": 1.25544,
    "l": 1.25401,
    "c": 1.25469,
    "v": 2222
  },
  {
    "dt": "2023.05.01 10:00",
    "o": 1.25471,
    "h": 1.25518,
    "l": 1.25291,
    "c": 1.25346,
    "v": 2452
  },
  {
    "dt": "2023.05.01 11:00",
    "o": 1.25343,
    "h": 1.25383,
    "l": 1.2517,
    "c": 1.25175,
    "v": 2544
  },
  {
    "dt": "2023.05.01 12:00",
    "o": 1.25175,
    "h": 1.2529,
    "l": 1.25133,
    "c": 1.25248,
    "v": 2097
  },
  {
    "dt": "2023.05.01 13:00",
    "o": 1.25248,
    "h": 1.25335,
    "l": 1.25157,
    "c": 1.25318,
    "v": 2092
  },
  {
    "dt": "2023.05.01 14:00",
    "o": 1.25316,
    "h": 1.25354,
    "l": 1.25201,
    "c": 1.25224,
    "v": 1963
  },
  {
    "dt": "2023.05.01 15:00",
    "o": 1.25223,
    "h": 1.25564,
    "l": 1.252,
    "c": 1.25543,
    "v": 3544
  },
  {
    "dt": "2023.05.01 16:00",
    "o": 1.25543,
    "h": 1.25586,
    "l": 1.25412,
    "c": 1.25422,
    "v": 3182
  },
  {
    "dt": "2023.05.01 17:00",
    "o": 1.25287,
    "h": 1.25382,
    "l": 1.25091,
    "c": 1.25193,
    "v": 4155
  },
  {
    "dt": "2023.05.01 18:00",
    "o": 1.2519,
    "h": 1.25212,
    "l": 1.24858,
    "c": 1.24923,
    "v": 3299
  },
  {
    "dt": "2023.05.01 19:00",
    "o": 1.24924,
    "h": 1.24965,
    "l": 1.24793,
    "c": 1.24918,
    "v": 2577
  },
  {
    "dt": "2023.05.01 20:00",
    "o": 1.24921,
    "h": 1.24947,
    "l": 1.24883,
    "c": 1.24942,
    "v": 2465
  },
  {
    "dt": "2023.05.01 21:00",
    "o": 1.24943,
    "h": 1.24945,
    "l": 1.24848,
    "c": 1.24861,
    "v": 2254
  },
  {
    "dt": "2023.05.01 22:00",
    "o": 1.2486,
    "h": 1.24921,
    "l": 1.24829,
    "c": 1.24902,
    "v": 2288
  },
  {
    "dt": "2023.05.01 23:00",
    "o": 1.24903,
    "h": 1.24951,
    "l": 1.24888,
    "c": 1.24944,
    "v": 1309
  },
  {
    "dt": "2023.05.02 00:00",
    "o": 1.2492,
    "h": 1.24951,
    "l": 1.24894,
    "c": 1.24925,
    "v": 103
  },
  {
    "dt": "2023.05.02 01:00",
    "o": 1.24924,
    "h": 1.24947,
    "l": 1.24902,
    "c": 1.2491,
    "v": 818
  },
  {
    "dt": "2023.05.02 02:00",
    "o": 1.24912,
    "h": 1.24918,
    "l": 1.24828,
    "c": 1.24837,
    "v": 1248
  },
  {
    "dt": "2023.05.02 03:00",
    "o": 1.24837,
    "h": 1.2496,
    "l": 1.24834,
    "c": 1.24916,
    "v": 2295
  },
  {
    "dt": "2023.05.02 04:00",
    "o": 1.24916,
    "h": 1.25113,
    "l": 1.24911,
    "c": 1.25022,
    "v": 2769
  },
  {
    "dt": "2023.05.02 05:00",
    "o": 1.25026,
    "h": 1.25029,
    "l": 1.24962,
    "c": 1.24999,
    "v": 2037
  },
  {
    "dt": "2023.05.02 06:00",
    "o": 1.24999,
    "h": 1.25014,
    "l": 1.24951,
    "c": 1.24964,
    "v": 1636
  },
  {
    "dt": "2023.05.02 07:00",
    "o": 1.24963,
    "h": 1.25015,
    "l": 1.24923,
    "c": 1.24952,
    "v": 2562
  },
  {
    "dt": "2023.05.02 08:00",
    "o": 1.24951,
    "h": 1.25057,
    "l": 1.24946,
    "c": 1.24951,
    "v": 2611
  },
  {
    "dt": "2023.05.02 09:00",
    "o": 1.2493,
    "h": 1.25043,
    "l": 1.24846,
    "c": 1.25005,
    "v": 2780
  },
  {
    "dt": "2023.05.02 10:00",
    "o": 1.25013,
    "h": 1.2511,
    "l": 1.24886,
    "c": 1.24894,
    "v": 3393
  },
  {
    "dt": "2023.05.02 11:00",
    "o": 1.24893,
    "h": 1.24894,
    "l": 1.24623,
    "c": 1.24697,
    "v": 3728
  },
  {
    "dt": "2023.05.02 12:00",
    "o": 1.24699,
    "h": 1.24768,
    "l": 1.24522,
    "c": 1.24613,
    "v": 3177
  },
  {
    "dt": "2023.05.02 13:00",
    "o": 1.24608,
    "h": 1.24706,
    "l": 1.24546,
    "c": 1.24697,
    "v": 2949
  },
  {
    "dt": "2023.05.02 14:00",
    "o": 1.247,
    "h": 1.24836,
    "l": 1.247,
    "c": 1.24795,
    "v": 2824
  },
  {
    "dt": "2023.05.02 15:00",
    "o": 1.24791,
    "h": 1.248,
    "l": 1.24556,
    "c": 1.24576,
    "v": 3042
  },
  {
    "dt": "2023.05.02 16:00",
    "o": 1.24577,
    "h": 1.24648,
    "l": 1.24344,
    "c": 1.24356,
    "v": 3584
  },
  {
    "dt": "2023.05.02 17:00",
    "o": 1.24351,
    "h": 1.24884,
    "l": 1.24351,
    "c": 1.24591,
    "v": 5094
  },
  {
    "dt": "2023.05.02 18:00",
    "o": 1.24585,
    "h": 1.24732,
    "l": 1.24481,
    "c": 1.24727,
    "v": 4025
  },
  {
    "dt": "2023.05.02 19:00",
    "o": 1.24723,
    "h": 1.24814,
    "l": 1.24657,
    "c": 1.24773,
    "v": 2726
  },
  {
    "dt": "2023.05.02 20:00",
    "o": 1.24773,
    "h": 1.2478,
    "l": 1.24673,
    "c": 1.24703,
    "v": 2155
  },
  {
    "dt": "2023.05.02 21:00",
    "o": 1.24704,
    "h": 1.24723,
    "l": 1.24669,
    "c": 1.24678,
    "v": 2014
  },
  {
    "dt": "2023.05.02 22:00",
    "o": 1.2468,
    "h": 1.24764,
    "l": 1.2467,
    "c": 1.24741,
    "v": 1700
  },
  {
    "dt": "2023.05.02 23:00",
    "o": 1.24743,
    "h": 1.2475,
    "l": 1.24651,
    "c": 1.24665,
    "v": 858
  },
  {
    "dt": "2023.05.03 00:00",
    "o": 1.24613,
    "h": 1.24693,
    "l": 1.24613,
    "c": 1.24661,
    "v": 206
  },
  {
    "dt": "2023.05.03 01:00",
    "o": 1.24687,
    "h": 1.24707,
    "l": 1.24666,
    "c": 1.24706,
    "v": 1150
  },
  {
    "dt": "2023.05.03 02:00",
    "o": 1.24702,
    "h": 1.24766,
    "l": 1.2469,
    "c": 1.24757,
    "v": 1301
  },
  {
    "dt": "2023.05.03 03:00",
    "o": 1.24765,
    "h": 1.24827,
    "l": 1.24668,
    "c": 1.24811,
    "v": 1952
  },
  {
    "dt": "2023.05.03 04:00",
    "o": 1.24809,
    "h": 1.24883,
    "l": 1.24755,
    "c": 1.24858,
    "v": 2217
  },
  {
    "dt": "2023.05.03 05:00",
    "o": 1.24861,
    "h": 1.24884,
    "l": 1.24804,
    "c": 1.24876,
    "v": 1983
  },
  {
    "dt": "2023.05.03 06:00",
    "o": 1.24877,
    "h": 1.24926,
    "l": 1.2486,
    "c": 1.24916,
    "v": 1461
  },
  {
    "dt": "2023.05.03 07:00",
    "o": 1.24915,
    "h": 1.24916,
    "l": 1.24859,
    "c": 1.24865,
    "v": 1681
  },
  {
    "dt": "2023.05.03 08:00",
    "o": 1.2487,
    "h": 1.24912,
    "l": 1.24859,
    "c": 1.24888,
    "v": 1464
  },
  {
    "dt": "2023.05.03 09:00",
    "o": 1.24887,
    "h": 1.25034,
    "l": 1.24804,
    "c": 1.25017,
    "v": 2375
  },
  {
    "dt": "2023.05.03 10:00",
    "o": 1.25024,
    "h": 1.25219,
    "l": 1.25004,
    "c": 1.25102,
    "v": 3023
  },
  {
    "dt": "2023.05.03 11:00",
    "o": 1.25102,
    "h": 1.25326,
    "l": 1.251,
    "c": 1.252,
    "v": 3052
  },
  {
    "dt": "2023.05.03 12:00",
    "o": 1.25198,
    "h": 1.25237,
    "l": 1.2506,
    "c": 1.25161,
    "v": 2787
  },
  {
    "dt": "2023.05.03 13:00",
    "o": 1.2516,
    "h": 1.25189,
    "l": 1.25018,
    "c": 1.2504,
    "v": 2531
  },
  {
    "dt": "2023.05.03 14:00",
    "o": 1.25041,
    "h": 1.25272,
    "l": 1.25006,
    "c": 1.2501,
    "v": 2720
  },
  {
    "dt": "2023.05.03 15:00",
    "o": 1.25012,
    "h": 1.25113,
    "l": 1.24851,
    "c": 1.24961,
    "v": 3590
  },
  {
    "dt": "2023.05.03 16:00",
    "o": 1.24962,
    "h": 1.25131,
    "l": 1.24938,
    "c": 1.25039,
    "v": 3245
  },
  {
    "dt": "2023.05.03 17:00",
    "o": 1.25036,
    "h": 1.2533,
    "l": 1.25023,
    "c": 1.25312,
    "v": 3804
  },
  {
    "dt": "2023.05.03 18:00",
    "o": 1.25311,
    "h": 1.25522,
    "l": 1.25279,
    "c": 1.25439,
    "v": 3066
  },
  {
    "dt": "2023.05.03 19:00",
    "o": 1.25439,
    "h": 1.25541,
    "l": 1.2542,
    "c": 1.255,
    "v": 2428
  },
  {
    "dt": "2023.05.03 20:00",
    "o": 1.255,
    "h": 1.25632,
    "l": 1.25443,
    "c": 1.25539,
    "v": 2263
  },
  {
    "dt": "2023.05.03 21:00",
    "o": 1.25536,
    "h": 1.25892,
    "l": 1.25368,
    "c": 1.25629,
    "v": 5379
  },
  {
    "dt": "2023.05.03 22:00",
    "o": 1.25623,
    "h": 1.25624,
    "l": 1.25379,
    "c": 1.25509,
    "v": 4680
  },
  {
    "dt": "2023.05.03 23:00",
    "o": 1.25508,
    "h": 1.25663,
    "l": 1.25502,
    "c": 1.25645,
    "v": 1596
  },
  {
    "dt": "2023.05.04 00:00",
    "o": 1.25506,
    "h": 1.25668,
    "l": 1.25506,
    "c": 1.25655,
    "v": 325
  },
  {
    "dt": "2023.05.04 01:00",
    "o": 1.25653,
    "h": 1.2576,
    "l": 1.256,
    "c": 1.25642,
    "v": 2171
  },
  {
    "dt": "2023.05.04 02:00",
    "o": 1.2564,
    "h": 1.25709,
    "l": 1.25612,
    "c": 1.25676,
    "v": 2259
  },
  {
    "dt": "2023.05.04 03:00",
    "o": 1.25675,
    "h": 1.25909,
    "l": 1.2566,
    "c": 1.2576,
    "v": 2485
  },
  {
    "dt": "2023.05.04 04:00",
    "o": 1.2576,
    "h": 1.25895,
    "l": 1.25712,
    "c": 1.25834,
    "v": 2897
  },
  {
    "dt": "2023.05.04 05:00",
    "o": 1.25833,
    "h": 1.25891,
    "l": 1.25826,
    "c": 1.25861,
    "v": 2163
  },
  {
    "dt": "2023.05.04 06:00",
    "o": 1.25862,
    "h": 1.25889,
    "l": 1.25806,
    "c": 1.25825,
    "v": 1802
  },
  {
    "dt": "2023.05.04 07:00",
    "o": 1.25826,
    "h": 1.25893,
    "l": 1.25807,
    "c": 1.25817,
    "v": 1759
  },
  {
    "dt": "2023.05.04 08:00",
    "o": 1.25816,
    "h": 1.25895,
    "l": 1.25803,
    "c": 1.2585,
    "v": 1961
  },
  {
    "dt": "2023.05.04 09:00",
    "o": 1.25844,
    "h": 1.25923,
    "l": 1.25665,
    "c": 1.25718,
    "v": 3418
  },
  {
    "dt": "2023.05.04 10:00",
    "o": 1.25718,
    "h": 1.25788,
    "l": 1.25589,
    "c": 1.25688,
    "v": 3533
  },
  {
    "dt": "2023.05.04 11:00",
    "o": 1.25691,
    "h": 1.25697,
    "l": 1.2555,
    "c": 1.25571,
    "v": 3573
  },
  {
    "dt": "2023.05.04 12:00",
    "o": 1.25573,
    "h": 1.25772,
    "l": 1.25515,
    "c": 1.2571,
    "v": 3140
  },
  {
    "dt": "2023.05.04 13:00",
    "o": 1.25709,
    "h": 1.25783,
    "l": 1.25614,
    "c": 1.2569,
    "v": 3122
  },
  {
    "dt": "2023.05.04 14:00",
    "o": 1.25686,
    "h": 1.2585,
    "l": 1.25669,
    "c": 1.25841,
    "v": 3096
  },
  {
    "dt": "2023.05.04 15:00",
    "o": 1.25845,
    "h": 1.25848,
    "l": 1.25478,
    "c": 1.25506,
    "v": 4800
  },
  {
    "dt": "2023.05.04 16:00",
    "o": 1.25505,
    "h": 1.25747,
    "l": 1.25468,
    "c": 1.25716,
    "v": 4871
  },
  {
    "dt": "2023.05.04 17:00",
    "o": 1.25721,
    "h": 1.25975,
    "l": 1.25584,
    "c": 1.25703,
    "v": 5043
  },
  {
    "dt": "2023.05.04 18:00",
    "o": 1.25705,
    "h": 1.25809,
    "l": 1.25597,
    "c": 1.25761,
    "v": 4121
  },
  {
    "dt": "2023.05.04 19:00",
    "o": 1.25763,
    "h": 1.25976,
    "l": 1.2576,
    "c": 1.25945,
    "v": 3231
  },
  {
    "dt": "2023.05.04 20:00",
    "o": 1.25943,
    "h": 1.25964,
    "l": 1.25867,
    "c": 1.25879,
    "v": 2969
  },
  {
    "dt": "2023.05.04 21:00",
    "o": 1.25879,
    "h": 1.25882,
    "l": 1.25722,
    "c": 1.25779,
    "v": 2620
  },
  {
    "dt": "2023.05.04 22:00",
    "o": 1.25778,
    "h": 1.25812,
    "l": 1.25719,
    "c": 1.25726,
    "v": 2238
  },
  {
    "dt": "2023.05.04 23:00",
    "o": 1.25725,
    "h": 1.25736,
    "l": 1.25686,
    "c": 1.25714,
    "v": 1251
  },
  {
    "dt": "2023.05.05 00:00",
    "o": 1.25688,
    "h": 1.25741,
    "l": 1.25674,
    "c": 1.25709,
    "v": 173
  },
  {
    "dt": "2023.05.05 01:00",
    "o": 1.25704,
    "h": 1.25811,
    "l": 1.25691,
    "c": 1.25807,
    "v": 1172
  },
  {
    "dt": "2023.05.05 02:00",
    "o": 1.25812,
    "h": 1.25835,
    "l": 1.25756,
    "c": 1.25819,
    "v": 1265
  },
  {
    "dt": "2023.05.05 03:00",
    "o": 1.25823,
    "h": 1.25862,
    "l": 1.25756,
    "c": 1.25836,
    "v": 1826
  },
  {
    "dt": "2023.05.05 04:00",
    "o": 1.25842,
    "h": 1.25962,
    "l": 1.25837,
    "c": 1.25902,
    "v": 2312
  },
  {
    "dt": "2023.05.05 05:00",
    "o": 1.25903,
    "h": 1.25913,
    "l": 1.25812,
    "c": 1.25888,
    "v": 2055
  },
  {
    "dt": "2023.05.05 06:00",
    "o": 1.25889,
    "h": 1.26132,
    "l": 1.25885,
    "c": 1.26089,
    "v": 1920
  },
  {
    "dt": "2023.05.05 07:00",
    "o": 1.26091,
    "h": 1.26104,
    "l": 1.26049,
    "c": 1.26057,
    "v": 1186
  },
  {
    "dt": "2023.05.05 08:00",
    "o": 1.26059,
    "h": 1.26104,
    "l": 1.25989,
    "c": 1.26005,
    "v": 1837
  },
  {
    "dt": "2023.05.05 09:00",
    "o": 1.26008,
    "h": 1.2633,
    "l": 1.25959,
    "c": 1.26282,
    "v": 2672
  },
  {
    "dt": "2023.05.05 10:00",
    "o": 1.26283,
    "h": 1.26299,
    "l": 1.26059,
    "c": 1.26092,
    "v": 3126
  },
  {
    "dt": "2023.05.05 11:00",
    "o": 1.26094,
    "h": 1.26106,
    "l": 1.2598,
    "c": 1.2607,
    "v": 2633
  },
  {
    "dt": "2023.05.05 12:00",
    "o": 1.26068,
    "h": 1.2609,
    "l": 1.25992,
    "c": 1.26057,
    "v": 2456
  },
  {
    "dt": "2023.05.05 13:00",
    "o": 1.2606,
    "h": 1.2615,
    "l": 1.26048,
    "c": 1.26135,
    "v": 2090
  },
  {
    "dt": "2023.05.05 14:00",
    "o": 1.26137,
    "h": 1.26166,
    "l": 1.25992,
    "c": 1.26036,
    "v": 2209
  },
  {
    "dt": "2023.05.05 15:00",
    "o": 1.26036,
    "h": 1.26077,
    "l": 1.25565,
    "c": 1.25682,
    "v": 4131
  },
  {
    "dt": "2023.05.05 16:00",
    "o": 1.25682,
    "h": 1.25972,
    "l": 1.25673,
    "c": 1.2596,
    "v": 4483
  },
  {
    "dt": "2023.05.05 17:00",
    "o": 1.25957,
    "h": 1.26197,
    "l": 1.2592,
    "c": 1.26156,
    "v": 3896
  },
  {
    "dt": "2023.05.05 18:00",
    "o": 1.26155,
    "h": 1.26511,
    "l": 1.26142,
    "c": 1.26468,
    "v": 3379
  },
  {
    "dt": "2023.05.05 19:00",
    "o": 1.26473,
    "h": 1.2651,
    "l": 1.26385,
    "c": 1.26463,
    "v": 2655
  },
  {
    "dt": "2023.05.05 20:00",
    "o": 1.26463,
    "h": 1.26463,
    "l": 1.26307,
    "c": 1.26331,
    "v": 2257
  },
  {
    "dt": "2023.05.05 21:00",
    "o": 1.26332,
    "h": 1.26424,
    "l": 1.26268,
    "c": 1.26407,
    "v": 2130
  },
  {
    "dt": "2023.05.05 22:00",
    "o": 1.26407,
    "h": 1.26407,
    "l": 1.26329,
    "c": 1.26339,
    "v": 1961
  },
  {
    "dt": "2023.05.05 23:00",
    "o": 1.26341,
    "h": 1.26352,
    "l": 1.26294,
    "c": 1.26299,
    "v": 1389
  },
  {
    "dt": "2023.05.08 00:00",
    "o": 1.26288,
    "h": 1.26323,
    "l": 1.26268,
    "c": 1.26292,
    "v": 94
  },
  {
    "dt": "2023.05.08 01:00",
    "o": 1.26284,
    "h": 1.26348,
    "l": 1.26241,
    "c": 1.26274,
    "v": 1156
  },
  {
    "dt": "2023.05.08 02:00",
    "o": 1.26278,
    "h": 1.26319,
    "l": 1.26249,
    "c": 1.26291,
    "v": 1439
  },
  {
    "dt": "2023.05.08 03:00",
    "o": 1.26289,
    "h": 1.2636,
    "l": 1.26272,
    "c": 1.26336,
    "v": 1957
  },
  {
    "dt": "2023.05.08 04:00",
    "o": 1.26336,
    "h": 1.264,
    "l": 1.26254,
    "c": 1.26382,
    "v": 2141
  },
  {
    "dt": "2023.05.08 05:00",
    "o": 1.26386,
    "h": 1.26456,
    "l": 1.26353,
    "c": 1.26411,
    "v": 1823
  },
  {
    "dt": "2023.05.08 06:00",
    "o": 1.26412,
    "h": 1.26461,
    "l": 1.26397,
    "c": 1.26453,
    "v": 1674
  },
  {
    "dt": "2023.05.08 07:00",
    "o": 1.26454,
    "h": 1.2653,
    "l": 1.26443,
    "c": 1.2651,
    "v": 1330
  },
  {
    "dt": "2023.05.08 08:00",
    "o": 1.26513,
    "h": 1.26522,
    "l": 1.2642,
    "c": 1.26472,
    "v": 1498
  },
  {
    "dt": "2023.05.08 09:00",
    "o": 1.26473,
    "h": 1.26568,
    "l": 1.26453,
    "c": 1.26506,
    "v": 2018
  },
  {
    "dt": "2023.05.08 10:00",
    "o": 1.26504,
    "h": 1.26535,
    "l": 1.26305,
    "c": 1.26364,
    "v": 2584
  },
  {
    "dt": "2023.05.08 11:00",
    "o": 1.26362,
    "h": 1.26511,
    "l": 1.26344,
    "c": 1.26364,
    "v": 2584
  },
  {
    "dt": "2023.05.08 12:00",
    "o": 1.26365,
    "h": 1.26441,
    "l": 1.26307,
    "c": 1.26412,
    "v": 2170
  },
  {
    "dt": "2023.05.08 13:00",
    "o": 1.26421,
    "h": 1.26678,
    "l": 1.26405,
    "c": 1.26625,
    "v": 2046
  },
  {
    "dt": "2023.05.08 14:00",
    "o": 1.26628,
    "h": 1.26669,
    "l": 1.26453,
    "c": 1.26492,
    "v": 2129
  },
  {
    "dt": "2023.05.08 15:00",
    "o": 1.26493,
    "h": 1.26542,
    "l": 1.26434,
    "c": 1.26459,
    "v": 2523
  },
  {
    "dt": "2023.05.08 16:00",
    "o": 1.2646,
    "h": 1.26542,
    "l": 1.26431,
    "c": 1.26512,
    "v": 2835
  },
  {
    "dt": "2023.05.08 17:00",
    "o": 1.26518,
    "h": 1.26542,
    "l": 1.26267,
    "c": 1.2631,
    "v": 3056
  },
  {
    "dt": "2023.05.08 18:00",
    "o": 1.2631,
    "h": 1.2637,
    "l": 1.26256,
    "c": 1.26303,
    "v": 2353
  },
  {
    "dt": "2023.05.08 19:00",
    "o": 1.26304,
    "h": 1.26388,
    "l": 1.2629,
    "c": 1.26382,
    "v": 1917
  },
  {
    "dt": "2023.05.08 20:00",
    "o": 1.2639,
    "h": 1.26434,
    "l": 1.26284,
    "c": 1.2631,
    "v": 1496
  },
  {
    "dt": "2023.05.08 21:00",
    "o": 1.2631,
    "h": 1.2631,
    "l": 1.26152,
    "c": 1.26174,
    "v": 2246
  },
  {
    "dt": "2023.05.08 22:00",
    "o": 1.26172,
    "h": 1.26177,
    "l": 1.26119,
    "c": 1.26145,
    "v": 1764
  },
  {
    "dt": "2023.05.08 23:00",
    "o": 1.26147,
    "h": 1.26188,
    "l": 1.26134,
    "c": 1.26178,
    "v": 865
  },
  {
    "dt": "2023.05.09 00:00",
    "o": 1.26158,
    "h": 1.26199,
    "l": 1.26129,
    "c": 1.26156,
    "v": 233
  },
  {
    "dt": "2023.05.09 01:00",
    "o": 1.26172,
    "h": 1.26185,
    "l": 1.26139,
    "c": 1.26156,
    "v": 994
  },
  {
    "dt": "2023.05.09 02:00",
    "o": 1.26158,
    "h": 1.26175,
    "l": 1.26096,
    "c": 1.26115,
    "v": 1037
  },
  {
    "dt": "2023.05.09 03:00",
    "o": 1.26115,
    "h": 1.26126,
    "l": 1.26029,
    "c": 1.26084,
    "v": 2106
  },
  {
    "dt": "2023.05.09 04:00",
    "o": 1.26084,
    "h": 1.26154,
    "l": 1.26066,
    "c": 1.26074,
    "v": 1895
  },
  {
    "dt": "2023.05.09 05:00",
    "o": 1.26074,
    "h": 1.26148,
    "l": 1.26041,
    "c": 1.26114,
    "v": 1490
  },
  {
    "dt": "2023.05.09 06:00",
    "o": 1.26115,
    "h": 1.26167,
    "l": 1.26081,
    "c": 1.26162,
    "v": 1374
  },
  {
    "dt": "2023.05.09 07:00",
    "o": 1.26163,
    "h": 1.26177,
    "l": 1.26107,
    "c": 1.26121,
    "v": 1432
  },
  {
    "dt": "2023.05.09 08:00",
    "o": 1.26122,
    "h": 1.26163,
    "l": 1.26076,
    "c": 1.26139,
    "v": 1866
  },
  {
    "dt": "2023.05.09 09:00",
    "o": 1.26142,
    "h": 1.26386,
    "l": 1.26112,
    "c": 1.26337,
    "v": 2679
  },
  {
    "dt": "2023.05.09 10:00",
    "o": 1.26341,
    "h": 1.26353,
    "l": 1.25963,
    "c": 1.26013,
    "v": 3331
  },
  {
    "dt": "2023.05.09 11:00",
    "o": 1.26011,
    "h": 1.26156,
    "l": 1.25957,
    "c": 1.26077,
    "v": 3135
  },
  {
    "dt": "2023.05.09 12:00",
    "o": 1.26075,
    "h": 1.26241,
    "l": 1.26075,
    "c": 1.26237,
    "v": 2786
  },
  {
    "dt": "2023.05.09 13:00",
    "o": 1.26239,
    "h": 1.26242,
    "l": 1.26146,
    "c": 1.26179,
    "v": 2064
  },
  {
    "dt": "2023.05.09 14:00",
    "o": 1.26181,
    "h": 1.2622,
    "l": 1.25961,
    "c": 1.26,
    "v": 2442
  },
  {
    "dt": "2023.05.09 15:00",
    "o": 1.26,
    "h": 1.2602,
    "l": 1.25844,
    "c": 1.25853,
    "v": 3181
  },
  {
    "dt": "2023.05.09 16:00",
    "o": 1.25848,
    "h": 1.26098,
    "l": 1.25772,
    "c": 1.26076,
    "v": 3660
  },
  {
    "dt": "2023.05.09 17:00",
    "o": 1.26083,
    "h": 1.26187,
    "l": 1.2598,
    "c": 1.2615,
    "v": 3283
  },
  {
    "dt": "2023.05.09 18:00",
    "o": 1.26152,
    "h": 1.26203,
    "l": 1.26091,
    "c": 1.26167,
    "v": 2613
  },
  {
    "dt": "2023.05.09 19:00",
    "o": 1.26166,
    "h": 1.26223,
    "l": 1.26064,
    "c": 1.26101,
    "v": 2319
  },
  {
    "dt": "2023.05.09 20:00",
    "o": 1.26103,
    "h": 1.26253,
    "l": 1.2609,
    "c": 1.26247,
    "v": 2201
  },
  {
    "dt": "2023.05.09 21:00",
    "o": 1.26252,
    "h": 1.26281,
    "l": 1.2619,
    "c": 1.26217,
    "v": 2139
  },
  {
    "dt": "2023.05.09 22:00",
    "o": 1.26217,
    "h": 1.26229,
    "l": 1.26182,
    "c": 1.2619,
    "v": 1773
  },
  {
    "dt": "2023.05.09 23:00",
    "o": 1.26191,
    "h": 1.26228,
    "l": 1.26189,
    "c": 1.26199,
    "v": 822
  },
  {
    "dt": "2023.05.10 00:00",
    "o": 1.2616,
    "h": 1.26221,
    "l": 1.26141,
    "c": 1.2615,
    "v": 225
  },
  {
    "dt": "2023.05.10 01:00",
    "o": 1.2617,
    "h": 1.26255,
    "l": 1.26132,
    "c": 1.26222,
    "v": 1021
  },
  {
    "dt": "2023.05.10 02:00",
    "o": 1.26224,
    "h": 1.26269,
    "l": 1.26221,
    "c": 1.26232,
    "v": 986
  },
  {
    "dt": "2023.05.10 03:00",
    "o": 1.26232,
    "h": 1.26309,
    "l": 1.26223,
    "c": 1.26273,
    "v": 1639
  },
  {
    "dt": "2023.05.10 04:00",
    "o": 1.26277,
    "h": 1.26339,
    "l": 1.26257,
    "c": 1.26274,
    "v": 1836
  },
  {
    "dt": "2023.05.10 05:00",
    "o": 1.26279,
    "h": 1.26291,
    "l": 1.26247,
    "c": 1.26267,
    "v": 1465
  },
  {
    "dt": "2023.05.10 06:00",
    "o": 1.26271,
    "h": 1.26306,
    "l": 1.2625,
    "c": 1.26293,
    "v": 1096
  },
  {
    "dt": "2023.05.10 07:00",
    "o": 1.26295,
    "h": 1.26295,
    "l": 1.26197,
    "c": 1.26208,
    "v": 1344
  },
  {
    "dt": "2023.05.10 08:00",
    "o": 1.262,
    "h": 1.26222,
    "l": 1.26105,
    "c": 1.26176,
    "v": 1520
  },
  {
    "dt": "2023.05.10 09:00",
    "o": 1.26177,
    "h": 1.2631,
    "l": 1.26172,
    "c": 1.26247,
    "v": 2099
  },
  {
    "dt": "2023.05.10 10:00",
    "o": 1.26256,
    "h": 1.26437,
    "l": 1.26188,
    "c": 1.26218,
    "v": 2702
  },
  {
    "dt": "2023.05.10 11:00",
    "o": 1.26217,
    "h": 1.26329,
    "l": 1.26128,
    "c": 1.26213,
    "v": 3047
  },
  {
    "dt": "2023.05.10 12:00",
    "o": 1.26213,
    "h": 1.26251,
    "l": 1.26134,
    "c": 1.26217,
    "v": 2256
  },
  {
    "dt": "2023.05.10 13:00",
    "o": 1.26219,
    "h": 1.26272,
    "l": 1.26093,
    "c": 1.26094,
    "v": 2215
  },
  {
    "dt": "2023.05.10 14:00",
    "o": 1.26094,
    "h": 1.26106,
    "l": 1.26013,
    "c": 1.26066,
    "v": 2173
  },
  {
    "dt": "2023.05.10 15:00",
    "o": 1.26067,
    "h": 1.26791,
    "l": 1.26031,
    "c": 1.26722,
    "v": 3985
  },
  {
    "dt": "2023.05.10 16:00",
    "o": 1.26724,
    "h": 1.26764,
    "l": 1.26212,
    "c": 1.26368,
    "v": 4059
  },
  {
    "dt": "2023.05.10 17:00",
    "o": 1.26368,
    "h": 1.26524,
    "l": 1.26067,
    "c": 1.26171,
    "v": 4141
  },
  {
    "dt": "2023.05.10 18:00",
    "o": 1.26171,
    "h": 1.2624,
    "l": 1.26098,
    "c": 1.2611,
    "v": 2825
  },
  {
    "dt": "2023.05.10 19:00",
    "o": 1.2611,
    "h": 1.26258,
    "l": 1.2608,
    "c": 1.26193,
    "v": 2071
  },
  {
    "dt": "2023.05.10 20:00",
    "o": 1.26194,
    "h": 1.26204,
    "l": 1.26054,
    "c": 1.26135,
    "v": 2685
  },
  {
    "dt": "2023.05.10 21:00",
    "o": 1.26135,
    "h": 1.26293,
    "l": 1.26129,
    "c": 1.26215,
    "v": 2439
  },
  {
    "dt": "2023.05.10 22:00",
    "o": 1.26217,
    "h": 1.26304,
    "l": 1.26195,
    "c": 1.2625,
    "v": 1979
  },
  {
    "dt": "2023.05.10 23:00",
    "o": 1.2625,
    "h": 1.26283,
    "l": 1.26237,
    "c": 1.26238,
    "v": 830
  },
  {
    "dt": "2023.05.11 00:00",
    "o": 1.26163,
    "h": 1.26247,
    "l": 1.26163,
    "c": 1.26227,
    "v": 460
  },
  {
    "dt": "2023.05.11 01:00",
    "o": 1.26225,
    "h": 1.2627,
    "l": 1.26225,
    "c": 1.26264,
    "v": 590
  },
  {
    "dt": "2023.05.11 02:00",
    "o": 1.26267,
    "h": 1.2629,
    "l": 1.26241,
    "c": 1.26247,
    "v": 1126
  },
  {
    "dt": "2023.05.11 03:00",
    "o": 1.26248,
    "h": 1.26363,
    "l": 1.26241,
    "c": 1.26361,
    "v": 1836
  },
  {
    "dt": "2023.05.11 04:00",
    "o": 1.26361,
    "h": 1.26398,
    "l": 1.26278,
    "c": 1.26286,
    "v": 2078
  },
  {
    "dt": "2023.05.11 05:00",
    "o": 1.26285,
    "h": 1.26296,
    "l": 1.26203,
    "c": 1.26205,
    "v": 1946
  },
  {
    "dt": "2023.05.11 06:00",
    "o": 1.26206,
    "h": 1.26244,
    "l": 1.26163,
    "c": 1.26167,
    "v": 1775
  },
  {
    "dt": "2023.05.11 07:00",
    "o": 1.26168,
    "h": 1.26178,
    "l": 1.26124,
    "c": 1.26169,
    "v": 1444
  },
  {
    "dt": "2023.05.11 08:00",
    "o": 1.26169,
    "h": 1.26231,
    "l": 1.26156,
    "c": 1.26217,
    "v": 1788
  },
  {
    "dt": "2023.05.11 09:00",
    "o": 1.2622,
    "h": 1.2624,
    "l": 1.25886,
    "c": 1.25892,
    "v": 2809
  },
  {
    "dt": "2023.05.11 10:00",
    "o": 1.25904,
    "h": 1.25954,
    "l": 1.25644,
    "c": 1.25652,
    "v": 3521
  },
  {
    "dt": "2023.05.11 11:00",
    "o": 1.25651,
    "h": 1.25836,
    "l": 1.25649,
    "c": 1.25825,
    "v": 3305
  },
  {
    "dt": "2023.05.11 12:00",
    "o": 1.25826,
    "h": 1.25905,
    "l": 1.25772,
    "c": 1.25871,
    "v": 2458
  },
  {
    "dt": "2023.05.11 13:00",
    "o": 1.25871,
    "h": 1.25914,
    "l": 1.2567,
    "c": 1.25701,
    "v": 2375
  },
  {
    "dt": "2023.05.11 14:00",
    "o": 1.25692,
    "h": 1.2614,
    "l": 1.25692,
    "c": 1.2585,
    "v": 4099
  },
  {
    "dt": "2023.05.11 15:00",
    "o": 1.25851,
    "h": 1.261,
    "l": 1.25807,
    "c": 1.25848,
    "v": 4255
  },
  {
    "dt": "2023.05.11 16:00",
    "o": 1.25841,
    "h": 1.25848,
    "l": 1.25072,
    "c": 1.25076,
    "v": 4585
  },
  {
    "dt": "2023.05.11 17:00",
    "o": 1.2508,
    "h": 1.25263,
    "l": 1.25013,
    "c": 1.25231,
    "v": 3904
  },
  {
    "dt": "2023.05.11 18:00",
    "o": 1.25228,
    "h": 1.2524,
    "l": 1.24954,
    "c": 1.24992,
    "v": 2893
  },
  {
    "dt": "2023.05.11 19:00",
    "o": 1.24989,
    "h": 1.25172,
    "l": 1.24987,
    "c": 1.25121,
    "v": 2266
  },
  {
    "dt": "2023.05.11 20:00",
    "o": 1.25121,
    "h": 1.25144,
    "l": 1.2504,
    "c": 1.25064,
    "v": 2045
  },
  {
    "dt": "2023.05.11 21:00",
    "o": 1.25065,
    "h": 1.2511,
    "l": 1.25049,
    "c": 1.25109,
    "v": 1729
  },
  {
    "dt": "2023.05.11 22:00",
    "o": 1.25112,
    "h": 1.25157,
    "l": 1.25094,
    "c": 1.2511,
    "v": 1725
  },
  {
    "dt": "2023.05.11 23:00",
    "o": 1.25112,
    "h": 1.25132,
    "l": 1.25104,
    "c": 1.25112,
    "v": 781
  },
  {
    "dt": "2023.05.12 00:00",
    "o": 1.25105,
    "h": 1.25134,
    "l": 1.2507,
    "c": 1.251,
    "v": 275
  },
  {
    "dt": "2023.05.12 01:00",
    "o": 1.25118,
    "h": 1.25137,
    "l": 1.25103,
    "c": 1.25116,
    "v": 754
  },
  {
    "dt": "2023.05.12 02:00",
    "o": 1.25115,
    "h": 1.25116,
    "l": 1.2506,
    "c": 1.25066,
    "v": 786
  },
  {
    "dt": "2023.05.12 03:00",
    "o": 1.25068,
    "h": 1.25171,
    "l": 1.25067,
    "c": 1.25171,
    "v": 1941
  },
  {
    "dt": "2023.05.12 04:00",
    "o": 1.25169,
    "h": 1.25174,
    "l": 1.25098,
    "c": 1.2516,
    "v": 1983
  },
  {
    "dt": "2023.05.12 05:00",
    "o": 1.25161,
    "h": 1.25161,
    "l": 1.25095,
    "c": 1.25102,
    "v": 1754
  },
  {
    "dt": "2023.05.12 06:00",
    "o": 1.25103,
    "h": 1.2521,
    "l": 1.25074,
    "c": 1.25209,
    "v": 1430
  },
  {
    "dt": "2023.05.12 07:00",
    "o": 1.25208,
    "h": 1.25259,
    "l": 1.25196,
    "c": 1.25237,
    "v": 1495
  },
  {
    "dt": "2023.05.12 08:00",
    "o": 1.25237,
    "h": 1.25259,
    "l": 1.25153,
    "c": 1.25166,
    "v": 1737
  },
  {
    "dt": "2023.05.12 09:00",
    "o": 1.25154,
    "h": 1.25329,
    "l": 1.2505,
    "c": 1.25259,
    "v": 2775
  },
  {
    "dt": "2023.05.12 10:00",
    "o": 1.25253,
    "h": 1.25395,
    "l": 1.25121,
    "c": 1.25165,
    "v": 3114
  },
  {
    "dt": "2023.05.12 11:00",
    "o": 1.25163,
    "h": 1.25339,
    "l": 1.2515,
    "c": 1.25315,
    "v": 2705
  },
  {
    "dt": "2023.05.12 12:00",
    "o": 1.25316,
    "h": 1.25353,
    "l": 1.25134,
    "c": 1.25273,
    "v": 2517
  },
  {
    "dt": "2023.05.12 13:00",
    "o": 1.25277,
    "h": 1.254,
    "l": 1.25215,
    "c": 1.25341,
    "v": 2324
  },
  {
    "dt": "2023.05.12 14:00",
    "o": 1.25324,
    "h": 1.2538,
    "l": 1.25174,
    "c": 1.25188,
    "v": 2391
  },
  {
    "dt": "2023.05.12 15:00",
    "o": 1.25186,
    "h": 1.25196,
    "l": 1.2491,
    "c": 1.25046,
    "v": 3048
  },
  {
    "dt": "2023.05.12 16:00",
    "o": 1.25045,
    "h": 1.2519,
    "l": 1.2495,
    "c": 1.25096,
    "v": 3419
  },
  {
    "dt": "2023.05.12 17:00",
    "o": 1.2497,
    "h": 1.25185,
    "l": 1.24682,
    "c": 1.24695,
    "v": 4044
  },
  {
    "dt": "2023.05.12 18:00",
    "o": 1.24696,
    "h": 1.24776,
    "l": 1.24576,
    "c": 1.24616,
    "v": 2891
  },
  {
    "dt": "2023.05.12 19:00",
    "o": 1.24613,
    "h": 1.24617,
    "l": 1.24479,
    "c": 1.24506,
    "v": 1915
  },
  {
    "dt": "2023.05.12 20:00",
    "o": 1.24503,
    "h": 1.24583,
    "l": 1.24478,
    "c": 1.24544,
    "v": 1965
  },
  {
    "dt": "2023.05.12 21:00",
    "o": 1.24543,
    "h": 1.24543,
    "l": 1.24437,
    "c": 1.2447,
    "v": 1669
  },
  {
    "dt": "2023.05.12 22:00",
    "o": 1.2447,
    "h": 1.24514,
    "l": 1.24465,
    "c": 1.24502,
    "v": 1582
  },
  {
    "dt": "2023.05.12 23:00",
    "o": 1.24503,
    "h": 1.24513,
    "l": 1.24444,
    "c": 1.24467,
    "v": 1170
  },
  {
    "dt": "2023.05.15 00:00",
    "o": 1.24567,
    "h": 1.24573,
    "l": 1.24463,
    "c": 1.24491,
    "v": 113
  },
  {
    "dt": "2023.05.15 01:00",
    "o": 1.24501,
    "h": 1.24501,
    "l": 1.24433,
    "c": 1.24473,
    "v": 790
  },
  {
    "dt": "2023.05.15 02:00",
    "o": 1.24474,
    "h": 1.24509,
    "l": 1.24448,
    "c": 1.245,
    "v": 1048
  },
  {
    "dt": "2023.05.15 03:00",
    "o": 1.24498,
    "h": 1.24531,
    "l": 1.24441,
    "c": 1.24494,
    "v": 1540
  },
  {
    "dt": "2023.05.15 04:00",
    "o": 1.24503,
    "h": 1.24652,
    "l": 1.24492,
    "c": 1.24641,
    "v": 2273
  },
  {
    "dt": "2023.05.15 05:00",
    "o": 1.24641,
    "h": 1.24643,
    "l": 1.24515,
    "c": 1.24517,
    "v": 1920
  },
  {
    "dt": "2023.05.15 06:00",
    "o": 1.24516,
    "h": 1.24617,
    "l": 1.24506,
    "c": 1.24563,
    "v": 1794
  },
  {
    "dt": "2023.05.15 07:00",
    "o": 1.24566,
    "h": 1.24621,
    "l": 1.24523,
    "c": 1.24621,
    "v": 1265
  },
  {
    "dt": "2023.05.15 08:00",
    "o": 1.24618,
    "h": 1.24708,
    "l": 1.2461,
    "c": 1.24694,
    "v": 1832
  },
  {
    "dt": "2023.05.15 09:00",
    "o": 1.24694,
    "h": 1.24779,
    "l": 1.2463,
    "c": 1.24718,
    "v": 2141
  },
  {
    "dt": "2023.05.15 10:00",
    "o": 1.24718,
    "h": 1.24895,
    "l": 1.24717,
    "c": 1.24808,
    "v": 2414
  },
  {
    "dt": "2023.05.15 11:00",
    "o": 1.24805,
    "h": 1.24877,
    "l": 1.24763,
    "c": 1.24876,
    "v": 2277
  },
  {
    "dt": "2023.05.15 12:00",
    "o": 1.24877,
    "h": 1.24968,
    "l": 1.24753,
    "c": 1.24934,
    "v": 2394
  },
  {
    "dt": "2023.05.15 13:00",
    "o": 1.2493,
    "h": 1.25067,
    "l": 1.24867,
    "c": 1.25056,
    "v": 2197
  },
  {
    "dt": "2023.05.15 14:00",
    "o": 1.25055,
    "h": 1.25137,
    "l": 1.25007,
    "c": 1.25097,
    "v": 2299
  },
  {
    "dt": "2023.05.15 15:00",
    "o": 1.25095,
    "h": 1.25199,
    "l": 1.25027,
    "c": 1.25066,
    "v": 3097
  },
  {
    "dt": "2023.05.15 16:00",
    "o": 1.25062,
    "h": 1.25189,
    "l": 1.25023,
    "c": 1.2517,
    "v": 3150
  },
  {
    "dt": "2023.05.15 17:00",
    "o": 1.2517,
    "h": 1.25202,
    "l": 1.25026,
    "c": 1.25086,
    "v": 3001
  },
  {
    "dt": "2023.05.15 18:00",
    "o": 1.25088,
    "h": 1.25245,
    "l": 1.2508,
    "c": 1.25232,
    "v": 2377
  },
  {
    "dt": "2023.05.15 19:00",
    "o": 1.25232,
    "h": 1.25324,
    "l": 1.25183,
    "c": 1.25324,
    "v": 1734
  },
  {
    "dt": "2023.05.15 20:00",
    "o": 1.25323,
    "h": 1.25338,
    "l": 1.25237,
    "c": 1.25282,
    "v": 1664
  },
  {
    "dt": "2023.05.15 21:00",
    "o": 1.25282,
    "h": 1.25298,
    "l": 1.25246,
    "c": 1.25278,
    "v": 1239
  },
  {
    "dt": "2023.05.15 22:00",
    "o": 1.25274,
    "h": 1.25311,
    "l": 1.25243,
    "c": 1.25308,
    "v": 1157
  },
  {
    "dt": "2023.05.15 23:00",
    "o": 1.25307,
    "h": 1.25307,
    "l": 1.25252,
    "c": 1.25271,
    "v": 795
  },
  {
    "dt": "2023.05.16 00:00",
    "o": 1.25186,
    "h": 1.25275,
    "l": 1.25165,
    "c": 1.25272,
    "v": 137
  },
  {
    "dt": "2023.05.16 01:00",
    "o": 1.25266,
    "h": 1.25305,
    "l": 1.25261,
    "c": 1.25276,
    "v": 538
  },
  {
    "dt": "2023.05.16 02:00",
    "o": 1.25275,
    "h": 1.25282,
    "l": 1.25235,
    "c": 1.25241,
    "v": 633
  },
  {
    "dt": "2023.05.16 03:00",
    "o": 1.25239,
    "h": 1.253,
    "l": 1.25231,
    "c": 1.25293,
    "v": 1573
  },
  {
    "dt": "2023.05.16 04:00",
    "o": 1.25294,
    "h": 1.25294,
    "l": 1.25195,
    "c": 1.25241,
    "v": 1516
  },
  {
    "dt": "2023.05.16 05:00",
    "o": 1.25238,
    "h": 1.25299,
    "l": 1.25136,
    "c": 1.25291,
    "v": 1935
  },
  {
    "dt": "2023.05.16 06:00",
    "o": 1.25291,
    "h": 1.25314,
    "l": 1.25256,
    "c": 1.25264,
    "v": 1336
  },
  {
    "dt": "2023.05.16 07:00",
    "o": 1.25264,
    "h": 1.25288,
    "l": 1.25225,
    "c": 1.25261,
    "v": 1073
  },
  {
    "dt": "2023.05.16 08:00",
    "o": 1.25256,
    "h": 1.25256,
    "l": 1.25075,
    "c": 1.25094,
    "v": 1789
  },
  {
    "dt": "2023.05.16 09:00",
    "o": 1.251,
    "h": 1.25167,
    "l": 1.2464,
    "c": 1.24795,
    "v": 3095
  },
  {
    "dt": "2023.05.16 10:00",
    "o": 1.24804,
    "h": 1.25161,
    "l": 1.24793,
    "c": 1.25135,
    "v": 3074
  },
  {
    "dt": "2023.05.16 11:00",
    "o": 1.25141,
    "h": 1.25318,
    "l": 1.2513,
    "c": 1.25209,
    "v": 2606
  },
  {
    "dt": "2023.05.16 12:00",
    "o": 1.25207,
    "h": 1.25453,
    "l": 1.25199,
    "c": 1.25341,
    "v": 2442
  },
  {
    "dt": "2023.05.16 13:00",
    "o": 1.2534,
    "h": 1.25401,
    "l": 1.25274,
    "c": 1.25321,
    "v": 1789
  },
  {
    "dt": "2023.05.16 14:00",
    "o": 1.25323,
    "h": 1.25418,
    "l": 1.25159,
    "c": 1.25172,
    "v": 2402
  },
  {
    "dt": "2023.05.16 15:00",
    "o": 1.25175,
    "h": 1.25261,
    "l": 1.24942,
    "c": 1.25124,
    "v": 3467
  },
  {
    "dt": "2023.05.16 16:00",
    "o": 1.25122,
    "h": 1.25353,
    "l": 1.24975,
    "c": 1.25143,
    "v": 3960
  },
  {
    "dt": "2023.05.16 17:00",
    "o": 1.25145,
    "h": 1.25158,
    "l": 1.2489,
    "c": 1.24953,
    "v": 3785
  },
  {
    "dt": "2023.05.16 18:00",
    "o": 1.24954,
    "h": 1.24973,
    "l": 1.24759,
    "c": 1.2492,
    "v": 3327
  },
  {
    "dt": "2023.05.16 19:00",
    "o": 1.24913,
    "h": 1.24963,
    "l": 1.24755,
    "c": 1.24843,
    "v": 2666
  },
  {
    "dt": "2023.05.16 20:00",
    "o": 1.24851,
    "h": 1.24893,
    "l": 1.24784,
    "c": 1.24828,
    "v": 1997
  },
  {
    "dt": "2023.05.16 21:00",
    "o": 1.2483,
    "h": 1.24887,
    "l": 1.248,
    "c": 1.24846,
    "v": 1593
  },
  {
    "dt": "2023.05.16 22:00",
    "o": 1.24849,
    "h": 1.24878,
    "l": 1.2476,
    "c": 1.24793,
    "v": 1532
  },
  {
    "dt": "2023.05.16 23:00",
    "o": 1.24793,
    "h": 1.24845,
    "l": 1.24784,
    "c": 1.24842,
    "v": 1059
  },
  {
    "dt": "2023.05.17 00:00",
    "o": 1.24825,
    "h": 1.24836,
    "l": 1.24778,
    "c": 1.24826,
    "v": 152
  },
  {
    "dt": "2023.05.17 01:00",
    "o": 1.24819,
    "h": 1.2484,
    "l": 1.24813,
    "c": 1.2483,
    "v": 647
  },
  {
    "dt": "2023.05.17 02:00",
    "o": 1.24833,
    "h": 1.24843,
    "l": 1.24783,
    "c": 1.24833,
    "v": 835
  },
  {
    "dt": "2023.05.17 03:00",
    "o": 1.24838,
    "h": 1.24889,
    "l": 1.24819,
    "c": 1.24852,
    "v": 1833
  },
  {
    "dt": "2023.05.17 04:00",
    "o": 1.24852,
    "h": 1.24873,
    "l": 1.24757,
    "c": 1.24868,
    "v": 2191
  },
  {
    "dt": "2023.05.17 05:00",
    "o": 1.2487,
    "h": 1.24927,
    "l": 1.24849,
    "c": 1.24891,
    "v": 1811
  },
  {
    "dt": "2023.05.17 06:00",
    "o": 1.24893,
    "h": 1.24904,
    "l": 1.24807,
    "c": 1.2481,
    "v": 1548
  },
  {
    "dt": "2023.05.17 07:00",
    "o": 1.2481,
    "h": 1.24827,
    "l": 1.2476,
    "c": 1.24773,
    "v": 1245
  },
  {
    "dt": "2023.05.17 08:00",
    "o": 1.24774,
    "h": 1.24787,
    "l": 1.24618,
    "c": 1.24629,
    "v": 2017
  },
  {
    "dt": "2023.05.17 09:00",
    "o": 1.24628,
    "h": 1.24646,
    "l": 1.24493,
    "c": 1.24525,
    "v": 2359
  },
  {
    "dt": "2023.05.17 10:00",
    "o": 1.24524,
    "h": 1.24691,
    "l": 1.24204,
    "c": 1.24208,
    "v": 3173
  },
  {
    "dt": "2023.05.17 11:00",
    "o": 1.24211,
    "h": 1.24477,
    "l": 1.24207,
    "c": 1.24265,
    "v": 3061
  },
  {
    "dt": "2023.05.17 12:00",
    "o": 1.24256,
    "h": 1.24442,
    "l": 1.24214,
    "c": 1.24407,
    "v": 2676
  },
  {
    "dt": "2023.05.17 13:00",
    "o": 1.24408,
    "h": 1.24483,
    "l": 1.24365,
    "c": 1.24468,
    "v": 2118
  },
  {
    "dt": "2023.05.17 14:00",
    "o": 1.24475,
    "h": 1.24696,
    "l": 1.24438,
    "c": 1.24596,
    "v": 2535
  },
  {
    "dt": "2023.05.17 15:00",
    "o": 1.24596,
    "h": 1.24764,
    "l": 1.24481,
    "c": 1.24685,
    "v": 3061
  },
  {
    "dt": "2023.05.17 16:00",
    "o": 1.24686,
    "h": 1.2485,
    "l": 1.24523,
    "c": 1.24526,
    "v": 3650
  },
  {
    "dt": "2023.05.17 17:00",
    "o": 1.24526,
    "h": 1.24755,
    "l": 1.24431,
    "c": 1.24649,
    "v": 3730
  },
  {
    "dt": "2023.05.17 18:00",
    "o": 1.24648,
    "h": 1.24849,
    "l": 1.2463,
    "c": 1.24735,
    "v": 3125
  },
  {
    "dt": "2023.05.17 19:00",
    "o": 1.24733,
    "h": 1.25066,
    "l": 1.24733,
    "c": 1.25032,
    "v": 2329
  },
  {
    "dt": "2023.05.17 20:00",
    "o": 1.25032,
    "h": 1.25092,
    "l": 1.24982,
    "c": 1.25002,
    "v": 2324
  },
  {
    "dt": "2023.05.17 21:00",
    "o": 1.25003,
    "h": 1.25004,
    "l": 1.24819,
    "c": 1.24824,
    "v": 2197
  },
  {
    "dt": "2023.05.17 22:00",
    "o": 1.24825,
    "h": 1.2492,
    "l": 1.24823,
    "c": 1.24911,
    "v": 1954
  },
  {
    "dt": "2023.05.17 23:00",
    "o": 1.2491,
    "h": 1.24923,
    "l": 1.24826,
    "c": 1.24858,
    "v": 824
  },
  {
    "dt": "2023.05.18 00:00",
    "o": 1.24866,
    "h": 1.24902,
    "l": 1.24831,
    "c": 1.24861,
    "v": 117
  },
  {
    "dt": "2023.05.18 01:00",
    "o": 1.2488,
    "h": 1.24895,
    "l": 1.24855,
    "c": 1.24864,
    "v": 1011
  },
  {
    "dt": "2023.05.18 02:00",
    "o": 1.24864,
    "h": 1.24866,
    "l": 1.24809,
    "c": 1.24812,
    "v": 853
  },
  {
    "dt": "2023.05.18 03:00",
    "o": 1.24811,
    "h": 1.2484,
    "l": 1.24771,
    "c": 1.24832,
    "v": 1684
  },
  {
    "dt": "2023.05.18 04:00",
    "o": 1.24832,
    "h": 1.24905,
    "l": 1.24791,
    "c": 1.24875,
    "v": 2211
  },
  {
    "dt": "2023.05.18 05:00",
    "o": 1.24875,
    "h": 1.24917,
    "l": 1.24835,
    "c": 1.2487,
    "v": 1691
  },
  {
    "dt": "2023.05.18 06:00",
    "o": 1.24869,
    "h": 1.24888,
    "l": 1.2478,
    "c": 1.24793,
    "v": 1751
  },
  {
    "dt": "2023.05.18 07:00",
    "o": 1.24794,
    "h": 1.24797,
    "l": 1.24713,
    "c": 1.24733,
    "v": 1299
  },
  {
    "dt": "2023.05.18 08:00",
    "o": 1.24732,
    "h": 1.24751,
    "l": 1.24627,
    "c": 1.24672,
    "v": 2137
  },
  {
    "dt": "2023.05.18 09:00",
    "o": 1.2467,
    "h": 1.24755,
    "l": 1.24518,
    "c": 1.24595,
    "v": 2564
  },
  {
    "dt": "2023.05.18 10:00",
    "o": 1.24596,
    "h": 1.2467,
    "l": 1.24451,
    "c": 1.24494,
    "v": 2676
  },
  {
    "dt": "2023.05.18 11:00",
    "o": 1.24496,
    "h": 1.24589,
    "l": 1.24308,
    "c": 1.24366,
    "v": 3098
  },
  {
    "dt": "2023.05.18 12:00",
    "o": 1.24366,
    "h": 1.24437,
    "l": 1.24269,
    "c": 1.24416,
    "v": 2506
  },
  {
    "dt": "2023.05.18 13:00",
    "o": 1.24417,
    "h": 1.24437,
    "l": 1.24274,
    "c": 1.24323,
    "v": 2114
  },
  {
    "dt": "2023.05.18 14:00",
    "o": 1.24322,
    "h": 1.24483,
    "l": 1.24252,
    "c": 1.2442,
    "v": 2264
  },
  {
    "dt": "2023.05.18 15:00",
    "o": 1.24422,
    "h": 1.24469,
    "l": 1.24133,
    "c": 1.24237,
    "v": 3589
  },
  {
    "dt": "2023.05.18 16:00",
    "o": 1.24236,
    "h": 1.24366,
    "l": 1.2419,
    "c": 1.24212,
    "v": 3799
  },
  {
    "dt": "2023.05.18 17:00",
    "o": 1.2422,
    "h": 1.24277,
    "l": 1.24034,
    "c": 1.24063,
    "v": 3573
  },
  {
    "dt": "2023.05.18 18:00",
    "o": 1.24062,
    "h": 1.24266,
    "l": 1.23961,
    "c": 1.24208,
    "v": 2906
  },
  {
    "dt": "2023.05.18 19:00",
    "o": 1.24205,
    "h": 1.24236,
    "l": 1.23938,
    "c": 1.23952,
    "v": 2636
  },
  {
    "dt": "2023.05.18 20:00",
    "o": 1.23955,
    "h": 1.23998,
    "l": 1.23904,
    "c": 1.23977,
    "v": 2204
  },
  {
    "dt": "2023.05.18 21:00",
    "o": 1.23977,
    "h": 1.24034,
    "l": 1.2395,
    "c": 1.24019,
    "v": 1725
  },
  {
    "dt": "2023.05.18 22:00",
    "o": 1.24021,
    "h": 1.24113,
    "l": 1.24001,
    "c": 1.24082,
    "v": 1703
  },
  {
    "dt": "2023.05.18 23:00",
    "o": 1.24079,
    "h": 1.24094,
    "l": 1.24039,
    "c": 1.24072,
    "v": 1134
  },
  {
    "dt": "2023.05.19 00:00",
    "o": 1.24033,
    "h": 1.24073,
    "l": 1.23994,
    "c": 1.24012,
    "v": 348
  },
  {
    "dt": "2023.05.19 01:00",
    "o": 1.24029,
    "h": 1.24134,
    "l": 1.24029,
    "c": 1.24124,
    "v": 848
  },
  {
    "dt": "2023.05.19 02:00",
    "o": 1.24124,
    "h": 1.24131,
    "l": 1.2409,
    "c": 1.24108,
    "v": 885
  },
  {
    "dt": "2023.05.19 03:00",
    "o": 1.24108,
    "h": 1.24155,
    "l": 1.24064,
    "c": 1.24122,
    "v": 2031
  },
  {
    "dt": "2023.05.19 04:00",
    "o": 1.24121,
    "h": 1.24133,
    "l": 1.23931,
    "c": 1.23956,
    "v": 2388
  },
  {
    "dt": "2023.05.19 05:00",
    "o": 1.23953,
    "h": 1.24082,
    "l": 1.23911,
    "c": 1.24059,
    "v": 1968
  },
  {
    "dt": "2023.05.19 06:00",
    "o": 1.24058,
    "h": 1.24088,
    "l": 1.24008,
    "c": 1.24014,
    "v": 1527
  },
  {
    "dt": "2023.05.19 07:00",
    "o": 1.2401,
    "h": 1.24015,
    "l": 1.2393,
    "c": 1.23956,
    "v": 1349
  },
  {
    "dt": "2023.05.19 08:00",
    "o": 1.23955,
    "h": 1.24051,
    "l": 1.23942,
    "c": 1.24002,
    "v": 1804
  },
  {
    "dt": "2023.05.19 09:00",
    "o": 1.24002,
    "h": 1.24265,
    "l": 1.23943,
    "c": 1.24084,
    "v": 2671
  },
  {
    "dt": "2023.05.19 10:00",
    "o": 1.24083,
    "h": 1.24242,
    "l": 1.24029,
    "c": 1.24056,
    "v": 2976
  },
  {
    "dt": "2023.05.19 11:00",
    "o": 1.24057,
    "h": 1.24163,
    "l": 1.23956,
    "c": 1.24079,
    "v": 2858
  },
  {
    "dt": "2023.05.19 12:00",
    "o": 1.2408,
    "h": 1.24346,
    "l": 1.2408,
    "c": 1.24306,
    "v": 2640
  },
  {
    "dt": "2023.05.19 13:00",
    "o": 1.24304,
    "h": 1.24376,
    "l": 1.24219,
    "c": 1.24292,
    "v": 2919
  },
  {
    "dt": "2023.05.19 14:00",
    "o": 1.24296,
    "h": 1.24426,
    "l": 1.24252,
    "c": 1.24426,
    "v": 2971
  },
  {
    "dt": "2023.05.19 15:00",
    "o": 1.24426,
    "h": 1.24672,
    "l": 1.24399,
    "c": 1.24475,
    "v": 3262
  },
  {
    "dt": "2023.05.19 16:00",
    "o": 1.24466,
    "h": 1.2447,
    "l": 1.24302,
    "c": 1.2438,
    "v": 3616
  },
  {
    "dt": "2023.05.19 17:00",
    "o": 1.24379,
    "h": 1.24379,
    "l": 1.24206,
    "c": 1.24358,
    "v": 3593
  },
  {
    "dt": "2023.05.19 18:00",
    "o": 1.24358,
    "h": 1.24825,
    "l": 1.24284,
    "c": 1.24605,
    "v": 4745
  },
  {
    "dt": "2023.05.19 19:00",
    "o": 1.24604,
    "h": 1.24735,
    "l": 1.24501,
    "c": 1.24654,
    "v": 3052
  },
  {
    "dt": "2023.05.19 20:00",
    "o": 1.24655,
    "h": 1.24697,
    "l": 1.24606,
    "c": 1.2461,
    "v": 2256
  },
  {
    "dt": "2023.05.19 21:00",
    "o": 1.24611,
    "h": 1.24622,
    "l": 1.24481,
    "c": 1.24488,
    "v": 2107
  },
  {
    "dt": "2023.05.19 22:00",
    "o": 1.24488,
    "h": 1.24496,
    "l": 1.24348,
    "c": 1.24476,
    "v": 1773
  },
  {
    "dt": "2023.05.19 23:00",
    "o": 1.24476,
    "h": 1.24505,
    "l": 1.24411,
    "c": 1.2443,
    "v": 1487
  },
  {
    "dt": "2023.05.22 00:00",
    "o": 1.24391,
    "h": 1.24504,
    "l": 1.2437,
    "c": 1.24448,
    "v": 204
  },
  {
    "dt": "2023.05.22 01:00",
    "o": 1.24446,
    "h": 1.24576,
    "l": 1.24428,
    "c": 1.24509,
    "v": 992
  },
  {
    "dt": "2023.05.22 02:00",
    "o": 1.2451,
    "h": 1.24603,
    "l": 1.24504,
    "c": 1.24602,
    "v": 1007
  },
  {
    "dt": "2023.05.22 03:00",
    "o": 1.24602,
    "h": 1.2467,
    "l": 1.24544,
    "c": 1.24657,
    "v": 1783
  },
  {
    "dt": "2023.05.22 04:00",
    "o": 1.24661,
    "h": 1.24713,
    "l": 1.24583,
    "c": 1.24652,
    "v": 2413
  },
  {
    "dt": "2023.05.22 05:00",
    "o": 1.2465,
    "h": 1.2465,
    "l": 1.24553,
    "c": 1.24603,
    "v": 2191
  },
  {
    "dt": "2023.05.22 06:00",
    "o": 1.24603,
    "h": 1.24638,
    "l": 1.24557,
    "c": 1.24572,
    "v": 1715
  },
  {
    "dt": "2023.05.22 07:00",
    "o": 1.24571,
    "h": 1.24626,
    "l": 1.24549,
    "c": 1.24562,
    "v": 1709
  },
  {
    "dt": "2023.05.22 08:00",
    "o": 1.24566,
    "h": 1.24568,
    "l": 1.24394,
    "c": 1.24409,
    "v": 1742
  },
  {
    "dt": "2023.05.22 09:00",
    "o": 1.24407,
    "h": 1.24492,
    "l": 1.24288,
    "c": 1.2432,
    "v": 2642
  },
  {
    "dt": "2023.05.22 10:00",
    "o": 1.24319,
    "h": 1.2438,
    "l": 1.24126,
    "c": 1.24326,
    "v": 3161
  },
  {
    "dt": "2023.05.22 11:00",
    "o": 1.24321,
    "h": 1.24441,
    "l": 1.24221,
    "c": 1.24402,
    "v": 2891
  },
  {
    "dt": "2023.05.22 12:00",
    "o": 1.24401,
    "h": 1.2448,
    "l": 1.24398,
    "c": 1.24433,
    "v": 2487
  },
  {
    "dt": "2023.05.22 13:00",
    "o": 1.24431,
    "h": 1.2464,
    "l": 1.24409,
    "c": 1.24485,
    "v": 2412
  },
  {
    "dt": "2023.05.22 14:00",
    "o": 1.24486,
    "h": 1.2463,
    "l": 1.24456,
    "c": 1.24619,
    "v": 2834
  },
  {
    "dt": "2023.05.22 15:00",
    "o": 1.2462,
    "h": 1.247,
    "l": 1.24528,
    "c": 1.24592,
    "v": 3249
  },
  {
    "dt": "2023.05.22 16:00",
    "o": 1.24588,
    "h": 1.24591,
    "l": 1.24301,
    "c": 1.24344,
    "v": 3457
  },
  {
    "dt": "2023.05.22 17:00",
    "o": 1.24349,
    "h": 1.24407,
    "l": 1.2414,
    "c": 1.24185,
    "v": 3918
  },
  {
    "dt": "2023.05.22 18:00",
    "o": 1.24184,
    "h": 1.24282,
    "l": 1.24134,
    "c": 1.24215,
    "v": 2853
  },
  {
    "dt": "2023.05.22 19:00",
    "o": 1.24212,
    "h": 1.24281,
    "l": 1.24187,
    "c": 1.24196,
    "v": 2364
  },
  {
    "dt": "2023.05.22 20:00",
    "o": 1.24195,
    "h": 1.244,
    "l": 1.2419,
    "c": 1.24388,
    "v": 2302
  },
  {
    "dt": "2023.05.22 21:00",
    "o": 1.24385,
    "h": 1.24428,
    "l": 1.24338,
    "c": 1.24418,
    "v": 1773
  },
  {
    "dt": "2023.05.22 22:00",
    "o": 1.24416,
    "h": 1.24426,
    "l": 1.24295,
    "c": 1.24309,
    "v": 1450
  },
  {
    "dt": "2023.05.22 23:00",
    "o": 1.24309,
    "h": 1.24374,
    "l": 1.243,
    "c": 1.24359,
    "v": 934
  },
  {
    "dt": "2023.05.23 00:00",
    "o": 1.24345,
    "h": 1.24371,
    "l": 1.24303,
    "c": 1.24346,
    "v": 173
  },
  {
    "dt": "2023.05.23 01:00",
    "o": 1.24352,
    "h": 1.24371,
    "l": 1.24338,
    "c": 1.24358,
    "v": 997
  },
  {
    "dt": "2023.05.23 02:00",
    "o": 1.2436,
    "h": 1.24365,
    "l": 1.24299,
    "c": 1.2433,
    "v": 1347
  },
  {
    "dt": "2023.05.23 03:00",
    "o": 1.24338,
    "h": 1.24456,
    "l": 1.24334,
    "c": 1.24383,
    "v": 2019
  },
  {
    "dt": "2023.05.23 04:00",
    "o": 1.24381,
    "h": 1.24383,
    "l": 1.24281,
    "c": 1.24281,
    "v": 2334
  },
  {
    "dt": "2023.05.23 05:00",
    "o": 1.24282,
    "h": 1.2436,
    "l": 1.24245,
    "c": 1.24352,
    "v": 1834
  },
  {
    "dt": "2023.05.23 06:00",
    "o": 1.24353,
    "h": 1.24358,
    "l": 1.24268,
    "c": 1.24353,
    "v": 1769
  },
  {
    "dt": "2023.05.23 07:00",
    "o": 1.24354,
    "h": 1.24359,
    "l": 1.24309,
    "c": 1.24351,
    "v": 1745
  },
  {
    "dt": "2023.05.23 08:00",
    "o": 1.24352,
    "h": 1.24362,
    "l": 1.24198,
    "c": 1.24295,
    "v": 2245
  },
  {
    "dt": "2023.05.23 09:00",
    "o": 1.24294,
    "h": 1.24338,
    "l": 1.24214,
    "c": 1.24321,
    "v": 2810
  },
  {
    "dt": "2023.05.23 10:00",
    "o": 1.24319,
    "h": 1.24319,
    "l": 1.24,
    "c": 1.24077,
    "v": 3393
  },
  {
    "dt": "2023.05.23 11:00",
    "o": 1.24063,
    "h": 1.24105,
    "l": 1.23838,
    "c": 1.24082,
    "v": 3405
  },
  {
    "dt": "2023.05.23 12:00",
    "o": 1.24082,
    "h": 1.24123,
    "l": 1.23818,
    "c": 1.23841,
    "v": 2913
  },
  {
    "dt": "2023.05.23 13:00",
    "o": 1.23841,
    "h": 1.23883,
    "l": 1.23721,
    "c": 1.23845,
    "v": 2760
  },
  {
    "dt": "2023.05.23 14:00",
    "o": 1.23844,
    "h": 1.23901,
    "l": 1.23757,
    "c": 1.23834,
    "v": 2353
  },
  {
    "dt": "2023.05.23 15:00",
    "o": 1.23832,
    "h": 1.23915,
    "l": 1.23755,
    "c": 1.23784,
    "v": 3171
  },
  {
    "dt": "2023.05.23 16:00",
    "o": 1.23791,
    "h": 1.24208,
    "l": 1.23762,
    "c": 1.24166,
    "v": 3783
  },
  {
    "dt": "2023.05.23 17:00",
    "o": 1.24175,
    "h": 1.24333,
    "l": 1.24136,
    "c": 1.24198,
    "v": 4061
  },
  {
    "dt": "2023.05.23 18:00",
    "o": 1.242,
    "h": 1.2428,
    "l": 1.24147,
    "c": 1.24194,
    "v": 2900
  },
  {
    "dt": "2023.05.23 19:00",
    "o": 1.24194,
    "h": 1.24198,
    "l": 1.2406,
    "c": 1.24147,
    "v": 2558
  },
  {
    "dt": "2023.05.23 20:00",
    "o": 1.24149,
    "h": 1.24233,
    "l": 1.24119,
    "c": 1.24191,
    "v": 2118
  },
  {
    "dt": "2023.05.23 21:00",
    "o": 1.24193,
    "h": 1.24207,
    "l": 1.24108,
    "c": 1.24169,
    "v": 2341
  },
  {
    "dt": "2023.05.23 22:00",
    "o": 1.24171,
    "h": 1.24172,
    "l": 1.2408,
    "c": 1.24088,
    "v": 2062
  },
  {
    "dt": "2023.05.23 23:00",
    "o": 1.24094,
    "h": 1.24151,
    "l": 1.24078,
    "c": 1.24136,
    "v": 956
  },
  {
    "dt": "2023.05.24 00:00",
    "o": 1.24104,
    "h": 1.24169,
    "l": 1.24104,
    "c": 1.24149,
    "v": 168
  },
  {
    "dt": "2023.05.24 01:00",
    "o": 1.24147,
    "h": 1.2419,
    "l": 1.24147,
    "c": 1.24176,
    "v": 750
  },
  {
    "dt": "2023.05.24 02:00",
    "o": 1.24175,
    "h": 1.24198,
    "l": 1.2414,
    "c": 1.24154,
    "v": 759
  },
  {
    "dt": "2023.05.24 03:00",
    "o": 1.24154,
    "h": 1.2428,
    "l": 1.24138,
    "c": 1.24246,
    "v": 1528
  },
  {
    "dt": "2023.05.24 04:00",
    "o": 1.24248,
    "h": 1.24269,
    "l": 1.24174,
    "c": 1.24234,
    "v": 2006
  },
  {
    "dt": "2023.05.24 05:00",
    "o": 1.24222,
    "h": 1.24244,
    "l": 1.2414,
    "c": 1.24187,
    "v": 2011
  },
  {
    "dt": "2023.05.24 06:00",
    "o": 1.24189,
    "h": 1.24272,
    "l": 1.24162,
    "c": 1.24256,
    "v": 1535
  },
  {
    "dt": "2023.05.24 07:00",
    "o": 1.24254,
    "h": 1.24361,
    "l": 1.24221,
    "c": 1.24338,
    "v": 1114
  },
  {
    "dt": "2023.05.24 08:00",
    "o": 1.2434,
    "h": 1.24383,
    "l": 1.24302,
    "c": 1.2433,
    "v": 1818
  },
  {
    "dt": "2023.05.24 09:00",
    "o": 1.24338,
    "h": 1.24684,
    "l": 1.24338,
    "c": 1.2448,
    "v": 3659
  },
  {
    "dt": "2023.05.24 10:00",
    "o": 1.24475,
    "h": 1.24475,
    "l": 1.24016,
    "c": 1.24093,
    "v": 3897
  },
  {
    "dt": "2023.05.24 11:00",
    "o": 1.24095,
    "h": 1.243,
    "l": 1.24045,
    "c": 1.24216,
    "v": 3622
  },
  {
    "dt": "2023.05.24 12:00",
    "o": 1.24217,
    "h": 1.24272,
    "l": 1.23815,
    "c": 1.23853,
    "v": 2974
  },
  {
    "dt": "2023.05.24 13:00",
    "o": 1.23854,
    "h": 1.23868,
    "l": 1.23629,
    "c": 1.23745,
    "v": 3123
  },
  {
    "dt": "2023.05.24 14:00",
    "o": 1.23738,
    "h": 1.23989,
    "l": 1.23735,
    "c": 1.23989,
    "v": 2730
  },
  {
    "dt": "2023.05.24 15:00",
    "o": 1.23991,
    "h": 1.24125,
    "l": 1.2389,
    "c": 1.24012,
    "v": 3544
  },
  {
    "dt": "2023.05.24 16:00",
    "o": 1.24019,
    "h": 1.24142,
    "l": 1.23771,
    "c": 1.23771,
    "v": 3703
  },
  {
    "dt": "2023.05.24 17:00",
    "o": 1.23771,
    "h": 1.23872,
    "l": 1.23588,
    "c": 1.23665,
    "v": 3949
  },
  {
    "dt": "2023.05.24 18:00",
    "o": 1.23666,
    "h": 1.2374,
    "l": 1.23569,
    "c": 1.23641,
    "v": 3481
  },
  {
    "dt": "2023.05.24 19:00",
    "o": 1.23643,
    "h": 1.23767,
    "l": 1.2357,
    "c": 1.23707,
    "v": 3164
  },
  {
    "dt": "2023.05.24 20:00",
    "o": 1.23707,
    "h": 1.23763,
    "l": 1.23623,
    "c": 1.23686,
    "v": 2606
  },
  {
    "dt": "2023.05.24 21:00",
    "o": 1.2368,
    "h": 1.23766,
    "l": 1.2357,
    "c": 1.23595,
    "v": 2936
  },
  {
    "dt": "2023.05.24 22:00",
    "o": 1.23594,
    "h": 1.23672,
    "l": 1.23579,
    "c": 1.23599,
    "v": 2331
  },
  {
    "dt": "2023.05.24 23:00",
    "o": 1.236,
    "h": 1.23664,
    "l": 1.23592,
    "c": 1.23637,
    "v": 1193
  },
  {
    "dt": "2023.05.25 00:00",
    "o": 1.23603,
    "h": 1.23651,
    "l": 1.23599,
    "c": 1.23637,
    "v": 306
  },
  {
    "dt": "2023.05.25 01:00",
    "o": 1.23646,
    "h": 1.23686,
    "l": 1.23575,
    "c": 1.23673,
    "v": 1482
  },
  {
    "dt": "2023.05.25 02:00",
    "o": 1.23673,
    "h": 1.23702,
    "l": 1.23644,
    "c": 1.23689,
    "v": 1251
  },
  {
    "dt": "2023.05.25 03:00",
    "o": 1.23687,
    "h": 1.23689,
    "l": 1.23538,
    "c": 1.23622,
    "v": 1969
  },
  {
    "dt": "2023.05.25 04:00",
    "o": 1.23618,
    "h": 1.23664,
    "l": 1.23427,
    "c": 1.23458,
    "v": 2651
  },
  {
    "dt": "2023.05.25 05:00",
    "o": 1.23458,
    "h": 1.23508,
    "l": 1.23408,
    "c": 1.23474,
    "v": 1922
  },
  {
    "dt": "2023.05.25 06:00",
    "o": 1.23475,
    "h": 1.23482,
    "l": 1.23309,
    "c": 1.23388,
    "v": 1642
  },
  {
    "dt": "2023.05.25 07:00",
    "o": 1.2339,
    "h": 1.23425,
    "l": 1.23378,
    "c": 1.23402,
    "v": 1182
  },
  {
    "dt": "2023.05.25 08:00",
    "o": 1.23401,
    "h": 1.23467,
    "l": 1.23372,
    "c": 1.23462,
    "v": 1645
  },
  {
    "dt": "2023.05.25 09:00",
    "o": 1.23462,
    "h": 1.23655,
    "l": 1.23407,
    "c": 1.23539,
    "v": 2801
  },
  {
    "dt": "2023.05.25 10:00",
    "o": 1.23538,
    "h": 1.23548,
    "l": 1.2332,
    "c": 1.23533,
    "v": 3292
  },
  {
    "dt": "2023.05.25 11:00",
    "o": 1.23532,
    "h": 1.23792,
    "l": 1.23519,
    "c": 1.23669,
    "v": 3082
  },
  {
    "dt": "2023.05.25 12:00",
    "o": 1.23667,
    "h": 1.23857,
    "l": 1.23653,
    "c": 1.23772,
    "v": 2650
  },
  {
    "dt": "2023.05.25 13:00",
    "o": 1.23773,
    "h": 1.23788,
    "l": 1.23545,
    "c": 1.23561,
    "v": 2166
  },
  {
    "dt": "2023.05.25 14:00",
    "o": 1.23562,
    "h": 1.23699,
    "l": 1.23537,
    "c": 1.23624,
    "v": 2289
  },
  {
    "dt": "2023.05.25 15:00",
    "o": 1.23629,
    "h": 1.23756,
    "l": 1.23375,
    "c": 1.23399,
    "v": 4124
  },
  {
    "dt": "2023.05.25 16:00",
    "o": 1.234,
    "h": 1.23602,
    "l": 1.23265,
    "c": 1.23277,
    "v": 3762
  },
  {
    "dt": "2023.05.25 17:00",
    "o": 1.2328,
    "h": 1.23523,
    "l": 1.23273,
    "c": 1.23341,
    "v": 4027
  },
  {
    "dt": "2023.05.25 18:00",
    "o": 1.23341,
    "h": 1.23444,
    "l": 1.23175,
    "c": 1.23223,
    "v": 3412
  },
  {
    "dt": "2023.05.25 19:00",
    "o": 1.23217,
    "h": 1.23255,
    "l": 1.23082,
    "c": 1.23084,
    "v": 2274
  },
  {
    "dt": "2023.05.25 20:00",
    "o": 1.23084,
    "h": 1.23293,
    "l": 1.2307,
    "c": 1.23282,
    "v": 2230
  },
  {
    "dt": "2023.05.25 21:00",
    "o": 1.23283,
    "h": 1.23316,
    "l": 1.23151,
    "c": 1.23161,
    "v": 2224
  },
  {
    "dt": "2023.05.25 22:00",
    "o": 1.23162,
    "h": 1.23189,
    "l": 1.23097,
    "c": 1.23176,
    "v": 2153
  },
  {
    "dt": "2023.05.25 23:00",
    "o": 1.23177,
    "h": 1.2321,
    "l": 1.23162,
    "c": 1.23209,
    "v": 1032
  },
  {
    "dt": "2023.05.26 00:00",
    "o": 1.23205,
    "h": 1.23231,
    "l": 1.23161,
    "c": 1.23189,
    "v": 204
  },
  {
    "dt": "2023.05.26 01:00",
    "o": 1.23189,
    "h": 1.23243,
    "l": 1.23189,
    "c": 1.2324,
    "v": 1240
  },
  {
    "dt": "2023.05.26 02:00",
    "o": 1.23236,
    "h": 1.23242,
    "l": 1.23151,
    "c": 1.23157,
    "v": 951
  },
  {
    "dt": "2023.05.26 03:00",
    "o": 1.23161,
    "h": 1.23217,
    "l": 1.231,
    "c": 1.23217,
    "v": 2134
  },
  {
    "dt": "2023.05.26 04:00",
    "o": 1.23224,
    "h": 1.23326,
    "l": 1.2321,
    "c": 1.23307,
    "v": 2298
  },
  {
    "dt": "2023.05.26 05:00",
    "o": 1.23308,
    "h": 1.23357,
    "l": 1.23251,
    "c": 1.23262,
    "v": 1997
  },
  {
    "dt": "2023.05.26 06:00",
    "o": 1.23262,
    "h": 1.2333,
    "l": 1.23239,
    "c": 1.23298,
    "v": 1543
  },
  {
    "dt": "2023.05.26 07:00",
    "o": 1.23297,
    "h": 1.23358,
    "l": 1.23293,
    "c": 1.23353,
    "v": 1469
  },
  {
    "dt": "2023.05.26 08:00",
    "o": 1.23353,
    "h": 1.23419,
    "l": 1.23304,
    "c": 1.23375,
    "v": 2269
  },
  {
    "dt": "2023.05.26 09:00",
    "o": 1.23363,
    "h": 1.23514,
    "l": 1.23304,
    "c": 1.23413,
    "v": 2824
  },
  {
    "dt": "2023.05.26 10:00",
    "o": 1.23412,
    "h": 1.23606,
    "l": 1.23361,
    "c": 1.23492,
    "v": 3326
  },
  {
    "dt": "2023.05.26 11:00",
    "o": 1.23493,
    "h": 1.23673,
    "l": 1.23461,
    "c": 1.23525,
    "v": 2904
  },
  {
    "dt": "2023.05.26 12:00",
    "o": 1.23523,
    "h": 1.23621,
    "l": 1.23447,
    "c": 1.23605,
    "v": 2590
  },
  {
    "dt": "2023.05.26 13:00",
    "o": 1.23598,
    "h": 1.23787,
    "l": 1.23511,
    "c": 1.23773,
    "v": 2592
  },
  {
    "dt": "2023.05.26 14:00",
    "o": 1.23776,
    "h": 1.23942,
    "l": 1.23729,
    "c": 1.23868,
    "v": 2605
  },
  {
    "dt": "2023.05.26 15:00",
    "o": 1.2387,
    "h": 1.23891,
    "l": 1.23544,
    "c": 1.23705,
    "v": 3848
  },
  {
    "dt": "2023.05.26 16:00",
    "o": 1.23707,
    "h": 1.23808,
    "l": 1.23423,
    "c": 1.23498,
    "v": 3563
  },
  {
    "dt": "2023.05.26 17:00",
    "o": 1.23504,
    "h": 1.23647,
    "l": 1.232,
    "c": 1.23307,
    "v": 4132
  },
  {
    "dt": "2023.05.26 18:00",
    "o": 1.23308,
    "h": 1.23397,
    "l": 1.23213,
    "c": 1.23381,
    "v": 3304
  },
  {
    "dt": "2023.05.26 19:00",
    "o": 1.23383,
    "h": 1.23492,
    "l": 1.23364,
    "c": 1.23426,
    "v": 2154
  },
  {
    "dt": "2023.05.26 20:00",
    "o": 1.23437,
    "h": 1.23506,
    "l": 1.23421,
    "c": 1.23477,
    "v": 2239
  },
  {
    "dt": "2023.05.26 21:00",
    "o": 1.23476,
    "h": 1.23559,
    "l": 1.23444,
    "c": 1.23499,
    "v": 1569
  },
  {
    "dt": "2023.05.26 22:00",
    "o": 1.235,
    "h": 1.23529,
    "l": 1.23462,
    "c": 1.23507,
    "v": 1570
  },
  {
    "dt": "2023.05.26 23:00",
    "o": 1.23505,
    "h": 1.23514,
    "l": 1.23443,
    "c": 1.23491,
    "v": 1442
  },
  {
    "dt": "2023.05.29 00:00",
    "o": 1.23397,
    "h": 1.23474,
    "l": 1.23355,
    "c": 1.23428,
    "v": 208
  },
  {
    "dt": "2023.05.29 01:00",
    "o": 1.23448,
    "h": 1.23508,
    "l": 1.23423,
    "c": 1.23457,
    "v": 1012
  },
  {
    "dt": "2023.05.29 02:00",
    "o": 1.23457,
    "h": 1.23481,
    "l": 1.23426,
    "c": 1.23443,
    "v": 1299
  },
  {
    "dt": "2023.05.29 03:00",
    "o": 1.23444,
    "h": 1.23459,
    "l": 1.23403,
    "c": 1.23457,
    "v": 1884
  },
  {
    "dt": "2023.05.29 04:00",
    "o": 1.23456,
    "h": 1.23554,
    "l": 1.23424,
    "c": 1.23512,
    "v": 1948
  },
  {
    "dt": "2023.05.29 05:00",
    "o": 1.23515,
    "h": 1.23568,
    "l": 1.23483,
    "c": 1.23493,
    "v": 1526
  },
  {
    "dt": "2023.05.29 06:00",
    "o": 1.23494,
    "h": 1.23503,
    "l": 1.23439,
    "c": 1.23464,
    "v": 1235
  },
  {
    "dt": "2023.05.29 07:00",
    "o": 1.23463,
    "h": 1.23546,
    "l": 1.23452,
    "c": 1.23543,
    "v": 1716
  },
  {
    "dt": "2023.05.29 08:00",
    "o": 1.23543,
    "h": 1.23573,
    "l": 1.235,
    "c": 1.23542,
    "v": 1525
  },
  {
    "dt": "2023.05.29 09:00",
    "o": 1.23542,
    "h": 1.23709,
    "l": 1.23535,
    "c": 1.23662,
    "v": 2006
  },
  {
    "dt": "2023.05.29 10:00",
    "o": 1.23656,
    "h": 1.23656,
    "l": 1.23342,
    "c": 1.23397,
    "v": 2224
  },
  {
    "dt": "2023.05.29 11:00",
    "o": 1.23396,
    "h": 1.23506,
    "l": 1.23346,
    "c": 1.23459,
    "v": 2046
  },
  {
    "dt": "2023.05.29 12:00",
    "o": 1.23454,
    "h": 1.2346,
    "l": 1.23379,
    "c": 1.23445,
    "v": 2093
  },
  {
    "dt": "2023.05.29 13:00",
    "o": 1.23442,
    "h": 1.23486,
    "l": 1.23409,
    "c": 1.23444,
    "v": 1597
  },
  {
    "dt": "2023.05.29 14:00",
    "o": 1.23443,
    "h": 1.2352,
    "l": 1.23388,
    "c": 1.23391,
    "v": 1589
  },
  {
    "dt": "2023.05.29 15:00",
    "o": 1.2339,
    "h": 1.23456,
    "l": 1.23354,
    "c": 1.23456,
    "v": 1484
  },
  {
    "dt": "2023.05.29 16:00",
    "o": 1.23456,
    "h": 1.23478,
    "l": 1.23412,
    "c": 1.23454,
    "v": 1635
  },
  {
    "dt": "2023.05.29 17:00",
    "o": 1.23453,
    "h": 1.23518,
    "l": 1.23438,
    "c": 1.23502,
    "v": 1234
  },
  {
    "dt": "2023.05.29 18:00",
    "o": 1.23503,
    "h": 1.23612,
    "l": 1.235,
    "c": 1.23603,
    "v": 948
  },
  {
    "dt": "2023.05.29 19:00",
    "o": 1.23604,
    "h": 1.23606,
    "l": 1.23551,
    "c": 1.23589,
    "v": 639
  },
  {
    "dt": "2023.05.29 20:00",
    "o": 1.2359,
    "h": 1.23609,
    "l": 1.23582,
    "c": 1.23582,
    "v": 388
  },
  {
    "dt": "2023.05.29 21:00",
    "o": 1.23583,
    "h": 1.23584,
    "l": 1.23559,
    "c": 1.23561,
    "v": 455
  },
  {
    "dt": "2023.05.29 22:00",
    "o": 1.2356,
    "h": 1.23569,
    "l": 1.23548,
    "c": 1.23556,
    "v": 606
  },
  {
    "dt": "2023.05.29 23:00",
    "o": 1.23554,
    "h": 1.2356,
    "l": 1.23528,
    "c": 1.23532,
    "v": 614
  },
  {
    "dt": "2023.05.30 00:00",
    "o": 1.23499,
    "h": 1.23588,
    "l": 1.23471,
    "c": 1.23531,
    "v": 192
  },
  {
    "dt": "2023.05.30 01:00",
    "o": 1.23535,
    "h": 1.23573,
    "l": 1.23531,
    "c": 1.23549,
    "v": 844
  },
  {
    "dt": "2023.05.30 02:00",
    "o": 1.23549,
    "h": 1.23549,
    "l": 1.23459,
    "c": 1.23462,
    "v": 1004
  },
  {
    "dt": "2023.05.30 03:00",
    "o": 1.23461,
    "h": 1.23624,
    "l": 1.23426,
    "c": 1.23598,
    "v": 2475
  },
  {
    "dt": "2023.05.30 04:00",
    "o": 1.23597,
    "h": 1.2378,
    "l": 1.23595,
    "c": 1.23724,
    "v": 2519
  },
  {
    "dt": "2023.05.30 05:00",
    "o": 1.23725,
    "h": 1.23759,
    "l": 1.2364,
    "c": 1.23665,
    "v": 2045
  },
  {
    "dt": "2023.05.30 06:00",
    "o": 1.23668,
    "h": 1.23671,
    "l": 1.23419,
    "c": 1.23479,
    "v": 2157
  },
  {
    "dt": "2023.05.30 07:00",
    "o": 1.2348,
    "h": 1.23563,
    "l": 1.23457,
    "c": 1.23561,
    "v": 1839
  },
  {
    "dt": "2023.05.30 08:00",
    "o": 1.2356,
    "h": 1.23564,
    "l": 1.23263,
    "c": 1.233,
    "v": 2523
  },
  {
    "dt": "2023.05.30 09:00",
    "o": 1.2331,
    "h": 1.2348,
    "l": 1.23259,
    "c": 1.2347,
    "v": 2816
  },
  {
    "dt": "2023.05.30 10:00",
    "o": 1.23462,
    "h": 1.23546,
    "l": 1.23382,
    "c": 1.23546,
    "v": 3314
  },
  {
    "dt": "2023.05.30 11:00",
    "o": 1.23546,
    "h": 1.23772,
    "l": 1.23533,
    "c": 1.23755,
    "v": 2852
  },
  {
    "dt": "2023.05.30 12:00",
    "o": 1.23753,
    "h": 1.24197,
    "l": 1.23671,
    "c": 1.24131,
    "v": 3530
  },
  {
    "dt": "2023.05.30 13:00",
    "o": 1.24132,
    "h": 1.24285,
    "l": 1.24131,
    "c": 1.24259,
    "v": 2927
  },
  {
    "dt": "2023.05.30 14:00",
    "o": 1.24258,
    "h": 1.24353,
    "l": 1.24175,
    "c": 1.24333,
    "v": 2841
  },
  {
    "dt": "2023.05.30 15:00",
    "o": 1.24342,
    "h": 1.24447,
    "l": 1.24213,
    "c": 1.24222,
    "v": 3021
  },
  {
    "dt": "2023.05.30 16:00",
    "o": 1.2422,
    "h": 1.24387,
    "l": 1.24172,
    "c": 1.24272,
    "v": 3359
  },
  {
    "dt": "2023.05.30 17:00",
    "o": 1.24273,
    "h": 1.24306,
    "l": 1.24008,
    "c": 1.2408,
    "v": 3720
  },
  {
    "dt": "2023.05.30 18:00",
    "o": 1.24075,
    "h": 1.24106,
    "l": 1.23955,
    "c": 1.24004,
    "v": 2844
  },
  {
    "dt": "2023.05.30 19:00",
    "o": 1.24004,
    "h": 1.24066,
    "l": 1.23921,
    "c": 1.23968,
    "v": 2427
  },
  {
    "dt": "2023.05.30 20:00",
    "o": 1.23972,
    "h": 1.23977,
    "l": 1.2384,
    "c": 1.23862,
    "v": 2043
  },
  {
    "dt": "2023.05.30 21:00",
    "o": 1.23862,
    "h": 1.23936,
    "l": 1.23827,
    "c": 1.23909,
    "v": 1866
  },
  {
    "dt": "2023.05.30 22:00",
    "o": 1.23912,
    "h": 1.24078,
    "l": 1.23896,
    "c": 1.24077,
    "v": 2129
  },
  {
    "dt": "2023.05.30 23:00",
    "o": 1.24067,
    "h": 1.2412,
    "l": 1.24033,
    "c": 1.24111,
    "v": 1011
  },
  {
    "dt": "2023.05.31 00:00",
    "o": 1.23998,
    "h": 1.24127,
    "l": 1.23992,
    "c": 1.24103,
    "v": 144
  },
  {
    "dt": "2023.05.31 01:00",
    "o": 1.24115,
    "h": 1.24116,
    "l": 1.24057,
    "c": 1.24071,
    "v": 1043
  },
  {
    "dt": "2023.05.31 02:00",
    "o": 1.24073,
    "h": 1.24116,
    "l": 1.2407,
    "c": 1.2411,
    "v": 872
  },
  {
    "dt": "2023.05.31 03:00",
    "o": 1.2411,
    "h": 1.24247,
    "l": 1.24036,
    "c": 1.24209,
    "v": 1734
  },
  {
    "dt": "2023.05.31 04:00",
    "o": 1.24209,
    "h": 1.24215,
    "l": 1.23954,
    "c": 1.23957,
    "v": 2421
  },
  {
    "dt": "2023.05.31 05:00",
    "o": 1.23956,
    "h": 1.23985,
    "l": 1.23891,
    "c": 1.23918,
    "v": 2135
  },
  {
    "dt": "2023.05.31 06:00",
    "o": 1.2392,
    "h": 1.23927,
    "l": 1.23807,
    "c": 1.23872,
    "v": 1754
  },
  {
    "dt": "2023.05.31 07:00",
    "o": 1.23871,
    "h": 1.23929,
    "l": 1.23837,
    "c": 1.23911,
    "v": 1485
  },
  {
    "dt": "2023.05.31 08:00",
    "o": 1.23911,
    "h": 1.23982,
    "l": 1.2379,
    "c": 1.23957,
    "v": 2582
  },
  {
    "dt": "2023.05.31 09:00",
    "o": 1.2397,
    "h": 1.23972,
    "l": 1.23735,
    "c": 1.23748,
    "v": 2884
  },
  {
    "dt": "2023.05.31 10:00",
    "o": 1.23745,
    "h": 1.23763,
    "l": 1.23594,
    "c": 1.23604,
    "v": 3230
  },
  {
    "dt": "2023.05.31 11:00",
    "o": 1.23596,
    "h": 1.2364,
    "l": 1.23467,
    "c": 1.23514,
    "v": 3024
  },
  {
    "dt": "2023.05.31 12:00",
    "o": 1.23519,
    "h": 1.23688,
    "l": 1.23486,
    "c": 1.23586,
    "v": 2604
  },
  {
    "dt": "2023.05.31 13:00",
    "o": 1.23584,
    "h": 1.23675,
    "l": 1.23516,
    "c": 1.23656,
    "v": 2365
  },
  {
    "dt": "2023.05.31 14:00",
    "o": 1.23663,
    "h": 1.2374,
    "l": 1.23577,
    "c": 1.23604,
    "v": 2379
  },
  {
    "dt": "2023.05.31 15:00",
    "o": 1.2361,
    "h": 1.23735,
    "l": 1.23607,
    "c": 1.23628,
    "v": 2479
  },
  {
    "dt": "2023.05.31 16:00",
    "o": 1.23627,
    "h": 1.24123,
    "l": 1.23601,
    "c": 1.23962,
    "v": 3420
  },
  {
    "dt": "2023.05.31 17:00",
    "o": 1.23963,
    "h": 1.24039,
    "l": 1.23558,
    "c": 1.23923,
    "v": 4809
  },
  {
    "dt": "2023.05.31 18:00",
    "o": 1.23924,
    "h": 1.24128,
    "l": 1.23701,
    "c": 1.23928,
    "v": 3833
  },
  {
    "dt": "2023.05.31 19:00",
    "o": 1.23926,
    "h": 1.23944,
    "l": 1.23745,
    "c": 1.23853,
    "v": 2802
  },
  {
    "dt": "2023.05.31 20:00",
    "o": 1.23856,
    "h": 1.24234,
    "l": 1.238,
    "c": 1.24175,
    "v": 2982
  },
  {
    "dt": "2023.05.31 21:00",
    "o": 1.24176,
    "h": 1.24357,
    "l": 1.2417,
    "c": 1.24214,
    "v": 2651
  },
  {
    "dt": "2023.05.31 22:00",
    "o": 1.24207,
    "h": 1.24382,
    "l": 1.24147,
    "c": 1.24356,
    "v": 2557
  },
  {
    "dt": "2023.05.31 23:00",
    "o": 1.24356,
    "h": 1.2443,
    "l": 1.24341,
    "c": 1.24403,
    "v": 1437
  }
]