[
  {
    "dt": "2023.06.01 00:00",
    "o": 1.24316,
    "h": 1.24407,
    "l": 1.24297,
    "c": 1.24369,
    "v": 260
  },
  {
    "dt": "2023.06.01 01:00",
    "o": 1.24352,
    "h": 1.24434,
    "l": 1.24352,
    "c": 1.24418,
    "v": 1086
  },
  {
    "dt": "2023.06.01 02:00",
    "o": 1.2442,
    "h": 1.24484,
    "l": 1.24414,
    "c": 1.24442,
    "v": 1299
  },
  {
    "dt": "2023.06.01 03:00",
    "o": 1.24443,
    "h": 1.24472,
    "l": 1.2434,
    "c": 1.24377,
    "v": 2308
  },
  {
    "dt": "2023.06.01 04:00",
    "o": 1.24378,
    "h": 1.2442,
    "l": 1.24265,
    "c": 1.244,
    "v": 2507
  },
  {
    "dt": "2023.06.01 05:00",
    "o": 1.24399,
    "h": 1.24409,
    "l": 1.24336,
    "c": 1.24358,
    "v": 2282
  },
  {
    "dt": "2023.06.01 06:00",
    "o": 1.2436,
    "h": 1.24402,
    "l": 1.24293,
    "c": 1.24312,
    "v": 1934
  },
  {
    "dt": "2023.06.01 07:00",
    "o": 1.24313,
    "h": 1.24408,
    "l": 1.24284,
    "c": 1.24314,
    "v": 1802
  },
  {
    "dt": "2023.06.01 08:00",
    "o": 1.24316,
    "h": 1.24351,
    "l": 1.24234,
    "c": 1.24242,
    "v": 2217
  },
  {
    "dt": "2023.06.01 09:00",
    "o": 1.24244,
    "h": 1.244,
    "l": 1.2421,
    "c": 1.24387,
    "v": 2622
  },
  {
    "dt": "2023.06.01 10:00",
    "o": 1.24389,
    "h": 1.24391,
    "l": 1.24028,
    "c": 1.2407,
    "v": 3075
  },
  {
    "dt": "2023.06.01 11:00",
    "o": 1.2407,
    "h": 1.24313,
    "l": 1.23999,
    "c": 1.24296,
    "v": 2942
  },
  {
    "dt": "2023.06.01 12:00",
    "o": 1.24297,
    "h": 1.24485,
    "l": 1.24245,
    "c": 1.24477,
    "v": 2708
  },
  {
    "dt": "2023.06.01 13:00",
    "o": 1.24477,
    "h": 1.24666,
    "l": 1.24469,
    "c": 1.24627,
    "v": 2557
  },
  {
    "dt": "2023.06.01 14:00",
    "o": 1.24629,
    "h": 1.24815,
    "l": 1.24629,
    "c": 1.24743,
    "v": 2518
  },
  {
    "dt": "2023.06.01 15:00",
    "o": 1.2474,
    "h": 1.24853,
    "l": 1.24473,
    "c": 1.24834,
    "v": 3904
  },
  {
    "dt": "2023.06.01 16:00",
    "o": 1.24839,
    "h": 1.251,
    "l": 1.24733,
    "c": 1.25081,
    "v": 3673
  },
  {
    "dt": "2023.06.01 17:00",
    "o": 1.25213,
    "h": 1.25257,
    "l": 1.25011,
    "c": 1.25187,
    "v": 4163
  },
  {
    "dt": "2023.06.01 18:00",
    "o": 1.25189,
    "h": 1.25364,
    "l": 1.25149,
    "c": 1.25324,
    "v": 3162
  },
  {
    "dt": "2023.06.01 19:00",
    "o": 1.25317,
    "h": 1.25386,
    "l": 1.25293,
    "c": 1.25317,
    "v": 2543
  },
  {
    "dt": "2023.06.01 20:00",
    "o": 1.25318,
    "h": 1.2534,
    "l": 1.25273,
    "c": 1.2534,
    "v": 1926
  },
  {
    "dt": "2023.06.01 21:00",
    "o": 1.25339,
    "h": 1.25345,
    "l": 1.2525,
    "c": 1.25252,
    "v": 1859
  },
  {
    "dt": "2023.06.01 22:00",
    "o": 1.25252,
    "h": 1.25295,
    "l": 1.25204,
    "c": 1.25292,
    "v": 1925
  },
  {
    "dt": "2023.06.01 23:00",
    "o": 1.25293,
    "h": 1.25303,
    "l": 1.25228,
    "c": 1.25251,
    "v": 853
  },
  {
    "dt": "2023.06.02 00:00",
    "o": 1.2524,
    "h": 1.25277,
    "l": 1.25209,
    "c": 1.25219,
    "v": 200
  },
  {
    "dt": "2023.06.02 01:00",
    "o": 1.25207,
    "h": 1.2529,
    "l": 1.25183,
    "c": 1.25289,
    "v": 776
  },
  {
    "dt": "2023.06.02 02:00",
    "o": 1.25288,
    "h": 1.25299,
    "l": 1.25219,
    "c": 1.25252,
    "v": 1035
  },
  {
    "dt": "2023.06.02 03:00",
    "o": 1.25256,
    "h": 1.25301,
    "l": 1.25216,
    "c": 1.25241,
    "v": 1707
  },
  {
    "dt": "2023.06.02 04:00",
    "o": 1.25242,
    "h": 1.25334,
    "l": 1.25218,
    "c": 1.25306,
    "v": 2050
  },
  {
    "dt": "2023.06.02 05:00",
    "o": 1.25308,
    "h": 1.25394,
    "l": 1.25298,
    "c": 1.25392,
    "v": 1881
  },
  {
    "dt": "2023.06.02 06:00",
    "o": 1.25392,
    "h": 1.25435,
    "l": 1.25314,
    "c": 1.25369,
    "v": 1785
  },
  {
    "dt": "2023.06.02 07:00",
    "o": 1.25372,
    "h": 1.2538,
    "l": 1.25269,
    "c": 1.25281,
    "v": 1312
  },
  {
    "dt": "2023.06.02 08:00",
    "o": 1.25282,
    "h": 1.25376,
    "l": 1.25236,
    "c": 1.25361,
    "v": 1870
  },
  {
    "dt": "2023.06.02 09:00",
    "o": 1.25366,
    "h": 1.25422,
    "l": 1.25286,
    "c": 1.25385,
    "v": 2662
  },
  {
    "dt": "2023.06.02 10:00",
    "o": 1.25385,
    "h": 1.25396,
    "l": 1.25217,
    "c": 1.25246,
    "v": 2984
  },
  {
    "dt": "2023.06.02 11:00",
    "o": 1.25239,
    "h": 1.25401,
    "l": 1.25207,
    "c": 1.25353,
    "v": 2558
  },
  {
    "dt": "2023.06.02 12:00",
    "o": 1.2535,
    "h": 1.25372,
    "l": 1.25262,
    "c": 1.25312,
    "v": 2528
  },
  {
    "dt": "2023.06.02 13:00",
    "o": 1.25311,
    "h": 1.25405,
    "l": 1.25238,
    "c": 1.25272,
    "v": 2069
  },
  {
    "dt": "2023.06.02 14:00",
    "o": 1.25274,
    "h": 1.25306,
    "l": 1.25178,
    "c": 1.25211,
    "v": 2099
  },
  {
    "dt": "2023.06.02 15:00",
    "o": 1.2521,
    "h": 1.25303,
    "l": 1.24928,
    "c": 1.25125,
    "v": 3966
  },
  {
    "dt": "2023.06.02 16:00",
    "o": 1.25126,
    "h": 1.25342,
    "l": 1.25108,
    "c": 1.25188,
    "v": 4189
  },
  {
    "dt": "2023.06.02 17:00",
    "o": 1.2519,
    "h": 1.25248,
    "l": 1.24777,
    "c": 1.24796,
    "v": 4064
  },
  {
    "dt": "2023.06.02 18:00",
    "o": 1.24797,
    "h": 1.24863,
    "l": 1.24562,
    "c": 1.24655,
    "v": 2768
  },
  {
    "dt": "2023.06.02 19:00",
    "o": 1.24661,
    "h": 1.24663,
    "l": 1.24482,
    "c": 1.24484,
    "v": 2440
  },
  {
    "dt": "2023.06.02 20:00",
    "o": 1.24486,
    "h": 1.24571,
    "l": 1.24464,
    "c": 1.245,
    "v": 2284
  },
  {
    "dt": "2023.06.02 21:00",
    "o": 1.245,
    "h": 1.24538,
    "l": 1.24402,
    "c": 1.24513,
    "v": 2146
  },
  {
    "dt": "2023.06.02 22:00",
    "o": 1.24513,
    "h": 1.24536,
    "l": 1.24484,
    "c": 1.24488,
    "v": 1576
  },
  {
    "dt": "2023.06.02 23:00",
    "o": 1.24487,
    "h": 1.24525,
    "l": 1.24459,
    "c": 1.24488,
    "v": 943
  },
  {
    "dt": "2023.06.05 00:00",
    "o": 1.24538,
    "h": 1.24538,
    "l": 1.24416,
    "c": 1.24436,
    "v": 92
  },
  {
    "dt": "2023.06.05 01:00",
    "o": 1.2445,
    "h": 1.24464,
    "l": 1.24352,
    "c": 1.24353,
    "v": 1174
  },
  {
    "dt": "2023.06.05 02:00",
    "o": 1.24353,
    "h": 1.24371,
    "l": 1.2426,
    "c": 1.24292,
    "v": 1602
  },
  {
    "dt": "2023.06.05 03:00",
    "o": 1.24293,
    "h": 1.24312,
    "l": 1.24248,
    "c": 1.24302,
    "v": 1942
  },
  {
    "dt": "2023.06.05 04:00",
    "o": 1.24304,
    "h": 1.24381,
    "l": 1.24263,
    "c": 1.2436,
    "v": 2697
  },
  {
    "dt": "2023.06.05 05:00",
    "o": 1.24361,
    "h": 1.24374,
    "l": 1.24277,
    "c": 1.24306,
    "v": 2012
  },
  {
    "dt": "2023.06.05 06:00",
    "o": 1.24304,
    "h": 1.24386,
    "l": 1.24295,
    "c": 1.24382,
    "v": 1534
  },
  {
    "dt": "2023.06.05 07:00",
    "o": 1.24381,
    "h": 1.24386,
    "l": 1.24261,
    "c": 1.24319,
    "v": 1264
  },
  {
    "dt": "2023.06.05 08:00",
    "o": 1.24319,
    "h": 1.24365,
    "l": 1.24246,
    "c": 1.24295,
    "v": 1834
  },
  {
    "dt": "2023.06.05 09:00",
    "o": 1.24287,
    "h": 1.24289,
    "l": 1.24042,
    "c": 1.24068,
    "v": 2610
  },
  {
    "dt": "2023.06.05 10:00",
    "o": 1.24075,
    "h": 1.24126,
    "l": 1.23871,
    "c": 1.23975,
    "v": 3108
  },
  {
    "dt": "2023.06.05 11:00",
    "o": 1.23976,
    "h": 1.24117,
    "l": 1.23924,
    "c": 1.24068,
    "v": 2567
  },
  {
    "dt": "2023.06.05 12:00",
    "o": 1.2407,
    "h": 1.24081,
    "l": 1.23919,
    "c": 1.23945,
    "v": 2235
  },
  {
    "dt": "2023.06.05 13:00",
    "o": 1.23944,
    "h": 1.2395,
    "l": 1.23803,
    "c": 1.23902,
    "v": 2159
  },
  {
    "dt": "2023.06.05 14:00",
    "o": 1.239,
    "h": 1.23916,
    "l": 1.23767,
    "c": 1.23824,
    "v": 2243
  },
  {
    "dt": "2023.06.05 15:00",
    "o": 1.23828,
    "h": 1.23877,
    "l": 1.23673,
    "c": 1.2375,
    "v": 2708
  },
  {
    "dt": "2023.06.05 16:00",
    "o": 1.23751,
    "h": 1.23901,
    "l": 1.23724,
    "c": 1.23797,
    "v": 2949
  },
  {
    "dt": "2023.06.05 17:00",
    "o": 1.23931,
    "h": 1.24306,
    "l": 1.23904,
    "c": 1.24075,
    "v": 3783
  },
  {
    "dt": "2023.06.05 18:00",
    "o": 1.24075,
    "h": 1.24375,
    "l": 1.24075,
    "c": 1.24372,
    "v": 2920
  },
  {
    "dt": "2023.06.05 19:00",
    "o": 1.24372,
    "h": 1.24426,
    "l": 1.24321,
    "c": 1.24342,
    "v": 2100
  },
  {
    "dt": "2023.06.05 20:00",
    "o": 1.24343,
    "h": 1.24353,
    "l": 1.24264,
    "c": 1.24314,
    "v": 1733
  },
  {
    "dt": "2023.06.05 21:00",
    "o": 1.24317,
    "h": 1.24362,
    "l": 1.2426,
    "c": 1.24332,
    "v": 2172
  },
  {
    "dt": "2023.06.05 22:00",
    "o": 1.24333,
    "h": 1.24361,
    "l": 1.24281,
    "c": 1.24304,
    "v": 2113
  },
  {
    "dt": "2023.06.05 23:00",
    "o": 1.24304,
    "h": 1.24338,
    "l": 1.24292,
    "c": 1.24322,
    "v": 777
  },
  {
    "dt": "2023.06.06 00:00",
    "o": 1.24284,
    "h": 1.24335,
    "l": 1.24244,
    "c": 1.24292,
    "v": 335
  },
  {
    "dt": "2023.06.06 01:00",
    "o": 1.24317,
    "h": 1.24351,
    "l": 1.24305,
    "c": 1.24333,
    "v": 753
  },
  {
    "dt": "2023.06.06 02:00",
    "o": 1.24332,
    "h": 1.24338,
    "l": 1.24274,
    "c": 1.24311,
    "v": 888
  },
  {
    "dt": "2023.06.06 03:00",
    "o": 1.2431,
    "h": 1.2436,
    "l": 1.24299,
    "c": 1.24338,
    "v": 1218
  },
  {
    "dt": "2023.06.06 04:00",
    "o": 1.24341,
    "h": 1.24405,
    "l": 1.24315,
    "c": 1.2437,
    "v": 1962
  },
  {
    "dt": "2023.06.06 05:00",
    "o": 1.24369,
    "h": 1.245,
    "l": 1.24369,
    "c": 1.24441,
    "v": 2001
  },
  {
    "dt": "2023.06.06 06:00",
    "o": 1.24441,
    "h": 1.24467,
    "l": 1.24386,
    "c": 1.24401,
    "v": 1527
  },
  {
    "dt": "2023.06.06 07:00",
    "o": 1.24403,
    "h": 1.24498,
    "l": 1.24394,
    "c": 1.24491,
    "v": 1814
  },
  {
    "dt": "2023.06.06 08:00",
    "o": 1.24492,
    "h": 1.24577,
    "l": 1.24371,
    "c": 1.24449,
    "v": 2112
  },
  {
    "dt": "2023.06.06 09:00",
    "o": 1.24455,
    "h": 1.24514,
    "l": 1.24352,
    "c": 1.24392,
    "v": 2808
  },
  {
    "dt": "2023.06.06 10:00",
    "o": 1.24396,
    "h": 1.24463,
    "l": 1.24241,
    "c": 1.24325,
    "v": 3546
  },
  {
    "dt": "2023.06.06 11:00",
    "o": 1.24329,
    "h": 1.24377,
    "l": 1.2418,
    "c": 1.242,
    "v": 3093
  },
  {
    "dt": "2023.06.06 12:00",
    "o": 1.24202,
    "h": 1.24229,
    "l": 1.24012,
    "c": 1.2405,
    "v": 2711
  },
  {
    "dt": "2023.06.06 13:00",
    "o": 1.24041,
    "h": 1.24147,
    "l": 1.24012,
    "c": 1.24134,
    "v": 2465
  },
  {
    "dt": "2023.06.06 14:00",
    "o": 1.24133,
    "h": 1.24162,
    "l": 1.23989,
    "c": 1.23998,
    "v": 2141
  },
  {
    "dt": "2023.06.06 15:00",
    "o": 1.23998,
    "h": 1.24067,
    "l": 1.23907,
    "c": 1.23996,
    "v": 2903
  },
  {
    "dt": "2023.06.06 16:00",
    "o": 1.23994,
    "h": 1.24068,
    "l": 1.23938,
    "c": 1.23969,
    "v": 3185
  },
  {
    "dt": "2023.06.06 17:00",
    "o": 1.23968,
    "h": 1.24131,
    "l": 1.23947,
    "c": 1.24067,
    "v": 3130
  },
  {
    "dt": "2023.06.06 18:00",
    "o": 1.24065,
    "h": 1.24229,
    "l": 1.24046,
    "c": 1.24148,
    "v": 2818
  },
  {
    "dt": "2023.06.06 19:00",
    "o": 1.24149,
    "h": 1.24279,
    "l": 1.24123,
    "c": 1.24258,
    "v": 2126
  },
  {
    "dt": "2023.06.06 20:00",
    "o": 1.24259,
    "h": 1.24267,
    "l": 1.24183,
    "c": 1.242,
    "v": 1718
  },
  {
    "dt": "2023.06.06 21:00",
    "o": 1.242,
    "h": 1.24298,
    "l": 1.24173,
    "c": 1.24289,
    "v": 2016
  },
  {
    "dt": "2023.06.06 22:00",
    "o": 1.24289,
    "h": 1.24301,
    "l": 1.24229,
    "c": 1.24246,
    "v": 1618
  },
  {
    "dt": "2023.06.06 23:00",
    "o": 1.24247,
    "h": 1.24252,
    "l": 1.24206,
    "c": 1.24224,
    "v": 710
  },
  {
    "dt": "2023.06.07 00:00",
    "o": 1.24207,
    "h": 1.24247,
    "l": 1.24171,
    "c": 1.24171,
    "v": 153
  },
  {
    "dt": "2023.06.07 01:00",
    "o": 1.24192,
    "h": 1.24246,
    "l": 1.2419,
    "c": 1.24235,
    "v": 637
  },
  {
    "dt": "2023.06.07 02:00",
    "o": 1.24233,
    "h": 1.24289,
    "l": 1.24212,
    "c": 1.24285,
    "v": 971
  },
  {
    "dt": "2023.06.07 03:00",
    "o": 1.24286,
    "h": 1.24373,
    "l": 1.2428,
    "c": 1.24306,
    "v": 1527
  },
  {
    "dt": "2023.06.07 04:00",
    "o": 1.24307,
    "h": 1.24323,
    "l": 1.24226,
    "c": 1.24267,
    "v": 2255
  },
  {
    "dt": "2023.06.07 05:00",
    "o": 1.24268,
    "h": 1.24269,
    "l": 1.24162,
    "c": 1.24243,
    "v": 1794
  },
  {
    "dt": "2023.06.07 06:00",
    "o": 1.24244,
    "h": 1.2426,
    "l": 1.24201,
    "c": 1.24241,
    "v": 1724
  },
  {
    "dt": "2023.06.07 07:00",
    "o": 1.24241,
    "h": 1.2429,
    "l": 1.24212,
    "c": 1.24223,
    "v": 1047
  },
  {
    "dt": "2023.06.07 08:00",
    "o": 1.24223,
    "h": 1.24224,
    "l": 1.24146,
    "c": 1.24161,
    "v": 1816
  },
  {
    "dt": "2023.06.07 09:00",
    "o": 1.24156,
    "h": 1.24175,
    "l": 1.24017,
    "c": 1.24048,
    "v": 2303
  },
  {
    "dt": "2023.06.07 10:00",
    "o": 1.24052,
    "h": 1.24103,
    "l": 1.2394,
    "c": 1.24101,
    "v": 2750
  },
  {
    "dt": "2023.06.07 11:00",
    "o": 1.24102,
    "h": 1.24386,
    "l": 1.24056,
    "c": 1.24381,
    "v": 2256
  },
  {
    "dt": "2023.06.07 12:00",
    "o": 1.244,
    "h": 1.24471,
    "l": 1.24296,
    "c": 1.24462,
    "v": 2354
  },
  {
    "dt": "2023.06.07 13:00",
    "o": 1.24464,
    "h": 1.24587,
    "l": 1.24389,
    "c": 1.24537,
    "v": 2523
  },
  {
    "dt": "2023.06.07 14:00",
    "o": 1.24537,
    "h": 1.24708,
    "l": 1.24492,
    "c": 1.247,
    "v": 2606
  },
  {
    "dt": "2023.06.07 15:00",
    "o": 1.247,
    "h": 1.24703,
    "l": 1.24518,
    "c": 1.24632,
    "v": 2727
  },
  {
    "dt": "2023.06.07 16:00",
    "o": 1.24633,
    "h": 1.24985,
    "l": 1.24529,
    "c": 1.24985,
    "v": 3259
  },
  {
    "dt": "2023.06.07 17:00",
    "o": 1.2496,
    "h": 1.24987,
    "l": 1.24582,
    "c": 1.24599,
    "v": 4166
  },
  {
    "dt": "2023.06.07 18:00",
    "o": 1.246,
    "h": 1.24647,
    "l": 1.24438,
    "c": 1.24472,
    "v": 3023
  },
  {
    "dt": "2023.06.07 19:00",
    "o": 1.24474,
    "h": 1.2454,
    "l": 1.24309,
    "c": 1.24325,
    "v": 2576
  },
  {
    "dt": "2023.06.07 20:00",
    "o": 1.24328,
    "h": 1.24435,
    "l": 1.24258,
    "c": 1.2441,
    "v": 2354
  },
  {
    "dt": "2023.06.07 21:00",
    "o": 1.24411,
    "h": 1.24454,
    "l": 1.24356,
    "c": 1.24392,
    "v": 2070
  },
  {
    "dt": "2023.06.07 22:00",
    "o": 1.24396,
    "h": 1.24434,
    "l": 1.24289,
    "c": 1.24293,
    "v": 1986
  },
  {
    "dt": "2023.06.07 23:00",
    "o": 1.24293,
    "h": 1.24389,
    "l": 1.24291,
    "c": 1.24372,
    "v": 1028
  },
  {
    "dt": "2023.06.08 00:00",
    "o": 1.24299,
    "h": 1.24395,
    "l": 1.24299,
    "c": 1.24372,
    "v": 167
  },
  {
    "dt": "2023.06.08 01:00",
    "o": 1.24391,
    "h": 1.24403,
    "l": 1.24357,
    "c": 1.24368,
    "v": 787
  },
  {
    "dt": "2023.06.08 02:00",
    "o": 1.24365,
    "h": 1.24439,
    "l": 1.24352,
    "c": 1.24434,
    "v": 767
  },
  {
    "dt": "2023.06.08 03:00",
    "o": 1.24439,
    "h": 1.24499,
    "l": 1.24415,
    "c": 1.24483,
    "v": 1736
  },
  {
    "dt": "2023.06.08 04:00",
    "o": 1.24485,
    "h": 1.24508,
    "l": 1.2441,
    "c": 1.24469,
    "v": 2103
  },
  {
    "dt": "2023.06.08 05:00",
    "o": 1.24474,
    "h": 1.24509,
    "l": 1.24448,
    "c": 1.24483,
    "v": 1792
  },
  {
    "dt": "2023.06.08 06:00",
    "o": 1.24481,
    "h": 1.24515,
    "l": 1.24464,
    "c": 1.24478,
    "v": 1788
  },
  {
    "dt": "2023.06.08 07:00",
    "o": 1.24478,
    "h": 1.24534,
    "l": 1.24444,
    "c": 1.24523,
    "v": 1216
  },
  {
    "dt": "2023.06.08 08:00",
    "o": 1.24523,
    "h": 1.24608,
    "l": 1.24411,
    "c": 1.24439,
    "v": 1882
  },
  {
    "dt": "2023.06.08 09:00",
    "o": 1.24442,
    "h": 1.2456,
    "l": 1.24403,
    "c": 1.24458,
    "v": 2604
  },
  {
    "dt": "2023.06.08 10:00",
    "o": 1.24468,
    "h": 1.24576,
    "l": 1.24431,
    "c": 1.24558,
    "v": 2936
  },
  {
    "dt": "2023.06.08 11:00",
    "o": 1.2456,
    "h": 1.24777,
    "l": 1.24527,
    "c": 1.24766,
    "v": 2517
  },
  {
    "dt": "2023.06.08 12:00",
    "o": 1.24767,
    "h": 1.24798,
    "l": 1.24552,
    "c": 1.24579,
    "v": 2396
  },
  {
    "dt": "2023.06.08 13:00",
    "o": 1.24579,
    "h": 1.24657,
    "l": 1.24559,
    "c": 1.24637,
    "v": 1995
  },
  {
    "dt": "2023.06.08 14:00",
    "o": 1.24641,
    "h": 1.24707,
    "l": 1.24523,
    "c": 1.24658,
    "v": 2516
  },
  {
    "dt": "2023.06.08 15:00",
    "o": 1.24664,
    "h": 1.24959,
    "l": 1.24643,
    "c": 1.24819,
    "v": 3855
  },
  {
    "dt": "2023.06.08 16:00",
    "o": 1.24814,
    "h": 1.25226,
    "l": 1.24798,
    "c": 1.25131,
    "v": 3674
  },
  {
    "dt": "2023.06.08 17:00",
    "o": 1.25136,
    "h": 1.25415,
    "l": 1.25117,
    "c": 1.25327,
    "v": 3914
  },
  {
    "dt": "2023.06.08 18:00",
    "o": 1.25328,
    "h": 1.25568,
    "l": 1.25299,
    "c": 1.25435,
    "v": 3195
  },
  {
    "dt": "2023.06.08 19:00",
    "o": 1.25438,
    "h": 1.25536,
    "l": 1.25391,
    "c": 1.25532,
    "v": 2536
  },
  {
    "dt": "2023.06.08 20:00",
    "o": 1.25522,
    "h": 1.25569,
    "l": 1.25466,
    "c": 1.25491,
    "v": 1959
  },
  {
    "dt": "2023.06.08 21:00",
    "o": 1.25493,
    "h": 1.25562,
    "l": 1.25485,
    "c": 1.25556,
    "v": 1931
  },
  {
    "dt": "2023.06.08 22:00",
    "o": 1.25555,
    "h": 1.25575,
    "l": 1.25491,
    "c": 1.25557,
    "v": 1972
  },
  {
    "dt": "2023.06.08 23:00",
    "o": 1.25556,
    "h": 1.25597,
    "l": 1.25556,
    "c": 1.25591,
    "v": 864
  },
  {
    "dt": "2023.06.09 00:00",
    "o": 1.25523,
    "h": 1.25594,
    "l": 1.25521,
    "c": 1.25585,
    "v": 165
  },
  {
    "dt": "2023.06.09 01:00",
    "o": 1.2557,
    "h": 1.25596,
    "l": 1.25566,
    "c": 1.25596,
    "v": 611
  },
  {
    "dt": "2023.06.09 02:00",
    "o": 1.25595,
    "h": 1.25625,
    "l": 1.25567,
    "c": 1.2557,
    "v": 753
  },
  {
    "dt": "2023.06.09 03:00",
    "o": 1.25571,
    "h": 1.2561,
    "l": 1.25532,
    "c": 1.25538,
    "v": 1937
  },
  {
    "dt": "2023.06.09 04:00",
    "o": 1.25538,
    "h": 1.25562,
    "l": 1.25503,
    "c": 1.25525,
    "v": 2148
  },
  {
    "dt": "2023.06.09 05:00",
    "o": 1.25527,
    "h": 1.25532,
    "l": 1.2547,
    "c": 1.25499,
    "v": 1628
  },
  {
    "dt": "2023.06.09 06:00",
    "o": 1.25499,
    "h": 1.25538,
    "l": 1.25456,
    "c": 1.25465,
    "v": 1600
  },
  {
    "dt": "2023.06.09 07:00",
    "o": 1.25465,
    "h": 1.25477,
    "l": 1.25437,
    "c": 1.25442,
    "v": 1554
  },
  {
    "dt": "2023.06.09 08:00",
    "o": 1.25443,
    "h": 1.25572,
    "l": 1.25437,
    "c": 1.25526,
    "v": 1628
  },
  {
    "dt": "2023.06.09 09:00",
    "o": 1.25532,
    "h": 1.25665,
    "l": 1.25484,
    "c": 1.2557,
    "v": 2230
  },
  {
    "dt": "2023.06.09 10:00",
    "o": 1.25574,
    "h": 1.25591,
    "l": 1.2541,
    "c": 1.2549,
    "v": 2911
  },
  {
    "dt": "2023.06.09 11:00",
    "o": 1.25489,
    "h": 1.25489,
    "l": 1.25328,
    "c": 1.25412,
    "v": 2645
  },
  {
    "dt": "2023.06.09 12:00",
    "o": 1.25411,
    "h": 1.25468,
    "l": 1.2535,
    "c": 1.25374,
    "v": 2166
  },
  {
    "dt": "2023.06.09 13:00",
    "o": 1.2537,
    "h": 1.25503,
    "l": 1.2536,
    "c": 1.25455,
    "v": 2172
  },
  {
    "dt": "2023.06.09 14:00",
    "o": 1.25462,
    "h": 1.25688,
    "l": 1.25425,
    "c": 1.25643,
    "v": 2583
  },
  {
    "dt": "2023.06.09 15:00",
    "o": 1.25652,
    "h": 1.25775,
    "l": 1.25595,
    "c": 1.25672,
    "v": 3376
  },
  {
    "dt": "2023.06.09 16:00",
    "o": 1.25673,
    "h": 1.25854,
    "l": 1.25615,
    "c": 1.25748,
    "v": 3469
  },
  {
    "dt": "2023.06.09 17:00",
    "o": 1.25748,
    "h": 1.25894,
    "l": 1.25714,
    "c": 1.25774,
    "v": 3264
  },
  {
    "dt": "2023.06.09 18:00",
    "o": 1.25773,
    "h": 1.25862,
    "l": 1.25744,
    "c": 1.25768,
    "v": 2754
  },
  {
    "dt": "2023.06.09 19:00",
    "o": 1.25759,
    "h": 1.25834,
    "l": 1.25731,
    "c": 1.25808,
    "v": 2135
  },
  {
    "dt": "2023.06.09 20:00",
    "o": 1.25809,
    "h": 1.25822,
    "l": 1.25721,
    "c": 1.25743,
    "v": 1443
  },
  {
    "dt": "2023.06.09 21:00",
    "o": 1.25743,
    "h": 1.25782,
    "l": 1.25709,
    "c": 1.2575,
    "v": 1399
  },
  {
    "dt": "2023.06.09 22:00",
    "o": 1.25749,
    "h": 1.25765,
    "l": 1.25717,
    "c": 1.2576,
    "v": 1190
  },
  {
    "dt": "2023.06.09 23:00",
    "o": 1.25759,
    "h": 1.25799,
    "l": 1.25752,
    "c": 1.25785,
    "v": 1154
  },
  {
    "dt": "2023.06.12 00:00",
    "o": 1.25659,
    "h": 1.25797,
    "l": 1.25606,
    "c": 1.25769,
    "v": 173
  },
  {
    "dt": "2023.06.12 01:00",
    "o": 1.25753,
    "h": 1.25793,
    "l": 1.25734,
    "c": 1.25748,
    "v": 877
  },
  {
    "dt": "2023.06.12 02:00",
    "o": 1.25746,
    "h": 1.25805,
    "l": 1.25739,
    "c": 1.25789,
    "v": 764
  },
  {
    "dt": "2023.06.12 03:00",
    "o": 1.25793,
    "h": 1.25793,
    "l": 1.25732,
    "c": 1.25754,
    "v": 1424
  },
  {
    "dt": "2023.06.12 04:00",
    "o": 1.25749,
    "h": 1.25758,
    "l": 1.25671,
    "c": 1.25676,
    "v": 1565
  },
  {
    "dt": "2023.06.12 05:00",
    "o": 1.25676,
    "h": 1.25708,
    "l": 1.25639,
    "c": 1.25679,
    "v": 1078
  },
  {
    "dt": "2023.06.12 06:00",
    "o": 1.25676,
    "h": 1.25713,
    "l": 1.25662,
    "c": 1.25704,
    "v": 1205
  },
  {
    "dt": "2023.06.12 07:00",
    "o": 1.25701,
    "h": 1.25734,
    "l": 1.25655,
    "c": 1.2569,
    "v": 1183
  },
  {
    "dt": "2023.06.12 08:00",
    "o": 1.25691,
    "h": 1.25743,
    "l": 1.2568,
    "c": 1.25723,
    "v": 1378
  },
  {
    "dt": "2023.06.12 09:00",
    "o": 1.25733,
    "h": 1.25794,
    "l": 1.25698,
    "c": 1.25739,
    "v": 2053
  },
  {
    "dt": "2023.06.12 10:00",
    "o": 1.25739,
    "h": 1.25923,
    "l": 1.25687,
    "c": 1.25884,
    "v": 2661
  },
  {
    "dt": "2023.06.12 11:00",
    "o": 1.25884,
    "h": 1.25958,
    "l": 1.25852,
    "c": 1.25905,
    "v": 2552
  },
  {
    "dt": "2023.06.12 12:00",
    "o": 1.25904,
    "h": 1.25987,
    "l": 1.25839,
    "c": 1.25941,
    "v": 2556
  },
  {
    "dt": "2023.06.12 13:00",
    "o": 1.25942,
    "h": 1.25955,
    "l": 1.25727,
    "c": 1.25752,
    "v": 2572
  },
  {
    "dt": "2023.06.12 14:00",
    "o": 1.25751,
    "h": 1.25799,
    "l": 1.25591,
    "c": 1.25625,
    "v": 2182
  },
  {
    "dt": "2023.06.12 15:00",
    "o": 1.25626,
    "h": 1.25702,
    "l": 1.25503,
    "c": 1.25506,
    "v": 2387
  },
  {
    "dt": "2023.06.12 16:00",
    "o": 1.25506,
    "h": 1.25549,
    "l": 1.25166,
    "c": 1.25217,
    "v": 3215
  },
  {
    "dt": "2023.06.12 17:00",
    "o": 1.25216,
    "h": 1.25286,
    "l": 1.25045,
    "c": 1.25083,
    "v": 3359
  },
  {
    "dt": "2023.06.12 18:00",
    "o": 1.25086,
    "h": 1.25114,
    "l": 1.24859,
    "c": 1.24879,
    "v": 2678
  },
  {
    "dt": "2023.06.12 19:00",
    "o": 1.24881,
    "h": 1.24986,
    "l": 1.24876,
    "c": 1.24934,
    "v": 2231
  },
  {
    "dt": "2023.06.12 20:00",
    "o": 1.24937,
    "h": 1.2503,
    "l": 1.24916,
    "c": 1.25029,
    "v": 1989
  },
  {
    "dt": "2023.06.12 21:00",
    "o": 1.25028,
    "h": 1.25067,
    "l": 1.24975,
    "c": 1.25035,
    "v": 2005
  },
  {
    "dt": "2023.06.12 22:00",
    "o": 1.25039,
    "h": 1.25118,
    "l": 1.25034,
    "c": 1.25108,
    "v": 1719
  },
  {
    "dt": "2023.06.12 23:00",
    "o": 1.25107,
    "h": 1.25128,
    "l": 1.25071,
    "c": 1.25112,
    "v": 972
  },
  {
    "dt": "2023.06.13 00:00",
    "o": 1.25086,
    "h": 1.25137,
    "l": 1.25071,
    "c": 1.25103,
    "v": 264
  },
  {
    "dt": "2023.06.13 01:00",
    "o": 1.25118,
    "h": 1.25128,
    "l": 1.25088,
    "c": 1.25115,
    "v": 941
  },
  {
    "dt": "2023.06.13 02:00",
    "o": 1.25105,
    "h": 1.25164,
    "l": 1.25104,
    "c": 1.25138,
    "v": 653
  },
  {
    "dt": "2023.06.13 03:00",
    "o": 1.25137,
    "h": 1.252,
    "l": 1.25122,
    "c": 1.25169,
    "v": 1354
  },
  {
    "dt": "2023.06.13 04:00",
    "o": 1.25168,
    "h": 1.2522,
    "l": 1.25132,
    "c": 1.25168,
    "v": 2047
  },
  {
    "dt": "2023.06.13 05:00",
    "o": 1.25169,
    "h": 1.25249,
    "l": 1.25156,
    "c": 1.25234,
    "v": 1546
  },
  {
    "dt": "2023.06.13 06:00",
    "o": 1.25234,
    "h": 1.25345,
    "l": 1.25231,
    "c": 1.25325,
    "v": 1643
  },
  {
    "dt": "2023.06.13 07:00",
    "o": 1.25323,
    "h": 1.25324,
    "l": 1.2527,
    "c": 1.25308,
    "v": 1143
  },
  {
    "dt": "2023.06.13 08:00",
    "o": 1.25309,
    "h": 1.25393,
    "l": 1.25269,
    "c": 1.25286,
    "v": 2047
  },
  {
    "dt": "2023.06.13 09:00",
    "o": 1.25286,
    "h": 1.25656,
    "l": 1.2528,
    "c": 1.25615,
    "v": 3481
  },
  {
    "dt": "2023.06.13 10:00",
    "o": 1.25618,
    "h": 1.25758,
    "l": 1.25581,
    "c": 1.25648,
    "v": 3167
  },
  {
    "dt": "2023.06.13 11:00",
    "o": 1.25647,
    "h": 1.2567,
    "l": 1.25528,
    "c": 1.25648,
    "v": 2849
  },
  {
    "dt": "2023.06.13 12:00",
    "o": 1.25648,
    "h": 1.25707,
    "l": 1.25551,
    "c": 1.25661,
    "v": 2608
  },
  {
    "dt": "2023.06.13 13:00",
    "o": 1.25655,
    "h": 1.25746,
    "l": 1.25637,
    "c": 1.2568,
    "v": 2313
  },
  {
    "dt": "2023.06.13 14:00",
    "o": 1.25682,
    "h": 1.25746,
    "l": 1.25637,
    "c": 1.2571,
    "v": 2272
  },
  {
    "dt": "2023.06.13 15:00",
    "o": 1.25718,
    "h": 1.26046,
    "l": 1.25674,
    "c": 1.25937,
    "v": 4192
  },
  {
    "dt": "2023.06.13 16:00",
    "o": 1.25937,
    "h": 1.26008,
    "l": 1.25718,
    "c": 1.25847,
    "v": 4390
  },
  {
    "dt": "2023.06.13 17:00",
    "o": 1.25847,
    "h": 1.26048,
    "l": 1.25723,
    "c": 1.26033,
    "v": 3984
  },
  {
    "dt": "2023.06.13 18:00",
    "o": 1.26034,
    "h": 1.26204,
    "l": 1.25998,
    "c": 1.2609,
    "v": 3338
  },
  {
    "dt": "2023.06.13 19:00",
    "o": 1.26088,
    "h": 1.26239,
    "l": 1.26074,
    "c": 1.26218,
    "v": 2527
  },
  {
    "dt": "2023.06.13 20:00",
    "o": 1.26214,
    "h": 1.26233,
    "l": 1.26019,
    "c": 1.26041,
    "v": 2354
  },
  {
    "dt": "2023.06.13 21:00",
    "o": 1.26042,
    "h": 1.26056,
    "l": 1.25919,
    "c": 1.26011,
    "v": 2425
  },
  {
    "dt": "2023.06.13 22:00",
    "o": 1.26013,
    "h": 1.26095,
    "l": 1.25961,
    "c": 1.26074,
    "v": 1962
  },
  {
    "dt": "2023.06.13 23:00",
    "o": 1.26074,
    "h": 1.26109,
    "l": 1.26061,
    "c": 1.26105,
    "v": 755
  },
  {
    "dt": "2023.06.14 00:00",
    "o": 1.26104,
    "h": 1.2612,
    "l": 1.26044,
    "c": 1.26109,
    "v": 151
  },
  {
    "dt": "2023.06.14 01:00",
    "o": 1.26082,
    "h": 1.26111,
    "l": 1.26071,
    "c": 1.26092,
    "v": 742
  },
  {
    "dt": "2023.06.14 02:00",
    "o": 1.26091,
    "h": 1.26104,
    "l": 1.26027,
    "c": 1.26057,
    "v": 1146
  },
  {
    "dt": "2023.06.14 03:00",
    "o": 1.26057,
    "h": 1.26091,
    "l": 1.26002,
    "c": 1.26076,
    "v": 1834
  },
  {
    "dt": "2023.06.14 04:00",
    "o": 1.26076,
    "h": 1.26164,
    "l": 1.2607,
    "c": 1.26148,
    "v": 1941
  },
  {
    "dt": "2023.06.14 05:00",
    "o": 1.26145,
    "h": 1.2615,
    "l": 1.26094,
    "c": 1.26138,
    "v": 1383
  },
  {
    "dt": "2023.06.14 06:00",
    "o": 1.26138,
    "h": 1.26147,
    "l": 1.26102,
    "c": 1.26119,
    "v": 1377
  },
  {
    "dt": "2023.06.14 07:00",
    "o": 1.26118,
    "h": 1.2614,
    "l": 1.26042,
    "c": 1.26113,
    "v": 1304
  },
  {
    "dt": "2023.06.14 08:00",
    "o": 1.26114,
    "h": 1.26134,
    "l": 1.25999,
    "c": 1.26014,
    "v": 2238
  },
  {
    "dt": "2023.06.14 09:00",
    "o": 1.26012,
    "h": 1.26124,
    "l": 1.26,
    "c": 1.26058,
    "v": 2440
  },
  {
    "dt": "2023.06.14 10:00",
    "o": 1.26058,
    "h": 1.26206,
    "l": 1.26001,
    "c": 1.26183,
    "v": 2722
  },
  {
    "dt": "2023.06.14 11:00",
    "o": 1.26184,
    "h": 1.2637,
    "l": 1.26137,
    "c": 1.26337,
    "v": 2174
  },
  {
    "dt": "2023.06.14 12:00",
    "o": 1.26337,
    "h": 1.26456,
    "l": 1.26313,
    "c": 1.26455,
    "v": 2434
  },
  {
    "dt": "2023.06.14 13:00",
    "o": 1.26454,
    "h": 1.26487,
    "l": 1.26382,
    "c": 1.26383,
    "v": 2153
  },
  {
    "dt": "2023.06.14 14:00",
    "o": 1.26381,
    "h": 1.26483,
    "l": 1.26366,
    "c": 1.26469,
    "v": 2019
  },
  {
    "dt": "2023.06.14 15:00",
    "o": 1.26467,
    "h": 1.26778,
    "l": 1.26459,
    "c": 1.26737,
    "v": 3063
  },
  {
    "dt": "2023.06.14 16:00",
    "o": 1.26733,
    "h": 1.26915,
    "l": 1.26705,
    "c": 1.26829,
    "v": 3259
  },
  {
    "dt": "2023.06.14 17:00",
    "o": 1.26829,
    "h": 1.26983,
    "l": 1.26786,
    "c": 1.26949,
    "v": 2759
  },
  {
    "dt": "2023.06.14 18:00",
    "o": 1.26944,
    "h": 1.26971,
    "l": 1.26862,
    "c": 1.26935,
    "v": 2436
  },
  {
    "dt": "2023.06.14 19:00",
    "o": 1.26932,
    "h": 1.26979,
    "l": 1.26885,
    "c": 1.26938,
    "v": 1962
  },
  {
    "dt": "2023.06.14 20:00",
    "o": 1.26941,
    "h": 1.26941,
    "l": 1.26819,
    "c": 1.26851,
    "v": 2243
  },
  {
    "dt": "2023.06.14 21:00",
    "o": 1.26811,
    "h": 1.26835,
    "l": 1.26257,
    "c": 1.26683,
    "v": 5675
  },
  {
    "dt": "2023.06.14 22:00",
    "o": 1.26678,
    "h": 1.26789,
    "l": 1.26529,
    "c": 1.26573,
    "v": 4224
  },
  {
    "dt": "2023.06.14 23:00",
    "o": 1.26568,
    "h": 1.26636,
    "l": 1.26553,
    "c": 1.2661,
    "v": 1666
  },
  {
    "dt": "2023.06.15 00:00",
    "o": 1.26594,
    "h": 1.26637,
    "l": 1.26541,
    "c": 1.26591,
    "v": 225
  },
  {
    "dt": "2023.06.15 01:00",
    "o": 1.26612,
    "h": 1.26635,
    "l": 1.26583,
    "c": 1.26599,
    "v": 629
  },
  {
    "dt": "2023.06.15 02:00",
    "o": 1.26601,
    "h": 1.26701,
    "l": 1.26593,
    "c": 1.26701,
    "v": 794
  },
  {
    "dt": "2023.06.15 03:00",
    "o": 1.26698,
    "h": 1.26733,
    "l": 1.26553,
    "c": 1.26583,
    "v": 1733
  },
  {
    "dt": "2023.06.15 04:00",
    "o": 1.26579,
    "h": 1.26587,
    "l": 1.26326,
    "c": 1.26342,
    "v": 2615
  },
  {
    "dt": "2023.06.15 05:00",
    "o": 1.26341,
    "h": 1.26408,
    "l": 1.26284,
    "c": 1.26331,
    "v": 2189
  },
  {
    "dt": "2023.06.15 06:00",
    "o": 1.26333,
    "h": 1.26433,
    "l": 1.26325,
    "c": 1.26433,
    "v": 1579
  },
  {
    "dt": "2023.06.15 07:00",
    "o": 1.26433,
    "h": 1.26433,
    "l": 1.26344,
    "c": 1.26365,
    "v": 1416
  },
  {
    "dt": "2023.06.15 08:00",
    "o": 1.26366,
    "h": 1.26555,
    "l": 1.26304,
    "c": 1.26488,
    "v": 2416
  },
  {
    "dt": "2023.06.15 09:00",
    "o": 1.26488,
    "h": 1.2657,
    "l": 1.26349,
    "c": 1.26473,
    "v": 2992
  },
  {
    "dt": "2023.06.15 10:00",
    "o": 1.26469,
    "h": 1.26558,
    "l": 1.26385,
    "c": 1.2654,
    "v": 2894
  },
  {
    "dt": "2023.06.15 11:00",
    "o": 1.26539,
    "h": 1.26716,
    "l": 1.26515,
    "c": 1.26602,
    "v": 2416
  },
  {
    "dt": "2023.06.15 12:00",
    "o": 1.26602,
    "h": 1.2666,
    "l": 1.26527,
    "c": 1.26613,
    "v": 2466
  },
  {
    "dt": "2023.06.15 13:00",
    "o": 1.26614,
    "h": 1.26688,
    "l": 1.26478,
    "c": 1.2666,
    "v": 2192
  },
  {
    "dt": "2023.06.15 14:00",
    "o": 1.26659,
    "h": 1.26684,
    "l": 1.26423,
    "c": 1.26423,
    "v": 2427
  },
  {
    "dt": "2023.06.15 15:00",
    "o": 1.26425,
    "h": 1.26683,
    "l": 1.26393,
    "c": 1.26669,
    "v": 4073
  },
  {
    "dt": "2023.06.15 16:00",
    "o": 1.26665,
    "h": 1.27217,
    "l": 1.26619,
    "c": 1.27195,
    "v": 3865
  },
  {
    "dt": "2023.06.15 17:00",
    "o": 1.2719,
    "h": 1.27496,
    "l": 1.2719,
    "c": 1.27422,
    "v": 3830
  },
  {
    "dt": "2023.06.15 18:00",
    "o": 1.27418,
    "h": 1.27644,
    "l": 1.27348,
    "c": 1.27587,
    "v": 2863
  },
  {
    "dt": "2023.06.15 19:00",
    "o": 1.27585,
    "h": 1.27752,
    "l": 1.27582,
    "c": 1.27735,
    "v": 2416
  },
  {
    "dt": "2023.06.15 20:00",
    "o": 1.27728,
    "h": 1.27812,
    "l": 1.27665,
    "c": 1.27718,
    "v": 2141
  },
  {
    "dt": "2023.06.15 21:00",
    "o": 1.27723,
    "h": 1.27825,
    "l": 1.27713,
    "c": 1.27805,
    "v": 1808
  },
  {
    "dt": "2023.06.15 22:00",
    "o": 1.27805,
    "h": 1.27848,
    "l": 1.27766,
    "c": 1.2783,
    "v": 2162
  },
  {
    "dt": "2023.06.15 23:00",
    "o": 1.27829,
    "h": 1.27842,
    "l": 1.27808,
    "c": 1.27838,
    "v": 1088
  },
  {
    "dt": "2023.06.16 00:00",
    "o": 1.27771,
    "h": 1.27826,
    "l": 1.27771,
    "c": 1.2781,
    "v": 235
  },
  {
    "dt": "2023.06.16 01:00",
    "o": 1.27795,
    "h": 1.27869,
    "l": 1.27794,
    "c": 1.27867,
    "v": 1061
  },
  {
    "dt": "2023.06.16 02:00",
    "o": 1.27866,
    "h": 1.27898,
    "l": 1.27836,
    "c": 1.27841,
    "v": 714
  },
  {
    "dt": "2023.06.16 03:00",
    "o": 1.27839,
    "h": 1.2792,
    "l": 1.27794,
    "c": 1.27806,
    "v": 1392
  },
  {
    "dt": "2023.06.16 04:00",
    "o": 1.27808,
    "h": 1.27875,
    "l": 1.27769,
    "c": 1.27798,
    "v": 2043
  },
  {
    "dt": "2023.06.16 05:00",
    "o": 1.27796,
    "h": 1.27818,
    "l": 1.27671,
    "c": 1.27685,
    "v": 2076
  },
  {
    "dt": "2023.06.16 06:00",
    "o": 1.27685,
    "h": 1.27791,
    "l": 1.27685,
    "c": 1.27749,
    "v": 1667
  },
  {
    "dt": "2023.06.16 07:00",
    "o": 1.27746,
    "h": 1.2781,
    "l": 1.27721,
    "c": 1.27785,
    "v": 1329
  },
  {
    "dt": "2023.06.16 08:00",
    "o": 1.27784,
    "h": 1.27897,
    "l": 1.27765,
    "c": 1.27863,
    "v": 1882
  },
  {
    "dt": "2023.06.16 09:00",
    "o": 1.2786,
    "h": 1.2817,
    "l": 1.27846,
    "c": 1.28001,
    "v": 3128
  },
  {
    "dt": "2023.06.16 10:00",
    "o": 1.28002,
    "h": 1.28043,
    "l": 1.27802,
    "c": 1.27861,
    "v": 3328
  },
  {
    "dt": "2023.06.16 11:00",
    "o": 1.27852,
    "h": 1.27967,
    "l": 1.27812,
    "c": 1.27954,
    "v": 2808
  },
  {
    "dt": "2023.06.16 12:00",
    "o": 1.27951,
    "h": 1.27972,
    "l": 1.27828,
    "c": 1.27937,
    "v": 2661
  },
  {
    "dt": "2023.06.16 13:00",
    "o": 1.27934,
    "h": 1.27961,
    "l": 1.27852,
    "c": 1.27891,
    "v": 2218
  },
  {
    "dt": "2023.06.16 14:00",
    "o": 1.27891,
    "h": 1.28247,
    "l": 1.2789,
    "c": 1.28238,
    "v": 2413
  },
  {
    "dt": "2023.06.16 15:00",
    "o": 1.28245,
    "h": 1.28471,
    "l": 1.28137,
    "c": 1.28148,
    "v": 3105
  },
  {
    "dt": "2023.06.16 16:00",
    "o": 1.28145,
    "h": 1.28391,
    "l": 1.28051,
    "c": 1.2836,
    "v": 3479
  },
  {
    "dt": "2023.06.16 17:00",
    "o": 1.28349,
    "h": 1.28464,
    "l": 1.28025,
    "c": 1.28109,
    "v": 4517
  },
  {
    "dt": "2023.06.16 18:00",
    "o": 1.28106,
    "h": 1.28233,
    "l": 1.28033,
    "c": 1.28134,
    "v": 3499
  },
  {
    "dt": "2023.06.16 19:00",
    "o": 1.28133,
    "h": 1.28265,
    "l": 1.28122,
    "c": 1.28265,
    "v": 2594
  },
  {
    "dt": "2023.06.16 20:00",
    "o": 1.28262,
    "h": 1.28341,
    "l": 1.28235,
    "c": 1.2832,
    "v": 2363
  },
  {
    "dt": "2023.06.16 21:00",
    "o": 1.28319,
    "h": 1.28346,
    "l": 1.28263,
    "c": 1.28324,
    "v": 2529
  },
  {
    "dt": "2023.06.16 22:00",
    "o": 1.28324,
    "h": 1.28331,
    "l": 1.2819,
    "c": 1.28196,
    "v": 2600
  },
  {
    "dt": "2023.06.16 23:00",
    "o": 1.28197,
    "h": 1.28247,
    "l": 1.28189,
    "c": 1.28208,
    "v": 1221
  },
  {
    "dt": "2023.06.19 00:00",
    "o": 1.28133,
    "h": 1.28253,
    "l": 1.28133,
    "c": 1.2823,
    "v": 247
  },
  {
    "dt": "2023.06.19 01:00",
    "o": 1.28235,
    "h": 1.28317,
    "l": 1.28233,
    "c": 1.28295,
    "v": 948
  },
  {
    "dt": "2023.06.19 02:00",
    "o": 1.28296,
    "h": 1.28315,
    "l": 1.28249,
    "c": 1.28299,
    "v": 1107
  },
  {
    "dt": "2023.06.19 03:00",
    "o": 1.28302,
    "h": 1.28359,
    "l": 1.28171,
    "c": 1.28199,
    "v": 1745
  },
  {
    "dt": "2023.06.19 04:00",
    "o": 1.282,
    "h": 1.28241,
    "l": 1.28128,
    "c": 1.28167,
    "v": 1815
  },
  {
    "dt": "2023.06.19 05:00",
    "o": 1.28164,
    "h": 1.28214,
    "l": 1.28154,
    "c": 1.28166,
    "v": 1659
  },
  {
    "dt": "2023.06.19 06:00",
    "o": 1.28165,
    "h": 1.2818,
    "l": 1.28104,
    "c": 1.28157,
    "v": 1600
  },
  {
    "dt": "2023.06.19 07:00",
    "o": 1.28158,
    "h": 1.2816,
    "l": 1.28091,
    "c": 1.28124,
    "v": 1552
  },
  {
    "dt": "2023.06.19 08:00",
    "o": 1.28123,
    "h": 1.28253,
    "l": 1.28099,
    "c": 1.28216,
    "v": 1592
  },
  {
    "dt": "2023.06.19 09:00",
    "o": 1.28214,
    "h": 1.28276,
    "l": 1.28081,
    "c": 1.28167,
    "v": 2334
  },
  {
    "dt": "2023.06.19 10:00",
    "o": 1.28176,
    "h": 1.28294,
    "l": 1.2809,
    "c": 1.28122,
    "v": 2827
  },
  {
    "dt": "2023.06.19 11:00",
    "o": 1.28123,
    "h": 1.2822,
    "l": 1.28069,
    "c": 1.28165,
    "v": 2900
  },
  {
    "dt": "2023.06.19 12:00",
    "o": 1.28163,
    "h": 1.28189,
    "l": 1.28022,
    "c": 1.28039,
    "v": 2554
  },
  {
    "dt": "2023.06.19 13:00",
    "o": 1.28042,
    "h": 1.2813,
    "l": 1.28015,
    "c": 1.28064,
    "v": 2421
  },
  {
    "dt": "2023.06.19 14:00",
    "o": 1.28066,
    "h": 1.2815,
    "l": 1.28042,
    "c": 1.28098,
    "v": 2048
  },
  {
    "dt": "2023.06.19 15:00",
    "o": 1.28099,
    "h": 1.28124,
    "l": 1.28033,
    "c": 1.28077,
    "v": 2211
  },
  {
    "dt": "2023.06.19 16:00",
    "o": 1.28073,
    "h": 1.28119,
    "l": 1.27944,
    "c": 1.27966,
    "v": 2428
  },
  {
    "dt": "2023.06.19 17:00",
    "o": 1.27969,
    "h": 1.28026,
    "l": 1.27836,
    "c": 1.27957,
    "v": 2432
  },
  {
    "dt": "2023.06.19 18:00",
    "o": 1.27956,
    "h": 1.28016,
    "l": 1.27913,
    "c": 1.27923,
    "v": 1787
  },
  {
    "dt": "2023.06.19 19:00",
    "o": 1.27922,
    "h": 1.27962,
    "l": 1.27694,
    "c": 1.27727,
    "v": 1648
  },
  {
    "dt": "2023.06.19 20:00",
    "o": 1.27727,
    "h": 1.2781,
    "l": 1.27722,
    "c": 1.27784,
    "v": 717
  },
  {
    "dt": "2023.06.19 21:00",
    "o": 1.27784,
    "h": 1.27826,
    "l": 1.27779,
    "c": 1.27792,
    "v": 837
  },
  {
    "dt": "2023.06.19 22:00",
    "o": 1.27793,
    "h": 1.27811,
    "l": 1.27782,
    "c": 1.27794,
    "v": 505
  },
  {
    "dt": "2023.06.19 23:00",
    "o": 1.27791,
    "h": 1.27924,
    "l": 1.27753,
    "c": 1.2792,
    "v": 753
  },
  {
    "dt": "2023.06.20 00:00",
    "o": 1.2785,
    "h": 1.27956,
    "l": 1.27815,
    "c": 1.27905,
    "v": 557
  },
  {
    "dt": "2023.06.20 01:00",
    "o": 1.27911,
    "h": 1.28054,
    "l": 1.27911,
    "c": 1.27971,
    "v": 1135
  },
  {
    "dt": "2023.06.20 02:00",
    "o": 1.27971,
    "h": 1.27994,
    "l": 1.27899,
    "c": 1.27921,
    "v": 782
  },
  {
    "dt": "2023.06.20 03:00",
    "o": 1.27924,
    "h": 1.28018,
    "l": 1.27877,
    "c": 1.28004,
    "v": 2206
  },
  {
    "dt": "2023.06.20 04:00",
    "o": 1.27999,
    "h": 1.28039,
    "l": 1.27802,
    "c": 1.27842,
    "v": 2849
  },
  {
    "dt": "2023.06.20 05:00",
    "o": 1.27842,
    "h": 1.27987,
    "l": 1.27812,
    "c": 1.27949,
    "v": 2970
  },
  {
    "dt": "2023.06.20 06:00",
    "o": 1.27947,
    "h": 1.2796,
    "l": 1.27889,
    "c": 1.27899,
    "v": 1736
  },
  {
    "dt": "2023.06.20 07:00",
    "o": 1.279,
    "h": 1.27911,
    "l": 1.27771,
    "c": 1.27778,
    "v": 1758
  },
  {
    "dt": "2023.06.20 08:00",
    "o": 1.27776,
    "h": 1.27847,
    "l": 1.27683,
    "c": 1.27804,
    "v": 2474
  },
  {
    "dt": "2023.06.20 09:00",
    "o": 1.27813,
    "h": 1.27873,
    "l": 1.2772,
    "c": 1.2776,
    "v": 2918
  },
  {
    "dt": "2023.06.20 10:00",
    "o": 1.2776,
    "h": 1.28053,
    "l": 1.27612,
    "c": 1.28015,
    "v": 3516
  },
  {
    "dt": "2023.06.20 11:00",
    "o": 1.28012,
    "h": 1.28028,
    "l": 1.27717,
    "c": 1.27825,
    "v": 3249
  },
  {
    "dt": "2023.06.20 12:00",
    "o": 1.27825,
    "h": 1.27866,
    "l": 1.2765,
    "c": 1.27655,
    "v": 2645
  },
  {
    "dt": "2023.06.20 13:00",
    "o": 1.27653,
    "h": 1.2774,
    "l": 1.27599,
    "c": 1.27642,
    "v": 2715
  },
  {
    "dt": "2023.06.20 14:00",
    "o": 1.27643,
    "h": 1.27662,
    "l": 1.2748,
    "c": 1.2752,
    "v": 2690
  },
  {
    "dt": "2023.06.20 15:00",
    "o": 1.27523,
    "h": 1.27598,
    "l": 1.27248,
    "c": 1.27387,
    "v": 3537
  },
  {
    "dt": "2023.06.20 16:00",
    "o": 1.27382,
    "h": 1.27434,
    "l": 1.27231,
    "c": 1.27254,
    "v": 3974
  },
  {
    "dt": "2023.06.20 17:00",
    "o": 1.27247,
    "h": 1.2735,
    "l": 1.27124,
    "c": 1.27332,
    "v": 4072
  },
  {
    "dt": "2023.06.20 18:00",
    "o": 1.27333,
    "h": 1.27461,
    "l": 1.27282,
    "c": 1.27283,
    "v": 3278
  },
  {
    "dt": "2023.06.20 19:00",
    "o": 1.27283,
    "h": 1.27555,
    "l": 1.27204,
    "c": 1.27545,
    "v": 2875
  },
  {
    "dt": "2023.06.20 20:00",
    "o": 1.27544,
    "h": 1.27569,
    "l": 1.27472,
    "c": 1.27513,
    "v": 2407
  },
  {
    "dt": "2023.06.20 21:00",
    "o": 1.27511,
    "h": 1.27589,
    "l": 1.27462,
    "c": 1.27583,
    "v": 2234
  },
  {
    "dt": "2023.06.20 22:00",
    "o": 1.2758,
    "h": 1.27661,
    "l": 1.27491,
    "c": 1.27622,
    "v": 1893
  },
  {
    "dt": "2023.06.20 23:00",
    "o": 1.27624,
    "h": 1.27678,
    "l": 1.27607,
    "c": 1.27637,
    "v": 1060
  },
  {
    "dt": "2023.06.21 00:00",
    "o": 1.27532,
    "h": 1.27646,
    "l": 1.27532,
    "c": 1.2761,
    "v": 210
  },
  {
    "dt": "2023.06.21 01:00",
    "o": 1.27613,
    "h": 1.27652,
    "l": 1.27608,
    "c": 1.27624,
    "v": 691
  },
  {
    "dt": "2023.06.21 02:00",
    "o": 1.27628,
    "h": 1.2765,
    "l": 1.27599,
    "c": 1.27643,
    "v": 1150
  },
  {
    "dt": "2023.06.21 03:00",
    "o": 1.27642,
    "h": 1.2765,
    "l": 1.27565,
    "c": 1.27579,
    "v": 2283
  },
  {
    "dt": "2023.06.21 04:00",
    "o": 1.2758,
    "h": 1.27621,
    "l": 1.27529,
    "c": 1.27591,
    "v": 2273
  },
  {
    "dt": "2023.06.21 05:00",
    "o": 1.27594,
    "h": 1.27666,
    "l": 1.27543,
    "c": 1.27549,
    "v": 2269
  },
  {
    "dt": "2023.06.21 06:00",
    "o": 1.27553,
    "h": 1.27597,
    "l": 1.27545,
    "c": 1.27593,
    "v": 2601
  },
  {
    "dt": "2023.06.21 07:00",
    "o": 1.27596,
    "h": 1.27667,
    "l": 1.27566,
    "c": 1.2764,
    "v": 1749
  },
  {
    "dt": "2023.06.21 08:00",
    "o": 1.27641,
    "h": 1.27651,
    "l": 1.27546,
    "c": 1.27597,
    "v": 2316
  },
  {
    "dt": "2023.06.21 09:00",
    "o": 1.27587,
    "h": 1.28007,
    "l": 1.27553,
    "c": 1.27823,
    "v": 3854
  },
  {
    "dt": "2023.06.21 10:00",
    "o": 1.27831,
    "h": 1.27831,
    "l": 1.27297,
    "c": 1.27352,
    "v": 3406
  },
  {
    "dt": "2023.06.21 11:00",
    "o": 1.27351,
    "h": 1.27446,
    "l": 1.2714,
    "c": 1.27193,
    "v": 3553
  },
  {
    "dt": "2023.06.21 12:00",
    "o": 1.27193,
    "h": 1.27242,
    "l": 1.2699,
    "c": 1.26996,
    "v": 2864
  },
  {
    "dt": "2023.06.21 13:00",
    "o": 1.26996,
    "h": 1.27127,
    "l": 1.26899,
    "c": 1.2699,
    "v": 2876
  },
  {
    "dt": "2023.06.21 14:00",
    "o": 1.26986,
    "h": 1.27335,
    "l": 1.26982,
    "c": 1.27271,
    "v": 2887
  },
  {
    "dt": "2023.06.21 15:00",
    "o": 1.27269,
    "h": 1.27308,
    "l": 1.27057,
    "c": 1.27293,
    "v": 3799
  },
  {
    "dt": "2023.06.21 16:00",
    "o": 1.27295,
    "h": 1.27318,
    "l": 1.27008,
    "c": 1.27184,
    "v": 3963
  },
  {
    "dt": "2023.06.21 17:00",
    "o": 1.27182,
    "h": 1.27541,
    "l": 1.27098,
    "c": 1.27288,
    "v": 4569
  },
  {
    "dt": "2023.06.21 18:00",
    "o": 1.2729,
    "h": 1.27412,
    "l": 1.27138,
    "c": 1.27338,
    "v": 3640
  },
  {
    "dt": "2023.06.21 19:00",
    "o": 1.27333,
    "h": 1.27591,
    "l": 1.27312,
    "c": 1.27552,
    "v": 3011
  },
  {
    "dt": "2023.06.21 20:00",
    "o": 1.2755,
    "h": 1.27696,
    "l": 1.2752,
    "c": 1.27673,
    "v": 2711
  },
  {
    "dt": "2023.06.21 21:00",
    "o": 1.27673,
    "h": 1.27843,
    "l": 1.27661,
    "c": 1.27737,
    "v": 2625
  },
  {
    "dt": "2023.06.21 22:00",
    "o": 1.27731,
    "h": 1.27774,
    "l": 1.27694,
    "c": 1.27747,
    "v": 2264
  },
  {
    "dt": "2023.06.21 23:00",
    "o": 1.27748,
    "h": 1.27764,
    "l": 1.2763,
    "c": 1.27664,
    "v": 865
  },
  {
    "dt": "2023.06.22 00:00",
    "o": 1.27659,
    "h": 1.27684,
    "l": 1.27602,
    "c": 1.27666,
    "v": 267
  },
  {
    "dt": "2023.06.22 01:00",
    "o": 1.27671,
    "h": 1.27694,
    "l": 1.27645,
    "c": 1.2769,
    "v": 1086
  },
  {
    "dt": "2023.06.22 02:00",
    "o": 1.2769,
    "h": 1.27727,
    "l": 1.2768,
    "c": 1.27692,
    "v": 1222
  },
  {
    "dt": "2023.06.22 03:00",
    "o": 1.27693,
    "h": 1.2771,
    "l": 1.27655,
    "c": 1.27678,
    "v": 2284
  },
  {
    "dt": "2023.06.22 04:00",
    "o": 1.27676,
    "h": 1.27728,
    "l": 1.27658,
    "c": 1.27684,
    "v": 1894
  },
  {
    "dt": "2023.06.22 05:00",
    "o": 1.27683,
    "h": 1.27694,
    "l": 1.2761,
    "c": 1.2767,
    "v": 1687
  },
  {
    "dt": "2023.06.22 06:00",
    "o": 1.27671,
    "h": 1.2769,
    "l": 1.27631,
    "c": 1.2767,
    "v": 1691
  },
  {
    "dt": "2023.06.22 07:00",
    "o": 1.2767,
    "h": 1.27693,
    "l": 1.2757,
    "c": 1.27577,
    "v": 1582
  },
  {
    "dt": "2023.06.22 08:00",
    "o": 1.27578,
    "h": 1.27586,
    "l": 1.2751,
    "c": 1.27524,
    "v": 2261
  },
  {
    "dt": "2023.06.22 09:00",
    "o": 1.27527,
    "h": 1.276,
    "l": 1.27421,
    "c": 1.27454,
    "v": 2656
  },
  {
    "dt": "2023.06.22 10:00",
    "o": 1.27454,
    "h": 1.27708,
    "l": 1.27379,
    "c": 1.27645,
    "v": 3617
  },
  {
    "dt": "2023.06.22 11:00",
    "o": 1.27647,
    "h": 1.27867,
    "l": 1.27637,
    "c": 1.27746,
    "v": 3256
  },
  {
    "dt": "2023.06.22 12:00",
    "o": 1.27746,
    "h": 1.27884,
    "l": 1.27724,
    "c": 1.27878,
    "v": 2638
  },
  {
    "dt": "2023.06.22 13:00",
    "o": 1.27879,
    "h": 1.27965,
    "l": 1.27739,
    "c": 1.27825,
    "v": 2570
  },
  {
    "dt": "2023.06.22 14:00",
    "o": 1.27825,
    "h": 1.28357,
    "l": 1.27373,
    "c": 1.27722,
    "v": 4305
  },
  {
    "dt": "2023.06.22 15:00",
    "o": 1.27729,
    "h": 1.27825,
    "l": 1.27412,
    "c": 1.27478,
    "v": 4067
  },
  {
    "dt": "2023.06.22 16:00",
    "o": 1.27475,
    "h": 1.2763,
    "l": 1.27264,
    "c": 1.27581,
    "v": 4282
  },
  {
    "dt": "2023.06.22 17:00",
    "o": 1.2759,
    "h": 1.27626,
    "l": 1.27345,
    "c": 1.2743,
    "v": 4079
  },
  {
    "dt": "2023.06.22 18:00",
    "o": 1.2743,
    "h": 1.27547,
    "l": 1.27315,
    "c": 1.27465,
    "v": 3485
  },
  {
    "dt": "2023.06.22 19:00",
    "o": 1.27465,
    "h": 1.27482,
    "l": 1.27315,
    "c": 1.27319,
    "v": 2621
  },
  {
    "dt": "2023.06.22 20:00",
    "o": 1.27319,
    "h": 1.27362,
    "l": 1.27246,
    "c": 1.27362,
    "v": 2158
  },
  {
    "dt": "2023.06.22 21:00",
    "o": 1.27365,
    "h": 1.27441,
    "l": 1.27332,
    "c": 1.27439,
    "v": 2420
  },
  {
    "dt": "2023.06.22 22:00",
    "o": 1.27439,
    "h": 1.27472,
    "l": 1.27414,
    "c": 1.27445,
    "v": 2215
  },
  {
    "dt": "2023.06.22 23:00",
    "o": 1.27445,
    "h": 1.27474,
    "l": 1.27404,
    "c": 1.27467,
    "v": 1275
  },
  {
    "dt": "2023.06.23 00:00",
    "o": 1.27391,
    "h": 1.27465,
    "l": 1.27382,
    "c": 1.27422,
    "v": 342
  },
  {
    "dt": "2023.06.23 01:00",
    "o": 1.27423,
    "h": 1.2746,
    "l": 1.27407,
    "c": 1.27457,
    "v": 918
  },
  {
    "dt": "2023.06.23 02:00",
    "o": 1.2746,
    "h": 1.27479,
    "l": 1.27441,
    "c": 1.27456,
    "v": 1253
  },
  {
    "dt": "2023.06.23 03:00",
    "o": 1.27456,
    "h": 1.27481,
    "l": 1.27395,
    "c": 1.27456,
    "v": 2059
  },
  {
    "dt": "2023.06.23 04:00",
    "o": 1.27455,
    "h": 1.27473,
    "l": 1.2723,
    "c": 1.27231,
    "v": 2413
  },
  {
    "dt": "2023.06.23 05:00",
    "o": 1.2723,
    "h": 1.27241,
    "l": 1.271,
    "c": 1.27145,
    "v": 2331
  },
  {
    "dt": "2023.06.23 06:00",
    "o": 1.27144,
    "h": 1.27166,
    "l": 1.27081,
    "c": 1.27109,
    "v": 2124
  },
  {
    "dt": "2023.06.23 07:00",
    "o": 1.2711,
    "h": 1.27114,
    "l": 1.26953,
    "c": 1.27065,
    "v": 2163
  },
  {
    "dt": "2023.06.23 08:00",
    "o": 1.27068,
    "h": 1.2711,
    "l": 1.2704,
    "c": 1.27042,
    "v": 2248
  },
  {
    "dt": "2023.06.23 09:00",
    "o": 1.27043,
    "h": 1.27253,
    "l": 1.27042,
    "c": 1.27175,
    "v": 2758
  },
  {
    "dt": "2023.06.23 10:00",
    "o": 1.27169,
    "h": 1.2729,
    "l": 1.26933,
    "c": 1.27088,
    "v": 4145
  },
  {
    "dt": "2023.06.23 11:00",
    "o": 1.27087,
    "h": 1.27175,
    "l": 1.26841,
    "c": 1.27,
    "v": 3733
  },
  {
    "dt": "2023.06.23 12:00",
    "o": 1.27,
    "h": 1.27229,
    "l": 1.26894,
    "c": 1.27174,
    "v": 3287
  },
  {
    "dt": "2023.06.23 13:00",
    "o": 1.27175,
    "h": 1.2735,
    "l": 1.27127,
    "c": 1.27181,
    "v": 2878
  },
  {
    "dt": "2023.06.23 14:00",
    "o": 1.27177,
    "h": 1.27273,
    "l": 1.2714,
    "c": 1.27202,
    "v": 2862
  },
  {
    "dt": "2023.06.23 15:00",
    "o": 1.27204,
    "h": 1.27354,
    "l": 1.27105,
    "c": 1.27106,
    "v": 3538
  },
  {
    "dt": "2023.06.23 16:00",
    "o": 1.27109,
    "h": 1.2725,
    "l": 1.27016,
    "c": 1.27067,
    "v": 3865
  },
  {
    "dt": "2023.06.23 17:00",
    "o": 1.27067,
    "h": 1.27274,
    "l": 1.26972,
    "c": 1.27095,
    "v": 4172
  },
  {
    "dt": "2023.06.23 18:00",
    "o": 1.27097,
    "h": 1.2715,
    "l": 1.26965,
    "c": 1.26972,
    "v": 3349
  },
  {
    "dt": "2023.06.23 19:00",
    "o": 1.2697,
    "h": 1.26994,
    "l": 1.26875,
    "c": 1.26978,
    "v": 2745
  },
  {
    "dt": "2023.06.23 20:00",
    "o": 1.26979,
    "h": 1.27147,
    "l": 1.26979,
    "c": 1.27109,
    "v": 2278
  },
  {
    "dt": "2023.06.23 21:00",
    "o": 1.27104,
    "h": 1.27107,
    "l": 1.27051,
    "c": 1.27082,
    "v": 1994
  },
  {
    "dt": "2023.06.23 22:00",
    "o": 1.27081,
    "h": 1.27189,
    "l": 1.27052,
    "c": 1.27174,
    "v": 2075
  },
  {
    "dt": "2023.06.23 23:00",
    "o": 1.27174,
    "h": 1.27207,
    "l": 1.27122,
    "c": 1.27144,
    "v": 1408
  },
  {
    "dt": "2023.06.26 00:00",
    "o": 1.2707,
    "h": 1.27185,
    "l": 1.27054,
    "c": 1.27185,
    "v": 130
  },
  {
    "dt": "2023.06.26 01:00",
    "o": 1.27179,
    "h": 1.27239,
    "l": 1.27162,
    "c": 1.27221,
    "v": 1453
  },
  {
    "dt": "2023.06.26 02:00",
    "o": 1.27221,
    "h": 1.27305,
    "l": 1.27201,
    "c": 1.27283,
    "v": 1652
  },
  {
    "dt": "2023.06.26 03:00",
    "o": 1.2728,
    "h": 1.27344,
    "l": 1.2724,
    "c": 1.27325,
    "v": 2692
  },
  {
    "dt": "2023.06.26 04:00",
    "o": 1.27336,
    "h": 1.27379,
    "l": 1.27258,
    "c": 1.27301,
    "v": 2671
  },
  {
    "dt": "2023.06.26 05:00",
    "o": 1.27301,
    "h": 1.27359,
    "l": 1.27297,
    "c": 1.27322,
    "v": 2112
  },
  {
    "dt": "2023.06.26 06:00",
    "o": 1.27321,
    "h": 1.27348,
    "l": 1.27284,
    "c": 1.27307,
    "v": 1788
  },
  {
    "dt": "2023.06.26 07:00",
    "o": 1.27307,
    "h": 1.27326,
    "l": 1.27271,
    "c": 1.27314,
    "v": 1586
  },
  {
    "dt": "2023.06.26 08:00",
    "o": 1.27315,
    "h": 1.27382,
    "l": 1.27304,
    "c": 1.27324,
    "v": 2254
  },
  {
    "dt": "2023.06.26 09:00",
    "o": 1.27323,
    "h": 1.27359,
    "l": 1.27093,
    "c": 1.27208,
    "v": 2778
  },
  {
    "dt": "2023.06.26 10:00",
    "o": 1.27206,
    "h": 1.27474,
    "l": 1.27179,
    "c": 1.2742,
    "v": 3371
  },
  {
    "dt": "2023.06.26 11:00",
    "o": 1.27417,
    "h": 1.27457,
    "l": 1.27287,
    "c": 1.27362,
    "v": 3256
  },
  {
    "dt": "2023.06.26 12:00",
    "o": 1.27359,
    "h": 1.27438,
    "l": 1.27275,
    "c": 1.27297,
    "v": 2525
  },
  {
    "dt": "2023.06.26 13:00",
    "o": 1.27295,
    "h": 1.27356,
    "l": 1.27062,
    "c": 1.27098,
    "v": 2651
  },
  {
    "dt": "2023.06.26 14:00",
    "o": 1.27096,
    "h": 1.27152,
    "l": 1.26871,
    "c": 1.27133,
    "v": 2813
  },
  {
    "dt": "2023.06.26 15:00",
    "o": 1.27132,
    "h": 1.27179,
    "l": 1.27031,
    "c": 1.27102,
    "v": 2909
  },
  {
    "dt": "2023.06.26 16:00",
    "o": 1.271,
    "h": 1.27147,
    "l": 1.27001,
    "c": 1.27133,
    "v": 3103
  },
  {
    "dt": "2023.06.26 17:00",
    "o": 1.27134,
    "h": 1.27168,
    "l": 1.26939,
    "c": 1.27084,
    "v": 3330
  },
  {
    "dt": "2023.06.26 18:00",
    "o": 1.27082,
    "h": 1.27267,
    "l": 1.27071,
    "c": 1.27208,
    "v": 2737
  },
  {
    "dt": "2023.06.26 19:00",
    "o": 1.27208,
    "h": 1.27223,
    "l": 1.27121,
    "c": 1.27211,
    "v": 2529
  },
  {
    "dt": "2023.06.26 20:00",
    "o": 1.2721,
    "h": 1.27249,
    "l": 1.27159,
    "c": 1.27169,
    "v": 1944
  },
  {
    "dt": "2023.06.26 21:00",
    "o": 1.27168,
    "h": 1.27223,
    "l": 1.27154,
    "c": 1.27192,
    "v": 1595
  },
  {
    "dt": "2023.06.26 22:00",
    "o": 1.27193,
    "h": 1.27208,
    "l": 1.2709,
    "c": 1.27093,
    "v": 1849
  },
  {
    "dt": "2023.06.26 23:00",
    "o": 1.27093,
    "h": 1.27132,
    "l": 1.27092,
    "c": 1.271,
    "v": 766
  },
  {
    "dt": "2023.06.27 00:00",
    "o": 1.27092,
    "h": 1.27119,
    "l": 1.27022,
    "c": 1.27101,
    "v": 214
  },
  {
    "dt": "2023.06.27 01:00",
    "o": 1.27101,
    "h": 1.27135,
    "l": 1.271,
    "c": 1.27133,
    "v": 1014
  },
  {
    "dt": "2023.06.27 02:00",
    "o": 1.2713,
    "h": 1.2713,
    "l": 1.27086,
    "c": 1.27098,
    "v": 995
  },
  {
    "dt": "2023.06.27 03:00",
    "o": 1.27101,
    "h": 1.27146,
    "l": 1.27022,
    "c": 1.27043,
    "v": 2193
  },
  {
    "dt": "2023.06.27 04:00",
    "o": 1.27044,
    "h": 1.27358,
    "l": 1.27036,
    "c": 1.27239,
    "v": 2938
  },
  {
    "dt": "2023.06.27 05:00",
    "o": 1.27237,
    "h": 1.27273,
    "l": 1.27173,
    "c": 1.27273,
    "v": 1988
  },
  {
    "dt": "2023.06.27 06:00",
    "o": 1.27274,
    "h": 1.27321,
    "l": 1.27229,
    "c": 1.27268,
    "v": 2270
  },
  {
    "dt": "2023.06.27 07:00",
    "o": 1.27264,
    "h": 1.27313,
    "l": 1.27256,
    "c": 1.27284,
    "v": 1637
  },
  {
    "dt": "2023.06.27 08:00",
    "o": 1.27283,
    "h": 1.27382,
    "l": 1.2728,
    "c": 1.27283,
    "v": 2120
  },
  {
    "dt": "2023.06.27 09:00",
    "o": 1.27282,
    "h": 1.2757,
    "l": 1.27265,
    "c": 1.27465,
    "v": 2576
  },
  {
    "dt": "2023.06.27 10:00",
    "o": 1.27465,
    "h": 1.27501,
    "l": 1.27309,
    "c": 1.27333,
    "v": 2946
  },
  {
    "dt": "2023.06.27 11:00",
    "o": 1.27329,
    "h": 1.27364,
    "l": 1.27253,
    "c": 1.27363,
    "v": 2985
  },
  {
    "dt": "2023.06.27 12:00",
    "o": 1.27365,
    "h": 1.27369,
    "l": 1.27108,
    "c": 1.27173,
    "v": 2616
  },
  {
    "dt": "2023.06.27 13:00",
    "o": 1.27174,
    "h": 1.2738,
    "l": 1.27156,
    "c": 1.27318,
    "v": 2475
  },
  {
    "dt": "2023.06.27 14:00",
    "o": 1.27322,
    "h": 1.27322,
    "l": 1.27196,
    "c": 1.27261,
    "v": 2459
  },
  {
    "dt": "2023.06.27 15:00",
    "o": 1.27262,
    "h": 1.2743,
    "l": 1.27151,
    "c": 1.27354,
    "v": 3583
  },
  {
    "dt": "2023.06.27 16:00",
    "o": 1.27359,
    "h": 1.27562,
    "l": 1.27336,
    "c": 1.27533,
    "v": 3644
  },
  {
    "dt": "2023.06.27 17:00",
    "o": 1.27547,
    "h": 1.27547,
    "l": 1.27323,
    "c": 1.27444,
    "v": 4115
  },
  {
    "dt": "2023.06.27 18:00",
    "o": 1.27452,
    "h": 1.27584,
    "l": 1.2737,
    "c": 1.27483,
    "v": 3406
  },
  {
    "dt": "2023.06.27 19:00",
    "o": 1.27484,
    "h": 1.27553,
    "l": 1.27459,
    "c": 1.27482,
    "v": 2227
  },
  {
    "dt": "2023.06.27 20:00",
    "o": 1.2748,
    "h": 1.27532,
    "l": 1.27424,
    "c": 1.2748,
    "v": 2404
  },
  {
    "dt": "2023.06.27 21:00",
    "o": 1.27482,
    "h": 1.27507,
    "l": 1.2744,
    "c": 1.27507,
    "v": 2328
  },
  {
    "dt": "2023.06.27 22:00",
    "o": 1.27506,
    "h": 1.27566,
    "l": 1.27479,
    "c": 1.27525,
    "v": 2124
  },
  {
    "dt": "2023.06.27 23:00",
    "o": 1.27525,
    "h": 1.27525,
    "l": 1.27457,
    "c": 1.27471,
    "v": 1063
  },
  {
    "dt": "2023.06.28 00:00",
    "o": 1.27473,
    "h": 1.27486,
    "l": 1.27419,
    "c": 1.27471,
    "v": 285
  },
  {
    "dt": "2023.06.28 01:00",
    "o": 1.27471,
    "h": 1.27512,
    "l": 1.27459,
    "c": 1.27468,
    "v": 998
  },
  {
    "dt": "2023.06.28 02:00",
    "o": 1.27466,
    "h": 1.27474,
    "l": 1.27428,
    "c": 1.27448,
    "v": 1249
  },
  {
    "dt": "2023.06.28 03:00",
    "o": 1.2745,
    "h": 1.27507,
    "l": 1.27409,
    "c": 1.27429,
    "v": 2827
  },
  {
    "dt": "2023.06.28 04:00",
    "o": 1.27429,
    "h": 1.27451,
    "l": 1.27274,
    "c": 1.27281,
    "v": 2886
  },
  {
    "dt": "2023.06.28 05:00",
    "o": 1.27279,
    "h": 1.27316,
    "l": 1.27235,
    "c": 1.27298,
    "v": 2397
  },
  {
    "dt": "2023.06.28 06:00",
    "o": 1.27298,
    "h": 1.27356,
    "l": 1.27286,
    "c": 1.27303,
    "v": 2084
  },
  {
    "dt": "2023.06.28 07:00",
    "o": 1.27307,
    "h": 1.27329,
    "l": 1.27228,
    "c": 1.27249,
    "v": 2096
  },
  {
    "dt": "2023.06.28 08:00",
    "o": 1.27248,
    "h": 1.2732,
    "l": 1.27235,
    "c": 1.27293,
    "v": 2208
  },
  {
    "dt": "2023.06.28 09:00",
    "o": 1.27295,
    "h": 1.27352,
    "l": 1.27192,
    "c": 1.27237,
    "v": 2520
  },
  {
    "dt": "2023.06.28 10:00",
    "o": 1.27241,
    "h": 1.27363,
    "l": 1.27154,
    "c": 1.27298,
    "v": 2681
  },
  {
    "dt": "2023.06.28 11:00",
    "o": 1.27296,
    "h": 1.27351,
    "l": 1.27009,
    "c": 1.27105,
    "v": 3154
  },
  {
    "dt": "2023.06.28 12:00",
    "o": 1.27104,
    "h": 1.27141,
    "l": 1.26929,
    "c": 1.26951,
    "v": 2899
  },
  {
    "dt": "2023.06.28 13:00",
    "o": 1.26953,
    "h": 1.27121,
    "l": 1.26897,
    "c": 1.26941,
    "v": 2493
  },
  {
    "dt": "2023.06.28 14:00",
    "o": 1.26938,
    "h": 1.27007,
    "l": 1.2661,
    "c": 1.2664,
    "v": 2802
  },
  {
    "dt": "2023.06.28 15:00",
    "o": 1.2664,
    "h": 1.26642,
    "l": 1.26315,
    "c": 1.26393,
    "v": 3485
  },
  {
    "dt": "2023.06.28 16:00",
    "o": 1.26394,
    "h": 1.26481,
    "l": 1.26213,
    "c": 1.26381,
    "v": 3662
  },
  {
    "dt": "2023.06.28 17:00",
    "o": 1.26392,
    "h": 1.26432,
    "l": 1.26057,
    "c": 1.26109,
    "v": 3975
  },
  {
    "dt": "2023.06.28 18:00",
    "o": 1.26109,
    "h": 1.26414,
    "l": 1.26075,
    "c": 1.26339,
    "v": 3348
  },
  {
    "dt": "2023.06.28 19:00",
    "o": 1.26339,
    "h": 1.26493,
    "l": 1.26322,
    "c": 1.26471,
    "v": 2587
  },
  {
    "dt": "2023.06.28 20:00",
    "o": 1.2647,
    "h": 1.26527,
    "l": 1.26418,
    "c": 1.26456,
    "v": 2503
  },
  {
    "dt": "2023.06.28 21:00",
    "o": 1.26456,
    "h": 1.26518,
    "l": 1.26447,
    "c": 1.26468,
    "v": 2103
  },
  {
    "dt": "2023.06.28 22:00",
    "o": 1.26468,
    "h": 1.26472,
    "l": 1.26387,
    "c": 1.26401,
    "v": 1810
  },
  {
    "dt": "2023.06.28 23:00",
    "o": 1.264,
    "h": 1.2642,
    "l": 1.26338,
    "c": 1.26344,
    "v": 763
  },
  {
    "dt": "2023.06.29 00:00",
    "o": 1.26347,
    "h": 1.26388,
    "l": 1.26313,
    "c": 1.26375,
    "v": 231
  },
  {
    "dt": "2023.06.29 01:00",
    "o": 1.26375,
    "h": 1.26406,
    "l": 1.26368,
    "c": 1.26377,
    "v": 631
  },
  {
    "dt": "2023.06.29 02:00",
    "o": 1.2638,
    "h": 1.26447,
    "l": 1.26378,
    "c": 1.26411,
    "v": 896
  },
  {
    "dt": "2023.06.29 03:00",
    "o": 1.26409,
    "h": 1.26415,
    "l": 1.26244,
    "c": 1.26334,
    "v": 1984
  },
  {
    "dt": "2023.06.29 04:00",
    "o": 1.26332,
    "h": 1.26461,
    "l": 1.26325,
    "c": 1.26361,
    "v": 2541
  },
  {
    "dt": "2023.06.29 05:00",
    "o": 1.26359,
    "h": 1.26366,
    "l": 1.26248,
    "c": 1.26254,
    "v": 2318
  },
  {
    "dt": "2023.06.29 06:00",
    "o": 1.26253,
    "h": 1.26279,
    "l": 1.26197,
    "c": 1.26249,
    "v": 1836
  },
  {
    "dt": "2023.06.29 07:00",
    "o": 1.26249,
    "h": 1.26258,
    "l": 1.26161,
    "c": 1.26192,
    "v": 1426
  },
  {
    "dt": "2023.06.29 08:00",
    "o": 1.26193,
    "h": 1.26256,
    "l": 1.26137,
    "c": 1.26234,
    "v": 2442
  },
  {
    "dt": "2023.06.29 09:00",
    "o": 1.2624,
    "h": 1.26345,
    "l": 1.26158,
    "c": 1.26344,
    "v": 2697
  },
  {
    "dt": "2023.06.29 10:00",
    "o": 1.2634,
    "h": 1.2648,
    "l": 1.26316,
    "c": 1.26452,
    "v": 3030
  },
  {
    "dt": "2023.06.29 11:00",
    "o": 1.26451,
    "h": 1.26526,
    "l": 1.26342,
    "c": 1.2645,
    "v": 2710
  },
  {
    "dt": "2023.06.29 12:00",
    "o": 1.26453,
    "h": 1.2648,
    "l": 1.26355,
    "c": 1.26456,
    "v": 2380
  },
  {
    "dt": "2023.06.29 13:00",
    "o": 1.26455,
    "h": 1.26631,
    "l": 1.26401,
    "c": 1.26547,
    "v": 2196
  },
  {
    "dt": "2023.06.29 14:00",
    "o": 1.26548,
    "h": 1.26584,
    "l": 1.26486,
    "c": 1.26547,
    "v": 2146
  },
  {
    "dt": "2023.06.29 15:00",
    "o": 1.26547,
    "h": 1.26657,
    "l": 1.25993,
    "c": 1.26049,
    "v": 3712
  },
  {
    "dt": "2023.06.29 16:00",
    "o": 1.26055,
    "h": 1.26164,
    "l": 1.25899,
    "c": 1.2597,
    "v": 4116
  },
  {
    "dt": "2023.06.29 17:00",
    "o": 1.25972,
    "h": 1.26304,
    "l": 1.2597,
    "c": 1.26169,
    "v": 3965
  },
  {
    "dt": "2023.06.29 18:00",
    "o": 1.26169,
    "h": 1.26228,
    "l": 1.26038,
    "c": 1.26143,
    "v": 3128
  },
  {
    "dt": "2023.06.29 19:00",
    "o": 1.26139,
    "h": 1.26263,
    "l": 1.26129,
    "c": 1.26223,
    "v": 2508
  },
  {
    "dt": "2023.06.29 20:00",
    "o": 1.26223,
    "h": 1.26237,
    "l": 1.26122,
    "c": 1.26147,
    "v": 2096
  },
  {
    "dt": "2023.06.29 21:00",
    "o": 1.26143,
    "h": 1.26193,
    "l": 1.26081,
    "c": 1.26125,
    "v": 2022
  },
  {
    "dt": "2023.06.29 22:00",
    "o": 1.26126,
    "h": 1.26155,
    "l": 1.26088,
    "c": 1.26128,
    "v": 1518
  },
  {
    "dt": "2023.06.29 23:00",
    "o": 1.26129,
    "h": 1.26139,
    "l": 1.26077,
    "c": 1.26114,
    "v": 1087
  },
  {
    "dt": "2023.06.30 00:00",
    "o": 1.26096,
    "h": 1.26135,
    "l": 1.26056,
    "c": 1.2608,
    "v": 330
  },
  {
    "dt": "2023.06.30 01:00",
    "o": 1.26102,
    "h": 1.26143,
    "l": 1.2609,
    "c": 1.26106,
    "v": 856
  },
  {
    "dt": "2023.06.30 02:00",
    "o": 1.26109,
    "h": 1.26135,
    "l": 1.26077,
    "c": 1.26122,
    "v": 789
  },
  {
    "dt": "2023.06.30 03:00",
    "o": 1.26126,
    "h": 1.26189,
    "l": 1.26103,
    "c": 1.2616,
    "v": 2149
  },
  {
    "dt": "2023.06.30 04:00",
    "o": 1.26164,
    "h": 1.26204,
    "l": 1.26095,
    "c": 1.26142,
    "v": 2429
  },
  {
    "dt": "2023.06.30 05:00",
    "o": 1.26142,
    "h": 1.26223,
    "l": 1.26134,
    "c": 1.2616,
    "v": 2248
  },
  {
    "dt": "2023.06.30 06:00",
    "o": 1.2616,
    "h": 1.26218,
    "l": 1.26135,
    "c": 1.26176,
    "v": 1856
  },
  {
    "dt": "2023.06.30 07:00",
    "o": 1.26176,
    "h": 1.2625,
    "l": 1.26175,
    "c": 1.26226,
    "v": 1520
  },
  {
    "dt": "2023.06.30 08:00",
    "o": 1.26226,
    "h": 1.26347,
    "l": 1.2622,
    "c": 1.26279,
    "v": 1814
  },
  {
    "dt": "2023.06.30 09:00",
    "o": 1.26279,
    "h": 1.26279,
    "l": 1.25981,
    "c": 1.26169,
    "v": 2598
  },
  {
    "dt": "2023.06.30 10:00",
    "o": 1.26172,
    "h": 1.26496,
    "l": 1.26107,
    "c": 1.26386,
    "v": 3089
  },
  {
    "dt": "2023.06.30 11:00",
    "o": 1.26385,
    "h": 1.26411,
    "l": 1.26126,
    "c": 1.2614,
    "v": 2849
  },
  {
    "dt": "2023.06.30 12:00",
    "o": 1.2614,
    "h": 1.26394,
    "l": 1.26097,
    "c": 1.26328,
    "v": 2439
  },
  {
    "dt": "2023.06.30 13:00",
    "o": 1.26329,
    "h": 1.26477,
    "l": 1.26269,
    "c": 1.2646,
    "v": 2304
  },
  {
    "dt": "2023.06.30 14:00",
    "o": 1.26463,
    "h": 1.26532,
    "l": 1.26387,
    "c": 1.2647,
    "v": 2439
  },
  {
    "dt": "2023.06.30 15:00",
    "o": 1.26477,
    "h": 1.269,
    "l": 1.26458,
    "c": 1.26837,
    "v": 3755
  },
  {
    "dt": "2023.06.30 16:00",
    "o": 1.26837,
    "h": 1.27084,
    "l": 1.26807,
    "c": 1.26978,
    "v": 3813
  },
  {
    "dt": "2023.06.30 17:00",
    "o": 1.26977,
    "h": 1.27268,
    "l": 1.26971,
    "c": 1.27118,
    "v": 4296
  },
  {
    "dt": "2023.06.30 18:00",
    "o": 1.27119,
    "h": 1.27193,
    "l": 1.27012,
    "c": 1.27078,
    "v": 3435
  },
  {
    "dt": "2023.06.30 19:00",
    "o": 1.2708,
    "h": 1.27153,
    "l": 1.27037,
    "c": 1.27152,
    "v": 2567
  },
  {
    "dt": "2023.06.30 20:00",
    "o": 1.27154,
    "h": 1.27212,
    "l": 1.2703,
    "c": 1.27041,
    "v": 2220
  },
  {
    "dt": "2023.06.30 21:00",
    "o": 1.27043,
    "h": 1.27073,
    "l": 1.26936,
    "c": 1.26943,
    "v": 2068
  },
  {
    "dt": "2023.06.30 22:00",
    "o": 1.26943,
    "h": 1.26995,
    "l": 1.26909,
    "c": 1.26985,
    "v": 1803
  },
  {
    "dt": "2023.06.30 23:00",
    "o": 1.26985,
    "h": 1.26999,
    "l": 1.26921,
    "c": 1.26943,
    "v": 1352
  }
]