[
  {
    "dt": "2023.08.01 00:00",
    "o": 1.28323,
    "h": 1.28374,
    "l": 1.28318,
    "c": 1.28366,
    "v": 257
  },
  {
    "dt": "2023.08.01 01:00",
    "o": 1.28361,
    "h": 1.28402,
    "l": 1.28354,
    "c": 1.28372,
    "v": 740
  },
  {
    "dt": "2023.08.01 02:00",
    "o": 1.28371,
    "h": 1.28378,
    "l": 1.28303,
    "c": 1.28306,
    "v": 745
  },
  {
    "dt": "2023.08.01 03:00",
    "o": 1.28305,
    "h": 1.28352,
    "l": 1.28264,
    "c": 1.28281,
    "v": 2004
  },
  {
    "dt": "2023.08.01 04:00",
    "o": 1.28282,
    "h": 1.283,
    "l": 1.2816,
    "c": 1.28184,
    "v": 2433
  },
  {
    "dt": "2023.08.01 05:00",
    "o": 1.28183,
    "h": 1.28208,
    "l": 1.28143,
    "c": 1.28184,
    "v": 2149
  },
  {
    "dt": "2023.08.01 06:00",
    "o": 1.28186,
    "h": 1.28243,
    "l": 1.28179,
    "c": 1.28207,
    "v": 1961
  },
  {
    "dt": "2023.08.01 07:00",
    "o": 1.28203,
    "h": 1.2835,
    "l": 1.28168,
    "c": 1.28304,
    "v": 2085
  },
  {
    "dt": "2023.08.01 08:00",
    "o": 1.28303,
    "h": 1.2833,
    "l": 1.28177,
    "c": 1.28243,
    "v": 2552
  },
  {
    "dt": "2023.08.01 09:00",
    "o": 1.28238,
    "h": 1.28376,
    "l": 1.28213,
    "c": 1.28301,
    "v": 2512
  },
  {
    "dt": "2023.08.01 10:00",
    "o": 1.28313,
    "h": 1.28338,
    "l": 1.28134,
    "c": 1.28176,
    "v": 2953
  },
  {
    "dt": "2023.08.01 11:00",
    "o": 1.28176,
    "h": 1.28302,
    "l": 1.28116,
    "c": 1.28244,
    "v": 2892
  },
  {
    "dt": "2023.08.01 12:00",
    "o": 1.28247,
    "h": 1.2832,
    "l": 1.28164,
    "c": 1.28167,
    "v": 2704
  },
  {
    "dt": "2023.08.01 13:00",
    "o": 1.28166,
    "h": 1.28191,
    "l": 1.27971,
    "c": 1.27999,
    "v": 2581
  },
  {
    "dt": "2023.08.01 14:00",
    "o": 1.28001,
    "h": 1.28001,
    "l": 1.27785,
    "c": 1.27836,
    "v": 2596
  },
  {
    "dt": "2023.08.01 15:00",
    "o": 1.27836,
    "h": 1.27848,
    "l": 1.2755,
    "c": 1.27641,
    "v": 3378
  },
  {
    "dt": "2023.08.01 16:00",
    "o": 1.27641,
    "h": 1.27822,
    "l": 1.27608,
    "c": 1.27744,
    "v": 3290
  },
  {
    "dt": "2023.08.01 17:00",
    "o": 1.27745,
    "h": 1.27937,
    "l": 1.27495,
    "c": 1.27602,
    "v": 4127
  },
  {
    "dt": "2023.08.01 18:00",
    "o": 1.27603,
    "h": 1.27662,
    "l": 1.27403,
    "c": 1.27467,
    "v": 2768
  },
  {
    "dt": "2023.08.01 19:00",
    "o": 1.27468,
    "h": 1.27626,
    "l": 1.2744,
    "c": 1.27597,
    "v": 1953
  },
  {
    "dt": "2023.08.01 20:00",
    "o": 1.27597,
    "h": 1.27649,
    "l": 1.27484,
    "c": 1.27528,
    "v": 1728
  },
  {
    "dt": "2023.08.01 21:00",
    "o": 1.27526,
    "h": 1.27715,
    "l": 1.27526,
    "c": 1.2771,
    "v": 1582
  },
  {
    "dt": "2023.08.01 22:00",
    "o": 1.27713,
    "h": 1.27798,
    "l": 1.27695,
    "c": 1.27738,
    "v": 1508
  },
  {
    "dt": "2023.08.01 23:00",
    "o": 1.27733,
    "h": 1.27769,
    "l": 1.27713,
    "c": 1.27752,
    "v": 995
  },
  {
    "dt": "2023.08.02 00:00",
    "o": 1.27687,
    "h": 1.27938,
    "l": 1.2766,
    "c": 1.27851,
    "v": 454
  },
  {
    "dt": "2023.08.02 01:00",
    "o": 1.2791,
    "h": 1.2804,
    "l": 1.27851,
    "c": 1.27953,
    "v": 1692
  },
  {
    "dt": "2023.08.02 02:00",
    "o": 1.27955,
    "h": 1.27988,
    "l": 1.27871,
    "c": 1.27933,
    "v": 1750
  },
  {
    "dt": "2023.08.02 03:00",
    "o": 1.2794,
    "h": 1.2794,
    "l": 1.2775,
    "c": 1.27798,
    "v": 2449
  },
  {
    "dt": "2023.08.02 04:00",
    "o": 1.27799,
    "h": 1.27938,
    "l": 1.27785,
    "c": 1.2782,
    "v": 2890
  },
  {
    "dt": "2023.08.02 05:00",
    "o": 1.27823,
    "h": 1.27834,
    "l": 1.27671,
    "c": 1.27719,
    "v": 2520
  },
  {
    "dt": "2023.08.02 06:00",
    "o": 1.27719,
    "h": 1.27746,
    "l": 1.27622,
    "c": 1.27735,
    "v": 2192
  },
  {
    "dt": "2023.08.02 07:00",
    "o": 1.27736,
    "h": 1.27769,
    "l": 1.27694,
    "c": 1.27766,
    "v": 1996
  },
  {
    "dt": "2023.08.02 08:00",
    "o": 1.27767,
    "h": 1.27877,
    "l": 1.27695,
    "c": 1.27713,
    "v": 2513
  },
  {
    "dt": "2023.08.02 09:00",
    "o": 1.27712,
    "h": 1.27785,
    "l": 1.27593,
    "c": 1.27727,
    "v": 2690
  },
  {
    "dt": "2023.08.02 10:00",
    "o": 1.27728,
    "h": 1.27937,
    "l": 1.27643,
    "c": 1.27908,
    "v": 3178
  },
  {
    "dt": "2023.08.02 11:00",
    "o": 1.27911,
    "h": 1.27973,
    "l": 1.27814,
    "c": 1.27861,
    "v": 3210
  },
  {
    "dt": "2023.08.02 12:00",
    "o": 1.27861,
    "h": 1.27915,
    "l": 1.27744,
    "c": 1.27763,
    "v": 2626
  },
  {
    "dt": "2023.08.02 13:00",
    "o": 1.27765,
    "h": 1.27881,
    "l": 1.27654,
    "c": 1.27817,
    "v": 2678
  },
  {
    "dt": "2023.08.02 14:00",
    "o": 1.27815,
    "h": 1.27859,
    "l": 1.27622,
    "c": 1.27625,
    "v": 2702
  },
  {
    "dt": "2023.08.02 15:00",
    "o": 1.27624,
    "h": 1.27714,
    "l": 1.27221,
    "c": 1.27225,
    "v": 4072
  },
  {
    "dt": "2023.08.02 16:00",
    "o": 1.27226,
    "h": 1.27228,
    "l": 1.26971,
    "c": 1.27,
    "v": 3736
  },
  {
    "dt": "2023.08.02 17:00",
    "o": 1.27002,
    "h": 1.2701,
    "l": 1.26793,
    "c": 1.26847,
    "v": 3964
  },
  {
    "dt": "2023.08.02 18:00",
    "o": 1.26836,
    "h": 1.27113,
    "l": 1.26823,
    "c": 1.27101,
    "v": 3185
  },
  {
    "dt": "2023.08.02 19:00",
    "o": 1.27101,
    "h": 1.27291,
    "l": 1.27087,
    "c": 1.27248,
    "v": 2692
  },
  {
    "dt": "2023.08.02 20:00",
    "o": 1.27247,
    "h": 1.27376,
    "l": 1.27247,
    "c": 1.27275,
    "v": 2202
  },
  {
    "dt": "2023.08.02 21:00",
    "o": 1.27276,
    "h": 1.27323,
    "l": 1.27167,
    "c": 1.27188,
    "v": 1915
  },
  {
    "dt": "2023.08.02 22:00",
    "o": 1.27192,
    "h": 1.27253,
    "l": 1.27114,
    "c": 1.27133,
    "v": 1863
  },
  {
    "dt": "2023.08.02 23:00",
    "o": 1.27131,
    "h": 1.27141,
    "l": 1.27076,
    "c": 1.27093,
    "v": 841
  },
  {
    "dt": "2023.08.03 00:00",
    "o": 1.27097,
    "h": 1.27155,
    "l": 1.27031,
    "c": 1.27114,
    "v": 379
  },
  {
    "dt": "2023.08.03 01:00",
    "o": 1.27085,
    "h": 1.27194,
    "l": 1.27085,
    "c": 1.2715,
    "v": 1076
  },
  {
    "dt": "2023.08.03 02:00",
    "o": 1.2715,
    "h": 1.27213,
    "l": 1.27138,
    "c": 1.27174,
    "v": 773
  },
  {
    "dt": "2023.08.03 03:00",
    "o": 1.27174,
    "h": 1.2719,
    "l": 1.27086,
    "c": 1.27127,
    "v": 1643
  },
  {
    "dt": "2023.08.03 04:00",
    "o": 1.27118,
    "h": 1.27273,
    "l": 1.27088,
    "c": 1.27218,
    "v": 2159
  },
  {
    "dt": "2023.08.03 05:00",
    "o": 1.27212,
    "h": 1.27225,
    "l": 1.27117,
    "c": 1.27123,
    "v": 2231
  },
  {
    "dt": "2023.08.03 06:00",
    "o": 1.27123,
    "h": 1.27178,
    "l": 1.27092,
    "c": 1.27175,
    "v": 1809
  },
  {
    "dt": "2023.08.03 07:00",
    "o": 1.27173,
    "h": 1.27173,
    "l": 1.26989,
    "c": 1.2699,
    "v": 1718
  },
  {
    "dt": "2023.08.03 08:00",
    "o": 1.26992,
    "h": 1.27077,
    "l": 1.26917,
    "c": 1.27071,
    "v": 2598
  },
  {
    "dt": "2023.08.03 09:00",
    "o": 1.27068,
    "h": 1.27068,
    "l": 1.26857,
    "c": 1.26887,
    "v": 3208
  },
  {
    "dt": "2023.08.03 10:00",
    "o": 1.26888,
    "h": 1.27081,
    "l": 1.26825,
    "c": 1.26871,
    "v": 3775
  },
  {
    "dt": "2023.08.03 11:00",
    "o": 1.26866,
    "h": 1.2699,
    "l": 1.26715,
    "c": 1.26747,
    "v": 3242
  },
  {
    "dt": "2023.08.03 12:00",
    "o": 1.26748,
    "h": 1.26896,
    "l": 1.26589,
    "c": 1.26679,
    "v": 2883
  },
  {
    "dt": "2023.08.03 13:00",
    "o": 1.26671,
    "h": 1.26682,
    "l": 1.26456,
    "c": 1.26601,
    "v": 2752
  },
  {
    "dt": "2023.08.03 14:00",
    "o": 1.26598,
    "h": 1.26882,
    "l": 1.26195,
    "c": 1.26459,
    "v": 4121
  },
  {
    "dt": "2023.08.03 15:00",
    "o": 1.26443,
    "h": 1.26917,
    "l": 1.26361,
    "c": 1.26717,
    "v": 4278
  },
  {
    "dt": "2023.08.03 16:00",
    "o": 1.26716,
    "h": 1.26737,
    "l": 1.26492,
    "c": 1.26573,
    "v": 3628
  },
  {
    "dt": "2023.08.03 17:00",
    "o": 1.26624,
    "h": 1.27127,
    "l": 1.2655,
    "c": 1.26933,
    "v": 4310
  },
  {
    "dt": "2023.08.03 18:00",
    "o": 1.26931,
    "h": 1.27224,
    "l": 1.2693,
    "c": 1.27062,
    "v": 3116
  },
  {
    "dt": "2023.08.03 19:00",
    "o": 1.27063,
    "h": 1.27233,
    "l": 1.27018,
    "c": 1.27182,
    "v": 2032
  },
  {
    "dt": "2023.08.03 20:00",
    "o": 1.2718,
    "h": 1.27184,
    "l": 1.27029,
    "c": 1.27029,
    "v": 1915
  },
  {
    "dt": "2023.08.03 21:00",
    "o": 1.27027,
    "h": 1.27092,
    "l": 1.26984,
    "c": 1.26989,
    "v": 1791
  },
  {
    "dt": "2023.08.03 22:00",
    "o": 1.2699,
    "h": 1.27041,
    "l": 1.2696,
    "c": 1.27024,
    "v": 1543
  },
  {
    "dt": "2023.08.03 23:00",
    "o": 1.27025,
    "h": 1.27106,
    "l": 1.27014,
    "c": 1.27078,
    "v": 1379
  },
  {
    "dt": "2023.08.04 00:00",
    "o": 1.27086,
    "h": 1.27108,
    "l": 1.26992,
    "c": 1.27072,
    "v": 492
  },
  {
    "dt": "2023.08.04 01:00",
    "o": 1.27105,
    "h": 1.27146,
    "l": 1.27072,
    "c": 1.27126,
    "v": 1017
  },
  {
    "dt": "2023.08.04 02:00",
    "o": 1.27126,
    "h": 1.27158,
    "l": 1.27109,
    "c": 1.27146,
    "v": 702
  },
  {
    "dt": "2023.08.04 03:00",
    "o": 1.27147,
    "h": 1.27244,
    "l": 1.27095,
    "c": 1.27244,
    "v": 2116
  },
  {
    "dt": "2023.08.04 04:00",
    "o": 1.27244,
    "h": 1.27356,
    "l": 1.27233,
    "c": 1.2735,
    "v": 2972
  },
  {
    "dt": "2023.08.04 05:00",
    "o": 1.27348,
    "h": 1.27378,
    "l": 1.27285,
    "c": 1.2732,
    "v": 2501
  },
  {
    "dt": "2023.08.04 06:00",
    "o": 1.2732,
    "h": 1.27401,
    "l": 1.2729,
    "c": 1.27317,
    "v": 2334
  },
  {
    "dt": "2023.08.04 07:00",
    "o": 1.27319,
    "h": 1.2735,
    "l": 1.27261,
    "c": 1.27269,
    "v": 1833
  },
  {
    "dt": "2023.08.04 08:00",
    "o": 1.27268,
    "h": 1.27334,
    "l": 1.27212,
    "c": 1.27227,
    "v": 2301
  },
  {
    "dt": "2023.08.04 09:00",
    "o": 1.27223,
    "h": 1.27267,
    "l": 1.27101,
    "c": 1.27113,
    "v": 2623
  },
  {
    "dt": "2023.08.04 10:00",
    "o": 1.27104,
    "h": 1.27147,
    "l": 1.27017,
    "c": 1.27049,
    "v": 2813
  },
  {
    "dt": "2023.08.04 11:00",
    "o": 1.27046,
    "h": 1.27107,
    "l": 1.26933,
    "c": 1.26987,
    "v": 2567
  },
  {
    "dt": "2023.08.04 12:00",
    "o": 1.26985,
    "h": 1.27086,
    "l": 1.26933,
    "c": 1.27057,
    "v": 1967
  },
  {
    "dt": "2023.08.04 13:00",
    "o": 1.27062,
    "h": 1.27077,
    "l": 1.26936,
    "c": 1.26996,
    "v": 2524
  },
  {
    "dt": "2023.08.04 14:00",
    "o": 1.2701,
    "h": 1.27023,
    "l": 1.26941,
    "c": 1.26941,
    "v": 2096
  },
  {
    "dt": "2023.08.04 15:00",
    "o": 1.26941,
    "h": 1.27538,
    "l": 1.26829,
    "c": 1.27451,
    "v": 4388
  },
  {
    "dt": "2023.08.04 16:00",
    "o": 1.2745,
    "h": 1.27824,
    "l": 1.27417,
    "c": 1.27612,
    "v": 4710
  },
  {
    "dt": "2023.08.04 17:00",
    "o": 1.27606,
    "h": 1.27772,
    "l": 1.27495,
    "c": 1.27552,
    "v": 4122
  },
  {
    "dt": "2023.08.04 18:00",
    "o": 1.27558,
    "h": 1.27822,
    "l": 1.2749,
    "c": 1.2772,
    "v": 2940
  },
  {
    "dt": "2023.08.04 19:00",
    "o": 1.27723,
    "h": 1.27815,
    "l": 1.2768,
    "c": 1.27806,
    "v": 2322
  },
  {
    "dt": "2023.08.04 20:00",
    "o": 1.27805,
    "h": 1.27909,
    "l": 1.27794,
    "c": 1.27837,
    "v": 1939
  },
  {
    "dt": "2023.08.04 21:00",
    "o": 1.27838,
    "h": 1.27838,
    "l": 1.27481,
    "c": 1.27532,
    "v": 2656
  },
  {
    "dt": "2023.08.04 22:00",
    "o": 1.27531,
    "h": 1.27543,
    "l": 1.27408,
    "c": 1.27426,
    "v": 2096
  },
  {
    "dt": "2023.08.04 23:00",
    "o": 1.27421,
    "h": 1.27537,
    "l": 1.27399,
    "c": 1.27467,
    "v": 1644
  },
  {
    "dt": "2023.08.07 00:00",
    "o": 1.27486,
    "h": 1.27592,
    "l": 1.27433,
    "c": 1.27458,
    "v": 150
  },
  {
    "dt": "2023.08.07 01:00",
    "o": 1.27459,
    "h": 1.27539,
    "l": 1.27433,
    "c": 1.2752,
    "v": 1164
  },
  {
    "dt": "2023.08.07 02:00",
    "o": 1.27514,
    "h": 1.27514,
    "l": 1.27441,
    "c": 1.27476,
    "v": 1599
  },
  {
    "dt": "2023.08.07 03:00",
    "o": 1.27479,
    "h": 1.276,
    "l": 1.27429,
    "c": 1.27575,
    "v": 2240
  },
  {
    "dt": "2023.08.07 04:00",
    "o": 1.27569,
    "h": 1.27577,
    "l": 1.27367,
    "c": 1.27464,
    "v": 2702
  },
  {
    "dt": "2023.08.07 05:00",
    "o": 1.27465,
    "h": 1.27492,
    "l": 1.27398,
    "c": 1.27429,
    "v": 1825
  },
  {
    "dt": "2023.08.07 06:00",
    "o": 1.27431,
    "h": 1.27446,
    "l": 1.27358,
    "c": 1.27363,
    "v": 1400
  },
  {
    "dt": "2023.08.07 07:00",
    "o": 1.27363,
    "h": 1.27363,
    "l": 1.2731,
    "c": 1.27336,
    "v": 1608
  },
  {
    "dt": "2023.08.07 08:00",
    "o": 1.27339,
    "h": 1.2735,
    "l": 1.27192,
    "c": 1.27206,
    "v": 2241
  },
  {
    "dt": "2023.08.07 09:00",
    "o": 1.27202,
    "h": 1.27268,
    "l": 1.27116,
    "c": 1.27219,
    "v": 2434
  },
  {
    "dt": "2023.08.07 10:00",
    "o": 1.27218,
    "h": 1.27436,
    "l": 1.27195,
    "c": 1.27424,
    "v": 2665
  },
  {
    "dt": "2023.08.07 11:00",
    "o": 1.27426,
    "h": 1.27426,
    "l": 1.27196,
    "c": 1.27271,
    "v": 2561
  },
  {
    "dt": "2023.08.07 12:00",
    "o": 1.27247,
    "h": 1.27343,
    "l": 1.27173,
    "c": 1.27195,
    "v": 2509
  },
  {
    "dt": "2023.08.07 13:00",
    "o": 1.27192,
    "h": 1.27292,
    "l": 1.27159,
    "c": 1.27292,
    "v": 2263
  },
  {
    "dt": "2023.08.07 14:00",
    "o": 1.27296,
    "h": 1.27438,
    "l": 1.2726,
    "c": 1.27433,
    "v": 2292
  },
  {
    "dt": "2023.08.07 15:00",
    "o": 1.27428,
    "h": 1.27712,
    "l": 1.27395,
    "c": 1.27709,
    "v": 2586
  },
  {
    "dt": "2023.08.07 16:00",
    "o": 1.27712,
    "h": 1.27861,
    "l": 1.27604,
    "c": 1.27623,
    "v": 2912
  },
  {
    "dt": "2023.08.07 17:00",
    "o": 1.27613,
    "h": 1.27755,
    "l": 1.27535,
    "c": 1.27701,
    "v": 2875
  },
  {
    "dt": "2023.08.07 18:00",
    "o": 1.27692,
    "h": 1.2776,
    "l": 1.27636,
    "c": 1.27658,
    "v": 2555
  },
  {
    "dt": "2023.08.07 19:00",
    "o": 1.27658,
    "h": 1.27741,
    "l": 1.27626,
    "c": 1.27738,
    "v": 2027
  },
  {
    "dt": "2023.08.07 20:00",
    "o": 1.27738,
    "h": 1.27833,
    "l": 1.27669,
    "c": 1.27829,
    "v": 1505
  },
  {
    "dt": "2023.08.07 21:00",
    "o": 1.2783,
    "h": 1.27883,
    "l": 1.27794,
    "c": 1.27826,
    "v": 1385
  },
  {
    "dt": "2023.08.07 22:00",
    "o": 1.27826,
    "h": 1.27873,
    "l": 1.27816,
    "c": 1.27845,
    "v": 1455
  },
  {
    "dt": "2023.08.07 23:00",
    "o": 1.2784,
    "h": 1.27843,
    "l": 1.27793,
    "c": 1.2783,
    "v": 966
  },
  {
    "dt": "2023.08.08 00:00",
    "o": 1.27807,
    "h": 1.27835,
    "l": 1.27731,
    "c": 1.27781,
    "v": 665
  },
  {
    "dt": "2023.08.08 01:00",
    "o": 1.27784,
    "h": 1.27826,
    "l": 1.27784,
    "c": 1.27808,
    "v": 542
  },
  {
    "dt": "2023.08.08 02:00",
    "o": 1.27809,
    "h": 1.27833,
    "l": 1.27798,
    "c": 1.27809,
    "v": 667
  },
  {
    "dt": "2023.08.08 03:00",
    "o": 1.27808,
    "h": 1.27844,
    "l": 1.27705,
    "c": 1.27726,
    "v": 1962
  },
  {
    "dt": "2023.08.08 04:00",
    "o": 1.27726,
    "h": 1.27726,
    "l": 1.27519,
    "c": 1.27529,
    "v": 2588
  },
  {
    "dt": "2023.08.08 05:00",
    "o": 1.27529,
    "h": 1.2762,
    "l": 1.27501,
    "c": 1.27605,
    "v": 2607
  },
  {
    "dt": "2023.08.08 06:00",
    "o": 1.27609,
    "h": 1.27644,
    "l": 1.27519,
    "c": 1.2754,
    "v": 1620
  },
  {
    "dt": "2023.08.08 07:00",
    "o": 1.27539,
    "h": 1.27623,
    "l": 1.27505,
    "c": 1.27611,
    "v": 1636
  },
  {
    "dt": "2023.08.08 08:00",
    "o": 1.27614,
    "h": 1.2764,
    "l": 1.27545,
    "c": 1.2757,
    "v": 2234
  },
  {
    "dt": "2023.08.08 09:00",
    "o": 1.27573,
    "h": 1.27713,
    "l": 1.27531,
    "c": 1.27567,
    "v": 2718
  },
  {
    "dt": "2023.08.08 10:00",
    "o": 1.27574,
    "h": 1.27621,
    "l": 1.27371,
    "c": 1.27541,
    "v": 3361
  },
  {
    "dt": "2023.08.08 11:00",
    "o": 1.27535,
    "h": 1.27558,
    "l": 1.27422,
    "c": 1.27516,
    "v": 2847
  },
  {
    "dt": "2023.08.08 12:00",
    "o": 1.27523,
    "h": 1.27536,
    "l": 1.27296,
    "c": 1.27313,
    "v": 2788
  },
  {
    "dt": "2023.08.08 13:00",
    "o": 1.27309,
    "h": 1.2732,
    "l": 1.27156,
    "c": 1.27204,
    "v": 2706
  },
  {
    "dt": "2023.08.08 14:00",
    "o": 1.27204,
    "h": 1.27274,
    "l": 1.2695,
    "c": 1.26961,
    "v": 2934
  },
  {
    "dt": "2023.08.08 15:00",
    "o": 1.26964,
    "h": 1.2704,
    "l": 1.26831,
    "c": 1.26965,
    "v": 3215
  },
  {
    "dt": "2023.08.08 16:00",
    "o": 1.26963,
    "h": 1.27136,
    "l": 1.2686,
    "c": 1.26941,
    "v": 3420
  },
  {
    "dt": "2023.08.08 17:00",
    "o": 1.26933,
    "h": 1.27237,
    "l": 1.26862,
    "c": 1.27202,
    "v": 3330
  },
  {
    "dt": "2023.08.08 18:00",
    "o": 1.27203,
    "h": 1.27282,
    "l": 1.27103,
    "c": 1.27257,
    "v": 2804
  },
  {
    "dt": "2023.08.08 19:00",
    "o": 1.27257,
    "h": 1.27422,
    "l": 1.27253,
    "c": 1.2732,
    "v": 2081
  },
  {
    "dt": "2023.08.08 20:00",
    "o": 1.2732,
    "h": 1.27454,
    "l": 1.273,
    "c": 1.27431,
    "v": 2027
  },
  {
    "dt": "2023.08.08 21:00",
    "o": 1.27435,
    "h": 1.27456,
    "l": 1.27349,
    "c": 1.27452,
    "v": 1846
  },
  {
    "dt": "2023.08.08 22:00",
    "o": 1.27449,
    "h": 1.27505,
    "l": 1.27423,
    "c": 1.2743,
    "v": 1612
  },
  {
    "dt": "2023.08.08 23:00",
    "o": 1.2743,
    "h": 1.27485,
    "l": 1.27429,
    "c": 1.27474,
    "v": 820
  },
  {
    "dt": "2023.08.09 00:00",
    "o": 1.27441,
    "h": 1.27458,
    "l": 1.27337,
    "c": 1.27407,
    "v": 431
  },
  {
    "dt": "2023.08.09 01:00",
    "o": 1.27399,
    "h": 1.27479,
    "l": 1.27385,
    "c": 1.27385,
    "v": 1025
  },
  {
    "dt": "2023.08.09 02:00",
    "o": 1.27386,
    "h": 1.27426,
    "l": 1.27385,
    "c": 1.27423,
    "v": 1120
  },
  {
    "dt": "2023.08.09 03:00",
    "o": 1.27431,
    "h": 1.27491,
    "l": 1.27398,
    "c": 1.274,
    "v": 1687
  },
  {
    "dt": "2023.08.09 04:00",
    "o": 1.27397,
    "h": 1.27525,
    "l": 1.27382,
    "c": 1.27479,
    "v": 2381
  },
  {
    "dt": "2023.08.09 05:00",
    "o": 1.27479,
    "h": 1.27555,
    "l": 1.27443,
    "c": 1.27551,
    "v": 2018
  },
  {
    "dt": "2023.08.09 06:00",
    "o": 1.27553,
    "h": 1.27585,
    "l": 1.275,
    "c": 1.27524,
    "v": 1876
  },
  {
    "dt": "2023.08.09 07:00",
    "o": 1.27523,
    "h": 1.27562,
    "l": 1.27496,
    "c": 1.27561,
    "v": 1586
  },
  {
    "dt": "2023.08.09 08:00",
    "o": 1.27563,
    "h": 1.27666,
    "l": 1.27556,
    "c": 1.27584,
    "v": 1930
  },
  {
    "dt": "2023.08.09 09:00",
    "o": 1.27584,
    "h": 1.27767,
    "l": 1.27574,
    "c": 1.27729,
    "v": 2480
  },
  {
    "dt": "2023.08.09 10:00",
    "o": 1.27724,
    "h": 1.27811,
    "l": 1.27622,
    "c": 1.27695,
    "v": 2740
  },
  {
    "dt": "2023.08.09 11:00",
    "o": 1.27693,
    "h": 1.27711,
    "l": 1.27477,
    "c": 1.27533,
    "v": 2515
  },
  {
    "dt": "2023.08.09 12:00",
    "o": 1.27533,
    "h": 1.27544,
    "l": 1.27294,
    "c": 1.27312,
    "v": 2344
  },
  {
    "dt": "2023.08.09 13:00",
    "o": 1.27312,
    "h": 1.27439,
    "l": 1.27285,
    "c": 1.27345,
    "v": 2190
  },
  {
    "dt": "2023.08.09 14:00",
    "o": 1.27345,
    "h": 1.27416,
    "l": 1.2728,
    "c": 1.27333,
    "v": 2188
  },
  {
    "dt": "2023.08.09 15:00",
    "o": 1.27332,
    "h": 1.27364,
    "l": 1.27112,
    "c": 1.27286,
    "v": 3037
  },
  {
    "dt": "2023.08.09 16:00",
    "o": 1.27287,
    "h": 1.27492,
    "l": 1.27266,
    "c": 1.27358,
    "v": 2969
  },
  {
    "dt": "2023.08.09 17:00",
    "o": 1.27355,
    "h": 1.27504,
    "l": 1.273,
    "c": 1.27309,
    "v": 3063
  },
  {
    "dt": "2023.08.09 18:00",
    "o": 1.27303,
    "h": 1.27333,
    "l": 1.27112,
    "c": 1.27131,
    "v": 2717
  },
  {
    "dt": "2023.08.09 19:00",
    "o": 1.27131,
    "h": 1.27288,
    "l": 1.27125,
    "c": 1.2722,
    "v": 2143
  },
  {
    "dt": "2023.08.09 20:00",
    "o": 1.27222,
    "h": 1.27369,
    "l": 1.27201,
    "c": 1.27273,
    "v": 2098
  },
  {
    "dt": "2023.08.09 21:00",
    "o": 1.27273,
    "h": 1.27274,
    "l": 1.27201,
    "c": 1.27224,
    "v": 1438
  },
  {
    "dt": "2023.08.09 22:00",
    "o": 1.27223,
    "h": 1.273,
    "l": 1.2719,
    "c": 1.27192,
    "v": 1460
  },
  {
    "dt": "2023.08.09 23:00",
    "o": 1.27193,
    "h": 1.27211,
    "l": 1.2716,
    "c": 1.27164,
    "v": 1270
  },
  {
    "dt": "2023.08.10 00:00",
    "o": 1.27166,
    "h": 1.27194,
    "l": 1.27121,
    "c": 1.27153,
    "v": 398
  },
  {
    "dt": "2023.08.10 01:00",
    "o": 1.27162,
    "h": 1.27193,
    "l": 1.27161,
    "c": 1.27167,
    "v": 688
  },
  {
    "dt": "2023.08.10 02:00",
    "o": 1.27166,
    "h": 1.27198,
    "l": 1.27153,
    "c": 1.27186,
    "v": 782
  },
  {
    "dt": "2023.08.10 03:00",
    "o": 1.27186,
    "h": 1.27194,
    "l": 1.27093,
    "c": 1.2712,
    "v": 1585
  },
  {
    "dt": "2023.08.10 04:00",
    "o": 1.27121,
    "h": 1.27196,
    "l": 1.27079,
    "c": 1.27152,
    "v": 1995
  },
  {
    "dt": "2023.08.10 05:00",
    "o": 1.27148,
    "h": 1.27224,
    "l": 1.27122,
    "c": 1.27145,
    "v": 1753
  },
  {
    "dt": "2023.08.10 06:00",
    "o": 1.27146,
    "h": 1.27164,
    "l": 1.27117,
    "c": 1.27122,
    "v": 1522
  },
  {
    "dt": "2023.08.10 07:00",
    "o": 1.27123,
    "h": 1.27179,
    "l": 1.27103,
    "c": 1.27112,
    "v": 1283
  },
  {
    "dt": "2023.08.10 08:00",
    "o": 1.27116,
    "h": 1.27242,
    "l": 1.2711,
    "c": 1.2722,
    "v": 1457
  },
  {
    "dt": "2023.08.10 09:00",
    "o": 1.27203,
    "h": 1.27331,
    "l": 1.27176,
    "c": 1.27317,
    "v": 2428
  },
  {
    "dt": "2023.08.10 10:00",
    "o": 1.27308,
    "h": 1.27578,
    "l": 1.27298,
    "c": 1.27438,
    "v": 2865
  },
  {
    "dt": "2023.08.10 11:00",
    "o": 1.27441,
    "h": 1.27686,
    "l": 1.27428,
    "c": 1.27555,
    "v": 2767
  },
  {
    "dt": "2023.08.10 12:00",
    "o": 1.2756,
    "h": 1.27629,
    "l": 1.27542,
    "c": 1.27575,
    "v": 2104
  },
  {
    "dt": "2023.08.10 13:00",
    "o": 1.27576,
    "h": 1.27723,
    "l": 1.27535,
    "c": 1.27696,
    "v": 1979
  },
  {
    "dt": "2023.08.10 14:00",
    "o": 1.27697,
    "h": 1.27748,
    "l": 1.27592,
    "c": 1.2762,
    "v": 1971
  },
  {
    "dt": "2023.08.10 15:00",
    "o": 1.27623,
    "h": 1.28177,
    "l": 1.27532,
    "c": 1.27795,
    "v": 4027
  },
  {
    "dt": "2023.08.10 16:00",
    "o": 1.27801,
    "h": 1.27848,
    "l": 1.27395,
    "c": 1.27696,
    "v": 4467
  },
  {
    "dt": "2023.08.10 17:00",
    "o": 1.27694,
    "h": 1.27744,
    "l": 1.27289,
    "c": 1.27351,
    "v": 3977
  },
  {
    "dt": "2023.08.10 18:00",
    "o": 1.27344,
    "h": 1.27347,
    "l": 1.27142,
    "c": 1.27228,
    "v": 3365
  },
  {
    "dt": "2023.08.10 19:00",
    "o": 1.27227,
    "h": 1.27245,
    "l": 1.27044,
    "c": 1.27145,
    "v": 2616
  },
  {
    "dt": "2023.08.10 20:00",
    "o": 1.27144,
    "h": 1.27157,
    "l": 1.26688,
    "c": 1.26749,
    "v": 3366
  },
  {
    "dt": "2023.08.10 21:00",
    "o": 1.26748,
    "h": 1.26941,
    "l": 1.26717,
    "c": 1.26916,
    "v": 3026
  },
  {
    "dt": "2023.08.10 22:00",
    "o": 1.26916,
    "h": 1.26919,
    "l": 1.26732,
    "c": 1.26743,
    "v": 2280
  },
  {
    "dt": "2023.08.10 23:00",
    "o": 1.26747,
    "h": 1.26766,
    "l": 1.26719,
    "c": 1.2674,
    "v": 1448
  },
  {
    "dt": "2023.08.11 00:00",
    "o": 1.26737,
    "h": 1.26772,
    "l": 1.26682,
    "c": 1.26747,
    "v": 301
  },
  {
    "dt": "2023.08.11 01:00",
    "o": 1.26751,
    "h": 1.26759,
    "l": 1.26708,
    "c": 1.26713,
    "v": 802
  },
  {
    "dt": "2023.08.11 02:00",
    "o": 1.26711,
    "h": 1.26751,
    "l": 1.2668,
    "c": 1.2669,
    "v": 896
  },
  {
    "dt": "2023.08.11 03:00",
    "o": 1.26687,
    "h": 1.26808,
    "l": 1.26648,
    "c": 1.26806,
    "v": 1575
  },
  {
    "dt": "2023.08.11 04:00",
    "o": 1.26807,
    "h": 1.26897,
    "l": 1.268,
    "c": 1.26864,
    "v": 2166
  },
  {
    "dt": "2023.08.11 05:00",
    "o": 1.26865,
    "h": 1.26865,
    "l": 1.26769,
    "c": 1.26799,
    "v": 1582
  },
  {
    "dt": "2023.08.11 06:00",
    "o": 1.26798,
    "h": 1.26872,
    "l": 1.2679,
    "c": 1.26843,
    "v": 1494
  },
  {
    "dt": "2023.08.11 07:00",
    "o": 1.26844,
    "h": 1.26851,
    "l": 1.26788,
    "c": 1.26809,
    "v": 1324
  },
  {
    "dt": "2023.08.11 08:00",
    "o": 1.26813,
    "h": 1.26858,
    "l": 1.26784,
    "c": 1.26834,
    "v": 2115
  },
  {
    "dt": "2023.08.11 09:00",
    "o": 1.26834,
    "h": 1.27221,
    "l": 1.26834,
    "c": 1.27032,
    "v": 2994
  },
  {
    "dt": "2023.08.11 10:00",
    "o": 1.27014,
    "h": 1.27159,
    "l": 1.27004,
    "c": 1.27042,
    "v": 2794
  },
  {
    "dt": "2023.08.11 11:00",
    "o": 1.27045,
    "h": 1.27121,
    "l": 1.2697,
    "c": 1.27051,
    "v": 2808
  },
  {
    "dt": "2023.08.11 12:00",
    "o": 1.2705,
    "h": 1.27093,
    "l": 1.26938,
    "c": 1.26957,
    "v": 2565
  },
  {
    "dt": "2023.08.11 13:00",
    "o": 1.26957,
    "h": 1.27166,
    "l": 1.26924,
    "c": 1.27154,
    "v": 2548
  },
  {
    "dt": "2023.08.11 14:00",
    "o": 1.27155,
    "h": 1.27346,
    "l": 1.27153,
    "c": 1.27322,
    "v": 2447
  },
  {
    "dt": "2023.08.11 15:00",
    "o": 1.27322,
    "h": 1.27377,
    "l": 1.26808,
    "c": 1.26848,
    "v": 3784
  },
  {
    "dt": "2023.08.11 16:00",
    "o": 1.26829,
    "h": 1.27046,
    "l": 1.26808,
    "c": 1.27028,
    "v": 3957
  },
  {
    "dt": "2023.08.11 17:00",
    "o": 1.27166,
    "h": 1.27277,
    "l": 1.2697,
    "c": 1.27118,
    "v": 3945
  },
  {
    "dt": "2023.08.11 18:00",
    "o": 1.27117,
    "h": 1.27175,
    "l": 1.26843,
    "c": 1.26921,
    "v": 2717
  },
  {
    "dt": "2023.08.11 19:00",
    "o": 1.26921,
    "h": 1.27023,
    "l": 1.26878,
    "c": 1.269,
    "v": 1982
  },
  {
    "dt": "2023.08.11 20:00",
    "o": 1.26899,
    "h": 1.27015,
    "l": 1.26844,
    "c": 1.26884,
    "v": 1728
  },
  {
    "dt": "2023.08.11 21:00",
    "o": 1.26886,
    "h": 1.26981,
    "l": 1.26886,
    "c": 1.26966,
    "v": 1918
  },
  {
    "dt": "2023.08.11 22:00",
    "o": 1.26965,
    "h": 1.26991,
    "l": 1.26872,
    "c": 1.26984,
    "v": 1659
  },
  {
    "dt": "2023.08.11 23:00",
    "o": 1.26984,
    "h": 1.27009,
    "l": 1.26917,
    "c": 1.26919,
    "v": 1251
  },
  {
    "dt": "2023.08.14 00:00",
    "o": 1.26948,
    "h": 1.2702,
    "l": 1.26899,
    "c": 1.26947,
    "v": 359
  },
  {
    "dt": "2023.08.14 01:00",
    "o": 1.26952,
    "h": 1.27001,
    "l": 1.26857,
    "c": 1.2688,
    "v": 868
  },
  {
    "dt": "2023.08.14 02:00",
    "o": 1.26878,
    "h": 1.2694,
    "l": 1.26859,
    "c": 1.2693,
    "v": 1135
  },
  {
    "dt": "2023.08.14 03:00",
    "o": 1.26932,
    "h": 1.2696,
    "l": 1.26784,
    "c": 1.26811,
    "v": 2118
  },
  {
    "dt": "2023.08.14 04:00",
    "o": 1.26811,
    "h": 1.26854,
    "l": 1.26715,
    "c": 1.2678,
    "v": 2823
  },
  {
    "dt": "2023.08.14 05:00",
    "o": 1.26781,
    "h": 1.26796,
    "l": 1.26656,
    "c": 1.26668,
    "v": 2284
  },
  {
    "dt": "2023.08.14 06:00",
    "o": 1.26668,
    "h": 1.26715,
    "l": 1.26657,
    "c": 1.26688,
    "v": 2200
  },
  {
    "dt": "2023.08.14 07:00",
    "o": 1.26689,
    "h": 1.2672,
    "l": 1.26667,
    "c": 1.26705,
    "v": 1821
  },
  {
    "dt": "2023.08.14 08:00",
    "o": 1.26712,
    "h": 1.26817,
    "l": 1.267,
    "c": 1.26794,
    "v": 2463
  },
  {
    "dt": "2023.08.14 09:00",
    "o": 1.26791,
    "h": 1.2685,
    "l": 1.26728,
    "c": 1.26756,
    "v": 2456
  },
  {
    "dt": "2023.08.14 10:00",
    "o": 1.26755,
    "h": 1.26972,
    "l": 1.26688,
    "c": 1.26922,
    "v": 3103
  },
  {
    "dt": "2023.08.14 11:00",
    "o": 1.26923,
    "h": 1.27065,
    "l": 1.26881,
    "c": 1.26969,
    "v": 3128
  },
  {
    "dt": "2023.08.14 12:00",
    "o": 1.2697,
    "h": 1.27052,
    "l": 1.26868,
    "c": 1.26958,
    "v": 2577
  },
  {
    "dt": "2023.08.14 13:00",
    "o": 1.2696,
    "h": 1.27137,
    "l": 1.26936,
    "c": 1.26998,
    "v": 2454
  },
  {
    "dt": "2023.08.14 14:00",
    "o": 1.26996,
    "h": 1.2701,
    "l": 1.26912,
    "c": 1.26921,
    "v": 2138
  },
  {
    "dt": "2023.08.14 15:00",
    "o": 1.26919,
    "h": 1.26929,
    "l": 1.26441,
    "c": 1.26557,
    "v": 3395
  },
  {
    "dt": "2023.08.14 16:00",
    "o": 1.26559,
    "h": 1.26606,
    "l": 1.26157,
    "c": 1.26276,
    "v": 3832
  },
  {
    "dt": "2023.08.14 17:00",
    "o": 1.26275,
    "h": 1.26675,
    "l": 1.26255,
    "c": 1.26598,
    "v": 3807
  },
  {
    "dt": "2023.08.14 18:00",
    "o": 1.26599,
    "h": 1.26957,
    "l": 1.26584,
    "c": 1.26877,
    "v": 2827
  },
  {
    "dt": "2023.08.14 19:00",
    "o": 1.26875,
    "h": 1.27054,
    "l": 1.2687,
    "c": 1.26961,
    "v": 2409
  },
  {
    "dt": "2023.08.14 20:00",
    "o": 1.26963,
    "h": 1.27004,
    "l": 1.26862,
    "c": 1.26906,
    "v": 2149
  },
  {
    "dt": "2023.08.14 21:00",
    "o": 1.26906,
    "h": 1.26945,
    "l": 1.26727,
    "c": 1.26736,
    "v": 2046
  },
  {
    "dt": "2023.08.14 22:00",
    "o": 1.26736,
    "h": 1.26864,
    "l": 1.26721,
    "c": 1.26795,
    "v": 1804
  },
  {
    "dt": "2023.08.14 23:00",
    "o": 1.26785,
    "h": 1.26902,
    "l": 1.26783,
    "c": 1.26857,
    "v": 1075
  },
  {
    "dt": "2023.08.15 00:00",
    "o": 1.26817,
    "h": 1.26899,
    "l": 1.26801,
    "c": 1.26827,
    "v": 286
  },
  {
    "dt": "2023.08.15 01:00",
    "o": 1.26827,
    "h": 1.26863,
    "l": 1.26813,
    "c": 1.26846,
    "v": 674
  },
  {
    "dt": "2023.08.15 02:00",
    "o": 1.26844,
    "h": 1.26849,
    "l": 1.26794,
    "c": 1.26848,
    "v": 672
  },
  {
    "dt": "2023.08.15 03:00",
    "o": 1.26851,
    "h": 1.26866,
    "l": 1.26752,
    "c": 1.26827,
    "v": 1889
  },
  {
    "dt": "2023.08.15 04:00",
    "o": 1.26828,
    "h": 1.26924,
    "l": 1.2674,
    "c": 1.26864,
    "v": 2674
  },
  {
    "dt": "2023.08.15 05:00",
    "o": 1.26864,
    "h": 1.26916,
    "l": 1.26805,
    "c": 1.26815,
    "v": 2290
  },
  {
    "dt": "2023.08.15 06:00",
    "o": 1.26815,
    "h": 1.26909,
    "l": 1.26815,
    "c": 1.26877,
    "v": 1898
  },
  {
    "dt": "2023.08.15 07:00",
    "o": 1.2688,
    "h": 1.26892,
    "l": 1.26826,
    "c": 1.2684,
    "v": 1491
  },
  {
    "dt": "2023.08.15 08:00",
    "o": 1.26839,
    "h": 1.26914,
    "l": 1.26797,
    "c": 1.26856,
    "v": 2429
  },
  {
    "dt": "2023.08.15 09:00",
    "o": 1.26842,
    "h": 1.27192,
    "l": 1.26781,
    "c": 1.27105,
    "v": 3441
  },
  {
    "dt": "2023.08.15 10:00",
    "o": 1.27107,
    "h": 1.27136,
    "l": 1.26816,
    "c": 1.26911,
    "v": 3231
  },
  {
    "dt": "2023.08.15 11:00",
    "o": 1.26914,
    "h": 1.27118,
    "l": 1.26842,
    "c": 1.2711,
    "v": 3051
  },
  {
    "dt": "2023.08.15 12:00",
    "o": 1.27108,
    "h": 1.27286,
    "l": 1.26958,
    "c": 1.27253,
    "v": 3020
  },
  {
    "dt": "2023.08.15 13:00",
    "o": 1.27252,
    "h": 1.27271,
    "l": 1.27041,
    "c": 1.27087,
    "v": 3055
  },
  {
    "dt": "2023.08.15 14:00",
    "o": 1.27089,
    "h": 1.27096,
    "l": 1.26959,
    "c": 1.27056,
    "v": 2660
  },
  {
    "dt": "2023.08.15 15:00",
    "o": 1.27055,
    "h": 1.27224,
    "l": 1.26801,
    "c": 1.27149,
    "v": 4064
  },
  {
    "dt": "2023.08.15 16:00",
    "o": 1.27146,
    "h": 1.27394,
    "l": 1.27069,
    "c": 1.27261,
    "v": 4569
  },
  {
    "dt": "2023.08.15 17:00",
    "o": 1.27258,
    "h": 1.27496,
    "l": 1.27203,
    "c": 1.27438,
    "v": 4129
  },
  {
    "dt": "2023.08.15 18:00",
    "o": 1.27438,
    "h": 1.27513,
    "l": 1.27289,
    "c": 1.27416,
    "v": 3166
  },
  {
    "dt": "2023.08.15 19:00",
    "o": 1.27418,
    "h": 1.2743,
    "l": 1.27217,
    "c": 1.27225,
    "v": 2621
  },
  {
    "dt": "2023.08.15 20:00",
    "o": 1.27215,
    "h": 1.27243,
    "l": 1.27155,
    "c": 1.27187,
    "v": 2243
  },
  {
    "dt": "2023.08.15 21:00",
    "o": 1.27185,
    "h": 1.2722,
    "l": 1.27032,
    "c": 1.27044,
    "v": 1937
  },
  {
    "dt": "2023.08.15 22:00",
    "o": 1.27048,
    "h": 1.27067,
    "l": 1.26933,
    "c": 1.27018,
    "v": 2277
  },
  {
    "dt": "2023.08.15 23:00",
    "o": 1.27017,
    "h": 1.27033,
    "l": 1.26963,
    "c": 1.27027,
    "v": 1165
  },
  {
    "dt": "2023.08.16 00:00",
    "o": 1.27016,
    "h": 1.27016,
    "l": 1.26936,
    "c": 1.27006,
    "v": 596
  },
  {
    "dt": "2023.08.16 01:00",
    "o": 1.27005,
    "h": 1.27028,
    "l": 1.26956,
    "c": 1.26988,
    "v": 960
  },
  {
    "dt": "2023.08.16 02:00",
    "o": 1.26987,
    "h": 1.27019,
    "l": 1.26975,
    "c": 1.26996,
    "v": 853
  },
  {
    "dt": "2023.08.16 03:00",
    "o": 1.26994,
    "h": 1.26996,
    "l": 1.26912,
    "c": 1.26946,
    "v": 1869
  },
  {
    "dt": "2023.08.16 04:00",
    "o": 1.26947,
    "h": 1.27019,
    "l": 1.26858,
    "c": 1.26946,
    "v": 3084
  },
  {
    "dt": "2023.08.16 05:00",
    "o": 1.26964,
    "h": 1.27026,
    "l": 1.26942,
    "c": 1.26949,
    "v": 2258
  },
  {
    "dt": "2023.08.16 06:00",
    "o": 1.26951,
    "h": 1.27019,
    "l": 1.26943,
    "c": 1.26964,
    "v": 2297
  },
  {
    "dt": "2023.08.16 07:00",
    "o": 1.2696,
    "h": 1.27062,
    "l": 1.26957,
    "c": 1.27061,
    "v": 1526
  },
  {
    "dt": "2023.08.16 08:00",
    "o": 1.2706,
    "h": 1.2711,
    "l": 1.26981,
    "c": 1.27061,
    "v": 1903
  },
  {
    "dt": "2023.08.16 09:00",
    "o": 1.27078,
    "h": 1.27312,
    "l": 1.27053,
    "c": 1.27261,
    "v": 2828
  },
  {
    "dt": "2023.08.16 10:00",
    "o": 1.27269,
    "h": 1.27446,
    "l": 1.27257,
    "c": 1.27403,
    "v": 2670
  },
  {
    "dt": "2023.08.16 11:00",
    "o": 1.27404,
    "h": 1.27651,
    "l": 1.27375,
    "c": 1.27571,
    "v": 2710
  },
  {
    "dt": "2023.08.16 12:00",
    "o": 1.27567,
    "h": 1.27654,
    "l": 1.27514,
    "c": 1.27582,
    "v": 2380
  },
  {
    "dt": "2023.08.16 13:00",
    "o": 1.27582,
    "h": 1.27597,
    "l": 1.27354,
    "c": 1.27395,
    "v": 2020
  },
  {
    "dt": "2023.08.16 14:00",
    "o": 1.27395,
    "h": 1.27436,
    "l": 1.27336,
    "c": 1.27397,
    "v": 2028
  },
  {
    "dt": "2023.08.16 15:00",
    "o": 1.27394,
    "h": 1.27477,
    "l": 1.272,
    "c": 1.272,
    "v": 2779
  },
  {
    "dt": "2023.08.16 16:00",
    "o": 1.27199,
    "h": 1.27541,
    "l": 1.27173,
    "c": 1.27399,
    "v": 3461
  },
  {
    "dt": "2023.08.16 17:00",
    "o": 1.27396,
    "h": 1.27596,
    "l": 1.27369,
    "c": 1.27514,
    "v": 3455
  },
  {
    "dt": "2023.08.16 18:00",
    "o": 1.27516,
    "h": 1.27559,
    "l": 1.27425,
    "c": 1.27459,
    "v": 2532
  },
  {
    "dt": "2023.08.16 19:00",
    "o": 1.27458,
    "h": 1.27491,
    "l": 1.27297,
    "c": 1.27322,
    "v": 1974
  },
  {
    "dt": "2023.08.16 20:00",
    "o": 1.27321,
    "h": 1.27386,
    "l": 1.2724,
    "c": 1.27346,
    "v": 1991
  },
  {
    "dt": "2023.08.16 21:00",
    "o": 1.27344,
    "h": 1.2749,
    "l": 1.27222,
    "c": 1.27229,
    "v": 3355
  },
  {
    "dt": "2023.08.16 22:00",
    "o": 1.27233,
    "h": 1.27259,
    "l": 1.27103,
    "c": 1.27176,
    "v": 2619
  },
  {
    "dt": "2023.08.16 23:00",
    "o": 1.27176,
    "h": 1.27315,
    "l": 1.27176,
    "c": 1.27308,
    "v": 1275
  },
  {
    "dt": "2023.08.17 00:00",
    "o": 1.27254,
    "h": 1.27309,
    "l": 1.27196,
    "c": 1.27285,
    "v": 535
  },
  {
    "dt": "2023.08.17 01:00",
    "o": 1.27291,
    "h": 1.27316,
    "l": 1.27282,
    "c": 1.27288,
    "v": 942
  },
  {
    "dt": "2023.08.17 02:00",
    "o": 1.27289,
    "h": 1.27314,
    "l": 1.27246,
    "c": 1.27262,
    "v": 961
  },
  {
    "dt": "2023.08.17 03:00",
    "o": 1.27263,
    "h": 1.27267,
    "l": 1.27149,
    "c": 1.27196,
    "v": 2423
  },
  {
    "dt": "2023.08.17 04:00",
    "o": 1.27194,
    "h": 1.27213,
    "l": 1.27104,
    "c": 1.2719,
    "v": 2871
  },
  {
    "dt": "2023.08.17 05:00",
    "o": 1.27191,
    "h": 1.2722,
    "l": 1.27126,
    "c": 1.2715,
    "v": 2143
  },
  {
    "dt": "2023.08.17 06:00",
    "o": 1.2715,
    "h": 1.27184,
    "l": 1.27109,
    "c": 1.2713,
    "v": 2896
  },
  {
    "dt": "2023.08.17 07:00",
    "o": 1.2713,
    "h": 1.27223,
    "l": 1.2711,
    "c": 1.27222,
    "v": 1738
  },
  {
    "dt": "2023.08.17 08:00",
    "o": 1.27224,
    "h": 1.27252,
    "l": 1.27157,
    "c": 1.27231,
    "v": 2128
  },
  {
    "dt": "2023.08.17 09:00",
    "o": 1.27236,
    "h": 1.27407,
    "l": 1.27208,
    "c": 1.27393,
    "v": 2824
  },
  {
    "dt": "2023.08.17 10:00",
    "o": 1.27386,
    "h": 1.27426,
    "l": 1.27263,
    "c": 1.27342,
    "v": 2886
  },
  {
    "dt": "2023.08.17 11:00",
    "o": 1.27341,
    "h": 1.27418,
    "l": 1.27084,
    "c": 1.27111,
    "v": 2784
  },
  {
    "dt": "2023.08.17 12:00",
    "o": 1.27111,
    "h": 1.27209,
    "l": 1.27017,
    "c": 1.27202,
    "v": 2951
  },
  {
    "dt": "2023.08.17 13:00",
    "o": 1.27201,
    "h": 1.2755,
    "l": 1.27201,
    "c": 1.27482,
    "v": 3299
  },
  {
    "dt": "2023.08.17 14:00",
    "o": 1.27481,
    "h": 1.27638,
    "l": 1.27436,
    "c": 1.27612,
    "v": 2692
  },
  {
    "dt": "2023.08.17 15:00",
    "o": 1.27613,
    "h": 1.27822,
    "l": 1.27498,
    "c": 1.27697,
    "v": 3903
  },
  {
    "dt": "2023.08.17 16:00",
    "o": 1.27695,
    "h": 1.27863,
    "l": 1.27603,
    "c": 1.2762,
    "v": 3898
  },
  {
    "dt": "2023.08.17 17:00",
    "o": 1.27616,
    "h": 1.27619,
    "l": 1.27451,
    "c": 1.2756,
    "v": 3660
  },
  {
    "dt": "2023.08.17 18:00",
    "o": 1.27566,
    "h": 1.27576,
    "l": 1.27364,
    "c": 1.27491,
    "v": 2986
  },
  {
    "dt": "2023.08.17 19:00",
    "o": 1.275,
    "h": 1.27648,
    "l": 1.27468,
    "c": 1.2759,
    "v": 2845
  },
  {
    "dt": "2023.08.17 20:00",
    "o": 1.27591,
    "h": 1.27594,
    "l": 1.27363,
    "c": 1.27369,
    "v": 2281
  },
  {
    "dt": "2023.08.17 21:00",
    "o": 1.27371,
    "h": 1.27371,
    "l": 1.27259,
    "c": 1.27259,
    "v": 2378
  },
  {
    "dt": "2023.08.17 22:00",
    "o": 1.27259,
    "h": 1.27487,
    "l": 1.27259,
    "c": 1.27439,
    "v": 2875
  },
  {
    "dt": "2023.08.17 23:00",
    "o": 1.27436,
    "h": 1.27463,
    "l": 1.27424,
    "c": 1.27462,
    "v": 1048
  },
  {
    "dt": "2023.08.18 00:00",
    "o": 1.27435,
    "h": 1.27469,
    "l": 1.27397,
    "c": 1.27441,
    "v": 414
  },
  {
    "dt": "2023.08.18 01:00",
    "o": 1.27436,
    "h": 1.27482,
    "l": 1.2742,
    "c": 1.27444,
    "v": 1055
  },
  {
    "dt": "2023.08.18 02:00",
    "o": 1.27445,
    "h": 1.2749,
    "l": 1.27438,
    "c": 1.27462,
    "v": 719
  },
  {
    "dt": "2023.08.18 03:00",
    "o": 1.27471,
    "h": 1.27579,
    "l": 1.27445,
    "c": 1.27506,
    "v": 2206
  },
  {
    "dt": "2023.08.18 04:00",
    "o": 1.2751,
    "h": 1.27638,
    "l": 1.27505,
    "c": 1.27623,
    "v": 2615
  },
  {
    "dt": "2023.08.18 05:00",
    "o": 1.27624,
    "h": 1.27653,
    "l": 1.27526,
    "c": 1.27544,
    "v": 1961
  },
  {
    "dt": "2023.08.18 06:00",
    "o": 1.27536,
    "h": 1.27555,
    "l": 1.27466,
    "c": 1.27503,
    "v": 2347
  },
  {
    "dt": "2023.08.18 07:00",
    "o": 1.2751,
    "h": 1.27539,
    "l": 1.27415,
    "c": 1.2744,
    "v": 2192
  },
  {
    "dt": "2023.08.18 08:00",
    "o": 1.2744,
    "h": 1.27475,
    "l": 1.27355,
    "c": 1.27443,
    "v": 2368
  },
  {
    "dt": "2023.08.18 09:00",
    "o": 1.27456,
    "h": 1.27515,
    "l": 1.2706,
    "c": 1.27114,
    "v": 3015
  },
  {
    "dt": "2023.08.18 10:00",
    "o": 1.27115,
    "h": 1.27254,
    "l": 1.271,
    "c": 1.27129,
    "v": 3072
  },
  {
    "dt": "2023.08.18 11:00",
    "o": 1.27133,
    "h": 1.27295,
    "l": 1.27129,
    "c": 1.27178,
    "v": 2631
  },
  {
    "dt": "2023.08.18 12:00",
    "o": 1.27179,
    "h": 1.27246,
    "l": 1.27054,
    "c": 1.27245,
    "v": 2467
  },
  {
    "dt": "2023.08.18 13:00",
    "o": 1.27245,
    "h": 1.27413,
    "l": 1.2715,
    "c": 1.27178,
    "v": 2657
  },
  {
    "dt": "2023.08.18 14:00",
    "o": 1.27181,
    "h": 1.27212,
    "l": 1.27002,
    "c": 1.27021,
    "v": 2556
  },
  {
    "dt": "2023.08.18 15:00",
    "o": 1.27007,
    "h": 1.27116,
    "l": 1.26884,
    "c": 1.27095,
    "v": 3338
  },
  {
    "dt": "2023.08.18 16:00",
    "o": 1.27098,
    "h": 1.2748,
    "l": 1.27066,
    "c": 1.27427,
    "v": 3915
  },
  {
    "dt": "2023.08.18 17:00",
    "o": 1.27422,
    "h": 1.27437,
    "l": 1.27261,
    "c": 1.27261,
    "v": 3480
  },
  {
    "dt": "2023.08.18 18:00",
    "o": 1.27262,
    "h": 1.27434,
    "l": 1.27204,
    "c": 1.27356,
    "v": 2815
  },
  {
    "dt": "2023.08.18 19:00",
    "o": 1.27357,
    "h": 1.27446,
    "l": 1.27337,
    "c": 1.2744,
    "v": 1929
  },
  {
    "dt": "2023.08.18 20:00",
    "o": 1.27441,
    "h": 1.27553,
    "l": 1.27398,
    "c": 1.275,
    "v": 1802
  },
  {
    "dt": "2023.08.18 21:00",
    "o": 1.27509,
    "h": 1.27515,
    "l": 1.27409,
    "c": 1.27414,
    "v": 1499
  },
  {
    "dt": "2023.08.18 22:00",
    "o": 1.27416,
    "h": 1.2742,
    "l": 1.27328,
    "c": 1.27362,
    "v": 1740
  },
  {
    "dt": "2023.08.18 23:00",
    "o": 1.27356,
    "h": 1.27396,
    "l": 1.27266,
    "c": 1.2732,
    "v": 1088
  },
  {
    "dt": "2023.08.21 00:00",
    "o": 1.27305,
    "h": 1.2738,
    "l": 1.27274,
    "c": 1.27318,
    "v": 296
  },
  {
    "dt": "2023.08.21 01:00",
    "o": 1.27286,
    "h": 1.27381,
    "l": 1.27277,
    "c": 1.27353,
    "v": 1179
  },
  {
    "dt": "2023.08.21 02:00",
    "o": 1.27352,
    "h": 1.27405,
    "l": 1.2733,
    "c": 1.27404,
    "v": 1279
  },
  {
    "dt": "2023.08.21 03:00",
    "o": 1.27405,
    "h": 1.27496,
    "l": 1.27389,
    "c": 1.27455,
    "v": 1632
  },
  {
    "dt": "2023.08.21 04:00",
    "o": 1.27454,
    "h": 1.27454,
    "l": 1.27297,
    "c": 1.27337,
    "v": 2779
  },
  {
    "dt": "2023.08.21 05:00",
    "o": 1.27333,
    "h": 1.27414,
    "l": 1.2729,
    "c": 1.27392,
    "v": 2586
  },
  {
    "dt": "2023.08.21 06:00",
    "o": 1.27393,
    "h": 1.27401,
    "l": 1.27352,
    "c": 1.27354,
    "v": 1625
  },
  {
    "dt": "2023.08.21 07:00",
    "o": 1.27355,
    "h": 1.27394,
    "l": 1.27332,
    "c": 1.27376,
    "v": 1918
  },
  {
    "dt": "2023.08.21 08:00",
    "o": 1.27377,
    "h": 1.27438,
    "l": 1.27311,
    "c": 1.27367,
    "v": 2147
  },
  {
    "dt": "2023.08.21 09:00",
    "o": 1.27371,
    "h": 1.27396,
    "l": 1.27232,
    "c": 1.27266,
    "v": 2211
  },
  {
    "dt": "2023.08.21 10:00",
    "o": 1.27266,
    "h": 1.27444,
    "l": 1.27217,
    "c": 1.27286,
    "v": 3368
  },
  {
    "dt": "2023.08.21 11:00",
    "o": 1.27285,
    "h": 1.27332,
    "l": 1.27094,
    "c": 1.27199,
    "v": 2758
  },
  {
    "dt": "2023.08.21 12:00",
    "o": 1.27203,
    "h": 1.27404,
    "l": 1.27194,
    "c": 1.27397,
    "v": 2386
  },
  {
    "dt": "2023.08.21 13:00",
    "o": 1.27395,
    "h": 1.27443,
    "l": 1.2726,
    "c": 1.274,
    "v": 2282
  },
  {
    "dt": "2023.08.21 14:00",
    "o": 1.27401,
    "h": 1.27639,
    "l": 1.2739,
    "c": 1.27585,
    "v": 2738
  },
  {
    "dt": "2023.08.21 15:00",
    "o": 1.27588,
    "h": 1.27639,
    "l": 1.27422,
    "c": 1.27509,
    "v": 3067
  },
  {
    "dt": "2023.08.21 16:00",
    "o": 1.27513,
    "h": 1.27564,
    "l": 1.27295,
    "c": 1.27386,
    "v": 3669
  },
  {
    "dt": "2023.08.21 17:00",
    "o": 1.27395,
    "h": 1.27422,
    "l": 1.27217,
    "c": 1.27275,
    "v": 3665
  },
  {
    "dt": "2023.08.21 18:00",
    "o": 1.27275,
    "h": 1.27352,
    "l": 1.27223,
    "c": 1.27343,
    "v": 2566
  },
  {
    "dt": "2023.08.21 19:00",
    "o": 1.27344,
    "h": 1.27564,
    "l": 1.27342,
    "c": 1.27559,
    "v": 2263
  },
  {
    "dt": "2023.08.21 20:00",
    "o": 1.2756,
    "h": 1.2761,
    "l": 1.27498,
    "c": 1.27547,
    "v": 1996
  },
  {
    "dt": "2023.08.21 21:00",
    "o": 1.27548,
    "h": 1.27632,
    "l": 1.27525,
    "c": 1.27626,
    "v": 2031
  },
  {
    "dt": "2023.08.21 22:00",
    "o": 1.27626,
    "h": 1.27659,
    "l": 1.27558,
    "c": 1.27578,
    "v": 1569
  },
  {
    "dt": "2023.08.21 23:00",
    "o": 1.27576,
    "h": 1.27582,
    "l": 1.27529,
    "c": 1.27559,
    "v": 1174
  },
  {
    "dt": "2023.08.22 00:00",
    "o": 1.27526,
    "h": 1.27589,
    "l": 1.27509,
    "c": 1.27557,
    "v": 506
  },
  {
    "dt": "2023.08.22 01:00",
    "o": 1.27536,
    "h": 1.27574,
    "l": 1.27536,
    "c": 1.27559,
    "v": 634
  },
  {
    "dt": "2023.08.22 02:00",
    "o": 1.27563,
    "h": 1.27646,
    "l": 1.27561,
    "c": 1.27584,
    "v": 674
  },
  {
    "dt": "2023.08.22 03:00",
    "o": 1.27591,
    "h": 1.27621,
    "l": 1.27546,
    "c": 1.27621,
    "v": 2317
  },
  {
    "dt": "2023.08.22 04:00",
    "o": 1.27623,
    "h": 1.27725,
    "l": 1.27567,
    "c": 1.27653,
    "v": 2262
  },
  {
    "dt": "2023.08.22 05:00",
    "o": 1.27655,
    "h": 1.27725,
    "l": 1.27644,
    "c": 1.27667,
    "v": 2277
  },
  {
    "dt": "2023.08.22 06:00",
    "o": 1.27668,
    "h": 1.27766,
    "l": 1.27649,
    "c": 1.27729,
    "v": 1961
  },
  {
    "dt": "2023.08.22 07:00",
    "o": 1.2773,
    "h": 1.27747,
    "l": 1.27679,
    "c": 1.27686,
    "v": 1616
  },
  {
    "dt": "2023.08.22 08:00",
    "o": 1.27688,
    "h": 1.2776,
    "l": 1.27681,
    "c": 1.27692,
    "v": 2296
  },
  {
    "dt": "2023.08.22 09:00",
    "o": 1.27699,
    "h": 1.2793,
    "l": 1.27691,
    "c": 1.2781,
    "v": 2832
  },
  {
    "dt": "2023.08.22 10:00",
    "o": 1.27798,
    "h": 1.27992,
    "l": 1.27767,
    "c": 1.27952,
    "v": 2504
  },
  {
    "dt": "2023.08.22 11:00",
    "o": 1.27952,
    "h": 1.27984,
    "l": 1.27776,
    "c": 1.27808,
    "v": 2272
  },
  {
    "dt": "2023.08.22 12:00",
    "o": 1.27809,
    "h": 1.27911,
    "l": 1.27708,
    "c": 1.27899,
    "v": 2174
  },
  {
    "dt": "2023.08.22 13:00",
    "o": 1.27899,
    "h": 1.27904,
    "l": 1.27615,
    "c": 1.27641,
    "v": 2501
  },
  {
    "dt": "2023.08.22 14:00",
    "o": 1.27639,
    "h": 1.27692,
    "l": 1.27548,
    "c": 1.27656,
    "v": 2383
  },
  {
    "dt": "2023.08.22 15:00",
    "o": 1.27657,
    "h": 1.27691,
    "l": 1.27405,
    "c": 1.27415,
    "v": 3023
  },
  {
    "dt": "2023.08.22 16:00",
    "o": 1.27416,
    "h": 1.27524,
    "l": 1.27177,
    "c": 1.27222,
    "v": 3657
  },
  {
    "dt": "2023.08.22 17:00",
    "o": 1.27223,
    "h": 1.27373,
    "l": 1.27191,
    "c": 1.27312,
    "v": 3740
  },
  {
    "dt": "2023.08.22 18:00",
    "o": 1.27313,
    "h": 1.27438,
    "l": 1.27263,
    "c": 1.27299,
    "v": 2671
  },
  {
    "dt": "2023.08.22 19:00",
    "o": 1.27297,
    "h": 1.27398,
    "l": 1.27273,
    "c": 1.27342,
    "v": 1941
  },
  {
    "dt": "2023.08.22 20:00",
    "o": 1.27337,
    "h": 1.27425,
    "l": 1.273,
    "c": 1.27355,
    "v": 1566
  },
  {
    "dt": "2023.08.22 21:00",
    "o": 1.27356,
    "h": 1.27405,
    "l": 1.27323,
    "c": 1.27373,
    "v": 1213
  },
  {
    "dt": "2023.08.22 22:00",
    "o": 1.27373,
    "h": 1.27378,
    "l": 1.27269,
    "c": 1.27293,
    "v": 1165
  },
  {
    "dt": "2023.08.22 23:00",
    "o": 1.27289,
    "h": 1.27344,
    "l": 1.27272,
    "c": 1.27307,
    "v": 919
  },
  {
    "dt": "2023.08.23 00:00",
    "o": 1.27314,
    "h": 1.2735,
    "l": 1.2724,
    "c": 1.27271,
    "v": 376
  },
  {
    "dt": "2023.08.23 01:00",
    "o": 1.27283,
    "h": 1.27307,
    "l": 1.27279,
    "c": 1.2729,
    "v": 519
  },
  {
    "dt": "2023.08.23 02:00",
    "o": 1.27291,
    "h": 1.27308,
    "l": 1.27277,
    "c": 1.27302,
    "v": 479
  },
  {
    "dt": "2023.08.23 03:00",
    "o": 1.27303,
    "h": 1.27401,
    "l": 1.27278,
    "c": 1.27333,
    "v": 1955
  },
  {
    "dt": "2023.08.23 04:00",
    "o": 1.27334,
    "h": 1.27444,
    "l": 1.27323,
    "c": 1.27431,
    "v": 2058
  },
  {
    "dt": "2023.08.23 05:00",
    "o": 1.27432,
    "h": 1.27448,
    "l": 1.27379,
    "c": 1.27393,
    "v": 2068
  },
  {
    "dt": "2023.08.23 06:00",
    "o": 1.27392,
    "h": 1.27469,
    "l": 1.27373,
    "c": 1.27468,
    "v": 1678
  },
  {
    "dt": "2023.08.23 07:00",
    "o": 1.27467,
    "h": 1.275,
    "l": 1.27444,
    "c": 1.275,
    "v": 1056
  },
  {
    "dt": "2023.08.23 08:00",
    "o": 1.27501,
    "h": 1.27544,
    "l": 1.27484,
    "c": 1.27509,
    "v": 1701
  },
  {
    "dt": "2023.08.23 09:00",
    "o": 1.2751,
    "h": 1.2752,
    "l": 1.27392,
    "c": 1.27513,
    "v": 2303
  },
  {
    "dt": "2023.08.23 10:00",
    "o": 1.27503,
    "h": 1.27635,
    "l": 1.27051,
    "c": 1.27189,
    "v": 3754
  },
  {
    "dt": "2023.08.23 11:00",
    "o": 1.27189,
    "h": 1.27352,
    "l": 1.2671,
    "c": 1.26775,
    "v": 3778
  },
  {
    "dt": "2023.08.23 12:00",
    "o": 1.26776,
    "h": 1.26787,
    "l": 1.26377,
    "c": 1.26425,
    "v": 3397
  },
  {
    "dt": "2023.08.23 13:00",
    "o": 1.26415,
    "h": 1.26474,
    "l": 1.26255,
    "c": 1.26288,
    "v": 2792
  },
  {
    "dt": "2023.08.23 14:00",
    "o": 1.26285,
    "h": 1.26448,
    "l": 1.26215,
    "c": 1.26284,
    "v": 2750
  },
  {
    "dt": "2023.08.23 15:00",
    "o": 1.26293,
    "h": 1.26341,
    "l": 1.26136,
    "c": 1.263,
    "v": 2935
  },
  {
    "dt": "2023.08.23 16:00",
    "o": 1.26298,
    "h": 1.268,
    "l": 1.26298,
    "c": 1.26772,
    "v": 3978
  },
  {
    "dt": "2023.08.23 17:00",
    "o": 1.26775,
    "h": 1.27002,
    "l": 1.26661,
    "c": 1.26813,
    "v": 3828
  },
  {
    "dt": "2023.08.23 18:00",
    "o": 1.2682,
    "h": 1.27173,
    "l": 1.26799,
    "c": 1.27119,
    "v": 2775
  },
  {
    "dt": "2023.08.23 19:00",
    "o": 1.2712,
    "h": 1.27248,
    "l": 1.2708,
    "c": 1.272,
    "v": 2065
  },
  {
    "dt": "2023.08.23 20:00",
    "o": 1.27199,
    "h": 1.2732,
    "l": 1.27156,
    "c": 1.27232,
    "v": 1675
  },
  {
    "dt": "2023.08.23 21:00",
    "o": 1.27232,
    "h": 1.27272,
    "l": 1.27075,
    "c": 1.27151,
    "v": 1687
  },
  {
    "dt": "2023.08.23 22:00",
    "o": 1.27151,
    "h": 1.27256,
    "l": 1.27119,
    "c": 1.27168,
    "v": 1631
  },
  {
    "dt": "2023.08.23 23:00",
    "o": 1.27167,
    "h": 1.27236,
    "l": 1.27125,
    "c": 1.27236,
    "v": 1402
  },
  {
    "dt": "2023.08.24 00:00",
    "o": 1.27179,
    "h": 1.27226,
    "l": 1.27109,
    "c": 1.2717,
    "v": 530
  },
  {
    "dt": "2023.08.24 01:00",
    "o": 1.27176,
    "h": 1.27256,
    "l": 1.27172,
    "c": 1.27194,
    "v": 877
  },
  {
    "dt": "2023.08.24 02:00",
    "o": 1.27194,
    "h": 1.27205,
    "l": 1.27132,
    "c": 1.27191,
    "v": 764
  },
  {
    "dt": "2023.08.24 03:00",
    "o": 1.27195,
    "h": 1.27273,
    "l": 1.2713,
    "c": 1.27184,
    "v": 2269
  },
  {
    "dt": "2023.08.24 04:00",
    "o": 1.27184,
    "h": 1.27195,
    "l": 1.27048,
    "c": 1.27085,
    "v": 2567
  },
  {
    "dt": "2023.08.24 05:00",
    "o": 1.27081,
    "h": 1.2717,
    "l": 1.27049,
    "c": 1.27151,
    "v": 2683
  },
  {
    "dt": "2023.08.24 06:00",
    "o": 1.27151,
    "h": 1.27206,
    "l": 1.27119,
    "c": 1.27134,
    "v": 1798
  },
  {
    "dt": "2023.08.24 07:00",
    "o": 1.27134,
    "h": 1.27202,
    "l": 1.27123,
    "c": 1.2719,
    "v": 1764
  },
  {
    "dt": "2023.08.24 08:00",
    "o": 1.27194,
    "h": 1.27261,
    "l": 1.2719,
    "c": 1.27246,
    "v": 1631
  },
  {
    "dt": "2023.08.24 09:00",
    "o": 1.27237,
    "h": 1.2727,
    "l": 1.27022,
    "c": 1.27024,
    "v": 2374
  },
  {
    "dt": "2023.08.24 10:00",
    "o": 1.27029,
    "h": 1.27136,
    "l": 1.26915,
    "c": 1.27019,
    "v": 2817
  },
  {
    "dt": "2023.08.24 11:00",
    "o": 1.2702,
    "h": 1.27123,
    "l": 1.26906,
    "c": 1.26976,
    "v": 2468
  },
  {
    "dt": "2023.08.24 12:00",
    "o": 1.26977,
    "h": 1.27026,
    "l": 1.26685,
    "c": 1.26707,
    "v": 2594
  },
  {
    "dt": "2023.08.24 13:00",
    "o": 1.26701,
    "h": 1.26873,
    "l": 1.26664,
    "c": 1.26836,
    "v": 2188
  },
  {
    "dt": "2023.08.24 14:00",
    "o": 1.26837,
    "h": 1.26922,
    "l": 1.26552,
    "c": 1.26571,
    "v": 2202
  },
  {
    "dt": "2023.08.24 15:00",
    "o": 1.26571,
    "h": 1.26604,
    "l": 1.26255,
    "c": 1.26348,
    "v": 3465
  },
  {
    "dt": "2023.08.24 16:00",
    "o": 1.2635,
    "h": 1.26481,
    "l": 1.26252,
    "c": 1.26445,
    "v": 3445
  },
  {
    "dt": "2023.08.24 17:00",
    "o": 1.26449,
    "h": 1.26619,
    "l": 1.26334,
    "c": 1.26467,
    "v": 3668
  },
  {
    "dt": "2023.08.24 18:00",
    "o": 1.26465,
    "h": 1.26487,
    "l": 1.26266,
    "c": 1.26309,
    "v": 2762
  },
  {
    "dt": "2023.08.24 19:00",
    "o": 1.26307,
    "h": 1.26337,
    "l": 1.26199,
    "c": 1.26226,
    "v": 1950
  },
  {
    "dt": "2023.08.24 20:00",
    "o": 1.26226,
    "h": 1.26237,
    "l": 1.26041,
    "c": 1.26108,
    "v": 1771
  },
  {
    "dt": "2023.08.24 21:00",
    "o": 1.26108,
    "h": 1.26184,
    "l": 1.26041,
    "c": 1.26061,
    "v": 1774
  },
  {
    "dt": "2023.08.24 22:00",
    "o": 1.26062,
    "h": 1.26116,
    "l": 1.25925,
    "c": 1.25925,
    "v": 1880
  },
  {
    "dt": "2023.08.24 23:00",
    "o": 1.25924,
    "h": 1.26004,
    "l": 1.25902,
    "c": 1.26002,
    "v": 1296
  },
  {
    "dt": "2023.08.25 00:00",
    "o": 1.25969,
    "h": 1.26034,
    "l": 1.25954,
    "c": 1.26023,
    "v": 445
  },
  {
    "dt": "2023.08.25 01:00",
    "o": 1.26026,
    "h": 1.26026,
    "l": 1.25959,
    "c": 1.25974,
    "v": 897
  },
  {
    "dt": "2023.08.25 02:00",
    "o": 1.25974,
    "h": 1.25974,
    "l": 1.25849,
    "c": 1.25917,
    "v": 1230
  },
  {
    "dt": "2023.08.25 03:00",
    "o": 1.25915,
    "h": 1.25967,
    "l": 1.2587,
    "c": 1.25892,
    "v": 2136
  },
  {
    "dt": "2023.08.25 04:00",
    "o": 1.25891,
    "h": 1.25904,
    "l": 1.25791,
    "c": 1.25808,
    "v": 2085
  },
  {
    "dt": "2023.08.25 05:00",
    "o": 1.25803,
    "h": 1.25808,
    "l": 1.25674,
    "c": 1.25689,
    "v": 1987
  },
  {
    "dt": "2023.08.25 06:00",
    "o": 1.25693,
    "h": 1.25738,
    "l": 1.25629,
    "c": 1.2565,
    "v": 1901
  },
  {
    "dt": "2023.08.25 07:00",
    "o": 1.25651,
    "h": 1.25671,
    "l": 1.25589,
    "c": 1.25637,
    "v": 1564
  },
  {
    "dt": "2023.08.25 08:00",
    "o": 1.25639,
    "h": 1.25782,
    "l": 1.25599,
    "c": 1.25769,
    "v": 1995
  },
  {
    "dt": "2023.08.25 09:00",
    "o": 1.25751,
    "h": 1.25775,
    "l": 1.25597,
    "c": 1.25684,
    "v": 2534
  },
  {
    "dt": "2023.08.25 10:00",
    "o": 1.25684,
    "h": 1.25874,
    "l": 1.25684,
    "c": 1.25743,
    "v": 2594
  },
  {
    "dt": "2023.08.25 11:00",
    "o": 1.25742,
    "h": 1.25911,
    "l": 1.2571,
    "c": 1.25855,
    "v": 2313
  },
  {
    "dt": "2023.08.25 12:00",
    "o": 1.25852,
    "h": 1.25933,
    "l": 1.25807,
    "c": 1.25841,
    "v": 2113
  },
  {
    "dt": "2023.08.25 13:00",
    "o": 1.25843,
    "h": 1.26123,
    "l": 1.25837,
    "c": 1.26119,
    "v": 2309
  },
  {
    "dt": "2023.08.25 14:00",
    "o": 1.26128,
    "h": 1.26209,
    "l": 1.26087,
    "c": 1.2615,
    "v": 1979
  },
  {
    "dt": "2023.08.25 15:00",
    "o": 1.26147,
    "h": 1.26226,
    "l": 1.26125,
    "c": 1.2619,
    "v": 2347
  },
  {
    "dt": "2023.08.25 16:00",
    "o": 1.2619,
    "h": 1.26232,
    "l": 1.25892,
    "c": 1.26067,
    "v": 2869
  },
  {
    "dt": "2023.08.25 17:00",
    "o": 1.26087,
    "h": 1.26533,
    "l": 1.2547,
    "c": 1.25509,
    "v": 5285
  },
  {
    "dt": "2023.08.25 18:00",
    "o": 1.25523,
    "h": 1.25828,
    "l": 1.25505,
    "c": 1.25679,
    "v": 3713
  },
  {
    "dt": "2023.08.25 19:00",
    "o": 1.25679,
    "h": 1.25884,
    "l": 1.25679,
    "c": 1.25805,
    "v": 2817
  },
  {
    "dt": "2023.08.25 20:00",
    "o": 1.25807,
    "h": 1.25884,
    "l": 1.25741,
    "c": 1.2587,
    "v": 2252
  },
  {
    "dt": "2023.08.25 21:00",
    "o": 1.25868,
    "h": 1.26003,
    "l": 1.2586,
    "c": 1.25953,
    "v": 2408
  },
  {
    "dt": "2023.08.25 22:00",
    "o": 1.25953,
    "h": 1.26,
    "l": 1.2585,
    "c": 1.25874,
    "v": 1636
  },
  {
    "dt": "2023.08.25 23:00",
    "o": 1.25876,
    "h": 1.25896,
    "l": 1.25748,
    "c": 1.25786,
    "v": 1246
  },
  {
    "dt": "2023.08.28 00:00",
    "o": 1.25817,
    "h": 1.2584,
    "l": 1.25723,
    "c": 1.25723,
    "v": 93
  },
  {
    "dt": "2023.08.28 01:00",
    "o": 1.25733,
    "h": 1.25846,
    "l": 1.25733,
    "c": 1.25785,
    "v": 823
  },
  {
    "dt": "2023.08.28 02:00",
    "o": 1.25787,
    "h": 1.25886,
    "l": 1.25771,
    "c": 1.25881,
    "v": 1498
  },
  {
    "dt": "2023.08.28 03:00",
    "o": 1.25884,
    "h": 1.25981,
    "l": 1.25867,
    "c": 1.25931,
    "v": 2056
  },
  {
    "dt": "2023.08.28 04:00",
    "o": 1.25933,
    "h": 1.26032,
    "l": 1.25929,
    "c": 1.25939,
    "v": 2202
  },
  {
    "dt": "2023.08.28 05:00",
    "o": 1.2594,
    "h": 1.2602,
    "l": 1.25915,
    "c": 1.25994,
    "v": 1880
  },
  {
    "dt": "2023.08.28 06:00",
    "o": 1.25995,
    "h": 1.26008,
    "l": 1.2595,
    "c": 1.25981,
    "v": 1756
  },
  {
    "dt": "2023.08.28 07:00",
    "o": 1.25981,
    "h": 1.26013,
    "l": 1.25967,
    "c": 1.25985,
    "v": 1327
  },
  {
    "dt": "2023.08.28 08:00",
    "o": 1.25985,
    "h": 1.26074,
    "l": 1.25958,
    "c": 1.25988,
    "v": 1505
  },
  {
    "dt": "2023.08.28 09:00",
    "o": 1.25988,
    "h": 1.26098,
    "l": 1.25988,
    "c": 1.2604,
    "v": 1891
  },
  {
    "dt": "2023.08.28 10:00",
    "o": 1.26044,
    "h": 1.26077,
    "l": 1.25714,
    "c": 1.25737,
    "v": 2603
  },
  {
    "dt": "2023.08.28 11:00",
    "o": 1.25735,
    "h": 1.25808,
    "l": 1.25679,
    "c": 1.25753,
    "v": 2167
  },
  {
    "dt": "2023.08.28 12:00",
    "o": 1.25749,
    "h": 1.25777,
    "l": 1.25644,
    "c": 1.25757,
    "v": 1881
  },
  {
    "dt": "2023.08.28 13:00",
    "o": 1.25754,
    "h": 1.25863,
    "l": 1.25714,
    "c": 1.25825,
    "v": 2145
  },
  {
    "dt": "2023.08.28 14:00",
    "o": 1.25825,
    "h": 1.25904,
    "l": 1.25773,
    "c": 1.25861,
    "v": 1962
  },
  {
    "dt": "2023.08.28 15:00",
    "o": 1.25869,
    "h": 1.25938,
    "l": 1.25829,
    "c": 1.25933,
    "v": 2266
  },
  {
    "dt": "2023.08.28 16:00",
    "o": 1.2591,
    "h": 1.25966,
    "l": 1.25796,
    "c": 1.25905,
    "v": 2900
  },
  {
    "dt": "2023.08.28 17:00",
    "o": 1.25906,
    "h": 1.25918,
    "l": 1.25718,
    "c": 1.25753,
    "v": 2918
  },
  {
    "dt": "2023.08.28 18:00",
    "o": 1.25751,
    "h": 1.25899,
    "l": 1.25731,
    "c": 1.2589,
    "v": 2663
  },
  {
    "dt": "2023.08.28 19:00",
    "o": 1.25892,
    "h": 1.25987,
    "l": 1.25871,
    "c": 1.2594,
    "v": 2215
  },
  {
    "dt": "2023.08.28 20:00",
    "o": 1.25939,
    "h": 1.26008,
    "l": 1.25915,
    "c": 1.25956,
    "v": 2297
  },
  {
    "dt": "2023.08.28 21:00",
    "o": 1.25957,
    "h": 1.26007,
    "l": 1.25924,
    "c": 1.26006,
    "v": 1420
  },
  {
    "dt": "2023.08.28 22:00",
    "o": 1.26007,
    "h": 1.26065,
    "l": 1.25977,
    "c": 1.26034,
    "v": 1836
  },
  {
    "dt": "2023.08.28 23:00",
    "o": 1.26035,
    "h": 1.26038,
    "l": 1.25971,
    "c": 1.26015,
    "v": 993
  },
  {
    "dt": "2023.08.29 00:00",
    "o": 1.25933,
    "h": 1.26011,
    "l": 1.25922,
    "c": 1.25991,
    "v": 508
  },
  {
    "dt": "2023.08.29 01:00",
    "o": 1.25984,
    "h": 1.26084,
    "l": 1.25984,
    "c": 1.26081,
    "v": 1109
  },
  {
    "dt": "2023.08.29 02:00",
    "o": 1.26076,
    "h": 1.26142,
    "l": 1.26061,
    "c": 1.26095,
    "v": 773
  },
  {
    "dt": "2023.08.29 03:00",
    "o": 1.26096,
    "h": 1.2618,
    "l": 1.26092,
    "c": 1.26128,
    "v": 1407
  },
  {
    "dt": "2023.08.29 04:00",
    "o": 1.26129,
    "h": 1.26259,
    "l": 1.26126,
    "c": 1.26238,
    "v": 2085
  },
  {
    "dt": "2023.08.29 05:00",
    "o": 1.26235,
    "h": 1.26271,
    "l": 1.26196,
    "c": 1.26259,
    "v": 1798
  },
  {
    "dt": "2023.08.29 06:00",
    "o": 1.26261,
    "h": 1.26315,
    "l": 1.26234,
    "c": 1.26272,
    "v": 1590
  },
  {
    "dt": "2023.08.29 07:00",
    "o": 1.26272,
    "h": 1.26278,
    "l": 1.26194,
    "c": 1.26219,
    "v": 1140
  },
  {
    "dt": "2023.08.29 08:00",
    "o": 1.2622,
    "h": 1.26301,
    "l": 1.26172,
    "c": 1.2622,
    "v": 1579
  },
  {
    "dt": "2023.08.29 09:00",
    "o": 1.26218,
    "h": 1.26315,
    "l": 1.26101,
    "c": 1.26115,
    "v": 2339
  },
  {
    "dt": "2023.08.29 10:00",
    "o": 1.26112,
    "h": 1.26348,
    "l": 1.26069,
    "c": 1.26104,
    "v": 2906
  },
  {
    "dt": "2023.08.29 11:00",
    "o": 1.26104,
    "h": 1.2618,
    "l": 1.26045,
    "c": 1.26106,
    "v": 2775
  },
  {
    "dt": "2023.08.29 12:00",
    "o": 1.26106,
    "h": 1.26163,
    "l": 1.26015,
    "c": 1.26151,
    "v": 2575
  },
  {
    "dt": "2023.08.29 13:00",
    "o": 1.26149,
    "h": 1.26159,
    "l": 1.25842,
    "c": 1.25891,
    "v": 2538
  },
  {
    "dt": "2023.08.29 14:00",
    "o": 1.2589,
    "h": 1.25959,
    "l": 1.25822,
    "c": 1.25858,
    "v": 2700
  },
  {
    "dt": "2023.08.29 15:00",
    "o": 1.25861,
    "h": 1.25882,
    "l": 1.25617,
    "c": 1.25726,
    "v": 3026
  },
  {
    "dt": "2023.08.29 16:00",
    "o": 1.25728,
    "h": 1.25814,
    "l": 1.2562,
    "c": 1.25754,
    "v": 3542
  },
  {
    "dt": "2023.08.29 17:00",
    "o": 1.25762,
    "h": 1.26329,
    "l": 1.25762,
    "c": 1.2587,
    "v": 4814
  },
  {
    "dt": "2023.08.29 18:00",
    "o": 1.25869,
    "h": 1.26301,
    "l": 1.25857,
    "c": 1.26108,
    "v": 3326
  },
  {
    "dt": "2023.08.29 19:00",
    "o": 1.26103,
    "h": 1.26224,
    "l": 1.26071,
    "c": 1.26195,
    "v": 2444
  },
  {
    "dt": "2023.08.29 20:00",
    "o": 1.26196,
    "h": 1.2638,
    "l": 1.26193,
    "c": 1.26309,
    "v": 2505
  },
  {
    "dt": "2023.08.29 21:00",
    "o": 1.26306,
    "h": 1.26362,
    "l": 1.26198,
    "c": 1.26322,
    "v": 1840
  },
  {
    "dt": "2023.08.29 22:00",
    "o": 1.26319,
    "h": 1.26541,
    "l": 1.26308,
    "c": 1.26496,
    "v": 2134
  },
  {
    "dt": "2023.08.29 23:00",
    "o": 1.26487,
    "h": 1.26491,
    "l": 1.26411,
    "c": 1.26427,
    "v": 1260
  },
  {
    "dt": "2023.08.30 00:00",
    "o": 1.26368,
    "h": 1.26455,
    "l": 1.26368,
    "c": 1.26448,
    "v": 620
  },
  {
    "dt": "2023.08.30 01:00",
    "o": 1.26435,
    "h": 1.26491,
    "l": 1.26435,
    "c": 1.26479,
    "v": 635
  },
  {
    "dt": "2023.08.30 02:00",
    "o": 1.26476,
    "h": 1.26491,
    "l": 1.2634,
    "c": 1.26344,
    "v": 773
  },
  {
    "dt": "2023.08.30 03:00",
    "o": 1.26346,
    "h": 1.26419,
    "l": 1.26315,
    "c": 1.26396,
    "v": 1340
  },
  {
    "dt": "2023.08.30 04:00",
    "o": 1.26398,
    "h": 1.26413,
    "l": 1.26268,
    "c": 1.26276,
    "v": 1942
  },
  {
    "dt": "2023.08.30 05:00",
    "o": 1.26278,
    "h": 1.26307,
    "l": 1.26241,
    "c": 1.26269,
    "v": 1616
  },
  {
    "dt": "2023.08.30 06:00",
    "o": 1.26269,
    "h": 1.26298,
    "l": 1.26254,
    "c": 1.26297,
    "v": 1196
  },
  {
    "dt": "2023.08.30 07:00",
    "o": 1.26299,
    "h": 1.26299,
    "l": 1.26211,
    "c": 1.26217,
    "v": 1196
  },
  {
    "dt": "2023.08.30 08:00",
    "o": 1.26216,
    "h": 1.26279,
    "l": 1.26179,
    "c": 1.2624,
    "v": 2096
  },
  {
    "dt": "2023.08.30 09:00",
    "o": 1.26247,
    "h": 1.26418,
    "l": 1.26246,
    "c": 1.263,
    "v": 2392
  },
  {
    "dt": "2023.08.30 10:00",
    "o": 1.26297,
    "h": 1.26465,
    "l": 1.26191,
    "c": 1.26409,
    "v": 3038
  },
  {
    "dt": "2023.08.30 11:00",
    "o": 1.26414,
    "h": 1.26423,
    "l": 1.26264,
    "c": 1.2637,
    "v": 2845
  },
  {
    "dt": "2023.08.30 12:00",
    "o": 1.26368,
    "h": 1.26687,
    "l": 1.26344,
    "c": 1.26575,
    "v": 2731
  },
  {
    "dt": "2023.08.30 13:00",
    "o": 1.26575,
    "h": 1.26654,
    "l": 1.26416,
    "c": 1.26639,
    "v": 2439
  },
  {
    "dt": "2023.08.30 14:00",
    "o": 1.26639,
    "h": 1.26643,
    "l": 1.26487,
    "c": 1.2656,
    "v": 2282
  },
  {
    "dt": "2023.08.30 15:00",
    "o": 1.26562,
    "h": 1.27199,
    "l": 1.26526,
    "c": 1.27118,
    "v": 4448
  },
  {
    "dt": "2023.08.30 16:00",
    "o": 1.27115,
    "h": 1.27407,
    "l": 1.2701,
    "c": 1.27385,
    "v": 4112
  },
  {
    "dt": "2023.08.30 17:00",
    "o": 1.27384,
    "h": 1.2745,
    "l": 1.27123,
    "c": 1.27258,
    "v": 4044
  },
  {
    "dt": "2023.08.30 18:00",
    "o": 1.27259,
    "h": 1.27339,
    "l": 1.27184,
    "c": 1.27226,
    "v": 2583
  },
  {
    "dt": "2023.08.30 19:00",
    "o": 1.27221,
    "h": 1.27229,
    "l": 1.27096,
    "c": 1.27152,
    "v": 2345
  },
  {
    "dt": "2023.08.30 20:00",
    "o": 1.27152,
    "h": 1.2728,
    "l": 1.27098,
    "c": 1.27126,
    "v": 1831
  },
  {
    "dt": "2023.08.30 21:00",
    "o": 1.27127,
    "h": 1.27171,
    "l": 1.27057,
    "c": 1.27156,
    "v": 1903
  },
  {
    "dt": "2023.08.30 22:00",
    "o": 1.27159,
    "h": 1.27186,
    "l": 1.27127,
    "c": 1.27163,
    "v": 1785
  },
  {
    "dt": "2023.08.30 23:00",
    "o": 1.2716,
    "h": 1.27213,
    "l": 1.27154,
    "c": 1.27202,
    "v": 1316
  },
  {
    "dt": "2023.08.31 00:00",
    "o": 1.27155,
    "h": 1.27202,
    "l": 1.27102,
    "c": 1.27188,
    "v": 364
  },
  {
    "dt": "2023.08.31 01:00",
    "o": 1.27186,
    "h": 1.27213,
    "l": 1.27169,
    "c": 1.27201,
    "v": 1359
  },
  {
    "dt": "2023.08.31 02:00",
    "o": 1.27201,
    "h": 1.27218,
    "l": 1.27099,
    "c": 1.27107,
    "v": 727
  },
  {
    "dt": "2023.08.31 03:00",
    "o": 1.27102,
    "h": 1.27194,
    "l": 1.271,
    "c": 1.27193,
    "v": 1957
  },
  {
    "dt": "2023.08.31 04:00",
    "o": 1.27193,
    "h": 1.27338,
    "l": 1.27193,
    "c": 1.27234,
    "v": 1799
  },
  {
    "dt": "2023.08.31 05:00",
    "o": 1.27238,
    "h": 1.27254,
    "l": 1.2718,
    "c": 1.2722,
    "v": 1432
  },
  {
    "dt": "2023.08.31 06:00",
    "o": 1.2722,
    "h": 1.27238,
    "l": 1.27192,
    "c": 1.27195,
    "v": 1520
  },
  {
    "dt": "2023.08.31 07:00",
    "o": 1.27195,
    "h": 1.27235,
    "l": 1.27184,
    "c": 1.27224,
    "v": 1272
  },
  {
    "dt": "2023.08.31 08:00",
    "o": 1.27224,
    "h": 1.27234,
    "l": 1.27149,
    "c": 1.2715,
    "v": 1582
  },
  {
    "dt": "2023.08.31 09:00",
    "o": 1.27152,
    "h": 1.27156,
    "l": 1.27011,
    "c": 1.27015,
    "v": 2445
  },
  {
    "dt": "2023.08.31 10:00",
    "o": 1.27016,
    "h": 1.27206,
    "l": 1.27001,
    "c": 1.27082,
    "v": 3166
  },
  {
    "dt": "2023.08.31 11:00",
    "o": 1.27084,
    "h": 1.27156,
    "l": 1.26937,
    "c": 1.26942,
    "v": 2746
  },
  {
    "dt": "2023.08.31 12:00",
    "o": 1.26934,
    "h": 1.26963,
    "l": 1.26745,
    "c": 1.26856,
    "v": 3131
  },
  {
    "dt": "2023.08.31 13:00",
    "o": 1.26856,
    "h": 1.26872,
    "l": 1.26708,
    "c": 1.26789,
    "v": 2434
  },
  {
    "dt": "2023.08.31 14:00",
    "o": 1.26788,
    "h": 1.268,
    "l": 1.26625,
    "c": 1.26799,
    "v": 2520
  },
  {
    "dt": "2023.08.31 15:00",
    "o": 1.26801,
    "h": 1.26952,
    "l": 1.26679,
    "c": 1.26839,
    "v": 3739
  },
  {
    "dt": "2023.08.31 16:00",
    "o": 1.26832,
    "h": 1.26863,
    "l": 1.26602,
    "c": 1.26749,
    "v": 3866
  },
  {
    "dt": "2023.08.31 17:00",
    "o": 1.26744,
    "h": 1.26762,
    "l": 1.26516,
    "c": 1.26721,
    "v": 3909
  },
  {
    "dt": "2023.08.31 18:00",
    "o": 1.26721,
    "h": 1.26755,
    "l": 1.26558,
    "c": 1.26642,
    "v": 3010
  },
  {
    "dt": "2023.08.31 19:00",
    "o": 1.26643,
    "h": 1.26708,
    "l": 1.26557,
    "c": 1.26625,
    "v": 2269
  },
  {
    "dt": "2023.08.31 20:00",
    "o": 1.26625,
    "h": 1.26728,
    "l": 1.26597,
    "c": 1.2665,
    "v": 2064
  },
  {
    "dt": "2023.08.31 21:00",
    "o": 1.26657,
    "h": 1.2673,
    "l": 1.26613,
    "c": 1.26637,
    "v": 1975
  },
  {
    "dt": "2023.08.31 22:00",
    "o": 1.26634,
    "h": 1.2671,
    "l": 1.26633,
    "c": 1.26667,
    "v": 1722
  },
  {
    "dt": "2023.08.31 23:00",
    "o": 1.26668,
    "h": 1.26732,
    "l": 1.26656,
    "c": 1.26715,
    "v": 1255
  }
]