[
  {
    "dt": "2020.11.02 00:00",
    "o": 73.381,
    "h": 73.472,
    "l": 73.37,
    "c": 73.42,
    "v": 1326
  },
  {
    "dt": "2020.11.02 01:00",
    "o": 73.42,
    "h": 73.509,
    "l": 73.174,
    "c": 73.274,
    "v": 1898
  },
  {
    "dt": "2020.11.02 02:00",
    "o": 73.273,
    "h": 73.432,
    "l": 73.273,
    "c": 73.333,
    "v": 2663
  },
  {
    "dt": "2020.11.02 03:00",
    "o": 73.332,
    "h": 73.549,
    "l": 73.307,
    "c": 73.506,
    "v": 2490
  },
  {
    "dt": "2020.11.02 04:00",
    "o": 73.507,
    "h": 73.526,
    "l": 73.382,
    "c": 73.442,
    "v": 1856
  },
  {
    "dt": "2020.11.02 05:00",
    "o": 73.443,
    "h": 73.449,
    "l": 73.394,
    "c": 73.409,
    "v": 1179
  },
  {
    "dt": "2020.11.02 06:00",
    "o": 73.406,
    "h": 73.442,
    "l": 73.273,
    "c": 73.294,
    "v": 1671
  },
  {
    "dt": "2020.11.02 07:00",
    "o": 73.295,
    "h": 73.415,
    "l": 73.292,
    "c": 73.35,
    "v": 1561
  },
  {
    "dt": "2020.11.02 08:00",
    "o": 73.349,
    "h": 73.476,
    "l": 73.222,
    "c": 73.351,
    "v": 1994
  },
  {
    "dt": "2020.11.02 09:00",
    "o": 73.355,
    "h": 73.484,
    "l": 73.325,
    "c": 73.484,
    "v": 2733
  },
  {
    "dt": "2020.11.02 10:00",
    "o": 73.482,
    "h": 73.515,
    "l": 73.363,
    "c": 73.483,
    "v": 3382
  },
  {
    "dt": "2020.11.02 11:00",
    "o": 73.484,
    "h": 73.652,
    "l": 73.465,
    "c": 73.609,
    "v": 2930
  },
  {
    "dt": "2020.11.02 12:00",
    "o": 73.607,
    "h": 73.668,
    "l": 73.556,
    "c": 73.644,
    "v": 2548
  },
  {
    "dt": "2020.11.02 13:00",
    "o": 73.643,
    "h": 73.763,
    "l": 73.615,
    "c": 73.734,
    "v": 2607
  },
  {
    "dt": "2020.11.02 14:00",
    "o": 73.732,
    "h": 73.742,
    "l": 73.642,
    "c": 73.676,
    "v": 2735
  },
  {
    "dt": "2020.11.02 15:00",
    "o": 73.675,
    "h": 73.8,
    "l": 73.675,
    "c": 73.766,
    "v": 2892
  },
  {
    "dt": "2020.11.02 16:00",
    "o": 73.765,
    "h": 73.861,
    "l": 73.721,
    "c": 73.823,
    "v": 3387
  },
  {
    "dt": "2020.11.02 17:00",
    "o": 73.853,
    "h": 73.927,
    "l": 73.741,
    "c": 73.755,
    "v": 3719
  },
  {
    "dt": "2020.11.02 18:00",
    "o": 73.757,
    "h": 73.839,
    "l": 73.738,
    "c": 73.815,
    "v": 2576
  },
  {
    "dt": "2020.11.02 19:00",
    "o": 73.815,
    "h": 73.861,
    "l": 73.78,
    "c": 73.809,
    "v": 2184
  },
  {
    "dt": "2020.11.02 20:00",
    "o": 73.811,
    "h": 73.824,
    "l": 73.763,
    "c": 73.796,
    "v": 1989
  },
  {
    "dt": "2020.11.02 21:00",
    "o": 73.796,
    "h": 73.921,
    "l": 73.795,
    "c": 73.888,
    "v": 1982
  },
  {
    "dt": "2020.11.02 22:00",
    "o": 73.887,
    "h": 73.95,
    "l": 73.886,
    "c": 73.944,
    "v": 2007
  },
  {
    "dt": "2020.11.02 23:00",
    "o": 73.944,
    "h": 73.947,
    "l": 73.878,
    "c": 73.909,
    "v": 1056
  },
  {
    "dt": "2020.11.03 00:00",
    "o": 73.877,
    "h": 73.88,
    "l": 73.824,
    "c": 73.835,
    "v": 562
  },
  {
    "dt": "2020.11.03 01:00",
    "o": 73.834,
    "h": 73.889,
    "l": 73.833,
    "c": 73.851,
    "v": 741
  },
  {
    "dt": "2020.11.03 02:00",
    "o": 73.851,
    "h": 73.97,
    "l": 73.85,
    "c": 73.905,
    "v": 1227
  },
  {
    "dt": "2020.11.03 03:00",
    "o": 73.905,
    "h": 73.947,
    "l": 73.79,
    "c": 73.935,
    "v": 1840
  },
  {
    "dt": "2020.11.03 04:00",
    "o": 73.935,
    "h": 73.936,
    "l": 73.779,
    "c": 73.845,
    "v": 1590
  },
  {
    "dt": "2020.11.03 05:00",
    "o": 73.846,
    "h": 73.931,
    "l": 73.666,
    "c": 73.773,
    "v": 1715
  },
  {
    "dt": "2020.11.03 06:00",
    "o": 73.771,
    "h": 73.771,
    "l": 73.604,
    "c": 73.613,
    "v": 1086
  },
  {
    "dt": "2020.11.03 07:00",
    "o": 73.616,
    "h": 73.791,
    "l": 73.601,
    "c": 73.752,
    "v": 1395
  },
  {
    "dt": "2020.11.03 08:00",
    "o": 73.752,
    "h": 73.815,
    "l": 73.684,
    "c": 73.728,
    "v": 1658
  },
  {
    "dt": "2020.11.03 09:00",
    "o": 73.727,
    "h": 73.936,
    "l": 73.674,
    "c": 73.921,
    "v": 2805
  },
  {
    "dt": "2020.11.03 10:00",
    "o": 73.916,
    "h": 74.294,
    "l": 73.878,
    "c": 74.289,
    "v": 3190
  },
  {
    "dt": "2020.11.03 11:00",
    "o": 74.284,
    "h": 74.666,
    "l": 74.246,
    "c": 74.589,
    "v": 2932
  },
  {
    "dt": "2020.11.03 12:00",
    "o": 74.589,
    "h": 74.601,
    "l": 74.435,
    "c": 74.468,
    "v": 1736
  },
  {
    "dt": "2020.11.03 13:00",
    "o": 74.468,
    "h": 74.704,
    "l": 74.467,
    "c": 74.677,
    "v": 2503
  },
  {
    "dt": "2020.11.03 14:00",
    "o": 74.678,
    "h": 74.752,
    "l": 74.604,
    "c": 74.618,
    "v": 2465
  },
  {
    "dt": "2020.11.03 15:00",
    "o": 74.621,
    "h": 74.783,
    "l": 74.545,
    "c": 74.57,
    "v": 3214
  },
  {
    "dt": "2020.11.03 16:00",
    "o": 74.572,
    "h": 74.706,
    "l": 74.572,
    "c": 74.603,
    "v": 3563
  },
  {
    "dt": "2020.11.03 17:00",
    "o": 74.611,
    "h": 74.969,
    "l": 74.598,
    "c": 74.917,
    "v": 4037
  },
  {
    "dt": "2020.11.03 18:00",
    "o": 74.917,
    "h": 75.006,
    "l": 74.802,
    "c": 74.807,
    "v": 3427
  },
  {
    "dt": "2020.11.03 19:00",
    "o": 74.808,
    "h": 74.885,
    "l": 74.772,
    "c": 74.803,
    "v": 2294
  },
  {
    "dt": "2020.11.03 20:00",
    "o": 74.803,
    "h": 74.841,
    "l": 74.729,
    "c": 74.744,
    "v": 2352
  },
  {
    "dt": "2020.11.03 21:00",
    "o": 74.741,
    "h": 74.746,
    "l": 74.653,
    "c": 74.684,
    "v": 2107
  },
  {
    "dt": "2020.11.03 22:00",
    "o": 74.684,
    "h": 74.794,
    "l": 74.626,
    "c": 74.725,
    "v": 2245
  },
  {
    "dt": "2020.11.03 23:00",
    "o": 74.717,
    "h": 74.94,
    "l": 74.689,
    "c": 74.833,
    "v": 2083
  },
  {
    "dt": "2020.11.04 00:00",
    "o": 74.817,
    "h": 74.931,
    "l": 74.682,
    "c": 74.919,
    "v": 1302
  },
  {
    "dt": "2020.11.04 01:00",
    "o": 74.918,
    "h": 75.373,
    "l": 74.914,
    "c": 75.226,
    "v": 3539
  },
  {
    "dt": "2020.11.04 02:00",
    "o": 75.229,
    "h": 75.46,
    "l": 74.568,
    "c": 74.608,
    "v": 4796
  },
  {
    "dt": "2020.11.04 03:00",
    "o": 74.597,
    "h": 74.974,
    "l": 74.569,
    "c": 74.673,
    "v": 4702
  },
  {
    "dt": "2020.11.04 04:00",
    "o": 74.672,
    "h": 74.76,
    "l": 74.151,
    "c": 74.453,
    "v": 5187
  },
  {
    "dt": "2020.11.04 05:00",
    "o": 74.456,
    "h": 74.992,
    "l": 74.45,
    "c": 74.638,
    "v": 4644
  },
  {
    "dt": "2020.11.04 06:00",
    "o": 74.639,
    "h": 74.758,
    "l": 74.425,
    "c": 74.475,
    "v": 4139
  },
  {
    "dt": "2020.11.04 07:00",
    "o": 74.475,
    "h": 74.755,
    "l": 74.409,
    "c": 74.566,
    "v": 3874
  },
  {
    "dt": "2020.11.04 08:00",
    "o": 74.565,
    "h": 74.659,
    "l": 74.303,
    "c": 74.435,
    "v": 3322
  },
  {
    "dt": "2020.11.04 09:00",
    "o": 74.436,
    "h": 74.469,
    "l": 74.066,
    "c": 74.279,
    "v": 4634
  },
  {
    "dt": "2020.11.04 10:00",
    "o": 74.276,
    "h": 74.428,
    "l": 74.197,
    "c": 74.245,
    "v": 4340
  },
  {
    "dt": "2020.11.04 11:00",
    "o": 74.246,
    "h": 74.56,
    "l": 74.193,
    "c": 74.437,
    "v": 3574
  },
  {
    "dt": "2020.11.04 12:00",
    "o": 74.436,
    "h": 74.52,
    "l": 74.239,
    "c": 74.42,
    "v": 3337
  },
  {
    "dt": "2020.11.04 13:00",
    "o": 74.419,
    "h": 74.547,
    "l": 74.341,
    "c": 74.496,
    "v": 3244
  },
  {
    "dt": "2020.11.04 14:00",
    "o": 74.494,
    "h": 74.817,
    "l": 74.447,
    "c": 74.796,
    "v": 4630
  },
  {
    "dt": "2020.11.04 15:00",
    "o": 74.798,
    "h": 74.822,
    "l": 74.54,
    "c": 74.566,
    "v": 4027
  },
  {
    "dt": "2020.11.04 16:00",
    "o": 74.566,
    "h": 74.686,
    "l": 74.438,
    "c": 74.657,
    "v": 4141
  },
  {
    "dt": "2020.11.04 17:00",
    "o": 74.656,
    "h": 74.816,
    "l": 74.608,
    "c": 74.797,
    "v": 4118
  },
  {
    "dt": "2020.11.04 18:00",
    "o": 74.796,
    "h": 75.126,
    "l": 74.687,
    "c": 75.071,
    "v": 3742
  },
  {
    "dt": "2020.11.04 19:00",
    "o": 75.072,
    "h": 75.141,
    "l": 75.017,
    "c": 75.061,
    "v": 3228
  },
  {
    "dt": "2020.11.04 20:00",
    "o": 75.062,
    "h": 75.191,
    "l": 75.002,
    "c": 75.066,
    "v": 2643
  },
  {
    "dt": "2020.11.04 21:00",
    "o": 75.067,
    "h": 75.107,
    "l": 74.995,
    "c": 75.078,
    "v": 2440
  },
  {
    "dt": "2020.11.04 22:00",
    "o": 75.081,
    "h": 75.109,
    "l": 74.923,
    "c": 74.976,
    "v": 2751
  },
  {
    "dt": "2020.11.04 23:00",
    "o": 74.979,
    "h": 75.092,
    "l": 74.969,
    "c": 74.987,
    "v": 1490
  },
  {
    "dt": "2020.11.05 00:00",
    "o": 74.928,
    "h": 75.044,
    "l": 74.842,
    "c": 74.883,
    "v": 1406
  },
  {
    "dt": "2020.11.05 01:00",
    "o": 74.881,
    "h": 75.052,
    "l": 74.856,
    "c": 74.978,
    "v": 1595
  },
  {
    "dt": "2020.11.05 02:00",
    "o": 74.977,
    "h": 74.993,
    "l": 74.725,
    "c": 74.791,
    "v": 2958
  },
  {
    "dt": "2020.11.05 03:00",
    "o": 74.791,
    "h": 74.834,
    "l": 74.683,
    "c": 74.728,
    "v": 2951
  },
  {
    "dt": "2020.11.05 04:00",
    "o": 74.731,
    "h": 74.772,
    "l": 74.554,
    "c": 74.731,
    "v": 2739
  },
  {
    "dt": "2020.11.05 05:00",
    "o": 74.731,
    "h": 74.863,
    "l": 74.717,
    "c": 74.819,
    "v": 2434
  },
  {
    "dt": "2020.11.05 06:00",
    "o": 74.817,
    "h": 74.836,
    "l": 74.686,
    "c": 74.713,
    "v": 1734
  },
  {
    "dt": "2020.11.05 07:00",
    "o": 74.714,
    "h": 74.853,
    "l": 74.647,
    "c": 74.763,
    "v": 2179
  },
  {
    "dt": "2020.11.05 08:00",
    "o": 74.771,
    "h": 74.868,
    "l": 74.733,
    "c": 74.818,
    "v": 2030
  },
  {
    "dt": "2020.11.05 09:00",
    "o": 74.814,
    "h": 75.041,
    "l": 74.79,
    "c": 75.023,
    "v": 3607
  },
  {
    "dt": "2020.11.05 10:00",
    "o": 75.022,
    "h": 75.252,
    "l": 74.979,
    "c": 75.043,
    "v": 3789
  },
  {
    "dt": "2020.11.05 11:00",
    "o": 75.042,
    "h": 75.229,
    "l": 74.987,
    "c": 75.173,
    "v": 3302
  },
  {
    "dt": "2020.11.05 12:00",
    "o": 75.173,
    "h": 75.222,
    "l": 75.046,
    "c": 75.129,
    "v": 3068
  },
  {
    "dt": "2020.11.05 13:00",
    "o": 75.125,
    "h": 75.184,
    "l": 75.04,
    "c": 75.123,
    "v": 3370
  },
  {
    "dt": "2020.11.05 14:00",
    "o": 75.124,
    "h": 75.336,
    "l": 75.088,
    "c": 75.21,
    "v": 3918
  },
  {
    "dt": "2020.11.05 15:00",
    "o": 75.209,
    "h": 75.209,
    "l": 74.95,
    "c": 75.134,
    "v": 4178
  },
  {
    "dt": "2020.11.05 16:00",
    "o": 75.135,
    "h": 75.206,
    "l": 75.032,
    "c": 75.149,
    "v": 3985
  },
  {
    "dt": "2020.11.05 17:00",
    "o": 75.149,
    "h": 75.406,
    "l": 75.149,
    "c": 75.372,
    "v": 4486
  },
  {
    "dt": "2020.11.05 18:00",
    "o": 75.374,
    "h": 75.404,
    "l": 75.254,
    "c": 75.304,
    "v": 3743
  },
  {
    "dt": "2020.11.05 19:00",
    "o": 75.304,
    "h": 75.375,
    "l": 75.217,
    "c": 75.351,
    "v": 3031
  },
  {
    "dt": "2020.11.05 20:00",
    "o": 75.353,
    "h": 75.438,
    "l": 75.335,
    "c": 75.394,
    "v": 2482
  },
  {
    "dt": "2020.11.05 21:00",
    "o": 75.393,
    "h": 75.453,
    "l": 75.331,
    "c": 75.392,
    "v": 3124
  },
  {
    "dt": "2020.11.05 22:00",
    "o": 75.395,
    "h": 75.403,
    "l": 75.198,
    "c": 75.389,
    "v": 3110
  },
  {
    "dt": "2020.11.05 23:00",
    "o": 75.388,
    "h": 75.442,
    "l": 75.359,
    "c": 75.359,
    "v": 1666
  },
  {
    "dt": "2020.11.06 00:00",
    "o": 75.362,
    "h": 75.362,
    "l": 75.141,
    "c": 75.199,
    "v": 841
  },
  {
    "dt": "2020.11.06 01:00",
    "o": 75.198,
    "h": 75.339,
    "l": 75.163,
    "c": 75.226,
    "v": 2423
  },
  {
    "dt": "2020.11.06 02:00",
    "o": 75.232,
    "h": 75.363,
    "l": 75.177,
    "c": 75.206,
    "v": 3322
  },
  {
    "dt": "2020.11.06 03:00",
    "o": 75.207,
    "h": 75.339,
    "l": 75.18,
    "c": 75.296,
    "v": 3517
  },
  {
    "dt": "2020.11.06 04:00",
    "o": 75.307,
    "h": 75.307,
    "l": 75.152,
    "c": 75.213,
    "v": 3279
  },
  {
    "dt": "2020.11.06 05:00",
    "o": 75.211,
    "h": 75.227,
    "l": 74.961,
    "c": 74.99,
    "v": 3037
  },
  {
    "dt": "2020.11.06 06:00",
    "o": 74.99,
    "h": 75.185,
    "l": 74.984,
    "c": 75.086,
    "v": 2258
  },
  {
    "dt": "2020.11.06 07:00",
    "o": 75.087,
    "h": 75.191,
    "l": 75.087,
    "c": 75.179,
    "v": 2278
  },
  {
    "dt": "2020.11.06 08:00",
    "o": 75.174,
    "h": 75.296,
    "l": 75.169,
    "c": 75.205,
    "v": 2262
  },
  {
    "dt": "2020.11.06 09:00",
    "o": 75.204,
    "h": 75.243,
    "l": 75.113,
    "c": 75.243,
    "v": 2667
  },
  {
    "dt": "2020.11.06 10:00",
    "o": 75.248,
    "h": 75.34,
    "l": 75.106,
    "c": 75.115,
    "v": 3505
  },
  {
    "dt": "2020.11.06 11:00",
    "o": 75.112,
    "h": 75.199,
    "l": 75.021,
    "c": 75.128,
    "v": 3070
  },
  {
    "dt": "2020.11.06 12:00",
    "o": 75.129,
    "h": 75.184,
    "l": 75.074,
    "c": 75.119,
    "v": 3112
  },
  {
    "dt": "2020.11.06 13:00",
    "o": 75.122,
    "h": 75.211,
    "l": 75.033,
    "c": 75.035,
    "v": 2866
  },
  {
    "dt": "2020.11.06 14:00",
    "o": 75.035,
    "h": 75.064,
    "l": 74.891,
    "c": 74.978,
    "v": 3405
  },
  {
    "dt": "2020.11.06 15:00",
    "o": 74.975,
    "h": 75.102,
    "l": 74.911,
    "c": 75.091,
    "v": 4086
  },
  {
    "dt": "2020.11.06 16:00",
    "o": 75.091,
    "h": 75.249,
    "l": 74.994,
    "c": 75.094,
    "v": 5030
  },
  {
    "dt": "2020.11.06 17:00",
    "o": 75.095,
    "h": 75.219,
    "l": 75.048,
    "c": 75.072,
    "v": 4357
  },
  {
    "dt": "2020.11.06 18:00",
    "o": 75.076,
    "h": 75.147,
    "l": 75.044,
    "c": 75.077,
    "v": 3450
  },
  {
    "dt": "2020.11.06 19:00",
    "o": 75.075,
    "h": 75.12,
    "l": 75.02,
    "c": 75.088,
    "v": 2557
  },
  {
    "dt": "2020.11.06 20:00",
    "o": 75.089,
    "h": 75.116,
    "l": 75.033,
    "c": 75.049,
    "v": 1772
  },
  {
    "dt": "2020.11.06 21:00",
    "o": 75.046,
    "h": 75.079,
    "l": 75.003,
    "c": 75.005,
    "v": 1547
  },
  {
    "dt": "2020.11.06 22:00",
    "o": 75.006,
    "h": 75.045,
    "l": 74.963,
    "c": 74.967,
    "v": 2177
  },
  {
    "dt": "2020.11.06 23:00",
    "o": 74.973,
    "h": 75.058,
    "l": 74.968,
    "c": 75.007,
    "v": 1100
  },
  {
    "dt": "2020.11.09 00:00",
    "o": 75.155,
    "h": 75.202,
    "l": 75.062,
    "c": 75.134,
    "v": 958
  },
  {
    "dt": "2020.11.09 01:00",
    "o": 75.139,
    "h": 75.296,
    "l": 75.076,
    "c": 75.223,
    "v": 2286
  },
  {
    "dt": "2020.11.09 02:00",
    "o": 75.223,
    "h": 75.253,
    "l": 75.082,
    "c": 75.124,
    "v": 2701
  },
  {
    "dt": "2020.11.09 03:00",
    "o": 75.126,
    "h": 75.264,
    "l": 75.108,
    "c": 75.257,
    "v": 3119
  },
  {
    "dt": "2020.11.09 04:00",
    "o": 75.255,
    "h": 75.336,
    "l": 75.208,
    "c": 75.307,
    "v": 2175
  },
  {
    "dt": "2020.11.09 05:00",
    "o": 75.309,
    "h": 75.34,
    "l": 75.254,
    "c": 75.333,
    "v": 1744
  },
  {
    "dt": "2020.11.09 06:00",
    "o": 75.331,
    "h": 75.476,
    "l": 75.322,
    "c": 75.426,
    "v": 1842
  },
  {
    "dt": "2020.11.09 07:00",
    "o": 75.425,
    "h": 75.56,
    "l": 75.412,
    "c": 75.543,
    "v": 2000
  },
  {
    "dt": "2020.11.09 08:00",
    "o": 75.541,
    "h": 75.558,
    "l": 75.413,
    "c": 75.462,
    "v": 2037
  },
  {
    "dt": "2020.11.09 09:00",
    "o": 75.463,
    "h": 75.535,
    "l": 75.347,
    "c": 75.406,
    "v": 2814
  },
  {
    "dt": "2020.11.09 10:00",
    "o": 75.403,
    "h": 75.501,
    "l": 75.319,
    "c": 75.344,
    "v": 3344
  },
  {
    "dt": "2020.11.09 11:00",
    "o": 75.346,
    "h": 75.537,
    "l": 75.321,
    "c": 75.388,
    "v": 2929
  },
  {
    "dt": "2020.11.09 12:00",
    "o": 75.387,
    "h": 75.481,
    "l": 75.358,
    "c": 75.476,
    "v": 2007
  },
  {
    "dt": "2020.11.09 13:00",
    "o": 75.476,
    "h": 76.282,
    "l": 75.432,
    "c": 76.262,
    "v": 3282
  },
  {
    "dt": "2020.11.09 14:00",
    "o": 76.262,
    "h": 77.005,
    "l": 76.085,
    "c": 76.992,
    "v": 5833
  },
  {
    "dt": "2020.11.09 15:00",
    "o": 76.997,
    "h": 77.023,
    "l": 76.657,
    "c": 76.81,
    "v": 5164
  },
  {
    "dt": "2020.11.09 16:00",
    "o": 76.811,
    "h": 76.994,
    "l": 76.788,
    "c": 76.87,
    "v": 4928
  },
  {
    "dt": "2020.11.09 17:00",
    "o": 76.869,
    "h": 76.986,
    "l": 76.694,
    "c": 76.888,
    "v": 5365
  },
  {
    "dt": "2020.11.09 18:00",
    "o": 76.89,
    "h": 76.891,
    "l": 76.718,
    "c": 76.766,
    "v": 4962
  },
  {
    "dt": "2020.11.09 19:00",
    "o": 76.766,
    "h": 76.886,
    "l": 76.718,
    "c": 76.837,
    "v": 3972
  },
  {
    "dt": "2020.11.09 20:00",
    "o": 76.834,
    "h": 76.845,
    "l": 76.689,
    "c": 76.724,
    "v": 3081
  },
  {
    "dt": "2020.11.09 21:00",
    "o": 76.726,
    "h": 76.882,
    "l": 76.708,
    "c": 76.861,
    "v": 3198
  },
  {
    "dt": "2020.11.09 22:00",
    "o": 76.859,
    "h": 76.945,
    "l": 76.671,
    "c": 76.702,
    "v": 3789
  },
  {
    "dt": "2020.11.09 23:00",
    "o": 76.71,
    "h": 76.733,
    "l": 76.644,
    "c": 76.684,
    "v": 1953
  },
  {
    "dt": "2020.11.10 00:00",
    "o": 76.643,
    "h": 76.693,
    "l": 76.49,
    "c": 76.513,
    "v": 777
  },
  {
    "dt": "2020.11.10 01:00",
    "o": 76.54,
    "h": 76.649,
    "l": 76.451,
    "c": 76.524,
    "v": 2495
  },
  {
    "dt": "2020.11.10 02:00",
    "o": 76.518,
    "h": 76.686,
    "l": 76.37,
    "c": 76.509,
    "v": 3885
  },
  {
    "dt": "2020.11.10 03:00",
    "o": 76.513,
    "h": 76.566,
    "l": 76.322,
    "c": 76.33,
    "v": 3511
  },
  {
    "dt": "2020.11.10 04:00",
    "o": 76.329,
    "h": 76.448,
    "l": 76.329,
    "c": 76.368,
    "v": 3253
  },
  {
    "dt": "2020.11.10 05:00",
    "o": 76.365,
    "h": 76.409,
    "l": 76.237,
    "c": 76.367,
    "v": 3115
  },
  {
    "dt": "2020.11.10 06:00",
    "o": 76.369,
    "h": 76.471,
    "l": 76.366,
    "c": 76.431,
    "v": 2565
  },
  {
    "dt": "2020.11.10 07:00",
    "o": 76.432,
    "h": 76.485,
    "l": 76.379,
    "c": 76.402,
    "v": 2391
  },
  {
    "dt": "2020.11.10 08:00",
    "o": 76.401,
    "h": 76.565,
    "l": 76.388,
    "c": 76.546,
    "v": 2421
  },
  {
    "dt": "2020.11.10 09:00",
    "o": 76.546,
    "h": 76.634,
    "l": 76.413,
    "c": 76.433,
    "v": 3051
  },
  {
    "dt": "2020.11.10 10:00",
    "o": 76.42,
    "h": 76.567,
    "l": 76.42,
    "c": 76.524,
    "v": 3800
  },
  {
    "dt": "2020.11.10 11:00",
    "o": 76.526,
    "h": 76.764,
    "l": 76.525,
    "c": 76.762,
    "v": 3357
  },
  {
    "dt": "2020.11.10 12:00",
    "o": 76.76,
    "h": 76.814,
    "l": 76.667,
    "c": 76.672,
    "v": 3696
  },
  {
    "dt": "2020.11.10 13:00",
    "o": 76.672,
    "h": 76.699,
    "l": 76.571,
    "c": 76.672,
    "v": 3238
  },
  {
    "dt": "2020.11.10 14:00",
    "o": 76.673,
    "h": 76.71,
    "l": 76.567,
    "c": 76.619,
    "v": 3584
  },
  {
    "dt": "2020.11.10 15:00",
    "o": 76.618,
    "h": 76.666,
    "l": 76.41,
    "c": 76.454,
    "v": 3645
  },
  {
    "dt": "2020.11.10 16:00",
    "o": 76.456,
    "h": 76.609,
    "l": 76.432,
    "c": 76.517,
    "v": 4207
  },
  {
    "dt": "2020.11.10 17:00",
    "o": 76.514,
    "h": 76.555,
    "l": 76.387,
    "c": 76.471,
    "v": 4706
  },
  {
    "dt": "2020.11.10 18:00",
    "o": 76.473,
    "h": 76.634,
    "l": 76.466,
    "c": 76.617,
    "v": 3724
  },
  {
    "dt": "2020.11.10 19:00",
    "o": 76.617,
    "h": 76.733,
    "l": 76.611,
    "c": 76.65,
    "v": 3043
  },
  {
    "dt": "2020.11.10 20:00",
    "o": 76.651,
    "h": 76.684,
    "l": 76.562,
    "c": 76.659,
    "v": 2423
  },
  {
    "dt": "2020.11.10 21:00",
    "o": 76.654,
    "h": 76.714,
    "l": 76.642,
    "c": 76.656,
    "v": 2881
  },
  {
    "dt": "2020.11.10 22:00",
    "o": 76.656,
    "h": 76.673,
    "l": 76.573,
    "c": 76.612,
    "v": 2679
  },
  {
    "dt": "2020.11.10 23:00",
    "o": 76.611,
    "h": 76.682,
    "l": 76.608,
    "c": 76.657,
    "v": 1378
  },
  {
    "dt": "2020.11.11 00:00",
    "o": 76.661,
    "h": 76.706,
    "l": 76.635,
    "c": 76.66,
    "v": 434
  },
  {
    "dt": "2020.11.11 01:00",
    "o": 76.661,
    "h": 76.732,
    "l": 76.612,
    "c": 76.638,
    "v": 1473
  },
  {
    "dt": "2020.11.11 02:00",
    "o": 76.634,
    "h": 76.69,
    "l": 76.513,
    "c": 76.514,
    "v": 2500
  },
  {
    "dt": "2020.11.11 03:00",
    "o": 76.513,
    "h": 76.66,
    "l": 76.498,
    "c": 76.62,
    "v": 2916
  },
  {
    "dt": "2020.11.11 04:00",
    "o": 76.617,
    "h": 76.831,
    "l": 76.562,
    "c": 76.752,
    "v": 2418
  },
  {
    "dt": "2020.11.11 05:00",
    "o": 76.754,
    "h": 76.905,
    "l": 76.746,
    "c": 76.836,
    "v": 2411
  },
  {
    "dt": "2020.11.11 06:00",
    "o": 76.837,
    "h": 76.859,
    "l": 76.769,
    "c": 76.836,
    "v": 1369
  },
  {
    "dt": "2020.11.11 07:00",
    "o": 76.835,
    "h": 76.911,
    "l": 76.821,
    "c": 76.885,
    "v": 1615
  },
  {
    "dt": "2020.11.11 08:00",
    "o": 76.885,
    "h": 76.936,
    "l": 76.858,
    "c": 76.91,
    "v": 1782
  },
  {
    "dt": "2020.11.11 09:00",
    "o": 76.91,
    "h": 77.09,
    "l": 76.848,
    "c": 76.858,
    "v": 2777
  },
  {
    "dt": "2020.11.11 10:00",
    "o": 76.859,
    "h": 76.976,
    "l": 76.803,
    "c": 76.967,
    "v": 3660
  },
  {
    "dt": "2020.11.11 11:00",
    "o": 76.965,
    "h": 76.996,
    "l": 76.901,
    "c": 76.946,
    "v": 3029
  },
  {
    "dt": "2020.11.11 12:00",
    "o": 76.947,
    "h": 76.962,
    "l": 76.856,
    "c": 76.906,
    "v": 2263
  },
  {
    "dt": "2020.11.11 13:00",
    "o": 76.905,
    "h": 76.955,
    "l": 76.746,
    "c": 76.746,
    "v": 2330
  },
  {
    "dt": "2020.11.11 14:00",
    "o": 76.745,
    "h": 76.757,
    "l": 76.639,
    "c": 76.708,
    "v": 3030
  },
  {
    "dt": "2020.11.11 15:00",
    "o": 76.709,
    "h": 76.814,
    "l": 76.655,
    "c": 76.782,
    "v": 3137
  },
  {
    "dt": "2020.11.11 16:00",
    "o": 76.781,
    "h": 76.802,
    "l": 76.679,
    "c": 76.679,
    "v": 3464
  },
  {
    "dt": "2020.11.11 17:00",
    "o": 76.68,
    "h": 76.792,
    "l": 76.654,
    "c": 76.718,
    "v": 3767
  },
  {
    "dt": "2020.11.11 18:00",
    "o": 76.721,
    "h": 76.753,
    "l": 76.674,
    "c": 76.702,
    "v": 2516
  },
  {
    "dt": "2020.11.11 19:00",
    "o": 76.703,
    "h": 76.799,
    "l": 76.695,
    "c": 76.791,
    "v": 1908
  },
  {
    "dt": "2020.11.11 20:00",
    "o": 76.79,
    "h": 76.808,
    "l": 76.763,
    "c": 76.79,
    "v": 1523
  },
  {
    "dt": "2020.11.11 21:00",
    "o": 76.79,
    "h": 76.823,
    "l": 76.677,
    "c": 76.7,
    "v": 1860
  },
  {
    "dt": "2020.11.11 22:00",
    "o": 76.697,
    "h": 76.735,
    "l": 76.668,
    "c": 76.715,
    "v": 1808
  },
  {
    "dt": "2020.11.11 23:00",
    "o": 76.715,
    "h": 76.779,
    "l": 76.71,
    "c": 76.729,
    "v": 1329
  },
  {
    "dt": "2020.11.12 00:00",
    "o": 76.705,
    "h": 76.736,
    "l": 76.687,
    "c": 76.703,
    "v": 802
  },
  {
    "dt": "2020.11.12 01:00",
    "o": 76.707,
    "h": 76.779,
    "l": 76.688,
    "c": 76.773,
    "v": 1211
  },
  {
    "dt": "2020.11.12 02:00",
    "o": 76.775,
    "h": 76.816,
    "l": 76.715,
    "c": 76.752,
    "v": 2231
  },
  {
    "dt": "2020.11.12 03:00",
    "o": 76.752,
    "h": 76.782,
    "l": 76.63,
    "c": 76.656,
    "v": 2795
  },
  {
    "dt": "2020.11.12 04:00",
    "o": 76.656,
    "h": 76.712,
    "l": 76.617,
    "c": 76.694,
    "v": 1945
  },
  {
    "dt": "2020.11.12 05:00",
    "o": 76.694,
    "h": 76.705,
    "l": 76.583,
    "c": 76.585,
    "v": 1867
  },
  {
    "dt": "2020.11.12 06:00",
    "o": 76.587,
    "h": 76.607,
    "l": 76.475,
    "c": 76.492,
    "v": 1754
  },
  {
    "dt": "2020.11.12 07:00",
    "o": 76.491,
    "h": 76.594,
    "l": 76.479,
    "c": 76.498,
    "v": 2016
  },
  {
    "dt": "2020.11.12 08:00",
    "o": 76.496,
    "h": 76.519,
    "l": 76.29,
    "c": 76.368,
    "v": 2326
  },
  {
    "dt": "2020.11.12 09:00",
    "o": 76.369,
    "h": 76.476,
    "l": 76.288,
    "c": 76.361,
    "v": 2540
  },
  {
    "dt": "2020.11.12 10:00",
    "o": 76.361,
    "h": 76.525,
    "l": 76.355,
    "c": 76.509,
    "v": 3104
  },
  {
    "dt": "2020.11.12 11:00",
    "o": 76.508,
    "h": 76.672,
    "l": 76.383,
    "c": 76.648,
    "v": 2807
  },
  {
    "dt": "2020.11.12 12:00",
    "o": 76.646,
    "h": 76.685,
    "l": 76.542,
    "c": 76.556,
    "v": 2141
  },
  {
    "dt": "2020.11.12 13:00",
    "o": 76.557,
    "h": 76.619,
    "l": 76.486,
    "c": 76.491,
    "v": 1911
  },
  {
    "dt": "2020.11.12 14:00",
    "o": 76.492,
    "h": 76.526,
    "l": 76.334,
    "c": 76.363,
    "v": 2840
  },
  {
    "dt": "2020.11.12 15:00",
    "o": 76.361,
    "h": 76.501,
    "l": 76.348,
    "c": 76.482,
    "v": 3311
  },
  {
    "dt": "2020.11.12 16:00",
    "o": 76.488,
    "h": 76.503,
    "l": 76.305,
    "c": 76.392,
    "v": 4039
  },
  {
    "dt": "2020.11.12 17:00",
    "o": 76.394,
    "h": 76.477,
    "l": 76.337,
    "c": 76.35,
    "v": 3804
  },
  {
    "dt": "2020.11.12 18:00",
    "o": 76.35,
    "h": 76.439,
    "l": 76.318,
    "c": 76.404,
    "v": 2969
  },
  {
    "dt": "2020.11.12 19:00",
    "o": 76.404,
    "h": 76.404,
    "l": 76.136,
    "c": 76.207,
    "v": 2655
  },
  {
    "dt": "2020.11.12 20:00",
    "o": 76.204,
    "h": 76.21,
    "l": 76.025,
    "c": 76.157,
    "v": 2799
  },
  {
    "dt": "2020.11.12 21:00",
    "o": 76.157,
    "h": 76.183,
    "l": 76.022,
    "c": 76.042,
    "v": 2724
  },
  {
    "dt": "2020.11.12 22:00",
    "o": 76.041,
    "h": 76.051,
    "l": 75.91,
    "c": 75.998,
    "v": 3019
  },
  {
    "dt": "2020.11.12 23:00",
    "o": 75.999,
    "h": 76.032,
    "l": 75.974,
    "c": 76.023,
    "v": 1244
  },
  {
    "dt": "2020.11.13 00:00",
    "o": 76.006,
    "h": 76.029,
    "l": 75.945,
    "c": 75.977,
    "v": 1070
  },
  {
    "dt": "2020.11.13 01:00",
    "o": 75.978,
    "h": 76.115,
    "l": 75.951,
    "c": 76.08,
    "v": 1729
  },
  {
    "dt": "2020.11.13 02:00",
    "o": 76.083,
    "h": 76.101,
    "l": 75.845,
    "c": 75.855,
    "v": 2648
  },
  {
    "dt": "2020.11.13 03:00",
    "o": 75.857,
    "h": 75.984,
    "l": 75.789,
    "c": 75.812,
    "v": 2794
  },
  {
    "dt": "2020.11.13 04:00",
    "o": 75.809,
    "h": 75.838,
    "l": 75.749,
    "c": 75.822,
    "v": 2210
  },
  {
    "dt": "2020.11.13 05:00",
    "o": 75.822,
    "h": 75.849,
    "l": 75.786,
    "c": 75.789,
    "v": 1599
  },
  {
    "dt": "2020.11.13 06:00",
    "o": 75.79,
    "h": 75.892,
    "l": 75.771,
    "c": 75.844,
    "v": 1554
  },
  {
    "dt": "2020.11.13 07:00",
    "o": 75.843,
    "h": 75.866,
    "l": 75.8,
    "c": 75.84,
    "v": 1650
  },
  {
    "dt": "2020.11.13 08:00",
    "o": 75.84,
    "h": 76.001,
    "l": 75.838,
    "c": 75.98,
    "v": 1671
  },
  {
    "dt": "2020.11.13 09:00",
    "o": 75.978,
    "h": 76.11,
    "l": 75.91,
    "c": 76.109,
    "v": 2172
  },
  {
    "dt": "2020.11.13 10:00",
    "o": 76.108,
    "h": 76.126,
    "l": 76.004,
    "c": 76.055,
    "v": 2681
  },
  {
    "dt": "2020.11.13 11:00",
    "o": 76.053,
    "h": 76.16,
    "l": 75.97,
    "c": 76.146,
    "v": 2299
  },
  {
    "dt": "2020.11.13 12:00",
    "o": 76.143,
    "h": 76.294,
    "l": 76.141,
    "c": 76.253,
    "v": 2040
  },
  {
    "dt": "2020.11.13 13:00",
    "o": 76.254,
    "h": 76.261,
    "l": 76.067,
    "c": 76.077,
    "v": 1846
  },
  {
    "dt": "2020.11.13 14:00",
    "o": 76.075,
    "h": 76.081,
    "l": 75.976,
    "c": 75.981,
    "v": 2530
  },
  {
    "dt": "2020.11.13 15:00",
    "o": 75.979,
    "h": 76.045,
    "l": 75.88,
    "c": 75.971,
    "v": 3189
  },
  {
    "dt": "2020.11.13 16:00",
    "o": 75.967,
    "h": 75.998,
    "l": 75.921,
    "c": 75.946,
    "v": 3173
  },
  {
    "dt": "2020.11.13 17:00",
    "o": 75.946,
    "h": 75.993,
    "l": 75.785,
    "c": 75.825,
    "v": 3616
  },
  {
    "dt": "2020.11.13 18:00",
    "o": 75.825,
    "h": 75.911,
    "l": 75.808,
    "c": 75.888,
    "v": 2799
  },
  {
    "dt": "2020.11.13 19:00",
    "o": 75.89,
    "h": 76.036,
    "l": 75.888,
    "c": 76.035,
    "v": 1762
  },
  {
    "dt": "2020.11.13 20:00",
    "o": 76.036,
    "h": 76.071,
    "l": 75.998,
    "c": 76.011,
    "v": 1590
  },
  {
    "dt": "2020.11.13 21:00",
    "o": 76.01,
    "h": 76.021,
    "l": 75.967,
    "c": 75.991,
    "v": 1666
  },
  {
    "dt": "2020.11.13 22:00",
    "o": 75.993,
    "h": 76.09,
    "l": 75.992,
    "c": 76.078,
    "v": 1630
  },
  {
    "dt": "2020.11.13 23:00",
    "o": 76.084,
    "h": 76.084,
    "l": 76.013,
    "c": 76.029,
    "v": 821
  },
  {
    "dt": "2020.11.16 00:00",
    "o": 76.091,
    "h": 76.091,
    "l": 75.974,
    "c": 76.033,
    "v": 667
  },
  {
    "dt": "2020.11.16 01:00",
    "o": 76.036,
    "h": 76.36,
    "l": 76.027,
    "c": 76.294,
    "v": 2106
  },
  {
    "dt": "2020.11.16 02:00",
    "o": 76.288,
    "h": 76.355,
    "l": 76.215,
    "c": 76.289,
    "v": 2475
  },
  {
    "dt": "2020.11.16 03:00",
    "o": 76.292,
    "h": 76.33,
    "l": 76.199,
    "c": 76.232,
    "v": 2381
  },
  {
    "dt": "2020.11.16 04:00",
    "o": 76.224,
    "h": 76.268,
    "l": 76.187,
    "c": 76.244,
    "v": 1892
  },
  {
    "dt": "2020.11.16 05:00",
    "o": 76.246,
    "h": 76.282,
    "l": 76.156,
    "c": 76.167,
    "v": 1758
  },
  {
    "dt": "2020.11.16 06:00",
    "o": 76.167,
    "h": 76.204,
    "l": 76.139,
    "c": 76.203,
    "v": 1099
  },
  {
    "dt": "2020.11.16 07:00",
    "o": 76.203,
    "h": 76.24,
    "l": 76.14,
    "c": 76.181,
    "v": 1422
  },
  {
    "dt": "2020.11.16 08:00",
    "o": 76.179,
    "h": 76.198,
    "l": 76.122,
    "c": 76.167,
    "v": 1515
  },
  {
    "dt": "2020.11.16 09:00",
    "o": 76.167,
    "h": 76.181,
    "l": 76.083,
    "c": 76.163,
    "v": 1928
  },
  {
    "dt": "2020.11.16 10:00",
    "o": 76.16,
    "h": 76.289,
    "l": 76.135,
    "c": 76.158,
    "v": 2820
  },
  {
    "dt": "2020.11.16 11:00",
    "o": 76.159,
    "h": 76.21,
    "l": 76.099,
    "c": 76.188,
    "v": 2481
  },
  {
    "dt": "2020.11.16 12:00",
    "o": 76.188,
    "h": 76.283,
    "l": 76.132,
    "c": 76.235,
    "v": 2414
  },
  {
    "dt": "2020.11.16 13:00",
    "o": 76.235,
    "h": 76.763,
    "l": 76.225,
    "c": 76.606,
    "v": 2464
  },
  {
    "dt": "2020.11.16 14:00",
    "o": 76.605,
    "h": 76.676,
    "l": 76.475,
    "c": 76.569,
    "v": 4250
  },
  {
    "dt": "2020.11.16 15:00",
    "o": 76.564,
    "h": 76.608,
    "l": 76.432,
    "c": 76.494,
    "v": 3583
  },
  {
    "dt": "2020.11.16 16:00",
    "o": 76.496,
    "h": 76.54,
    "l": 76.221,
    "c": 76.292,
    "v": 3697
  },
  {
    "dt": "2020.11.16 17:00",
    "o": 76.291,
    "h": 76.583,
    "l": 76.276,
    "c": 76.563,
    "v": 3633
  },
  {
    "dt": "2020.11.16 18:00",
    "o": 76.566,
    "h": 76.616,
    "l": 76.507,
    "c": 76.543,
    "v": 2696
  },
  {
    "dt": "2020.11.16 19:00",
    "o": 76.544,
    "h": 76.547,
    "l": 76.463,
    "c": 76.49,
    "v": 1764
  },
  {
    "dt": "2020.11.16 20:00",
    "o": 76.489,
    "h": 76.489,
    "l": 76.396,
    "c": 76.438,
    "v": 1802
  },
  {
    "dt": "2020.11.16 21:00",
    "o": 76.441,
    "h": 76.5,
    "l": 76.409,
    "c": 76.479,
    "v": 1673
  },
  {
    "dt": "2020.11.16 22:00",
    "o": 76.48,
    "h": 76.529,
    "l": 76.446,
    "c": 76.529,
    "v": 1779
  },
  {
    "dt": "2020.11.16 23:00",
    "o": 76.528,
    "h": 76.563,
    "l": 76.503,
    "c": 76.529,
    "v": 1195
  },
  {
    "dt": "2020.11.17 00:00",
    "o": 76.54,
    "h": 76.55,
    "l": 76.451,
    "c": 76.472,
    "v": 1667
  },
  {
    "dt": "2020.11.17 01:00",
    "o": 76.473,
    "h": 76.538,
    "l": 76.465,
    "c": 76.507,
    "v": 1374
  },
  {
    "dt": "2020.11.17 02:00",
    "o": 76.506,
    "h": 76.554,
    "l": 76.451,
    "c": 76.52,
    "v": 2315
  },
  {
    "dt": "2020.11.17 03:00",
    "o": 76.519,
    "h": 76.546,
    "l": 76.417,
    "c": 76.467,
    "v": 2227
  },
  {
    "dt": "2020.11.17 04:00",
    "o": 76.465,
    "h": 76.519,
    "l": 76.442,
    "c": 76.475,
    "v": 1553
  },
  {
    "dt": "2020.11.17 05:00",
    "o": 76.479,
    "h": 76.525,
    "l": 76.475,
    "c": 76.51,
    "v": 1346
  },
  {
    "dt": "2020.11.17 06:00",
    "o": 76.502,
    "h": 76.551,
    "l": 76.487,
    "c": 76.494,
    "v": 1114
  },
  {
    "dt": "2020.11.17 07:00",
    "o": 76.499,
    "h": 76.504,
    "l": 76.44,
    "c": 76.472,
    "v": 1521
  },
  {
    "dt": "2020.11.17 08:00",
    "o": 76.473,
    "h": 76.5,
    "l": 76.415,
    "c": 76.483,
    "v": 1473
  },
  {
    "dt": "2020.11.17 09:00",
    "o": 76.486,
    "h": 76.497,
    "l": 76.268,
    "c": 76.3,
    "v": 2118
  },
  {
    "dt": "2020.11.17 10:00",
    "o": 76.302,
    "h": 76.386,
    "l": 76.262,
    "c": 76.369,
    "v": 3209
  },
  {
    "dt": "2020.11.17 11:00",
    "o": 76.368,
    "h": 76.516,
    "l": 76.361,
    "c": 76.422,
    "v": 2923
  },
  {
    "dt": "2020.11.17 12:00",
    "o": 76.421,
    "h": 76.464,
    "l": 76.33,
    "c": 76.458,
    "v": 2347
  },
  {
    "dt": "2020.11.17 13:00",
    "o": 76.463,
    "h": 76.464,
    "l": 76.321,
    "c": 76.34,
    "v": 2391
  },
  {
    "dt": "2020.11.17 14:00",
    "o": 76.343,
    "h": 76.347,
    "l": 76.207,
    "c": 76.268,
    "v": 2594
  },
  {
    "dt": "2020.11.17 15:00",
    "o": 76.271,
    "h": 76.304,
    "l": 76.061,
    "c": 76.131,
    "v": 3593
  },
  {
    "dt": "2020.11.17 16:00",
    "o": 76.131,
    "h": 76.131,
    "l": 75.888,
    "c": 75.89,
    "v": 3706
  },
  {
    "dt": "2020.11.17 17:00",
    "o": 75.892,
    "h": 76.096,
    "l": 75.891,
    "c": 76.079,
    "v": 3730
  },
  {
    "dt": "2020.11.17 18:00",
    "o": 76.08,
    "h": 76.115,
    "l": 76.024,
    "c": 76.04,
    "v": 2642
  },
  {
    "dt": "2020.11.17 19:00",
    "o": 76.041,
    "h": 76.129,
    "l": 76.021,
    "c": 76.107,
    "v": 2128
  },
  {
    "dt": "2020.11.17 20:00",
    "o": 76.107,
    "h": 76.129,
    "l": 76.057,
    "c": 76.072,
    "v": 1602
  },
  {
    "dt": "2020.11.17 21:00",
    "o": 76.071,
    "h": 76.147,
    "l": 76.069,
    "c": 76.112,
    "v": 1581
  },
  {
    "dt": "2020.11.17 22:00",
    "o": 76.109,
    "h": 76.12,
    "l": 76.049,
    "c": 76.071,
    "v": 1983
  },
  {
    "dt": "2020.11.17 23:00",
    "o": 76.068,
    "h": 76.116,
    "l": 76.021,
    "c": 76.034,
    "v": 1355
  },
  {
    "dt": "2020.11.18 00:00",
    "o": 76.026,
    "h": 76.042,
    "l": 75.987,
    "c": 76.01,
    "v": 1286
  },
  {
    "dt": "2020.11.18 01:00",
    "o": 76.012,
    "h": 76.038,
    "l": 75.923,
    "c": 76.001,
    "v": 1688
  },
  {
    "dt": "2020.11.18 02:00",
    "o": 75.997,
    "h": 75.999,
    "l": 75.687,
    "c": 75.764,
    "v": 2926
  },
  {
    "dt": "2020.11.18 03:00",
    "o": 75.762,
    "h": 75.81,
    "l": 75.726,
    "c": 75.761,
    "v": 2381
  },
  {
    "dt": "2020.11.18 04:00",
    "o": 75.757,
    "h": 75.856,
    "l": 75.754,
    "c": 75.834,
    "v": 1765
  },
  {
    "dt": "2020.11.18 05:00",
    "o": 75.834,
    "h": 75.895,
    "l": 75.8,
    "c": 75.881,
    "v": 1523
  },
  {
    "dt": "2020.11.18 06:00",
    "o": 75.882,
    "h": 75.933,
    "l": 75.853,
    "c": 75.91,
    "v": 1422
  },
  {
    "dt": "2020.11.18 07:00",
    "o": 75.913,
    "h": 75.924,
    "l": 75.807,
    "c": 75.847,
    "v": 2127
  },
  {
    "dt": "2020.11.18 08:00",
    "o": 75.849,
    "h": 75.868,
    "l": 75.764,
    "c": 75.831,
    "v": 1946
  },
  {
    "dt": "2020.11.18 09:00",
    "o": 75.83,
    "h": 75.91,
    "l": 75.819,
    "c": 75.878,
    "v": 2730
  },
  {
    "dt": "2020.11.18 10:00",
    "o": 75.878,
    "h": 76.107,
    "l": 75.869,
    "c": 76.066,
    "v": 3312
  },
  {
    "dt": "2020.11.18 11:00",
    "o": 76.065,
    "h": 76.15,
    "l": 76.028,
    "c": 76.046,
    "v": 2423
  },
  {
    "dt": "2020.11.18 12:00",
    "o": 76.047,
    "h": 76.073,
    "l": 76.008,
    "c": 76.056,
    "v": 2483
  },
  {
    "dt": "2020.11.18 13:00",
    "o": 76.052,
    "h": 76.059,
    "l": 75.912,
    "c": 75.966,
    "v": 2665
  },
  {
    "dt": "2020.11.18 14:00",
    "o": 75.964,
    "h": 76.074,
    "l": 75.964,
    "c": 76.013,
    "v": 3241
  },
  {
    "dt": "2020.11.18 15:00",
    "o": 76.013,
    "h": 76.015,
    "l": 75.889,
    "c": 75.905,
    "v": 3220
  },
  {
    "dt": "2020.11.18 16:00",
    "o": 75.906,
    "h": 75.918,
    "l": 75.808,
    "c": 75.875,
    "v": 3070
  },
  {
    "dt": "2020.11.18 17:00",
    "o": 75.874,
    "h": 75.953,
    "l": 75.82,
    "c": 75.922,
    "v": 3597
  },
  {
    "dt": "2020.11.18 18:00",
    "o": 75.923,
    "h": 75.968,
    "l": 75.891,
    "c": 75.957,
    "v": 2571
  },
  {
    "dt": "2020.11.18 19:00",
    "o": 75.957,
    "h": 76.031,
    "l": 75.955,
    "c": 76.023,
    "v": 2010
  },
  {
    "dt": "2020.11.18 20:00",
    "o": 76.023,
    "h": 76.113,
    "l": 75.962,
    "c": 75.974,
    "v": 2103
  },
  {
    "dt": "2020.11.18 21:00",
    "o": 75.975,
    "h": 76.017,
    "l": 75.897,
    "c": 75.993,
    "v": 2349
  },
  {
    "dt": "2020.11.18 22:00",
    "o": 75.993,
    "h": 76.032,
    "l": 75.817,
    "c": 75.817,
    "v": 2553
  },
  {
    "dt": "2020.11.18 23:00",
    "o": 75.816,
    "h": 75.872,
    "l": 75.813,
    "c": 75.821,
    "v": 1445
  },
  {
    "dt": "2020.11.19 00:00",
    "o": 75.828,
    "h": 75.828,
    "l": 75.727,
    "c": 75.792,
    "v": 1203
  },
  {
    "dt": "2020.11.19 01:00",
    "o": 75.793,
    "h": 75.862,
    "l": 75.781,
    "c": 75.802,
    "v": 1328
  },
  {
    "dt": "2020.11.19 02:00",
    "o": 75.801,
    "h": 75.839,
    "l": 75.668,
    "c": 75.692,
    "v": 3184
  },
  {
    "dt": "2020.11.19 03:00",
    "o": 75.699,
    "h": 75.757,
    "l": 75.667,
    "c": 75.733,
    "v": 2689
  },
  {
    "dt": "2020.11.19 04:00",
    "o": 75.732,
    "h": 75.749,
    "l": 75.664,
    "c": 75.682,
    "v": 2004
  },
  {
    "dt": "2020.11.19 05:00",
    "o": 75.682,
    "h": 75.699,
    "l": 75.614,
    "c": 75.629,
    "v": 1883
  },
  {
    "dt": "2020.11.19 06:00",
    "o": 75.63,
    "h": 75.704,
    "l": 75.599,
    "c": 75.688,
    "v": 1657
  },
  {
    "dt": "2020.11.19 07:00",
    "o": 75.688,
    "h": 75.725,
    "l": 75.656,
    "c": 75.665,
    "v": 1760
  },
  {
    "dt": "2020.11.19 08:00",
    "o": 75.664,
    "h": 75.769,
    "l": 75.64,
    "c": 75.762,
    "v": 2066
  },
  {
    "dt": "2020.11.19 09:00",
    "o": 75.76,
    "h": 75.829,
    "l": 75.681,
    "c": 75.699,
    "v": 2526
  },
  {
    "dt": "2020.11.19 10:00",
    "o": 75.701,
    "h": 75.754,
    "l": 75.525,
    "c": 75.547,
    "v": 3556
  },
  {
    "dt": "2020.11.19 11:00",
    "o": 75.55,
    "h": 75.631,
    "l": 75.507,
    "c": 75.603,
    "v": 3109
  },
  {
    "dt": "2020.11.19 12:00",
    "o": 75.601,
    "h": 75.675,
    "l": 75.507,
    "c": 75.628,
    "v": 3159
  },
  {
    "dt": "2020.11.19 13:00",
    "o": 75.627,
    "h": 75.688,
    "l": 75.556,
    "c": 75.661,
    "v": 2886
  },
  {
    "dt": "2020.11.19 14:00",
    "o": 75.661,
    "h": 75.681,
    "l": 75.601,
    "c": 75.627,
    "v": 2712
  },
  {
    "dt": "2020.11.19 15:00",
    "o": 75.631,
    "h": 75.645,
    "l": 75.513,
    "c": 75.623,
    "v": 3177
  },
  {
    "dt": "2020.11.19 16:00",
    "o": 75.623,
    "h": 75.644,
    "l": 75.499,
    "c": 75.597,
    "v": 3540
  },
  {
    "dt": "2020.11.19 17:00",
    "o": 75.599,
    "h": 75.628,
    "l": 75.468,
    "c": 75.529,
    "v": 3912
  },
  {
    "dt": "2020.11.19 18:00",
    "o": 75.527,
    "h": 75.539,
    "l": 75.421,
    "c": 75.435,
    "v": 2751
  },
  {
    "dt": "2020.11.19 19:00",
    "o": 75.436,
    "h": 75.529,
    "l": 75.397,
    "c": 75.515,
    "v": 2244
  },
  {
    "dt": "2020.11.19 20:00",
    "o": 75.514,
    "h": 75.571,
    "l": 75.514,
    "c": 75.544,
    "v": 1899
  },
  {
    "dt": "2020.11.19 21:00",
    "o": 75.545,
    "h": 75.674,
    "l": 75.536,
    "c": 75.669,
    "v": 2143
  },
  {
    "dt": "2020.11.19 22:00",
    "o": 75.669,
    "h": 75.719,
    "l": 75.603,
    "c": 75.692,
    "v": 2340
  },
  {
    "dt": "2020.11.19 23:00",
    "o": 75.692,
    "h": 75.708,
    "l": 75.519,
    "c": 75.519,
    "v": 1576
  },
  {
    "dt": "2020.11.20 00:00",
    "o": 75.54,
    "h": 75.555,
    "l": 75.441,
    "c": 75.479,
    "v": 1277
  },
  {
    "dt": "2020.11.20 01:00",
    "o": 75.469,
    "h": 75.56,
    "l": 75.392,
    "c": 75.444,
    "v": 1427
  },
  {
    "dt": "2020.11.20 02:00",
    "o": 75.44,
    "h": 75.651,
    "l": 75.438,
    "c": 75.575,
    "v": 2329
  },
  {
    "dt": "2020.11.20 03:00",
    "o": 75.576,
    "h": 75.692,
    "l": 75.544,
    "c": 75.69,
    "v": 2219
  },
  {
    "dt": "2020.11.20 04:00",
    "o": 75.691,
    "h": 75.691,
    "l": 75.58,
    "c": 75.604,
    "v": 1757
  },
  {
    "dt": "2020.11.20 05:00",
    "o": 75.604,
    "h": 75.684,
    "l": 75.596,
    "c": 75.641,
    "v": 1476
  },
  {
    "dt": "2020.11.20 06:00",
    "o": 75.643,
    "h": 75.723,
    "l": 75.627,
    "c": 75.712,
    "v": 1486
  },
  {
    "dt": "2020.11.20 07:00",
    "o": 75.713,
    "h": 75.791,
    "l": 75.683,
    "c": 75.706,
    "v": 1899
  },
  {
    "dt": "2020.11.20 08:00",
    "o": 75.703,
    "h": 75.736,
    "l": 75.669,
    "c": 75.713,
    "v": 1801
  },
  {
    "dt": "2020.11.20 09:00",
    "o": 75.713,
    "h": 75.775,
    "l": 75.619,
    "c": 75.645,
    "v": 2981
  },
  {
    "dt": "2020.11.20 10:00",
    "o": 75.647,
    "h": 75.721,
    "l": 75.62,
    "c": 75.685,
    "v": 2943
  },
  {
    "dt": "2020.11.20 11:00",
    "o": 75.684,
    "h": 75.768,
    "l": 75.614,
    "c": 75.624,
    "v": 2774
  },
  {
    "dt": "2020.11.20 12:00",
    "o": 75.623,
    "h": 75.774,
    "l": 75.617,
    "c": 75.729,
    "v": 2481
  },
  {
    "dt": "2020.11.20 13:00",
    "o": 75.727,
    "h": 75.91,
    "l": 75.719,
    "c": 75.882,
    "v": 2340
  },
  {
    "dt": "2020.11.20 14:00",
    "o": 75.883,
    "h": 75.925,
    "l": 75.845,
    "c": 75.905,
    "v": 2140
  },
  {
    "dt": "2020.11.20 15:00",
    "o": 75.904,
    "h": 75.92,
    "l": 75.795,
    "c": 75.838,
    "v": 2611
  },
  {
    "dt": "2020.11.20 16:00",
    "o": 75.841,
    "h": 75.964,
    "l": 75.822,
    "c": 75.864,
    "v": 3185
  },
  {
    "dt": "2020.11.20 17:00",
    "o": 75.863,
    "h": 75.913,
    "l": 75.787,
    "c": 75.884,
    "v": 3273
  },
  {
    "dt": "2020.11.20 18:00",
    "o": 75.886,
    "h": 75.946,
    "l": 75.875,
    "c": 75.922,
    "v": 2306
  },
  {
    "dt": "2020.11.20 19:00",
    "o": 75.922,
    "h": 75.939,
    "l": 75.843,
    "c": 75.892,
    "v": 1888
  },
  {
    "dt": "2020.11.20 20:00",
    "o": 75.892,
    "h": 75.909,
    "l": 75.853,
    "c": 75.877,
    "v": 1336
  },
  {
    "dt": "2020.11.20 21:00",
    "o": 75.878,
    "h": 75.915,
    "l": 75.873,
    "c": 75.9,
    "v": 1177
  },
  {
    "dt": "2020.11.20 22:00",
    "o": 75.901,
    "h": 75.913,
    "l": 75.839,
    "c": 75.888,
    "v": 1647
  },
  {
    "dt": "2020.11.20 23:00",
    "o": 75.889,
    "h": 75.891,
    "l": 75.79,
    "c": 75.791,
    "v": 1390
  },
  {
    "dt": "2020.11.23 00:00",
    "o": 75.763,
    "h": 75.835,
    "l": 75.736,
    "c": 75.794,
    "v": 1486
  },
  {
    "dt": "2020.11.23 01:00",
    "o": 75.794,
    "h": 75.932,
    "l": 75.792,
    "c": 75.912,
    "v": 1540
  },
  {
    "dt": "2020.11.23 02:00",
    "o": 75.906,
    "h": 75.992,
    "l": 75.897,
    "c": 75.971,
    "v": 1666
  },
  {
    "dt": "2020.11.23 03:00",
    "o": 75.974,
    "h": 76.002,
    "l": 75.924,
    "c": 75.967,
    "v": 1893
  },
  {
    "dt": "2020.11.23 04:00",
    "o": 75.968,
    "h": 75.975,
    "l": 75.895,
    "c": 75.906,
    "v": 1234
  },
  {
    "dt": "2020.11.23 05:00",
    "o": 75.907,
    "h": 75.933,
    "l": 75.885,
    "c": 75.897,
    "v": 1038
  },
  {
    "dt": "2020.11.23 06:00",
    "o": 75.897,
    "h": 75.901,
    "l": 75.848,
    "c": 75.857,
    "v": 929
  },
  {
    "dt": "2020.11.23 07:00",
    "o": 75.858,
    "h": 75.89,
    "l": 75.844,
    "c": 75.889,
    "v": 963
  },
  {
    "dt": "2020.11.23 08:00",
    "o": 75.889,
    "h": 75.905,
    "l": 75.809,
    "c": 75.843,
    "v": 1192
  },
  {
    "dt": "2020.11.23 09:00",
    "o": 75.841,
    "h": 75.96,
    "l": 75.841,
    "c": 75.94,
    "v": 2220
  },
  {
    "dt": "2020.11.23 10:00",
    "o": 75.937,
    "h": 76.074,
    "l": 75.924,
    "c": 76.067,
    "v": 2960
  },
  {
    "dt": "2020.11.23 11:00",
    "o": 76.07,
    "h": 76.126,
    "l": 76.021,
    "c": 76.073,
    "v": 2398
  },
  {
    "dt": "2020.11.23 12:00",
    "o": 76.072,
    "h": 76.091,
    "l": 76.019,
    "c": 76.044,
    "v": 1880
  },
  {
    "dt": "2020.11.23 13:00",
    "o": 76.044,
    "h": 76.063,
    "l": 75.963,
    "c": 75.994,
    "v": 2043
  },
  {
    "dt": "2020.11.23 14:00",
    "o": 75.993,
    "h": 76.07,
    "l": 75.985,
    "c": 76.006,
    "v": 2018
  },
  {
    "dt": "2020.11.23 15:00",
    "o": 76.006,
    "h": 76.049,
    "l": 75.884,
    "c": 75.943,
    "v": 2498
  },
  {
    "dt": "2020.11.23 16:00",
    "o": 75.945,
    "h": 76.013,
    "l": 75.876,
    "c": 75.973,
    "v": 3326
  },
  {
    "dt": "2020.11.23 17:00",
    "o": 75.976,
    "h": 76.065,
    "l": 75.822,
    "c": 76.056,
    "v": 4579
  },
  {
    "dt": "2020.11.23 18:00",
    "o": 76.058,
    "h": 76.098,
    "l": 75.951,
    "c": 75.996,
    "v": 3732
  },
  {
    "dt": "2020.11.23 19:00",
    "o": 75.994,
    "h": 76.025,
    "l": 75.943,
    "c": 76.006,
    "v": 2431
  },
  {
    "dt": "2020.11.23 20:00",
    "o": 76.008,
    "h": 76.064,
    "l": 75.975,
    "c": 76.053,
    "v": 1752
  },
  {
    "dt": "2020.11.23 21:00",
    "o": 76.053,
    "h": 76.179,
    "l": 76.044,
    "c": 76.167,
    "v": 1879
  },
  {
    "dt": "2020.11.23 22:00",
    "o": 76.168,
    "h": 76.209,
    "l": 76.126,
    "c": 76.16,
    "v": 1891
  },
  {
    "dt": "2020.11.23 23:00",
    "o": 76.16,
    "h": 76.208,
    "l": 76.139,
    "c": 76.139,
    "v": 1565
  },
  {
    "dt": "2020.11.24 00:00",
    "o": 76.112,
    "h": 76.161,
    "l": 76.075,
    "c": 76.118,
    "v": 1320
  },
  {
    "dt": "2020.11.24 01:00",
    "o": 76.119,
    "h": 76.323,
    "l": 76.117,
    "c": 76.243,
    "v": 1652
  },
  {
    "dt": "2020.11.24 02:00",
    "o": 76.25,
    "h": 76.382,
    "l": 76.246,
    "c": 76.327,
    "v": 2230
  },
  {
    "dt": "2020.11.24 03:00",
    "o": 76.33,
    "h": 76.483,
    "l": 76.324,
    "c": 76.374,
    "v": 2827
  },
  {
    "dt": "2020.11.24 04:00",
    "o": 76.373,
    "h": 76.474,
    "l": 76.34,
    "c": 76.456,
    "v": 2141
  },
  {
    "dt": "2020.11.24 05:00",
    "o": 76.456,
    "h": 76.532,
    "l": 76.428,
    "c": 76.487,
    "v": 1874
  },
  {
    "dt": "2020.11.24 06:00",
    "o": 76.491,
    "h": 76.499,
    "l": 76.432,
    "c": 76.457,
    "v": 1508
  },
  {
    "dt": "2020.11.24 07:00",
    "o": 76.456,
    "h": 76.47,
    "l": 76.35,
    "c": 76.377,
    "v": 1936
  },
  {
    "dt": "2020.11.24 08:00",
    "o": 76.378,
    "h": 76.484,
    "l": 76.378,
    "c": 76.448,
    "v": 1558
  },
  {
    "dt": "2020.11.24 09:00",
    "o": 76.45,
    "h": 76.538,
    "l": 76.419,
    "c": 76.452,
    "v": 2111
  },
  {
    "dt": "2020.11.24 10:00",
    "o": 76.453,
    "h": 76.801,
    "l": 76.453,
    "c": 76.737,
    "v": 3534
  },
  {
    "dt": "2020.11.24 11:00",
    "o": 76.739,
    "h": 76.77,
    "l": 76.661,
    "c": 76.681,
    "v": 2673
  },
  {
    "dt": "2020.11.24 12:00",
    "o": 76.682,
    "h": 76.717,
    "l": 76.59,
    "c": 76.616,
    "v": 2254
  },
  {
    "dt": "2020.11.24 13:00",
    "o": 76.613,
    "h": 76.731,
    "l": 76.611,
    "c": 76.652,
    "v": 2241
  },
  {
    "dt": "2020.11.24 14:00",
    "o": 76.652,
    "h": 76.751,
    "l": 76.623,
    "c": 76.702,
    "v": 2850
  },
  {
    "dt": "2020.11.24 15:00",
    "o": 76.698,
    "h": 76.762,
    "l": 76.67,
    "c": 76.684,
    "v": 2773
  },
  {
    "dt": "2020.11.24 16:00",
    "o": 76.675,
    "h": 76.774,
    "l": 76.568,
    "c": 76.754,
    "v": 3756
  },
  {
    "dt": "2020.11.24 17:00",
    "o": 76.754,
    "h": 76.854,
    "l": 76.662,
    "c": 76.847,
    "v": 3514
  },
  {
    "dt": "2020.11.24 18:00",
    "o": 76.843,
    "h": 76.926,
    "l": 76.826,
    "c": 76.878,
    "v": 2639
  },
  {
    "dt": "2020.11.24 19:00",
    "o": 76.879,
    "h": 76.898,
    "l": 76.827,
    "c": 76.829,
    "v": 1997
  },
  {
    "dt": "2020.11.24 20:00",
    "o": 76.829,
    "h": 76.888,
    "l": 76.821,
    "c": 76.861,
    "v": 1752
  },
  {
    "dt": "2020.11.24 21:00",
    "o": 76.861,
    "h": 76.89,
    "l": 76.809,
    "c": 76.889,
    "v": 1673
  },
  {
    "dt": "2020.11.24 22:00",
    "o": 76.888,
    "h": 76.905,
    "l": 76.86,
    "c": 76.88,
    "v": 2538
  },
  {
    "dt": "2020.11.24 23:00",
    "o": 76.879,
    "h": 76.909,
    "l": 76.833,
    "c": 76.845,
    "v": 1595
  },
  {
    "dt": "2020.11.25 00:00",
    "o": 76.857,
    "h": 76.874,
    "l": 76.831,
    "c": 76.861,
    "v": 1902
  },
  {
    "dt": "2020.11.25 01:00",
    "o": 76.864,
    "h": 76.994,
    "l": 76.86,
    "c": 76.979,
    "v": 1721
  },
  {
    "dt": "2020.11.25 02:00",
    "o": 76.978,
    "h": 77.033,
    "l": 76.909,
    "c": 76.914,
    "v": 2086
  },
  {
    "dt": "2020.11.25 03:00",
    "o": 76.916,
    "h": 76.985,
    "l": 76.876,
    "c": 76.919,
    "v": 2174
  },
  {
    "dt": "2020.11.25 04:00",
    "o": 76.921,
    "h": 76.963,
    "l": 76.862,
    "c": 76.907,
    "v": 2116
  },
  {
    "dt": "2020.11.25 05:00",
    "o": 76.906,
    "h": 76.935,
    "l": 76.812,
    "c": 76.871,
    "v": 2062
  },
  {
    "dt": "2020.11.25 06:00",
    "o": 76.875,
    "h": 76.888,
    "l": 76.813,
    "c": 76.82,
    "v": 1461
  },
  {
    "dt": "2020.11.25 07:00",
    "o": 76.822,
    "h": 76.847,
    "l": 76.621,
    "c": 76.639,
    "v": 2152
  },
  {
    "dt": "2020.11.25 08:00",
    "o": 76.64,
    "h": 76.73,
    "l": 76.562,
    "c": 76.631,
    "v": 1882
  },
  {
    "dt": "2020.11.25 09:00",
    "o": 76.627,
    "h": 76.796,
    "l": 76.626,
    "c": 76.787,
    "v": 2380
  },
  {
    "dt": "2020.11.25 10:00",
    "o": 76.789,
    "h": 76.831,
    "l": 76.645,
    "c": 76.704,
    "v": 3188
  },
  {
    "dt": "2020.11.25 11:00",
    "o": 76.703,
    "h": 76.754,
    "l": 76.629,
    "c": 76.687,
    "v": 2442
  },
  {
    "dt": "2020.11.25 12:00",
    "o": 76.687,
    "h": 76.756,
    "l": 76.639,
    "c": 76.66,
    "v": 2179
  },
  {
    "dt": "2020.11.25 13:00",
    "o": 76.66,
    "h": 76.693,
    "l": 76.633,
    "c": 76.68,
    "v": 2186
  },
  {
    "dt": "2020.11.25 14:00",
    "o": 76.68,
    "h": 76.747,
    "l": 76.679,
    "c": 76.688,
    "v": 2035
  },
  {
    "dt": "2020.11.25 15:00",
    "o": 76.689,
    "h": 76.778,
    "l": 76.674,
    "c": 76.687,
    "v": 2738
  },
  {
    "dt": "2020.11.25 16:00",
    "o": 76.687,
    "h": 76.706,
    "l": 76.526,
    "c": 76.54,
    "v": 3315
  },
  {
    "dt": "2020.11.25 17:00",
    "o": 76.536,
    "h": 76.761,
    "l": 76.446,
    "c": 76.739,
    "v": 3810
  },
  {
    "dt": "2020.11.25 18:00",
    "o": 76.74,
    "h": 76.819,
    "l": 76.68,
    "c": 76.808,
    "v": 2681
  },
  {
    "dt": "2020.11.25 19:00",
    "o": 76.809,
    "h": 76.816,
    "l": 76.781,
    "c": 76.81,
    "v": 1769
  },
  {
    "dt": "2020.11.25 20:00",
    "o": 76.809,
    "h": 76.875,
    "l": 76.809,
    "c": 76.836,
    "v": 1633
  },
  {
    "dt": "2020.11.25 21:00",
    "o": 76.835,
    "h": 76.928,
    "l": 76.784,
    "c": 76.902,
    "v": 2055
  },
  {
    "dt": "2020.11.25 22:00",
    "o": 76.901,
    "h": 76.978,
    "l": 76.875,
    "c": 76.929,
    "v": 1701
  },
  {
    "dt": "2020.11.25 23:00",
    "o": 76.932,
    "h": 76.949,
    "l": 76.901,
    "c": 76.904,
    "v": 1260
  },
  {
    "dt": "2020.11.26 00:00",
    "o": 76.9,
    "h": 76.918,
    "l": 76.811,
    "c": 76.888,
    "v": 1458
  },
  {
    "dt": "2020.11.26 01:00",
    "o": 76.89,
    "h": 76.906,
    "l": 76.859,
    "c": 76.87,
    "v": 1094
  },
  {
    "dt": "2020.11.26 02:00",
    "o": 76.869,
    "h": 76.883,
    "l": 76.825,
    "c": 76.833,
    "v": 1314
  },
  {
    "dt": "2020.11.26 03:00",
    "o": 76.832,
    "h": 76.91,
    "l": 76.81,
    "c": 76.86,
    "v": 1516
  },
  {
    "dt": "2020.11.26 04:00",
    "o": 76.859,
    "h": 76.863,
    "l": 76.779,
    "c": 76.826,
    "v": 1343
  },
  {
    "dt": "2020.11.26 05:00",
    "o": 76.825,
    "h": 76.884,
    "l": 76.785,
    "c": 76.815,
    "v": 1332
  },
  {
    "dt": "2020.11.26 06:00",
    "o": 76.817,
    "h": 76.832,
    "l": 76.758,
    "c": 76.764,
    "v": 1036
  },
  {
    "dt": "2020.11.26 07:00",
    "o": 76.766,
    "h": 76.795,
    "l": 76.727,
    "c": 76.793,
    "v": 1404
  },
  {
    "dt": "2020.11.26 08:00",
    "o": 76.794,
    "h": 76.868,
    "l": 76.778,
    "c": 76.813,
    "v": 1205
  },
  {
    "dt": "2020.11.26 09:00",
    "o": 76.816,
    "h": 76.884,
    "l": 76.786,
    "c": 76.797,
    "v": 1829
  },
  {
    "dt": "2020.11.26 10:00",
    "o": 76.797,
    "h": 76.84,
    "l": 76.676,
    "c": 76.694,
    "v": 2544
  },
  {
    "dt": "2020.11.26 11:00",
    "o": 76.696,
    "h": 76.786,
    "l": 76.685,
    "c": 76.733,
    "v": 2078
  },
  {
    "dt": "2020.11.26 12:00",
    "o": 76.735,
    "h": 76.809,
    "l": 76.708,
    "c": 76.787,
    "v": 1850
  },
  {
    "dt": "2020.11.26 13:00",
    "o": 76.786,
    "h": 76.804,
    "l": 76.74,
    "c": 76.767,
    "v": 1395
  },
  {
    "dt": "2020.11.26 14:00",
    "o": 76.768,
    "h": 76.769,
    "l": 76.655,
    "c": 76.743,
    "v": 1840
  },
  {
    "dt": "2020.11.26 15:00",
    "o": 76.742,
    "h": 76.766,
    "l": 76.691,
    "c": 76.693,
    "v": 1691
  },
  {
    "dt": "2020.11.26 16:00",
    "o": 76.694,
    "h": 76.74,
    "l": 76.681,
    "c": 76.701,
    "v": 1732
  },
  {
    "dt": "2020.11.26 17:00",
    "o": 76.7,
    "h": 76.782,
    "l": 76.698,
    "c": 76.761,
    "v": 1658
  },
  {
    "dt": "2020.11.26 18:00",
    "o": 76.759,
    "h": 76.764,
    "l": 76.725,
    "c": 76.753,
    "v": 1345
  },
  {
    "dt": "2020.11.26 19:00",
    "o": 76.754,
    "h": 76.777,
    "l": 76.718,
    "c": 76.754,
    "v": 1285
  },
  {
    "dt": "2020.11.26 20:00",
    "o": 76.754,
    "h": 76.773,
    "l": 76.745,
    "c": 76.758,
    "v": 1532
  },
  {
    "dt": "2020.11.26 21:00",
    "o": 76.759,
    "h": 76.76,
    "l": 76.735,
    "c": 76.742,
    "v": 2126
  },
  {
    "dt": "2020.11.26 22:00",
    "o": 76.742,
    "h": 76.822,
    "l": 76.677,
    "c": 76.677,
    "v": 876
  },
  {
    "dt": "2020.11.26 23:00",
    "o": 76.699,
    "h": 76.815,
    "l": 76.662,
    "c": 76.695,
    "v": 1755
  },
  {
    "dt": "2020.11.27 00:00",
    "o": 76.703,
    "h": 76.721,
    "l": 76.642,
    "c": 76.684,
    "v": 622
  },
  {
    "dt": "2020.11.27 01:00",
    "o": 76.689,
    "h": 76.724,
    "l": 76.667,
    "c": 76.687,
    "v": 814
  },
  {
    "dt": "2020.11.27 02:00",
    "o": 76.692,
    "h": 76.708,
    "l": 76.621,
    "c": 76.636,
    "v": 1434
  },
  {
    "dt": "2020.11.27 03:00",
    "o": 76.634,
    "h": 76.646,
    "l": 76.52,
    "c": 76.562,
    "v": 2135
  },
  {
    "dt": "2020.11.27 04:00",
    "o": 76.562,
    "h": 76.63,
    "l": 76.489,
    "c": 76.612,
    "v": 1706
  },
  {
    "dt": "2020.11.27 05:00",
    "o": 76.613,
    "h": 76.658,
    "l": 76.595,
    "c": 76.601,
    "v": 1721
  },
  {
    "dt": "2020.11.27 06:00",
    "o": 76.602,
    "h": 76.672,
    "l": 76.589,
    "c": 76.647,
    "v": 1281
  },
  {
    "dt": "2020.11.27 07:00",
    "o": 76.647,
    "h": 76.701,
    "l": 76.632,
    "c": 76.7,
    "v": 1351
  },
  {
    "dt": "2020.11.27 08:00",
    "o": 76.698,
    "h": 76.783,
    "l": 76.691,
    "c": 76.771,
    "v": 1214
  },
  {
    "dt": "2020.11.27 09:00",
    "o": 76.774,
    "h": 76.785,
    "l": 76.712,
    "c": 76.742,
    "v": 1606
  },
  {
    "dt": "2020.11.27 10:00",
    "o": 76.743,
    "h": 76.821,
    "l": 76.703,
    "c": 76.796,
    "v": 1999
  },
  {
    "dt": "2020.11.27 11:00",
    "o": 76.796,
    "h": 76.801,
    "l": 76.691,
    "c": 76.737,
    "v": 1566
  },
  {
    "dt": "2020.11.27 12:00",
    "o": 76.733,
    "h": 76.745,
    "l": 76.652,
    "c": 76.721,
    "v": 1538
  },
  {
    "dt": "2020.11.27 13:00",
    "o": 76.723,
    "h": 76.782,
    "l": 76.71,
    "c": 76.761,
    "v": 1484
  },
  {
    "dt": "2020.11.27 14:00",
    "o": 76.759,
    "h": 76.811,
    "l": 76.71,
    "c": 76.779,
    "v": 1912
  },
  {
    "dt": "2020.11.27 15:00",
    "o": 76.779,
    "h": 76.88,
    "l": 76.75,
    "c": 76.848,
    "v": 2351
  },
  {
    "dt": "2020.11.27 16:00",
    "o": 76.852,
    "h": 76.923,
    "l": 76.852,
    "c": 76.909,
    "v": 2777
  },
  {
    "dt": "2020.11.27 17:00",
    "o": 76.91,
    "h": 76.944,
    "l": 76.868,
    "c": 76.916,
    "v": 2955
  },
  {
    "dt": "2020.11.27 18:00",
    "o": 76.918,
    "h": 76.93,
    "l": 76.831,
    "c": 76.846,
    "v": 2353
  },
  {
    "dt": "2020.11.27 19:00",
    "o": 76.846,
    "h": 76.892,
    "l": 76.825,
    "c": 76.883,
    "v": 1448
  },
  {
    "dt": "2020.11.27 20:00",
    "o": 76.884,
    "h": 76.884,
    "l": 76.805,
    "c": 76.823,
    "v": 956
  },
  {
    "dt": "2020.11.27 21:00",
    "o": 76.824,
    "h": 76.88,
    "l": 76.824,
    "c": 76.856,
    "v": 1391
  },
  {
    "dt": "2020.11.27 22:00",
    "o": 76.856,
    "h": 76.891,
    "l": 76.821,
    "c": 76.826,
    "v": 1151
  },
  {
    "dt": "2020.11.27 23:00",
    "o": 76.821,
    "h": 76.914,
    "l": 76.772,
    "c": 76.846,
    "v": 1757
  },
  {
    "dt": "2020.11.30 00:00",
    "o": 76.828,
    "h": 76.885,
    "l": 76.791,
    "c": 76.847,
    "v": 383
  },
  {
    "dt": "2020.11.30 01:00",
    "o": 76.848,
    "h": 77.105,
    "l": 76.841,
    "c": 77.024,
    "v": 1372
  },
  {
    "dt": "2020.11.30 02:00",
    "o": 77.03,
    "h": 77.04,
    "l": 76.857,
    "c": 76.885,
    "v": 2446
  },
  {
    "dt": "2020.11.30 03:00",
    "o": 76.885,
    "h": 76.92,
    "l": 76.814,
    "c": 76.884,
    "v": 2401
  },
  {
    "dt": "2020.11.30 04:00",
    "o": 76.882,
    "h": 76.883,
    "l": 76.751,
    "c": 76.794,
    "v": 2091
  },
  {
    "dt": "2020.11.30 05:00",
    "o": 76.795,
    "h": 76.828,
    "l": 76.72,
    "c": 76.765,
    "v": 1606
  },
  {
    "dt": "2020.11.30 06:00",
    "o": 76.764,
    "h": 76.805,
    "l": 76.71,
    "c": 76.762,
    "v": 1477
  },
  {
    "dt": "2020.11.30 07:00",
    "o": 76.763,
    "h": 76.775,
    "l": 76.702,
    "c": 76.737,
    "v": 1719
  },
  {
    "dt": "2020.11.30 08:00",
    "o": 76.737,
    "h": 76.778,
    "l": 76.675,
    "c": 76.719,
    "v": 1703
  },
  {
    "dt": "2020.11.30 09:00",
    "o": 76.718,
    "h": 76.843,
    "l": 76.677,
    "c": 76.833,
    "v": 2216
  },
  {
    "dt": "2020.11.30 10:00",
    "o": 76.833,
    "h": 76.953,
    "l": 76.781,
    "c": 76.843,
    "v": 2880
  },
  {
    "dt": "2020.11.30 11:00",
    "o": 76.848,
    "h": 76.912,
    "l": 76.828,
    "c": 76.828,
    "v": 2768
  },
  {
    "dt": "2020.11.30 12:00",
    "o": 76.825,
    "h": 76.835,
    "l": 76.75,
    "c": 76.788,
    "v": 1806
  },
  {
    "dt": "2020.11.30 13:00",
    "o": 76.789,
    "h": 76.806,
    "l": 76.705,
    "c": 76.762,
    "v": 2063
  },
  {
    "dt": "2020.11.30 14:00",
    "o": 76.762,
    "h": 76.863,
    "l": 76.748,
    "c": 76.781,
    "v": 2660
  },
  {
    "dt": "2020.11.30 15:00",
    "o": 76.779,
    "h": 76.892,
    "l": 76.743,
    "c": 76.882,
    "v": 2653
  },
  {
    "dt": "2020.11.30 16:00",
    "o": 76.881,
    "h": 76.914,
    "l": 76.809,
    "c": 76.898,
    "v": 3234
  },
  {
    "dt": "2020.11.30 17:00",
    "o": 76.901,
    "h": 76.926,
    "l": 76.673,
    "c": 76.832,
    "v": 4588
  },
  {
    "dt": "2020.11.30 18:00",
    "o": 76.831,
    "h": 76.849,
    "l": 76.657,
    "c": 76.718,
    "v": 3908
  },
  {
    "dt": "2020.11.30 19:00",
    "o": 76.717,
    "h": 76.749,
    "l": 76.676,
    "c": 76.712,
    "v": 2524
  },
  {
    "dt": "2020.11.30 20:00",
    "o": 76.713,
    "h": 76.725,
    "l": 76.665,
    "c": 76.681,
    "v": 1786
  },
  {
    "dt": "2020.11.30 21:00",
    "o": 76.68,
    "h": 76.72,
    "l": 76.66,
    "c": 76.717,
    "v": 2115
  },
  {
    "dt": "2020.11.30 22:00",
    "o": 76.719,
    "h": 76.721,
    "l": 76.611,
    "c": 76.612,
    "v": 2281
  },
  {
    "dt": "2020.11.30 23:00",
    "o": 76.611,
    "h": 76.668,
    "l": 76.559,
    "c": 76.591,
    "v": 1666
  }
]