[
  {
    "dt": "2020.01.02 00:00",
    "o": 1.08374,
    "h": 1.08634,
    "l": 1.08368,
    "c": 1.08444,
    "v": 287
  },
  {
    "dt": "2020.01.02 01:00",
    "o": 1.08446,
    "h": 1.08573,
    "l": 1.08408,
    "c": 1.08565,
    "v": 555
  },
  {
    "dt": "2020.01.02 02:00",
    "o": 1.08564,
    "h": 1.08634,
    "l": 1.08559,
    "c": 1.0862,
    "v": 570
  },
  {
    "dt": "2020.01.02 03:00",
    "o": 1.08619,
    "h": 1.08643,
    "l": 1.0858,
    "c": 1.08609,
    "v": 806
  },
  {
    "dt": "2020.01.02 04:00",
    "o": 1.08605,
    "h": 1.08649,
    "l": 1.08603,
    "c": 1.08622,
    "v": 559
  },
  {
    "dt": "2020.01.02 05:00",
    "o": 1.08623,
    "h": 1.08655,
    "l": 1.08615,
    "c": 1.08627,
    "v": 623
  },
  {
    "dt": "2020.01.02 06:00",
    "o": 1.0863,
    "h": 1.08661,
    "l": 1.0859,
    "c": 1.08631,
    "v": 643
  },
  {
    "dt": "2020.01.02 07:00",
    "o": 1.08635,
    "h": 1.08706,
    "l": 1.08634,
    "c": 1.08699,
    "v": 860
  },
  {
    "dt": "2020.01.02 08:00",
    "o": 1.08698,
    "h": 1.08771,
    "l": 1.08685,
    "c": 1.0872,
    "v": 838
  },
  {
    "dt": "2020.01.02 09:00",
    "o": 1.08721,
    "h": 1.08757,
    "l": 1.08689,
    "c": 1.08725,
    "v": 1524
  },
  {
    "dt": "2020.01.02 10:00",
    "o": 1.08725,
    "h": 1.08757,
    "l": 1.08622,
    "c": 1.08622,
    "v": 1849
  },
  {
    "dt": "2020.01.02 11:00",
    "o": 1.0862,
    "h": 1.08656,
    "l": 1.08501,
    "c": 1.08612,
    "v": 1729
  },
  {
    "dt": "2020.01.02 12:00",
    "o": 1.08611,
    "h": 1.08623,
    "l": 1.08493,
    "c": 1.08602,
    "v": 1686
  },
  {
    "dt": "2020.01.02 13:00",
    "o": 1.08603,
    "h": 1.08649,
    "l": 1.08569,
    "c": 1.08591,
    "v": 1857
  },
  {
    "dt": "2020.01.02 14:00",
    "o": 1.08591,
    "h": 1.08692,
    "l": 1.08566,
    "c": 1.08684,
    "v": 1626
  },
  {
    "dt": "2020.01.02 15:00",
    "o": 1.08683,
    "h": 1.08685,
    "l": 1.08598,
    "c": 1.08632,
    "v": 2041
  },
  {
    "dt": "2020.01.02 16:00",
    "o": 1.08631,
    "h": 1.08631,
    "l": 1.08458,
    "c": 1.08525,
    "v": 2701
  },
  {
    "dt": "2020.01.02 17:00",
    "o": 1.08526,
    "h": 1.08548,
    "l": 1.08362,
    "c": 1.0854,
    "v": 3013
  },
  {
    "dt": "2020.01.02 18:00",
    "o": 1.08544,
    "h": 1.08619,
    "l": 1.0852,
    "c": 1.08548,
    "v": 2484
  },
  {
    "dt": "2020.01.02 19:00",
    "o": 1.08548,
    "h": 1.08668,
    "l": 1.08545,
    "c": 1.08653,
    "v": 1833
  },
  {
    "dt": "2020.01.02 20:00",
    "o": 1.08655,
    "h": 1.08657,
    "l": 1.08585,
    "c": 1.08599,
    "v": 1347
  },
  {
    "dt": "2020.01.02 21:00",
    "o": 1.08601,
    "h": 1.08625,
    "l": 1.08567,
    "c": 1.08567,
    "v": 1240
  },
  {
    "dt": "2020.01.02 22:00",
    "o": 1.08567,
    "h": 1.08587,
    "l": 1.08457,
    "c": 1.08494,
    "v": 1496
  },
  {
    "dt": "2020.01.02 23:00",
    "o": 1.08495,
    "h": 1.0852,
    "l": 1.08474,
    "c": 1.08494,
    "v": 937
  },
  {
    "dt": "2020.01.03 00:00",
    "o": 1.08495,
    "h": 1.08521,
    "l": 1.08463,
    "c": 1.08495,
    "v": 236
  },
  {
    "dt": "2020.01.03 01:00",
    "o": 1.085,
    "h": 1.08544,
    "l": 1.08484,
    "c": 1.08513,
    "v": 532
  },
  {
    "dt": "2020.01.03 02:00",
    "o": 1.08508,
    "h": 1.08542,
    "l": 1.08501,
    "c": 1.08523,
    "v": 641
  },
  {
    "dt": "2020.01.03 03:00",
    "o": 1.08524,
    "h": 1.08543,
    "l": 1.08394,
    "c": 1.08398,
    "v": 931
  },
  {
    "dt": "2020.01.03 04:00",
    "o": 1.08399,
    "h": 1.08423,
    "l": 1.08274,
    "c": 1.08297,
    "v": 1271
  },
  {
    "dt": "2020.01.03 05:00",
    "o": 1.08297,
    "h": 1.08345,
    "l": 1.08278,
    "c": 1.08327,
    "v": 968
  },
  {
    "dt": "2020.01.03 06:00",
    "o": 1.08332,
    "h": 1.08376,
    "l": 1.08322,
    "c": 1.08353,
    "v": 714
  },
  {
    "dt": "2020.01.03 07:00",
    "o": 1.08354,
    "h": 1.08437,
    "l": 1.0832,
    "c": 1.08388,
    "v": 969
  },
  {
    "dt": "2020.01.03 08:00",
    "o": 1.08388,
    "h": 1.08419,
    "l": 1.08351,
    "c": 1.08406,
    "v": 825
  },
  {
    "dt": "2020.01.03 09:00",
    "o": 1.0841,
    "h": 1.08416,
    "l": 1.08232,
    "c": 1.08287,
    "v": 2458
  },
  {
    "dt": "2020.01.03 10:00",
    "o": 1.08287,
    "h": 1.08487,
    "l": 1.08258,
    "c": 1.08387,
    "v": 2240
  },
  {
    "dt": "2020.01.03 11:00",
    "o": 1.08388,
    "h": 1.08446,
    "l": 1.08332,
    "c": 1.08439,
    "v": 2071
  },
  {
    "dt": "2020.01.03 12:00",
    "o": 1.08435,
    "h": 1.08488,
    "l": 1.08376,
    "c": 1.08404,
    "v": 2288
  },
  {
    "dt": "2020.01.03 13:00",
    "o": 1.08402,
    "h": 1.08428,
    "l": 1.08297,
    "c": 1.08358,
    "v": 1948
  },
  {
    "dt": "2020.01.03 14:00",
    "o": 1.08357,
    "h": 1.0839,
    "l": 1.08302,
    "c": 1.08337,
    "v": 1833
  },
  {
    "dt": "2020.01.03 15:00",
    "o": 1.08338,
    "h": 1.0844,
    "l": 1.08329,
    "c": 1.08369,
    "v": 2123
  },
  {
    "dt": "2020.01.03 16:00",
    "o": 1.08367,
    "h": 1.08518,
    "l": 1.08356,
    "c": 1.08476,
    "v": 2400
  },
  {
    "dt": "2020.01.03 17:00",
    "o": 1.08427,
    "h": 1.08519,
    "l": 1.08337,
    "c": 1.08355,
    "v": 3301
  },
  {
    "dt": "2020.01.03 18:00",
    "o": 1.08358,
    "h": 1.08499,
    "l": 1.08354,
    "c": 1.08399,
    "v": 2157
  },
  {
    "dt": "2020.01.03 19:00",
    "o": 1.08398,
    "h": 1.08459,
    "l": 1.08398,
    "c": 1.08454,
    "v": 1592
  },
  {
    "dt": "2020.01.03 20:00",
    "o": 1.08455,
    "h": 1.08578,
    "l": 1.08438,
    "c": 1.08557,
    "v": 1952
  },
  {
    "dt": "2020.01.03 21:00",
    "o": 1.08559,
    "h": 1.08565,
    "l": 1.08498,
    "c": 1.08498,
    "v": 1752
  },
  {
    "dt": "2020.01.03 22:00",
    "o": 1.08502,
    "h": 1.08539,
    "l": 1.08487,
    "c": 1.08504,
    "v": 1060
  },
  {
    "dt": "2020.01.03 23:00",
    "o": 1.08503,
    "h": 1.08506,
    "l": 1.08435,
    "c": 1.0845,
    "v": 677
  },
  {
    "dt": "2020.01.06 00:00",
    "o": 1.08321,
    "h": 1.08395,
    "l": 1.08308,
    "c": 1.08314,
    "v": 408
  },
  {
    "dt": "2020.01.06 01:00",
    "o": 1.08351,
    "h": 1.08438,
    "l": 1.08343,
    "c": 1.08424,
    "v": 1432
  },
  {
    "dt": "2020.01.06 02:00",
    "o": 1.08423,
    "h": 1.08471,
    "l": 1.0841,
    "c": 1.08451,
    "v": 1351
  },
  {
    "dt": "2020.01.06 03:00",
    "o": 1.08452,
    "h": 1.08461,
    "l": 1.08373,
    "c": 1.08403,
    "v": 1089
  },
  {
    "dt": "2020.01.06 04:00",
    "o": 1.08403,
    "h": 1.08441,
    "l": 1.08393,
    "c": 1.08411,
    "v": 915
  },
  {
    "dt": "2020.01.06 05:00",
    "o": 1.08411,
    "h": 1.08439,
    "l": 1.08393,
    "c": 1.08436,
    "v": 931
  },
  {
    "dt": "2020.01.06 06:00",
    "o": 1.08435,
    "h": 1.08435,
    "l": 1.08413,
    "c": 1.0843,
    "v": 1053
  },
  {
    "dt": "2020.01.06 07:00",
    "o": 1.0843,
    "h": 1.08439,
    "l": 1.08398,
    "c": 1.08411,
    "v": 666
  },
  {
    "dt": "2020.01.06 08:00",
    "o": 1.08412,
    "h": 1.08413,
    "l": 1.08323,
    "c": 1.08378,
    "v": 1135
  },
  {
    "dt": "2020.01.06 09:00",
    "o": 1.08382,
    "h": 1.08461,
    "l": 1.08361,
    "c": 1.08437,
    "v": 1625
  },
  {
    "dt": "2020.01.06 10:00",
    "o": 1.08445,
    "h": 1.08476,
    "l": 1.08407,
    "c": 1.08434,
    "v": 2324
  },
  {
    "dt": "2020.01.06 11:00",
    "o": 1.08432,
    "h": 1.08458,
    "l": 1.0838,
    "c": 1.0845,
    "v": 1866
  },
  {
    "dt": "2020.01.06 12:00",
    "o": 1.0845,
    "h": 1.08498,
    "l": 1.08424,
    "c": 1.08496,
    "v": 1712
  },
  {
    "dt": "2020.01.06 13:00",
    "o": 1.08498,
    "h": 1.08578,
    "l": 1.08498,
    "c": 1.0856,
    "v": 1619
  },
  {
    "dt": "2020.01.06 14:00",
    "o": 1.08571,
    "h": 1.08589,
    "l": 1.08547,
    "c": 1.08568,
    "v": 1312
  },
  {
    "dt": "2020.01.06 15:00",
    "o": 1.08579,
    "h": 1.08588,
    "l": 1.08484,
    "c": 1.0856,
    "v": 2039
  },
  {
    "dt": "2020.01.06 16:00",
    "o": 1.08559,
    "h": 1.0857,
    "l": 1.08512,
    "c": 1.08526,
    "v": 2192
  },
  {
    "dt": "2020.01.06 17:00",
    "o": 1.08527,
    "h": 1.08543,
    "l": 1.08354,
    "c": 1.08377,
    "v": 2653
  },
  {
    "dt": "2020.01.06 18:00",
    "o": 1.08388,
    "h": 1.08432,
    "l": 1.08365,
    "c": 1.0838,
    "v": 1772
  },
  {
    "dt": "2020.01.06 19:00",
    "o": 1.08379,
    "h": 1.08388,
    "l": 1.08325,
    "c": 1.08386,
    "v": 1344
  },
  {
    "dt": "2020.01.06 20:00",
    "o": 1.08385,
    "h": 1.08415,
    "l": 1.08348,
    "c": 1.0841,
    "v": 933
  },
  {
    "dt": "2020.01.06 21:00",
    "o": 1.08411,
    "h": 1.08452,
    "l": 1.08398,
    "c": 1.08414,
    "v": 1192
  },
  {
    "dt": "2020.01.06 22:00",
    "o": 1.08414,
    "h": 1.08432,
    "l": 1.08391,
    "c": 1.08426,
    "v": 1070
  },
  {
    "dt": "2020.01.06 23:00",
    "o": 1.08425,
    "h": 1.08427,
    "l": 1.08349,
    "c": 1.08357,
    "v": 736
  },
  {
    "dt": "2020.01.07 00:00",
    "o": 1.08352,
    "h": 1.08397,
    "l": 1.08346,
    "c": 1.08378,
    "v": 637
  },
  {
    "dt": "2020.01.07 01:00",
    "o": 1.08368,
    "h": 1.08424,
    "l": 1.08351,
    "c": 1.08424,
    "v": 799
  },
  {
    "dt": "2020.01.07 02:00",
    "o": 1.08423,
    "h": 1.08446,
    "l": 1.08395,
    "c": 1.08414,
    "v": 758
  },
  {
    "dt": "2020.01.07 03:00",
    "o": 1.08414,
    "h": 1.08473,
    "l": 1.08403,
    "c": 1.08443,
    "v": 889
  },
  {
    "dt": "2020.01.07 04:00",
    "o": 1.08443,
    "h": 1.08458,
    "l": 1.08403,
    "c": 1.08457,
    "v": 700
  },
  {
    "dt": "2020.01.07 05:00",
    "o": 1.08459,
    "h": 1.08487,
    "l": 1.08451,
    "c": 1.08474,
    "v": 682
  },
  {
    "dt": "2020.01.07 06:00",
    "o": 1.08474,
    "h": 1.08484,
    "l": 1.08455,
    "c": 1.08465,
    "v": 1020
  },
  {
    "dt": "2020.01.07 07:00",
    "o": 1.08465,
    "h": 1.08473,
    "l": 1.08404,
    "c": 1.0841,
    "v": 687
  },
  {
    "dt": "2020.01.07 08:00",
    "o": 1.0841,
    "h": 1.08529,
    "l": 1.08379,
    "c": 1.08492,
    "v": 1568
  },
  {
    "dt": "2020.01.07 09:00",
    "o": 1.08492,
    "h": 1.0851,
    "l": 1.08334,
    "c": 1.08361,
    "v": 1946
  },
  {
    "dt": "2020.01.07 10:00",
    "o": 1.0837,
    "h": 1.08431,
    "l": 1.08327,
    "c": 1.08383,
    "v": 2302
  },
  {
    "dt": "2020.01.07 11:00",
    "o": 1.08385,
    "h": 1.08595,
    "l": 1.08364,
    "c": 1.08586,
    "v": 1924
  },
  {
    "dt": "2020.01.07 12:00",
    "o": 1.08585,
    "h": 1.08597,
    "l": 1.08457,
    "c": 1.08514,
    "v": 2006
  },
  {
    "dt": "2020.01.07 13:00",
    "o": 1.08515,
    "h": 1.08539,
    "l": 1.08464,
    "c": 1.08498,
    "v": 1748
  },
  {
    "dt": "2020.01.07 14:00",
    "o": 1.08497,
    "h": 1.08531,
    "l": 1.08448,
    "c": 1.0847,
    "v": 1504
  },
  {
    "dt": "2020.01.07 15:00",
    "o": 1.08469,
    "h": 1.08508,
    "l": 1.08358,
    "c": 1.08369,
    "v": 2621
  },
  {
    "dt": "2020.01.07 16:00",
    "o": 1.08363,
    "h": 1.08364,
    "l": 1.08266,
    "c": 1.08321,
    "v": 2432
  },
  {
    "dt": "2020.01.07 17:00",
    "o": 1.08321,
    "h": 1.08351,
    "l": 1.08249,
    "c": 1.08282,
    "v": 3100
  },
  {
    "dt": "2020.01.07 18:00",
    "o": 1.08285,
    "h": 1.08312,
    "l": 1.08192,
    "c": 1.08202,
    "v": 1696
  },
  {
    "dt": "2020.01.07 19:00",
    "o": 1.08203,
    "h": 1.08208,
    "l": 1.08083,
    "c": 1.08141,
    "v": 1457
  },
  {
    "dt": "2020.01.07 20:00",
    "o": 1.08141,
    "h": 1.08245,
    "l": 1.08136,
    "c": 1.08237,
    "v": 1318
  },
  {
    "dt": "2020.01.07 21:00",
    "o": 1.08237,
    "h": 1.08251,
    "l": 1.08184,
    "c": 1.08187,
    "v": 1534
  },
  {
    "dt": "2020.01.07 22:00",
    "o": 1.08189,
    "h": 1.08233,
    "l": 1.08183,
    "c": 1.082,
    "v": 854
  },
  {
    "dt": "2020.01.07 23:00",
    "o": 1.08201,
    "h": 1.0822,
    "l": 1.08118,
    "c": 1.08198,
    "v": 1075
  },
  {
    "dt": "2020.01.08 03:00",
    "o": 1.07892,
    "h": 1.08079,
    "l": 1.07892,
    "c": 1.08071,
    "v": 2330
  },
  {
    "dt": "2020.01.08 04:00",
    "o": 1.08072,
    "h": 1.08275,
    "l": 1.08071,
    "c": 1.08196,
    "v": 2469
  },
  {
    "dt": "2020.01.08 05:00",
    "o": 1.08196,
    "h": 1.08219,
    "l": 1.08097,
    "c": 1.0818,
    "v": 1526
  },
  {
    "dt": "2020.01.08 06:00",
    "o": 1.08179,
    "h": 1.08194,
    "l": 1.0813,
    "c": 1.08138,
    "v": 946
  },
  {
    "dt": "2020.01.08 07:00",
    "o": 1.08139,
    "h": 1.08192,
    "l": 1.08138,
    "c": 1.08169,
    "v": 1000
  },
  {
    "dt": "2020.01.08 08:00",
    "o": 1.08169,
    "h": 1.08208,
    "l": 1.0814,
    "c": 1.08196,
    "v": 1324
  },
  {
    "dt": "2020.01.08 09:00",
    "o": 1.08196,
    "h": 1.0828,
    "l": 1.08152,
    "c": 1.08235,
    "v": 2509
  },
  {
    "dt": "2020.01.08 10:00",
    "o": 1.08231,
    "h": 1.08236,
    "l": 1.08082,
    "c": 1.08085,
    "v": 2830
  },
  {
    "dt": "2020.01.08 11:00",
    "o": 1.08085,
    "h": 1.08237,
    "l": 1.08067,
    "c": 1.08187,
    "v": 2137
  },
  {
    "dt": "2020.01.08 12:00",
    "o": 1.08189,
    "h": 1.08232,
    "l": 1.08125,
    "c": 1.08181,
    "v": 2021
  },
  {
    "dt": "2020.01.08 13:00",
    "o": 1.08181,
    "h": 1.08202,
    "l": 1.08075,
    "c": 1.08163,
    "v": 2203
  },
  {
    "dt": "2020.01.08 14:00",
    "o": 1.08162,
    "h": 1.08166,
    "l": 1.07944,
    "c": 1.07967,
    "v": 2211
  },
  {
    "dt": "2020.01.08 15:00",
    "o": 1.07966,
    "h": 1.07974,
    "l": 1.07847,
    "c": 1.07873,
    "v": 2595
  },
  {
    "dt": "2020.01.08 16:00",
    "o": 1.07874,
    "h": 1.07958,
    "l": 1.07841,
    "c": 1.07872,
    "v": 2293
  },
  {
    "dt": "2020.01.08 17:00",
    "o": 1.07872,
    "h": 1.07943,
    "l": 1.07816,
    "c": 1.07888,
    "v": 2408
  },
  {
    "dt": "2020.01.08 18:00",
    "o": 1.07889,
    "h": 1.08162,
    "l": 1.07872,
    "c": 1.08104,
    "v": 2832
  },
  {
    "dt": "2020.01.08 19:00",
    "o": 1.08106,
    "h": 1.0824,
    "l": 1.08105,
    "c": 1.08203,
    "v": 2168
  },
  {
    "dt": "2020.01.08 20:00",
    "o": 1.082,
    "h": 1.08219,
    "l": 1.0818,
    "c": 1.08193,
    "v": 1359
  },
  {
    "dt": "2020.01.08 21:00",
    "o": 1.08192,
    "h": 1.08206,
    "l": 1.08163,
    "c": 1.0818,
    "v": 1087
  },
  {
    "dt": "2020.01.08 22:00",
    "o": 1.08179,
    "h": 1.08184,
    "l": 1.0811,
    "c": 1.0812,
    "v": 1258
  },
  {
    "dt": "2020.01.08 23:00",
    "o": 1.08122,
    "h": 1.0819,
    "l": 1.08117,
    "c": 1.08129,
    "v": 807
  },
  {
    "dt": "2020.01.09 00:00",
    "o": 1.08105,
    "h": 1.08171,
    "l": 1.08085,
    "c": 1.08128,
    "v": 647
  },
  {
    "dt": "2020.01.09 01:00",
    "o": 1.08127,
    "h": 1.08169,
    "l": 1.08127,
    "c": 1.08156,
    "v": 445
  },
  {
    "dt": "2020.01.09 02:00",
    "o": 1.08158,
    "h": 1.0823,
    "l": 1.08133,
    "c": 1.08219,
    "v": 1006
  },
  {
    "dt": "2020.01.09 03:00",
    "o": 1.0822,
    "h": 1.08283,
    "l": 1.08201,
    "c": 1.08275,
    "v": 1030
  },
  {
    "dt": "2020.01.09 04:00",
    "o": 1.08274,
    "h": 1.0829,
    "l": 1.08255,
    "c": 1.08263,
    "v": 866
  },
  {
    "dt": "2020.01.09 05:00",
    "o": 1.08264,
    "h": 1.08287,
    "l": 1.08255,
    "c": 1.08284,
    "v": 692
  },
  {
    "dt": "2020.01.09 06:00",
    "o": 1.0828,
    "h": 1.08291,
    "l": 1.08237,
    "c": 1.08265,
    "v": 653
  },
  {
    "dt": "2020.01.09 07:00",
    "o": 1.08264,
    "h": 1.08282,
    "l": 1.08261,
    "c": 1.08271,
    "v": 607
  },
  {
    "dt": "2020.01.09 08:00",
    "o": 1.08271,
    "h": 1.08321,
    "l": 1.0825,
    "c": 1.08264,
    "v": 1008
  },
  {
    "dt": "2020.01.09 09:00",
    "o": 1.0826,
    "h": 1.08315,
    "l": 1.08197,
    "c": 1.08312,
    "v": 1808
  },
  {
    "dt": "2020.01.09 10:00",
    "o": 1.08304,
    "h": 1.08304,
    "l": 1.08186,
    "c": 1.08275,
    "v": 2131
  },
  {
    "dt": "2020.01.09 11:00",
    "o": 1.08275,
    "h": 1.0831,
    "l": 1.0812,
    "c": 1.08126,
    "v": 2207
  },
  {
    "dt": "2020.01.09 12:00",
    "o": 1.08126,
    "h": 1.08217,
    "l": 1.0812,
    "c": 1.0818,
    "v": 1657
  },
  {
    "dt": "2020.01.09 13:00",
    "o": 1.0818,
    "h": 1.0822,
    "l": 1.08143,
    "c": 1.08145,
    "v": 1417
  },
  {
    "dt": "2020.01.09 14:00",
    "o": 1.08146,
    "h": 1.08201,
    "l": 1.08089,
    "c": 1.08093,
    "v": 1898
  },
  {
    "dt": "2020.01.09 15:00",
    "o": 1.081,
    "h": 1.08116,
    "l": 1.07939,
    "c": 1.08024,
    "v": 2054
  },
  {
    "dt": "2020.01.09 16:00",
    "o": 1.08028,
    "h": 1.08061,
    "l": 1.07957,
    "c": 1.08013,
    "v": 1991
  },
  {
    "dt": "2020.01.09 17:00",
    "o": 1.08014,
    "h": 1.08029,
    "l": 1.07967,
    "c": 1.08021,
    "v": 2182
  },
  {
    "dt": "2020.01.09 18:00",
    "o": 1.08021,
    "h": 1.08026,
    "l": 1.07975,
    "c": 1.07989,
    "v": 1833
  },
  {
    "dt": "2020.01.09 19:00",
    "o": 1.07989,
    "h": 1.08013,
    "l": 1.07957,
    "c": 1.08,
    "v": 1396
  },
  {
    "dt": "2020.01.09 20:00",
    "o": 1.07999,
    "h": 1.08021,
    "l": 1.07966,
    "c": 1.08015,
    "v": 1731
  },
  {
    "dt": "2020.01.09 21:00",
    "o": 1.08012,
    "h": 1.0809,
    "l": 1.08011,
    "c": 1.08054,
    "v": 1113
  },
  {
    "dt": "2020.01.09 22:00",
    "o": 1.08054,
    "h": 1.08123,
    "l": 1.08051,
    "c": 1.08081,
    "v": 817
  },
  {
    "dt": "2020.01.09 23:00",
    "o": 1.08081,
    "h": 1.08111,
    "l": 1.08064,
    "c": 1.08075,
    "v": 675
  },
  {
    "dt": "2020.01.10 00:00",
    "o": 1.08058,
    "h": 1.08081,
    "l": 1.08004,
    "c": 1.0804,
    "v": 647
  },
  {
    "dt": "2020.01.10 01:00",
    "o": 1.08074,
    "h": 1.08122,
    "l": 1.08042,
    "c": 1.08106,
    "v": 466
  },
  {
    "dt": "2020.01.10 02:00",
    "o": 1.08106,
    "h": 1.08127,
    "l": 1.08084,
    "c": 1.08098,
    "v": 972
  },
  {
    "dt": "2020.01.10 03:00",
    "o": 1.08098,
    "h": 1.08116,
    "l": 1.08076,
    "c": 1.08097,
    "v": 747
  },
  {
    "dt": "2020.01.10 04:00",
    "o": 1.08098,
    "h": 1.08118,
    "l": 1.08077,
    "c": 1.08113,
    "v": 571
  },
  {
    "dt": "2020.01.10 05:00",
    "o": 1.08113,
    "h": 1.08119,
    "l": 1.08087,
    "c": 1.08103,
    "v": 404
  },
  {
    "dt": "2020.01.10 06:00",
    "o": 1.08102,
    "h": 1.08106,
    "l": 1.08075,
    "c": 1.08081,
    "v": 442
  },
  {
    "dt": "2020.01.10 07:00",
    "o": 1.08082,
    "h": 1.08083,
    "l": 1.08055,
    "c": 1.08067,
    "v": 776
  },
  {
    "dt": "2020.01.10 08:00",
    "o": 1.08068,
    "h": 1.08084,
    "l": 1.08058,
    "c": 1.08075,
    "v": 797
  },
  {
    "dt": "2020.01.10 09:00",
    "o": 1.08075,
    "h": 1.08142,
    "l": 1.08047,
    "c": 1.08138,
    "v": 974
  },
  {
    "dt": "2020.01.10 10:00",
    "o": 1.08137,
    "h": 1.08171,
    "l": 1.08089,
    "c": 1.08132,
    "v": 1667
  },
  {
    "dt": "2020.01.10 11:00",
    "o": 1.08131,
    "h": 1.08154,
    "l": 1.08073,
    "c": 1.08144,
    "v": 1410
  },
  {
    "dt": "2020.01.10 12:00",
    "o": 1.08143,
    "h": 1.08194,
    "l": 1.0812,
    "c": 1.08194,
    "v": 1435
  },
  {
    "dt": "2020.01.10 13:00",
    "o": 1.08194,
    "h": 1.08228,
    "l": 1.08166,
    "c": 1.08185,
    "v": 1298
  },
  {
    "dt": "2020.01.10 14:00",
    "o": 1.08184,
    "h": 1.0826,
    "l": 1.08159,
    "c": 1.08252,
    "v": 1018
  },
  {
    "dt": "2020.01.10 15:00",
    "o": 1.08247,
    "h": 1.08288,
    "l": 1.0819,
    "c": 1.08255,
    "v": 2804
  },
  {
    "dt": "2020.01.10 16:00",
    "o": 1.08253,
    "h": 1.08253,
    "l": 1.08095,
    "c": 1.08177,
    "v": 2389
  },
  {
    "dt": "2020.01.10 17:00",
    "o": 1.0817,
    "h": 1.08206,
    "l": 1.08134,
    "c": 1.08157,
    "v": 2384
  },
  {
    "dt": "2020.01.10 18:00",
    "o": 1.08158,
    "h": 1.08175,
    "l": 1.08102,
    "c": 1.08165,
    "v": 1797
  },
  {
    "dt": "2020.01.10 19:00",
    "o": 1.08164,
    "h": 1.08187,
    "l": 1.08129,
    "c": 1.0817,
    "v": 1377
  },
  {
    "dt": "2020.01.10 20:00",
    "o": 1.08171,
    "h": 1.0821,
    "l": 1.08166,
    "c": 1.08194,
    "v": 952
  },
  {
    "dt": "2020.01.10 21:00",
    "o": 1.08196,
    "h": 1.08222,
    "l": 1.08141,
    "c": 1.08148,
    "v": 1057
  },
  {
    "dt": "2020.01.10 22:00",
    "o": 1.08147,
    "h": 1.08187,
    "l": 1.0814,
    "c": 1.08183,
    "v": 919
  },
  {
    "dt": "2020.01.10 23:00",
    "o": 1.08183,
    "h": 1.08192,
    "l": 1.08153,
    "c": 1.08153,
    "v": 587
  },
  {
    "dt": "2020.01.13 00:00",
    "o": 1.0805,
    "h": 1.08154,
    "l": 1.0805,
    "c": 1.08127,
    "v": 666
  },
  {
    "dt": "2020.01.13 01:00",
    "o": 1.08147,
    "h": 1.08222,
    "l": 1.08114,
    "c": 1.08176,
    "v": 548
  },
  {
    "dt": "2020.01.13 02:00",
    "o": 1.08173,
    "h": 1.08236,
    "l": 1.08173,
    "c": 1.08214,
    "v": 664
  },
  {
    "dt": "2020.01.13 03:00",
    "o": 1.08215,
    "h": 1.08251,
    "l": 1.08213,
    "c": 1.08231,
    "v": 754
  },
  {
    "dt": "2020.01.13 04:00",
    "o": 1.08232,
    "h": 1.08258,
    "l": 1.08214,
    "c": 1.08247,
    "v": 458
  },
  {
    "dt": "2020.01.13 05:00",
    "o": 1.08249,
    "h": 1.08252,
    "l": 1.08218,
    "c": 1.08247,
    "v": 957
  },
  {
    "dt": "2020.01.13 06:00",
    "o": 1.08246,
    "h": 1.08268,
    "l": 1.08241,
    "c": 1.08253,
    "v": 470
  },
  {
    "dt": "2020.01.13 07:00",
    "o": 1.08251,
    "h": 1.08287,
    "l": 1.0825,
    "c": 1.08275,
    "v": 537
  },
  {
    "dt": "2020.01.13 08:00",
    "o": 1.08274,
    "h": 1.08294,
    "l": 1.0824,
    "c": 1.08287,
    "v": 744
  },
  {
    "dt": "2020.01.13 09:00",
    "o": 1.08286,
    "h": 1.08324,
    "l": 1.08259,
    "c": 1.08267,
    "v": 1413
  },
  {
    "dt": "2020.01.13 10:00",
    "o": 1.08268,
    "h": 1.0828,
    "l": 1.08191,
    "c": 1.08247,
    "v": 1760
  },
  {
    "dt": "2020.01.13 11:00",
    "o": 1.08245,
    "h": 1.08307,
    "l": 1.0812,
    "c": 1.08121,
    "v": 2247
  },
  {
    "dt": "2020.01.13 12:00",
    "o": 1.08122,
    "h": 1.08175,
    "l": 1.08093,
    "c": 1.08137,
    "v": 1503
  },
  {
    "dt": "2020.01.13 13:00",
    "o": 1.08137,
    "h": 1.08175,
    "l": 1.08081,
    "c": 1.08092,
    "v": 1178
  },
  {
    "dt": "2020.01.13 14:00",
    "o": 1.08091,
    "h": 1.08169,
    "l": 1.08076,
    "c": 1.08152,
    "v": 1233
  },
  {
    "dt": "2020.01.13 15:00",
    "o": 1.08151,
    "h": 1.08164,
    "l": 1.0801,
    "c": 1.08046,
    "v": 1556
  },
  {
    "dt": "2020.01.13 16:00",
    "o": 1.08045,
    "h": 1.0809,
    "l": 1.07968,
    "c": 1.08015,
    "v": 2023
  },
  {
    "dt": "2020.01.13 17:00",
    "o": 1.08015,
    "h": 1.08093,
    "l": 1.07969,
    "c": 1.08082,
    "v": 2079
  },
  {
    "dt": "2020.01.13 18:00",
    "o": 1.08079,
    "h": 1.08109,
    "l": 1.07992,
    "c": 1.08085,
    "v": 1533
  },
  {
    "dt": "2020.01.13 19:00",
    "o": 1.08084,
    "h": 1.08135,
    "l": 1.0805,
    "c": 1.0805,
    "v": 948
  },
  {
    "dt": "2020.01.13 20:00",
    "o": 1.08049,
    "h": 1.08108,
    "l": 1.0804,
    "c": 1.08094,
    "v": 848
  },
  {
    "dt": "2020.01.13 21:00",
    "o": 1.08094,
    "h": 1.0812,
    "l": 1.08085,
    "c": 1.08113,
    "v": 723
  },
  {
    "dt": "2020.01.13 22:00",
    "o": 1.08112,
    "h": 1.08115,
    "l": 1.08082,
    "c": 1.08115,
    "v": 826
  },
  {
    "dt": "2020.01.13 23:00",
    "o": 1.08115,
    "h": 1.08118,
    "l": 1.08086,
    "c": 1.08088,
    "v": 672
  },
  {
    "dt": "2020.01.14 00:00",
    "o": 1.08018,
    "h": 1.0809,
    "l": 1.08013,
    "c": 1.0807,
    "v": 204
  },
  {
    "dt": "2020.01.14 01:00",
    "o": 1.08074,
    "h": 1.08105,
    "l": 1.08073,
    "c": 1.08102,
    "v": 478
  },
  {
    "dt": "2020.01.14 02:00",
    "o": 1.08102,
    "h": 1.08138,
    "l": 1.08081,
    "c": 1.08103,
    "v": 1086
  },
  {
    "dt": "2020.01.14 03:00",
    "o": 1.081,
    "h": 1.08149,
    "l": 1.08083,
    "c": 1.08142,
    "v": 1296
  },
  {
    "dt": "2020.01.14 04:00",
    "o": 1.08144,
    "h": 1.08145,
    "l": 1.08117,
    "c": 1.0814,
    "v": 826
  },
  {
    "dt": "2020.01.14 05:00",
    "o": 1.0814,
    "h": 1.08149,
    "l": 1.08122,
    "c": 1.08133,
    "v": 698
  },
  {
    "dt": "2020.01.14 06:00",
    "o": 1.08131,
    "h": 1.08166,
    "l": 1.08124,
    "c": 1.0813,
    "v": 745
  },
  {
    "dt": "2020.01.14 07:00",
    "o": 1.08129,
    "h": 1.08169,
    "l": 1.08115,
    "c": 1.08146,
    "v": 743
  },
  {
    "dt": "2020.01.14 08:00",
    "o": 1.08146,
    "h": 1.082,
    "l": 1.08132,
    "c": 1.08196,
    "v": 1039
  },
  {
    "dt": "2020.01.14 09:00",
    "o": 1.08192,
    "h": 1.08192,
    "l": 1.08081,
    "c": 1.08084,
    "v": 1436
  },
  {
    "dt": "2020.01.14 10:00",
    "o": 1.08082,
    "h": 1.08105,
    "l": 1.07843,
    "c": 1.07914,
    "v": 2282
  },
  {
    "dt": "2020.01.14 11:00",
    "o": 1.07918,
    "h": 1.07985,
    "l": 1.07875,
    "c": 1.07926,
    "v": 1527
  },
  {
    "dt": "2020.01.14 12:00",
    "o": 1.07927,
    "h": 1.07944,
    "l": 1.07816,
    "c": 1.07843,
    "v": 1465
  },
  {
    "dt": "2020.01.14 13:00",
    "o": 1.07844,
    "h": 1.07871,
    "l": 1.07626,
    "c": 1.07663,
    "v": 2023
  },
  {
    "dt": "2020.01.14 14:00",
    "o": 1.07656,
    "h": 1.07711,
    "l": 1.07593,
    "c": 1.07644,
    "v": 1481
  },
  {
    "dt": "2020.01.14 15:00",
    "o": 1.07647,
    "h": 1.07778,
    "l": 1.07608,
    "c": 1.07758,
    "v": 1870
  },
  {
    "dt": "2020.01.14 16:00",
    "o": 1.07757,
    "h": 1.07833,
    "l": 1.07673,
    "c": 1.07696,
    "v": 2383
  },
  {
    "dt": "2020.01.14 17:00",
    "o": 1.07695,
    "h": 1.07747,
    "l": 1.07634,
    "c": 1.0768,
    "v": 2080
  },
  {
    "dt": "2020.01.14 18:00",
    "o": 1.0768,
    "h": 1.07748,
    "l": 1.07663,
    "c": 1.07694,
    "v": 1565
  },
  {
    "dt": "2020.01.14 19:00",
    "o": 1.07693,
    "h": 1.07765,
    "l": 1.07679,
    "c": 1.07746,
    "v": 1058
  },
  {
    "dt": "2020.01.14 20:00",
    "o": 1.07747,
    "h": 1.0775,
    "l": 1.07614,
    "c": 1.07616,
    "v": 1706
  },
  {
    "dt": "2020.01.14 21:00",
    "o": 1.07618,
    "h": 1.07676,
    "l": 1.07589,
    "c": 1.07626,
    "v": 1243
  },
  {
    "dt": "2020.01.14 22:00",
    "o": 1.07624,
    "h": 1.07651,
    "l": 1.07623,
    "c": 1.07642,
    "v": 1431
  },
  {
    "dt": "2020.01.14 23:00",
    "o": 1.07642,
    "h": 1.07652,
    "l": 1.07606,
    "c": 1.07608,
    "v": 744
  },
  {
    "dt": "2020.01.15 00:00",
    "o": 1.07589,
    "h": 1.0766,
    "l": 1.07576,
    "c": 1.07601,
    "v": 539
  },
  {
    "dt": "2020.01.15 01:00",
    "o": 1.07613,
    "h": 1.0765,
    "l": 1.07596,
    "c": 1.07609,
    "v": 542
  },
  {
    "dt": "2020.01.15 02:00",
    "o": 1.0761,
    "h": 1.07665,
    "l": 1.0761,
    "c": 1.07617,
    "v": 973
  },
  {
    "dt": "2020.01.15 03:00",
    "o": 1.07618,
    "h": 1.07654,
    "l": 1.07617,
    "c": 1.07635,
    "v": 839
  },
  {
    "dt": "2020.01.15 04:00",
    "o": 1.07639,
    "h": 1.07651,
    "l": 1.07601,
    "c": 1.07647,
    "v": 844
  },
  {
    "dt": "2020.01.15 05:00",
    "o": 1.07646,
    "h": 1.07671,
    "l": 1.07628,
    "c": 1.07671,
    "v": 998
  },
  {
    "dt": "2020.01.15 06:00",
    "o": 1.07672,
    "h": 1.07684,
    "l": 1.07654,
    "c": 1.07682,
    "v": 780
  },
  {
    "dt": "2020.01.15 07:00",
    "o": 1.07681,
    "h": 1.07713,
    "l": 1.0767,
    "c": 1.07686,
    "v": 653
  },
  {
    "dt": "2020.01.15 08:00",
    "o": 1.07687,
    "h": 1.07747,
    "l": 1.07677,
    "c": 1.07735,
    "v": 765
  },
  {
    "dt": "2020.01.15 09:00",
    "o": 1.07732,
    "h": 1.07758,
    "l": 1.07618,
    "c": 1.07621,
    "v": 1176
  },
  {
    "dt": "2020.01.15 10:00",
    "o": 1.07623,
    "h": 1.07648,
    "l": 1.07491,
    "c": 1.07523,
    "v": 1866
  },
  {
    "dt": "2020.01.15 11:00",
    "o": 1.07525,
    "h": 1.07571,
    "l": 1.0749,
    "c": 1.07529,
    "v": 1779
  },
  {
    "dt": "2020.01.15 12:00",
    "o": 1.07527,
    "h": 1.07589,
    "l": 1.07443,
    "c": 1.07586,
    "v": 1297
  },
  {
    "dt": "2020.01.15 13:00",
    "o": 1.07586,
    "h": 1.0766,
    "l": 1.07535,
    "c": 1.07649,
    "v": 2264
  },
  {
    "dt": "2020.01.15 14:00",
    "o": 1.07647,
    "h": 1.07651,
    "l": 1.07522,
    "c": 1.07545,
    "v": 1564
  },
  {
    "dt": "2020.01.15 15:00",
    "o": 1.07548,
    "h": 1.07579,
    "l": 1.07415,
    "c": 1.0745,
    "v": 2179
  },
  {
    "dt": "2020.01.15 16:00",
    "o": 1.0745,
    "h": 1.07641,
    "l": 1.07444,
    "c": 1.07627,
    "v": 2385
  },
  {
    "dt": "2020.01.15 17:00",
    "o": 1.07625,
    "h": 1.07625,
    "l": 1.07471,
    "c": 1.07612,
    "v": 2297
  },
  {
    "dt": "2020.01.15 18:00",
    "o": 1.07615,
    "h": 1.07623,
    "l": 1.07472,
    "c": 1.07502,
    "v": 1792
  },
  {
    "dt": "2020.01.15 19:00",
    "o": 1.07502,
    "h": 1.07528,
    "l": 1.07443,
    "c": 1.07505,
    "v": 1542
  },
  {
    "dt": "2020.01.15 20:00",
    "o": 1.07505,
    "h": 1.07544,
    "l": 1.07474,
    "c": 1.0749,
    "v": 1621
  },
  {
    "dt": "2020.01.15 21:00",
    "o": 1.07487,
    "h": 1.07493,
    "l": 1.07425,
    "c": 1.07457,
    "v": 1229
  },
  {
    "dt": "2020.01.15 22:00",
    "o": 1.07452,
    "h": 1.07472,
    "l": 1.07421,
    "c": 1.07469,
    "v": 1259
  },
  {
    "dt": "2020.01.15 23:00",
    "o": 1.07468,
    "h": 1.07485,
    "l": 1.07437,
    "c": 1.07468,
    "v": 519
  },
  {
    "dt": "2020.01.16 00:00",
    "o": 1.07488,
    "h": 1.07488,
    "l": 1.07456,
    "c": 1.07476,
    "v": 797
  },
  {
    "dt": "2020.01.16 01:00",
    "o": 1.07476,
    "h": 1.07484,
    "l": 1.07457,
    "c": 1.07474,
    "v": 532
  },
  {
    "dt": "2020.01.16 02:00",
    "o": 1.07474,
    "h": 1.07546,
    "l": 1.07472,
    "c": 1.07518,
    "v": 954
  },
  {
    "dt": "2020.01.16 03:00",
    "o": 1.07518,
    "h": 1.07549,
    "l": 1.07515,
    "c": 1.07549,
    "v": 782
  },
  {
    "dt": "2020.01.16 04:00",
    "o": 1.07548,
    "h": 1.07561,
    "l": 1.07531,
    "c": 1.07547,
    "v": 652
  },
  {
    "dt": "2020.01.16 05:00",
    "o": 1.07549,
    "h": 1.07562,
    "l": 1.07539,
    "c": 1.07562,
    "v": 510
  },
  {
    "dt": "2020.01.16 06:00",
    "o": 1.07564,
    "h": 1.07575,
    "l": 1.07547,
    "c": 1.07549,
    "v": 546
  },
  {
    "dt": "2020.01.16 07:00",
    "o": 1.0755,
    "h": 1.0756,
    "l": 1.07529,
    "c": 1.0753,
    "v": 484
  },
  {
    "dt": "2020.01.16 08:00",
    "o": 1.07528,
    "h": 1.07569,
    "l": 1.07511,
    "c": 1.07566,
    "v": 831
  },
  {
    "dt": "2020.01.16 09:00",
    "o": 1.07565,
    "h": 1.0758,
    "l": 1.07518,
    "c": 1.07525,
    "v": 1192
  },
  {
    "dt": "2020.01.16 10:00",
    "o": 1.07528,
    "h": 1.07528,
    "l": 1.07399,
    "c": 1.07447,
    "v": 2021
  },
  {
    "dt": "2020.01.16 11:00",
    "o": 1.07449,
    "h": 1.07449,
    "l": 1.07316,
    "c": 1.07419,
    "v": 1766
  },
  {
    "dt": "2020.01.16 12:00",
    "o": 1.07421,
    "h": 1.07472,
    "l": 1.07389,
    "c": 1.07395,
    "v": 1592
  },
  {
    "dt": "2020.01.16 13:00",
    "o": 1.07395,
    "h": 1.07437,
    "l": 1.07373,
    "c": 1.07427,
    "v": 1449
  },
  {
    "dt": "2020.01.16 14:00",
    "o": 1.07427,
    "h": 1.07548,
    "l": 1.07385,
    "c": 1.07395,
    "v": 1654
  },
  {
    "dt": "2020.01.16 15:00",
    "o": 1.07394,
    "h": 1.07469,
    "l": 1.07352,
    "c": 1.07457,
    "v": 2292
  },
  {
    "dt": "2020.01.16 16:00",
    "o": 1.07455,
    "h": 1.07579,
    "l": 1.07439,
    "c": 1.07471,
    "v": 2242
  },
  {
    "dt": "2020.01.16 17:00",
    "o": 1.07471,
    "h": 1.07479,
    "l": 1.07336,
    "c": 1.07408,
    "v": 2665
  },
  {
    "dt": "2020.01.16 18:00",
    "o": 1.07404,
    "h": 1.07447,
    "l": 1.07384,
    "c": 1.07406,
    "v": 1798
  },
  {
    "dt": "2020.01.16 19:00",
    "o": 1.07407,
    "h": 1.07463,
    "l": 1.07399,
    "c": 1.07428,
    "v": 1251
  },
  {
    "dt": "2020.01.16 20:00",
    "o": 1.07428,
    "h": 1.07438,
    "l": 1.07388,
    "c": 1.07406,
    "v": 1059
  },
  {
    "dt": "2020.01.16 21:00",
    "o": 1.0741,
    "h": 1.07433,
    "l": 1.07397,
    "c": 1.07419,
    "v": 775
  },
  {
    "dt": "2020.01.16 22:00",
    "o": 1.07419,
    "h": 1.07465,
    "l": 1.07419,
    "c": 1.07455,
    "v": 848
  },
  {
    "dt": "2020.01.16 23:00",
    "o": 1.07453,
    "h": 1.07468,
    "l": 1.07441,
    "c": 1.07458,
    "v": 542
  },
  {
    "dt": "2020.01.17 00:00",
    "o": 1.07425,
    "h": 1.07447,
    "l": 1.07414,
    "c": 1.07444,
    "v": 422
  },
  {
    "dt": "2020.01.17 01:00",
    "o": 1.0744,
    "h": 1.07492,
    "l": 1.07437,
    "c": 1.07462,
    "v": 593
  },
  {
    "dt": "2020.01.17 02:00",
    "o": 1.0746,
    "h": 1.0747,
    "l": 1.07438,
    "c": 1.07458,
    "v": 681
  },
  {
    "dt": "2020.01.17 03:00",
    "o": 1.0746,
    "h": 1.07483,
    "l": 1.07434,
    "c": 1.07478,
    "v": 744
  },
  {
    "dt": "2020.01.17 04:00",
    "o": 1.07477,
    "h": 1.07507,
    "l": 1.07454,
    "c": 1.07495,
    "v": 754
  },
  {
    "dt": "2020.01.17 05:00",
    "o": 1.07495,
    "h": 1.07508,
    "l": 1.07474,
    "c": 1.07483,
    "v": 696
  },
  {
    "dt": "2020.01.17 06:00",
    "o": 1.07483,
    "h": 1.07491,
    "l": 1.07461,
    "c": 1.07462,
    "v": 561
  },
  {
    "dt": "2020.01.17 07:00",
    "o": 1.07462,
    "h": 1.0748,
    "l": 1.0745,
    "c": 1.07473,
    "v": 586
  },
  {
    "dt": "2020.01.17 08:00",
    "o": 1.07473,
    "h": 1.07499,
    "l": 1.07468,
    "c": 1.0749,
    "v": 744
  },
  {
    "dt": "2020.01.17 09:00",
    "o": 1.07485,
    "h": 1.07538,
    "l": 1.07452,
    "c": 1.0753,
    "v": 1161
  },
  {
    "dt": "2020.01.17 10:00",
    "o": 1.07531,
    "h": 1.07563,
    "l": 1.07445,
    "c": 1.07476,
    "v": 1498
  },
  {
    "dt": "2020.01.17 11:00",
    "o": 1.07475,
    "h": 1.07495,
    "l": 1.07394,
    "c": 1.07434,
    "v": 1861
  },
  {
    "dt": "2020.01.17 12:00",
    "o": 1.07438,
    "h": 1.07498,
    "l": 1.07397,
    "c": 1.0742,
    "v": 1630
  },
  {
    "dt": "2020.01.17 13:00",
    "o": 1.07404,
    "h": 1.07467,
    "l": 1.07381,
    "c": 1.07388,
    "v": 1671
  },
  {
    "dt": "2020.01.17 14:00",
    "o": 1.0739,
    "h": 1.0741,
    "l": 1.0735,
    "c": 1.07355,
    "v": 1521
  },
  {
    "dt": "2020.01.17 15:00",
    "o": 1.07356,
    "h": 1.07544,
    "l": 1.07341,
    "c": 1.07527,
    "v": 1988
  },
  {
    "dt": "2020.01.17 16:00",
    "o": 1.07531,
    "h": 1.07532,
    "l": 1.07417,
    "c": 1.07445,
    "v": 2076
  },
  {
    "dt": "2020.01.17 17:00",
    "o": 1.07447,
    "h": 1.07509,
    "l": 1.07354,
    "c": 1.07361,
    "v": 2376
  },
  {
    "dt": "2020.01.17 18:00",
    "o": 1.07363,
    "h": 1.07414,
    "l": 1.07342,
    "c": 1.07397,
    "v": 1671
  },
  {
    "dt": "2020.01.17 19:00",
    "o": 1.07398,
    "h": 1.07402,
    "l": 1.07347,
    "c": 1.07355,
    "v": 1212
  },
  {
    "dt": "2020.01.17 20:00",
    "o": 1.07353,
    "h": 1.07403,
    "l": 1.07351,
    "c": 1.07351,
    "v": 933
  },
  {
    "dt": "2020.01.17 21:00",
    "o": 1.07353,
    "h": 1.07358,
    "l": 1.07339,
    "c": 1.07346,
    "v": 646
  },
  {
    "dt": "2020.01.17 22:00",
    "o": 1.07349,
    "h": 1.07349,
    "l": 1.07318,
    "c": 1.07343,
    "v": 811
  },
  {
    "dt": "2020.01.17 23:00",
    "o": 1.07344,
    "h": 1.07344,
    "l": 1.07298,
    "c": 1.07304,
    "v": 604
  },
  {
    "dt": "2020.01.20 00:00",
    "o": 1.0732,
    "h": 1.07337,
    "l": 1.07293,
    "c": 1.07331,
    "v": 683
  },
  {
    "dt": "2020.01.20 01:00",
    "o": 1.07344,
    "h": 1.07412,
    "l": 1.0731,
    "c": 1.07403,
    "v": 770
  },
  {
    "dt": "2020.01.20 02:00",
    "o": 1.07404,
    "h": 1.07413,
    "l": 1.07357,
    "c": 1.07373,
    "v": 788
  },
  {
    "dt": "2020.01.20 03:00",
    "o": 1.07373,
    "h": 1.07394,
    "l": 1.07363,
    "c": 1.07393,
    "v": 710
  },
  {
    "dt": "2020.01.20 04:00",
    "o": 1.07394,
    "h": 1.0742,
    "l": 1.07378,
    "c": 1.07381,
    "v": 693
  },
  {
    "dt": "2020.01.20 05:00",
    "o": 1.0738,
    "h": 1.07437,
    "l": 1.0738,
    "c": 1.07427,
    "v": 685
  },
  {
    "dt": "2020.01.20 06:00",
    "o": 1.07426,
    "h": 1.07438,
    "l": 1.07389,
    "c": 1.07392,
    "v": 651
  },
  {
    "dt": "2020.01.20 07:00",
    "o": 1.07391,
    "h": 1.07455,
    "l": 1.07385,
    "c": 1.07452,
    "v": 605
  },
  {
    "dt": "2020.01.20 08:00",
    "o": 1.07453,
    "h": 1.07493,
    "l": 1.07443,
    "c": 1.07485,
    "v": 713
  },
  {
    "dt": "2020.01.20 09:00",
    "o": 1.07486,
    "h": 1.07486,
    "l": 1.07377,
    "c": 1.07383,
    "v": 1213
  },
  {
    "dt": "2020.01.20 10:00",
    "o": 1.07386,
    "h": 1.07434,
    "l": 1.07362,
    "c": 1.07416,
    "v": 1641
  },
  {
    "dt": "2020.01.20 11:00",
    "o": 1.07416,
    "h": 1.07424,
    "l": 1.07343,
    "c": 1.07346,
    "v": 1392
  },
  {
    "dt": "2020.01.20 12:00",
    "o": 1.07348,
    "h": 1.07428,
    "l": 1.07339,
    "c": 1.07423,
    "v": 1128
  },
  {
    "dt": "2020.01.20 13:00",
    "o": 1.07414,
    "h": 1.0744,
    "l": 1.07379,
    "c": 1.07416,
    "v": 742
  },
  {
    "dt": "2020.01.20 14:00",
    "o": 1.07417,
    "h": 1.07425,
    "l": 1.07373,
    "c": 1.07374,
    "v": 660
  },
  {
    "dt": "2020.01.20 15:00",
    "o": 1.07376,
    "h": 1.0739,
    "l": 1.07338,
    "c": 1.07373,
    "v": 973
  },
  {
    "dt": "2020.01.20 16:00",
    "o": 1.07373,
    "h": 1.07419,
    "l": 1.07361,
    "c": 1.07362,
    "v": 926
  },
  {
    "dt": "2020.01.20 17:00",
    "o": 1.07363,
    "h": 1.07451,
    "l": 1.07353,
    "c": 1.07429,
    "v": 998
  },
  {
    "dt": "2020.01.20 18:00",
    "o": 1.07432,
    "h": 1.07448,
    "l": 1.07375,
    "c": 1.07387,
    "v": 821
  },
  {
    "dt": "2020.01.20 19:00",
    "o": 1.07387,
    "h": 1.07411,
    "l": 1.07376,
    "c": 1.07401,
    "v": 396
  },
  {
    "dt": "2020.01.20 20:00",
    "o": 1.07401,
    "h": 1.07436,
    "l": 1.07364,
    "c": 1.07421,
    "v": 657
  },
  {
    "dt": "2020.01.20 21:00",
    "o": 1.07421,
    "h": 1.07422,
    "l": 1.07393,
    "c": 1.07417,
    "v": 657
  },
  {
    "dt": "2020.01.20 22:00",
    "o": 1.07417,
    "h": 1.07443,
    "l": 1.07406,
    "c": 1.0742,
    "v": 1050
  },
  {
    "dt": "2020.01.20 23:00",
    "o": 1.07417,
    "h": 1.07434,
    "l": 1.07394,
    "c": 1.07394,
    "v": 676
  },
  {
    "dt": "2020.01.21 00:00",
    "o": 1.0742,
    "h": 1.07444,
    "l": 1.07391,
    "c": 1.07393,
    "v": 310
  },
  {
    "dt": "2020.01.21 01:00",
    "o": 1.07389,
    "h": 1.0745,
    "l": 1.07389,
    "c": 1.07448,
    "v": 463
  },
  {
    "dt": "2020.01.21 02:00",
    "o": 1.07448,
    "h": 1.07451,
    "l": 1.07429,
    "c": 1.07448,
    "v": 533
  },
  {
    "dt": "2020.01.21 03:00",
    "o": 1.07447,
    "h": 1.07448,
    "l": 1.07324,
    "c": 1.0733,
    "v": 1214
  },
  {
    "dt": "2020.01.21 04:00",
    "o": 1.07331,
    "h": 1.07384,
    "l": 1.07319,
    "c": 1.07333,
    "v": 892
  },
  {
    "dt": "2020.01.21 05:00",
    "o": 1.07333,
    "h": 1.07392,
    "l": 1.07322,
    "c": 1.07373,
    "v": 684
  },
  {
    "dt": "2020.01.21 06:00",
    "o": 1.07375,
    "h": 1.074,
    "l": 1.0734,
    "c": 1.0739,
    "v": 707
  },
  {
    "dt": "2020.01.21 07:00",
    "o": 1.07392,
    "h": 1.07411,
    "l": 1.07371,
    "c": 1.07377,
    "v": 525
  },
  {
    "dt": "2020.01.21 08:00",
    "o": 1.07378,
    "h": 1.07411,
    "l": 1.07343,
    "c": 1.07356,
    "v": 758
  },
  {
    "dt": "2020.01.21 09:00",
    "o": 1.07354,
    "h": 1.07411,
    "l": 1.07326,
    "c": 1.07332,
    "v": 1360
  },
  {
    "dt": "2020.01.21 10:00",
    "o": 1.07335,
    "h": 1.07419,
    "l": 1.07302,
    "c": 1.07368,
    "v": 1940
  },
  {
    "dt": "2020.01.21 11:00",
    "o": 1.07369,
    "h": 1.07428,
    "l": 1.07323,
    "c": 1.07373,
    "v": 1586
  },
  {
    "dt": "2020.01.21 12:00",
    "o": 1.07374,
    "h": 1.07484,
    "l": 1.0736,
    "c": 1.07396,
    "v": 1746
  },
  {
    "dt": "2020.01.21 13:00",
    "o": 1.07398,
    "h": 1.07468,
    "l": 1.07386,
    "c": 1.07449,
    "v": 1502
  },
  {
    "dt": "2020.01.21 14:00",
    "o": 1.07448,
    "h": 1.07502,
    "l": 1.07418,
    "c": 1.07431,
    "v": 1247
  },
  {
    "dt": "2020.01.21 15:00",
    "o": 1.07435,
    "h": 1.07485,
    "l": 1.07402,
    "c": 1.07453,
    "v": 1748
  },
  {
    "dt": "2020.01.21 16:00",
    "o": 1.07455,
    "h": 1.07505,
    "l": 1.07411,
    "c": 1.07411,
    "v": 1700
  },
  {
    "dt": "2020.01.21 17:00",
    "o": 1.07406,
    "h": 1.07444,
    "l": 1.07335,
    "c": 1.07388,
    "v": 1724
  },
  {
    "dt": "2020.01.21 18:00",
    "o": 1.07383,
    "h": 1.07453,
    "l": 1.07356,
    "c": 1.07424,
    "v": 1395
  },
  {
    "dt": "2020.01.21 19:00",
    "o": 1.07428,
    "h": 1.07428,
    "l": 1.07384,
    "c": 1.07391,
    "v": 796
  },
  {
    "dt": "2020.01.21 20:00",
    "o": 1.07392,
    "h": 1.07414,
    "l": 1.07335,
    "c": 1.07347,
    "v": 1450
  },
  {
    "dt": "2020.01.21 21:00",
    "o": 1.07348,
    "h": 1.07406,
    "l": 1.07333,
    "c": 1.07396,
    "v": 1164
  },
  {
    "dt": "2020.01.21 22:00",
    "o": 1.07393,
    "h": 1.07409,
    "l": 1.07373,
    "c": 1.0739,
    "v": 855
  },
  {
    "dt": "2020.01.21 23:00",
    "o": 1.07388,
    "h": 1.07388,
    "l": 1.07333,
    "c": 1.07334,
    "v": 574
  },
  {
    "dt": "2020.01.22 00:00",
    "o": 1.07353,
    "h": 1.07357,
    "l": 1.07311,
    "c": 1.07325,
    "v": 362
  },
  {
    "dt": "2020.01.22 01:00",
    "o": 1.07329,
    "h": 1.07391,
    "l": 1.07328,
    "c": 1.07389,
    "v": 300
  },
  {
    "dt": "2020.01.22 02:00",
    "o": 1.07388,
    "h": 1.07441,
    "l": 1.07381,
    "c": 1.07433,
    "v": 654
  },
  {
    "dt": "2020.01.22 03:00",
    "o": 1.07433,
    "h": 1.07448,
    "l": 1.07406,
    "c": 1.07432,
    "v": 869
  },
  {
    "dt": "2020.01.22 04:00",
    "o": 1.07431,
    "h": 1.07476,
    "l": 1.07409,
    "c": 1.07469,
    "v": 1101
  },
  {
    "dt": "2020.01.22 05:00",
    "o": 1.07474,
    "h": 1.07482,
    "l": 1.07456,
    "c": 1.07475,
    "v": 559
  },
  {
    "dt": "2020.01.22 06:00",
    "o": 1.07475,
    "h": 1.07488,
    "l": 1.0744,
    "c": 1.07453,
    "v": 446
  },
  {
    "dt": "2020.01.22 07:00",
    "o": 1.07451,
    "h": 1.07485,
    "l": 1.07447,
    "c": 1.0748,
    "v": 473
  },
  {
    "dt": "2020.01.22 08:00",
    "o": 1.07481,
    "h": 1.07503,
    "l": 1.07457,
    "c": 1.07498,
    "v": 755
  },
  {
    "dt": "2020.01.22 09:00",
    "o": 1.07497,
    "h": 1.07842,
    "l": 1.07439,
    "c": 1.07736,
    "v": 1342
  },
  {
    "dt": "2020.01.22 10:00",
    "o": 1.07737,
    "h": 1.07738,
    "l": 1.07546,
    "c": 1.07706,
    "v": 1756
  },
  {
    "dt": "2020.01.22 11:00",
    "o": 1.07703,
    "h": 1.07869,
    "l": 1.07599,
    "c": 1.07725,
    "v": 1764
  },
  {
    "dt": "2020.01.22 12:00",
    "o": 1.07724,
    "h": 1.07733,
    "l": 1.07627,
    "c": 1.07678,
    "v": 1320
  },
  {
    "dt": "2020.01.22 13:00",
    "o": 1.07678,
    "h": 1.07701,
    "l": 1.07617,
    "c": 1.07631,
    "v": 1483
  },
  {
    "dt": "2020.01.22 14:00",
    "o": 1.0763,
    "h": 1.07651,
    "l": 1.07562,
    "c": 1.07584,
    "v": 1497
  },
  {
    "dt": "2020.01.22 15:00",
    "o": 1.07579,
    "h": 1.07596,
    "l": 1.07526,
    "c": 1.07527,
    "v": 1571
  },
  {
    "dt": "2020.01.22 16:00",
    "o": 1.07534,
    "h": 1.07557,
    "l": 1.0739,
    "c": 1.07397,
    "v": 1993
  },
  {
    "dt": "2020.01.22 17:00",
    "o": 1.07398,
    "h": 1.07501,
    "l": 1.07368,
    "c": 1.07431,
    "v": 2451
  },
  {
    "dt": "2020.01.22 18:00",
    "o": 1.07432,
    "h": 1.07494,
    "l": 1.07401,
    "c": 1.07476,
    "v": 1821
  },
  {
    "dt": "2020.01.22 19:00",
    "o": 1.07475,
    "h": 1.07494,
    "l": 1.07424,
    "c": 1.07427,
    "v": 1041
  },
  {
    "dt": "2020.01.22 20:00",
    "o": 1.07427,
    "h": 1.07437,
    "l": 1.07389,
    "c": 1.07392,
    "v": 775
  },
  {
    "dt": "2020.01.22 21:00",
    "o": 1.07393,
    "h": 1.07414,
    "l": 1.07388,
    "c": 1.07399,
    "v": 789
  },
  {
    "dt": "2020.01.22 22:00",
    "o": 1.07401,
    "h": 1.07402,
    "l": 1.07349,
    "c": 1.07352,
    "v": 953
  },
  {
    "dt": "2020.01.22 23:00",
    "o": 1.07352,
    "h": 1.07382,
    "l": 1.07344,
    "c": 1.07354,
    "v": 675
  },
  {
    "dt": "2020.01.23 00:00",
    "o": 1.07342,
    "h": 1.07384,
    "l": 1.07341,
    "c": 1.07363,
    "v": 487
  },
  {
    "dt": "2020.01.23 01:00",
    "o": 1.07363,
    "h": 1.07372,
    "l": 1.07334,
    "c": 1.07336,
    "v": 483
  },
  {
    "dt": "2020.01.23 02:00",
    "o": 1.07337,
    "h": 1.07369,
    "l": 1.07306,
    "c": 1.07312,
    "v": 842
  },
  {
    "dt": "2020.01.23 03:00",
    "o": 1.07313,
    "h": 1.0735,
    "l": 1.073,
    "c": 1.0732,
    "v": 1064
  },
  {
    "dt": "2020.01.23 04:00",
    "o": 1.0732,
    "h": 1.07368,
    "l": 1.07312,
    "c": 1.07332,
    "v": 618
  },
  {
    "dt": "2020.01.23 05:00",
    "o": 1.07332,
    "h": 1.07336,
    "l": 1.07297,
    "c": 1.07302,
    "v": 596
  },
  {
    "dt": "2020.01.23 06:00",
    "o": 1.07302,
    "h": 1.07323,
    "l": 1.07292,
    "c": 1.07323,
    "v": 554
  },
  {
    "dt": "2020.01.23 07:00",
    "o": 1.07323,
    "h": 1.07342,
    "l": 1.07294,
    "c": 1.07331,
    "v": 658
  },
  {
    "dt": "2020.01.23 08:00",
    "o": 1.07332,
    "h": 1.07362,
    "l": 1.07293,
    "c": 1.0735,
    "v": 777
  },
  {
    "dt": "2020.01.23 09:00",
    "o": 1.07352,
    "h": 1.0741,
    "l": 1.0733,
    "c": 1.0737,
    "v": 1167
  },
  {
    "dt": "2020.01.23 10:00",
    "o": 1.07371,
    "h": 1.07417,
    "l": 1.0729,
    "c": 1.07381,
    "v": 1608
  },
  {
    "dt": "2020.01.23 11:00",
    "o": 1.07372,
    "h": 1.07427,
    "l": 1.07335,
    "c": 1.07399,
    "v": 1494
  },
  {
    "dt": "2020.01.23 12:00",
    "o": 1.07398,
    "h": 1.07464,
    "l": 1.0739,
    "c": 1.07424,
    "v": 1220
  },
  {
    "dt": "2020.01.23 13:00",
    "o": 1.07423,
    "h": 1.0746,
    "l": 1.07388,
    "c": 1.07404,
    "v": 1318
  },
  {
    "dt": "2020.01.23 14:00",
    "o": 1.07403,
    "h": 1.07418,
    "l": 1.0734,
    "c": 1.0734,
    "v": 1222
  },
  {
    "dt": "2020.01.23 15:00",
    "o": 1.07341,
    "h": 1.07435,
    "l": 1.07224,
    "c": 1.07228,
    "v": 2625
  },
  {
    "dt": "2020.01.23 16:00",
    "o": 1.07226,
    "h": 1.07233,
    "l": 1.07073,
    "c": 1.07113,
    "v": 3163
  },
  {
    "dt": "2020.01.23 17:00",
    "o": 1.07113,
    "h": 1.07183,
    "l": 1.07043,
    "c": 1.0705,
    "v": 2823
  },
  {
    "dt": "2020.01.23 18:00",
    "o": 1.07051,
    "h": 1.07078,
    "l": 1.07015,
    "c": 1.07078,
    "v": 2076
  },
  {
    "dt": "2020.01.23 19:00",
    "o": 1.07077,
    "h": 1.07133,
    "l": 1.07051,
    "c": 1.07096,
    "v": 1355
  },
  {
    "dt": "2020.01.23 20:00",
    "o": 1.07095,
    "h": 1.07154,
    "l": 1.07092,
    "c": 1.0715,
    "v": 1318
  },
  {
    "dt": "2020.01.23 21:00",
    "o": 1.07151,
    "h": 1.07209,
    "l": 1.07149,
    "c": 1.07179,
    "v": 1060
  },
  {
    "dt": "2020.01.23 22:00",
    "o": 1.07178,
    "h": 1.07184,
    "l": 1.07138,
    "c": 1.07161,
    "v": 1248
  },
  {
    "dt": "2020.01.23 23:00",
    "o": 1.07161,
    "h": 1.07177,
    "l": 1.07141,
    "c": 1.07145,
    "v": 445
  },
  {
    "dt": "2020.01.24 00:00",
    "o": 1.07087,
    "h": 1.07152,
    "l": 1.07064,
    "c": 1.07143,
    "v": 606
  },
  {
    "dt": "2020.01.24 01:00",
    "o": 1.07143,
    "h": 1.07195,
    "l": 1.07143,
    "c": 1.07183,
    "v": 436
  },
  {
    "dt": "2020.01.24 02:00",
    "o": 1.07182,
    "h": 1.0719,
    "l": 1.07151,
    "c": 1.07169,
    "v": 520
  },
  {
    "dt": "2020.01.24 03:00",
    "o": 1.0717,
    "h": 1.0719,
    "l": 1.07151,
    "c": 1.0717,
    "v": 397
  },
  {
    "dt": "2020.01.24 04:00",
    "o": 1.0717,
    "h": 1.07201,
    "l": 1.07152,
    "c": 1.07156,
    "v": 451
  },
  {
    "dt": "2020.01.24 05:00",
    "o": 1.07158,
    "h": 1.07161,
    "l": 1.07133,
    "c": 1.07146,
    "v": 345
  },
  {
    "dt": "2020.01.24 06:00",
    "o": 1.07144,
    "h": 1.07176,
    "l": 1.0714,
    "c": 1.07165,
    "v": 320
  },
  {
    "dt": "2020.01.24 07:00",
    "o": 1.07163,
    "h": 1.07173,
    "l": 1.07152,
    "c": 1.0717,
    "v": 350
  },
  {
    "dt": "2020.01.24 08:00",
    "o": 1.07168,
    "h": 1.07216,
    "l": 1.07152,
    "c": 1.07208,
    "v": 491
  },
  {
    "dt": "2020.01.24 09:00",
    "o": 1.07204,
    "h": 1.07204,
    "l": 1.07143,
    "c": 1.07143,
    "v": 962
  },
  {
    "dt": "2020.01.24 10:00",
    "o": 1.07142,
    "h": 1.07221,
    "l": 1.07125,
    "c": 1.07135,
    "v": 2368
  },
  {
    "dt": "2020.01.24 11:00",
    "o": 1.07137,
    "h": 1.07205,
    "l": 1.07107,
    "c": 1.07129,
    "v": 2208
  },
  {
    "dt": "2020.01.24 12:00",
    "o": 1.07127,
    "h": 1.07149,
    "l": 1.07087,
    "c": 1.07113,
    "v": 1465
  },
  {
    "dt": "2020.01.24 13:00",
    "o": 1.07113,
    "h": 1.07129,
    "l": 1.07067,
    "c": 1.07129,
    "v": 1322
  },
  {
    "dt": "2020.01.24 14:00",
    "o": 1.0713,
    "h": 1.07187,
    "l": 1.07098,
    "c": 1.07113,
    "v": 904
  },
  {
    "dt": "2020.01.24 15:00",
    "o": 1.07115,
    "h": 1.07128,
    "l": 1.07031,
    "c": 1.07035,
    "v": 1544
  },
  {
    "dt": "2020.01.24 16:00",
    "o": 1.07034,
    "h": 1.07078,
    "l": 1.07007,
    "c": 1.07057,
    "v": 1924
  },
  {
    "dt": "2020.01.24 17:00",
    "o": 1.07053,
    "h": 1.07074,
    "l": 1.06999,
    "c": 1.0702,
    "v": 2588
  },
  {
    "dt": "2020.01.24 18:00",
    "o": 1.07016,
    "h": 1.07108,
    "l": 1.07007,
    "c": 1.07088,
    "v": 1871
  },
  {
    "dt": "2020.01.24 19:00",
    "o": 1.07085,
    "h": 1.07095,
    "l": 1.07027,
    "c": 1.07042,
    "v": 1312
  },
  {
    "dt": "2020.01.24 20:00",
    "o": 1.07041,
    "h": 1.07074,
    "l": 1.07023,
    "c": 1.07055,
    "v": 1335
  },
  {
    "dt": "2020.01.24 21:00",
    "o": 1.07056,
    "h": 1.07079,
    "l": 1.07016,
    "c": 1.07067,
    "v": 1264
  },
  {
    "dt": "2020.01.24 22:00",
    "o": 1.07066,
    "h": 1.07104,
    "l": 1.07041,
    "c": 1.07083,
    "v": 1477
  },
  {
    "dt": "2020.01.24 23:00",
    "o": 1.0708,
    "h": 1.07092,
    "l": 1.07022,
    "c": 1.07022,
    "v": 697
  },
  {
    "dt": "2020.01.27 00:00",
    "o": 1.07001,
    "h": 1.07049,
    "l": 1.06993,
    "c": 1.07031,
    "v": 1103
  },
  {
    "dt": "2020.01.27 01:00",
    "o": 1.07038,
    "h": 1.07061,
    "l": 1.06923,
    "c": 1.06937,
    "v": 1907
  },
  {
    "dt": "2020.01.27 02:00",
    "o": 1.06936,
    "h": 1.07083,
    "l": 1.06936,
    "c": 1.07048,
    "v": 1196
  },
  {
    "dt": "2020.01.27 03:00",
    "o": 1.07048,
    "h": 1.07077,
    "l": 1.07033,
    "c": 1.07073,
    "v": 449
  },
  {
    "dt": "2020.01.27 04:00",
    "o": 1.07073,
    "h": 1.07073,
    "l": 1.0702,
    "c": 1.07027,
    "v": 491
  },
  {
    "dt": "2020.01.27 05:00",
    "o": 1.07028,
    "h": 1.07088,
    "l": 1.07025,
    "c": 1.07068,
    "v": 417
  },
  {
    "dt": "2020.01.27 06:00",
    "o": 1.0707,
    "h": 1.07072,
    "l": 1.07044,
    "c": 1.07061,
    "v": 558
  },
  {
    "dt": "2020.01.27 07:00",
    "o": 1.07061,
    "h": 1.07069,
    "l": 1.07029,
    "c": 1.0706,
    "v": 368
  },
  {
    "dt": "2020.01.27 08:00",
    "o": 1.07061,
    "h": 1.07108,
    "l": 1.0704,
    "c": 1.07087,
    "v": 545
  },
  {
    "dt": "2020.01.27 09:00",
    "o": 1.0709,
    "h": 1.07161,
    "l": 1.07071,
    "c": 1.07074,
    "v": 1364
  },
  {
    "dt": "2020.01.27 10:00",
    "o": 1.07076,
    "h": 1.07158,
    "l": 1.07066,
    "c": 1.07104,
    "v": 1806
  },
  {
    "dt": "2020.01.27 11:00",
    "o": 1.07102,
    "h": 1.07104,
    "l": 1.06911,
    "c": 1.06917,
    "v": 2379
  },
  {
    "dt": "2020.01.27 12:00",
    "o": 1.06915,
    "h": 1.06971,
    "l": 1.06873,
    "c": 1.06878,
    "v": 1485
  },
  {
    "dt": "2020.01.27 13:00",
    "o": 1.06877,
    "h": 1.06903,
    "l": 1.06823,
    "c": 1.06858,
    "v": 1608
  },
  {
    "dt": "2020.01.27 14:00",
    "o": 1.06857,
    "h": 1.06938,
    "l": 1.06857,
    "c": 1.06889,
    "v": 1382
  },
  {
    "dt": "2020.01.27 15:00",
    "o": 1.06892,
    "h": 1.06898,
    "l": 1.06817,
    "c": 1.06831,
    "v": 1512
  },
  {
    "dt": "2020.01.27 16:00",
    "o": 1.06832,
    "h": 1.06846,
    "l": 1.06765,
    "c": 1.06836,
    "v": 2483
  },
  {
    "dt": "2020.01.27 17:00",
    "o": 1.06836,
    "h": 1.0685,
    "l": 1.0676,
    "c": 1.06787,
    "v": 2219
  },
  {
    "dt": "2020.01.27 18:00",
    "o": 1.06788,
    "h": 1.06852,
    "l": 1.06776,
    "c": 1.06824,
    "v": 1873
  },
  {
    "dt": "2020.01.27 19:00",
    "o": 1.06824,
    "h": 1.06888,
    "l": 1.06814,
    "c": 1.06877,
    "v": 1135
  },
  {
    "dt": "2020.01.27 20:00",
    "o": 1.06877,
    "h": 1.06904,
    "l": 1.06856,
    "c": 1.06868,
    "v": 1051
  },
  {
    "dt": "2020.01.27 21:00",
    "o": 1.0687,
    "h": 1.06884,
    "l": 1.06796,
    "c": 1.06809,
    "v": 970
  },
  {
    "dt": "2020.01.27 22:00",
    "o": 1.06808,
    "h": 1.0682,
    "l": 1.0678,
    "c": 1.06798,
    "v": 1113
  },
  {
    "dt": "2020.01.27 23:00",
    "o": 1.06796,
    "h": 1.06841,
    "l": 1.06795,
    "c": 1.06824,
    "v": 527
  },
  {
    "dt": "2020.01.28 00:00",
    "o": 1.06817,
    "h": 1.06838,
    "l": 1.06756,
    "c": 1.06794,
    "v": 645
  },
  {
    "dt": "2020.01.28 01:00",
    "o": 1.06822,
    "h": 1.06884,
    "l": 1.06812,
    "c": 1.0687,
    "v": 466
  },
  {
    "dt": "2020.01.28 02:00",
    "o": 1.06872,
    "h": 1.06898,
    "l": 1.06857,
    "c": 1.06863,
    "v": 506
  },
  {
    "dt": "2020.01.28 03:00",
    "o": 1.06864,
    "h": 1.06949,
    "l": 1.06863,
    "c": 1.06919,
    "v": 750
  },
  {
    "dt": "2020.01.28 04:00",
    "o": 1.06923,
    "h": 1.06929,
    "l": 1.06899,
    "c": 1.06928,
    "v": 372
  },
  {
    "dt": "2020.01.28 05:00",
    "o": 1.06927,
    "h": 1.06947,
    "l": 1.06913,
    "c": 1.06946,
    "v": 403
  },
  {
    "dt": "2020.01.28 06:00",
    "o": 1.06945,
    "h": 1.0696,
    "l": 1.06938,
    "c": 1.06955,
    "v": 344
  },
  {
    "dt": "2020.01.28 07:00",
    "o": 1.06954,
    "h": 1.06966,
    "l": 1.06943,
    "c": 1.06963,
    "v": 375
  },
  {
    "dt": "2020.01.28 08:00",
    "o": 1.06962,
    "h": 1.06985,
    "l": 1.06958,
    "c": 1.06977,
    "v": 587
  },
  {
    "dt": "2020.01.28 09:00",
    "o": 1.06977,
    "h": 1.06977,
    "l": 1.06915,
    "c": 1.06969,
    "v": 1133
  },
  {
    "dt": "2020.01.28 10:00",
    "o": 1.06968,
    "h": 1.06968,
    "l": 1.06796,
    "c": 1.06825,
    "v": 1747
  },
  {
    "dt": "2020.01.28 11:00",
    "o": 1.06825,
    "h": 1.06827,
    "l": 1.06643,
    "c": 1.06723,
    "v": 2243
  },
  {
    "dt": "2020.01.28 12:00",
    "o": 1.0672,
    "h": 1.06777,
    "l": 1.06713,
    "c": 1.06742,
    "v": 1202
  },
  {
    "dt": "2020.01.28 13:00",
    "o": 1.06743,
    "h": 1.069,
    "l": 1.06726,
    "c": 1.06894,
    "v": 1339
  },
  {
    "dt": "2020.01.28 14:00",
    "o": 1.06894,
    "h": 1.0698,
    "l": 1.06826,
    "c": 1.06962,
    "v": 1835
  },
  {
    "dt": "2020.01.28 15:00",
    "o": 1.06962,
    "h": 1.07121,
    "l": 1.06954,
    "c": 1.07069,
    "v": 1732
  },
  {
    "dt": "2020.01.28 16:00",
    "o": 1.07073,
    "h": 1.07074,
    "l": 1.06962,
    "c": 1.06996,
    "v": 1801
  },
  {
    "dt": "2020.01.28 17:00",
    "o": 1.06995,
    "h": 1.0714,
    "l": 1.06989,
    "c": 1.07107,
    "v": 2265
  },
  {
    "dt": "2020.01.28 18:00",
    "o": 1.07109,
    "h": 1.07195,
    "l": 1.07095,
    "c": 1.07189,
    "v": 1454
  },
  {
    "dt": "2020.01.28 19:00",
    "o": 1.07189,
    "h": 1.07217,
    "l": 1.07158,
    "c": 1.07163,
    "v": 1225
  },
  {
    "dt": "2020.01.28 20:00",
    "o": 1.07164,
    "h": 1.07179,
    "l": 1.07145,
    "c": 1.07156,
    "v": 975
  },
  {
    "dt": "2020.01.28 21:00",
    "o": 1.07157,
    "h": 1.07223,
    "l": 1.07153,
    "c": 1.07198,
    "v": 974
  },
  {
    "dt": "2020.01.28 22:00",
    "o": 1.07198,
    "h": 1.07226,
    "l": 1.07183,
    "c": 1.07199,
    "v": 852
  },
  {
    "dt": "2020.01.28 23:00",
    "o": 1.072,
    "h": 1.07261,
    "l": 1.07197,
    "c": 1.07229,
    "v": 618
  },
  {
    "dt": "2020.01.29 00:00",
    "o": 1.0722,
    "h": 1.0725,
    "l": 1.07203,
    "c": 1.07237,
    "v": 737
  },
  {
    "dt": "2020.01.29 01:00",
    "o": 1.0723,
    "h": 1.07243,
    "l": 1.07207,
    "c": 1.07229,
    "v": 479
  },
  {
    "dt": "2020.01.29 02:00",
    "o": 1.0723,
    "h": 1.07286,
    "l": 1.07228,
    "c": 1.07251,
    "v": 680
  },
  {
    "dt": "2020.01.29 03:00",
    "o": 1.07251,
    "h": 1.07307,
    "l": 1.07229,
    "c": 1.0729,
    "v": 817
  },
  {
    "dt": "2020.01.29 04:00",
    "o": 1.0729,
    "h": 1.07296,
    "l": 1.07265,
    "c": 1.07276,
    "v": 644
  },
  {
    "dt": "2020.01.29 05:00",
    "o": 1.07277,
    "h": 1.07313,
    "l": 1.07276,
    "c": 1.07294,
    "v": 517
  },
  {
    "dt": "2020.01.29 06:00",
    "o": 1.07293,
    "h": 1.07309,
    "l": 1.07266,
    "c": 1.0727,
    "v": 436
  },
  {
    "dt": "2020.01.29 07:00",
    "o": 1.0727,
    "h": 1.07278,
    "l": 1.07261,
    "c": 1.07265,
    "v": 335
  },
  {
    "dt": "2020.01.29 08:00",
    "o": 1.07263,
    "h": 1.07288,
    "l": 1.07239,
    "c": 1.07246,
    "v": 508
  },
  {
    "dt": "2020.01.29 09:00",
    "o": 1.07247,
    "h": 1.07268,
    "l": 1.07134,
    "c": 1.07152,
    "v": 1248
  },
  {
    "dt": "2020.01.29 10:00",
    "o": 1.07144,
    "h": 1.07195,
    "l": 1.07093,
    "c": 1.07151,
    "v": 1676
  },
  {
    "dt": "2020.01.29 11:00",
    "o": 1.07148,
    "h": 1.07241,
    "l": 1.0712,
    "c": 1.0724,
    "v": 1567
  },
  {
    "dt": "2020.01.29 12:00",
    "o": 1.07241,
    "h": 1.07271,
    "l": 1.07184,
    "c": 1.07247,
    "v": 1002
  },
  {
    "dt": "2020.01.29 13:00",
    "o": 1.07246,
    "h": 1.0728,
    "l": 1.07193,
    "c": 1.07257,
    "v": 1056
  },
  {
    "dt": "2020.01.29 14:00",
    "o": 1.07257,
    "h": 1.07294,
    "l": 1.07221,
    "c": 1.0723,
    "v": 1031
  },
  {
    "dt": "2020.01.29 15:00",
    "o": 1.07231,
    "h": 1.0731,
    "l": 1.07231,
    "c": 1.07294,
    "v": 1503
  },
  {
    "dt": "2020.01.29 16:00",
    "o": 1.07295,
    "h": 1.0737,
    "l": 1.07234,
    "c": 1.07251,
    "v": 1835
  },
  {
    "dt": "2020.01.29 17:00",
    "o": 1.07247,
    "h": 1.07282,
    "l": 1.07207,
    "c": 1.07234,
    "v": 2282
  },
  {
    "dt": "2020.01.29 18:00",
    "o": 1.07233,
    "h": 1.07303,
    "l": 1.07227,
    "c": 1.07243,
    "v": 1426
  },
  {
    "dt": "2020.01.29 19:00",
    "o": 1.07242,
    "h": 1.0727,
    "l": 1.07208,
    "c": 1.07259,
    "v": 960
  },
  {
    "dt": "2020.01.29 20:00",
    "o": 1.07259,
    "h": 1.07265,
    "l": 1.07198,
    "c": 1.07228,
    "v": 889
  },
  {
    "dt": "2020.01.29 21:00",
    "o": 1.07229,
    "h": 1.07254,
    "l": 1.07178,
    "c": 1.07231,
    "v": 1702
  },
  {
    "dt": "2020.01.29 22:00",
    "o": 1.07231,
    "h": 1.07236,
    "l": 1.0717,
    "c": 1.07201,
    "v": 1934
  },
  {
    "dt": "2020.01.29 23:00",
    "o": 1.072,
    "h": 1.072,
    "l": 1.07147,
    "c": 1.07154,
    "v": 579
  },
  {
    "dt": "2020.01.30 00:00",
    "o": 1.07143,
    "h": 1.07191,
    "l": 1.07135,
    "c": 1.07158,
    "v": 569
  },
  {
    "dt": "2020.01.30 01:00",
    "o": 1.07164,
    "h": 1.07216,
    "l": 1.07157,
    "c": 1.07182,
    "v": 528
  },
  {
    "dt": "2020.01.30 02:00",
    "o": 1.07183,
    "h": 1.07191,
    "l": 1.07123,
    "c": 1.07123,
    "v": 497
  },
  {
    "dt": "2020.01.30 03:00",
    "o": 1.07122,
    "h": 1.07148,
    "l": 1.07116,
    "c": 1.07125,
    "v": 686
  },
  {
    "dt": "2020.01.30 04:00",
    "o": 1.07124,
    "h": 1.07135,
    "l": 1.07075,
    "c": 1.07075,
    "v": 618
  },
  {
    "dt": "2020.01.30 05:00",
    "o": 1.07075,
    "h": 1.07126,
    "l": 1.07058,
    "c": 1.07076,
    "v": 902
  },
  {
    "dt": "2020.01.30 06:00",
    "o": 1.07075,
    "h": 1.07124,
    "l": 1.07071,
    "c": 1.07104,
    "v": 427
  },
  {
    "dt": "2020.01.30 07:00",
    "o": 1.07104,
    "h": 1.07105,
    "l": 1.0704,
    "c": 1.07063,
    "v": 520
  },
  {
    "dt": "2020.01.30 08:00",
    "o": 1.07063,
    "h": 1.07084,
    "l": 1.07047,
    "c": 1.0705,
    "v": 847
  },
  {
    "dt": "2020.01.30 09:00",
    "o": 1.07051,
    "h": 1.07069,
    "l": 1.06949,
    "c": 1.07044,
    "v": 1709
  },
  {
    "dt": "2020.01.30 10:00",
    "o": 1.07039,
    "h": 1.07043,
    "l": 1.06896,
    "c": 1.06937,
    "v": 1949
  },
  {
    "dt": "2020.01.30 11:00",
    "o": 1.06936,
    "h": 1.07034,
    "l": 1.06934,
    "c": 1.06951,
    "v": 1367
  },
  {
    "dt": "2020.01.30 12:00",
    "o": 1.06951,
    "h": 1.07018,
    "l": 1.06934,
    "c": 1.07018,
    "v": 1224
  },
  {
    "dt": "2020.01.30 13:00",
    "o": 1.07018,
    "h": 1.07021,
    "l": 1.06909,
    "c": 1.06956,
    "v": 1284
  },
  {
    "dt": "2020.01.30 14:00",
    "o": 1.06956,
    "h": 1.07021,
    "l": 1.0691,
    "c": 1.0692,
    "v": 1637
  },
  {
    "dt": "2020.01.30 15:00",
    "o": 1.06918,
    "h": 1.06951,
    "l": 1.06837,
    "c": 1.06885,
    "v": 2401
  },
  {
    "dt": "2020.01.30 16:00",
    "o": 1.06884,
    "h": 1.07008,
    "l": 1.06807,
    "c": 1.06955,
    "v": 2316
  },
  {
    "dt": "2020.01.30 17:00",
    "o": 1.06959,
    "h": 1.07011,
    "l": 1.06805,
    "c": 1.06846,
    "v": 2366
  },
  {
    "dt": "2020.01.30 18:00",
    "o": 1.06847,
    "h": 1.06937,
    "l": 1.0684,
    "c": 1.06913,
    "v": 2067
  },
  {
    "dt": "2020.01.30 19:00",
    "o": 1.06912,
    "h": 1.06931,
    "l": 1.06839,
    "c": 1.06878,
    "v": 1605
  },
  {
    "dt": "2020.01.30 20:00",
    "o": 1.06879,
    "h": 1.06917,
    "l": 1.06858,
    "c": 1.06892,
    "v": 1360
  },
  {
    "dt": "2020.01.30 21:00",
    "o": 1.06892,
    "h": 1.0698,
    "l": 1.06885,
    "c": 1.0693,
    "v": 2062
  },
  {
    "dt": "2020.01.30 22:00",
    "o": 1.06929,
    "h": 1.07004,
    "l": 1.06921,
    "c": 1.06973,
    "v": 2254
  },
  {
    "dt": "2020.01.30 23:00",
    "o": 1.06972,
    "h": 1.07017,
    "l": 1.06929,
    "c": 1.0693,
    "v": 846
  },
  {
    "dt": "2020.01.31 00:00",
    "o": 1.06913,
    "h": 1.06987,
    "l": 1.06882,
    "c": 1.06956,
    "v": 578
  },
  {
    "dt": "2020.01.31 01:00",
    "o": 1.06946,
    "h": 1.06954,
    "l": 1.06908,
    "c": 1.06914,
    "v": 425
  },
  {
    "dt": "2020.01.31 02:00",
    "o": 1.06915,
    "h": 1.06962,
    "l": 1.06915,
    "c": 1.06957,
    "v": 654
  },
  {
    "dt": "2020.01.31 03:00",
    "o": 1.06956,
    "h": 1.07038,
    "l": 1.06932,
    "c": 1.06958,
    "v": 809
  },
  {
    "dt": "2020.01.31 04:00",
    "o": 1.0696,
    "h": 1.06988,
    "l": 1.06952,
    "c": 1.06953,
    "v": 816
  },
  {
    "dt": "2020.01.31 05:00",
    "o": 1.06954,
    "h": 1.06996,
    "l": 1.06942,
    "c": 1.06994,
    "v": 798
  },
  {
    "dt": "2020.01.31 06:00",
    "o": 1.06996,
    "h": 1.07011,
    "l": 1.06976,
    "c": 1.06999,
    "v": 570
  },
  {
    "dt": "2020.01.31 07:00",
    "o": 1.06996,
    "h": 1.07015,
    "l": 1.06992,
    "c": 1.06997,
    "v": 542
  },
  {
    "dt": "2020.01.31 08:00",
    "o": 1.06995,
    "h": 1.07025,
    "l": 1.06978,
    "c": 1.07014,
    "v": 810
  },
  {
    "dt": "2020.01.31 09:00",
    "o": 1.07015,
    "h": 1.07057,
    "l": 1.06978,
    "c": 1.06995,
    "v": 1144
  },
  {
    "dt": "2020.01.31 10:00",
    "o": 1.06998,
    "h": 1.0704,
    "l": 1.06958,
    "c": 1.06977,
    "v": 1610
  },
  {
    "dt": "2020.01.31 11:00",
    "o": 1.06974,
    "h": 1.07019,
    "l": 1.06952,
    "c": 1.06993,
    "v": 1697
  },
  {
    "dt": "2020.01.31 12:00",
    "o": 1.0699,
    "h": 1.0699,
    "l": 1.0684,
    "c": 1.06913,
    "v": 1630
  },
  {
    "dt": "2020.01.31 13:00",
    "o": 1.06911,
    "h": 1.06937,
    "l": 1.06863,
    "c": 1.06911,
    "v": 1402
  },
  {
    "dt": "2020.01.31 14:00",
    "o": 1.06912,
    "h": 1.07021,
    "l": 1.06888,
    "c": 1.07008,
    "v": 1723
  },
  {
    "dt": "2020.01.31 15:00",
    "o": 1.07006,
    "h": 1.07008,
    "l": 1.06837,
    "c": 1.06852,
    "v": 1942
  },
  {
    "dt": "2020.01.31 16:00",
    "o": 1.06851,
    "h": 1.06863,
    "l": 1.06759,
    "c": 1.06842,
    "v": 2313
  },
  {
    "dt": "2020.01.31 17:00",
    "o": 1.06839,
    "h": 1.0693,
    "l": 1.06779,
    "c": 1.0686,
    "v": 2832
  },
  {
    "dt": "2020.01.31 18:00",
    "o": 1.0686,
    "h": 1.06915,
    "l": 1.06764,
    "c": 1.06881,
    "v": 2975
  },
  {
    "dt": "2020.01.31 19:00",
    "o": 1.06883,
    "h": 1.069,
    "l": 1.06799,
    "c": 1.06822,
    "v": 2001
  },
  {
    "dt": "2020.01.31 20:00",
    "o": 1.0682,
    "h": 1.06834,
    "l": 1.06766,
    "c": 1.06814,
    "v": 1514
  },
  {
    "dt": "2020.01.31 21:00",
    "o": 1.06813,
    "h": 1.0687,
    "l": 1.068,
    "c": 1.06831,
    "v": 1472
  },
  {
    "dt": "2020.01.31 22:00",
    "o": 1.0683,
    "h": 1.0685,
    "l": 1.06796,
    "c": 1.0681,
    "v": 1731
  },
  {
    "dt": "2020.01.31 23:00",
    "o": 1.06805,
    "h": 1.06901,
    "l": 1.06795,
    "c": 1.06867,
    "v": 851
  }
]