[
  {
    "dt": "2020.04.01 00:00",
    "o": 1.06013,
    "h": 1.06013,
    "l": 1.05925,
    "c": 1.05994,
    "v": 475
  },
  {
    "dt": "2020.04.01 01:00",
    "o": 1.05995,
    "h": 1.06032,
    "l": 1.05942,
    "c": 1.06028,
    "v": 1116
  },
  {
    "dt": "2020.04.01 02:00",
    "o": 1.06028,
    "h": 1.06047,
    "l": 1.06009,
    "c": 1.06017,
    "v": 1416
  },
  {
    "dt": "2020.04.01 03:00",
    "o": 1.06015,
    "h": 1.06042,
    "l": 1.0596,
    "c": 1.06035,
    "v": 2265
  },
  {
    "dt": "2020.04.01 04:00",
    "o": 1.06034,
    "h": 1.06034,
    "l": 1.05919,
    "c": 1.05964,
    "v": 2457
  },
  {
    "dt": "2020.04.01 05:00",
    "o": 1.05963,
    "h": 1.06035,
    "l": 1.0594,
    "c": 1.06006,
    "v": 1884
  },
  {
    "dt": "2020.04.01 06:00",
    "o": 1.06009,
    "h": 1.06028,
    "l": 1.05943,
    "c": 1.05958,
    "v": 1649
  },
  {
    "dt": "2020.04.01 07:00",
    "o": 1.05956,
    "h": 1.05992,
    "l": 1.05906,
    "c": 1.05913,
    "v": 1437
  },
  {
    "dt": "2020.04.01 08:00",
    "o": 1.05914,
    "h": 1.05967,
    "l": 1.05897,
    "c": 1.05919,
    "v": 2207
  },
  {
    "dt": "2020.04.01 09:00",
    "o": 1.05917,
    "h": 1.05932,
    "l": 1.05803,
    "c": 1.05807,
    "v": 3225
  },
  {
    "dt": "2020.04.01 10:00",
    "o": 1.05806,
    "h": 1.05838,
    "l": 1.05688,
    "c": 1.05691,
    "v": 3634
  },
  {
    "dt": "2020.04.01 11:00",
    "o": 1.05692,
    "h": 1.05761,
    "l": 1.05639,
    "c": 1.05674,
    "v": 3393
  },
  {
    "dt": "2020.04.01 12:00",
    "o": 1.05673,
    "h": 1.05715,
    "l": 1.05586,
    "c": 1.05715,
    "v": 3369
  },
  {
    "dt": "2020.04.01 13:00",
    "o": 1.05713,
    "h": 1.05751,
    "l": 1.05606,
    "c": 1.05646,
    "v": 2504
  },
  {
    "dt": "2020.04.01 14:00",
    "o": 1.05647,
    "h": 1.057,
    "l": 1.05589,
    "c": 1.05646,
    "v": 2677
  },
  {
    "dt": "2020.04.01 15:00",
    "o": 1.05647,
    "h": 1.05717,
    "l": 1.0557,
    "c": 1.05671,
    "v": 3147
  },
  {
    "dt": "2020.04.01 16:00",
    "o": 1.05672,
    "h": 1.05781,
    "l": 1.056,
    "c": 1.05607,
    "v": 3211
  },
  {
    "dt": "2020.04.01 17:00",
    "o": 1.05612,
    "h": 1.05809,
    "l": 1.05574,
    "c": 1.05776,
    "v": 3625
  },
  {
    "dt": "2020.04.01 18:00",
    "o": 1.05776,
    "h": 1.05832,
    "l": 1.0571,
    "c": 1.05773,
    "v": 3117
  },
  {
    "dt": "2020.04.01 19:00",
    "o": 1.05774,
    "h": 1.05829,
    "l": 1.05665,
    "c": 1.057,
    "v": 2446
  },
  {
    "dt": "2020.04.01 20:00",
    "o": 1.057,
    "h": 1.05721,
    "l": 1.05644,
    "c": 1.05709,
    "v": 2775
  },
  {
    "dt": "2020.04.01 21:00",
    "o": 1.05708,
    "h": 1.05785,
    "l": 1.05671,
    "c": 1.05672,
    "v": 2698
  },
  {
    "dt": "2020.04.01 22:00",
    "o": 1.05672,
    "h": 1.05837,
    "l": 1.05667,
    "c": 1.05834,
    "v": 2884
  },
  {
    "dt": "2020.04.01 23:00",
    "o": 1.05826,
    "h": 1.05881,
    "l": 1.0578,
    "c": 1.05841,
    "v": 2309
  },
  {
    "dt": "2020.04.02 00:00",
    "o": 1.05857,
    "h": 1.0587,
    "l": 1.05722,
    "c": 1.05729,
    "v": 293
  },
  {
    "dt": "2020.04.02 01:00",
    "o": 1.05752,
    "h": 1.05859,
    "l": 1.05748,
    "c": 1.05816,
    "v": 1317
  },
  {
    "dt": "2020.04.02 02:00",
    "o": 1.05818,
    "h": 1.05831,
    "l": 1.05776,
    "c": 1.05826,
    "v": 1467
  },
  {
    "dt": "2020.04.02 03:00",
    "o": 1.05825,
    "h": 1.05852,
    "l": 1.05787,
    "c": 1.05818,
    "v": 2221
  },
  {
    "dt": "2020.04.02 04:00",
    "o": 1.05817,
    "h": 1.05876,
    "l": 1.05805,
    "c": 1.05851,
    "v": 2085
  },
  {
    "dt": "2020.04.02 05:00",
    "o": 1.0585,
    "h": 1.05869,
    "l": 1.05818,
    "c": 1.05827,
    "v": 1670
  },
  {
    "dt": "2020.04.02 06:00",
    "o": 1.05826,
    "h": 1.05873,
    "l": 1.05826,
    "c": 1.05864,
    "v": 1413
  },
  {
    "dt": "2020.04.02 07:00",
    "o": 1.05863,
    "h": 1.05877,
    "l": 1.05832,
    "c": 1.05871,
    "v": 1175
  },
  {
    "dt": "2020.04.02 08:00",
    "o": 1.0587,
    "h": 1.05888,
    "l": 1.05846,
    "c": 1.05854,
    "v": 1821
  },
  {
    "dt": "2020.04.02 09:00",
    "o": 1.05852,
    "h": 1.05934,
    "l": 1.05756,
    "c": 1.05765,
    "v": 2600
  },
  {
    "dt": "2020.04.02 10:00",
    "o": 1.05768,
    "h": 1.05813,
    "l": 1.05699,
    "c": 1.0572,
    "v": 3128
  },
  {
    "dt": "2020.04.02 11:00",
    "o": 1.05722,
    "h": 1.05725,
    "l": 1.0559,
    "c": 1.05643,
    "v": 2713
  },
  {
    "dt": "2020.04.02 12:00",
    "o": 1.05642,
    "h": 1.05706,
    "l": 1.05621,
    "c": 1.05686,
    "v": 2641
  },
  {
    "dt": "2020.04.02 13:00",
    "o": 1.05685,
    "h": 1.05693,
    "l": 1.05542,
    "c": 1.05561,
    "v": 2751
  },
  {
    "dt": "2020.04.02 14:00",
    "o": 1.05563,
    "h": 1.05594,
    "l": 1.05496,
    "c": 1.05501,
    "v": 2483
  },
  {
    "dt": "2020.04.02 15:00",
    "o": 1.05504,
    "h": 1.05536,
    "l": 1.05466,
    "c": 1.05477,
    "v": 3790
  },
  {
    "dt": "2020.04.02 16:00",
    "o": 1.05485,
    "h": 1.05547,
    "l": 1.05455,
    "c": 1.05472,
    "v": 3713
  },
  {
    "dt": "2020.04.02 17:00",
    "o": 1.05475,
    "h": 1.05713,
    "l": 1.05463,
    "c": 1.05621,
    "v": 4266
  },
  {
    "dt": "2020.04.02 18:00",
    "o": 1.05624,
    "h": 1.05696,
    "l": 1.05526,
    "c": 1.05651,
    "v": 3908
  },
  {
    "dt": "2020.04.02 19:00",
    "o": 1.05652,
    "h": 1.05684,
    "l": 1.05551,
    "c": 1.05568,
    "v": 3215
  },
  {
    "dt": "2020.04.02 20:00",
    "o": 1.05568,
    "h": 1.05598,
    "l": 1.05509,
    "c": 1.05511,
    "v": 2768
  },
  {
    "dt": "2020.04.02 21:00",
    "o": 1.0551,
    "h": 1.05606,
    "l": 1.05499,
    "c": 1.05593,
    "v": 3249
  },
  {
    "dt": "2020.04.02 22:00",
    "o": 1.05592,
    "h": 1.05688,
    "l": 1.0552,
    "c": 1.05643,
    "v": 3103
  },
  {
    "dt": "2020.04.02 23:00",
    "o": 1.05646,
    "h": 1.05754,
    "l": 1.05629,
    "c": 1.05683,
    "v": 2286
  },
  {
    "dt": "2020.04.03 00:00",
    "o": 1.05579,
    "h": 1.05692,
    "l": 1.05571,
    "c": 1.05576,
    "v": 153
  },
  {
    "dt": "2020.04.03 01:00",
    "o": 1.05586,
    "h": 1.05748,
    "l": 1.05585,
    "c": 1.05729,
    "v": 1092
  },
  {
    "dt": "2020.04.03 02:00",
    "o": 1.05723,
    "h": 1.05752,
    "l": 1.05661,
    "c": 1.05681,
    "v": 1200
  },
  {
    "dt": "2020.04.03 03:00",
    "o": 1.05678,
    "h": 1.05678,
    "l": 1.05605,
    "c": 1.05653,
    "v": 2215
  },
  {
    "dt": "2020.04.03 04:00",
    "o": 1.05651,
    "h": 1.05727,
    "l": 1.05647,
    "c": 1.05726,
    "v": 1666
  },
  {
    "dt": "2020.04.03 05:00",
    "o": 1.05727,
    "h": 1.05728,
    "l": 1.05639,
    "c": 1.05644,
    "v": 1434
  },
  {
    "dt": "2020.04.03 06:00",
    "o": 1.05644,
    "h": 1.05646,
    "l": 1.05547,
    "c": 1.05562,
    "v": 1346
  },
  {
    "dt": "2020.04.03 07:00",
    "o": 1.05559,
    "h": 1.05608,
    "l": 1.05521,
    "c": 1.05599,
    "v": 1573
  },
  {
    "dt": "2020.04.03 08:00",
    "o": 1.05598,
    "h": 1.05632,
    "l": 1.05571,
    "c": 1.05605,
    "v": 1530
  },
  {
    "dt": "2020.04.03 09:00",
    "o": 1.05605,
    "h": 1.05626,
    "l": 1.05497,
    "c": 1.05512,
    "v": 2398
  },
  {
    "dt": "2020.04.03 10:00",
    "o": 1.05511,
    "h": 1.05533,
    "l": 1.05453,
    "c": 1.0546,
    "v": 3408
  },
  {
    "dt": "2020.04.03 11:00",
    "o": 1.0546,
    "h": 1.05588,
    "l": 1.05454,
    "c": 1.05494,
    "v": 3101
  },
  {
    "dt": "2020.04.03 12:00",
    "o": 1.055,
    "h": 1.05539,
    "l": 1.05443,
    "c": 1.05464,
    "v": 2813
  },
  {
    "dt": "2020.04.03 13:00",
    "o": 1.05464,
    "h": 1.05528,
    "l": 1.05437,
    "c": 1.05469,
    "v": 2458
  },
  {
    "dt": "2020.04.03 14:00",
    "o": 1.05467,
    "h": 1.05479,
    "l": 1.05424,
    "c": 1.05428,
    "v": 2454
  },
  {
    "dt": "2020.04.03 15:00",
    "o": 1.05429,
    "h": 1.05547,
    "l": 1.05426,
    "c": 1.0554,
    "v": 3689
  },
  {
    "dt": "2020.04.03 16:00",
    "o": 1.05544,
    "h": 1.05582,
    "l": 1.05481,
    "c": 1.05571,
    "v": 3088
  },
  {
    "dt": "2020.04.03 17:00",
    "o": 1.05572,
    "h": 1.05592,
    "l": 1.05488,
    "c": 1.05571,
    "v": 3333
  },
  {
    "dt": "2020.04.03 18:00",
    "o": 1.05571,
    "h": 1.056,
    "l": 1.05533,
    "c": 1.05555,
    "v": 2868
  },
  {
    "dt": "2020.04.03 19:00",
    "o": 1.05554,
    "h": 1.05612,
    "l": 1.05483,
    "c": 1.05529,
    "v": 2541
  },
  {
    "dt": "2020.04.03 20:00",
    "o": 1.0553,
    "h": 1.05571,
    "l": 1.05513,
    "c": 1.05525,
    "v": 1854
  },
  {
    "dt": "2020.04.03 21:00",
    "o": 1.05525,
    "h": 1.05585,
    "l": 1.05509,
    "c": 1.05511,
    "v": 1844
  },
  {
    "dt": "2020.04.03 22:00",
    "o": 1.0551,
    "h": 1.05595,
    "l": 1.05483,
    "c": 1.05552,
    "v": 2229
  },
  {
    "dt": "2020.04.03 23:00",
    "o": 1.05551,
    "h": 1.0561,
    "l": 1.05476,
    "c": 1.05546,
    "v": 1718
  },
  {
    "dt": "2020.04.06 00:00",
    "o": 1.0556,
    "h": 1.05617,
    "l": 1.05551,
    "c": 1.05559,
    "v": 50
  },
  {
    "dt": "2020.04.06 01:00",
    "o": 1.05565,
    "h": 1.05659,
    "l": 1.05548,
    "c": 1.05601,
    "v": 1708
  },
  {
    "dt": "2020.04.06 02:00",
    "o": 1.05593,
    "h": 1.05658,
    "l": 1.05593,
    "c": 1.056,
    "v": 1638
  },
  {
    "dt": "2020.04.06 03:00",
    "o": 1.05604,
    "h": 1.0572,
    "l": 1.05592,
    "c": 1.05697,
    "v": 2142
  },
  {
    "dt": "2020.04.06 04:00",
    "o": 1.05698,
    "h": 1.05734,
    "l": 1.05623,
    "c": 1.05648,
    "v": 1863
  },
  {
    "dt": "2020.04.06 05:00",
    "o": 1.05648,
    "h": 1.05685,
    "l": 1.05617,
    "c": 1.05674,
    "v": 1699
  },
  {
    "dt": "2020.04.06 06:00",
    "o": 1.05675,
    "h": 1.05718,
    "l": 1.05663,
    "c": 1.0568,
    "v": 1893
  },
  {
    "dt": "2020.04.06 07:00",
    "o": 1.0568,
    "h": 1.05735,
    "l": 1.05679,
    "c": 1.05719,
    "v": 1772
  },
  {
    "dt": "2020.04.06 08:00",
    "o": 1.05719,
    "h": 1.05806,
    "l": 1.05713,
    "c": 1.05779,
    "v": 1950
  },
  {
    "dt": "2020.04.06 09:00",
    "o": 1.05779,
    "h": 1.05785,
    "l": 1.05656,
    "c": 1.05681,
    "v": 2208
  },
  {
    "dt": "2020.04.06 10:00",
    "o": 1.05682,
    "h": 1.05741,
    "l": 1.05648,
    "c": 1.05665,
    "v": 2839
  },
  {
    "dt": "2020.04.06 11:00",
    "o": 1.05665,
    "h": 1.05669,
    "l": 1.05518,
    "c": 1.05571,
    "v": 2934
  },
  {
    "dt": "2020.04.06 12:00",
    "o": 1.05573,
    "h": 1.05663,
    "l": 1.05547,
    "c": 1.05656,
    "v": 2823
  },
  {
    "dt": "2020.04.06 13:00",
    "o": 1.05653,
    "h": 1.05707,
    "l": 1.05623,
    "c": 1.05623,
    "v": 2298
  },
  {
    "dt": "2020.04.06 14:00",
    "o": 1.05623,
    "h": 1.05637,
    "l": 1.05543,
    "c": 1.05593,
    "v": 2627
  },
  {
    "dt": "2020.04.06 15:00",
    "o": 1.05593,
    "h": 1.05609,
    "l": 1.05528,
    "c": 1.05543,
    "v": 2747
  },
  {
    "dt": "2020.04.06 16:00",
    "o": 1.05545,
    "h": 1.05589,
    "l": 1.05494,
    "c": 1.05589,
    "v": 2646
  },
  {
    "dt": "2020.04.06 17:00",
    "o": 1.05604,
    "h": 1.05654,
    "l": 1.05502,
    "c": 1.05525,
    "v": 3106
  },
  {
    "dt": "2020.04.06 18:00",
    "o": 1.05524,
    "h": 1.05628,
    "l": 1.05522,
    "c": 1.05566,
    "v": 2477
  },
  {
    "dt": "2020.04.06 19:00",
    "o": 1.05564,
    "h": 1.05603,
    "l": 1.05526,
    "c": 1.05571,
    "v": 2094
  },
  {
    "dt": "2020.04.06 20:00",
    "o": 1.05572,
    "h": 1.05622,
    "l": 1.05568,
    "c": 1.05612,
    "v": 1778
  },
  {
    "dt": "2020.04.06 21:00",
    "o": 1.05611,
    "h": 1.0564,
    "l": 1.05588,
    "c": 1.05612,
    "v": 1532
  },
  {
    "dt": "2020.04.06 22:00",
    "o": 1.05611,
    "h": 1.05626,
    "l": 1.05513,
    "c": 1.05624,
    "v": 2421
  },
  {
    "dt": "2020.04.06 23:00",
    "o": 1.05624,
    "h": 1.05637,
    "l": 1.0558,
    "c": 1.05602,
    "v": 1456
  },
  {
    "dt": "2020.04.07 00:00",
    "o": 1.05608,
    "h": 1.05608,
    "l": 1.05558,
    "c": 1.05558,
    "v": 297
  },
  {
    "dt": "2020.04.07 01:00",
    "o": 1.05558,
    "h": 1.05637,
    "l": 1.05558,
    "c": 1.05584,
    "v": 1161
  },
  {
    "dt": "2020.04.07 02:00",
    "o": 1.05586,
    "h": 1.05643,
    "l": 1.05577,
    "c": 1.05635,
    "v": 1516
  },
  {
    "dt": "2020.04.07 03:00",
    "o": 1.05638,
    "h": 1.0564,
    "l": 1.05563,
    "c": 1.056,
    "v": 1951
  },
  {
    "dt": "2020.04.07 04:00",
    "o": 1.05601,
    "h": 1.05644,
    "l": 1.05596,
    "c": 1.05623,
    "v": 1871
  },
  {
    "dt": "2020.04.07 05:00",
    "o": 1.05624,
    "h": 1.05657,
    "l": 1.05611,
    "c": 1.05649,
    "v": 1653
  },
  {
    "dt": "2020.04.07 06:00",
    "o": 1.05648,
    "h": 1.05657,
    "l": 1.05607,
    "c": 1.05616,
    "v": 1637
  },
  {
    "dt": "2020.04.07 07:00",
    "o": 1.05616,
    "h": 1.05663,
    "l": 1.05557,
    "c": 1.05641,
    "v": 1981
  },
  {
    "dt": "2020.04.07 08:00",
    "o": 1.05643,
    "h": 1.05701,
    "l": 1.05635,
    "c": 1.05695,
    "v": 2169
  },
  {
    "dt": "2020.04.07 09:00",
    "o": 1.05694,
    "h": 1.05788,
    "l": 1.05688,
    "c": 1.05766,
    "v": 2750
  },
  {
    "dt": "2020.04.07 10:00",
    "o": 1.05774,
    "h": 1.05835,
    "l": 1.05725,
    "c": 1.05824,
    "v": 3070
  },
  {
    "dt": "2020.04.07 11:00",
    "o": 1.05823,
    "h": 1.05829,
    "l": 1.05651,
    "c": 1.05721,
    "v": 2469
  },
  {
    "dt": "2020.04.07 12:00",
    "o": 1.05722,
    "h": 1.05818,
    "l": 1.05706,
    "c": 1.05815,
    "v": 2672
  },
  {
    "dt": "2020.04.07 13:00",
    "o": 1.05817,
    "h": 1.05872,
    "l": 1.05802,
    "c": 1.05857,
    "v": 2486
  },
  {
    "dt": "2020.04.07 14:00",
    "o": 1.05863,
    "h": 1.05868,
    "l": 1.05735,
    "c": 1.05763,
    "v": 2606
  },
  {
    "dt": "2020.04.07 15:00",
    "o": 1.05761,
    "h": 1.05936,
    "l": 1.05752,
    "c": 1.05835,
    "v": 2855
  },
  {
    "dt": "2020.04.07 16:00",
    "o": 1.05836,
    "h": 1.05872,
    "l": 1.05719,
    "c": 1.05822,
    "v": 2793
  },
  {
    "dt": "2020.04.07 17:00",
    "o": 1.05819,
    "h": 1.05868,
    "l": 1.05681,
    "c": 1.05711,
    "v": 3338
  },
  {
    "dt": "2020.04.07 18:00",
    "o": 1.05714,
    "h": 1.05754,
    "l": 1.0564,
    "c": 1.05673,
    "v": 2702
  },
  {
    "dt": "2020.04.07 19:00",
    "o": 1.05673,
    "h": 1.05791,
    "l": 1.05658,
    "c": 1.05756,
    "v": 2553
  },
  {
    "dt": "2020.04.07 20:00",
    "o": 1.05757,
    "h": 1.05787,
    "l": 1.05707,
    "c": 1.05717,
    "v": 2086
  },
  {
    "dt": "2020.04.07 21:00",
    "o": 1.05716,
    "h": 1.05722,
    "l": 1.05634,
    "c": 1.05659,
    "v": 2313
  },
  {
    "dt": "2020.04.07 22:00",
    "o": 1.05648,
    "h": 1.05676,
    "l": 1.05629,
    "c": 1.05633,
    "v": 2168
  },
  {
    "dt": "2020.04.07 23:00",
    "o": 1.05632,
    "h": 1.05632,
    "l": 1.05594,
    "c": 1.05602,
    "v": 1137
  },
  {
    "dt": "2020.04.08 00:00",
    "o": 1.056,
    "h": 1.05629,
    "l": 1.05573,
    "c": 1.05622,
    "v": 515
  },
  {
    "dt": "2020.04.08 01:00",
    "o": 1.05623,
    "h": 1.05623,
    "l": 1.05586,
    "c": 1.056,
    "v": 760
  },
  {
    "dt": "2020.04.08 02:00",
    "o": 1.05598,
    "h": 1.05619,
    "l": 1.05583,
    "c": 1.05596,
    "v": 1340
  },
  {
    "dt": "2020.04.08 03:00",
    "o": 1.05596,
    "h": 1.05606,
    "l": 1.05559,
    "c": 1.05563,
    "v": 2639
  },
  {
    "dt": "2020.04.08 04:00",
    "o": 1.05565,
    "h": 1.05609,
    "l": 1.05558,
    "c": 1.05566,
    "v": 2002
  },
  {
    "dt": "2020.04.08 05:00",
    "o": 1.05567,
    "h": 1.05595,
    "l": 1.05564,
    "c": 1.05593,
    "v": 1556
  },
  {
    "dt": "2020.04.08 06:00",
    "o": 1.05593,
    "h": 1.05601,
    "l": 1.05558,
    "c": 1.05571,
    "v": 1396
  },
  {
    "dt": "2020.04.08 07:00",
    "o": 1.05572,
    "h": 1.05639,
    "l": 1.05569,
    "c": 1.05617,
    "v": 1803
  },
  {
    "dt": "2020.04.08 08:00",
    "o": 1.05613,
    "h": 1.0567,
    "l": 1.05582,
    "c": 1.05657,
    "v": 2240
  },
  {
    "dt": "2020.04.08 09:00",
    "o": 1.05655,
    "h": 1.05655,
    "l": 1.05503,
    "c": 1.05532,
    "v": 3324
  },
  {
    "dt": "2020.04.08 10:00",
    "o": 1.05534,
    "h": 1.05581,
    "l": 1.05503,
    "c": 1.05547,
    "v": 2970
  },
  {
    "dt": "2020.04.08 11:00",
    "o": 1.05548,
    "h": 1.05558,
    "l": 1.05499,
    "c": 1.05512,
    "v": 2249
  },
  {
    "dt": "2020.04.08 12:00",
    "o": 1.05515,
    "h": 1.05565,
    "l": 1.05511,
    "c": 1.05519,
    "v": 2319
  },
  {
    "dt": "2020.04.08 13:00",
    "o": 1.0552,
    "h": 1.056,
    "l": 1.05502,
    "c": 1.05583,
    "v": 2037
  },
  {
    "dt": "2020.04.08 14:00",
    "o": 1.05584,
    "h": 1.05616,
    "l": 1.05542,
    "c": 1.05576,
    "v": 2668
  },
  {
    "dt": "2020.04.08 15:00",
    "o": 1.05576,
    "h": 1.05629,
    "l": 1.05542,
    "c": 1.05548,
    "v": 2326
  },
  {
    "dt": "2020.04.08 16:00",
    "o": 1.05548,
    "h": 1.0559,
    "l": 1.0549,
    "c": 1.05552,
    "v": 2976
  },
  {
    "dt": "2020.04.08 17:00",
    "o": 1.05554,
    "h": 1.05593,
    "l": 1.05485,
    "c": 1.0549,
    "v": 2709
  },
  {
    "dt": "2020.04.08 18:00",
    "o": 1.0549,
    "h": 1.05552,
    "l": 1.05484,
    "c": 1.05495,
    "v": 2797
  },
  {
    "dt": "2020.04.08 19:00",
    "o": 1.05492,
    "h": 1.05522,
    "l": 1.0548,
    "c": 1.05506,
    "v": 2310
  },
  {
    "dt": "2020.04.08 20:00",
    "o": 1.05506,
    "h": 1.05522,
    "l": 1.05478,
    "c": 1.05499,
    "v": 1674
  },
  {
    "dt": "2020.04.08 21:00",
    "o": 1.05499,
    "h": 1.05529,
    "l": 1.05476,
    "c": 1.05493,
    "v": 2026
  },
  {
    "dt": "2020.04.08 22:00",
    "o": 1.05493,
    "h": 1.05521,
    "l": 1.05478,
    "c": 1.05485,
    "v": 1559
  },
  {
    "dt": "2020.04.08 23:00",
    "o": 1.05485,
    "h": 1.05539,
    "l": 1.0548,
    "c": 1.05528,
    "v": 894
  },
  {
    "dt": "2020.04.09 00:00",
    "o": 1.05485,
    "h": 1.0551,
    "l": 1.05485,
    "c": 1.05509,
    "v": 304
  },
  {
    "dt": "2020.04.09 01:00",
    "o": 1.05504,
    "h": 1.05569,
    "l": 1.05502,
    "c": 1.05541,
    "v": 805
  },
  {
    "dt": "2020.04.09 02:00",
    "o": 1.05543,
    "h": 1.0556,
    "l": 1.05537,
    "c": 1.05545,
    "v": 975
  },
  {
    "dt": "2020.04.09 03:00",
    "o": 1.05545,
    "h": 1.05579,
    "l": 1.05539,
    "c": 1.05558,
    "v": 1668
  },
  {
    "dt": "2020.04.09 04:00",
    "o": 1.05557,
    "h": 1.05582,
    "l": 1.05529,
    "c": 1.0554,
    "v": 1814
  },
  {
    "dt": "2020.04.09 05:00",
    "o": 1.0554,
    "h": 1.05554,
    "l": 1.05529,
    "c": 1.05546,
    "v": 1423
  },
  {
    "dt": "2020.04.09 06:00",
    "o": 1.05547,
    "h": 1.05577,
    "l": 1.05537,
    "c": 1.05566,
    "v": 1387
  },
  {
    "dt": "2020.04.09 07:00",
    "o": 1.05568,
    "h": 1.05577,
    "l": 1.05545,
    "c": 1.05555,
    "v": 1205
  },
  {
    "dt": "2020.04.09 08:00",
    "o": 1.05551,
    "h": 1.05557,
    "l": 1.0552,
    "c": 1.05529,
    "v": 1259
  },
  {
    "dt": "2020.04.09 09:00",
    "o": 1.05529,
    "h": 1.05545,
    "l": 1.05504,
    "c": 1.05542,
    "v": 2477
  },
  {
    "dt": "2020.04.09 10:00",
    "o": 1.05541,
    "h": 1.05596,
    "l": 1.05522,
    "c": 1.05564,
    "v": 2749
  },
  {
    "dt": "2020.04.09 11:00",
    "o": 1.05573,
    "h": 1.05578,
    "l": 1.05502,
    "c": 1.05532,
    "v": 2338
  },
  {
    "dt": "2020.04.09 12:00",
    "o": 1.05531,
    "h": 1.0555,
    "l": 1.05493,
    "c": 1.05535,
    "v": 2506
  },
  {
    "dt": "2020.04.09 13:00",
    "o": 1.05538,
    "h": 1.05556,
    "l": 1.05494,
    "c": 1.05502,
    "v": 2269
  },
  {
    "dt": "2020.04.09 14:00",
    "o": 1.05502,
    "h": 1.05545,
    "l": 1.05489,
    "c": 1.05538,
    "v": 2401
  },
  {
    "dt": "2020.04.09 15:00",
    "o": 1.05538,
    "h": 1.05653,
    "l": 1.05534,
    "c": 1.05637,
    "v": 3027
  },
  {
    "dt": "2020.04.09 16:00",
    "o": 1.0564,
    "h": 1.05817,
    "l": 1.05627,
    "c": 1.05774,
    "v": 3960
  },
  {
    "dt": "2020.04.09 17:00",
    "o": 1.05775,
    "h": 1.05782,
    "l": 1.05621,
    "c": 1.05637,
    "v": 3447
  },
  {
    "dt": "2020.04.09 18:00",
    "o": 1.05639,
    "h": 1.05671,
    "l": 1.05585,
    "c": 1.05588,
    "v": 2970
  },
  {
    "dt": "2020.04.09 19:00",
    "o": 1.05588,
    "h": 1.05673,
    "l": 1.0558,
    "c": 1.05672,
    "v": 2199
  },
  {
    "dt": "2020.04.09 20:00",
    "o": 1.05667,
    "h": 1.05667,
    "l": 1.05598,
    "c": 1.05618,
    "v": 2414
  },
  {
    "dt": "2020.04.09 21:00",
    "o": 1.05617,
    "h": 1.05657,
    "l": 1.05582,
    "c": 1.05597,
    "v": 2461
  },
  {
    "dt": "2020.04.09 22:00",
    "o": 1.05596,
    "h": 1.05624,
    "l": 1.05577,
    "c": 1.05616,
    "v": 2142
  },
  {
    "dt": "2020.04.09 23:00",
    "o": 1.05614,
    "h": 1.05648,
    "l": 1.05572,
    "c": 1.05592,
    "v": 1369
  },
  {
    "dt": "2020.04.10 00:00",
    "o": 1.05588,
    "h": 1.0563,
    "l": 1.05575,
    "c": 1.0558,
    "v": 526
  },
  {
    "dt": "2020.04.10 01:00",
    "o": 1.0558,
    "h": 1.05648,
    "l": 1.05559,
    "c": 1.05611,
    "v": 857
  },
  {
    "dt": "2020.04.10 02:00",
    "o": 1.0561,
    "h": 1.05673,
    "l": 1.05609,
    "c": 1.05626,
    "v": 1102
  },
  {
    "dt": "2020.04.10 03:00",
    "o": 1.05626,
    "h": 1.05657,
    "l": 1.05623,
    "c": 1.05636,
    "v": 497
  },
  {
    "dt": "2020.04.10 04:00",
    "o": 1.05633,
    "h": 1.05642,
    "l": 1.05601,
    "c": 1.05624,
    "v": 766
  },
  {
    "dt": "2020.04.10 05:00",
    "o": 1.05628,
    "h": 1.0563,
    "l": 1.0557,
    "c": 1.05619,
    "v": 858
  },
  {
    "dt": "2020.04.10 06:00",
    "o": 1.05619,
    "h": 1.05665,
    "l": 1.05588,
    "c": 1.05622,
    "v": 1228
  },
  {
    "dt": "2020.04.10 07:00",
    "o": 1.05625,
    "h": 1.05659,
    "l": 1.05584,
    "c": 1.05643,
    "v": 664
  },
  {
    "dt": "2020.04.10 08:00",
    "o": 1.05641,
    "h": 1.05677,
    "l": 1.05613,
    "c": 1.05646,
    "v": 1165
  },
  {
    "dt": "2020.04.10 09:00",
    "o": 1.05643,
    "h": 1.05664,
    "l": 1.05628,
    "c": 1.05664,
    "v": 1378
  },
  {
    "dt": "2020.04.10 10:00",
    "o": 1.05667,
    "h": 1.0569,
    "l": 1.05586,
    "c": 1.05647,
    "v": 1537
  },
  {
    "dt": "2020.04.10 11:00",
    "o": 1.05648,
    "h": 1.05706,
    "l": 1.05602,
    "c": 1.05615,
    "v": 1595
  },
  {
    "dt": "2020.04.10 12:00",
    "o": 1.05618,
    "h": 1.05641,
    "l": 1.05586,
    "c": 1.0561,
    "v": 1298
  },
  {
    "dt": "2020.04.10 13:00",
    "o": 1.05609,
    "h": 1.05628,
    "l": 1.05569,
    "c": 1.0558,
    "v": 776
  },
  {
    "dt": "2020.04.10 14:00",
    "o": 1.0558,
    "h": 1.05592,
    "l": 1.05564,
    "c": 1.05589,
    "v": 1407
  },
  {
    "dt": "2020.04.10 15:00",
    "o": 1.05589,
    "h": 1.05597,
    "l": 1.05569,
    "c": 1.05592,
    "v": 1702
  },
  {
    "dt": "2020.04.10 16:00",
    "o": 1.05592,
    "h": 1.05636,
    "l": 1.05577,
    "c": 1.05595,
    "v": 1648
  },
  {
    "dt": "2020.04.10 17:00",
    "o": 1.05595,
    "h": 1.05646,
    "l": 1.0559,
    "c": 1.05644,
    "v": 1051
  },
  {
    "dt": "2020.04.10 18:00",
    "o": 1.05644,
    "h": 1.05649,
    "l": 1.05585,
    "c": 1.05617,
    "v": 1694
  },
  {
    "dt": "2020.04.10 19:00",
    "o": 1.05614,
    "h": 1.0565,
    "l": 1.05573,
    "c": 1.05584,
    "v": 1464
  },
  {
    "dt": "2020.04.10 20:00",
    "o": 1.05584,
    "h": 1.05603,
    "l": 1.05518,
    "c": 1.05552,
    "v": 1233
  },
  {
    "dt": "2020.04.10 21:00",
    "o": 1.05557,
    "h": 1.05579,
    "l": 1.05548,
    "c": 1.05569,
    "v": 812
  },
  {
    "dt": "2020.04.10 22:00",
    "o": 1.05569,
    "h": 1.05596,
    "l": 1.05533,
    "c": 1.05569,
    "v": 911
  },
  {
    "dt": "2020.04.10 23:00",
    "o": 1.0557,
    "h": 1.05628,
    "l": 1.05553,
    "c": 1.05623,
    "v": 220
  },
  {
    "dt": "2020.04.13 00:00",
    "o": 1.0565,
    "h": 1.0565,
    "l": 1.05598,
    "c": 1.05619,
    "v": 15
  },
  {
    "dt": "2020.04.13 01:00",
    "o": 1.05618,
    "h": 1.05619,
    "l": 1.05535,
    "c": 1.0558,
    "v": 824
  },
  {
    "dt": "2020.04.13 02:00",
    "o": 1.05595,
    "h": 1.05607,
    "l": 1.05564,
    "c": 1.05583,
    "v": 1078
  },
  {
    "dt": "2020.04.13 03:00",
    "o": 1.05581,
    "h": 1.05611,
    "l": 1.05572,
    "c": 1.05589,
    "v": 1628
  },
  {
    "dt": "2020.04.13 04:00",
    "o": 1.05589,
    "h": 1.05613,
    "l": 1.05558,
    "c": 1.05586,
    "v": 1379
  },
  {
    "dt": "2020.04.13 05:00",
    "o": 1.05587,
    "h": 1.05623,
    "l": 1.0557,
    "c": 1.05615,
    "v": 831
  },
  {
    "dt": "2020.04.13 06:00",
    "o": 1.05614,
    "h": 1.05634,
    "l": 1.05553,
    "c": 1.05555,
    "v": 1068
  },
  {
    "dt": "2020.04.13 07:00",
    "o": 1.05555,
    "h": 1.05604,
    "l": 1.05555,
    "c": 1.05564,
    "v": 950
  },
  {
    "dt": "2020.04.13 08:00",
    "o": 1.05565,
    "h": 1.05577,
    "l": 1.05552,
    "c": 1.05566,
    "v": 640
  },
  {
    "dt": "2020.04.13 09:00",
    "o": 1.05566,
    "h": 1.05618,
    "l": 1.05557,
    "c": 1.05576,
    "v": 1912
  },
  {
    "dt": "2020.04.13 10:00",
    "o": 1.05576,
    "h": 1.05629,
    "l": 1.05564,
    "c": 1.05596,
    "v": 1769
  },
  {
    "dt": "2020.04.13 11:00",
    "o": 1.05575,
    "h": 1.05631,
    "l": 1.05563,
    "c": 1.05626,
    "v": 1993
  },
  {
    "dt": "2020.04.13 12:00",
    "o": 1.05611,
    "h": 1.05665,
    "l": 1.05608,
    "c": 1.05657,
    "v": 1238
  },
  {
    "dt": "2020.04.13 13:00",
    "o": 1.05656,
    "h": 1.05656,
    "l": 1.05539,
    "c": 1.05546,
    "v": 2022
  },
  {
    "dt": "2020.04.13 14:00",
    "o": 1.05545,
    "h": 1.05598,
    "l": 1.05545,
    "c": 1.05584,
    "v": 1937
  },
  {
    "dt": "2020.04.13 15:00",
    "o": 1.05583,
    "h": 1.05604,
    "l": 1.05548,
    "c": 1.05558,
    "v": 2503
  },
  {
    "dt": "2020.04.13 16:00",
    "o": 1.05558,
    "h": 1.05568,
    "l": 1.05538,
    "c": 1.05555,
    "v": 2243
  },
  {
    "dt": "2020.04.13 17:00",
    "o": 1.05555,
    "h": 1.05562,
    "l": 1.05511,
    "c": 1.05511,
    "v": 2010
  },
  {
    "dt": "2020.04.13 18:00",
    "o": 1.05511,
    "h": 1.05527,
    "l": 1.05493,
    "c": 1.055,
    "v": 1686
  },
  {
    "dt": "2020.04.13 19:00",
    "o": 1.05501,
    "h": 1.05522,
    "l": 1.05495,
    "c": 1.05515,
    "v": 1620
  },
  {
    "dt": "2020.04.13 20:00",
    "o": 1.05516,
    "h": 1.05561,
    "l": 1.05495,
    "c": 1.0554,
    "v": 1409
  },
  {
    "dt": "2020.04.13 21:00",
    "o": 1.0554,
    "h": 1.05562,
    "l": 1.05505,
    "c": 1.05533,
    "v": 1503
  },
  {
    "dt": "2020.04.13 22:00",
    "o": 1.05534,
    "h": 1.05563,
    "l": 1.05517,
    "c": 1.0556,
    "v": 1266
  },
  {
    "dt": "2020.04.13 23:00",
    "o": 1.05562,
    "h": 1.05563,
    "l": 1.05529,
    "c": 1.05539,
    "v": 935
  },
  {
    "dt": "2020.04.14 00:00",
    "o": 1.05538,
    "h": 1.05548,
    "l": 1.05525,
    "c": 1.05546,
    "v": 158
  },
  {
    "dt": "2020.04.14 01:00",
    "o": 1.05547,
    "h": 1.05569,
    "l": 1.05532,
    "c": 1.05551,
    "v": 364
  },
  {
    "dt": "2020.04.14 02:00",
    "o": 1.05551,
    "h": 1.05576,
    "l": 1.05543,
    "c": 1.05563,
    "v": 675
  },
  {
    "dt": "2020.04.14 03:00",
    "o": 1.05563,
    "h": 1.05569,
    "l": 1.05487,
    "c": 1.05492,
    "v": 1454
  },
  {
    "dt": "2020.04.14 04:00",
    "o": 1.05491,
    "h": 1.05551,
    "l": 1.05488,
    "c": 1.05538,
    "v": 1364
  },
  {
    "dt": "2020.04.14 05:00",
    "o": 1.05539,
    "h": 1.05567,
    "l": 1.05517,
    "c": 1.05542,
    "v": 1536
  },
  {
    "dt": "2020.04.14 06:00",
    "o": 1.05542,
    "h": 1.05562,
    "l": 1.05523,
    "c": 1.05553,
    "v": 1125
  },
  {
    "dt": "2020.04.14 07:00",
    "o": 1.05554,
    "h": 1.05575,
    "l": 1.0552,
    "c": 1.05558,
    "v": 1107
  },
  {
    "dt": "2020.04.14 08:00",
    "o": 1.05554,
    "h": 1.05587,
    "l": 1.05547,
    "c": 1.05551,
    "v": 1369
  },
  {
    "dt": "2020.04.14 09:00",
    "o": 1.05548,
    "h": 1.05581,
    "l": 1.05491,
    "c": 1.05509,
    "v": 2049
  },
  {
    "dt": "2020.04.14 10:00",
    "o": 1.05508,
    "h": 1.0553,
    "l": 1.05447,
    "c": 1.05456,
    "v": 2081
  },
  {
    "dt": "2020.04.14 11:00",
    "o": 1.05456,
    "h": 1.05467,
    "l": 1.05399,
    "c": 1.05415,
    "v": 2029
  },
  {
    "dt": "2020.04.14 12:00",
    "o": 1.05412,
    "h": 1.05514,
    "l": 1.05407,
    "c": 1.0545,
    "v": 1951
  },
  {
    "dt": "2020.04.14 13:00",
    "o": 1.05452,
    "h": 1.05473,
    "l": 1.05428,
    "c": 1.05434,
    "v": 1873
  },
  {
    "dt": "2020.04.14 14:00",
    "o": 1.05434,
    "h": 1.0546,
    "l": 1.05397,
    "c": 1.05428,
    "v": 1737
  },
  {
    "dt": "2020.04.14 15:00",
    "o": 1.05473,
    "h": 1.05482,
    "l": 1.054,
    "c": 1.05427,
    "v": 2264
  },
  {
    "dt": "2020.04.14 16:00",
    "o": 1.05428,
    "h": 1.05447,
    "l": 1.05388,
    "c": 1.05441,
    "v": 2241
  },
  {
    "dt": "2020.04.14 17:00",
    "o": 1.05407,
    "h": 1.05439,
    "l": 1.05367,
    "c": 1.05374,
    "v": 2055
  },
  {
    "dt": "2020.04.14 18:00",
    "o": 1.05374,
    "h": 1.05382,
    "l": 1.05343,
    "c": 1.05372,
    "v": 2244
  },
  {
    "dt": "2020.04.14 19:00",
    "o": 1.05373,
    "h": 1.05404,
    "l": 1.05351,
    "c": 1.05385,
    "v": 1418
  },
  {
    "dt": "2020.04.14 20:00",
    "o": 1.05394,
    "h": 1.05451,
    "l": 1.05385,
    "c": 1.05438,
    "v": 1349
  },
  {
    "dt": "2020.04.14 21:00",
    "o": 1.05441,
    "h": 1.05459,
    "l": 1.05401,
    "c": 1.05447,
    "v": 1648
  },
  {
    "dt": "2020.04.14 22:00",
    "o": 1.05446,
    "h": 1.0548,
    "l": 1.0544,
    "c": 1.05472,
    "v": 745
  },
  {
    "dt": "2020.04.14 23:00",
    "o": 1.05473,
    "h": 1.05481,
    "l": 1.05432,
    "c": 1.05446,
    "v": 1312
  },
  {
    "dt": "2020.04.15 00:00",
    "o": 1.05452,
    "h": 1.05464,
    "l": 1.0544,
    "c": 1.05449,
    "v": 197
  },
  {
    "dt": "2020.04.15 01:00",
    "o": 1.05448,
    "h": 1.05471,
    "l": 1.05437,
    "c": 1.05452,
    "v": 448
  },
  {
    "dt": "2020.04.15 02:00",
    "o": 1.05452,
    "h": 1.05465,
    "l": 1.0545,
    "c": 1.05453,
    "v": 765
  },
  {
    "dt": "2020.04.15 03:00",
    "o": 1.05454,
    "h": 1.05487,
    "l": 1.05438,
    "c": 1.05454,
    "v": 1155
  },
  {
    "dt": "2020.04.15 04:00",
    "o": 1.05454,
    "h": 1.0548,
    "l": 1.05446,
    "c": 1.05473,
    "v": 1001
  },
  {
    "dt": "2020.04.15 05:00",
    "o": 1.05474,
    "h": 1.05478,
    "l": 1.0545,
    "c": 1.0546,
    "v": 820
  },
  {
    "dt": "2020.04.15 06:00",
    "o": 1.05462,
    "h": 1.05491,
    "l": 1.05452,
    "c": 1.05477,
    "v": 848
  },
  {
    "dt": "2020.04.15 07:00",
    "o": 1.05476,
    "h": 1.05485,
    "l": 1.05447,
    "c": 1.05457,
    "v": 727
  },
  {
    "dt": "2020.04.15 08:00",
    "o": 1.05457,
    "h": 1.05482,
    "l": 1.05436,
    "c": 1.05444,
    "v": 988
  },
  {
    "dt": "2020.04.15 09:00",
    "o": 1.05444,
    "h": 1.05506,
    "l": 1.05412,
    "c": 1.05421,
    "v": 2030
  },
  {
    "dt": "2020.04.15 10:00",
    "o": 1.05422,
    "h": 1.05437,
    "l": 1.05383,
    "c": 1.05396,
    "v": 2883
  },
  {
    "dt": "2020.04.15 11:00",
    "o": 1.05393,
    "h": 1.05397,
    "l": 1.05361,
    "c": 1.05386,
    "v": 2393
  },
  {
    "dt": "2020.04.15 12:00",
    "o": 1.05385,
    "h": 1.05385,
    "l": 1.05349,
    "c": 1.05378,
    "v": 2180
  },
  {
    "dt": "2020.04.15 13:00",
    "o": 1.05379,
    "h": 1.05382,
    "l": 1.05328,
    "c": 1.05336,
    "v": 1965
  },
  {
    "dt": "2020.04.15 14:00",
    "o": 1.05341,
    "h": 1.05392,
    "l": 1.05326,
    "c": 1.05333,
    "v": 1509
  },
  {
    "dt": "2020.04.15 15:00",
    "o": 1.05339,
    "h": 1.05391,
    "l": 1.05318,
    "c": 1.05322,
    "v": 1598
  },
  {
    "dt": "2020.04.15 16:00",
    "o": 1.05303,
    "h": 1.05347,
    "l": 1.05289,
    "c": 1.05301,
    "v": 2652
  },
  {
    "dt": "2020.04.15 17:00",
    "o": 1.053,
    "h": 1.05317,
    "l": 1.05258,
    "c": 1.05272,
    "v": 2892
  },
  {
    "dt": "2020.04.15 18:00",
    "o": 1.05271,
    "h": 1.05284,
    "l": 1.05229,
    "c": 1.05235,
    "v": 2631
  },
  {
    "dt": "2020.04.15 19:00",
    "o": 1.05235,
    "h": 1.05286,
    "l": 1.05231,
    "c": 1.05252,
    "v": 1819
  },
  {
    "dt": "2020.04.15 20:00",
    "o": 1.05252,
    "h": 1.05301,
    "l": 1.05238,
    "c": 1.05284,
    "v": 1838
  },
  {
    "dt": "2020.04.15 21:00",
    "o": 1.05282,
    "h": 1.05282,
    "l": 1.05238,
    "c": 1.05244,
    "v": 1703
  },
  {
    "dt": "2020.04.15 22:00",
    "o": 1.05244,
    "h": 1.05279,
    "l": 1.05234,
    "c": 1.05271,
    "v": 1581
  },
  {
    "dt": "2020.04.15 23:00",
    "o": 1.0527,
    "h": 1.05275,
    "l": 1.05225,
    "c": 1.05227,
    "v": 1059
  },
  {
    "dt": "2020.04.16 00:00",
    "o": 1.05232,
    "h": 1.0526,
    "l": 1.05232,
    "c": 1.05233,
    "v": 271
  },
  {
    "dt": "2020.04.16 01:00",
    "o": 1.05232,
    "h": 1.05243,
    "l": 1.05222,
    "c": 1.05226,
    "v": 603
  },
  {
    "dt": "2020.04.16 02:00",
    "o": 1.05225,
    "h": 1.05258,
    "l": 1.05219,
    "c": 1.05236,
    "v": 931
  },
  {
    "dt": "2020.04.16 03:00",
    "o": 1.05233,
    "h": 1.05254,
    "l": 1.05212,
    "c": 1.05227,
    "v": 1618
  },
  {
    "dt": "2020.04.16 04:00",
    "o": 1.05225,
    "h": 1.05248,
    "l": 1.05221,
    "c": 1.05232,
    "v": 1958
  },
  {
    "dt": "2020.04.16 05:00",
    "o": 1.05233,
    "h": 1.05267,
    "l": 1.05222,
    "c": 1.05224,
    "v": 1423
  },
  {
    "dt": "2020.04.16 06:00",
    "o": 1.05225,
    "h": 1.05267,
    "l": 1.05219,
    "c": 1.05223,
    "v": 1546
  },
  {
    "dt": "2020.04.16 07:00",
    "o": 1.05224,
    "h": 1.05239,
    "l": 1.05208,
    "c": 1.05214,
    "v": 1405
  },
  {
    "dt": "2020.04.16 08:00",
    "o": 1.05215,
    "h": 1.05231,
    "l": 1.05203,
    "c": 1.0522,
    "v": 1218
  },
  {
    "dt": "2020.04.16 09:00",
    "o": 1.05218,
    "h": 1.05242,
    "l": 1.05195,
    "c": 1.05195,
    "v": 2065
  },
  {
    "dt": "2020.04.16 10:00",
    "o": 1.05192,
    "h": 1.05221,
    "l": 1.05185,
    "c": 1.05185,
    "v": 2759
  },
  {
    "dt": "2020.04.16 11:00",
    "o": 1.05185,
    "h": 1.05219,
    "l": 1.05176,
    "c": 1.05184,
    "v": 2128
  },
  {
    "dt": "2020.04.16 12:00",
    "o": 1.05184,
    "h": 1.05192,
    "l": 1.05157,
    "c": 1.05168,
    "v": 1761
  },
  {
    "dt": "2020.04.16 13:00",
    "o": 1.05169,
    "h": 1.05182,
    "l": 1.05148,
    "c": 1.05152,
    "v": 2166
  },
  {
    "dt": "2020.04.16 14:00",
    "o": 1.05151,
    "h": 1.05157,
    "l": 1.05138,
    "c": 1.0514,
    "v": 2106
  },
  {
    "dt": "2020.04.16 15:00",
    "o": 1.0514,
    "h": 1.05178,
    "l": 1.05136,
    "c": 1.05173,
    "v": 2777
  },
  {
    "dt": "2020.04.16 16:00",
    "o": 1.05175,
    "h": 1.05181,
    "l": 1.05126,
    "c": 1.05141,
    "v": 2643
  },
  {
    "dt": "2020.04.16 17:00",
    "o": 1.05144,
    "h": 1.05153,
    "l": 1.05105,
    "c": 1.05116,
    "v": 3121
  },
  {
    "dt": "2020.04.16 18:00",
    "o": 1.05118,
    "h": 1.05118,
    "l": 1.05087,
    "c": 1.05092,
    "v": 2467
  },
  {
    "dt": "2020.04.16 19:00",
    "o": 1.05092,
    "h": 1.05103,
    "l": 1.05084,
    "c": 1.05087,
    "v": 2572
  },
  {
    "dt": "2020.04.16 20:00",
    "o": 1.05088,
    "h": 1.05113,
    "l": 1.05082,
    "c": 1.05091,
    "v": 1725
  },
  {
    "dt": "2020.04.16 21:00",
    "o": 1.0509,
    "h": 1.05112,
    "l": 1.05087,
    "c": 1.05089,
    "v": 1645
  },
  {
    "dt": "2020.04.16 22:00",
    "o": 1.05089,
    "h": 1.05101,
    "l": 1.05082,
    "c": 1.05082,
    "v": 1513
  },
  {
    "dt": "2020.04.16 23:00",
    "o": 1.05088,
    "h": 1.05165,
    "l": 1.05077,
    "c": 1.05136,
    "v": 956
  },
  {
    "dt": "2020.04.17 00:00",
    "o": 1.05158,
    "h": 1.05196,
    "l": 1.05103,
    "c": 1.05154,
    "v": 521
  },
  {
    "dt": "2020.04.17 01:00",
    "o": 1.05155,
    "h": 1.05232,
    "l": 1.05155,
    "c": 1.05228,
    "v": 1146
  },
  {
    "dt": "2020.04.17 02:00",
    "o": 1.05229,
    "h": 1.05268,
    "l": 1.0522,
    "c": 1.05229,
    "v": 1232
  },
  {
    "dt": "2020.04.17 03:00",
    "o": 1.05229,
    "h": 1.05247,
    "l": 1.05209,
    "c": 1.05223,
    "v": 1599
  },
  {
    "dt": "2020.04.17 04:00",
    "o": 1.05224,
    "h": 1.05259,
    "l": 1.05223,
    "c": 1.05237,
    "v": 1741
  },
  {
    "dt": "2020.04.17 05:00",
    "o": 1.05237,
    "h": 1.05263,
    "l": 1.05229,
    "c": 1.05259,
    "v": 1376
  },
  {
    "dt": "2020.04.17 06:00",
    "o": 1.05258,
    "h": 1.05268,
    "l": 1.05243,
    "c": 1.05249,
    "v": 1122
  },
  {
    "dt": "2020.04.17 07:00",
    "o": 1.05248,
    "h": 1.05265,
    "l": 1.05237,
    "c": 1.05245,
    "v": 1121
  },
  {
    "dt": "2020.04.17 08:00",
    "o": 1.05245,
    "h": 1.0527,
    "l": 1.05235,
    "c": 1.05245,
    "v": 1072
  },
  {
    "dt": "2020.04.17 09:00",
    "o": 1.05242,
    "h": 1.05247,
    "l": 1.05205,
    "c": 1.0521,
    "v": 2295
  },
  {
    "dt": "2020.04.17 10:00",
    "o": 1.05213,
    "h": 1.05214,
    "l": 1.05181,
    "c": 1.05187,
    "v": 2945
  },
  {
    "dt": "2020.04.17 11:00",
    "o": 1.05186,
    "h": 1.05197,
    "l": 1.05132,
    "c": 1.05147,
    "v": 2333
  },
  {
    "dt": "2020.04.17 12:00",
    "o": 1.05148,
    "h": 1.05177,
    "l": 1.05124,
    "c": 1.05146,
    "v": 2311
  },
  {
    "dt": "2020.04.17 13:00",
    "o": 1.05143,
    "h": 1.05175,
    "l": 1.05116,
    "c": 1.05142,
    "v": 2149
  },
  {
    "dt": "2020.04.17 14:00",
    "o": 1.05142,
    "h": 1.05158,
    "l": 1.05112,
    "c": 1.05118,
    "v": 2416
  },
  {
    "dt": "2020.04.17 15:00",
    "o": 1.05118,
    "h": 1.05154,
    "l": 1.05113,
    "c": 1.0512,
    "v": 2705
  },
  {
    "dt": "2020.04.17 16:00",
    "o": 1.05121,
    "h": 1.05194,
    "l": 1.05099,
    "c": 1.0518,
    "v": 3061
  },
  {
    "dt": "2020.04.17 17:00",
    "o": 1.05184,
    "h": 1.05195,
    "l": 1.05158,
    "c": 1.05169,
    "v": 3089
  },
  {
    "dt": "2020.04.17 18:00",
    "o": 1.05179,
    "h": 1.05189,
    "l": 1.05141,
    "c": 1.05155,
    "v": 2286
  },
  {
    "dt": "2020.04.17 19:00",
    "o": 1.05155,
    "h": 1.05161,
    "l": 1.05137,
    "c": 1.05139,
    "v": 2101
  },
  {
    "dt": "2020.04.17 20:00",
    "o": 1.0514,
    "h": 1.05175,
    "l": 1.05139,
    "c": 1.05154,
    "v": 1544
  },
  {
    "dt": "2020.04.17 21:00",
    "o": 1.05154,
    "h": 1.0517,
    "l": 1.05136,
    "c": 1.05143,
    "v": 1685
  },
  {
    "dt": "2020.04.17 22:00",
    "o": 1.05142,
    "h": 1.05168,
    "l": 1.05142,
    "c": 1.05156,
    "v": 1723
  },
  {
    "dt": "2020.04.17 23:00",
    "o": 1.05158,
    "h": 1.05187,
    "l": 1.05129,
    "c": 1.05129,
    "v": 1272
  },
  {
    "dt": "2020.04.20 00:00",
    "o": 1.0516,
    "h": 1.05183,
    "l": 1.05157,
    "c": 1.05162,
    "v": 139
  },
  {
    "dt": "2020.04.20 01:00",
    "o": 1.05161,
    "h": 1.05173,
    "l": 1.05151,
    "c": 1.05167,
    "v": 615
  },
  {
    "dt": "2020.04.20 02:00",
    "o": 1.0517,
    "h": 1.05173,
    "l": 1.05162,
    "c": 1.05167,
    "v": 599
  },
  {
    "dt": "2020.04.20 03:00",
    "o": 1.05165,
    "h": 1.05178,
    "l": 1.05163,
    "c": 1.05171,
    "v": 745
  },
  {
    "dt": "2020.04.20 04:00",
    "o": 1.05175,
    "h": 1.05177,
    "l": 1.05154,
    "c": 1.05164,
    "v": 810
  },
  {
    "dt": "2020.04.20 05:00",
    "o": 1.05161,
    "h": 1.05179,
    "l": 1.0516,
    "c": 1.05174,
    "v": 788
  },
  {
    "dt": "2020.04.20 06:00",
    "o": 1.05175,
    "h": 1.05187,
    "l": 1.05162,
    "c": 1.05167,
    "v": 591
  },
  {
    "dt": "2020.04.20 07:00",
    "o": 1.05166,
    "h": 1.05187,
    "l": 1.0516,
    "c": 1.0517,
    "v": 1051
  },
  {
    "dt": "2020.04.20 08:00",
    "o": 1.05169,
    "h": 1.05173,
    "l": 1.05158,
    "c": 1.05167,
    "v": 1127
  },
  {
    "dt": "2020.04.20 09:00",
    "o": 1.05168,
    "h": 1.05171,
    "l": 1.05147,
    "c": 1.05152,
    "v": 1721
  },
  {
    "dt": "2020.04.20 10:00",
    "o": 1.05151,
    "h": 1.05166,
    "l": 1.05145,
    "c": 1.05147,
    "v": 1754
  },
  {
    "dt": "2020.04.20 11:00",
    "o": 1.05146,
    "h": 1.05169,
    "l": 1.05141,
    "c": 1.05161,
    "v": 1602
  },
  {
    "dt": "2020.04.20 12:00",
    "o": 1.05159,
    "h": 1.05231,
    "l": 1.05159,
    "c": 1.05197,
    "v": 1817
  },
  {
    "dt": "2020.04.20 13:00",
    "o": 1.05198,
    "h": 1.05206,
    "l": 1.05183,
    "c": 1.05193,
    "v": 1956
  },
  {
    "dt": "2020.04.20 14:00",
    "o": 1.0518,
    "h": 1.05183,
    "l": 1.05146,
    "c": 1.05177,
    "v": 1999
  },
  {
    "dt": "2020.04.20 15:00",
    "o": 1.05177,
    "h": 1.05182,
    "l": 1.05151,
    "c": 1.05171,
    "v": 2146
  },
  {
    "dt": "2020.04.20 16:00",
    "o": 1.0517,
    "h": 1.05175,
    "l": 1.05149,
    "c": 1.05155,
    "v": 2110
  },
  {
    "dt": "2020.04.20 17:00",
    "o": 1.05154,
    "h": 1.05181,
    "l": 1.05132,
    "c": 1.05136,
    "v": 2539
  },
  {
    "dt": "2020.04.20 18:00",
    "o": 1.05137,
    "h": 1.05171,
    "l": 1.05135,
    "c": 1.05144,
    "v": 2204
  },
  {
    "dt": "2020.04.20 19:00",
    "o": 1.05144,
    "h": 1.05171,
    "l": 1.0512,
    "c": 1.05148,
    "v": 1439
  },
  {
    "dt": "2020.04.20 20:00",
    "o": 1.05149,
    "h": 1.0515,
    "l": 1.05128,
    "c": 1.05132,
    "v": 1259
  },
  {
    "dt": "2020.04.20 21:00",
    "o": 1.05133,
    "h": 1.05144,
    "l": 1.05119,
    "c": 1.05121,
    "v": 1278
  },
  {
    "dt": "2020.04.20 22:00",
    "o": 1.05122,
    "h": 1.05149,
    "l": 1.05121,
    "c": 1.05142,
    "v": 1255
  },
  {
    "dt": "2020.04.20 23:00",
    "o": 1.05143,
    "h": 1.05156,
    "l": 1.05129,
    "c": 1.05129,
    "v": 1167
  },
  {
    "dt": "2020.04.21 00:00",
    "o": 1.05129,
    "h": 1.05154,
    "l": 1.05126,
    "c": 1.05129,
    "v": 627
  },
  {
    "dt": "2020.04.21 01:00",
    "o": 1.05129,
    "h": 1.05171,
    "l": 1.05127,
    "c": 1.05153,
    "v": 795
  },
  {
    "dt": "2020.04.21 02:00",
    "o": 1.05153,
    "h": 1.05169,
    "l": 1.05149,
    "c": 1.05164,
    "v": 456
  },
  {
    "dt": "2020.04.21 03:00",
    "o": 1.05164,
    "h": 1.0518,
    "l": 1.05159,
    "c": 1.05176,
    "v": 1180
  },
  {
    "dt": "2020.04.21 04:00",
    "o": 1.05176,
    "h": 1.05182,
    "l": 1.0516,
    "c": 1.05172,
    "v": 1328
  },
  {
    "dt": "2020.04.21 05:00",
    "o": 1.0517,
    "h": 1.05173,
    "l": 1.05135,
    "c": 1.05151,
    "v": 1726
  },
  {
    "dt": "2020.04.21 06:00",
    "o": 1.05152,
    "h": 1.05157,
    "l": 1.05134,
    "c": 1.05149,
    "v": 1146
  },
  {
    "dt": "2020.04.21 07:00",
    "o": 1.05149,
    "h": 1.05156,
    "l": 1.05132,
    "c": 1.0515,
    "v": 1055
  },
  {
    "dt": "2020.04.21 08:00",
    "o": 1.0515,
    "h": 1.05161,
    "l": 1.05133,
    "c": 1.05157,
    "v": 1047
  },
  {
    "dt": "2020.04.21 09:00",
    "o": 1.05156,
    "h": 1.05161,
    "l": 1.05133,
    "c": 1.05137,
    "v": 1676
  },
  {
    "dt": "2020.04.21 10:00",
    "o": 1.05135,
    "h": 1.05147,
    "l": 1.05116,
    "c": 1.05123,
    "v": 2098
  },
  {
    "dt": "2020.04.21 11:00",
    "o": 1.05123,
    "h": 1.0514,
    "l": 1.05107,
    "c": 1.05121,
    "v": 2123
  },
  {
    "dt": "2020.04.21 12:00",
    "o": 1.05127,
    "h": 1.05179,
    "l": 1.05116,
    "c": 1.05171,
    "v": 3092
  },
  {
    "dt": "2020.04.21 13:00",
    "o": 1.05169,
    "h": 1.05173,
    "l": 1.05144,
    "c": 1.05145,
    "v": 2448
  },
  {
    "dt": "2020.04.21 14:00",
    "o": 1.05146,
    "h": 1.05159,
    "l": 1.05135,
    "c": 1.0514,
    "v": 1645
  },
  {
    "dt": "2020.04.21 15:00",
    "o": 1.05138,
    "h": 1.0522,
    "l": 1.05136,
    "c": 1.05219,
    "v": 2006
  },
  {
    "dt": "2020.04.21 16:00",
    "o": 1.0522,
    "h": 1.0524,
    "l": 1.05182,
    "c": 1.05207,
    "v": 2731
  },
  {
    "dt": "2020.04.21 17:00",
    "o": 1.05208,
    "h": 1.05214,
    "l": 1.05143,
    "c": 1.05197,
    "v": 3298
  },
  {
    "dt": "2020.04.21 18:00",
    "o": 1.05196,
    "h": 1.05218,
    "l": 1.05169,
    "c": 1.05187,
    "v": 2354
  },
  {
    "dt": "2020.04.21 19:00",
    "o": 1.05187,
    "h": 1.05237,
    "l": 1.05187,
    "c": 1.05231,
    "v": 1654
  },
  {
    "dt": "2020.04.21 20:00",
    "o": 1.0523,
    "h": 1.05267,
    "l": 1.05224,
    "c": 1.05233,
    "v": 1628
  },
  {
    "dt": "2020.04.21 21:00",
    "o": 1.05232,
    "h": 1.05284,
    "l": 1.05229,
    "c": 1.05262,
    "v": 1866
  },
  {
    "dt": "2020.04.21 22:00",
    "o": 1.05263,
    "h": 1.05307,
    "l": 1.05246,
    "c": 1.05271,
    "v": 1605
  },
  {
    "dt": "2020.04.21 23:00",
    "o": 1.05272,
    "h": 1.05299,
    "l": 1.05233,
    "c": 1.05243,
    "v": 1056
  },
  {
    "dt": "2020.04.22 00:00",
    "o": 1.05237,
    "h": 1.05264,
    "l": 1.05237,
    "c": 1.05243,
    "v": 135
  },
  {
    "dt": "2020.04.22 01:00",
    "o": 1.0524,
    "h": 1.0531,
    "l": 1.0524,
    "c": 1.05272,
    "v": 616
  },
  {
    "dt": "2020.04.22 02:00",
    "o": 1.05266,
    "h": 1.0528,
    "l": 1.05252,
    "c": 1.05273,
    "v": 464
  },
  {
    "dt": "2020.04.22 03:00",
    "o": 1.05273,
    "h": 1.05292,
    "l": 1.05257,
    "c": 1.0527,
    "v": 1215
  },
  {
    "dt": "2020.04.22 04:00",
    "o": 1.05271,
    "h": 1.0528,
    "l": 1.05246,
    "c": 1.05249,
    "v": 1152
  },
  {
    "dt": "2020.04.22 05:00",
    "o": 1.05249,
    "h": 1.05267,
    "l": 1.05245,
    "c": 1.05253,
    "v": 1365
  },
  {
    "dt": "2020.04.22 06:00",
    "o": 1.05253,
    "h": 1.05282,
    "l": 1.05238,
    "c": 1.05271,
    "v": 870
  },
  {
    "dt": "2020.04.22 07:00",
    "o": 1.05271,
    "h": 1.05271,
    "l": 1.0523,
    "c": 1.0524,
    "v": 1266
  },
  {
    "dt": "2020.04.22 08:00",
    "o": 1.05239,
    "h": 1.05288,
    "l": 1.05233,
    "c": 1.05265,
    "v": 1396
  },
  {
    "dt": "2020.04.22 09:00",
    "o": 1.05264,
    "h": 1.05309,
    "l": 1.05247,
    "c": 1.05257,
    "v": 2134
  },
  {
    "dt": "2020.04.22 10:00",
    "o": 1.05258,
    "h": 1.05294,
    "l": 1.05232,
    "c": 1.05236,
    "v": 2588
  },
  {
    "dt": "2020.04.22 11:00",
    "o": 1.05238,
    "h": 1.05284,
    "l": 1.05232,
    "c": 1.05236,
    "v": 2028
  },
  {
    "dt": "2020.04.22 12:00",
    "o": 1.05237,
    "h": 1.05259,
    "l": 1.05225,
    "c": 1.05228,
    "v": 2052
  },
  {
    "dt": "2020.04.22 13:00",
    "o": 1.05228,
    "h": 1.05255,
    "l": 1.05213,
    "c": 1.05218,
    "v": 1283
  },
  {
    "dt": "2020.04.22 14:00",
    "o": 1.0522,
    "h": 1.05267,
    "l": 1.05203,
    "c": 1.05247,
    "v": 2182
  },
  {
    "dt": "2020.04.22 15:00",
    "o": 1.05246,
    "h": 1.05296,
    "l": 1.05219,
    "c": 1.05247,
    "v": 2432
  },
  {
    "dt": "2020.04.22 16:00",
    "o": 1.05246,
    "h": 1.05262,
    "l": 1.05182,
    "c": 1.05188,
    "v": 2747
  },
  {
    "dt": "2020.04.22 17:00",
    "o": 1.05187,
    "h": 1.05204,
    "l": 1.05154,
    "c": 1.05162,
    "v": 2806
  },
  {
    "dt": "2020.04.22 18:00",
    "o": 1.05161,
    "h": 1.05191,
    "l": 1.0514,
    "c": 1.05151,
    "v": 2067
  },
  {
    "dt": "2020.04.22 19:00",
    "o": 1.05152,
    "h": 1.05162,
    "l": 1.05124,
    "c": 1.05138,
    "v": 1727
  },
  {
    "dt": "2020.04.22 20:00",
    "o": 1.05139,
    "h": 1.05181,
    "l": 1.05126,
    "c": 1.05174,
    "v": 1700
  },
  {
    "dt": "2020.04.22 21:00",
    "o": 1.05176,
    "h": 1.05205,
    "l": 1.05168,
    "c": 1.05181,
    "v": 1317
  },
  {
    "dt": "2020.04.22 22:00",
    "o": 1.05181,
    "h": 1.05204,
    "l": 1.05156,
    "c": 1.05163,
    "v": 1373
  },
  {
    "dt": "2020.04.22 23:00",
    "o": 1.05162,
    "h": 1.05189,
    "l": 1.05126,
    "c": 1.05131,
    "v": 1012
  },
  {
    "dt": "2020.04.23 00:00",
    "o": 1.05125,
    "h": 1.0516,
    "l": 1.05115,
    "c": 1.05139,
    "v": 411
  },
  {
    "dt": "2020.04.23 01:00",
    "o": 1.05137,
    "h": 1.05153,
    "l": 1.05127,
    "c": 1.05147,
    "v": 570
  },
  {
    "dt": "2020.04.23 02:00",
    "o": 1.0515,
    "h": 1.05151,
    "l": 1.05125,
    "c": 1.0513,
    "v": 800
  },
  {
    "dt": "2020.04.23 03:00",
    "o": 1.0513,
    "h": 1.05156,
    "l": 1.05126,
    "c": 1.05129,
    "v": 1165
  },
  {
    "dt": "2020.04.23 04:00",
    "o": 1.05128,
    "h": 1.05136,
    "l": 1.05121,
    "c": 1.05128,
    "v": 1390
  },
  {
    "dt": "2020.04.23 05:00",
    "o": 1.05129,
    "h": 1.05133,
    "l": 1.05123,
    "c": 1.0513,
    "v": 995
  },
  {
    "dt": "2020.04.23 06:00",
    "o": 1.05129,
    "h": 1.05135,
    "l": 1.05124,
    "c": 1.05135,
    "v": 682
  },
  {
    "dt": "2020.04.23 07:00",
    "o": 1.05134,
    "h": 1.05147,
    "l": 1.05129,
    "c": 1.0514,
    "v": 707
  },
  {
    "dt": "2020.04.23 08:00",
    "o": 1.05144,
    "h": 1.05171,
    "l": 1.05127,
    "c": 1.05154,
    "v": 1526
  },
  {
    "dt": "2020.04.23 09:00",
    "o": 1.05154,
    "h": 1.05182,
    "l": 1.05136,
    "c": 1.05145,
    "v": 2238
  },
  {
    "dt": "2020.04.23 10:00",
    "o": 1.05144,
    "h": 1.05165,
    "l": 1.05119,
    "c": 1.05141,
    "v": 2725
  },
  {
    "dt": "2020.04.23 11:00",
    "o": 1.05138,
    "h": 1.05145,
    "l": 1.05112,
    "c": 1.05121,
    "v": 2285
  },
  {
    "dt": "2020.04.23 12:00",
    "o": 1.05122,
    "h": 1.05126,
    "l": 1.05099,
    "c": 1.0511,
    "v": 2053
  },
  {
    "dt": "2020.04.23 13:00",
    "o": 1.05111,
    "h": 1.05117,
    "l": 1.05088,
    "c": 1.05098,
    "v": 2067
  },
  {
    "dt": "2020.04.23 14:00",
    "o": 1.05097,
    "h": 1.0513,
    "l": 1.0509,
    "c": 1.05097,
    "v": 2524
  },
  {
    "dt": "2020.04.23 15:00",
    "o": 1.05099,
    "h": 1.05122,
    "l": 1.05089,
    "c": 1.0509,
    "v": 2786
  },
  {
    "dt": "2020.04.23 16:00",
    "o": 1.05091,
    "h": 1.05162,
    "l": 1.05087,
    "c": 1.05127,
    "v": 2960
  },
  {
    "dt": "2020.04.23 17:00",
    "o": 1.05129,
    "h": 1.05293,
    "l": 1.05119,
    "c": 1.05255,
    "v": 3629
  },
  {
    "dt": "2020.04.23 18:00",
    "o": 1.05256,
    "h": 1.0526,
    "l": 1.05199,
    "c": 1.05232,
    "v": 2381
  },
  {
    "dt": "2020.04.23 19:00",
    "o": 1.05233,
    "h": 1.05281,
    "l": 1.05208,
    "c": 1.05216,
    "v": 2164
  },
  {
    "dt": "2020.04.23 20:00",
    "o": 1.05215,
    "h": 1.05227,
    "l": 1.0516,
    "c": 1.05165,
    "v": 2680
  },
  {
    "dt": "2020.04.23 21:00",
    "o": 1.05163,
    "h": 1.053,
    "l": 1.05162,
    "c": 1.05284,
    "v": 2193
  },
  {
    "dt": "2020.04.23 22:00",
    "o": 1.05285,
    "h": 1.05286,
    "l": 1.05212,
    "c": 1.0522,
    "v": 1588
  },
  {
    "dt": "2020.04.23 23:00",
    "o": 1.05222,
    "h": 1.05225,
    "l": 1.05155,
    "c": 1.05155,
    "v": 1309
  },
  {
    "dt": "2020.04.24 00:00",
    "o": 1.05163,
    "h": 1.05199,
    "l": 1.05138,
    "c": 1.05185,
    "v": 615
  },
  {
    "dt": "2020.04.24 01:00",
    "o": 1.05182,
    "h": 1.05196,
    "l": 1.05158,
    "c": 1.0519,
    "v": 573
  },
  {
    "dt": "2020.04.24 02:00",
    "o": 1.05186,
    "h": 1.05201,
    "l": 1.05169,
    "c": 1.05186,
    "v": 718
  },
  {
    "dt": "2020.04.24 03:00",
    "o": 1.05188,
    "h": 1.05222,
    "l": 1.05181,
    "c": 1.05197,
    "v": 1592
  },
  {
    "dt": "2020.04.24 04:00",
    "o": 1.05197,
    "h": 1.05197,
    "l": 1.05157,
    "c": 1.05165,
    "v": 1127
  },
  {
    "dt": "2020.04.24 05:00",
    "o": 1.05164,
    "h": 1.05228,
    "l": 1.05162,
    "c": 1.05215,
    "v": 818
  },
  {
    "dt": "2020.04.24 06:00",
    "o": 1.05214,
    "h": 1.05215,
    "l": 1.05183,
    "c": 1.05202,
    "v": 868
  },
  {
    "dt": "2020.04.24 07:00",
    "o": 1.05203,
    "h": 1.05208,
    "l": 1.05186,
    "c": 1.05195,
    "v": 740
  },
  {
    "dt": "2020.04.24 08:00",
    "o": 1.05194,
    "h": 1.05223,
    "l": 1.0518,
    "c": 1.05188,
    "v": 1178
  },
  {
    "dt": "2020.04.24 09:00",
    "o": 1.05187,
    "h": 1.05193,
    "l": 1.0515,
    "c": 1.05153,
    "v": 2178
  },
  {
    "dt": "2020.04.24 10:00",
    "o": 1.05154,
    "h": 1.05178,
    "l": 1.05134,
    "c": 1.05147,
    "v": 2812
  },
  {
    "dt": "2020.04.24 11:00",
    "o": 1.05147,
    "h": 1.05175,
    "l": 1.05125,
    "c": 1.0513,
    "v": 2547
  },
  {
    "dt": "2020.04.24 12:00",
    "o": 1.05132,
    "h": 1.05151,
    "l": 1.05117,
    "c": 1.05129,
    "v": 2030
  },
  {
    "dt": "2020.04.24 13:00",
    "o": 1.05127,
    "h": 1.05195,
    "l": 1.05119,
    "c": 1.05194,
    "v": 1865
  },
  {
    "dt": "2020.04.24 14:00",
    "o": 1.05194,
    "h": 1.05287,
    "l": 1.05173,
    "c": 1.05232,
    "v": 2526
  },
  {
    "dt": "2020.04.24 15:00",
    "o": 1.05232,
    "h": 1.05283,
    "l": 1.05228,
    "c": 1.05278,
    "v": 2675
  },
  {
    "dt": "2020.04.24 16:00",
    "o": 1.05276,
    "h": 1.05278,
    "l": 1.05201,
    "c": 1.05204,
    "v": 2679
  },
  {
    "dt": "2020.04.24 17:00",
    "o": 1.05204,
    "h": 1.05293,
    "l": 1.05195,
    "c": 1.05283,
    "v": 3394
  },
  {
    "dt": "2020.04.24 18:00",
    "o": 1.05283,
    "h": 1.05296,
    "l": 1.05254,
    "c": 1.05281,
    "v": 2417
  },
  {
    "dt": "2020.04.24 19:00",
    "o": 1.05283,
    "h": 1.05294,
    "l": 1.05252,
    "c": 1.05282,
    "v": 2207
  },
  {
    "dt": "2020.04.24 20:00",
    "o": 1.05282,
    "h": 1.05313,
    "l": 1.05268,
    "c": 1.0527,
    "v": 1364
  },
  {
    "dt": "2020.04.24 21:00",
    "o": 1.0527,
    "h": 1.05302,
    "l": 1.05264,
    "c": 1.05284,
    "v": 1321
  },
  {
    "dt": "2020.04.24 22:00",
    "o": 1.05282,
    "h": 1.05321,
    "l": 1.05278,
    "c": 1.05305,
    "v": 1450
  },
  {
    "dt": "2020.04.24 23:00",
    "o": 1.05306,
    "h": 1.05369,
    "l": 1.05244,
    "c": 1.05244,
    "v": 1784
  },
  {
    "dt": "2020.04.27 00:00",
    "o": 1.0524,
    "h": 1.05267,
    "l": 1.05232,
    "c": 1.05258,
    "v": 51
  },
  {
    "dt": "2020.04.27 01:00",
    "o": 1.05264,
    "h": 1.0534,
    "l": 1.05264,
    "c": 1.05323,
    "v": 509
  },
  {
    "dt": "2020.04.27 02:00",
    "o": 1.05325,
    "h": 1.05349,
    "l": 1.05312,
    "c": 1.05342,
    "v": 698
  },
  {
    "dt": "2020.04.27 03:00",
    "o": 1.05344,
    "h": 1.05347,
    "l": 1.05314,
    "c": 1.05331,
    "v": 1298
  },
  {
    "dt": "2020.04.27 04:00",
    "o": 1.05331,
    "h": 1.05404,
    "l": 1.0533,
    "c": 1.05386,
    "v": 1471
  },
  {
    "dt": "2020.04.27 05:00",
    "o": 1.05387,
    "h": 1.05428,
    "l": 1.05376,
    "c": 1.05392,
    "v": 1168
  },
  {
    "dt": "2020.04.27 06:00",
    "o": 1.05391,
    "h": 1.05436,
    "l": 1.05385,
    "c": 1.05423,
    "v": 1399
  },
  {
    "dt": "2020.04.27 07:00",
    "o": 1.05422,
    "h": 1.05438,
    "l": 1.05412,
    "c": 1.05418,
    "v": 1130
  },
  {
    "dt": "2020.04.27 08:00",
    "o": 1.0542,
    "h": 1.05472,
    "l": 1.05403,
    "c": 1.05438,
    "v": 1362
  },
  {
    "dt": "2020.04.27 09:00",
    "o": 1.05438,
    "h": 1.05575,
    "l": 1.0542,
    "c": 1.05548,
    "v": 2390
  },
  {
    "dt": "2020.04.27 10:00",
    "o": 1.05547,
    "h": 1.05552,
    "l": 1.05418,
    "c": 1.05487,
    "v": 2613
  },
  {
    "dt": "2020.04.27 11:00",
    "o": 1.05488,
    "h": 1.05489,
    "l": 1.05404,
    "c": 1.05461,
    "v": 2298
  },
  {
    "dt": "2020.04.27 12:00",
    "o": 1.0546,
    "h": 1.05517,
    "l": 1.05426,
    "c": 1.05516,
    "v": 2101
  },
  {
    "dt": "2020.04.27 13:00",
    "o": 1.05515,
    "h": 1.05619,
    "l": 1.05478,
    "c": 1.05607,
    "v": 2001
  },
  {
    "dt": "2020.04.27 14:00",
    "o": 1.05607,
    "h": 1.05637,
    "l": 1.05577,
    "c": 1.05589,
    "v": 2284
  },
  {
    "dt": "2020.04.27 15:00",
    "o": 1.05589,
    "h": 1.05641,
    "l": 1.05557,
    "c": 1.05636,
    "v": 2199
  },
  {
    "dt": "2020.04.27 16:00",
    "o": 1.05636,
    "h": 1.05786,
    "l": 1.05636,
    "c": 1.0576,
    "v": 2418
  },
  {
    "dt": "2020.04.27 17:00",
    "o": 1.05759,
    "h": 1.0579,
    "l": 1.05727,
    "c": 1.05763,
    "v": 2990
  },
  {
    "dt": "2020.04.27 18:00",
    "o": 1.05763,
    "h": 1.05777,
    "l": 1.05644,
    "c": 1.05645,
    "v": 2011
  },
  {
    "dt": "2020.04.27 19:00",
    "o": 1.05646,
    "h": 1.05664,
    "l": 1.05599,
    "c": 1.0565,
    "v": 1882
  },
  {
    "dt": "2020.04.27 20:00",
    "o": 1.05649,
    "h": 1.05672,
    "l": 1.05623,
    "c": 1.05655,
    "v": 1563
  },
  {
    "dt": "2020.04.27 21:00",
    "o": 1.05656,
    "h": 1.05666,
    "l": 1.05631,
    "c": 1.05657,
    "v": 1272
  },
  {
    "dt": "2020.04.27 22:00",
    "o": 1.05658,
    "h": 1.05663,
    "l": 1.05617,
    "c": 1.0565,
    "v": 1266
  },
  {
    "dt": "2020.04.27 23:00",
    "o": 1.05647,
    "h": 1.05655,
    "l": 1.05611,
    "c": 1.05617,
    "v": 1015
  },
  {
    "dt": "2020.04.28 00:00",
    "o": 1.05598,
    "h": 1.05632,
    "l": 1.05515,
    "c": 1.05546,
    "v": 531
  },
  {
    "dt": "2020.04.28 01:00",
    "o": 1.05552,
    "h": 1.05634,
    "l": 1.05549,
    "c": 1.0563,
    "v": 362
  },
  {
    "dt": "2020.04.28 02:00",
    "o": 1.05631,
    "h": 1.05638,
    "l": 1.05616,
    "c": 1.05624,
    "v": 584
  },
  {
    "dt": "2020.04.28 03:00",
    "o": 1.05625,
    "h": 1.05644,
    "l": 1.05607,
    "c": 1.0563,
    "v": 1370
  },
  {
    "dt": "2020.04.28 04:00",
    "o": 1.0563,
    "h": 1.0565,
    "l": 1.05618,
    "c": 1.05621,
    "v": 1492
  },
  {
    "dt": "2020.04.28 05:00",
    "o": 1.05621,
    "h": 1.05642,
    "l": 1.0562,
    "c": 1.05639,
    "v": 873
  },
  {
    "dt": "2020.04.28 06:00",
    "o": 1.05639,
    "h": 1.05648,
    "l": 1.05619,
    "c": 1.05624,
    "v": 966
  },
  {
    "dt": "2020.04.28 07:00",
    "o": 1.05624,
    "h": 1.05625,
    "l": 1.05589,
    "c": 1.05615,
    "v": 1335
  },
  {
    "dt": "2020.04.28 08:00",
    "o": 1.05613,
    "h": 1.05639,
    "l": 1.05604,
    "c": 1.05622,
    "v": 1416
  },
  {
    "dt": "2020.04.28 09:00",
    "o": 1.0562,
    "h": 1.05963,
    "l": 1.05607,
    "c": 1.05943,
    "v": 2148
  },
  {
    "dt": "2020.04.28 10:00",
    "o": 1.05938,
    "h": 1.06032,
    "l": 1.05865,
    "c": 1.06021,
    "v": 3261
  },
  {
    "dt": "2020.04.28 11:00",
    "o": 1.06021,
    "h": 1.06108,
    "l": 1.05839,
    "c": 1.05947,
    "v": 2950
  },
  {
    "dt": "2020.04.28 12:00",
    "o": 1.05945,
    "h": 1.06031,
    "l": 1.05826,
    "c": 1.05881,
    "v": 3280
  },
  {
    "dt": "2020.04.28 13:00",
    "o": 1.0588,
    "h": 1.05906,
    "l": 1.05825,
    "c": 1.05856,
    "v": 2259
  },
  {
    "dt": "2020.04.28 14:00",
    "o": 1.05856,
    "h": 1.0594,
    "l": 1.05831,
    "c": 1.05897,
    "v": 2122
  },
  {
    "dt": "2020.04.28 15:00",
    "o": 1.05896,
    "h": 1.05902,
    "l": 1.05764,
    "c": 1.05767,
    "v": 2454
  },
  {
    "dt": "2020.04.28 16:00",
    "o": 1.05768,
    "h": 1.05771,
    "l": 1.0561,
    "c": 1.05625,
    "v": 2664
  },
  {
    "dt": "2020.04.28 17:00",
    "o": 1.05626,
    "h": 1.05724,
    "l": 1.05601,
    "c": 1.05605,
    "v": 3029
  },
  {
    "dt": "2020.04.28 18:00",
    "o": 1.05606,
    "h": 1.05633,
    "l": 1.05569,
    "c": 1.05573,
    "v": 2390
  },
  {
    "dt": "2020.04.28 19:00",
    "o": 1.05574,
    "h": 1.05592,
    "l": 1.0554,
    "c": 1.05578,
    "v": 1910
  },
  {
    "dt": "2020.04.28 20:00",
    "o": 1.05577,
    "h": 1.0558,
    "l": 1.05504,
    "c": 1.05508,
    "v": 1683
  },
  {
    "dt": "2020.04.28 21:00",
    "o": 1.0551,
    "h": 1.05549,
    "l": 1.05486,
    "c": 1.05544,
    "v": 1438
  },
  {
    "dt": "2020.04.28 22:00",
    "o": 1.05542,
    "h": 1.05563,
    "l": 1.05517,
    "c": 1.05549,
    "v": 1556
  },
  {
    "dt": "2020.04.28 23:00",
    "o": 1.05549,
    "h": 1.05566,
    "l": 1.05447,
    "c": 1.05458,
    "v": 996
  },
  {
    "dt": "2020.04.29 00:00",
    "o": 1.05465,
    "h": 1.05503,
    "l": 1.05421,
    "c": 1.0546,
    "v": 451
  },
  {
    "dt": "2020.04.29 01:00",
    "o": 1.05457,
    "h": 1.055,
    "l": 1.05449,
    "c": 1.05485,
    "v": 484
  },
  {
    "dt": "2020.04.29 02:00",
    "o": 1.05485,
    "h": 1.05495,
    "l": 1.05474,
    "c": 1.05478,
    "v": 624
  },
  {
    "dt": "2020.04.29 03:00",
    "o": 1.05477,
    "h": 1.05505,
    "l": 1.05467,
    "c": 1.05488,
    "v": 952
  },
  {
    "dt": "2020.04.29 04:00",
    "o": 1.05488,
    "h": 1.05537,
    "l": 1.05486,
    "c": 1.05506,
    "v": 1210
  },
  {
    "dt": "2020.04.29 05:00",
    "o": 1.05506,
    "h": 1.05536,
    "l": 1.055,
    "c": 1.05535,
    "v": 1014
  },
  {
    "dt": "2020.04.29 06:00",
    "o": 1.05536,
    "h": 1.05538,
    "l": 1.05503,
    "c": 1.05512,
    "v": 913
  },
  {
    "dt": "2020.04.29 07:00",
    "o": 1.0551,
    "h": 1.05543,
    "l": 1.05503,
    "c": 1.05533,
    "v": 1109
  },
  {
    "dt": "2020.04.29 08:00",
    "o": 1.05533,
    "h": 1.05572,
    "l": 1.05523,
    "c": 1.05539,
    "v": 1114
  },
  {
    "dt": "2020.04.29 09:00",
    "o": 1.05542,
    "h": 1.05599,
    "l": 1.05524,
    "c": 1.05593,
    "v": 2098
  },
  {
    "dt": "2020.04.29 10:00",
    "o": 1.05588,
    "h": 1.05676,
    "l": 1.0557,
    "c": 1.05641,
    "v": 2909
  },
  {
    "dt": "2020.04.29 11:00",
    "o": 1.05638,
    "h": 1.0565,
    "l": 1.05579,
    "c": 1.05613,
    "v": 2268
  },
  {
    "dt": "2020.04.29 12:00",
    "o": 1.05615,
    "h": 1.05685,
    "l": 1.05603,
    "c": 1.05682,
    "v": 1827
  },
  {
    "dt": "2020.04.29 13:00",
    "o": 1.05683,
    "h": 1.05742,
    "l": 1.05632,
    "c": 1.05732,
    "v": 1933
  },
  {
    "dt": "2020.04.29 14:00",
    "o": 1.05731,
    "h": 1.05745,
    "l": 1.05679,
    "c": 1.05683,
    "v": 1944
  },
  {
    "dt": "2020.04.29 15:00",
    "o": 1.05684,
    "h": 1.05713,
    "l": 1.05639,
    "c": 1.05697,
    "v": 2728
  },
  {
    "dt": "2020.04.29 16:00",
    "o": 1.05694,
    "h": 1.05729,
    "l": 1.05554,
    "c": 1.05613,
    "v": 2850
  },
  {
    "dt": "2020.04.29 17:00",
    "o": 1.05616,
    "h": 1.05667,
    "l": 1.05533,
    "c": 1.05645,
    "v": 2828
  },
  {
    "dt": "2020.04.29 18:00",
    "o": 1.05647,
    "h": 1.05791,
    "l": 1.05632,
    "c": 1.05787,
    "v": 2088
  },
  {
    "dt": "2020.04.29 19:00",
    "o": 1.05789,
    "h": 1.05904,
    "l": 1.05786,
    "c": 1.05902,
    "v": 1824
  },
  {
    "dt": "2020.04.29 20:00",
    "o": 1.059,
    "h": 1.06019,
    "l": 1.0589,
    "c": 1.05923,
    "v": 1583
  },
  {
    "dt": "2020.04.29 21:00",
    "o": 1.05908,
    "h": 1.06081,
    "l": 1.05908,
    "c": 1.06049,
    "v": 2660
  },
  {
    "dt": "2020.04.29 22:00",
    "o": 1.06048,
    "h": 1.06048,
    "l": 1.05972,
    "c": 1.05989,
    "v": 1992
  },
  {
    "dt": "2020.04.29 23:00",
    "o": 1.05987,
    "h": 1.06018,
    "l": 1.05852,
    "c": 1.0587,
    "v": 1205
  },
  {
    "dt": "2020.04.30 00:00",
    "o": 1.05855,
    "h": 1.05948,
    "l": 1.05842,
    "c": 1.05901,
    "v": 749
  },
  {
    "dt": "2020.04.30 01:00",
    "o": 1.05901,
    "h": 1.05971,
    "l": 1.05901,
    "c": 1.05943,
    "v": 530
  },
  {
    "dt": "2020.04.30 02:00",
    "o": 1.05943,
    "h": 1.05943,
    "l": 1.05908,
    "c": 1.05928,
    "v": 495
  },
  {
    "dt": "2020.04.30 03:00",
    "o": 1.05928,
    "h": 1.05946,
    "l": 1.05872,
    "c": 1.05897,
    "v": 1390
  },
  {
    "dt": "2020.04.30 04:00",
    "o": 1.05898,
    "h": 1.05901,
    "l": 1.05878,
    "c": 1.05886,
    "v": 1183
  },
  {
    "dt": "2020.04.30 05:00",
    "o": 1.05886,
    "h": 1.0592,
    "l": 1.05886,
    "c": 1.05907,
    "v": 991
  },
  {
    "dt": "2020.04.30 06:00",
    "o": 1.05907,
    "h": 1.05923,
    "l": 1.05875,
    "c": 1.05882,
    "v": 1066
  },
  {
    "dt": "2020.04.30 07:00",
    "o": 1.05882,
    "h": 1.05885,
    "l": 1.05825,
    "c": 1.05835,
    "v": 1049
  },
  {
    "dt": "2020.04.30 08:00",
    "o": 1.05835,
    "h": 1.05901,
    "l": 1.05822,
    "c": 1.05894,
    "v": 928
  },
  {
    "dt": "2020.04.30 09:00",
    "o": 1.05894,
    "h": 1.05912,
    "l": 1.05817,
    "c": 1.05911,
    "v": 2008
  },
  {
    "dt": "2020.04.30 10:00",
    "o": 1.05908,
    "h": 1.05984,
    "l": 1.05757,
    "c": 1.05762,
    "v": 2676
  },
  {
    "dt": "2020.04.30 11:00",
    "o": 1.05761,
    "h": 1.05774,
    "l": 1.05651,
    "c": 1.05652,
    "v": 2266
  },
  {
    "dt": "2020.04.30 12:00",
    "o": 1.05646,
    "h": 1.05768,
    "l": 1.05581,
    "c": 1.05586,
    "v": 2390
  },
  {
    "dt": "2020.04.30 13:00",
    "o": 1.05586,
    "h": 1.05631,
    "l": 1.0552,
    "c": 1.05538,
    "v": 2378
  },
  {
    "dt": "2020.04.30 14:00",
    "o": 1.0554,
    "h": 1.05618,
    "l": 1.05527,
    "c": 1.05546,
    "v": 2702
  },
  {
    "dt": "2020.04.30 15:00",
    "o": 1.05546,
    "h": 1.05658,
    "l": 1.05524,
    "c": 1.05639,
    "v": 3229
  },
  {
    "dt": "2020.04.30 16:00",
    "o": 1.05639,
    "h": 1.05658,
    "l": 1.05458,
    "c": 1.05495,
    "v": 3933
  },
  {
    "dt": "2020.04.30 17:00",
    "o": 1.05497,
    "h": 1.05842,
    "l": 1.05462,
    "c": 1.05652,
    "v": 4330
  },
  {
    "dt": "2020.04.30 18:00",
    "o": 1.0565,
    "h": 1.05819,
    "l": 1.05607,
    "c": 1.05729,
    "v": 3824
  },
  {
    "dt": "2020.04.30 19:00",
    "o": 1.05727,
    "h": 1.05763,
    "l": 1.05667,
    "c": 1.05685,
    "v": 2948
  },
  {
    "dt": "2020.04.30 20:00",
    "o": 1.05687,
    "h": 1.05725,
    "l": 1.05663,
    "c": 1.05697,
    "v": 2273
  },
  {
    "dt": "2020.04.30 21:00",
    "o": 1.05702,
    "h": 1.05767,
    "l": 1.05697,
    "c": 1.05767,
    "v": 1985
  },
  {
    "dt": "2020.04.30 22:00",
    "o": 1.05766,
    "h": 1.05791,
    "l": 1.05738,
    "c": 1.05777,
    "v": 1993
  },
  {
    "dt": "2020.04.30 23:00",
    "o": 1.05777,
    "h": 1.05777,
    "l": 1.05735,
    "c": 1.05739,
    "v": 1288
  }
]