[
  {
    "dt": "2020.07.01 00:00",
    "o": 1.06386,
    "h": 1.06402,
    "l": 1.06342,
    "c": 1.06375,
    "v": 397
  },
  {
    "dt": "2020.07.01 01:00",
    "o": 1.06372,
    "h": 1.06403,
    "l": 1.06372,
    "c": 1.06392,
    "v": 507
  },
  {
    "dt": "2020.07.01 02:00",
    "o": 1.06392,
    "h": 1.06407,
    "l": 1.06379,
    "c": 1.06396,
    "v": 702
  },
  {
    "dt": "2020.07.01 03:00",
    "o": 1.06395,
    "h": 1.06422,
    "l": 1.06392,
    "c": 1.06403,
    "v": 941
  },
  {
    "dt": "2020.07.01 04:00",
    "o": 1.06402,
    "h": 1.06411,
    "l": 1.06391,
    "c": 1.06394,
    "v": 1165
  },
  {
    "dt": "2020.07.01 05:00",
    "o": 1.06393,
    "h": 1.06395,
    "l": 1.0634,
    "c": 1.06352,
    "v": 917
  },
  {
    "dt": "2020.07.01 06:00",
    "o": 1.06352,
    "h": 1.06395,
    "l": 1.06321,
    "c": 1.06331,
    "v": 1200
  },
  {
    "dt": "2020.07.01 07:00",
    "o": 1.06333,
    "h": 1.06337,
    "l": 1.06222,
    "c": 1.06234,
    "v": 1291
  },
  {
    "dt": "2020.07.01 08:00",
    "o": 1.06237,
    "h": 1.0631,
    "l": 1.06231,
    "c": 1.06284,
    "v": 1539
  },
  {
    "dt": "2020.07.01 09:00",
    "o": 1.06284,
    "h": 1.06399,
    "l": 1.06232,
    "c": 1.06393,
    "v": 1712
  },
  {
    "dt": "2020.07.01 10:00",
    "o": 1.0639,
    "h": 1.06402,
    "l": 1.06307,
    "c": 1.06369,
    "v": 2114
  },
  {
    "dt": "2020.07.01 11:00",
    "o": 1.06371,
    "h": 1.06398,
    "l": 1.06308,
    "c": 1.06352,
    "v": 2383
  },
  {
    "dt": "2020.07.01 12:00",
    "o": 1.06353,
    "h": 1.06367,
    "l": 1.06239,
    "c": 1.06241,
    "v": 2285
  },
  {
    "dt": "2020.07.01 13:00",
    "o": 1.0624,
    "h": 1.06307,
    "l": 1.06116,
    "c": 1.06138,
    "v": 2624
  },
  {
    "dt": "2020.07.01 14:00",
    "o": 1.06139,
    "h": 1.06246,
    "l": 1.06117,
    "c": 1.0621,
    "v": 2898
  },
  {
    "dt": "2020.07.01 15:00",
    "o": 1.06209,
    "h": 1.06404,
    "l": 1.06178,
    "c": 1.06346,
    "v": 2686
  },
  {
    "dt": "2020.07.01 16:00",
    "o": 1.06346,
    "h": 1.06474,
    "l": 1.063,
    "c": 1.06434,
    "v": 2955
  },
  {
    "dt": "2020.07.01 17:00",
    "o": 1.06434,
    "h": 1.06609,
    "l": 1.06389,
    "c": 1.06429,
    "v": 3632
  },
  {
    "dt": "2020.07.01 18:00",
    "o": 1.06428,
    "h": 1.06466,
    "l": 1.06389,
    "c": 1.06453,
    "v": 2796
  },
  {
    "dt": "2020.07.01 19:00",
    "o": 1.06452,
    "h": 1.06532,
    "l": 1.06432,
    "c": 1.06509,
    "v": 1871
  },
  {
    "dt": "2020.07.01 20:00",
    "o": 1.06508,
    "h": 1.06531,
    "l": 1.0644,
    "c": 1.06443,
    "v": 1697
  },
  {
    "dt": "2020.07.01 21:00",
    "o": 1.06449,
    "h": 1.06463,
    "l": 1.06396,
    "c": 1.06418,
    "v": 1674
  },
  {
    "dt": "2020.07.01 22:00",
    "o": 1.06415,
    "h": 1.06473,
    "l": 1.06405,
    "c": 1.0641,
    "v": 1582
  },
  {
    "dt": "2020.07.01 23:00",
    "o": 1.0641,
    "h": 1.06433,
    "l": 1.06384,
    "c": 1.06399,
    "v": 972
  },
  {
    "dt": "2020.07.02 00:00",
    "o": 1.06414,
    "h": 1.06446,
    "l": 1.06331,
    "c": 1.06379,
    "v": 620
  },
  {
    "dt": "2020.07.02 01:00",
    "o": 1.06386,
    "h": 1.06422,
    "l": 1.06379,
    "c": 1.06415,
    "v": 444
  },
  {
    "dt": "2020.07.02 02:00",
    "o": 1.06415,
    "h": 1.06424,
    "l": 1.06402,
    "c": 1.06404,
    "v": 745
  },
  {
    "dt": "2020.07.02 03:00",
    "o": 1.06404,
    "h": 1.06457,
    "l": 1.06378,
    "c": 1.06442,
    "v": 1246
  },
  {
    "dt": "2020.07.02 04:00",
    "o": 1.06442,
    "h": 1.06493,
    "l": 1.06408,
    "c": 1.06467,
    "v": 1501
  },
  {
    "dt": "2020.07.02 05:00",
    "o": 1.06467,
    "h": 1.06537,
    "l": 1.06463,
    "c": 1.0653,
    "v": 1336
  },
  {
    "dt": "2020.07.02 06:00",
    "o": 1.06528,
    "h": 1.06531,
    "l": 1.06505,
    "c": 1.06526,
    "v": 1421
  },
  {
    "dt": "2020.07.02 07:00",
    "o": 1.06526,
    "h": 1.06538,
    "l": 1.06507,
    "c": 1.06525,
    "v": 1195
  },
  {
    "dt": "2020.07.02 08:00",
    "o": 1.06524,
    "h": 1.06545,
    "l": 1.06488,
    "c": 1.0653,
    "v": 1227
  },
  {
    "dt": "2020.07.02 09:00",
    "o": 1.06528,
    "h": 1.06605,
    "l": 1.06499,
    "c": 1.06516,
    "v": 1834
  },
  {
    "dt": "2020.07.02 10:00",
    "o": 1.06515,
    "h": 1.06592,
    "l": 1.0649,
    "c": 1.06526,
    "v": 2766
  },
  {
    "dt": "2020.07.02 11:00",
    "o": 1.06526,
    "h": 1.06579,
    "l": 1.06475,
    "c": 1.06525,
    "v": 2325
  },
  {
    "dt": "2020.07.02 12:00",
    "o": 1.06524,
    "h": 1.0655,
    "l": 1.06461,
    "c": 1.06492,
    "v": 1734
  },
  {
    "dt": "2020.07.02 13:00",
    "o": 1.06491,
    "h": 1.06492,
    "l": 1.06419,
    "c": 1.0644,
    "v": 1917
  },
  {
    "dt": "2020.07.02 14:00",
    "o": 1.06439,
    "h": 1.0651,
    "l": 1.06425,
    "c": 1.06464,
    "v": 1756
  },
  {
    "dt": "2020.07.02 15:00",
    "o": 1.06459,
    "h": 1.0657,
    "l": 1.0642,
    "c": 1.06429,
    "v": 3387
  },
  {
    "dt": "2020.07.02 16:00",
    "o": 1.06433,
    "h": 1.06462,
    "l": 1.0638,
    "c": 1.06408,
    "v": 3110
  },
  {
    "dt": "2020.07.02 17:00",
    "o": 1.06406,
    "h": 1.06419,
    "l": 1.06191,
    "c": 1.06205,
    "v": 3760
  },
  {
    "dt": "2020.07.02 18:00",
    "o": 1.06203,
    "h": 1.06294,
    "l": 1.06187,
    "c": 1.06243,
    "v": 2549
  },
  {
    "dt": "2020.07.02 19:00",
    "o": 1.06244,
    "h": 1.06245,
    "l": 1.06168,
    "c": 1.06238,
    "v": 1838
  },
  {
    "dt": "2020.07.02 20:00",
    "o": 1.06237,
    "h": 1.0628,
    "l": 1.06215,
    "c": 1.06267,
    "v": 1332
  },
  {
    "dt": "2020.07.02 21:00",
    "o": 1.06267,
    "h": 1.06272,
    "l": 1.06206,
    "c": 1.06239,
    "v": 1176
  },
  {
    "dt": "2020.07.02 22:00",
    "o": 1.06238,
    "h": 1.0626,
    "l": 1.06226,
    "c": 1.06241,
    "v": 1048
  },
  {
    "dt": "2020.07.02 23:00",
    "o": 1.06242,
    "h": 1.06256,
    "l": 1.06212,
    "c": 1.06228,
    "v": 833
  },
  {
    "dt": "2020.07.03 00:00",
    "o": 1.06203,
    "h": 1.06267,
    "l": 1.06201,
    "c": 1.06232,
    "v": 149
  },
  {
    "dt": "2020.07.03 01:00",
    "o": 1.06232,
    "h": 1.06279,
    "l": 1.06232,
    "c": 1.06279,
    "v": 490
  },
  {
    "dt": "2020.07.03 02:00",
    "o": 1.06278,
    "h": 1.06278,
    "l": 1.06252,
    "c": 1.06253,
    "v": 598
  },
  {
    "dt": "2020.07.03 03:00",
    "o": 1.06256,
    "h": 1.06301,
    "l": 1.06244,
    "c": 1.06299,
    "v": 1044
  },
  {
    "dt": "2020.07.03 04:00",
    "o": 1.06303,
    "h": 1.06335,
    "l": 1.06281,
    "c": 1.06294,
    "v": 1435
  },
  {
    "dt": "2020.07.03 05:00",
    "o": 1.06293,
    "h": 1.06332,
    "l": 1.06281,
    "c": 1.06317,
    "v": 1123
  },
  {
    "dt": "2020.07.03 06:00",
    "o": 1.06317,
    "h": 1.06317,
    "l": 1.06285,
    "c": 1.06304,
    "v": 887
  },
  {
    "dt": "2020.07.03 07:00",
    "o": 1.06308,
    "h": 1.06308,
    "l": 1.06196,
    "c": 1.06205,
    "v": 1202
  },
  {
    "dt": "2020.07.03 08:00",
    "o": 1.06205,
    "h": 1.0629,
    "l": 1.06203,
    "c": 1.06282,
    "v": 1150
  },
  {
    "dt": "2020.07.03 09:00",
    "o": 1.06281,
    "h": 1.06344,
    "l": 1.06262,
    "c": 1.06321,
    "v": 1621
  },
  {
    "dt": "2020.07.03 10:00",
    "o": 1.06323,
    "h": 1.06372,
    "l": 1.06272,
    "c": 1.06346,
    "v": 2384
  },
  {
    "dt": "2020.07.03 11:00",
    "o": 1.06345,
    "h": 1.06346,
    "l": 1.06292,
    "c": 1.06309,
    "v": 1965
  },
  {
    "dt": "2020.07.03 12:00",
    "o": 1.06309,
    "h": 1.06313,
    "l": 1.06235,
    "c": 1.06297,
    "v": 1822
  },
  {
    "dt": "2020.07.03 13:00",
    "o": 1.06294,
    "h": 1.06315,
    "l": 1.06215,
    "c": 1.06306,
    "v": 1949
  },
  {
    "dt": "2020.07.03 14:00",
    "o": 1.06306,
    "h": 1.06317,
    "l": 1.06196,
    "c": 1.06201,
    "v": 1749
  },
  {
    "dt": "2020.07.03 15:00",
    "o": 1.06202,
    "h": 1.06258,
    "l": 1.06189,
    "c": 1.06238,
    "v": 1492
  },
  {
    "dt": "2020.07.03 16:00",
    "o": 1.06236,
    "h": 1.06325,
    "l": 1.06236,
    "c": 1.06304,
    "v": 1434
  },
  {
    "dt": "2020.07.03 17:00",
    "o": 1.06304,
    "h": 1.06324,
    "l": 1.06223,
    "c": 1.06232,
    "v": 2028
  },
  {
    "dt": "2020.07.03 18:00",
    "o": 1.0623,
    "h": 1.06289,
    "l": 1.06213,
    "c": 1.06286,
    "v": 1242
  },
  {
    "dt": "2020.07.03 19:00",
    "o": 1.06286,
    "h": 1.0629,
    "l": 1.06215,
    "c": 1.06225,
    "v": 967
  },
  {
    "dt": "2020.07.03 20:00",
    "o": 1.06228,
    "h": 1.06252,
    "l": 1.06213,
    "c": 1.06228,
    "v": 2970
  },
  {
    "dt": "2020.07.03 21:00",
    "o": 1.06231,
    "h": 1.06267,
    "l": 1.06226,
    "c": 1.06237,
    "v": 2355
  },
  {
    "dt": "2020.07.03 22:00",
    "o": 1.06239,
    "h": 1.06246,
    "l": 1.06219,
    "c": 1.0623,
    "v": 1715
  },
  {
    "dt": "2020.07.03 23:00",
    "o": 1.06229,
    "h": 1.06254,
    "l": 1.06195,
    "c": 1.0624,
    "v": 1073
  },
  {
    "dt": "2020.07.06 00:00",
    "o": 1.06235,
    "h": 1.06247,
    "l": 1.0622,
    "c": 1.06227,
    "v": 23
  },
  {
    "dt": "2020.07.06 01:00",
    "o": 1.06215,
    "h": 1.06286,
    "l": 1.06212,
    "c": 1.06269,
    "v": 413
  },
  {
    "dt": "2020.07.06 02:00",
    "o": 1.06272,
    "h": 1.06298,
    "l": 1.06256,
    "c": 1.06273,
    "v": 770
  },
  {
    "dt": "2020.07.06 03:00",
    "o": 1.06275,
    "h": 1.06343,
    "l": 1.06251,
    "c": 1.06343,
    "v": 1825
  },
  {
    "dt": "2020.07.06 04:00",
    "o": 1.06344,
    "h": 1.06412,
    "l": 1.06321,
    "c": 1.06392,
    "v": 1575
  },
  {
    "dt": "2020.07.06 05:00",
    "o": 1.06393,
    "h": 1.06432,
    "l": 1.06382,
    "c": 1.06395,
    "v": 1056
  },
  {
    "dt": "2020.07.06 06:00",
    "o": 1.06397,
    "h": 1.06429,
    "l": 1.06382,
    "c": 1.06409,
    "v": 935
  },
  {
    "dt": "2020.07.06 07:00",
    "o": 1.0641,
    "h": 1.06448,
    "l": 1.06407,
    "c": 1.06442,
    "v": 971
  },
  {
    "dt": "2020.07.06 08:00",
    "o": 1.0644,
    "h": 1.0647,
    "l": 1.06413,
    "c": 1.06461,
    "v": 1072
  },
  {
    "dt": "2020.07.06 09:00",
    "o": 1.06461,
    "h": 1.06513,
    "l": 1.06411,
    "c": 1.06436,
    "v": 1913
  },
  {
    "dt": "2020.07.06 10:00",
    "o": 1.06437,
    "h": 1.06483,
    "l": 1.06334,
    "c": 1.06387,
    "v": 2894
  },
  {
    "dt": "2020.07.06 11:00",
    "o": 1.06385,
    "h": 1.06409,
    "l": 1.06342,
    "c": 1.06357,
    "v": 2478
  },
  {
    "dt": "2020.07.06 12:00",
    "o": 1.06359,
    "h": 1.06389,
    "l": 1.06309,
    "c": 1.06386,
    "v": 2223
  },
  {
    "dt": "2020.07.06 13:00",
    "o": 1.06385,
    "h": 1.06414,
    "l": 1.06342,
    "c": 1.06385,
    "v": 1973
  },
  {
    "dt": "2020.07.06 14:00",
    "o": 1.06384,
    "h": 1.06471,
    "l": 1.0638,
    "c": 1.06412,
    "v": 2281
  },
  {
    "dt": "2020.07.06 15:00",
    "o": 1.06413,
    "h": 1.06438,
    "l": 1.06329,
    "c": 1.06378,
    "v": 2333
  },
  {
    "dt": "2020.07.06 16:00",
    "o": 1.06377,
    "h": 1.06489,
    "l": 1.06367,
    "c": 1.06427,
    "v": 2679
  },
  {
    "dt": "2020.07.06 17:00",
    "o": 1.06424,
    "h": 1.06445,
    "l": 1.06311,
    "c": 1.06349,
    "v": 3332
  },
  {
    "dt": "2020.07.06 18:00",
    "o": 1.06348,
    "h": 1.06542,
    "l": 1.06329,
    "c": 1.06459,
    "v": 2271
  },
  {
    "dt": "2020.07.06 19:00",
    "o": 1.06458,
    "h": 1.06469,
    "l": 1.06411,
    "c": 1.06432,
    "v": 1568
  },
  {
    "dt": "2020.07.06 20:00",
    "o": 1.06431,
    "h": 1.06527,
    "l": 1.06429,
    "c": 1.06504,
    "v": 1314
  },
  {
    "dt": "2020.07.06 21:00",
    "o": 1.06505,
    "h": 1.06523,
    "l": 1.06468,
    "c": 1.0651,
    "v": 1211
  },
  {
    "dt": "2020.07.06 22:00",
    "o": 1.06511,
    "h": 1.06537,
    "l": 1.06503,
    "c": 1.06513,
    "v": 1330
  },
  {
    "dt": "2020.07.06 23:00",
    "o": 1.06513,
    "h": 1.06553,
    "l": 1.06506,
    "c": 1.06533,
    "v": 875
  },
  {
    "dt": "2020.07.07 00:00",
    "o": 1.06532,
    "h": 1.06541,
    "l": 1.06468,
    "c": 1.06531,
    "v": 442
  },
  {
    "dt": "2020.07.07 01:00",
    "o": 1.06529,
    "h": 1.06549,
    "l": 1.06503,
    "c": 1.06545,
    "v": 386
  },
  {
    "dt": "2020.07.07 02:00",
    "o": 1.06546,
    "h": 1.06561,
    "l": 1.06534,
    "c": 1.06541,
    "v": 779
  },
  {
    "dt": "2020.07.07 03:00",
    "o": 1.06538,
    "h": 1.06641,
    "l": 1.06528,
    "c": 1.06618,
    "v": 1407
  },
  {
    "dt": "2020.07.07 04:00",
    "o": 1.06618,
    "h": 1.06634,
    "l": 1.06586,
    "c": 1.06604,
    "v": 1960
  },
  {
    "dt": "2020.07.07 05:00",
    "o": 1.06605,
    "h": 1.06635,
    "l": 1.06581,
    "c": 1.06589,
    "v": 1891
  },
  {
    "dt": "2020.07.07 06:00",
    "o": 1.06588,
    "h": 1.06614,
    "l": 1.06587,
    "c": 1.0661,
    "v": 1141
  },
  {
    "dt": "2020.07.07 07:00",
    "o": 1.06609,
    "h": 1.06639,
    "l": 1.06596,
    "c": 1.06623,
    "v": 1018
  },
  {
    "dt": "2020.07.07 08:00",
    "o": 1.06622,
    "h": 1.06652,
    "l": 1.0659,
    "c": 1.06603,
    "v": 1285
  },
  {
    "dt": "2020.07.07 09:00",
    "o": 1.06605,
    "h": 1.06612,
    "l": 1.06446,
    "c": 1.06473,
    "v": 1851
  },
  {
    "dt": "2020.07.07 10:00",
    "o": 1.06478,
    "h": 1.06485,
    "l": 1.06355,
    "c": 1.06427,
    "v": 2672
  },
  {
    "dt": "2020.07.07 11:00",
    "o": 1.06427,
    "h": 1.06458,
    "l": 1.06371,
    "c": 1.06378,
    "v": 2653
  },
  {
    "dt": "2020.07.07 12:00",
    "o": 1.06378,
    "h": 1.06491,
    "l": 1.06371,
    "c": 1.06448,
    "v": 2181
  },
  {
    "dt": "2020.07.07 13:00",
    "o": 1.06447,
    "h": 1.06513,
    "l": 1.06447,
    "c": 1.06453,
    "v": 2353
  },
  {
    "dt": "2020.07.07 14:00",
    "o": 1.06454,
    "h": 1.06524,
    "l": 1.06383,
    "c": 1.06434,
    "v": 2092
  },
  {
    "dt": "2020.07.07 15:00",
    "o": 1.06435,
    "h": 1.06463,
    "l": 1.06393,
    "c": 1.06424,
    "v": 1700
  },
  {
    "dt": "2020.07.07 16:00",
    "o": 1.06424,
    "h": 1.06447,
    "l": 1.06343,
    "c": 1.06345,
    "v": 2556
  },
  {
    "dt": "2020.07.07 17:00",
    "o": 1.06345,
    "h": 1.06354,
    "l": 1.06209,
    "c": 1.06247,
    "v": 3121
  },
  {
    "dt": "2020.07.07 18:00",
    "o": 1.06247,
    "h": 1.06345,
    "l": 1.06233,
    "c": 1.0631,
    "v": 2316
  },
  {
    "dt": "2020.07.07 19:00",
    "o": 1.06312,
    "h": 1.0632,
    "l": 1.06262,
    "c": 1.06295,
    "v": 1753
  },
  {
    "dt": "2020.07.07 20:00",
    "o": 1.06295,
    "h": 1.0635,
    "l": 1.06282,
    "c": 1.06341,
    "v": 1749
  },
  {
    "dt": "2020.07.07 21:00",
    "o": 1.06341,
    "h": 1.06349,
    "l": 1.06284,
    "c": 1.06307,
    "v": 1481
  },
  {
    "dt": "2020.07.07 22:00",
    "o": 1.06306,
    "h": 1.06324,
    "l": 1.06219,
    "c": 1.06225,
    "v": 1509
  },
  {
    "dt": "2020.07.07 23:00",
    "o": 1.06225,
    "h": 1.06249,
    "l": 1.06207,
    "c": 1.0624,
    "v": 873
  },
  {
    "dt": "2020.07.08 00:00",
    "o": 1.06232,
    "h": 1.06271,
    "l": 1.06213,
    "c": 1.06238,
    "v": 706
  },
  {
    "dt": "2020.07.08 01:00",
    "o": 1.06237,
    "h": 1.06259,
    "l": 1.06233,
    "c": 1.06248,
    "v": 662
  },
  {
    "dt": "2020.07.08 02:00",
    "o": 1.06248,
    "h": 1.06278,
    "l": 1.06243,
    "c": 1.06256,
    "v": 817
  },
  {
    "dt": "2020.07.08 03:00",
    "o": 1.06261,
    "h": 1.06295,
    "l": 1.06229,
    "c": 1.06264,
    "v": 1371
  },
  {
    "dt": "2020.07.08 04:00",
    "o": 1.06265,
    "h": 1.06297,
    "l": 1.06253,
    "c": 1.06278,
    "v": 1403
  },
  {
    "dt": "2020.07.08 05:00",
    "o": 1.06278,
    "h": 1.06309,
    "l": 1.06259,
    "c": 1.06307,
    "v": 1298
  },
  {
    "dt": "2020.07.08 06:00",
    "o": 1.06307,
    "h": 1.06313,
    "l": 1.06282,
    "c": 1.0629,
    "v": 945
  },
  {
    "dt": "2020.07.08 07:00",
    "o": 1.06289,
    "h": 1.06293,
    "l": 1.06241,
    "c": 1.06258,
    "v": 931
  },
  {
    "dt": "2020.07.08 08:00",
    "o": 1.06258,
    "h": 1.06303,
    "l": 1.06255,
    "c": 1.06269,
    "v": 1041
  },
  {
    "dt": "2020.07.08 09:00",
    "o": 1.06266,
    "h": 1.06277,
    "l": 1.06197,
    "c": 1.06253,
    "v": 1819
  },
  {
    "dt": "2020.07.08 10:00",
    "o": 1.06252,
    "h": 1.06293,
    "l": 1.0622,
    "c": 1.06271,
    "v": 2720
  },
  {
    "dt": "2020.07.08 11:00",
    "o": 1.06271,
    "h": 1.06271,
    "l": 1.06196,
    "c": 1.06207,
    "v": 2334
  },
  {
    "dt": "2020.07.08 12:00",
    "o": 1.06207,
    "h": 1.06209,
    "l": 1.06139,
    "c": 1.06159,
    "v": 2372
  },
  {
    "dt": "2020.07.08 13:00",
    "o": 1.06158,
    "h": 1.06218,
    "l": 1.06147,
    "c": 1.06201,
    "v": 1722
  },
  {
    "dt": "2020.07.08 14:00",
    "o": 1.06202,
    "h": 1.06258,
    "l": 1.06191,
    "c": 1.0623,
    "v": 1753
  },
  {
    "dt": "2020.07.08 15:00",
    "o": 1.06233,
    "h": 1.06286,
    "l": 1.06222,
    "c": 1.06273,
    "v": 2032
  },
  {
    "dt": "2020.07.08 16:00",
    "o": 1.06272,
    "h": 1.06383,
    "l": 1.06227,
    "c": 1.06327,
    "v": 3071
  },
  {
    "dt": "2020.07.08 17:00",
    "o": 1.06328,
    "h": 1.06402,
    "l": 1.06247,
    "c": 1.06259,
    "v": 3315
  },
  {
    "dt": "2020.07.08 18:00",
    "o": 1.0626,
    "h": 1.06301,
    "l": 1.0622,
    "c": 1.06271,
    "v": 2735
  },
  {
    "dt": "2020.07.08 19:00",
    "o": 1.06271,
    "h": 1.0636,
    "l": 1.06268,
    "c": 1.06284,
    "v": 2144
  },
  {
    "dt": "2020.07.08 20:00",
    "o": 1.06284,
    "h": 1.06374,
    "l": 1.06284,
    "c": 1.06326,
    "v": 1620
  },
  {
    "dt": "2020.07.08 21:00",
    "o": 1.06323,
    "h": 1.06355,
    "l": 1.06321,
    "c": 1.06321,
    "v": 1612
  },
  {
    "dt": "2020.07.08 22:00",
    "o": 1.06321,
    "h": 1.06334,
    "l": 1.06291,
    "c": 1.06296,
    "v": 1739
  },
  {
    "dt": "2020.07.08 23:00",
    "o": 1.06295,
    "h": 1.06323,
    "l": 1.06277,
    "c": 1.06301,
    "v": 1108
  },
  {
    "dt": "2020.07.09 00:00",
    "o": 1.06274,
    "h": 1.06331,
    "l": 1.06269,
    "c": 1.06282,
    "v": 554
  },
  {
    "dt": "2020.07.09 01:00",
    "o": 1.06284,
    "h": 1.06338,
    "l": 1.06282,
    "c": 1.0633,
    "v": 526
  },
  {
    "dt": "2020.07.09 02:00",
    "o": 1.06331,
    "h": 1.0638,
    "l": 1.06326,
    "c": 1.06374,
    "v": 681
  },
  {
    "dt": "2020.07.09 03:00",
    "o": 1.0637,
    "h": 1.06382,
    "l": 1.06321,
    "c": 1.06348,
    "v": 1217
  },
  {
    "dt": "2020.07.09 04:00",
    "o": 1.06348,
    "h": 1.06359,
    "l": 1.0631,
    "c": 1.0633,
    "v": 1991
  },
  {
    "dt": "2020.07.09 05:00",
    "o": 1.06327,
    "h": 1.06384,
    "l": 1.06315,
    "c": 1.06377,
    "v": 1795
  },
  {
    "dt": "2020.07.09 06:00",
    "o": 1.06376,
    "h": 1.0645,
    "l": 1.0635,
    "c": 1.06434,
    "v": 1324
  },
  {
    "dt": "2020.07.09 07:00",
    "o": 1.06433,
    "h": 1.06466,
    "l": 1.0642,
    "c": 1.06438,
    "v": 1414
  },
  {
    "dt": "2020.07.09 08:00",
    "o": 1.06437,
    "h": 1.06445,
    "l": 1.06392,
    "c": 1.06439,
    "v": 1277
  },
  {
    "dt": "2020.07.09 09:00",
    "o": 1.06437,
    "h": 1.06438,
    "l": 1.06336,
    "c": 1.06382,
    "v": 2002
  },
  {
    "dt": "2020.07.09 10:00",
    "o": 1.06382,
    "h": 1.06405,
    "l": 1.0625,
    "c": 1.06279,
    "v": 2909
  },
  {
    "dt": "2020.07.09 11:00",
    "o": 1.06281,
    "h": 1.06309,
    "l": 1.06242,
    "c": 1.06305,
    "v": 2314
  },
  {
    "dt": "2020.07.09 12:00",
    "o": 1.06306,
    "h": 1.06317,
    "l": 1.06225,
    "c": 1.06284,
    "v": 2387
  },
  {
    "dt": "2020.07.09 13:00",
    "o": 1.06284,
    "h": 1.06327,
    "l": 1.06247,
    "c": 1.06309,
    "v": 2121
  },
  {
    "dt": "2020.07.09 14:00",
    "o": 1.06309,
    "h": 1.06382,
    "l": 1.06267,
    "c": 1.06348,
    "v": 2057
  },
  {
    "dt": "2020.07.09 15:00",
    "o": 1.06348,
    "h": 1.06379,
    "l": 1.06302,
    "c": 1.06325,
    "v": 2178
  },
  {
    "dt": "2020.07.09 16:00",
    "o": 1.06325,
    "h": 1.06356,
    "l": 1.06248,
    "c": 1.06262,
    "v": 2567
  },
  {
    "dt": "2020.07.09 17:00",
    "o": 1.06263,
    "h": 1.06307,
    "l": 1.06118,
    "c": 1.06138,
    "v": 4048
  },
  {
    "dt": "2020.07.09 18:00",
    "o": 1.06137,
    "h": 1.06185,
    "l": 1.06123,
    "c": 1.06166,
    "v": 3421
  },
  {
    "dt": "2020.07.09 19:00",
    "o": 1.06166,
    "h": 1.06207,
    "l": 1.0613,
    "c": 1.06159,
    "v": 2142
  },
  {
    "dt": "2020.07.09 20:00",
    "o": 1.06157,
    "h": 1.06195,
    "l": 1.06142,
    "c": 1.06164,
    "v": 1620
  },
  {
    "dt": "2020.07.09 21:00",
    "o": 1.06163,
    "h": 1.0621,
    "l": 1.06158,
    "c": 1.06207,
    "v": 1391
  },
  {
    "dt": "2020.07.09 22:00",
    "o": 1.06206,
    "h": 1.06206,
    "l": 1.06131,
    "c": 1.06135,
    "v": 1480
  },
  {
    "dt": "2020.07.09 23:00",
    "o": 1.06134,
    "h": 1.06147,
    "l": 1.06064,
    "c": 1.06066,
    "v": 1389
  },
  {
    "dt": "2020.07.10 00:00",
    "o": 1.06043,
    "h": 1.06144,
    "l": 1.06043,
    "c": 1.06086,
    "v": 590
  },
  {
    "dt": "2020.07.10 01:00",
    "o": 1.06086,
    "h": 1.06121,
    "l": 1.06074,
    "c": 1.06121,
    "v": 461
  },
  {
    "dt": "2020.07.10 02:00",
    "o": 1.0612,
    "h": 1.06143,
    "l": 1.06099,
    "c": 1.06138,
    "v": 538
  },
  {
    "dt": "2020.07.10 03:00",
    "o": 1.06144,
    "h": 1.06147,
    "l": 1.06062,
    "c": 1.06088,
    "v": 1372
  },
  {
    "dt": "2020.07.10 04:00",
    "o": 1.06088,
    "h": 1.06129,
    "l": 1.06085,
    "c": 1.06128,
    "v": 1719
  },
  {
    "dt": "2020.07.10 05:00",
    "o": 1.06126,
    "h": 1.06152,
    "l": 1.06111,
    "c": 1.06143,
    "v": 1261
  },
  {
    "dt": "2020.07.10 06:00",
    "o": 1.06143,
    "h": 1.06182,
    "l": 1.06136,
    "c": 1.06175,
    "v": 1135
  },
  {
    "dt": "2020.07.10 07:00",
    "o": 1.06175,
    "h": 1.06183,
    "l": 1.06126,
    "c": 1.06128,
    "v": 1185
  },
  {
    "dt": "2020.07.10 08:00",
    "o": 1.06129,
    "h": 1.06162,
    "l": 1.06114,
    "c": 1.06153,
    "v": 1412
  },
  {
    "dt": "2020.07.10 09:00",
    "o": 1.06152,
    "h": 1.06177,
    "l": 1.06078,
    "c": 1.06134,
    "v": 1926
  },
  {
    "dt": "2020.07.10 10:00",
    "o": 1.06135,
    "h": 1.0627,
    "l": 1.06097,
    "c": 1.06256,
    "v": 2609
  },
  {
    "dt": "2020.07.10 11:00",
    "o": 1.06259,
    "h": 1.06321,
    "l": 1.06234,
    "c": 1.06278,
    "v": 2334
  },
  {
    "dt": "2020.07.10 12:00",
    "o": 1.06276,
    "h": 1.06332,
    "l": 1.06268,
    "c": 1.06302,
    "v": 2459
  },
  {
    "dt": "2020.07.10 13:00",
    "o": 1.06305,
    "h": 1.06348,
    "l": 1.0627,
    "c": 1.06331,
    "v": 1912
  },
  {
    "dt": "2020.07.10 14:00",
    "o": 1.0633,
    "h": 1.06366,
    "l": 1.06287,
    "c": 1.06292,
    "v": 1508
  },
  {
    "dt": "2020.07.10 15:00",
    "o": 1.06291,
    "h": 1.06314,
    "l": 1.06232,
    "c": 1.06297,
    "v": 2060
  },
  {
    "dt": "2020.07.10 16:00",
    "o": 1.06298,
    "h": 1.06382,
    "l": 1.06278,
    "c": 1.06285,
    "v": 3164
  },
  {
    "dt": "2020.07.10 17:00",
    "o": 1.06289,
    "h": 1.06358,
    "l": 1.06271,
    "c": 1.06311,
    "v": 3248
  },
  {
    "dt": "2020.07.10 18:00",
    "o": 1.0631,
    "h": 1.06332,
    "l": 1.06283,
    "c": 1.06319,
    "v": 2191
  },
  {
    "dt": "2020.07.10 19:00",
    "o": 1.06319,
    "h": 1.06336,
    "l": 1.0627,
    "c": 1.06297,
    "v": 2052
  },
  {
    "dt": "2020.07.10 20:00",
    "o": 1.06297,
    "h": 1.0639,
    "l": 1.0629,
    "c": 1.06389,
    "v": 1406
  },
  {
    "dt": "2020.07.10 21:00",
    "o": 1.06388,
    "h": 1.06393,
    "l": 1.06365,
    "c": 1.0637,
    "v": 1121
  },
  {
    "dt": "2020.07.10 22:00",
    "o": 1.0637,
    "h": 1.06386,
    "l": 1.06357,
    "c": 1.06363,
    "v": 1115
  },
  {
    "dt": "2020.07.10 23:00",
    "o": 1.06366,
    "h": 1.06367,
    "l": 1.06324,
    "c": 1.06332,
    "v": 1080
  },
  {
    "dt": "2020.07.13 00:00",
    "o": 1.06281,
    "h": 1.06389,
    "l": 1.06281,
    "c": 1.0632,
    "v": 102
  },
  {
    "dt": "2020.07.13 01:00",
    "o": 1.06322,
    "h": 1.06411,
    "l": 1.06309,
    "c": 1.06407,
    "v": 724
  },
  {
    "dt": "2020.07.13 02:00",
    "o": 1.06407,
    "h": 1.0641,
    "l": 1.06355,
    "c": 1.06357,
    "v": 969
  },
  {
    "dt": "2020.07.13 03:00",
    "o": 1.0636,
    "h": 1.06393,
    "l": 1.06341,
    "c": 1.06389,
    "v": 1417
  },
  {
    "dt": "2020.07.13 04:00",
    "o": 1.06391,
    "h": 1.06416,
    "l": 1.06375,
    "c": 1.06384,
    "v": 1898
  },
  {
    "dt": "2020.07.13 05:00",
    "o": 1.0638,
    "h": 1.06426,
    "l": 1.06367,
    "c": 1.0642,
    "v": 1128
  },
  {
    "dt": "2020.07.13 06:00",
    "o": 1.0642,
    "h": 1.0643,
    "l": 1.0641,
    "c": 1.06416,
    "v": 1029
  },
  {
    "dt": "2020.07.13 07:00",
    "o": 1.06415,
    "h": 1.06434,
    "l": 1.06403,
    "c": 1.06422,
    "v": 943
  },
  {
    "dt": "2020.07.13 08:00",
    "o": 1.06422,
    "h": 1.0651,
    "l": 1.06409,
    "c": 1.06457,
    "v": 1212
  },
  {
    "dt": "2020.07.13 09:00",
    "o": 1.06457,
    "h": 1.06474,
    "l": 1.06397,
    "c": 1.06458,
    "v": 1795
  },
  {
    "dt": "2020.07.13 10:00",
    "o": 1.06457,
    "h": 1.06488,
    "l": 1.06411,
    "c": 1.06457,
    "v": 2404
  },
  {
    "dt": "2020.07.13 11:00",
    "o": 1.06457,
    "h": 1.06518,
    "l": 1.06443,
    "c": 1.06514,
    "v": 2259
  },
  {
    "dt": "2020.07.13 12:00",
    "o": 1.06516,
    "h": 1.06599,
    "l": 1.06497,
    "c": 1.06591,
    "v": 1957
  },
  {
    "dt": "2020.07.13 13:00",
    "o": 1.06592,
    "h": 1.06734,
    "l": 1.06591,
    "c": 1.06713,
    "v": 1814
  },
  {
    "dt": "2020.07.13 14:00",
    "o": 1.06715,
    "h": 1.06778,
    "l": 1.06694,
    "c": 1.06774,
    "v": 1907
  },
  {
    "dt": "2020.07.13 15:00",
    "o": 1.06775,
    "h": 1.06902,
    "l": 1.06768,
    "c": 1.06789,
    "v": 2062
  },
  {
    "dt": "2020.07.13 16:00",
    "o": 1.06788,
    "h": 1.06906,
    "l": 1.06772,
    "c": 1.06833,
    "v": 2762
  },
  {
    "dt": "2020.07.13 17:00",
    "o": 1.06833,
    "h": 1.0702,
    "l": 1.06833,
    "c": 1.07002,
    "v": 2664
  },
  {
    "dt": "2020.07.13 18:00",
    "o": 1.07,
    "h": 1.07001,
    "l": 1.06906,
    "c": 1.06936,
    "v": 2331
  },
  {
    "dt": "2020.07.13 19:00",
    "o": 1.06934,
    "h": 1.06937,
    "l": 1.06885,
    "c": 1.06896,
    "v": 1811
  },
  {
    "dt": "2020.07.13 20:00",
    "o": 1.06896,
    "h": 1.0696,
    "l": 1.06885,
    "c": 1.06953,
    "v": 1453
  },
  {
    "dt": "2020.07.13 21:00",
    "o": 1.06954,
    "h": 1.06974,
    "l": 1.06889,
    "c": 1.06897,
    "v": 2159
  },
  {
    "dt": "2020.07.13 22:00",
    "o": 1.06892,
    "h": 1.06895,
    "l": 1.0683,
    "c": 1.0684,
    "v": 2564
  },
  {
    "dt": "2020.07.13 23:00",
    "o": 1.06839,
    "h": 1.06843,
    "l": 1.06797,
    "c": 1.06802,
    "v": 1160
  },
  {
    "dt": "2020.07.14 00:00",
    "o": 1.0677,
    "h": 1.06841,
    "l": 1.06769,
    "c": 1.06809,
    "v": 754
  },
  {
    "dt": "2020.07.14 01:00",
    "o": 1.0681,
    "h": 1.06855,
    "l": 1.068,
    "c": 1.06843,
    "v": 572
  },
  {
    "dt": "2020.07.14 02:00",
    "o": 1.06844,
    "h": 1.06871,
    "l": 1.06837,
    "c": 1.06842,
    "v": 879
  },
  {
    "dt": "2020.07.14 03:00",
    "o": 1.0684,
    "h": 1.06887,
    "l": 1.06833,
    "c": 1.06874,
    "v": 1709
  },
  {
    "dt": "2020.07.14 04:00",
    "o": 1.06873,
    "h": 1.06893,
    "l": 1.06831,
    "c": 1.06842,
    "v": 1750
  },
  {
    "dt": "2020.07.14 05:00",
    "o": 1.06839,
    "h": 1.06851,
    "l": 1.06794,
    "c": 1.06815,
    "v": 1486
  },
  {
    "dt": "2020.07.14 06:00",
    "o": 1.06816,
    "h": 1.0684,
    "l": 1.06805,
    "c": 1.06834,
    "v": 1172
  },
  {
    "dt": "2020.07.14 07:00",
    "o": 1.06834,
    "h": 1.0684,
    "l": 1.06814,
    "c": 1.06838,
    "v": 664
  },
  {
    "dt": "2020.07.14 08:00",
    "o": 1.06837,
    "h": 1.06849,
    "l": 1.06802,
    "c": 1.06808,
    "v": 1219
  },
  {
    "dt": "2020.07.14 09:00",
    "o": 1.06807,
    "h": 1.06845,
    "l": 1.0673,
    "c": 1.06738,
    "v": 1691
  },
  {
    "dt": "2020.07.14 10:00",
    "o": 1.06739,
    "h": 1.06754,
    "l": 1.06496,
    "c": 1.06559,
    "v": 2740
  },
  {
    "dt": "2020.07.14 11:00",
    "o": 1.06556,
    "h": 1.06723,
    "l": 1.06553,
    "c": 1.06626,
    "v": 2704
  },
  {
    "dt": "2020.07.14 12:00",
    "o": 1.06628,
    "h": 1.06776,
    "l": 1.0661,
    "c": 1.0677,
    "v": 2544
  },
  {
    "dt": "2020.07.14 13:00",
    "o": 1.06771,
    "h": 1.06849,
    "l": 1.06736,
    "c": 1.06849,
    "v": 2180
  },
  {
    "dt": "2020.07.14 14:00",
    "o": 1.06848,
    "h": 1.06945,
    "l": 1.06845,
    "c": 1.06882,
    "v": 2114
  },
  {
    "dt": "2020.07.14 15:00",
    "o": 1.06882,
    "h": 1.06921,
    "l": 1.06801,
    "c": 1.06835,
    "v": 2478
  },
  {
    "dt": "2020.07.14 16:00",
    "o": 1.06836,
    "h": 1.06993,
    "l": 1.06809,
    "c": 1.06969,
    "v": 3533
  },
  {
    "dt": "2020.07.14 17:00",
    "o": 1.06973,
    "h": 1.07027,
    "l": 1.06926,
    "c": 1.07017,
    "v": 3939
  },
  {
    "dt": "2020.07.14 18:00",
    "o": 1.07022,
    "h": 1.07065,
    "l": 1.06981,
    "c": 1.07048,
    "v": 3015
  },
  {
    "dt": "2020.07.14 19:00",
    "o": 1.07045,
    "h": 1.07064,
    "l": 1.06988,
    "c": 1.07011,
    "v": 1806
  },
  {
    "dt": "2020.07.14 20:00",
    "o": 1.0701,
    "h": 1.0703,
    "l": 1.06973,
    "c": 1.06999,
    "v": 1539
  },
  {
    "dt": "2020.07.14 21:00",
    "o": 1.06998,
    "h": 1.07029,
    "l": 1.06984,
    "c": 1.06995,
    "v": 1799
  },
  {
    "dt": "2020.07.14 22:00",
    "o": 1.06996,
    "h": 1.07117,
    "l": 1.0698,
    "c": 1.07098,
    "v": 1807
  },
  {
    "dt": "2020.07.14 23:00",
    "o": 1.071,
    "h": 1.07157,
    "l": 1.07091,
    "c": 1.07148,
    "v": 944
  },
  {
    "dt": "2020.07.15 00:00",
    "o": 1.07097,
    "h": 1.07119,
    "l": 1.07018,
    "c": 1.07099,
    "v": 712
  },
  {
    "dt": "2020.07.15 01:00",
    "o": 1.07116,
    "h": 1.07183,
    "l": 1.07098,
    "c": 1.07175,
    "v": 701
  },
  {
    "dt": "2020.07.15 02:00",
    "o": 1.07177,
    "h": 1.07193,
    "l": 1.07162,
    "c": 1.07184,
    "v": 898
  },
  {
    "dt": "2020.07.15 03:00",
    "o": 1.07185,
    "h": 1.07305,
    "l": 1.0718,
    "c": 1.07305,
    "v": 1671
  },
  {
    "dt": "2020.07.15 04:00",
    "o": 1.07306,
    "h": 1.07321,
    "l": 1.07246,
    "c": 1.07267,
    "v": 1827
  },
  {
    "dt": "2020.07.15 05:00",
    "o": 1.07265,
    "h": 1.0728,
    "l": 1.07217,
    "c": 1.07231,
    "v": 1379
  },
  {
    "dt": "2020.07.15 06:00",
    "o": 1.07231,
    "h": 1.07234,
    "l": 1.07164,
    "c": 1.07174,
    "v": 1474
  },
  {
    "dt": "2020.07.15 07:00",
    "o": 1.07175,
    "h": 1.07193,
    "l": 1.07159,
    "c": 1.07182,
    "v": 1076
  },
  {
    "dt": "2020.07.15 08:00",
    "o": 1.07181,
    "h": 1.07195,
    "l": 1.07153,
    "c": 1.07187,
    "v": 1264
  },
  {
    "dt": "2020.07.15 09:00",
    "o": 1.07187,
    "h": 1.07215,
    "l": 1.07101,
    "c": 1.07105,
    "v": 1786
  },
  {
    "dt": "2020.07.15 10:00",
    "o": 1.07106,
    "h": 1.07222,
    "l": 1.07008,
    "c": 1.07176,
    "v": 3021
  },
  {
    "dt": "2020.07.15 11:00",
    "o": 1.07176,
    "h": 1.07352,
    "l": 1.07172,
    "c": 1.07337,
    "v": 2852
  },
  {
    "dt": "2020.07.15 12:00",
    "o": 1.07337,
    "h": 1.07396,
    "l": 1.07326,
    "c": 1.07394,
    "v": 2564
  },
  {
    "dt": "2020.07.15 13:00",
    "o": 1.07394,
    "h": 1.07643,
    "l": 1.07384,
    "c": 1.07639,
    "v": 2808
  },
  {
    "dt": "2020.07.15 14:00",
    "o": 1.07637,
    "h": 1.07784,
    "l": 1.07633,
    "c": 1.07712,
    "v": 2694
  },
  {
    "dt": "2020.07.15 15:00",
    "o": 1.07715,
    "h": 1.07823,
    "l": 1.07698,
    "c": 1.07749,
    "v": 2227
  },
  {
    "dt": "2020.07.15 16:00",
    "o": 1.0775,
    "h": 1.0781,
    "l": 1.07669,
    "c": 1.07682,
    "v": 2827
  },
  {
    "dt": "2020.07.15 17:00",
    "o": 1.07682,
    "h": 1.07766,
    "l": 1.07561,
    "c": 1.07752,
    "v": 3529
  },
  {
    "dt": "2020.07.15 18:00",
    "o": 1.07753,
    "h": 1.07832,
    "l": 1.07657,
    "c": 1.07657,
    "v": 2846
  },
  {
    "dt": "2020.07.15 19:00",
    "o": 1.07661,
    "h": 1.07716,
    "l": 1.07625,
    "c": 1.07715,
    "v": 2037
  },
  {
    "dt": "2020.07.15 20:00",
    "o": 1.07717,
    "h": 1.07794,
    "l": 1.07697,
    "c": 1.07782,
    "v": 1501
  },
  {
    "dt": "2020.07.15 21:00",
    "o": 1.07778,
    "h": 1.07869,
    "l": 1.0777,
    "c": 1.07829,
    "v": 1421
  },
  {
    "dt": "2020.07.15 22:00",
    "o": 1.07828,
    "h": 1.07853,
    "l": 1.078,
    "c": 1.07808,
    "v": 1284
  },
  {
    "dt": "2020.07.15 23:00",
    "o": 1.0781,
    "h": 1.07819,
    "l": 1.07749,
    "c": 1.07749,
    "v": 794
  },
  {
    "dt": "2020.07.16 00:00",
    "o": 1.07709,
    "h": 1.078,
    "l": 1.07709,
    "c": 1.07757,
    "v": 501
  },
  {
    "dt": "2020.07.16 01:00",
    "o": 1.07765,
    "h": 1.07781,
    "l": 1.07736,
    "c": 1.07769,
    "v": 681
  },
  {
    "dt": "2020.07.16 02:00",
    "o": 1.07772,
    "h": 1.07784,
    "l": 1.07758,
    "c": 1.07763,
    "v": 768
  },
  {
    "dt": "2020.07.16 03:00",
    "o": 1.07767,
    "h": 1.07895,
    "l": 1.07743,
    "c": 1.07878,
    "v": 1617
  },
  {
    "dt": "2020.07.16 04:00",
    "o": 1.07876,
    "h": 1.07886,
    "l": 1.07847,
    "c": 1.07873,
    "v": 1675
  },
  {
    "dt": "2020.07.16 05:00",
    "o": 1.07868,
    "h": 1.07873,
    "l": 1.07743,
    "c": 1.07792,
    "v": 1569
  },
  {
    "dt": "2020.07.16 06:00",
    "o": 1.07793,
    "h": 1.07843,
    "l": 1.07791,
    "c": 1.07838,
    "v": 1043
  },
  {
    "dt": "2020.07.16 07:00",
    "o": 1.07839,
    "h": 1.0784,
    "l": 1.07813,
    "c": 1.07813,
    "v": 683
  },
  {
    "dt": "2020.07.16 08:00",
    "o": 1.07813,
    "h": 1.07827,
    "l": 1.07779,
    "c": 1.07821,
    "v": 1376
  },
  {
    "dt": "2020.07.16 09:00",
    "o": 1.0782,
    "h": 1.07842,
    "l": 1.07752,
    "c": 1.07752,
    "v": 1997
  },
  {
    "dt": "2020.07.16 10:00",
    "o": 1.07755,
    "h": 1.07776,
    "l": 1.07692,
    "c": 1.07719,
    "v": 2710
  },
  {
    "dt": "2020.07.16 11:00",
    "o": 1.07717,
    "h": 1.07744,
    "l": 1.07609,
    "c": 1.07651,
    "v": 2665
  },
  {
    "dt": "2020.07.16 12:00",
    "o": 1.0765,
    "h": 1.07696,
    "l": 1.07627,
    "c": 1.07637,
    "v": 2150
  },
  {
    "dt": "2020.07.16 13:00",
    "o": 1.07636,
    "h": 1.07787,
    "l": 1.07629,
    "c": 1.07767,
    "v": 2221
  },
  {
    "dt": "2020.07.16 14:00",
    "o": 1.07765,
    "h": 1.07895,
    "l": 1.07757,
    "c": 1.07877,
    "v": 2195
  },
  {
    "dt": "2020.07.16 15:00",
    "o": 1.07881,
    "h": 1.07955,
    "l": 1.07831,
    "c": 1.07885,
    "v": 3004
  },
  {
    "dt": "2020.07.16 16:00",
    "o": 1.07884,
    "h": 1.07962,
    "l": 1.07836,
    "c": 1.07937,
    "v": 3225
  },
  {
    "dt": "2020.07.16 17:00",
    "o": 1.07938,
    "h": 1.07958,
    "l": 1.07837,
    "c": 1.07848,
    "v": 3116
  },
  {
    "dt": "2020.07.16 18:00",
    "o": 1.07846,
    "h": 1.07856,
    "l": 1.07791,
    "c": 1.07828,
    "v": 2243
  },
  {
    "dt": "2020.07.16 19:00",
    "o": 1.07828,
    "h": 1.07829,
    "l": 1.07627,
    "c": 1.07639,
    "v": 1782
  },
  {
    "dt": "2020.07.16 20:00",
    "o": 1.0764,
    "h": 1.07646,
    "l": 1.07466,
    "c": 1.07496,
    "v": 2271
  },
  {
    "dt": "2020.07.16 21:00",
    "o": 1.07494,
    "h": 1.07541,
    "l": 1.07482,
    "c": 1.07513,
    "v": 1915
  },
  {
    "dt": "2020.07.16 22:00",
    "o": 1.07512,
    "h": 1.07613,
    "l": 1.07479,
    "c": 1.07608,
    "v": 1955
  },
  {
    "dt": "2020.07.16 23:00",
    "o": 1.07612,
    "h": 1.07648,
    "l": 1.07547,
    "c": 1.07642,
    "v": 1101
  },
  {
    "dt": "2020.07.17 00:00",
    "o": 1.07612,
    "h": 1.07647,
    "l": 1.07522,
    "c": 1.07566,
    "v": 728
  },
  {
    "dt": "2020.07.17 01:00",
    "o": 1.0757,
    "h": 1.07637,
    "l": 1.07567,
    "c": 1.07634,
    "v": 603
  },
  {
    "dt": "2020.07.17 02:00",
    "o": 1.07635,
    "h": 1.07657,
    "l": 1.07626,
    "c": 1.07653,
    "v": 590
  },
  {
    "dt": "2020.07.17 03:00",
    "o": 1.07652,
    "h": 1.07679,
    "l": 1.07606,
    "c": 1.07627,
    "v": 1121
  },
  {
    "dt": "2020.07.17 04:00",
    "o": 1.07626,
    "h": 1.07637,
    "l": 1.07585,
    "c": 1.07636,
    "v": 1681
  },
  {
    "dt": "2020.07.17 05:00",
    "o": 1.07632,
    "h": 1.0764,
    "l": 1.07615,
    "c": 1.07625,
    "v": 1321
  },
  {
    "dt": "2020.07.17 06:00",
    "o": 1.07623,
    "h": 1.07632,
    "l": 1.07583,
    "c": 1.07602,
    "v": 1146
  },
  {
    "dt": "2020.07.17 07:00",
    "o": 1.07603,
    "h": 1.07619,
    "l": 1.07576,
    "c": 1.07589,
    "v": 920
  },
  {
    "dt": "2020.07.17 08:00",
    "o": 1.07589,
    "h": 1.07591,
    "l": 1.07531,
    "c": 1.07546,
    "v": 1212
  },
  {
    "dt": "2020.07.17 09:00",
    "o": 1.07546,
    "h": 1.07593,
    "l": 1.07534,
    "c": 1.0756,
    "v": 1561
  },
  {
    "dt": "2020.07.17 10:00",
    "o": 1.07561,
    "h": 1.07643,
    "l": 1.07527,
    "c": 1.07628,
    "v": 2216
  },
  {
    "dt": "2020.07.17 11:00",
    "o": 1.07631,
    "h": 1.07677,
    "l": 1.07575,
    "c": 1.07624,
    "v": 2163
  },
  {
    "dt": "2020.07.17 12:00",
    "o": 1.07623,
    "h": 1.07629,
    "l": 1.07553,
    "c": 1.07555,
    "v": 2268
  },
  {
    "dt": "2020.07.17 13:00",
    "o": 1.07554,
    "h": 1.07555,
    "l": 1.0747,
    "c": 1.07554,
    "v": 2163
  },
  {
    "dt": "2020.07.17 14:00",
    "o": 1.07554,
    "h": 1.07559,
    "l": 1.0748,
    "c": 1.07509,
    "v": 1766
  },
  {
    "dt": "2020.07.17 15:00",
    "o": 1.07509,
    "h": 1.07531,
    "l": 1.07413,
    "c": 1.07447,
    "v": 1926
  },
  {
    "dt": "2020.07.17 16:00",
    "o": 1.07447,
    "h": 1.0748,
    "l": 1.07375,
    "c": 1.0744,
    "v": 2480
  },
  {
    "dt": "2020.07.17 17:00",
    "o": 1.07439,
    "h": 1.07524,
    "l": 1.07306,
    "c": 1.07342,
    "v": 2682
  },
  {
    "dt": "2020.07.17 18:00",
    "o": 1.07341,
    "h": 1.07399,
    "l": 1.07312,
    "c": 1.07374,
    "v": 2089
  },
  {
    "dt": "2020.07.17 19:00",
    "o": 1.07375,
    "h": 1.07384,
    "l": 1.07324,
    "c": 1.07346,
    "v": 1650
  },
  {
    "dt": "2020.07.17 20:00",
    "o": 1.07345,
    "h": 1.0738,
    "l": 1.07338,
    "c": 1.07376,
    "v": 1295
  },
  {
    "dt": "2020.07.17 21:00",
    "o": 1.07376,
    "h": 1.07376,
    "l": 1.07314,
    "c": 1.07317,
    "v": 1214
  },
  {
    "dt": "2020.07.17 22:00",
    "o": 1.07316,
    "h": 1.07332,
    "l": 1.07293,
    "c": 1.07299,
    "v": 1706
  },
  {
    "dt": "2020.07.17 23:00",
    "o": 1.07296,
    "h": 1.07312,
    "l": 1.07218,
    "c": 1.07239,
    "v": 1148
  },
  {
    "dt": "2020.07.20 00:00",
    "o": 1.07268,
    "h": 1.07371,
    "l": 1.07268,
    "c": 1.07288,
    "v": 713
  },
  {
    "dt": "2020.07.20 01:00",
    "o": 1.07317,
    "h": 1.07379,
    "l": 1.07254,
    "c": 1.07318,
    "v": 1095
  },
  {
    "dt": "2020.07.20 02:00",
    "o": 1.07317,
    "h": 1.07375,
    "l": 1.07305,
    "c": 1.07365,
    "v": 823
  },
  {
    "dt": "2020.07.20 03:00",
    "o": 1.07364,
    "h": 1.07365,
    "l": 1.07302,
    "c": 1.07348,
    "v": 1704
  },
  {
    "dt": "2020.07.20 04:00",
    "o": 1.07349,
    "h": 1.0736,
    "l": 1.07313,
    "c": 1.07338,
    "v": 2230
  },
  {
    "dt": "2020.07.20 05:00",
    "o": 1.07339,
    "h": 1.07387,
    "l": 1.07328,
    "c": 1.07346,
    "v": 1479
  },
  {
    "dt": "2020.07.20 06:00",
    "o": 1.07345,
    "h": 1.07369,
    "l": 1.07295,
    "c": 1.07316,
    "v": 1197
  },
  {
    "dt": "2020.07.20 07:00",
    "o": 1.07318,
    "h": 1.07397,
    "l": 1.07291,
    "c": 1.07397,
    "v": 1334
  },
  {
    "dt": "2020.07.20 08:00",
    "o": 1.07392,
    "h": 1.07553,
    "l": 1.07367,
    "c": 1.07552,
    "v": 2109
  },
  {
    "dt": "2020.07.20 09:00",
    "o": 1.0755,
    "h": 1.07699,
    "l": 1.07524,
    "c": 1.07621,
    "v": 2424
  },
  {
    "dt": "2020.07.20 10:00",
    "o": 1.07621,
    "h": 1.07694,
    "l": 1.07555,
    "c": 1.07589,
    "v": 3065
  },
  {
    "dt": "2020.07.20 11:00",
    "o": 1.0759,
    "h": 1.07752,
    "l": 1.07579,
    "c": 1.07627,
    "v": 2857
  },
  {
    "dt": "2020.07.20 12:00",
    "o": 1.07626,
    "h": 1.07648,
    "l": 1.07594,
    "c": 1.07603,
    "v": 2201
  },
  {
    "dt": "2020.07.20 13:00",
    "o": 1.07606,
    "h": 1.07615,
    "l": 1.07461,
    "c": 1.07464,
    "v": 1930
  },
  {
    "dt": "2020.07.20 14:00",
    "o": 1.07465,
    "h": 1.0751,
    "l": 1.07362,
    "c": 1.07364,
    "v": 2286
  },
  {
    "dt": "2020.07.20 15:00",
    "o": 1.07368,
    "h": 1.07376,
    "l": 1.07229,
    "c": 1.07234,
    "v": 2601
  },
  {
    "dt": "2020.07.20 16:00",
    "o": 1.07235,
    "h": 1.0734,
    "l": 1.07195,
    "c": 1.07245,
    "v": 3104
  },
  {
    "dt": "2020.07.20 17:00",
    "o": 1.0724,
    "h": 1.07472,
    "l": 1.07194,
    "c": 1.07467,
    "v": 2914
  },
  {
    "dt": "2020.07.20 18:00",
    "o": 1.07462,
    "h": 1.07481,
    "l": 1.07401,
    "c": 1.07436,
    "v": 2285
  },
  {
    "dt": "2020.07.20 19:00",
    "o": 1.07435,
    "h": 1.07486,
    "l": 1.07432,
    "c": 1.0747,
    "v": 1498
  },
  {
    "dt": "2020.07.20 20:00",
    "o": 1.07471,
    "h": 1.07517,
    "l": 1.07462,
    "c": 1.07482,
    "v": 1369
  },
  {
    "dt": "2020.07.20 21:00",
    "o": 1.07482,
    "h": 1.07497,
    "l": 1.0746,
    "c": 1.07468,
    "v": 1147
  },
  {
    "dt": "2020.07.20 22:00",
    "o": 1.07469,
    "h": 1.07499,
    "l": 1.07454,
    "c": 1.07472,
    "v": 1451
  },
  {
    "dt": "2020.07.20 23:00",
    "o": 1.07473,
    "h": 1.07495,
    "l": 1.07449,
    "c": 1.07461,
    "v": 902
  },
  {
    "dt": "2020.07.21 00:00",
    "o": 1.07443,
    "h": 1.075,
    "l": 1.07443,
    "c": 1.07452,
    "v": 268
  },
  {
    "dt": "2020.07.21 01:00",
    "o": 1.07452,
    "h": 1.07487,
    "l": 1.07445,
    "c": 1.07482,
    "v": 474
  },
  {
    "dt": "2020.07.21 02:00",
    "o": 1.07482,
    "h": 1.07561,
    "l": 1.0748,
    "c": 1.07543,
    "v": 848
  },
  {
    "dt": "2020.07.21 03:00",
    "o": 1.07544,
    "h": 1.0758,
    "l": 1.07531,
    "c": 1.07554,
    "v": 1518
  },
  {
    "dt": "2020.07.21 04:00",
    "o": 1.07555,
    "h": 1.07565,
    "l": 1.07515,
    "c": 1.07532,
    "v": 1366
  },
  {
    "dt": "2020.07.21 05:00",
    "o": 1.07533,
    "h": 1.07535,
    "l": 1.07496,
    "c": 1.07517,
    "v": 1002
  },
  {
    "dt": "2020.07.21 06:00",
    "o": 1.07516,
    "h": 1.07547,
    "l": 1.07412,
    "c": 1.07435,
    "v": 1902
  },
  {
    "dt": "2020.07.21 07:00",
    "o": 1.07435,
    "h": 1.07452,
    "l": 1.07346,
    "c": 1.07363,
    "v": 1699
  },
  {
    "dt": "2020.07.21 08:00",
    "o": 1.07363,
    "h": 1.07451,
    "l": 1.07345,
    "c": 1.07448,
    "v": 1465
  },
  {
    "dt": "2020.07.21 09:00",
    "o": 1.07448,
    "h": 1.07498,
    "l": 1.0732,
    "c": 1.07381,
    "v": 2198
  },
  {
    "dt": "2020.07.21 10:00",
    "o": 1.07382,
    "h": 1.0747,
    "l": 1.07313,
    "c": 1.07341,
    "v": 3117
  },
  {
    "dt": "2020.07.21 11:00",
    "o": 1.07342,
    "h": 1.07439,
    "l": 1.07325,
    "c": 1.07393,
    "v": 2469
  },
  {
    "dt": "2020.07.21 12:00",
    "o": 1.07394,
    "h": 1.07417,
    "l": 1.07313,
    "c": 1.0732,
    "v": 2098
  },
  {
    "dt": "2020.07.21 13:00",
    "o": 1.07321,
    "h": 1.07367,
    "l": 1.0723,
    "c": 1.07237,
    "v": 2218
  },
  {
    "dt": "2020.07.21 14:00",
    "o": 1.07235,
    "h": 1.07398,
    "l": 1.07212,
    "c": 1.07379,
    "v": 2404
  },
  {
    "dt": "2020.07.21 15:00",
    "o": 1.07375,
    "h": 1.07411,
    "l": 1.07301,
    "c": 1.07308,
    "v": 2278
  },
  {
    "dt": "2020.07.21 16:00",
    "o": 1.0731,
    "h": 1.07498,
    "l": 1.07297,
    "c": 1.07491,
    "v": 3129
  },
  {
    "dt": "2020.07.21 17:00",
    "o": 1.07492,
    "h": 1.07574,
    "l": 1.07452,
    "c": 1.07522,
    "v": 3596
  },
  {
    "dt": "2020.07.21 18:00",
    "o": 1.07522,
    "h": 1.07528,
    "l": 1.07326,
    "c": 1.07349,
    "v": 2847
  },
  {
    "dt": "2020.07.21 19:00",
    "o": 1.07346,
    "h": 1.07463,
    "l": 1.07323,
    "c": 1.07417,
    "v": 2359
  },
  {
    "dt": "2020.07.21 20:00",
    "o": 1.07417,
    "h": 1.07575,
    "l": 1.07401,
    "c": 1.07536,
    "v": 1980
  },
  {
    "dt": "2020.07.21 21:00",
    "o": 1.0754,
    "h": 1.07572,
    "l": 1.07492,
    "c": 1.07558,
    "v": 1832
  },
  {
    "dt": "2020.07.21 22:00",
    "o": 1.07556,
    "h": 1.07581,
    "l": 1.07503,
    "c": 1.0752,
    "v": 2197
  },
  {
    "dt": "2020.07.21 23:00",
    "o": 1.07518,
    "h": 1.07572,
    "l": 1.07495,
    "c": 1.07545,
    "v": 1221
  },
  {
    "dt": "2020.07.22 00:00",
    "o": 1.07562,
    "h": 1.07584,
    "l": 1.07515,
    "c": 1.07531,
    "v": 466
  },
  {
    "dt": "2020.07.22 01:00",
    "o": 1.07532,
    "h": 1.07577,
    "l": 1.07532,
    "c": 1.07562,
    "v": 733
  },
  {
    "dt": "2020.07.22 02:00",
    "o": 1.07564,
    "h": 1.07591,
    "l": 1.0753,
    "c": 1.07556,
    "v": 1248
  },
  {
    "dt": "2020.07.22 03:00",
    "o": 1.07557,
    "h": 1.07578,
    "l": 1.07522,
    "c": 1.07542,
    "v": 1622
  },
  {
    "dt": "2020.07.22 04:00",
    "o": 1.0754,
    "h": 1.07576,
    "l": 1.07522,
    "c": 1.0756,
    "v": 2136
  },
  {
    "dt": "2020.07.22 05:00",
    "o": 1.07562,
    "h": 1.07593,
    "l": 1.07539,
    "c": 1.07589,
    "v": 1531
  },
  {
    "dt": "2020.07.22 06:00",
    "o": 1.0759,
    "h": 1.07592,
    "l": 1.07563,
    "c": 1.07585,
    "v": 1022
  },
  {
    "dt": "2020.07.22 07:00",
    "o": 1.07584,
    "h": 1.07596,
    "l": 1.07567,
    "c": 1.07567,
    "v": 940
  },
  {
    "dt": "2020.07.22 08:00",
    "o": 1.07566,
    "h": 1.07577,
    "l": 1.07523,
    "c": 1.07547,
    "v": 1426
  },
  {
    "dt": "2020.07.22 09:00",
    "o": 1.07548,
    "h": 1.07553,
    "l": 1.07418,
    "c": 1.07478,
    "v": 2314
  },
  {
    "dt": "2020.07.22 10:00",
    "o": 1.07475,
    "h": 1.07576,
    "l": 1.07421,
    "c": 1.07484,
    "v": 3774
  },
  {
    "dt": "2020.07.22 11:00",
    "o": 1.07478,
    "h": 1.07673,
    "l": 1.07472,
    "c": 1.07638,
    "v": 3411
  },
  {
    "dt": "2020.07.22 12:00",
    "o": 1.07641,
    "h": 1.07812,
    "l": 1.07598,
    "c": 1.07809,
    "v": 2849
  },
  {
    "dt": "2020.07.22 13:00",
    "o": 1.07808,
    "h": 1.0791,
    "l": 1.07748,
    "c": 1.07858,
    "v": 3067
  },
  {
    "dt": "2020.07.22 14:00",
    "o": 1.07858,
    "h": 1.07893,
    "l": 1.07757,
    "c": 1.0787,
    "v": 2750
  },
  {
    "dt": "2020.07.22 15:00",
    "o": 1.07871,
    "h": 1.0794,
    "l": 1.07814,
    "c": 1.07937,
    "v": 3086
  },
  {
    "dt": "2020.07.22 16:00",
    "o": 1.0794,
    "h": 1.0794,
    "l": 1.07802,
    "c": 1.07843,
    "v": 3433
  },
  {
    "dt": "2020.07.22 17:00",
    "o": 1.07842,
    "h": 1.07846,
    "l": 1.07699,
    "c": 1.077,
    "v": 3644
  },
  {
    "dt": "2020.07.22 18:00",
    "o": 1.07701,
    "h": 1.07742,
    "l": 1.07607,
    "c": 1.07618,
    "v": 2898
  },
  {
    "dt": "2020.07.22 19:00",
    "o": 1.07617,
    "h": 1.07639,
    "l": 1.07559,
    "c": 1.07586,
    "v": 2366
  },
  {
    "dt": "2020.07.22 20:00",
    "o": 1.07585,
    "h": 1.07613,
    "l": 1.07531,
    "c": 1.07567,
    "v": 1988
  },
  {
    "dt": "2020.07.22 21:00",
    "o": 1.07568,
    "h": 1.07602,
    "l": 1.0753,
    "c": 1.07558,
    "v": 1425
  },
  {
    "dt": "2020.07.22 22:00",
    "o": 1.07556,
    "h": 1.07597,
    "l": 1.07526,
    "c": 1.07594,
    "v": 1473
  },
  {
    "dt": "2020.07.22 23:00",
    "o": 1.07594,
    "h": 1.07594,
    "l": 1.07532,
    "c": 1.07551,
    "v": 940
  },
  {
    "dt": "2020.07.23 00:00",
    "o": 1.07538,
    "h": 1.07563,
    "l": 1.07494,
    "c": 1.07533,
    "v": 621
  },
  {
    "dt": "2020.07.23 01:00",
    "o": 1.07536,
    "h": 1.07548,
    "l": 1.0753,
    "c": 1.07536,
    "v": 602
  },
  {
    "dt": "2020.07.23 02:00",
    "o": 1.07536,
    "h": 1.07547,
    "l": 1.07526,
    "c": 1.07534,
    "v": 957
  },
  {
    "dt": "2020.07.23 03:00",
    "o": 1.07534,
    "h": 1.07548,
    "l": 1.07502,
    "c": 1.07506,
    "v": 1278
  },
  {
    "dt": "2020.07.23 04:00",
    "o": 1.07505,
    "h": 1.07546,
    "l": 1.07503,
    "c": 1.07541,
    "v": 1566
  },
  {
    "dt": "2020.07.23 05:00",
    "o": 1.07537,
    "h": 1.07541,
    "l": 1.07499,
    "c": 1.07503,
    "v": 1235
  },
  {
    "dt": "2020.07.23 06:00",
    "o": 1.07505,
    "h": 1.07524,
    "l": 1.07489,
    "c": 1.07495,
    "v": 1093
  },
  {
    "dt": "2020.07.23 07:00",
    "o": 1.07494,
    "h": 1.07527,
    "l": 1.07489,
    "c": 1.07509,
    "v": 1069
  },
  {
    "dt": "2020.07.23 08:00",
    "o": 1.07512,
    "h": 1.07571,
    "l": 1.075,
    "c": 1.07562,
    "v": 1349
  },
  {
    "dt": "2020.07.23 09:00",
    "o": 1.07562,
    "h": 1.07594,
    "l": 1.07493,
    "c": 1.07515,
    "v": 2075
  },
  {
    "dt": "2020.07.23 10:00",
    "o": 1.07518,
    "h": 1.0757,
    "l": 1.07454,
    "c": 1.07562,
    "v": 2611
  },
  {
    "dt": "2020.07.23 11:00",
    "o": 1.07561,
    "h": 1.07613,
    "l": 1.07514,
    "c": 1.07539,
    "v": 2343
  },
  {
    "dt": "2020.07.23 12:00",
    "o": 1.07538,
    "h": 1.07547,
    "l": 1.074,
    "c": 1.07428,
    "v": 1837
  },
  {
    "dt": "2020.07.23 13:00",
    "o": 1.07429,
    "h": 1.07502,
    "l": 1.07397,
    "c": 1.07418,
    "v": 2092
  },
  {
    "dt": "2020.07.23 14:00",
    "o": 1.07417,
    "h": 1.07465,
    "l": 1.07264,
    "c": 1.07274,
    "v": 2294
  },
  {
    "dt": "2020.07.23 15:00",
    "o": 1.07275,
    "h": 1.07312,
    "l": 1.07195,
    "c": 1.07206,
    "v": 2365
  },
  {
    "dt": "2020.07.23 16:00",
    "o": 1.07203,
    "h": 1.07326,
    "l": 1.07145,
    "c": 1.07318,
    "v": 2544
  },
  {
    "dt": "2020.07.23 17:00",
    "o": 1.07319,
    "h": 1.074,
    "l": 1.07279,
    "c": 1.07324,
    "v": 3078
  },
  {
    "dt": "2020.07.23 18:00",
    "o": 1.07325,
    "h": 1.07535,
    "l": 1.07268,
    "c": 1.07492,
    "v": 3304
  },
  {
    "dt": "2020.07.23 19:00",
    "o": 1.07494,
    "h": 1.07503,
    "l": 1.07415,
    "c": 1.07462,
    "v": 2329
  },
  {
    "dt": "2020.07.23 20:00",
    "o": 1.07462,
    "h": 1.07473,
    "l": 1.07365,
    "c": 1.07398,
    "v": 2334
  },
  {
    "dt": "2020.07.23 21:00",
    "o": 1.07397,
    "h": 1.07424,
    "l": 1.07351,
    "c": 1.07412,
    "v": 2625
  },
  {
    "dt": "2020.07.23 22:00",
    "o": 1.07413,
    "h": 1.0742,
    "l": 1.0734,
    "c": 1.07344,
    "v": 2459
  },
  {
    "dt": "2020.07.23 23:00",
    "o": 1.07346,
    "h": 1.07367,
    "l": 1.07297,
    "c": 1.07298,
    "v": 1085
  },
  {
    "dt": "2020.07.24 00:00",
    "o": 1.0723,
    "h": 1.07299,
    "l": 1.0723,
    "c": 1.07299,
    "v": 482
  },
  {
    "dt": "2020.07.24 01:00",
    "o": 1.07302,
    "h": 1.07329,
    "l": 1.07291,
    "c": 1.07329,
    "v": 682
  },
  {
    "dt": "2020.07.24 02:00",
    "o": 1.07328,
    "h": 1.07329,
    "l": 1.07293,
    "c": 1.07296,
    "v": 765
  },
  {
    "dt": "2020.07.24 03:00",
    "o": 1.07293,
    "h": 1.07325,
    "l": 1.07232,
    "c": 1.07321,
    "v": 1527
  },
  {
    "dt": "2020.07.24 04:00",
    "o": 1.07322,
    "h": 1.07361,
    "l": 1.07315,
    "c": 1.07354,
    "v": 1473
  },
  {
    "dt": "2020.07.24 05:00",
    "o": 1.07352,
    "h": 1.0738,
    "l": 1.07343,
    "c": 1.07373,
    "v": 1220
  },
  {
    "dt": "2020.07.24 06:00",
    "o": 1.07372,
    "h": 1.07382,
    "l": 1.07277,
    "c": 1.07325,
    "v": 1550
  },
  {
    "dt": "2020.07.24 07:00",
    "o": 1.07327,
    "h": 1.07341,
    "l": 1.07238,
    "c": 1.07253,
    "v": 1547
  },
  {
    "dt": "2020.07.24 08:00",
    "o": 1.07253,
    "h": 1.07295,
    "l": 1.07213,
    "c": 1.07291,
    "v": 1741
  },
  {
    "dt": "2020.07.24 09:00",
    "o": 1.07289,
    "h": 1.07331,
    "l": 1.07255,
    "c": 1.07286,
    "v": 2259
  },
  {
    "dt": "2020.07.24 10:00",
    "o": 1.07287,
    "h": 1.07439,
    "l": 1.0722,
    "c": 1.07406,
    "v": 3496
  },
  {
    "dt": "2020.07.24 11:00",
    "o": 1.07408,
    "h": 1.07483,
    "l": 1.07324,
    "c": 1.07366,
    "v": 3148
  },
  {
    "dt": "2020.07.24 12:00",
    "o": 1.07367,
    "h": 1.07391,
    "l": 1.07222,
    "c": 1.07223,
    "v": 2473
  },
  {
    "dt": "2020.07.24 13:00",
    "o": 1.07221,
    "h": 1.07283,
    "l": 1.07114,
    "c": 1.07141,
    "v": 2791
  },
  {
    "dt": "2020.07.24 14:00",
    "o": 1.07142,
    "h": 1.0726,
    "l": 1.07131,
    "c": 1.07238,
    "v": 2406
  },
  {
    "dt": "2020.07.24 15:00",
    "o": 1.07236,
    "h": 1.07347,
    "l": 1.07236,
    "c": 1.07294,
    "v": 2495
  },
  {
    "dt": "2020.07.24 16:00",
    "o": 1.07294,
    "h": 1.07318,
    "l": 1.07235,
    "c": 1.07263,
    "v": 3437
  },
  {
    "dt": "2020.07.24 17:00",
    "o": 1.07262,
    "h": 1.07454,
    "l": 1.07258,
    "c": 1.07289,
    "v": 3498
  },
  {
    "dt": "2020.07.24 18:00",
    "o": 1.0729,
    "h": 1.07328,
    "l": 1.07256,
    "c": 1.07288,
    "v": 2549
  },
  {
    "dt": "2020.07.24 19:00",
    "o": 1.07288,
    "h": 1.07336,
    "l": 1.07288,
    "c": 1.07322,
    "v": 1818
  },
  {
    "dt": "2020.07.24 20:00",
    "o": 1.07322,
    "h": 1.07364,
    "l": 1.07298,
    "c": 1.07308,
    "v": 1729
  },
  {
    "dt": "2020.07.24 21:00",
    "o": 1.07307,
    "h": 1.07356,
    "l": 1.07289,
    "c": 1.07311,
    "v": 1515
  },
  {
    "dt": "2020.07.24 22:00",
    "o": 1.07312,
    "h": 1.07398,
    "l": 1.07297,
    "c": 1.0739,
    "v": 1535
  },
  {
    "dt": "2020.07.24 23:00",
    "o": 1.07389,
    "h": 1.0747,
    "l": 1.0726,
    "c": 1.07276,
    "v": 1350
  },
  {
    "dt": "2020.07.27 00:00",
    "o": 1.0724,
    "h": 1.07253,
    "l": 1.07217,
    "c": 1.07217,
    "v": 13
  },
  {
    "dt": "2020.07.27 01:00",
    "o": 1.07245,
    "h": 1.0734,
    "l": 1.07239,
    "c": 1.07334,
    "v": 1361
  },
  {
    "dt": "2020.07.27 02:00",
    "o": 1.07335,
    "h": 1.07352,
    "l": 1.07295,
    "c": 1.07295,
    "v": 1735
  },
  {
    "dt": "2020.07.27 03:00",
    "o": 1.07294,
    "h": 1.07476,
    "l": 1.07288,
    "c": 1.07472,
    "v": 2285
  },
  {
    "dt": "2020.07.27 04:00",
    "o": 1.0747,
    "h": 1.07485,
    "l": 1.07435,
    "c": 1.07461,
    "v": 2107
  },
  {
    "dt": "2020.07.27 05:00",
    "o": 1.07464,
    "h": 1.07529,
    "l": 1.07406,
    "c": 1.07488,
    "v": 1964
  },
  {
    "dt": "2020.07.27 06:00",
    "o": 1.07488,
    "h": 1.07497,
    "l": 1.07388,
    "c": 1.07409,
    "v": 2461
  },
  {
    "dt": "2020.07.27 07:00",
    "o": 1.07408,
    "h": 1.07443,
    "l": 1.07358,
    "c": 1.07393,
    "v": 1721
  },
  {
    "dt": "2020.07.27 08:00",
    "o": 1.07392,
    "h": 1.07433,
    "l": 1.07346,
    "c": 1.07418,
    "v": 1755
  },
  {
    "dt": "2020.07.27 09:00",
    "o": 1.07419,
    "h": 1.07486,
    "l": 1.07367,
    "c": 1.07398,
    "v": 2344
  },
  {
    "dt": "2020.07.27 10:00",
    "o": 1.07399,
    "h": 1.07495,
    "l": 1.07311,
    "c": 1.07457,
    "v": 2835
  },
  {
    "dt": "2020.07.27 11:00",
    "o": 1.07456,
    "h": 1.07672,
    "l": 1.07446,
    "c": 1.07647,
    "v": 2931
  },
  {
    "dt": "2020.07.27 12:00",
    "o": 1.07647,
    "h": 1.07742,
    "l": 1.0754,
    "c": 1.07709,
    "v": 2668
  },
  {
    "dt": "2020.07.27 13:00",
    "o": 1.07711,
    "h": 1.07982,
    "l": 1.07699,
    "c": 1.07913,
    "v": 2697
  },
  {
    "dt": "2020.07.27 14:00",
    "o": 1.07914,
    "h": 1.08287,
    "l": 1.0791,
    "c": 1.08287,
    "v": 2785
  },
  {
    "dt": "2020.07.27 15:00",
    "o": 1.08286,
    "h": 1.08372,
    "l": 1.08199,
    "c": 1.08228,
    "v": 3529
  },
  {
    "dt": "2020.07.27 16:00",
    "o": 1.0822,
    "h": 1.08302,
    "l": 1.08199,
    "c": 1.0823,
    "v": 3289
  },
  {
    "dt": "2020.07.27 17:00",
    "o": 1.08227,
    "h": 1.08252,
    "l": 1.08092,
    "c": 1.08239,
    "v": 3550
  },
  {
    "dt": "2020.07.27 18:00",
    "o": 1.08236,
    "h": 1.08282,
    "l": 1.08144,
    "c": 1.08147,
    "v": 2733
  },
  {
    "dt": "2020.07.27 19:00",
    "o": 1.08148,
    "h": 1.08233,
    "l": 1.08117,
    "c": 1.08121,
    "v": 2133
  },
  {
    "dt": "2020.07.27 20:00",
    "o": 1.08122,
    "h": 1.08178,
    "l": 1.08122,
    "c": 1.08169,
    "v": 1558
  },
  {
    "dt": "2020.07.27 21:00",
    "o": 1.08169,
    "h": 1.08204,
    "l": 1.08139,
    "c": 1.08142,
    "v": 1663
  },
  {
    "dt": "2020.07.27 22:00",
    "o": 1.08143,
    "h": 1.08164,
    "l": 1.08111,
    "c": 1.08123,
    "v": 1821
  },
  {
    "dt": "2020.07.27 23:00",
    "o": 1.08123,
    "h": 1.0813,
    "l": 1.08079,
    "c": 1.08094,
    "v": 1068
  },
  {
    "dt": "2020.07.28 00:00",
    "o": 1.08029,
    "h": 1.08134,
    "l": 1.08028,
    "c": 1.08119,
    "v": 476
  },
  {
    "dt": "2020.07.28 01:00",
    "o": 1.08121,
    "h": 1.08184,
    "l": 1.08091,
    "c": 1.08178,
    "v": 1206
  },
  {
    "dt": "2020.07.28 02:00",
    "o": 1.08177,
    "h": 1.08216,
    "l": 1.08139,
    "c": 1.08212,
    "v": 1559
  },
  {
    "dt": "2020.07.28 03:00",
    "o": 1.08216,
    "h": 1.08252,
    "l": 1.08177,
    "c": 1.08238,
    "v": 1866
  },
  {
    "dt": "2020.07.28 04:00",
    "o": 1.08238,
    "h": 1.08264,
    "l": 1.08217,
    "c": 1.08234,
    "v": 2098
  },
  {
    "dt": "2020.07.28 05:00",
    "o": 1.08233,
    "h": 1.0825,
    "l": 1.0815,
    "c": 1.08157,
    "v": 1777
  },
  {
    "dt": "2020.07.28 06:00",
    "o": 1.08157,
    "h": 1.08187,
    "l": 1.08114,
    "c": 1.08124,
    "v": 1849
  },
  {
    "dt": "2020.07.28 07:00",
    "o": 1.08068,
    "h": 1.08131,
    "l": 1.08062,
    "c": 1.08112,
    "v": 1392
  },
  {
    "dt": "2020.07.28 08:00",
    "o": 1.08112,
    "h": 1.08168,
    "l": 1.081,
    "c": 1.08144,
    "v": 1203
  },
  {
    "dt": "2020.07.28 09:00",
    "o": 1.08145,
    "h": 1.08169,
    "l": 1.07934,
    "c": 1.07961,
    "v": 1765
  },
  {
    "dt": "2020.07.28 10:00",
    "o": 1.07962,
    "h": 1.08081,
    "l": 1.07947,
    "c": 1.08037,
    "v": 2330
  },
  {
    "dt": "2020.07.28 11:00",
    "o": 1.08034,
    "h": 1.08057,
    "l": 1.0782,
    "c": 1.07837,
    "v": 2117
  },
  {
    "dt": "2020.07.28 12:00",
    "o": 1.07839,
    "h": 1.07856,
    "l": 1.07757,
    "c": 1.07803,
    "v": 2150
  },
  {
    "dt": "2020.07.28 13:00",
    "o": 1.07806,
    "h": 1.07806,
    "l": 1.077,
    "c": 1.07792,
    "v": 1370
  },
  {
    "dt": "2020.07.28 14:00",
    "o": 1.07791,
    "h": 1.07812,
    "l": 1.07579,
    "c": 1.0759,
    "v": 1692
  },
  {
    "dt": "2020.07.28 15:00",
    "o": 1.07568,
    "h": 1.07616,
    "l": 1.07474,
    "c": 1.07489,
    "v": 1528
  },
  {
    "dt": "2020.07.28 16:00",
    "o": 1.07487,
    "h": 1.07544,
    "l": 1.0743,
    "c": 1.07449,
    "v": 1396
  },
  {
    "dt": "2020.07.28 17:00",
    "o": 1.07464,
    "h": 1.076,
    "l": 1.07447,
    "c": 1.07557,
    "v": 1536
  },
  {
    "dt": "2020.07.28 18:00",
    "o": 1.07553,
    "h": 1.07666,
    "l": 1.07523,
    "c": 1.07568,
    "v": 2926
  },
  {
    "dt": "2020.07.28 19:00",
    "o": 1.07565,
    "h": 1.07586,
    "l": 1.07544,
    "c": 1.07568,
    "v": 1953
  },
  {
    "dt": "2020.07.28 20:00",
    "o": 1.07566,
    "h": 1.07637,
    "l": 1.07563,
    "c": 1.07607,
    "v": 1644
  },
  {
    "dt": "2020.07.28 21:00",
    "o": 1.07609,
    "h": 1.07611,
    "l": 1.07549,
    "c": 1.07552,
    "v": 1857
  },
  {
    "dt": "2020.07.28 22:00",
    "o": 1.07552,
    "h": 1.07552,
    "l": 1.07493,
    "c": 1.07523,
    "v": 1784
  },
  {
    "dt": "2020.07.28 23:00",
    "o": 1.07523,
    "h": 1.07561,
    "l": 1.0751,
    "c": 1.07528,
    "v": 1026
  },
  {
    "dt": "2020.07.29 00:00",
    "o": 1.0753,
    "h": 1.07557,
    "l": 1.07449,
    "c": 1.07486,
    "v": 1138
  },
  {
    "dt": "2020.07.29 01:00",
    "o": 1.07492,
    "h": 1.07579,
    "l": 1.07492,
    "c": 1.07568,
    "v": 773
  },
  {
    "dt": "2020.07.29 02:00",
    "o": 1.07568,
    "h": 1.07586,
    "l": 1.07545,
    "c": 1.07562,
    "v": 700
  },
  {
    "dt": "2020.07.29 03:00",
    "o": 1.07562,
    "h": 1.07634,
    "l": 1.07562,
    "c": 1.07627,
    "v": 1636
  },
  {
    "dt": "2020.07.29 04:00",
    "o": 1.07625,
    "h": 1.07633,
    "l": 1.07589,
    "c": 1.07619,
    "v": 1856
  },
  {
    "dt": "2020.07.29 05:00",
    "o": 1.0762,
    "h": 1.07646,
    "l": 1.07604,
    "c": 1.07614,
    "v": 1640
  },
  {
    "dt": "2020.07.29 06:00",
    "o": 1.07616,
    "h": 1.07624,
    "l": 1.07574,
    "c": 1.07586,
    "v": 1607
  },
  {
    "dt": "2020.07.29 07:00",
    "o": 1.07586,
    "h": 1.07622,
    "l": 1.07581,
    "c": 1.07615,
    "v": 1280
  },
  {
    "dt": "2020.07.29 08:00",
    "o": 1.07616,
    "h": 1.07617,
    "l": 1.07553,
    "c": 1.07597,
    "v": 1246
  },
  {
    "dt": "2020.07.29 09:00",
    "o": 1.07596,
    "h": 1.0771,
    "l": 1.07582,
    "c": 1.07679,
    "v": 1988
  },
  {
    "dt": "2020.07.29 10:00",
    "o": 1.0768,
    "h": 1.07709,
    "l": 1.07562,
    "c": 1.07593,
    "v": 2855
  },
  {
    "dt": "2020.07.29 11:00",
    "o": 1.07592,
    "h": 1.07593,
    "l": 1.07482,
    "c": 1.07572,
    "v": 2200
  },
  {
    "dt": "2020.07.29 12:00",
    "o": 1.07575,
    "h": 1.07626,
    "l": 1.07535,
    "c": 1.07575,
    "v": 2147
  },
  {
    "dt": "2020.07.29 13:00",
    "o": 1.07575,
    "h": 1.07755,
    "l": 1.07575,
    "c": 1.07752,
    "v": 2057
  },
  {
    "dt": "2020.07.29 14:00",
    "o": 1.07753,
    "h": 1.07759,
    "l": 1.07618,
    "c": 1.07642,
    "v": 2436
  },
  {
    "dt": "2020.07.29 15:00",
    "o": 1.07642,
    "h": 1.07766,
    "l": 1.07584,
    "c": 1.07764,
    "v": 2649
  },
  {
    "dt": "2020.07.29 16:00",
    "o": 1.07763,
    "h": 1.07818,
    "l": 1.07658,
    "c": 1.07677,
    "v": 3010
  },
  {
    "dt": "2020.07.29 17:00",
    "o": 1.07676,
    "h": 1.07694,
    "l": 1.07557,
    "c": 1.07668,
    "v": 3259
  },
  {
    "dt": "2020.07.29 18:00",
    "o": 1.07669,
    "h": 1.07681,
    "l": 1.07561,
    "c": 1.07574,
    "v": 2669
  },
  {
    "dt": "2020.07.29 19:00",
    "o": 1.07575,
    "h": 1.07608,
    "l": 1.07519,
    "c": 1.07539,
    "v": 1770
  },
  {
    "dt": "2020.07.29 20:00",
    "o": 1.0754,
    "h": 1.07707,
    "l": 1.07529,
    "c": 1.07668,
    "v": 2068
  },
  {
    "dt": "2020.07.29 21:00",
    "o": 1.07657,
    "h": 1.07703,
    "l": 1.07493,
    "c": 1.07515,
    "v": 3731
  },
  {
    "dt": "2020.07.29 22:00",
    "o": 1.07513,
    "h": 1.07637,
    "l": 1.075,
    "c": 1.07547,
    "v": 3152
  },
  {
    "dt": "2020.07.29 23:00",
    "o": 1.07546,
    "h": 1.07647,
    "l": 1.07539,
    "c": 1.07603,
    "v": 1277
  },
  {
    "dt": "2020.07.30 00:00",
    "o": 1.07525,
    "h": 1.07579,
    "l": 1.0749,
    "c": 1.07542,
    "v": 1309
  },
  {
    "dt": "2020.07.30 01:00",
    "o": 1.07544,
    "h": 1.07592,
    "l": 1.07522,
    "c": 1.07523,
    "v": 488
  },
  {
    "dt": "2020.07.30 02:00",
    "o": 1.07522,
    "h": 1.07555,
    "l": 1.07496,
    "c": 1.07501,
    "v": 1093
  },
  {
    "dt": "2020.07.30 03:00",
    "o": 1.07503,
    "h": 1.07518,
    "l": 1.07498,
    "c": 1.07505,
    "v": 1431
  },
  {
    "dt": "2020.07.30 04:00",
    "o": 1.07504,
    "h": 1.07512,
    "l": 1.07495,
    "c": 1.075,
    "v": 1609
  },
  {
    "dt": "2020.07.30 05:00",
    "o": 1.075,
    "h": 1.07506,
    "l": 1.07458,
    "c": 1.07465,
    "v": 1158
  },
  {
    "dt": "2020.07.30 06:00",
    "o": 1.07466,
    "h": 1.07495,
    "l": 1.07446,
    "c": 1.0745,
    "v": 1159
  },
  {
    "dt": "2020.07.30 07:00",
    "o": 1.07451,
    "h": 1.07467,
    "l": 1.0743,
    "c": 1.07435,
    "v": 936
  },
  {
    "dt": "2020.07.30 08:00",
    "o": 1.07435,
    "h": 1.07464,
    "l": 1.0742,
    "c": 1.07429,
    "v": 1631
  },
  {
    "dt": "2020.07.30 09:00",
    "o": 1.07429,
    "h": 1.07465,
    "l": 1.0741,
    "c": 1.07418,
    "v": 2103
  },
  {
    "dt": "2020.07.30 10:00",
    "o": 1.07417,
    "h": 1.07484,
    "l": 1.07386,
    "c": 1.07483,
    "v": 3240
  },
  {
    "dt": "2020.07.30 11:00",
    "o": 1.0748,
    "h": 1.0749,
    "l": 1.07372,
    "c": 1.07375,
    "v": 3175
  },
  {
    "dt": "2020.07.30 12:00",
    "o": 1.07376,
    "h": 1.07495,
    "l": 1.07331,
    "c": 1.07462,
    "v": 2615
  },
  {
    "dt": "2020.07.30 13:00",
    "o": 1.07462,
    "h": 1.07468,
    "l": 1.07361,
    "c": 1.07405,
    "v": 2362
  },
  {
    "dt": "2020.07.30 14:00",
    "o": 1.07406,
    "h": 1.07456,
    "l": 1.07362,
    "c": 1.07438,
    "v": 1962
  },
  {
    "dt": "2020.07.30 15:00",
    "o": 1.07438,
    "h": 1.07511,
    "l": 1.07417,
    "c": 1.07502,
    "v": 2818
  },
  {
    "dt": "2020.07.30 16:00",
    "o": 1.07501,
    "h": 1.07593,
    "l": 1.07467,
    "c": 1.07487,
    "v": 4033
  },
  {
    "dt": "2020.07.30 17:00",
    "o": 1.07486,
    "h": 1.0757,
    "l": 1.07435,
    "c": 1.07555,
    "v": 4179
  },
  {
    "dt": "2020.07.30 18:00",
    "o": 1.07558,
    "h": 1.07568,
    "l": 1.07471,
    "c": 1.07525,
    "v": 3214
  },
  {
    "dt": "2020.07.30 19:00",
    "o": 1.07526,
    "h": 1.07627,
    "l": 1.07526,
    "c": 1.07575,
    "v": 2389
  },
  {
    "dt": "2020.07.30 20:00",
    "o": 1.07574,
    "h": 1.07715,
    "l": 1.07558,
    "c": 1.07659,
    "v": 2570
  },
  {
    "dt": "2020.07.30 21:00",
    "o": 1.07659,
    "h": 1.07677,
    "l": 1.07613,
    "c": 1.07675,
    "v": 2055
  },
  {
    "dt": "2020.07.30 22:00",
    "o": 1.07675,
    "h": 1.07692,
    "l": 1.07631,
    "c": 1.07687,
    "v": 1884
  },
  {
    "dt": "2020.07.30 23:00",
    "o": 1.07687,
    "h": 1.07732,
    "l": 1.07662,
    "c": 1.07667,
    "v": 1337
  },
  {
    "dt": "2020.07.31 00:00",
    "o": 1.07658,
    "h": 1.07658,
    "l": 1.07476,
    "c": 1.07632,
    "v": 667
  },
  {
    "dt": "2020.07.31 01:00",
    "o": 1.0762,
    "h": 1.07759,
    "l": 1.0762,
    "c": 1.07706,
    "v": 837
  },
  {
    "dt": "2020.07.31 02:00",
    "o": 1.07705,
    "h": 1.07873,
    "l": 1.07676,
    "c": 1.07864,
    "v": 1744
  },
  {
    "dt": "2020.07.31 03:00",
    "o": 1.07863,
    "h": 1.07876,
    "l": 1.07725,
    "c": 1.07757,
    "v": 2815
  },
  {
    "dt": "2020.07.31 04:00",
    "o": 1.07756,
    "h": 1.07805,
    "l": 1.07748,
    "c": 1.07784,
    "v": 2419
  },
  {
    "dt": "2020.07.31 05:00",
    "o": 1.07779,
    "h": 1.07875,
    "l": 1.07753,
    "c": 1.07822,
    "v": 2667
  },
  {
    "dt": "2020.07.31 06:00",
    "o": 1.07821,
    "h": 1.07859,
    "l": 1.07781,
    "c": 1.07831,
    "v": 1967
  },
  {
    "dt": "2020.07.31 07:00",
    "o": 1.07832,
    "h": 1.07841,
    "l": 1.0777,
    "c": 1.07839,
    "v": 1766
  },
  {
    "dt": "2020.07.31 08:00",
    "o": 1.07839,
    "h": 1.07846,
    "l": 1.07787,
    "c": 1.07833,
    "v": 2033
  },
  {
    "dt": "2020.07.31 09:00",
    "o": 1.07835,
    "h": 1.0787,
    "l": 1.07771,
    "c": 1.07804,
    "v": 2826
  },
  {
    "dt": "2020.07.31 10:00",
    "o": 1.07811,
    "h": 1.07874,
    "l": 1.0777,
    "c": 1.0787,
    "v": 3419
  },
  {
    "dt": "2020.07.31 11:00",
    "o": 1.07873,
    "h": 1.07967,
    "l": 1.07606,
    "c": 1.07617,
    "v": 3004
  },
  {
    "dt": "2020.07.31 12:00",
    "o": 1.07607,
    "h": 1.07723,
    "l": 1.07529,
    "c": 1.07634,
    "v": 2983
  },
  {
    "dt": "2020.07.31 13:00",
    "o": 1.07633,
    "h": 1.07656,
    "l": 1.07564,
    "c": 1.0763,
    "v": 2278
  },
  {
    "dt": "2020.07.31 14:00",
    "o": 1.07628,
    "h": 1.07658,
    "l": 1.0755,
    "c": 1.07654,
    "v": 2911
  },
  {
    "dt": "2020.07.31 15:00",
    "o": 1.07652,
    "h": 1.07755,
    "l": 1.07633,
    "c": 1.07701,
    "v": 2738
  },
  {
    "dt": "2020.07.31 16:00",
    "o": 1.077,
    "h": 1.07776,
    "l": 1.07665,
    "c": 1.07758,
    "v": 3471
  },
  {
    "dt": "2020.07.31 17:00",
    "o": 1.07754,
    "h": 1.07909,
    "l": 1.07456,
    "c": 1.07606,
    "v": 4384
  },
  {
    "dt": "2020.07.31 18:00",
    "o": 1.07611,
    "h": 1.07757,
    "l": 1.07508,
    "c": 1.07719,
    "v": 3697
  },
  {
    "dt": "2020.07.31 19:00",
    "o": 1.0772,
    "h": 1.07724,
    "l": 1.07539,
    "c": 1.07665,
    "v": 3269
  },
  {
    "dt": "2020.07.31 20:00",
    "o": 1.07664,
    "h": 1.07758,
    "l": 1.07644,
    "c": 1.0773,
    "v": 2254
  },
  {
    "dt": "2020.07.31 21:00",
    "o": 1.0773,
    "h": 1.07739,
    "l": 1.07608,
    "c": 1.07728,
    "v": 1769
  },
  {
    "dt": "2020.07.31 22:00",
    "o": 1.07725,
    "h": 1.07784,
    "l": 1.07675,
    "c": 1.07722,
    "v": 2098
  },
  {
    "dt": "2020.07.31 23:00",
    "o": 1.07721,
    "h": 1.07725,
    "l": 1.07499,
    "c": 1.07519,
    "v": 1588
  }
]