[
  {
    "dt": "2020.02.03 00:00",
    "o": 1.65908,
    "h": 1.65908,
    "l": 1.65685,
    "c": 1.65812,
    "v": 1195
  },
  {
    "dt": "2020.02.03 01:00",
    "o": 1.65808,
    "h": 1.65883,
    "l": 1.65597,
    "c": 1.65674,
    "v": 2674
  },
  {
    "dt": "2020.02.03 02:00",
    "o": 1.65679,
    "h": 1.6574,
    "l": 1.65294,
    "c": 1.65381,
    "v": 2558
  },
  {
    "dt": "2020.02.03 03:00",
    "o": 1.65381,
    "h": 1.65649,
    "l": 1.65273,
    "c": 1.65434,
    "v": 3772
  },
  {
    "dt": "2020.02.03 04:00",
    "o": 1.65441,
    "h": 1.65799,
    "l": 1.65416,
    "c": 1.65619,
    "v": 3157
  },
  {
    "dt": "2020.02.03 05:00",
    "o": 1.65618,
    "h": 1.65724,
    "l": 1.65537,
    "c": 1.65541,
    "v": 1965
  },
  {
    "dt": "2020.02.03 06:00",
    "o": 1.6554,
    "h": 1.65599,
    "l": 1.65448,
    "c": 1.65504,
    "v": 1268
  },
  {
    "dt": "2020.02.03 07:00",
    "o": 1.65506,
    "h": 1.65508,
    "l": 1.65317,
    "c": 1.65354,
    "v": 1972
  },
  {
    "dt": "2020.02.03 08:00",
    "o": 1.65352,
    "h": 1.65483,
    "l": 1.65301,
    "c": 1.6536,
    "v": 1888
  },
  {
    "dt": "2020.02.03 09:00",
    "o": 1.65365,
    "h": 1.65425,
    "l": 1.65097,
    "c": 1.65274,
    "v": 2956
  },
  {
    "dt": "2020.02.03 10:00",
    "o": 1.65269,
    "h": 1.65557,
    "l": 1.65219,
    "c": 1.65343,
    "v": 3635
  },
  {
    "dt": "2020.02.03 11:00",
    "o": 1.65332,
    "h": 1.65446,
    "l": 1.65233,
    "c": 1.65305,
    "v": 3250
  },
  {
    "dt": "2020.02.03 12:00",
    "o": 1.65306,
    "h": 1.65411,
    "l": 1.65238,
    "c": 1.65333,
    "v": 3325
  },
  {
    "dt": "2020.02.03 13:00",
    "o": 1.65332,
    "h": 1.65332,
    "l": 1.65129,
    "c": 1.65133,
    "v": 3244
  },
  {
    "dt": "2020.02.03 14:00",
    "o": 1.65132,
    "h": 1.65179,
    "l": 1.65035,
    "c": 1.65145,
    "v": 2398
  },
  {
    "dt": "2020.02.03 15:00",
    "o": 1.6515,
    "h": 1.65237,
    "l": 1.65082,
    "c": 1.65199,
    "v": 2552
  },
  {
    "dt": "2020.02.03 16:00",
    "o": 1.65198,
    "h": 1.65254,
    "l": 1.64769,
    "c": 1.64819,
    "v": 3375
  },
  {
    "dt": "2020.02.03 17:00",
    "o": 1.64744,
    "h": 1.65174,
    "l": 1.64681,
    "c": 1.65149,
    "v": 4212
  },
  {
    "dt": "2020.02.03 18:00",
    "o": 1.65146,
    "h": 1.65511,
    "l": 1.65065,
    "c": 1.65407,
    "v": 3397
  },
  {
    "dt": "2020.02.03 19:00",
    "o": 1.65407,
    "h": 1.65536,
    "l": 1.65303,
    "c": 1.65329,
    "v": 2434
  },
  {
    "dt": "2020.02.03 20:00",
    "o": 1.6533,
    "h": 1.65404,
    "l": 1.65285,
    "c": 1.65288,
    "v": 1976
  },
  {
    "dt": "2020.02.03 21:00",
    "o": 1.65286,
    "h": 1.65423,
    "l": 1.65285,
    "c": 1.6541,
    "v": 1931
  },
  {
    "dt": "2020.02.03 22:00",
    "o": 1.6541,
    "h": 1.65434,
    "l": 1.65289,
    "c": 1.65321,
    "v": 1914
  },
  {
    "dt": "2020.02.03 23:00",
    "o": 1.65316,
    "h": 1.65333,
    "l": 1.65241,
    "c": 1.65246,
    "v": 1279
  },
  {
    "dt": "2020.02.04 00:00",
    "o": 1.65238,
    "h": 1.65296,
    "l": 1.65217,
    "c": 1.65286,
    "v": 595
  },
  {
    "dt": "2020.02.04 01:00",
    "o": 1.65284,
    "h": 1.65373,
    "l": 1.65284,
    "c": 1.65353,
    "v": 1176
  },
  {
    "dt": "2020.02.04 02:00",
    "o": 1.65352,
    "h": 1.65487,
    "l": 1.65293,
    "c": 1.65434,
    "v": 1839
  },
  {
    "dt": "2020.02.04 03:00",
    "o": 1.65433,
    "h": 1.6559,
    "l": 1.65187,
    "c": 1.65244,
    "v": 3423
  },
  {
    "dt": "2020.02.04 04:00",
    "o": 1.65242,
    "h": 1.65379,
    "l": 1.65202,
    "c": 1.65336,
    "v": 2487
  },
  {
    "dt": "2020.02.04 05:00",
    "o": 1.65338,
    "h": 1.65456,
    "l": 1.64405,
    "c": 1.64655,
    "v": 3167
  },
  {
    "dt": "2020.02.04 06:00",
    "o": 1.64655,
    "h": 1.64704,
    "l": 1.64488,
    "c": 1.64614,
    "v": 2291
  },
  {
    "dt": "2020.02.04 07:00",
    "o": 1.64614,
    "h": 1.64739,
    "l": 1.64532,
    "c": 1.64652,
    "v": 2245
  },
  {
    "dt": "2020.02.04 08:00",
    "o": 1.64652,
    "h": 1.64668,
    "l": 1.644,
    "c": 1.64442,
    "v": 2288
  },
  {
    "dt": "2020.02.04 09:00",
    "o": 1.64452,
    "h": 1.64595,
    "l": 1.64423,
    "c": 1.64555,
    "v": 3085
  },
  {
    "dt": "2020.02.04 10:00",
    "o": 1.64552,
    "h": 1.64619,
    "l": 1.64207,
    "c": 1.64527,
    "v": 3621
  },
  {
    "dt": "2020.02.04 11:00",
    "o": 1.64529,
    "h": 1.64827,
    "l": 1.6451,
    "c": 1.64783,
    "v": 3137
  },
  {
    "dt": "2020.02.04 12:00",
    "o": 1.64783,
    "h": 1.64817,
    "l": 1.64571,
    "c": 1.64761,
    "v": 2741
  },
  {
    "dt": "2020.02.04 13:00",
    "o": 1.64758,
    "h": 1.64878,
    "l": 1.64553,
    "c": 1.64616,
    "v": 2264
  },
  {
    "dt": "2020.02.04 14:00",
    "o": 1.64615,
    "h": 1.64617,
    "l": 1.64236,
    "c": 1.64255,
    "v": 2663
  },
  {
    "dt": "2020.02.04 15:00",
    "o": 1.64251,
    "h": 1.64483,
    "l": 1.64211,
    "c": 1.64304,
    "v": 3204
  },
  {
    "dt": "2020.02.04 16:00",
    "o": 1.64305,
    "h": 1.64309,
    "l": 1.6398,
    "c": 1.64026,
    "v": 3510
  },
  {
    "dt": "2020.02.04 17:00",
    "o": 1.64025,
    "h": 1.64174,
    "l": 1.63999,
    "c": 1.6408,
    "v": 3485
  },
  {
    "dt": "2020.02.04 18:00",
    "o": 1.64083,
    "h": 1.64089,
    "l": 1.63879,
    "c": 1.64029,
    "v": 3071
  },
  {
    "dt": "2020.02.04 19:00",
    "o": 1.64033,
    "h": 1.64034,
    "l": 1.63818,
    "c": 1.63843,
    "v": 2433
  },
  {
    "dt": "2020.02.04 20:00",
    "o": 1.63841,
    "h": 1.63967,
    "l": 1.63831,
    "c": 1.63942,
    "v": 1817
  },
  {
    "dt": "2020.02.04 21:00",
    "o": 1.63942,
    "h": 1.63978,
    "l": 1.63899,
    "c": 1.63899,
    "v": 1714
  },
  {
    "dt": "2020.02.04 22:00",
    "o": 1.63901,
    "h": 1.63964,
    "l": 1.63859,
    "c": 1.6389,
    "v": 1660
  },
  {
    "dt": "2020.02.04 23:00",
    "o": 1.63888,
    "h": 1.63943,
    "l": 1.63815,
    "c": 1.63873,
    "v": 1581
  },
  {
    "dt": "2020.02.05 00:00",
    "o": 1.63867,
    "h": 1.63896,
    "l": 1.63782,
    "c": 1.63836,
    "v": 1036
  },
  {
    "dt": "2020.02.05 01:00",
    "o": 1.63842,
    "h": 1.64071,
    "l": 1.63842,
    "c": 1.64068,
    "v": 1121
  },
  {
    "dt": "2020.02.05 02:00",
    "o": 1.6406,
    "h": 1.64073,
    "l": 1.63895,
    "c": 1.64024,
    "v": 1977
  },
  {
    "dt": "2020.02.05 03:00",
    "o": 1.64021,
    "h": 1.64213,
    "l": 1.63698,
    "c": 1.63704,
    "v": 2862
  },
  {
    "dt": "2020.02.05 04:00",
    "o": 1.63699,
    "h": 1.63894,
    "l": 1.63673,
    "c": 1.63808,
    "v": 2807
  },
  {
    "dt": "2020.02.05 05:00",
    "o": 1.63808,
    "h": 1.63895,
    "l": 1.63728,
    "c": 1.63742,
    "v": 1712
  },
  {
    "dt": "2020.02.05 06:00",
    "o": 1.63739,
    "h": 1.63821,
    "l": 1.63725,
    "c": 1.63767,
    "v": 844
  },
  {
    "dt": "2020.02.05 07:00",
    "o": 1.63769,
    "h": 1.63869,
    "l": 1.63737,
    "c": 1.63836,
    "v": 1471
  },
  {
    "dt": "2020.02.05 08:00",
    "o": 1.63835,
    "h": 1.63865,
    "l": 1.63716,
    "c": 1.63796,
    "v": 1639
  },
  {
    "dt": "2020.02.05 09:00",
    "o": 1.63793,
    "h": 1.63854,
    "l": 1.63691,
    "c": 1.63736,
    "v": 2528
  },
  {
    "dt": "2020.02.05 10:00",
    "o": 1.63735,
    "h": 1.6388,
    "l": 1.63242,
    "c": 1.63328,
    "v": 4101
  },
  {
    "dt": "2020.02.05 11:00",
    "o": 1.63326,
    "h": 1.63369,
    "l": 1.62744,
    "c": 1.62823,
    "v": 4260
  },
  {
    "dt": "2020.02.05 12:00",
    "o": 1.62822,
    "h": 1.62982,
    "l": 1.62785,
    "c": 1.62818,
    "v": 2884
  },
  {
    "dt": "2020.02.05 13:00",
    "o": 1.62818,
    "h": 1.63228,
    "l": 1.62741,
    "c": 1.63087,
    "v": 3197
  },
  {
    "dt": "2020.02.05 14:00",
    "o": 1.63093,
    "h": 1.63167,
    "l": 1.62876,
    "c": 1.62936,
    "v": 2646
  },
  {
    "dt": "2020.02.05 15:00",
    "o": 1.62935,
    "h": 1.63026,
    "l": 1.62633,
    "c": 1.62648,
    "v": 3486
  },
  {
    "dt": "2020.02.05 16:00",
    "o": 1.62655,
    "h": 1.6295,
    "l": 1.62602,
    "c": 1.62868,
    "v": 3817
  },
  {
    "dt": "2020.02.05 17:00",
    "o": 1.62871,
    "h": 1.63168,
    "l": 1.62815,
    "c": 1.63118,
    "v": 4408
  },
  {
    "dt": "2020.02.05 18:00",
    "o": 1.63103,
    "h": 1.63173,
    "l": 1.62893,
    "c": 1.63093,
    "v": 3075
  },
  {
    "dt": "2020.02.05 19:00",
    "o": 1.63094,
    "h": 1.63126,
    "l": 1.63062,
    "c": 1.63092,
    "v": 1863
  },
  {
    "dt": "2020.02.05 20:00",
    "o": 1.63093,
    "h": 1.63116,
    "l": 1.63047,
    "c": 1.63068,
    "v": 1466
  },
  {
    "dt": "2020.02.05 21:00",
    "o": 1.63063,
    "h": 1.63101,
    "l": 1.63005,
    "c": 1.63008,
    "v": 1631
  },
  {
    "dt": "2020.02.05 22:00",
    "o": 1.63009,
    "h": 1.63064,
    "l": 1.63009,
    "c": 1.63048,
    "v": 1615
  },
  {
    "dt": "2020.02.05 23:00",
    "o": 1.63046,
    "h": 1.63053,
    "l": 1.62988,
    "c": 1.62993,
    "v": 1249
  },
  {
    "dt": "2020.02.06 00:00",
    "o": 1.63013,
    "h": 1.63031,
    "l": 1.62923,
    "c": 1.63022,
    "v": 637
  },
  {
    "dt": "2020.02.06 01:00",
    "o": 1.63018,
    "h": 1.63036,
    "l": 1.62885,
    "c": 1.62924,
    "v": 957
  },
  {
    "dt": "2020.02.06 02:00",
    "o": 1.62922,
    "h": 1.63054,
    "l": 1.62648,
    "c": 1.62802,
    "v": 2067
  },
  {
    "dt": "2020.02.06 03:00",
    "o": 1.62802,
    "h": 1.62896,
    "l": 1.62625,
    "c": 1.62844,
    "v": 2791
  },
  {
    "dt": "2020.02.06 04:00",
    "o": 1.62845,
    "h": 1.62954,
    "l": 1.62723,
    "c": 1.62919,
    "v": 1630
  },
  {
    "dt": "2020.02.06 05:00",
    "o": 1.62919,
    "h": 1.62928,
    "l": 1.62793,
    "c": 1.62858,
    "v": 1498
  },
  {
    "dt": "2020.02.06 06:00",
    "o": 1.62857,
    "h": 1.62867,
    "l": 1.62559,
    "c": 1.62664,
    "v": 2082
  },
  {
    "dt": "2020.02.06 07:00",
    "o": 1.62668,
    "h": 1.62737,
    "l": 1.62629,
    "c": 1.62732,
    "v": 1935
  },
  {
    "dt": "2020.02.06 08:00",
    "o": 1.62735,
    "h": 1.62852,
    "l": 1.62657,
    "c": 1.62821,
    "v": 2113
  },
  {
    "dt": "2020.02.06 09:00",
    "o": 1.62819,
    "h": 1.63021,
    "l": 1.62803,
    "c": 1.62974,
    "v": 2384
  },
  {
    "dt": "2020.02.06 10:00",
    "o": 1.62984,
    "h": 1.631,
    "l": 1.62875,
    "c": 1.62905,
    "v": 3078
  },
  {
    "dt": "2020.02.06 11:00",
    "o": 1.62904,
    "h": 1.63232,
    "l": 1.62885,
    "c": 1.63129,
    "v": 2891
  },
  {
    "dt": "2020.02.06 12:00",
    "o": 1.6313,
    "h": 1.63181,
    "l": 1.63059,
    "c": 1.63137,
    "v": 2153
  },
  {
    "dt": "2020.02.06 13:00",
    "o": 1.63131,
    "h": 1.63155,
    "l": 1.6295,
    "c": 1.62976,
    "v": 2113
  },
  {
    "dt": "2020.02.06 14:00",
    "o": 1.62968,
    "h": 1.62969,
    "l": 1.62724,
    "c": 1.62836,
    "v": 2049
  },
  {
    "dt": "2020.02.06 15:00",
    "o": 1.62838,
    "h": 1.62893,
    "l": 1.62777,
    "c": 1.62861,
    "v": 2567
  },
  {
    "dt": "2020.02.06 16:00",
    "o": 1.62868,
    "h": 1.63102,
    "l": 1.62839,
    "c": 1.62965,
    "v": 3005
  },
  {
    "dt": "2020.02.06 17:00",
    "o": 1.62965,
    "h": 1.63166,
    "l": 1.62789,
    "c": 1.62912,
    "v": 3877
  },
  {
    "dt": "2020.02.06 18:00",
    "o": 1.62908,
    "h": 1.62978,
    "l": 1.62835,
    "c": 1.62926,
    "v": 3165
  },
  {
    "dt": "2020.02.06 19:00",
    "o": 1.62927,
    "h": 1.62946,
    "l": 1.62861,
    "c": 1.62872,
    "v": 2008
  },
  {
    "dt": "2020.02.06 20:00",
    "o": 1.6288,
    "h": 1.62947,
    "l": 1.62819,
    "c": 1.62914,
    "v": 1481
  },
  {
    "dt": "2020.02.06 21:00",
    "o": 1.62915,
    "h": 1.63086,
    "l": 1.62913,
    "c": 1.63081,
    "v": 1711
  },
  {
    "dt": "2020.02.06 22:00",
    "o": 1.6308,
    "h": 1.63168,
    "l": 1.63046,
    "c": 1.63146,
    "v": 1793
  },
  {
    "dt": "2020.02.06 23:00",
    "o": 1.63141,
    "h": 1.63226,
    "l": 1.63099,
    "c": 1.631,
    "v": 1248
  },
  {
    "dt": "2020.02.07 00:00",
    "o": 1.6314,
    "h": 1.63184,
    "l": 1.62996,
    "c": 1.63081,
    "v": 732
  },
  {
    "dt": "2020.02.07 01:00",
    "o": 1.63084,
    "h": 1.63125,
    "l": 1.62996,
    "c": 1.63114,
    "v": 855
  },
  {
    "dt": "2020.02.07 02:00",
    "o": 1.63115,
    "h": 1.63535,
    "l": 1.631,
    "c": 1.63393,
    "v": 1907
  },
  {
    "dt": "2020.02.07 03:00",
    "o": 1.63391,
    "h": 1.63565,
    "l": 1.6334,
    "c": 1.63487,
    "v": 2629
  },
  {
    "dt": "2020.02.07 04:00",
    "o": 1.63488,
    "h": 1.63631,
    "l": 1.63337,
    "c": 1.63589,
    "v": 2243
  },
  {
    "dt": "2020.02.07 05:00",
    "o": 1.63589,
    "h": 1.63594,
    "l": 1.63409,
    "c": 1.63418,
    "v": 1466
  },
  {
    "dt": "2020.02.07 06:00",
    "o": 1.63417,
    "h": 1.63477,
    "l": 1.63358,
    "c": 1.63474,
    "v": 1089
  },
  {
    "dt": "2020.02.07 07:00",
    "o": 1.63475,
    "h": 1.63539,
    "l": 1.63394,
    "c": 1.63448,
    "v": 1347
  },
  {
    "dt": "2020.02.07 08:00",
    "o": 1.63446,
    "h": 1.63524,
    "l": 1.63276,
    "c": 1.6331,
    "v": 2038
  },
  {
    "dt": "2020.02.07 09:00",
    "o": 1.63313,
    "h": 1.63574,
    "l": 1.63291,
    "c": 1.63561,
    "v": 2848
  },
  {
    "dt": "2020.02.07 10:00",
    "o": 1.6356,
    "h": 1.63798,
    "l": 1.63527,
    "c": 1.63586,
    "v": 3055
  },
  {
    "dt": "2020.02.07 11:00",
    "o": 1.63586,
    "h": 1.63912,
    "l": 1.63581,
    "c": 1.63892,
    "v": 2553
  },
  {
    "dt": "2020.02.07 12:00",
    "o": 1.63894,
    "h": 1.64127,
    "l": 1.63793,
    "c": 1.64,
    "v": 2851
  },
  {
    "dt": "2020.02.07 13:00",
    "o": 1.63998,
    "h": 1.64018,
    "l": 1.63839,
    "c": 1.63852,
    "v": 2137
  },
  {
    "dt": "2020.02.07 14:00",
    "o": 1.63852,
    "h": 1.64014,
    "l": 1.6382,
    "c": 1.64013,
    "v": 2018
  },
  {
    "dt": "2020.02.07 15:00",
    "o": 1.64012,
    "h": 1.6423,
    "l": 1.64009,
    "c": 1.6416,
    "v": 3535
  },
  {
    "dt": "2020.02.07 16:00",
    "o": 1.64159,
    "h": 1.64471,
    "l": 1.64132,
    "c": 1.6444,
    "v": 3828
  },
  {
    "dt": "2020.02.07 17:00",
    "o": 1.64442,
    "h": 1.64447,
    "l": 1.63861,
    "c": 1.63954,
    "v": 3881
  },
  {
    "dt": "2020.02.07 18:00",
    "o": 1.63956,
    "h": 1.64039,
    "l": 1.63905,
    "c": 1.63946,
    "v": 2949
  },
  {
    "dt": "2020.02.07 19:00",
    "o": 1.63945,
    "h": 1.63989,
    "l": 1.63858,
    "c": 1.63883,
    "v": 1571
  },
  {
    "dt": "2020.02.07 20:00",
    "o": 1.63885,
    "h": 1.6395,
    "l": 1.63845,
    "c": 1.6395,
    "v": 1662
  },
  {
    "dt": "2020.02.07 21:00",
    "o": 1.6395,
    "h": 1.63999,
    "l": 1.6392,
    "c": 1.63926,
    "v": 1760
  },
  {
    "dt": "2020.02.07 22:00",
    "o": 1.63922,
    "h": 1.63987,
    "l": 1.63913,
    "c": 1.6393,
    "v": 1522
  },
  {
    "dt": "2020.02.07 23:00",
    "o": 1.63928,
    "h": 1.63995,
    "l": 1.63841,
    "c": 1.63914,
    "v": 1506
  },
  {
    "dt": "2020.02.10 00:00",
    "o": 1.64061,
    "h": 1.64078,
    "l": 1.63948,
    "c": 1.63962,
    "v": 624
  },
  {
    "dt": "2020.02.10 01:00",
    "o": 1.63963,
    "h": 1.64225,
    "l": 1.63854,
    "c": 1.64143,
    "v": 2468
  },
  {
    "dt": "2020.02.10 02:00",
    "o": 1.64135,
    "h": 1.64176,
    "l": 1.63901,
    "c": 1.63959,
    "v": 2503
  },
  {
    "dt": "2020.02.10 03:00",
    "o": 1.63954,
    "h": 1.64083,
    "l": 1.63657,
    "c": 1.63702,
    "v": 3050
  },
  {
    "dt": "2020.02.10 04:00",
    "o": 1.637,
    "h": 1.63735,
    "l": 1.63308,
    "c": 1.63419,
    "v": 2795
  },
  {
    "dt": "2020.02.10 05:00",
    "o": 1.63418,
    "h": 1.6352,
    "l": 1.63324,
    "c": 1.63466,
    "v": 1970
  },
  {
    "dt": "2020.02.10 06:00",
    "o": 1.63465,
    "h": 1.63597,
    "l": 1.63439,
    "c": 1.63586,
    "v": 1408
  },
  {
    "dt": "2020.02.10 07:00",
    "o": 1.63583,
    "h": 1.63597,
    "l": 1.63391,
    "c": 1.63428,
    "v": 1634
  },
  {
    "dt": "2020.02.10 08:00",
    "o": 1.63428,
    "h": 1.63465,
    "l": 1.63297,
    "c": 1.63328,
    "v": 2126
  },
  {
    "dt": "2020.02.10 09:00",
    "o": 1.63329,
    "h": 1.63554,
    "l": 1.63303,
    "c": 1.63477,
    "v": 2605
  },
  {
    "dt": "2020.02.10 10:00",
    "o": 1.63485,
    "h": 1.63684,
    "l": 1.63428,
    "c": 1.63532,
    "v": 2969
  },
  {
    "dt": "2020.02.10 11:00",
    "o": 1.63531,
    "h": 1.63647,
    "l": 1.63422,
    "c": 1.63569,
    "v": 2621
  },
  {
    "dt": "2020.02.10 12:00",
    "o": 1.63569,
    "h": 1.63627,
    "l": 1.63409,
    "c": 1.63552,
    "v": 2336
  },
  {
    "dt": "2020.02.10 13:00",
    "o": 1.6355,
    "h": 1.63647,
    "l": 1.63483,
    "c": 1.6362,
    "v": 1937
  },
  {
    "dt": "2020.02.10 14:00",
    "o": 1.6362,
    "h": 1.63795,
    "l": 1.63576,
    "c": 1.63764,
    "v": 1896
  },
  {
    "dt": "2020.02.10 15:00",
    "o": 1.63764,
    "h": 1.63816,
    "l": 1.63533,
    "c": 1.6357,
    "v": 2813
  },
  {
    "dt": "2020.02.10 16:00",
    "o": 1.63569,
    "h": 1.63651,
    "l": 1.63412,
    "c": 1.63412,
    "v": 3295
  },
  {
    "dt": "2020.02.10 17:00",
    "o": 1.63417,
    "h": 1.63562,
    "l": 1.63357,
    "c": 1.63522,
    "v": 3220
  },
  {
    "dt": "2020.02.10 18:00",
    "o": 1.63515,
    "h": 1.63548,
    "l": 1.63429,
    "c": 1.63521,
    "v": 2447
  },
  {
    "dt": "2020.02.10 19:00",
    "o": 1.63526,
    "h": 1.63571,
    "l": 1.63467,
    "c": 1.63473,
    "v": 2039
  },
  {
    "dt": "2020.02.10 20:00",
    "o": 1.63473,
    "h": 1.6353,
    "l": 1.63452,
    "c": 1.6346,
    "v": 1598
  },
  {
    "dt": "2020.02.10 21:00",
    "o": 1.63459,
    "h": 1.63511,
    "l": 1.63353,
    "c": 1.63395,
    "v": 1452
  },
  {
    "dt": "2020.02.10 22:00",
    "o": 1.63391,
    "h": 1.63391,
    "l": 1.63277,
    "c": 1.63314,
    "v": 1721
  },
  {
    "dt": "2020.02.10 23:00",
    "o": 1.63313,
    "h": 1.63325,
    "l": 1.63144,
    "c": 1.63149,
    "v": 1248
  },
  {
    "dt": "2020.02.11 00:00",
    "o": 1.63163,
    "h": 1.6324,
    "l": 1.63136,
    "c": 1.63203,
    "v": 689
  },
  {
    "dt": "2020.02.11 01:00",
    "o": 1.63205,
    "h": 1.63249,
    "l": 1.63037,
    "c": 1.63075,
    "v": 1157
  },
  {
    "dt": "2020.02.11 02:00",
    "o": 1.63077,
    "h": 1.63253,
    "l": 1.62942,
    "c": 1.62967,
    "v": 2050
  },
  {
    "dt": "2020.02.11 03:00",
    "o": 1.62964,
    "h": 1.62985,
    "l": 1.6272,
    "c": 1.6287,
    "v": 2540
  },
  {
    "dt": "2020.02.11 04:00",
    "o": 1.62869,
    "h": 1.62946,
    "l": 1.62714,
    "c": 1.62738,
    "v": 2066
  },
  {
    "dt": "2020.02.11 05:00",
    "o": 1.62741,
    "h": 1.62813,
    "l": 1.62637,
    "c": 1.62645,
    "v": 1535
  },
  {
    "dt": "2020.02.11 06:00",
    "o": 1.62647,
    "h": 1.6272,
    "l": 1.62593,
    "c": 1.62596,
    "v": 1035
  },
  {
    "dt": "2020.02.11 07:00",
    "o": 1.62597,
    "h": 1.6262,
    "l": 1.62487,
    "c": 1.62492,
    "v": 1445
  },
  {
    "dt": "2020.02.11 08:00",
    "o": 1.62491,
    "h": 1.62495,
    "l": 1.62352,
    "c": 1.62453,
    "v": 1802
  },
  {
    "dt": "2020.02.11 09:00",
    "o": 1.62464,
    "h": 1.62671,
    "l": 1.62431,
    "c": 1.62656,
    "v": 2573
  },
  {
    "dt": "2020.02.11 10:00",
    "o": 1.62661,
    "h": 1.62693,
    "l": 1.62454,
    "c": 1.62576,
    "v": 2524
  },
  {
    "dt": "2020.02.11 11:00",
    "o": 1.62577,
    "h": 1.62763,
    "l": 1.62575,
    "c": 1.62713,
    "v": 2477
  },
  {
    "dt": "2020.02.11 12:00",
    "o": 1.62712,
    "h": 1.62827,
    "l": 1.6265,
    "c": 1.62731,
    "v": 2129
  },
  {
    "dt": "2020.02.11 13:00",
    "o": 1.62729,
    "h": 1.62813,
    "l": 1.62645,
    "c": 1.62687,
    "v": 1914
  },
  {
    "dt": "2020.02.11 14:00",
    "o": 1.62686,
    "h": 1.62761,
    "l": 1.62593,
    "c": 1.62629,
    "v": 2072
  },
  {
    "dt": "2020.02.11 15:00",
    "o": 1.62632,
    "h": 1.62642,
    "l": 1.62463,
    "c": 1.62467,
    "v": 3301
  },
  {
    "dt": "2020.02.11 16:00",
    "o": 1.62464,
    "h": 1.62541,
    "l": 1.6224,
    "c": 1.62257,
    "v": 3608
  },
  {
    "dt": "2020.02.11 17:00",
    "o": 1.62256,
    "h": 1.62416,
    "l": 1.6212,
    "c": 1.62401,
    "v": 3685
  },
  {
    "dt": "2020.02.11 18:00",
    "o": 1.62401,
    "h": 1.62689,
    "l": 1.62343,
    "c": 1.62643,
    "v": 3009
  },
  {
    "dt": "2020.02.11 19:00",
    "o": 1.62643,
    "h": 1.62747,
    "l": 1.62616,
    "c": 1.62704,
    "v": 2677
  },
  {
    "dt": "2020.02.11 20:00",
    "o": 1.62703,
    "h": 1.62754,
    "l": 1.62586,
    "c": 1.62753,
    "v": 2345
  },
  {
    "dt": "2020.02.11 21:00",
    "o": 1.62747,
    "h": 1.62757,
    "l": 1.62643,
    "c": 1.62652,
    "v": 1790
  },
  {
    "dt": "2020.02.11 22:00",
    "o": 1.62654,
    "h": 1.62702,
    "l": 1.62616,
    "c": 1.62616,
    "v": 1751
  },
  {
    "dt": "2020.02.11 23:00",
    "o": 1.62616,
    "h": 1.62639,
    "l": 1.62546,
    "c": 1.62546,
    "v": 1153
  },
  {
    "dt": "2020.02.12 00:00",
    "o": 1.62548,
    "h": 1.6262,
    "l": 1.62548,
    "c": 1.62585,
    "v": 834
  },
  {
    "dt": "2020.02.12 01:00",
    "o": 1.62587,
    "h": 1.62641,
    "l": 1.62444,
    "c": 1.62507,
    "v": 1011
  },
  {
    "dt": "2020.02.12 02:00",
    "o": 1.62505,
    "h": 1.62577,
    "l": 1.62399,
    "c": 1.62416,
    "v": 2200
  },
  {
    "dt": "2020.02.12 03:00",
    "o": 1.62416,
    "h": 1.62418,
    "l": 1.62154,
    "c": 1.62205,
    "v": 2755
  },
  {
    "dt": "2020.02.12 04:00",
    "o": 1.62205,
    "h": 1.62235,
    "l": 1.62057,
    "c": 1.62095,
    "v": 2413
  },
  {
    "dt": "2020.02.12 05:00",
    "o": 1.62095,
    "h": 1.62199,
    "l": 1.62095,
    "c": 1.62188,
    "v": 1523
  },
  {
    "dt": "2020.02.12 06:00",
    "o": 1.62186,
    "h": 1.62225,
    "l": 1.62132,
    "c": 1.62197,
    "v": 1280
  },
  {
    "dt": "2020.02.12 07:00",
    "o": 1.62199,
    "h": 1.62199,
    "l": 1.6205,
    "c": 1.62167,
    "v": 1857
  },
  {
    "dt": "2020.02.12 08:00",
    "o": 1.62168,
    "h": 1.62232,
    "l": 1.62097,
    "c": 1.62123,
    "v": 2161
  },
  {
    "dt": "2020.02.12 09:00",
    "o": 1.62123,
    "h": 1.62182,
    "l": 1.62052,
    "c": 1.62146,
    "v": 2598
  },
  {
    "dt": "2020.02.12 10:00",
    "o": 1.62146,
    "h": 1.62183,
    "l": 1.61862,
    "c": 1.61919,
    "v": 3377
  },
  {
    "dt": "2020.02.12 11:00",
    "o": 1.61916,
    "h": 1.62066,
    "l": 1.61916,
    "c": 1.62026,
    "v": 2444
  },
  {
    "dt": "2020.02.12 12:00",
    "o": 1.62025,
    "h": 1.62029,
    "l": 1.61859,
    "c": 1.61888,
    "v": 2073
  },
  {
    "dt": "2020.02.12 13:00",
    "o": 1.61888,
    "h": 1.61902,
    "l": 1.61714,
    "c": 1.61747,
    "v": 1806
  },
  {
    "dt": "2020.02.12 14:00",
    "o": 1.61746,
    "h": 1.61804,
    "l": 1.61691,
    "c": 1.61701,
    "v": 1834
  },
  {
    "dt": "2020.02.12 15:00",
    "o": 1.61701,
    "h": 1.61819,
    "l": 1.61687,
    "c": 1.61778,
    "v": 2144
  },
  {
    "dt": "2020.02.12 16:00",
    "o": 1.61781,
    "h": 1.61825,
    "l": 1.61673,
    "c": 1.61747,
    "v": 2590
  },
  {
    "dt": "2020.02.12 17:00",
    "o": 1.61751,
    "h": 1.61758,
    "l": 1.61464,
    "c": 1.61509,
    "v": 3314
  },
  {
    "dt": "2020.02.12 18:00",
    "o": 1.61504,
    "h": 1.61543,
    "l": 1.61406,
    "c": 1.61456,
    "v": 2781
  },
  {
    "dt": "2020.02.12 19:00",
    "o": 1.61455,
    "h": 1.61475,
    "l": 1.61336,
    "c": 1.61407,
    "v": 2559
  },
  {
    "dt": "2020.02.12 20:00",
    "o": 1.61407,
    "h": 1.6141,
    "l": 1.61341,
    "c": 1.61355,
    "v": 1572
  },
  {
    "dt": "2020.02.12 21:00",
    "o": 1.61355,
    "h": 1.61401,
    "l": 1.61285,
    "c": 1.61319,
    "v": 1991
  },
  {
    "dt": "2020.02.12 22:00",
    "o": 1.61319,
    "h": 1.6143,
    "l": 1.61318,
    "c": 1.61402,
    "v": 1707
  },
  {
    "dt": "2020.02.12 23:00",
    "o": 1.61401,
    "h": 1.6143,
    "l": 1.6135,
    "c": 1.61368,
    "v": 1272
  },
  {
    "dt": "2020.02.13 00:00",
    "o": 1.61371,
    "h": 1.61464,
    "l": 1.61338,
    "c": 1.61411,
    "v": 1070
  },
  {
    "dt": "2020.02.13 01:00",
    "o": 1.61411,
    "h": 1.6211,
    "l": 1.61378,
    "c": 1.61998,
    "v": 1755
  },
  {
    "dt": "2020.02.13 02:00",
    "o": 1.61993,
    "h": 1.62023,
    "l": 1.61656,
    "c": 1.6185,
    "v": 2711
  },
  {
    "dt": "2020.02.13 03:00",
    "o": 1.61805,
    "h": 1.61816,
    "l": 1.61515,
    "c": 1.61621,
    "v": 2404
  },
  {
    "dt": "2020.02.13 04:00",
    "o": 1.61618,
    "h": 1.61709,
    "l": 1.61565,
    "c": 1.61695,
    "v": 1815
  },
  {
    "dt": "2020.02.13 05:00",
    "o": 1.61685,
    "h": 1.6175,
    "l": 1.61595,
    "c": 1.61729,
    "v": 1398
  },
  {
    "dt": "2020.02.13 06:00",
    "o": 1.61728,
    "h": 1.61793,
    "l": 1.61636,
    "c": 1.61776,
    "v": 1297
  },
  {
    "dt": "2020.02.13 07:00",
    "o": 1.61777,
    "h": 1.61875,
    "l": 1.61758,
    "c": 1.6178,
    "v": 1757
  },
  {
    "dt": "2020.02.13 08:00",
    "o": 1.61779,
    "h": 1.6195,
    "l": 1.61747,
    "c": 1.6186,
    "v": 1834
  },
  {
    "dt": "2020.02.13 09:00",
    "o": 1.61857,
    "h": 1.6195,
    "l": 1.61741,
    "c": 1.61805,
    "v": 2457
  },
  {
    "dt": "2020.02.13 10:00",
    "o": 1.61803,
    "h": 1.61804,
    "l": 1.61598,
    "c": 1.61628,
    "v": 2554
  },
  {
    "dt": "2020.02.13 11:00",
    "o": 1.61629,
    "h": 1.6187,
    "l": 1.61585,
    "c": 1.61777,
    "v": 2109
  },
  {
    "dt": "2020.02.13 12:00",
    "o": 1.61773,
    "h": 1.61873,
    "l": 1.61636,
    "c": 1.61637,
    "v": 2777
  },
  {
    "dt": "2020.02.13 13:00",
    "o": 1.61635,
    "h": 1.61649,
    "l": 1.61387,
    "c": 1.61397,
    "v": 2450
  },
  {
    "dt": "2020.02.13 14:00",
    "o": 1.61391,
    "h": 1.61463,
    "l": 1.61282,
    "c": 1.61388,
    "v": 3022
  },
  {
    "dt": "2020.02.13 15:00",
    "o": 1.61391,
    "h": 1.61393,
    "l": 1.61128,
    "c": 1.61158,
    "v": 2653
  },
  {
    "dt": "2020.02.13 16:00",
    "o": 1.61159,
    "h": 1.61218,
    "l": 1.60915,
    "c": 1.61088,
    "v": 3240
  },
  {
    "dt": "2020.02.13 17:00",
    "o": 1.61088,
    "h": 1.61235,
    "l": 1.60847,
    "c": 1.61152,
    "v": 3035
  },
  {
    "dt": "2020.02.13 18:00",
    "o": 1.61147,
    "h": 1.61269,
    "l": 1.61084,
    "c": 1.61201,
    "v": 2426
  },
  {
    "dt": "2020.02.13 19:00",
    "o": 1.61201,
    "h": 1.61256,
    "l": 1.61114,
    "c": 1.61253,
    "v": 2066
  },
  {
    "dt": "2020.02.13 20:00",
    "o": 1.61255,
    "h": 1.61311,
    "l": 1.61215,
    "c": 1.61225,
    "v": 1760
  },
  {
    "dt": "2020.02.13 21:00",
    "o": 1.61224,
    "h": 1.61275,
    "l": 1.61205,
    "c": 1.61242,
    "v": 1312
  },
  {
    "dt": "2020.02.13 22:00",
    "o": 1.61241,
    "h": 1.61387,
    "l": 1.61221,
    "c": 1.61331,
    "v": 1825
  },
  {
    "dt": "2020.02.13 23:00",
    "o": 1.61332,
    "h": 1.61353,
    "l": 1.61285,
    "c": 1.61296,
    "v": 1317
  },
  {
    "dt": "2020.02.14 00:00",
    "o": 1.61357,
    "h": 1.61375,
    "l": 1.61309,
    "c": 1.61365,
    "v": 659
  },
  {
    "dt": "2020.02.14 01:00",
    "o": 1.61365,
    "h": 1.61536,
    "l": 1.61315,
    "c": 1.61335,
    "v": 1397
  },
  {
    "dt": "2020.02.14 02:00",
    "o": 1.61326,
    "h": 1.61355,
    "l": 1.61239,
    "c": 1.61269,
    "v": 1964
  },
  {
    "dt": "2020.02.14 03:00",
    "o": 1.61276,
    "h": 1.61309,
    "l": 1.61061,
    "c": 1.61153,
    "v": 2120
  },
  {
    "dt": "2020.02.14 04:00",
    "o": 1.61152,
    "h": 1.61206,
    "l": 1.61015,
    "c": 1.61025,
    "v": 1686
  },
  {
    "dt": "2020.02.14 05:00",
    "o": 1.61004,
    "h": 1.61131,
    "l": 1.60963,
    "c": 1.6111,
    "v": 1575
  },
  {
    "dt": "2020.02.14 06:00",
    "o": 1.61111,
    "h": 1.61275,
    "l": 1.61102,
    "c": 1.61274,
    "v": 1014
  },
  {
    "dt": "2020.02.14 07:00",
    "o": 1.61272,
    "h": 1.61288,
    "l": 1.61222,
    "c": 1.61257,
    "v": 1144
  },
  {
    "dt": "2020.02.14 08:00",
    "o": 1.61253,
    "h": 1.61294,
    "l": 1.61221,
    "c": 1.61278,
    "v": 1379
  },
  {
    "dt": "2020.02.14 09:00",
    "o": 1.61286,
    "h": 1.61332,
    "l": 1.61094,
    "c": 1.61101,
    "v": 2424
  },
  {
    "dt": "2020.02.14 10:00",
    "o": 1.61103,
    "h": 1.61221,
    "l": 1.61019,
    "c": 1.61198,
    "v": 2301
  },
  {
    "dt": "2020.02.14 11:00",
    "o": 1.61193,
    "h": 1.6134,
    "l": 1.61166,
    "c": 1.61289,
    "v": 2297
  },
  {
    "dt": "2020.02.14 12:00",
    "o": 1.61287,
    "h": 1.61437,
    "l": 1.61245,
    "c": 1.61337,
    "v": 1952
  },
  {
    "dt": "2020.02.14 13:00",
    "o": 1.61335,
    "h": 1.61493,
    "l": 1.61334,
    "c": 1.6144,
    "v": 1840
  },
  {
    "dt": "2020.02.14 14:00",
    "o": 1.61439,
    "h": 1.61498,
    "l": 1.61309,
    "c": 1.6142,
    "v": 2183
  },
  {
    "dt": "2020.02.14 15:00",
    "o": 1.61424,
    "h": 1.61553,
    "l": 1.61389,
    "c": 1.61458,
    "v": 2948
  },
  {
    "dt": "2020.02.14 16:00",
    "o": 1.61459,
    "h": 1.61637,
    "l": 1.6137,
    "c": 1.61618,
    "v": 2942
  },
  {
    "dt": "2020.02.14 17:00",
    "o": 1.61624,
    "h": 1.61644,
    "l": 1.61431,
    "c": 1.61455,
    "v": 2831
  },
  {
    "dt": "2020.02.14 18:00",
    "o": 1.61449,
    "h": 1.61477,
    "l": 1.61299,
    "c": 1.61319,
    "v": 2398
  },
  {
    "dt": "2020.02.14 19:00",
    "o": 1.61318,
    "h": 1.6152,
    "l": 1.61261,
    "c": 1.61499,
    "v": 1768
  },
  {
    "dt": "2020.02.14 20:00",
    "o": 1.61496,
    "h": 1.61592,
    "l": 1.61464,
    "c": 1.61578,
    "v": 1292
  },
  {
    "dt": "2020.02.14 21:00",
    "o": 1.61577,
    "h": 1.61617,
    "l": 1.61493,
    "c": 1.61513,
    "v": 1426
  },
  {
    "dt": "2020.02.14 22:00",
    "o": 1.61514,
    "h": 1.61514,
    "l": 1.61364,
    "c": 1.61374,
    "v": 1356
  },
  {
    "dt": "2020.02.14 23:00",
    "o": 1.61374,
    "h": 1.61426,
    "l": 1.61277,
    "c": 1.61285,
    "v": 1589
  },
  {
    "dt": "2020.02.17 00:00",
    "o": 1.61204,
    "h": 1.613,
    "l": 1.61171,
    "c": 1.61286,
    "v": 861
  },
  {
    "dt": "2020.02.17 01:00",
    "o": 1.61289,
    "h": 1.61293,
    "l": 1.61073,
    "c": 1.61179,
    "v": 1567
  },
  {
    "dt": "2020.02.17 02:00",
    "o": 1.61188,
    "h": 1.61356,
    "l": 1.61176,
    "c": 1.61331,
    "v": 1682
  },
  {
    "dt": "2020.02.17 03:00",
    "o": 1.61329,
    "h": 1.61361,
    "l": 1.61102,
    "c": 1.61119,
    "v": 1665
  },
  {
    "dt": "2020.02.17 04:00",
    "o": 1.61116,
    "h": 1.61197,
    "l": 1.61058,
    "c": 1.61135,
    "v": 1361
  },
  {
    "dt": "2020.02.17 05:00",
    "o": 1.61136,
    "h": 1.61199,
    "l": 1.61084,
    "c": 1.61193,
    "v": 1082
  },
  {
    "dt": "2020.02.17 06:00",
    "o": 1.61194,
    "h": 1.61208,
    "l": 1.61133,
    "c": 1.61154,
    "v": 786
  },
  {
    "dt": "2020.02.17 07:00",
    "o": 1.61162,
    "h": 1.61194,
    "l": 1.60979,
    "c": 1.61029,
    "v": 988
  },
  {
    "dt": "2020.02.17 08:00",
    "o": 1.61029,
    "h": 1.61093,
    "l": 1.61011,
    "c": 1.61081,
    "v": 1342
  },
  {
    "dt": "2020.02.17 09:00",
    "o": 1.61083,
    "h": 1.6114,
    "l": 1.61048,
    "c": 1.61088,
    "v": 1721
  },
  {
    "dt": "2020.02.17 10:00",
    "o": 1.6109,
    "h": 1.61274,
    "l": 1.61063,
    "c": 1.6126,
    "v": 2075
  },
  {
    "dt": "2020.02.17 11:00",
    "o": 1.61263,
    "h": 1.61327,
    "l": 1.61155,
    "c": 1.61203,
    "v": 1750
  },
  {
    "dt": "2020.02.17 12:00",
    "o": 1.61206,
    "h": 1.61348,
    "l": 1.61163,
    "c": 1.61333,
    "v": 1589
  },
  {
    "dt": "2020.02.17 13:00",
    "o": 1.61332,
    "h": 1.61332,
    "l": 1.61242,
    "c": 1.61253,
    "v": 1715
  },
  {
    "dt": "2020.02.17 14:00",
    "o": 1.61248,
    "h": 1.61396,
    "l": 1.61228,
    "c": 1.6136,
    "v": 1794
  },
  {
    "dt": "2020.02.17 15:00",
    "o": 1.61362,
    "h": 1.61381,
    "l": 1.61268,
    "c": 1.61276,
    "v": 1580
  },
  {
    "dt": "2020.02.17 16:00",
    "o": 1.61277,
    "h": 1.6133,
    "l": 1.61199,
    "c": 1.6126,
    "v": 1654
  },
  {
    "dt": "2020.02.17 17:00",
    "o": 1.61259,
    "h": 1.61376,
    "l": 1.61259,
    "c": 1.61285,
    "v": 1878
  },
  {
    "dt": "2020.02.17 18:00",
    "o": 1.6128,
    "h": 1.61338,
    "l": 1.61258,
    "c": 1.61278,
    "v": 1700
  },
  {
    "dt": "2020.02.17 19:00",
    "o": 1.61276,
    "h": 1.61326,
    "l": 1.61225,
    "c": 1.61231,
    "v": 1297
  },
  {
    "dt": "2020.02.17 20:00",
    "o": 1.6123,
    "h": 1.61286,
    "l": 1.61202,
    "c": 1.61224,
    "v": 1079
  },
  {
    "dt": "2020.02.17 21:00",
    "o": 1.61222,
    "h": 1.61306,
    "l": 1.61222,
    "c": 1.61285,
    "v": 893
  },
  {
    "dt": "2020.02.17 22:00",
    "o": 1.61285,
    "h": 1.61294,
    "l": 1.61226,
    "c": 1.6125,
    "v": 1403
  },
  {
    "dt": "2020.02.17 23:00",
    "o": 1.61251,
    "h": 1.61417,
    "l": 1.61243,
    "c": 1.61355,
    "v": 1612
  },
  {
    "dt": "2020.02.18 00:00",
    "o": 1.61371,
    "h": 1.61428,
    "l": 1.61294,
    "c": 1.61419,
    "v": 696
  },
  {
    "dt": "2020.02.18 01:00",
    "o": 1.6142,
    "h": 1.61543,
    "l": 1.6138,
    "c": 1.61497,
    "v": 999
  },
  {
    "dt": "2020.02.18 02:00",
    "o": 1.61499,
    "h": 1.61794,
    "l": 1.61471,
    "c": 1.6179,
    "v": 1931
  },
  {
    "dt": "2020.02.18 03:00",
    "o": 1.61785,
    "h": 1.61871,
    "l": 1.61719,
    "c": 1.6182,
    "v": 2155
  },
  {
    "dt": "2020.02.18 04:00",
    "o": 1.6182,
    "h": 1.61981,
    "l": 1.61804,
    "c": 1.61944,
    "v": 1787
  },
  {
    "dt": "2020.02.18 05:00",
    "o": 1.61943,
    "h": 1.61985,
    "l": 1.61876,
    "c": 1.61881,
    "v": 1280
  },
  {
    "dt": "2020.02.18 06:00",
    "o": 1.61878,
    "h": 1.61949,
    "l": 1.61782,
    "c": 1.61823,
    "v": 913
  },
  {
    "dt": "2020.02.18 07:00",
    "o": 1.61824,
    "h": 1.61919,
    "l": 1.61812,
    "c": 1.61873,
    "v": 1205
  },
  {
    "dt": "2020.02.18 08:00",
    "o": 1.61873,
    "h": 1.61935,
    "l": 1.61828,
    "c": 1.61918,
    "v": 1555
  },
  {
    "dt": "2020.02.18 09:00",
    "o": 1.61914,
    "h": 1.62121,
    "l": 1.61896,
    "c": 1.62064,
    "v": 2429
  },
  {
    "dt": "2020.02.18 10:00",
    "o": 1.62063,
    "h": 1.62107,
    "l": 1.6191,
    "c": 1.62073,
    "v": 2829
  },
  {
    "dt": "2020.02.18 11:00",
    "o": 1.62074,
    "h": 1.62275,
    "l": 1.62073,
    "c": 1.62151,
    "v": 2540
  },
  {
    "dt": "2020.02.18 12:00",
    "o": 1.62152,
    "h": 1.62152,
    "l": 1.61973,
    "c": 1.62071,
    "v": 2705
  },
  {
    "dt": "2020.02.18 13:00",
    "o": 1.62071,
    "h": 1.62091,
    "l": 1.61915,
    "c": 1.61915,
    "v": 2044
  },
  {
    "dt": "2020.02.18 14:00",
    "o": 1.61915,
    "h": 1.62001,
    "l": 1.61792,
    "c": 1.61887,
    "v": 2356
  },
  {
    "dt": "2020.02.18 15:00",
    "o": 1.61888,
    "h": 1.61941,
    "l": 1.61623,
    "c": 1.61659,
    "v": 2653
  },
  {
    "dt": "2020.02.18 16:00",
    "o": 1.61656,
    "h": 1.61666,
    "l": 1.61304,
    "c": 1.61466,
    "v": 2765
  },
  {
    "dt": "2020.02.18 17:00",
    "o": 1.61466,
    "h": 1.61789,
    "l": 1.61452,
    "c": 1.616,
    "v": 3171
  },
  {
    "dt": "2020.02.18 18:00",
    "o": 1.616,
    "h": 1.61702,
    "l": 1.61526,
    "c": 1.61597,
    "v": 2531
  },
  {
    "dt": "2020.02.18 19:00",
    "o": 1.61597,
    "h": 1.61605,
    "l": 1.6147,
    "c": 1.61493,
    "v": 1960
  },
  {
    "dt": "2020.02.18 20:00",
    "o": 1.61492,
    "h": 1.61574,
    "l": 1.61445,
    "c": 1.6157,
    "v": 1940
  },
  {
    "dt": "2020.02.18 21:00",
    "o": 1.61567,
    "h": 1.61576,
    "l": 1.61386,
    "c": 1.61434,
    "v": 1688
  },
  {
    "dt": "2020.02.18 22:00",
    "o": 1.61428,
    "h": 1.61474,
    "l": 1.61382,
    "c": 1.6139,
    "v": 1609
  },
  {
    "dt": "2020.02.18 23:00",
    "o": 1.61387,
    "h": 1.61414,
    "l": 1.61304,
    "c": 1.61307,
    "v": 1251
  },
  {
    "dt": "2020.02.19 00:00",
    "o": 1.61356,
    "h": 1.61423,
    "l": 1.61323,
    "c": 1.61397,
    "v": 599
  },
  {
    "dt": "2020.02.19 01:00",
    "o": 1.61406,
    "h": 1.61406,
    "l": 1.61245,
    "c": 1.61247,
    "v": 1276
  },
  {
    "dt": "2020.02.19 02:00",
    "o": 1.61236,
    "h": 1.61379,
    "l": 1.61219,
    "c": 1.61377,
    "v": 1364
  },
  {
    "dt": "2020.02.19 03:00",
    "o": 1.61392,
    "h": 1.61588,
    "l": 1.61363,
    "c": 1.61514,
    "v": 1924
  },
  {
    "dt": "2020.02.19 04:00",
    "o": 1.61511,
    "h": 1.61513,
    "l": 1.61187,
    "c": 1.61316,
    "v": 1800
  },
  {
    "dt": "2020.02.19 05:00",
    "o": 1.61319,
    "h": 1.61364,
    "l": 1.61233,
    "c": 1.61263,
    "v": 1179
  },
  {
    "dt": "2020.02.19 06:00",
    "o": 1.61262,
    "h": 1.61288,
    "l": 1.61178,
    "c": 1.61248,
    "v": 863
  },
  {
    "dt": "2020.02.19 07:00",
    "o": 1.61256,
    "h": 1.61341,
    "l": 1.61243,
    "c": 1.61256,
    "v": 988
  },
  {
    "dt": "2020.02.19 08:00",
    "o": 1.61255,
    "h": 1.61306,
    "l": 1.61209,
    "c": 1.6124,
    "v": 1418
  },
  {
    "dt": "2020.02.19 09:00",
    "o": 1.61245,
    "h": 1.61267,
    "l": 1.61123,
    "c": 1.61164,
    "v": 2063
  },
  {
    "dt": "2020.02.19 10:00",
    "o": 1.61167,
    "h": 1.61341,
    "l": 1.61163,
    "c": 1.61275,
    "v": 2488
  },
  {
    "dt": "2020.02.19 11:00",
    "o": 1.61276,
    "h": 1.61289,
    "l": 1.61104,
    "c": 1.61224,
    "v": 2515
  },
  {
    "dt": "2020.02.19 12:00",
    "o": 1.61225,
    "h": 1.61355,
    "l": 1.61218,
    "c": 1.6135,
    "v": 1927
  },
  {
    "dt": "2020.02.19 13:00",
    "o": 1.6135,
    "h": 1.61379,
    "l": 1.61227,
    "c": 1.61294,
    "v": 2115
  },
  {
    "dt": "2020.02.19 14:00",
    "o": 1.61291,
    "h": 1.61408,
    "l": 1.61279,
    "c": 1.61377,
    "v": 2012
  },
  {
    "dt": "2020.02.19 15:00",
    "o": 1.61382,
    "h": 1.61605,
    "l": 1.6134,
    "c": 1.61539,
    "v": 2505
  },
  {
    "dt": "2020.02.19 16:00",
    "o": 1.61538,
    "h": 1.61617,
    "l": 1.61462,
    "c": 1.61592,
    "v": 3181
  },
  {
    "dt": "2020.02.19 17:00",
    "o": 1.61591,
    "h": 1.6181,
    "l": 1.61588,
    "c": 1.61694,
    "v": 3261
  },
  {
    "dt": "2020.02.19 18:00",
    "o": 1.61701,
    "h": 1.61768,
    "l": 1.6158,
    "c": 1.61735,
    "v": 3320
  },
  {
    "dt": "2020.02.19 19:00",
    "o": 1.61735,
    "h": 1.61803,
    "l": 1.61661,
    "c": 1.61776,
    "v": 2242
  },
  {
    "dt": "2020.02.19 20:00",
    "o": 1.61778,
    "h": 1.61843,
    "l": 1.61729,
    "c": 1.618,
    "v": 1592
  },
  {
    "dt": "2020.02.19 21:00",
    "o": 1.61797,
    "h": 1.61826,
    "l": 1.61728,
    "c": 1.61798,
    "v": 2296
  },
  {
    "dt": "2020.02.19 22:00",
    "o": 1.61797,
    "h": 1.61891,
    "l": 1.61753,
    "c": 1.61889,
    "v": 2104
  },
  {
    "dt": "2020.02.19 23:00",
    "o": 1.61892,
    "h": 1.61906,
    "l": 1.61792,
    "c": 1.61793,
    "v": 1519
  },
  {
    "dt": "2020.02.20 00:00",
    "o": 1.61786,
    "h": 1.61872,
    "l": 1.61754,
    "c": 1.61862,
    "v": 1074
  },
  {
    "dt": "2020.02.20 01:00",
    "o": 1.61852,
    "h": 1.61864,
    "l": 1.61684,
    "c": 1.61788,
    "v": 1237
  },
  {
    "dt": "2020.02.20 02:00",
    "o": 1.61791,
    "h": 1.62063,
    "l": 1.61444,
    "c": 1.61915,
    "v": 2733
  },
  {
    "dt": "2020.02.20 03:00",
    "o": 1.61911,
    "h": 1.6259,
    "l": 1.61875,
    "c": 1.62453,
    "v": 3125
  },
  {
    "dt": "2020.02.20 04:00",
    "o": 1.62465,
    "h": 1.6278,
    "l": 1.62405,
    "c": 1.62632,
    "v": 3102
  },
  {
    "dt": "2020.02.20 05:00",
    "o": 1.62637,
    "h": 1.62849,
    "l": 1.62586,
    "c": 1.62678,
    "v": 2597
  },
  {
    "dt": "2020.02.20 06:00",
    "o": 1.62683,
    "h": 1.62707,
    "l": 1.62401,
    "c": 1.62404,
    "v": 1592
  },
  {
    "dt": "2020.02.20 07:00",
    "o": 1.62411,
    "h": 1.62412,
    "l": 1.62243,
    "c": 1.62303,
    "v": 2086
  },
  {
    "dt": "2020.02.20 08:00",
    "o": 1.62302,
    "h": 1.62414,
    "l": 1.62284,
    "c": 1.62284,
    "v": 2324
  },
  {
    "dt": "2020.02.20 09:00",
    "o": 1.62283,
    "h": 1.62537,
    "l": 1.62202,
    "c": 1.62485,
    "v": 2979
  },
  {
    "dt": "2020.02.20 10:00",
    "o": 1.62482,
    "h": 1.62827,
    "l": 1.6246,
    "c": 1.62786,
    "v": 3097
  },
  {
    "dt": "2020.02.20 11:00",
    "o": 1.62787,
    "h": 1.63081,
    "l": 1.62688,
    "c": 1.62763,
    "v": 2954
  },
  {
    "dt": "2020.02.20 12:00",
    "o": 1.62761,
    "h": 1.62997,
    "l": 1.6268,
    "c": 1.62878,
    "v": 2651
  },
  {
    "dt": "2020.02.20 13:00",
    "o": 1.62882,
    "h": 1.62929,
    "l": 1.62748,
    "c": 1.62762,
    "v": 2807
  },
  {
    "dt": "2020.02.20 14:00",
    "o": 1.62763,
    "h": 1.63021,
    "l": 1.62739,
    "c": 1.62849,
    "v": 2588
  },
  {
    "dt": "2020.02.20 15:00",
    "o": 1.62848,
    "h": 1.63276,
    "l": 1.62848,
    "c": 1.63239,
    "v": 3083
  },
  {
    "dt": "2020.02.20 16:00",
    "o": 1.6324,
    "h": 1.633,
    "l": 1.63153,
    "c": 1.63165,
    "v": 3473
  },
  {
    "dt": "2020.02.20 17:00",
    "o": 1.63163,
    "h": 1.63223,
    "l": 1.62951,
    "c": 1.62998,
    "v": 3503
  },
  {
    "dt": "2020.02.20 18:00",
    "o": 1.62997,
    "h": 1.63306,
    "l": 1.62991,
    "c": 1.63122,
    "v": 3768
  },
  {
    "dt": "2020.02.20 19:00",
    "o": 1.63134,
    "h": 1.63234,
    "l": 1.63066,
    "c": 1.63081,
    "v": 3146
  },
  {
    "dt": "2020.02.20 20:00",
    "o": 1.63082,
    "h": 1.63176,
    "l": 1.63002,
    "c": 1.63175,
    "v": 2103
  },
  {
    "dt": "2020.02.20 21:00",
    "o": 1.63173,
    "h": 1.63181,
    "l": 1.63025,
    "c": 1.63116,
    "v": 1976
  },
  {
    "dt": "2020.02.20 22:00",
    "o": 1.63118,
    "h": 1.63138,
    "l": 1.63013,
    "c": 1.63041,
    "v": 1932
  },
  {
    "dt": "2020.02.20 23:00",
    "o": 1.63033,
    "h": 1.63099,
    "l": 1.62963,
    "c": 1.6306,
    "v": 1417
  },
  {
    "dt": "2020.02.21 00:00",
    "o": 1.63025,
    "h": 1.63127,
    "l": 1.62978,
    "c": 1.63113,
    "v": 1009
  },
  {
    "dt": "2020.02.21 01:00",
    "o": 1.63092,
    "h": 1.63148,
    "l": 1.63026,
    "c": 1.63143,
    "v": 1320
  },
  {
    "dt": "2020.02.21 02:00",
    "o": 1.63148,
    "h": 1.63161,
    "l": 1.62874,
    "c": 1.62994,
    "v": 2205
  },
  {
    "dt": "2020.02.21 03:00",
    "o": 1.62994,
    "h": 1.63246,
    "l": 1.6295,
    "c": 1.63231,
    "v": 2354
  },
  {
    "dt": "2020.02.21 04:00",
    "o": 1.63231,
    "h": 1.63654,
    "l": 1.63225,
    "c": 1.63515,
    "v": 2752
  },
  {
    "dt": "2020.02.21 05:00",
    "o": 1.63516,
    "h": 1.63519,
    "l": 1.63362,
    "c": 1.63373,
    "v": 1647
  },
  {
    "dt": "2020.02.21 06:00",
    "o": 1.63398,
    "h": 1.63535,
    "l": 1.63374,
    "c": 1.63448,
    "v": 1398
  },
  {
    "dt": "2020.02.21 07:00",
    "o": 1.6344,
    "h": 1.63554,
    "l": 1.63402,
    "c": 1.63507,
    "v": 1426
  },
  {
    "dt": "2020.02.21 08:00",
    "o": 1.63507,
    "h": 1.63608,
    "l": 1.6343,
    "c": 1.63476,
    "v": 1758
  },
  {
    "dt": "2020.02.21 09:00",
    "o": 1.63484,
    "h": 1.63808,
    "l": 1.63467,
    "c": 1.63754,
    "v": 2975
  },
  {
    "dt": "2020.02.21 10:00",
    "o": 1.63749,
    "h": 1.63979,
    "l": 1.63719,
    "c": 1.63826,
    "v": 3979
  },
  {
    "dt": "2020.02.21 11:00",
    "o": 1.63827,
    "h": 1.64061,
    "l": 1.63754,
    "c": 1.63949,
    "v": 3095
  },
  {
    "dt": "2020.02.21 12:00",
    "o": 1.63947,
    "h": 1.6396,
    "l": 1.63658,
    "c": 1.63729,
    "v": 2248
  },
  {
    "dt": "2020.02.21 13:00",
    "o": 1.63735,
    "h": 1.63788,
    "l": 1.63676,
    "c": 1.63698,
    "v": 2538
  },
  {
    "dt": "2020.02.21 14:00",
    "o": 1.63697,
    "h": 1.63698,
    "l": 1.63498,
    "c": 1.63524,
    "v": 1600
  },
  {
    "dt": "2020.02.21 15:00",
    "o": 1.63523,
    "h": 1.6368,
    "l": 1.63523,
    "c": 1.63632,
    "v": 2547
  },
  {
    "dt": "2020.02.21 16:00",
    "o": 1.63632,
    "h": 1.64045,
    "l": 1.63596,
    "c": 1.63853,
    "v": 3201
  },
  {
    "dt": "2020.02.21 17:00",
    "o": 1.6385,
    "h": 1.63979,
    "l": 1.63561,
    "c": 1.63604,
    "v": 3870
  },
  {
    "dt": "2020.02.21 18:00",
    "o": 1.63627,
    "h": 1.63669,
    "l": 1.63544,
    "c": 1.63663,
    "v": 2260
  },
  {
    "dt": "2020.02.21 19:00",
    "o": 1.63663,
    "h": 1.63744,
    "l": 1.63593,
    "c": 1.6374,
    "v": 1981
  },
  {
    "dt": "2020.02.21 20:00",
    "o": 1.6374,
    "h": 1.63797,
    "l": 1.6368,
    "c": 1.63696,
    "v": 1739
  },
  {
    "dt": "2020.02.21 21:00",
    "o": 1.63698,
    "h": 1.63748,
    "l": 1.6366,
    "c": 1.63728,
    "v": 1847
  },
  {
    "dt": "2020.02.21 22:00",
    "o": 1.63727,
    "h": 1.63792,
    "l": 1.63683,
    "c": 1.63699,
    "v": 1996
  },
  {
    "dt": "2020.02.21 23:00",
    "o": 1.63696,
    "h": 1.63775,
    "l": 1.63642,
    "c": 1.63664,
    "v": 1577
  },
  {
    "dt": "2020.02.24 00:00",
    "o": 1.64307,
    "h": 1.64309,
    "l": 1.63913,
    "c": 1.64204,
    "v": 1009
  },
  {
    "dt": "2020.02.24 01:00",
    "o": 1.64206,
    "h": 1.64281,
    "l": 1.63968,
    "c": 1.64058,
    "v": 2777
  },
  {
    "dt": "2020.02.24 02:00",
    "o": 1.64067,
    "h": 1.64087,
    "l": 1.63773,
    "c": 1.6388,
    "v": 2860
  },
  {
    "dt": "2020.02.24 03:00",
    "o": 1.63878,
    "h": 1.64018,
    "l": 1.6372,
    "c": 1.63803,
    "v": 2351
  },
  {
    "dt": "2020.02.24 04:00",
    "o": 1.63797,
    "h": 1.63916,
    "l": 1.6371,
    "c": 1.6388,
    "v": 2244
  },
  {
    "dt": "2020.02.24 05:00",
    "o": 1.63881,
    "h": 1.63939,
    "l": 1.63743,
    "c": 1.63766,
    "v": 1748
  },
  {
    "dt": "2020.02.24 06:00",
    "o": 1.63764,
    "h": 1.63793,
    "l": 1.63666,
    "c": 1.63696,
    "v": 1326
  },
  {
    "dt": "2020.02.24 07:00",
    "o": 1.63702,
    "h": 1.63916,
    "l": 1.63688,
    "c": 1.63916,
    "v": 1751
  },
  {
    "dt": "2020.02.24 08:00",
    "o": 1.63916,
    "h": 1.64098,
    "l": 1.63844,
    "c": 1.64012,
    "v": 2164
  },
  {
    "dt": "2020.02.24 09:00",
    "o": 1.64014,
    "h": 1.64111,
    "l": 1.63888,
    "c": 1.64039,
    "v": 3236
  },
  {
    "dt": "2020.02.24 10:00",
    "o": 1.64039,
    "h": 1.64319,
    "l": 1.63944,
    "c": 1.64081,
    "v": 3710
  },
  {
    "dt": "2020.02.24 11:00",
    "o": 1.64094,
    "h": 1.64256,
    "l": 1.63961,
    "c": 1.64025,
    "v": 3840
  },
  {
    "dt": "2020.02.24 12:00",
    "o": 1.64023,
    "h": 1.64172,
    "l": 1.6401,
    "c": 1.64158,
    "v": 2851
  },
  {
    "dt": "2020.02.24 13:00",
    "o": 1.64159,
    "h": 1.6416,
    "l": 1.63803,
    "c": 1.63841,
    "v": 2782
  },
  {
    "dt": "2020.02.24 14:00",
    "o": 1.63843,
    "h": 1.63999,
    "l": 1.63754,
    "c": 1.63818,
    "v": 2669
  },
  {
    "dt": "2020.02.24 15:00",
    "o": 1.63825,
    "h": 1.63993,
    "l": 1.63814,
    "c": 1.63953,
    "v": 2813
  },
  {
    "dt": "2020.02.24 16:00",
    "o": 1.63951,
    "h": 1.64144,
    "l": 1.63928,
    "c": 1.64113,
    "v": 4018
  },
  {
    "dt": "2020.02.24 17:00",
    "o": 1.64113,
    "h": 1.64174,
    "l": 1.63967,
    "c": 1.64046,
    "v": 4160
  },
  {
    "dt": "2020.02.24 18:00",
    "o": 1.64044,
    "h": 1.64217,
    "l": 1.64011,
    "c": 1.64176,
    "v": 3347
  },
  {
    "dt": "2020.02.24 19:00",
    "o": 1.64183,
    "h": 1.64256,
    "l": 1.64155,
    "c": 1.64242,
    "v": 3533
  },
  {
    "dt": "2020.02.24 20:00",
    "o": 1.64242,
    "h": 1.64377,
    "l": 1.64228,
    "c": 1.64302,
    "v": 2613
  },
  {
    "dt": "2020.02.24 21:00",
    "o": 1.64303,
    "h": 1.64435,
    "l": 1.64258,
    "c": 1.64342,
    "v": 2975
  },
  {
    "dt": "2020.02.24 22:00",
    "o": 1.64325,
    "h": 1.64408,
    "l": 1.64252,
    "c": 1.6439,
    "v": 3079
  },
  {
    "dt": "2020.02.24 23:00",
    "o": 1.64386,
    "h": 1.64438,
    "l": 1.64294,
    "c": 1.64305,
    "v": 1998
  },
  {
    "dt": "2020.02.25 00:00",
    "o": 1.64351,
    "h": 1.64428,
    "l": 1.64213,
    "c": 1.64393,
    "v": 987
  },
  {
    "dt": "2020.02.25 01:00",
    "o": 1.64386,
    "h": 1.64398,
    "l": 1.64052,
    "c": 1.6409,
    "v": 2003
  },
  {
    "dt": "2020.02.25 02:00",
    "o": 1.64089,
    "h": 1.64239,
    "l": 1.63979,
    "c": 1.64172,
    "v": 2606
  },
  {
    "dt": "2020.02.25 03:00",
    "o": 1.64173,
    "h": 1.64196,
    "l": 1.63922,
    "c": 1.64105,
    "v": 3197
  },
  {
    "dt": "2020.02.25 04:00",
    "o": 1.64103,
    "h": 1.64253,
    "l": 1.6398,
    "c": 1.64082,
    "v": 2546
  },
  {
    "dt": "2020.02.25 05:00",
    "o": 1.6408,
    "h": 1.64223,
    "l": 1.64048,
    "c": 1.64068,
    "v": 2210
  },
  {
    "dt": "2020.02.25 06:00",
    "o": 1.64068,
    "h": 1.64227,
    "l": 1.64012,
    "c": 1.64215,
    "v": 1467
  },
  {
    "dt": "2020.02.25 07:00",
    "o": 1.64215,
    "h": 1.64242,
    "l": 1.64122,
    "c": 1.6414,
    "v": 1699
  },
  {
    "dt": "2020.02.25 08:00",
    "o": 1.6412,
    "h": 1.64173,
    "l": 1.63927,
    "c": 1.63937,
    "v": 2462
  },
  {
    "dt": "2020.02.25 09:00",
    "o": 1.63942,
    "h": 1.64208,
    "l": 1.63887,
    "c": 1.64207,
    "v": 3028
  },
  {
    "dt": "2020.02.25 10:00",
    "o": 1.64204,
    "h": 1.64458,
    "l": 1.64119,
    "c": 1.64384,
    "v": 3637
  },
  {
    "dt": "2020.02.25 11:00",
    "o": 1.64383,
    "h": 1.64606,
    "l": 1.64303,
    "c": 1.64474,
    "v": 3330
  },
  {
    "dt": "2020.02.25 12:00",
    "o": 1.64483,
    "h": 1.64483,
    "l": 1.64102,
    "c": 1.64184,
    "v": 3065
  },
  {
    "dt": "2020.02.25 13:00",
    "o": 1.64189,
    "h": 1.64307,
    "l": 1.64125,
    "c": 1.64248,
    "v": 2887
  },
  {
    "dt": "2020.02.25 14:00",
    "o": 1.64256,
    "h": 1.64385,
    "l": 1.64119,
    "c": 1.64358,
    "v": 2850
  },
  {
    "dt": "2020.02.25 15:00",
    "o": 1.64368,
    "h": 1.64616,
    "l": 1.64315,
    "c": 1.6451,
    "v": 3004
  },
  {
    "dt": "2020.02.25 16:00",
    "o": 1.64508,
    "h": 1.64595,
    "l": 1.64275,
    "c": 1.64302,
    "v": 3731
  },
  {
    "dt": "2020.02.25 17:00",
    "o": 1.643,
    "h": 1.64598,
    "l": 1.6426,
    "c": 1.64485,
    "v": 4818
  },
  {
    "dt": "2020.02.25 18:00",
    "o": 1.6447,
    "h": 1.64827,
    "l": 1.64431,
    "c": 1.64742,
    "v": 4339
  },
  {
    "dt": "2020.02.25 19:00",
    "o": 1.6474,
    "h": 1.64818,
    "l": 1.64668,
    "c": 1.64775,
    "v": 3400
  },
  {
    "dt": "2020.02.25 20:00",
    "o": 1.64775,
    "h": 1.64804,
    "l": 1.64685,
    "c": 1.64763,
    "v": 3232
  },
  {
    "dt": "2020.02.25 21:00",
    "o": 1.64762,
    "h": 1.64927,
    "l": 1.64757,
    "c": 1.64854,
    "v": 4323
  },
  {
    "dt": "2020.02.25 22:00",
    "o": 1.64851,
    "h": 1.65014,
    "l": 1.6472,
    "c": 1.64942,
    "v": 3869
  },
  {
    "dt": "2020.02.25 23:00",
    "o": 1.64946,
    "h": 1.64959,
    "l": 1.64787,
    "c": 1.64805,
    "v": 1920
  },
  {
    "dt": "2020.02.26 00:00",
    "o": 1.64766,
    "h": 1.64841,
    "l": 1.64709,
    "c": 1.64834,
    "v": 864
  },
  {
    "dt": "2020.02.26 01:00",
    "o": 1.64852,
    "h": 1.64936,
    "l": 1.64656,
    "c": 1.64696,
    "v": 1667
  },
  {
    "dt": "2020.02.26 02:00",
    "o": 1.64696,
    "h": 1.649,
    "l": 1.64664,
    "c": 1.64877,
    "v": 2473
  },
  {
    "dt": "2020.02.26 03:00",
    "o": 1.64875,
    "h": 1.64991,
    "l": 1.64808,
    "c": 1.64929,
    "v": 3100
  },
  {
    "dt": "2020.02.26 04:00",
    "o": 1.64929,
    "h": 1.64944,
    "l": 1.64435,
    "c": 1.6464,
    "v": 3068
  },
  {
    "dt": "2020.02.26 05:00",
    "o": 1.64638,
    "h": 1.64707,
    "l": 1.64533,
    "c": 1.64588,
    "v": 2216
  },
  {
    "dt": "2020.02.26 06:00",
    "o": 1.64586,
    "h": 1.64844,
    "l": 1.64586,
    "c": 1.64793,
    "v": 1672
  },
  {
    "dt": "2020.02.26 07:00",
    "o": 1.64792,
    "h": 1.6504,
    "l": 1.64781,
    "c": 1.6503,
    "v": 2290
  },
  {
    "dt": "2020.02.26 08:00",
    "o": 1.65027,
    "h": 1.65478,
    "l": 1.65021,
    "c": 1.65265,
    "v": 2887
  },
  {
    "dt": "2020.02.26 09:00",
    "o": 1.65282,
    "h": 1.6539,
    "l": 1.6518,
    "c": 1.6532,
    "v": 3405
  },
  {
    "dt": "2020.02.26 10:00",
    "o": 1.65329,
    "h": 1.6568,
    "l": 1.65307,
    "c": 1.65637,
    "v": 3879
  },
  {
    "dt": "2020.02.26 11:00",
    "o": 1.65636,
    "h": 1.65771,
    "l": 1.65471,
    "c": 1.6559,
    "v": 4240
  },
  {
    "dt": "2020.02.26 12:00",
    "o": 1.65588,
    "h": 1.65707,
    "l": 1.65314,
    "c": 1.65703,
    "v": 3525
  },
  {
    "dt": "2020.02.26 13:00",
    "o": 1.65703,
    "h": 1.65746,
    "l": 1.65429,
    "c": 1.657,
    "v": 3307
  },
  {
    "dt": "2020.02.26 14:00",
    "o": 1.65706,
    "h": 1.65941,
    "l": 1.65477,
    "c": 1.65484,
    "v": 4135
  },
  {
    "dt": "2020.02.26 15:00",
    "o": 1.65482,
    "h": 1.65634,
    "l": 1.65397,
    "c": 1.6552,
    "v": 3973
  },
  {
    "dt": "2020.02.26 16:00",
    "o": 1.65523,
    "h": 1.6553,
    "l": 1.65108,
    "c": 1.65298,
    "v": 4181
  },
  {
    "dt": "2020.02.26 17:00",
    "o": 1.653,
    "h": 1.65801,
    "l": 1.65244,
    "c": 1.65773,
    "v": 4225
  },
  {
    "dt": "2020.02.26 18:00",
    "o": 1.65768,
    "h": 1.66087,
    "l": 1.65703,
    "c": 1.6604,
    "v": 4059
  },
  {
    "dt": "2020.02.26 19:00",
    "o": 1.66036,
    "h": 1.66157,
    "l": 1.65944,
    "c": 1.65969,
    "v": 3524
  },
  {
    "dt": "2020.02.26 20:00",
    "o": 1.6597,
    "h": 1.66126,
    "l": 1.65932,
    "c": 1.66052,
    "v": 3509
  },
  {
    "dt": "2020.02.26 21:00",
    "o": 1.66054,
    "h": 1.66223,
    "l": 1.66014,
    "c": 1.66222,
    "v": 3439
  },
  {
    "dt": "2020.02.26 22:00",
    "o": 1.66229,
    "h": 1.66229,
    "l": 1.66043,
    "c": 1.66089,
    "v": 3478
  },
  {
    "dt": "2020.02.26 23:00",
    "o": 1.66091,
    "h": 1.66274,
    "l": 1.66047,
    "c": 1.66231,
    "v": 1820
  },
  {
    "dt": "2020.02.27 00:00",
    "o": 1.66275,
    "h": 1.66308,
    "l": 1.6613,
    "c": 1.66183,
    "v": 909
  },
  {
    "dt": "2020.02.27 01:00",
    "o": 1.66187,
    "h": 1.66305,
    "l": 1.66117,
    "c": 1.6626,
    "v": 2223
  },
  {
    "dt": "2020.02.27 02:00",
    "o": 1.66252,
    "h": 1.66619,
    "l": 1.66173,
    "c": 1.66314,
    "v": 3694
  },
  {
    "dt": "2020.02.27 03:00",
    "o": 1.66317,
    "h": 1.66516,
    "l": 1.662,
    "c": 1.66465,
    "v": 3470
  },
  {
    "dt": "2020.02.27 04:00",
    "o": 1.66464,
    "h": 1.66486,
    "l": 1.66268,
    "c": 1.66366,
    "v": 3000
  },
  {
    "dt": "2020.02.27 05:00",
    "o": 1.66366,
    "h": 1.66391,
    "l": 1.66213,
    "c": 1.66283,
    "v": 2194
  },
  {
    "dt": "2020.02.27 06:00",
    "o": 1.66283,
    "h": 1.66508,
    "l": 1.66251,
    "c": 1.66507,
    "v": 1954
  },
  {
    "dt": "2020.02.27 07:00",
    "o": 1.66499,
    "h": 1.66525,
    "l": 1.66255,
    "c": 1.66408,
    "v": 2829
  },
  {
    "dt": "2020.02.27 08:00",
    "o": 1.66402,
    "h": 1.66619,
    "l": 1.6637,
    "c": 1.66394,
    "v": 3173
  },
  {
    "dt": "2020.02.27 09:00",
    "o": 1.66391,
    "h": 1.66539,
    "l": 1.66241,
    "c": 1.66397,
    "v": 3803
  },
  {
    "dt": "2020.02.27 10:00",
    "o": 1.664,
    "h": 1.66645,
    "l": 1.66334,
    "c": 1.6645,
    "v": 4547
  },
  {
    "dt": "2020.02.27 11:00",
    "o": 1.66447,
    "h": 1.66506,
    "l": 1.66262,
    "c": 1.66381,
    "v": 3450
  },
  {
    "dt": "2020.02.27 12:00",
    "o": 1.6638,
    "h": 1.66419,
    "l": 1.662,
    "c": 1.664,
    "v": 3514
  },
  {
    "dt": "2020.02.27 13:00",
    "o": 1.66401,
    "h": 1.66572,
    "l": 1.66349,
    "c": 1.66481,
    "v": 3565
  },
  {
    "dt": "2020.02.27 14:00",
    "o": 1.66484,
    "h": 1.66703,
    "l": 1.66402,
    "c": 1.66681,
    "v": 3717
  },
  {
    "dt": "2020.02.27 15:00",
    "o": 1.6669,
    "h": 1.66898,
    "l": 1.66609,
    "c": 1.66891,
    "v": 4317
  },
  {
    "dt": "2020.02.27 16:00",
    "o": 1.66892,
    "h": 1.67009,
    "l": 1.66719,
    "c": 1.66838,
    "v": 4910
  },
  {
    "dt": "2020.02.27 17:00",
    "o": 1.66837,
    "h": 1.67096,
    "l": 1.66803,
    "c": 1.67015,
    "v": 5275
  },
  {
    "dt": "2020.02.27 18:00",
    "o": 1.67014,
    "h": 1.67087,
    "l": 1.66698,
    "c": 1.66754,
    "v": 4582
  },
  {
    "dt": "2020.02.27 19:00",
    "o": 1.66754,
    "h": 1.66805,
    "l": 1.66646,
    "c": 1.66803,
    "v": 3707
  },
  {
    "dt": "2020.02.27 20:00",
    "o": 1.66807,
    "h": 1.66983,
    "l": 1.66725,
    "c": 1.66899,
    "v": 3793
  },
  {
    "dt": "2020.02.27 21:00",
    "o": 1.669,
    "h": 1.6694,
    "l": 1.66752,
    "c": 1.66867,
    "v": 3549
  },
  {
    "dt": "2020.02.27 22:00",
    "o": 1.66868,
    "h": 1.67066,
    "l": 1.66779,
    "c": 1.67031,
    "v": 3549
  },
  {
    "dt": "2020.02.27 23:00",
    "o": 1.67024,
    "h": 1.6747,
    "l": 1.66967,
    "c": 1.67409,
    "v": 2754
  },
  {
    "dt": "2020.02.28 00:00",
    "o": 1.67437,
    "h": 1.67604,
    "l": 1.67336,
    "c": 1.67337,
    "v": 1365
  },
  {
    "dt": "2020.02.28 01:00",
    "o": 1.67337,
    "h": 1.67349,
    "l": 1.67068,
    "c": 1.67093,
    "v": 2760
  },
  {
    "dt": "2020.02.28 02:00",
    "o": 1.67099,
    "h": 1.67278,
    "l": 1.67027,
    "c": 1.6715,
    "v": 3181
  },
  {
    "dt": "2020.02.28 03:00",
    "o": 1.6715,
    "h": 1.67546,
    "l": 1.67135,
    "c": 1.67498,
    "v": 3271
  },
  {
    "dt": "2020.02.28 04:00",
    "o": 1.67496,
    "h": 1.67703,
    "l": 1.67368,
    "c": 1.67703,
    "v": 3252
  },
  {
    "dt": "2020.02.28 05:00",
    "o": 1.67703,
    "h": 1.68379,
    "l": 1.67647,
    "c": 1.68117,
    "v": 3740
  },
  {
    "dt": "2020.02.28 06:00",
    "o": 1.68116,
    "h": 1.68542,
    "l": 1.68011,
    "c": 1.68504,
    "v": 3207
  },
  {
    "dt": "2020.02.28 07:00",
    "o": 1.685,
    "h": 1.68758,
    "l": 1.68454,
    "c": 1.68623,
    "v": 3728
  },
  {
    "dt": "2020.02.28 08:00",
    "o": 1.68619,
    "h": 1.68802,
    "l": 1.68588,
    "c": 1.68599,
    "v": 3805
  },
  {
    "dt": "2020.02.28 09:00",
    "o": 1.68596,
    "h": 1.68612,
    "l": 1.68242,
    "c": 1.68402,
    "v": 4248
  },
  {
    "dt": "2020.02.28 10:00",
    "o": 1.68404,
    "h": 1.68799,
    "l": 1.68351,
    "c": 1.68785,
    "v": 3894
  },
  {
    "dt": "2020.02.28 11:00",
    "o": 1.68783,
    "h": 1.6921,
    "l": 1.68767,
    "c": 1.69173,
    "v": 4782
  },
  {
    "dt": "2020.02.28 12:00",
    "o": 1.69178,
    "h": 1.69503,
    "l": 1.68862,
    "c": 1.69422,
    "v": 4508
  },
  {
    "dt": "2020.02.28 13:00",
    "o": 1.69424,
    "h": 1.69553,
    "l": 1.68966,
    "c": 1.69121,
    "v": 4451
  },
  {
    "dt": "2020.02.28 14:00",
    "o": 1.69116,
    "h": 1.69316,
    "l": 1.68797,
    "c": 1.68882,
    "v": 4525
  },
  {
    "dt": "2020.02.28 15:00",
    "o": 1.68879,
    "h": 1.68977,
    "l": 1.68596,
    "c": 1.68942,
    "v": 4912
  },
  {
    "dt": "2020.02.28 16:00",
    "o": 1.68945,
    "h": 1.68974,
    "l": 1.68348,
    "c": 1.68428,
    "v": 4905
  },
  {
    "dt": "2020.02.28 17:00",
    "o": 1.68426,
    "h": 1.70673,
    "l": 1.68393,
    "c": 1.70077,
    "v": 5643
  },
  {
    "dt": "2020.02.28 18:00",
    "o": 1.7008,
    "h": 1.70561,
    "l": 1.68963,
    "c": 1.69386,
    "v": 5475
  },
  {
    "dt": "2020.02.28 19:00",
    "o": 1.6938,
    "h": 1.69578,
    "l": 1.69279,
    "c": 1.69485,
    "v": 4577
  },
  {
    "dt": "2020.02.28 20:00",
    "o": 1.69487,
    "h": 1.69808,
    "l": 1.6941,
    "c": 1.6959,
    "v": 4123
  },
  {
    "dt": "2020.02.28 21:00",
    "o": 1.6959,
    "h": 1.69736,
    "l": 1.68962,
    "c": 1.69096,
    "v": 4639
  },
  {
    "dt": "2020.02.28 22:00",
    "o": 1.6909,
    "h": 1.69543,
    "l": 1.68908,
    "c": 1.69422,
    "v": 4918
  },
  {
    "dt": "2020.02.28 23:00",
    "o": 1.69414,
    "h": 1.6962,
    "l": 1.69351,
    "c": 1.69424,
    "v": 3010
  }
]