[
  {
    "dt": "2021.11.01 00:00",
    "o": 0.75084,
    "h": 0.75157,
    "l": 0.75058,
    "c": 0.75157,
    "v": 293
  },
  {
    "dt": "2021.11.01 01:00",
    "o": 0.75185,
    "h": 0.75196,
    "l": 0.75124,
    "c": 0.75147,
    "v": 791
  },
  {
    "dt": "2021.11.01 02:00",
    "o": 0.75152,
    "h": 0.75186,
    "l": 0.75109,
    "c": 0.75169,
    "v": 776
  },
  {
    "dt": "2021.11.01 03:00",
    "o": 0.7518,
    "h": 0.75239,
    "l": 0.75068,
    "c": 0.75103,
    "v": 1619
  },
  {
    "dt": "2021.11.01 04:00",
    "o": 0.75102,
    "h": 0.75158,
    "l": 0.75045,
    "c": 0.75138,
    "v": 2098
  },
  {
    "dt": "2021.11.01 05:00",
    "o": 0.75139,
    "h": 0.75139,
    "l": 0.7506,
    "c": 0.75119,
    "v": 1575
  },
  {
    "dt": "2021.11.01 06:00",
    "o": 0.75119,
    "h": 0.75122,
    "l": 0.75038,
    "c": 0.75049,
    "v": 1112
  },
  {
    "dt": "2021.11.01 07:00",
    "o": 0.75048,
    "h": 0.75055,
    "l": 0.7499,
    "c": 0.75036,
    "v": 1161
  },
  {
    "dt": "2021.11.01 08:00",
    "o": 0.75034,
    "h": 0.75129,
    "l": 0.75034,
    "c": 0.75119,
    "v": 1640
  },
  {
    "dt": "2021.11.01 09:00",
    "o": 0.75119,
    "h": 0.75124,
    "l": 0.74985,
    "c": 0.75001,
    "v": 1820
  },
  {
    "dt": "2021.11.01 10:00",
    "o": 0.75001,
    "h": 0.7504,
    "l": 0.74851,
    "c": 0.74899,
    "v": 2282
  },
  {
    "dt": "2021.11.01 11:00",
    "o": 0.749,
    "h": 0.7502,
    "l": 0.74895,
    "c": 0.74999,
    "v": 2838
  },
  {
    "dt": "2021.11.01 12:00",
    "o": 0.75,
    "h": 0.75076,
    "l": 0.74965,
    "c": 0.7502,
    "v": 2511
  },
  {
    "dt": "2021.11.01 13:00",
    "o": 0.75021,
    "h": 0.75064,
    "l": 0.75002,
    "c": 0.75026,
    "v": 1851
  },
  {
    "dt": "2021.11.01 14:00",
    "o": 0.75026,
    "h": 0.75169,
    "l": 0.75019,
    "c": 0.75146,
    "v": 1763
  },
  {
    "dt": "2021.11.01 15:00",
    "o": 0.75147,
    "h": 0.75178,
    "l": 0.75119,
    "c": 0.75157,
    "v": 2596
  },
  {
    "dt": "2021.11.01 16:00",
    "o": 0.75158,
    "h": 0.75249,
    "l": 0.75129,
    "c": 0.75187,
    "v": 3222
  },
  {
    "dt": "2021.11.01 17:00",
    "o": 0.75195,
    "h": 0.75298,
    "l": 0.75131,
    "c": 0.75267,
    "v": 3756
  },
  {
    "dt": "2021.11.01 18:00",
    "o": 0.75269,
    "h": 0.75339,
    "l": 0.75238,
    "c": 0.75334,
    "v": 2770
  },
  {
    "dt": "2021.11.01 19:00",
    "o": 0.75332,
    "h": 0.75352,
    "l": 0.75281,
    "c": 0.75285,
    "v": 1953
  },
  {
    "dt": "2021.11.01 20:00",
    "o": 0.75285,
    "h": 0.75296,
    "l": 0.75181,
    "c": 0.7519,
    "v": 1722
  },
  {
    "dt": "2021.11.01 21:00",
    "o": 0.7519,
    "h": 0.75231,
    "l": 0.7516,
    "c": 0.75186,
    "v": 1918
  },
  {
    "dt": "2021.11.01 22:00",
    "o": 0.75184,
    "h": 0.75191,
    "l": 0.7514,
    "c": 0.75189,
    "v": 1555
  },
  {
    "dt": "2021.11.01 23:00",
    "o": 0.75187,
    "h": 0.75213,
    "l": 0.75154,
    "c": 0.75154,
    "v": 649
  },
  {
    "dt": "2021.11.02 00:00",
    "o": 0.752,
    "h": 0.75209,
    "l": 0.75073,
    "c": 0.75203,
    "v": 581
  },
  {
    "dt": "2021.11.02 01:00",
    "o": 0.75203,
    "h": 0.75225,
    "l": 0.75189,
    "c": 0.75209,
    "v": 402
  },
  {
    "dt": "2021.11.02 02:00",
    "o": 0.75206,
    "h": 0.75226,
    "l": 0.75187,
    "c": 0.75194,
    "v": 520
  },
  {
    "dt": "2021.11.02 03:00",
    "o": 0.75197,
    "h": 0.7525,
    "l": 0.75163,
    "c": 0.75217,
    "v": 1107
  },
  {
    "dt": "2021.11.02 04:00",
    "o": 0.75218,
    "h": 0.75305,
    "l": 0.75205,
    "c": 0.75285,
    "v": 1837
  },
  {
    "dt": "2021.11.02 05:00",
    "o": 0.75285,
    "h": 0.75287,
    "l": 0.75214,
    "c": 0.75217,
    "v": 1260
  },
  {
    "dt": "2021.11.02 06:00",
    "o": 0.75216,
    "h": 0.75304,
    "l": 0.74842,
    "c": 0.75037,
    "v": 2230
  },
  {
    "dt": "2021.11.02 07:00",
    "o": 0.75037,
    "h": 0.75046,
    "l": 0.74857,
    "c": 0.74949,
    "v": 1608
  },
  {
    "dt": "2021.11.02 08:00",
    "o": 0.74949,
    "h": 0.7501,
    "l": 0.74842,
    "c": 0.74891,
    "v": 2419
  },
  {
    "dt": "2021.11.02 09:00",
    "o": 0.7489,
    "h": 0.74891,
    "l": 0.74691,
    "c": 0.7474,
    "v": 2448
  },
  {
    "dt": "2021.11.02 10:00",
    "o": 0.74739,
    "h": 0.74757,
    "l": 0.74649,
    "c": 0.74726,
    "v": 2379
  },
  {
    "dt": "2021.11.02 11:00",
    "o": 0.74726,
    "h": 0.74739,
    "l": 0.74611,
    "c": 0.74619,
    "v": 2647
  },
  {
    "dt": "2021.11.02 12:00",
    "o": 0.74622,
    "h": 0.74745,
    "l": 0.74595,
    "c": 0.74671,
    "v": 1989
  },
  {
    "dt": "2021.11.02 13:00",
    "o": 0.7467,
    "h": 0.74683,
    "l": 0.7457,
    "c": 0.74623,
    "v": 1820
  },
  {
    "dt": "2021.11.02 14:00",
    "o": 0.74624,
    "h": 0.74654,
    "l": 0.7454,
    "c": 0.74645,
    "v": 2018
  },
  {
    "dt": "2021.11.02 15:00",
    "o": 0.74646,
    "h": 0.74676,
    "l": 0.74606,
    "c": 0.7465,
    "v": 2275
  },
  {
    "dt": "2021.11.02 16:00",
    "o": 0.74651,
    "h": 0.74659,
    "l": 0.74508,
    "c": 0.74539,
    "v": 2805
  },
  {
    "dt": "2021.11.02 17:00",
    "o": 0.74538,
    "h": 0.74558,
    "l": 0.74422,
    "c": 0.7448,
    "v": 3268
  },
  {
    "dt": "2021.11.02 18:00",
    "o": 0.74483,
    "h": 0.74555,
    "l": 0.74259,
    "c": 0.74278,
    "v": 2845
  },
  {
    "dt": "2021.11.02 19:00",
    "o": 0.7428,
    "h": 0.74324,
    "l": 0.74205,
    "c": 0.74218,
    "v": 2353
  },
  {
    "dt": "2021.11.02 20:00",
    "o": 0.74219,
    "h": 0.74265,
    "l": 0.74194,
    "c": 0.7426,
    "v": 1611
  },
  {
    "dt": "2021.11.02 21:00",
    "o": 0.7426,
    "h": 0.74312,
    "l": 0.74245,
    "c": 0.74249,
    "v": 1536
  },
  {
    "dt": "2021.11.02 22:00",
    "o": 0.74248,
    "h": 0.74314,
    "l": 0.74248,
    "c": 0.74314,
    "v": 1211
  },
  {
    "dt": "2021.11.02 23:00",
    "o": 0.74313,
    "h": 0.74319,
    "l": 0.74267,
    "c": 0.74267,
    "v": 594
  },
  {
    "dt": "2021.11.03 00:00",
    "o": 0.74262,
    "h": 0.74307,
    "l": 0.74202,
    "c": 0.74286,
    "v": 252
  },
  {
    "dt": "2021.11.03 01:00",
    "o": 0.74288,
    "h": 0.7432,
    "l": 0.7427,
    "c": 0.74287,
    "v": 553
  },
  {
    "dt": "2021.11.03 02:00",
    "o": 0.74288,
    "h": 0.74352,
    "l": 0.74275,
    "c": 0.74349,
    "v": 599
  },
  {
    "dt": "2021.11.03 03:00",
    "o": 0.74352,
    "h": 0.74355,
    "l": 0.74257,
    "c": 0.74338,
    "v": 1039
  },
  {
    "dt": "2021.11.03 04:00",
    "o": 0.74339,
    "h": 0.74391,
    "l": 0.74325,
    "c": 0.74353,
    "v": 1485
  },
  {
    "dt": "2021.11.03 05:00",
    "o": 0.74354,
    "h": 0.74354,
    "l": 0.74283,
    "c": 0.74296,
    "v": 1214
  },
  {
    "dt": "2021.11.03 06:00",
    "o": 0.74293,
    "h": 0.7436,
    "l": 0.74246,
    "c": 0.7436,
    "v": 1191
  },
  {
    "dt": "2021.11.03 07:00",
    "o": 0.74358,
    "h": 0.74396,
    "l": 0.74303,
    "c": 0.74335,
    "v": 966
  },
  {
    "dt": "2021.11.03 08:00",
    "o": 0.74335,
    "h": 0.74394,
    "l": 0.74331,
    "c": 0.74388,
    "v": 1176
  },
  {
    "dt": "2021.11.03 09:00",
    "o": 0.74387,
    "h": 0.74441,
    "l": 0.74379,
    "c": 0.74431,
    "v": 1017
  },
  {
    "dt": "2021.11.03 10:00",
    "o": 0.74424,
    "h": 0.74474,
    "l": 0.74407,
    "c": 0.74457,
    "v": 1666
  },
  {
    "dt": "2021.11.03 11:00",
    "o": 0.74455,
    "h": 0.74503,
    "l": 0.74385,
    "c": 0.74392,
    "v": 1375
  },
  {
    "dt": "2021.11.03 12:00",
    "o": 0.74394,
    "h": 0.74434,
    "l": 0.7438,
    "c": 0.74407,
    "v": 2245
  },
  {
    "dt": "2021.11.03 13:00",
    "o": 0.74408,
    "h": 0.74456,
    "l": 0.74369,
    "c": 0.74437,
    "v": 1764
  },
  {
    "dt": "2021.11.03 14:00",
    "o": 0.74438,
    "h": 0.74449,
    "l": 0.74388,
    "c": 0.744,
    "v": 1518
  },
  {
    "dt": "2021.11.03 15:00",
    "o": 0.74401,
    "h": 0.7442,
    "l": 0.74324,
    "c": 0.74399,
    "v": 2817
  },
  {
    "dt": "2021.11.03 16:00",
    "o": 0.74396,
    "h": 0.74396,
    "l": 0.74261,
    "c": 0.74278,
    "v": 3254
  },
  {
    "dt": "2021.11.03 17:00",
    "o": 0.74255,
    "h": 0.74329,
    "l": 0.74143,
    "c": 0.74302,
    "v": 3278
  },
  {
    "dt": "2021.11.03 18:00",
    "o": 0.74301,
    "h": 0.74311,
    "l": 0.74187,
    "c": 0.74291,
    "v": 2783
  },
  {
    "dt": "2021.11.03 19:00",
    "o": 0.74289,
    "h": 0.74307,
    "l": 0.74166,
    "c": 0.74168,
    "v": 2022
  },
  {
    "dt": "2021.11.03 20:00",
    "o": 0.74169,
    "h": 0.74242,
    "l": 0.74131,
    "c": 0.74193,
    "v": 1351
  },
  {
    "dt": "2021.11.03 21:00",
    "o": 0.74201,
    "h": 0.74548,
    "l": 0.74114,
    "c": 0.74432,
    "v": 5728
  },
  {
    "dt": "2021.11.03 22:00",
    "o": 0.74436,
    "h": 0.74576,
    "l": 0.74375,
    "c": 0.74522,
    "v": 4033
  },
  {
    "dt": "2021.11.03 23:00",
    "o": 0.74517,
    "h": 0.7454,
    "l": 0.74445,
    "c": 0.74447,
    "v": 1009
  },
  {
    "dt": "2021.11.04 00:00",
    "o": 0.74447,
    "h": 0.74512,
    "l": 0.74367,
    "c": 0.74486,
    "v": 789
  },
  {
    "dt": "2021.11.04 01:00",
    "o": 0.74485,
    "h": 0.74598,
    "l": 0.74471,
    "c": 0.74553,
    "v": 510
  },
  {
    "dt": "2021.11.04 02:00",
    "o": 0.74552,
    "h": 0.74688,
    "l": 0.74543,
    "c": 0.74681,
    "v": 836
  },
  {
    "dt": "2021.11.04 03:00",
    "o": 0.74682,
    "h": 0.74697,
    "l": 0.7457,
    "c": 0.74574,
    "v": 1403
  },
  {
    "dt": "2021.11.04 04:00",
    "o": 0.74572,
    "h": 0.74616,
    "l": 0.74524,
    "c": 0.74539,
    "v": 1645
  },
  {
    "dt": "2021.11.04 05:00",
    "o": 0.74539,
    "h": 0.74626,
    "l": 0.74507,
    "c": 0.74605,
    "v": 1209
  },
  {
    "dt": "2021.11.04 06:00",
    "o": 0.74606,
    "h": 0.74606,
    "l": 0.7451,
    "c": 0.74521,
    "v": 1263
  },
  {
    "dt": "2021.11.04 07:00",
    "o": 0.74519,
    "h": 0.74556,
    "l": 0.7446,
    "c": 0.74462,
    "v": 775
  },
  {
    "dt": "2021.11.04 08:00",
    "o": 0.74462,
    "h": 0.74474,
    "l": 0.74305,
    "c": 0.74351,
    "v": 1532
  },
  {
    "dt": "2021.11.04 09:00",
    "o": 0.7435,
    "h": 0.74385,
    "l": 0.74286,
    "c": 0.74295,
    "v": 1809
  },
  {
    "dt": "2021.11.04 10:00",
    "o": 0.74291,
    "h": 0.74434,
    "l": 0.7427,
    "c": 0.7438,
    "v": 1849
  },
  {
    "dt": "2021.11.04 11:00",
    "o": 0.74384,
    "h": 0.74431,
    "l": 0.74252,
    "c": 0.74296,
    "v": 2808
  },
  {
    "dt": "2021.11.04 12:00",
    "o": 0.74297,
    "h": 0.74302,
    "l": 0.74192,
    "c": 0.74222,
    "v": 1905
  },
  {
    "dt": "2021.11.04 13:00",
    "o": 0.7422,
    "h": 0.74241,
    "l": 0.74171,
    "c": 0.74236,
    "v": 1479
  },
  {
    "dt": "2021.11.04 14:00",
    "o": 0.74235,
    "h": 0.7425,
    "l": 0.74091,
    "c": 0.74165,
    "v": 1975
  },
  {
    "dt": "2021.11.04 15:00",
    "o": 0.74164,
    "h": 0.74179,
    "l": 0.74093,
    "c": 0.74112,
    "v": 3748
  },
  {
    "dt": "2021.11.04 16:00",
    "o": 0.74111,
    "h": 0.74176,
    "l": 0.7399,
    "c": 0.74054,
    "v": 3360
  },
  {
    "dt": "2021.11.04 17:00",
    "o": 0.74053,
    "h": 0.74067,
    "l": 0.73904,
    "c": 0.73926,
    "v": 3322
  },
  {
    "dt": "2021.11.04 18:00",
    "o": 0.73924,
    "h": 0.74022,
    "l": 0.73821,
    "c": 0.74014,
    "v": 3629
  },
  {
    "dt": "2021.11.04 19:00",
    "o": 0.74015,
    "h": 0.74042,
    "l": 0.73935,
    "c": 0.73958,
    "v": 2410
  },
  {
    "dt": "2021.11.04 20:00",
    "o": 0.73957,
    "h": 0.7399,
    "l": 0.73908,
    "c": 0.73945,
    "v": 1852
  },
  {
    "dt": "2021.11.04 21:00",
    "o": 0.73948,
    "h": 0.74017,
    "l": 0.73927,
    "c": 0.73986,
    "v": 1849
  },
  {
    "dt": "2021.11.04 22:00",
    "o": 0.73984,
    "h": 0.74039,
    "l": 0.7398,
    "c": 0.74037,
    "v": 1618
  },
  {
    "dt": "2021.11.04 23:00",
    "o": 0.74039,
    "h": 0.74039,
    "l": 0.73967,
    "c": 0.73972,
    "v": 677
  },
  {
    "dt": "2021.11.05 00:00",
    "o": 0.73962,
    "h": 0.73996,
    "l": 0.73958,
    "c": 0.73991,
    "v": 148
  },
  {
    "dt": "2021.11.05 01:00",
    "o": 0.73994,
    "h": 0.74042,
    "l": 0.73993,
    "c": 0.74023,
    "v": 510
  },
  {
    "dt": "2021.11.05 02:00",
    "o": 0.74023,
    "h": 0.74075,
    "l": 0.73989,
    "c": 0.74074,
    "v": 628
  },
  {
    "dt": "2021.11.05 03:00",
    "o": 0.74072,
    "h": 0.74079,
    "l": 0.73916,
    "c": 0.73991,
    "v": 1444
  },
  {
    "dt": "2021.11.05 04:00",
    "o": 0.73992,
    "h": 0.74008,
    "l": 0.73833,
    "c": 0.73861,
    "v": 2536
  },
  {
    "dt": "2021.11.05 05:00",
    "o": 0.73861,
    "h": 0.73875,
    "l": 0.73777,
    "c": 0.73849,
    "v": 1844
  },
  {
    "dt": "2021.11.05 06:00",
    "o": 0.73846,
    "h": 0.7397,
    "l": 0.73796,
    "c": 0.73956,
    "v": 1261
  },
  {
    "dt": "2021.11.05 07:00",
    "o": 0.73956,
    "h": 0.7399,
    "l": 0.73901,
    "c": 0.73958,
    "v": 1105
  },
  {
    "dt": "2021.11.05 08:00",
    "o": 0.73957,
    "h": 0.73962,
    "l": 0.7385,
    "c": 0.7385,
    "v": 1234
  },
  {
    "dt": "2021.11.05 09:00",
    "o": 0.73848,
    "h": 0.73888,
    "l": 0.73818,
    "c": 0.73861,
    "v": 1706
  },
  {
    "dt": "2021.11.05 10:00",
    "o": 0.7386,
    "h": 0.73911,
    "l": 0.73837,
    "c": 0.73884,
    "v": 1877
  },
  {
    "dt": "2021.11.05 11:00",
    "o": 0.73886,
    "h": 0.73893,
    "l": 0.73742,
    "c": 0.73773,
    "v": 2956
  },
  {
    "dt": "2021.11.05 12:00",
    "o": 0.73776,
    "h": 0.73798,
    "l": 0.73715,
    "c": 0.73722,
    "v": 2207
  },
  {
    "dt": "2021.11.05 13:00",
    "o": 0.73723,
    "h": 0.73745,
    "l": 0.73675,
    "c": 0.73711,
    "v": 1788
  },
  {
    "dt": "2021.11.05 14:00",
    "o": 0.73712,
    "h": 0.73727,
    "l": 0.73653,
    "c": 0.73701,
    "v": 2148
  },
  {
    "dt": "2021.11.05 15:00",
    "o": 0.73701,
    "h": 0.73891,
    "l": 0.73589,
    "c": 0.73818,
    "v": 3503
  },
  {
    "dt": "2021.11.05 16:00",
    "o": 0.73815,
    "h": 0.73987,
    "l": 0.73789,
    "c": 0.73826,
    "v": 4121
  },
  {
    "dt": "2021.11.05 17:00",
    "o": 0.73827,
    "h": 0.73945,
    "l": 0.73802,
    "c": 0.73928,
    "v": 2955
  },
  {
    "dt": "2021.11.05 18:00",
    "o": 0.73935,
    "h": 0.74099,
    "l": 0.73903,
    "c": 0.74059,
    "v": 3117
  },
  {
    "dt": "2021.11.05 19:00",
    "o": 0.74057,
    "h": 0.74113,
    "l": 0.73985,
    "c": 0.74072,
    "v": 2529
  },
  {
    "dt": "2021.11.05 20:00",
    "o": 0.74071,
    "h": 0.74074,
    "l": 0.73942,
    "c": 0.7398,
    "v": 2323
  },
  {
    "dt": "2021.11.05 21:00",
    "o": 0.7398,
    "h": 0.73997,
    "l": 0.73922,
    "c": 0.73928,
    "v": 1889
  },
  {
    "dt": "2021.11.05 22:00",
    "o": 0.73928,
    "h": 0.74014,
    "l": 0.73918,
    "c": 0.74007,
    "v": 1861
  },
  {
    "dt": "2021.11.05 23:00",
    "o": 0.7401,
    "h": 0.74021,
    "l": 0.73967,
    "c": 0.7398,
    "v": 890
  },
  {
    "dt": "2021.11.08 00:00",
    "o": 0.73929,
    "h": 0.74087,
    "l": 0.73912,
    "c": 0.73933,
    "v": 447
  },
  {
    "dt": "2021.11.08 01:00",
    "o": 0.7395,
    "h": 0.74012,
    "l": 0.73942,
    "c": 0.73943,
    "v": 1018
  },
  {
    "dt": "2021.11.08 02:00",
    "o": 0.73944,
    "h": 0.73953,
    "l": 0.73899,
    "c": 0.73922,
    "v": 1151
  },
  {
    "dt": "2021.11.08 03:00",
    "o": 0.73923,
    "h": 0.73981,
    "l": 0.73855,
    "c": 0.7387,
    "v": 1319
  },
  {
    "dt": "2021.11.08 04:00",
    "o": 0.73869,
    "h": 0.73939,
    "l": 0.73856,
    "c": 0.73932,
    "v": 1176
  },
  {
    "dt": "2021.11.08 05:00",
    "o": 0.73933,
    "h": 0.74006,
    "l": 0.73912,
    "c": 0.7397,
    "v": 1009
  },
  {
    "dt": "2021.11.08 06:00",
    "o": 0.73966,
    "h": 0.7399,
    "l": 0.73948,
    "c": 0.73962,
    "v": 719
  },
  {
    "dt": "2021.11.08 07:00",
    "o": 0.73961,
    "h": 0.74056,
    "l": 0.73947,
    "c": 0.74052,
    "v": 1003
  },
  {
    "dt": "2021.11.08 08:00",
    "o": 0.74052,
    "h": 0.74084,
    "l": 0.73966,
    "c": 0.73968,
    "v": 1147
  },
  {
    "dt": "2021.11.08 09:00",
    "o": 0.73963,
    "h": 0.74082,
    "l": 0.73961,
    "c": 0.74024,
    "v": 1454
  },
  {
    "dt": "2021.11.08 10:00",
    "o": 0.74024,
    "h": 0.74083,
    "l": 0.73834,
    "c": 0.73978,
    "v": 2591
  },
  {
    "dt": "2021.11.08 11:00",
    "o": 0.73977,
    "h": 0.74119,
    "l": 0.73973,
    "c": 0.74032,
    "v": 1855
  },
  {
    "dt": "2021.11.08 12:00",
    "o": 0.74032,
    "h": 0.74054,
    "l": 0.73941,
    "c": 0.74008,
    "v": 1662
  },
  {
    "dt": "2021.11.08 13:00",
    "o": 0.74009,
    "h": 0.74067,
    "l": 0.73992,
    "c": 0.74057,
    "v": 1204
  },
  {
    "dt": "2021.11.08 14:00",
    "o": 0.74056,
    "h": 0.74129,
    "l": 0.73987,
    "c": 0.74071,
    "v": 1824
  },
  {
    "dt": "2021.11.08 15:00",
    "o": 0.74073,
    "h": 0.74155,
    "l": 0.74058,
    "c": 0.74114,
    "v": 2021
  },
  {
    "dt": "2021.11.08 16:00",
    "o": 0.74113,
    "h": 0.74233,
    "l": 0.74082,
    "c": 0.74182,
    "v": 3087
  },
  {
    "dt": "2021.11.08 17:00",
    "o": 0.74182,
    "h": 0.74266,
    "l": 0.74172,
    "c": 0.74194,
    "v": 2973
  },
  {
    "dt": "2021.11.08 18:00",
    "o": 0.74197,
    "h": 0.74304,
    "l": 0.74164,
    "c": 0.7428,
    "v": 2268
  },
  {
    "dt": "2021.11.08 19:00",
    "o": 0.74279,
    "h": 0.74286,
    "l": 0.74191,
    "c": 0.74201,
    "v": 1540
  },
  {
    "dt": "2021.11.08 20:00",
    "o": 0.74201,
    "h": 0.74238,
    "l": 0.74185,
    "c": 0.74221,
    "v": 1590
  },
  {
    "dt": "2021.11.08 21:00",
    "o": 0.74222,
    "h": 0.74258,
    "l": 0.74209,
    "c": 0.74239,
    "v": 1378
  },
  {
    "dt": "2021.11.08 22:00",
    "o": 0.74241,
    "h": 0.74245,
    "l": 0.74174,
    "c": 0.74227,
    "v": 1615
  },
  {
    "dt": "2021.11.08 23:00",
    "o": 0.74227,
    "h": 0.74255,
    "l": 0.74183,
    "c": 0.74195,
    "v": 400
  },
  {
    "dt": "2021.11.09 00:00",
    "o": 0.74184,
    "h": 0.74232,
    "l": 0.74177,
    "c": 0.742,
    "v": 650
  },
  {
    "dt": "2021.11.09 01:00",
    "o": 0.74203,
    "h": 0.74207,
    "l": 0.74129,
    "c": 0.74137,
    "v": 877
  },
  {
    "dt": "2021.11.09 02:00",
    "o": 0.74136,
    "h": 0.74161,
    "l": 0.73963,
    "c": 0.74017,
    "v": 1279
  },
  {
    "dt": "2021.11.09 03:00",
    "o": 0.74018,
    "h": 0.74089,
    "l": 0.73973,
    "c": 0.73999,
    "v": 1813
  },
  {
    "dt": "2021.11.09 04:00",
    "o": 0.74,
    "h": 0.74102,
    "l": 0.73997,
    "c": 0.74027,
    "v": 1762
  },
  {
    "dt": "2021.11.09 05:00",
    "o": 0.74026,
    "h": 0.74032,
    "l": 0.73894,
    "c": 0.73998,
    "v": 1813
  },
  {
    "dt": "2021.11.09 06:00",
    "o": 0.74001,
    "h": 0.74102,
    "l": 0.73988,
    "c": 0.7408,
    "v": 1280
  },
  {
    "dt": "2021.11.09 07:00",
    "o": 0.74081,
    "h": 0.74239,
    "l": 0.7408,
    "c": 0.74181,
    "v": 1563
  },
  {
    "dt": "2021.11.09 08:00",
    "o": 0.74182,
    "h": 0.74242,
    "l": 0.74166,
    "c": 0.74219,
    "v": 1646
  },
  {
    "dt": "2021.11.09 09:00",
    "o": 0.74218,
    "h": 0.74277,
    "l": 0.7415,
    "c": 0.74161,
    "v": 1950
  },
  {
    "dt": "2021.11.09 10:00",
    "o": 0.74162,
    "h": 0.74258,
    "l": 0.74141,
    "c": 0.74223,
    "v": 2228
  },
  {
    "dt": "2021.11.09 11:00",
    "o": 0.74225,
    "h": 0.74307,
    "l": 0.74171,
    "c": 0.74255,
    "v": 1826
  },
  {
    "dt": "2021.11.09 12:00",
    "o": 0.74255,
    "h": 0.74291,
    "l": 0.74211,
    "c": 0.74211,
    "v": 1792
  },
  {
    "dt": "2021.11.09 13:00",
    "o": 0.74211,
    "h": 0.7425,
    "l": 0.74049,
    "c": 0.74066,
    "v": 1692
  },
  {
    "dt": "2021.11.09 14:00",
    "o": 0.74068,
    "h": 0.74083,
    "l": 0.73992,
    "c": 0.73998,
    "v": 1949
  },
  {
    "dt": "2021.11.09 15:00",
    "o": 0.73996,
    "h": 0.74069,
    "l": 0.73942,
    "c": 0.74046,
    "v": 3160
  },
  {
    "dt": "2021.11.09 16:00",
    "o": 0.74046,
    "h": 0.74106,
    "l": 0.73903,
    "c": 0.73918,
    "v": 3395
  },
  {
    "dt": "2021.11.09 17:00",
    "o": 0.73916,
    "h": 0.73937,
    "l": 0.73695,
    "c": 0.73732,
    "v": 4149
  },
  {
    "dt": "2021.11.09 18:00",
    "o": 0.73733,
    "h": 0.73735,
    "l": 0.736,
    "c": 0.73681,
    "v": 3357
  },
  {
    "dt": "2021.11.09 19:00",
    "o": 0.7368,
    "h": 0.73774,
    "l": 0.73653,
    "c": 0.73754,
    "v": 2635
  },
  {
    "dt": "2021.11.09 20:00",
    "o": 0.73756,
    "h": 0.73776,
    "l": 0.73705,
    "c": 0.73723,
    "v": 2068
  },
  {
    "dt": "2021.11.09 21:00",
    "o": 0.73721,
    "h": 0.73785,
    "l": 0.73718,
    "c": 0.73777,
    "v": 1921
  },
  {
    "dt": "2021.11.09 22:00",
    "o": 0.73778,
    "h": 0.73823,
    "l": 0.73752,
    "c": 0.73804,
    "v": 1926
  },
  {
    "dt": "2021.11.09 23:00",
    "o": 0.73803,
    "h": 0.73803,
    "l": 0.73745,
    "c": 0.73745,
    "v": 659
  },
  {
    "dt": "2021.11.10 00:00",
    "o": 0.7374,
    "h": 0.73795,
    "l": 0.73735,
    "c": 0.73747,
    "v": 762
  },
  {
    "dt": "2021.11.10 01:00",
    "o": 0.73747,
    "h": 0.73783,
    "l": 0.73699,
    "c": 0.73749,
    "v": 716
  },
  {
    "dt": "2021.11.10 02:00",
    "o": 0.73749,
    "h": 0.73783,
    "l": 0.73709,
    "c": 0.73723,
    "v": 1148
  },
  {
    "dt": "2021.11.10 03:00",
    "o": 0.73722,
    "h": 0.73742,
    "l": 0.73641,
    "c": 0.73688,
    "v": 1854
  },
  {
    "dt": "2021.11.10 04:00",
    "o": 0.73688,
    "h": 0.73697,
    "l": 0.73613,
    "c": 0.73643,
    "v": 1898
  },
  {
    "dt": "2021.11.10 05:00",
    "o": 0.73642,
    "h": 0.73685,
    "l": 0.73623,
    "c": 0.73652,
    "v": 1117
  },
  {
    "dt": "2021.11.10 06:00",
    "o": 0.73651,
    "h": 0.73677,
    "l": 0.73617,
    "c": 0.73663,
    "v": 874
  },
  {
    "dt": "2021.11.10 07:00",
    "o": 0.73663,
    "h": 0.73683,
    "l": 0.73519,
    "c": 0.73548,
    "v": 1612
  },
  {
    "dt": "2021.11.10 08:00",
    "o": 0.73549,
    "h": 0.73633,
    "l": 0.73535,
    "c": 0.7361,
    "v": 1704
  },
  {
    "dt": "2021.11.10 09:00",
    "o": 0.73611,
    "h": 0.73655,
    "l": 0.73537,
    "c": 0.73615,
    "v": 1958
  },
  {
    "dt": "2021.11.10 10:00",
    "o": 0.73614,
    "h": 0.73777,
    "l": 0.73595,
    "c": 0.7371,
    "v": 2347
  },
  {
    "dt": "2021.11.10 11:00",
    "o": 0.73711,
    "h": 0.73735,
    "l": 0.73613,
    "c": 0.73713,
    "v": 2300
  },
  {
    "dt": "2021.11.10 12:00",
    "o": 0.73715,
    "h": 0.73719,
    "l": 0.73626,
    "c": 0.73639,
    "v": 1581
  },
  {
    "dt": "2021.11.10 13:00",
    "o": 0.73636,
    "h": 0.73637,
    "l": 0.73532,
    "c": 0.73553,
    "v": 1970
  },
  {
    "dt": "2021.11.10 14:00",
    "o": 0.73552,
    "h": 0.73608,
    "l": 0.73514,
    "c": 0.736,
    "v": 1831
  },
  {
    "dt": "2021.11.10 15:00",
    "o": 0.73602,
    "h": 0.73726,
    "l": 0.73399,
    "c": 0.73723,
    "v": 3830
  },
  {
    "dt": "2021.11.10 16:00",
    "o": 0.73722,
    "h": 0.73925,
    "l": 0.73722,
    "c": 0.73853,
    "v": 4469
  },
  {
    "dt": "2021.11.10 17:00",
    "o": 0.73854,
    "h": 0.73863,
    "l": 0.7352,
    "c": 0.73576,
    "v": 4114
  },
  {
    "dt": "2021.11.10 18:00",
    "o": 0.73575,
    "h": 0.73703,
    "l": 0.73569,
    "c": 0.73601,
    "v": 3462
  },
  {
    "dt": "2021.11.10 19:00",
    "o": 0.73601,
    "h": 0.73602,
    "l": 0.7347,
    "c": 0.73537,
    "v": 2628
  },
  {
    "dt": "2021.11.10 20:00",
    "o": 0.73538,
    "h": 0.73559,
    "l": 0.73366,
    "c": 0.73451,
    "v": 4320
  },
  {
    "dt": "2021.11.10 21:00",
    "o": 0.7345,
    "h": 0.73452,
    "l": 0.733,
    "c": 0.73303,
    "v": 3421
  },
  {
    "dt": "2021.11.10 22:00",
    "o": 0.73302,
    "h": 0.73331,
    "l": 0.7325,
    "c": 0.73255,
    "v": 3084
  },
  {
    "dt": "2021.11.10 23:00",
    "o": 0.73255,
    "h": 0.73277,
    "l": 0.73233,
    "c": 0.73247,
    "v": 1008
  },
  {
    "dt": "2021.11.11 00:00",
    "o": 0.73247,
    "h": 0.73296,
    "l": 0.73229,
    "c": 0.7327,
    "v": 840
  },
  {
    "dt": "2021.11.11 01:00",
    "o": 0.73272,
    "h": 0.73333,
    "l": 0.7326,
    "c": 0.73328,
    "v": 788
  },
  {
    "dt": "2021.11.11 02:00",
    "o": 0.73328,
    "h": 0.73403,
    "l": 0.73142,
    "c": 0.73218,
    "v": 1878
  },
  {
    "dt": "2021.11.11 03:00",
    "o": 0.73216,
    "h": 0.73284,
    "l": 0.73156,
    "c": 0.73221,
    "v": 2456
  },
  {
    "dt": "2021.11.11 04:00",
    "o": 0.73222,
    "h": 0.73282,
    "l": 0.72992,
    "c": 0.73009,
    "v": 1978
  },
  {
    "dt": "2021.11.11 05:00",
    "o": 0.73009,
    "h": 0.7309,
    "l": 0.72942,
    "c": 0.73049,
    "v": 1538
  },
  {
    "dt": "2021.11.11 06:00",
    "o": 0.73048,
    "h": 0.73053,
    "l": 0.72968,
    "c": 0.73027,
    "v": 1173
  },
  {
    "dt": "2021.11.11 07:00",
    "o": 0.73026,
    "h": 0.73094,
    "l": 0.72992,
    "c": 0.73071,
    "v": 1508
  },
  {
    "dt": "2021.11.11 08:00",
    "o": 0.73072,
    "h": 0.73193,
    "l": 0.73051,
    "c": 0.73143,
    "v": 1587
  },
  {
    "dt": "2021.11.11 09:00",
    "o": 0.7314,
    "h": 0.7314,
    "l": 0.73023,
    "c": 0.73023,
    "v": 1999
  },
  {
    "dt": "2021.11.11 10:00",
    "o": 0.73025,
    "h": 0.73043,
    "l": 0.72864,
    "c": 0.72983,
    "v": 2511
  },
  {
    "dt": "2021.11.11 11:00",
    "o": 0.72984,
    "h": 0.72993,
    "l": 0.72888,
    "c": 0.72956,
    "v": 2234
  },
  {
    "dt": "2021.11.11 12:00",
    "o": 0.72957,
    "h": 0.72994,
    "l": 0.72886,
    "c": 0.72942,
    "v": 2000
  },
  {
    "dt": "2021.11.11 13:00",
    "o": 0.72943,
    "h": 0.73014,
    "l": 0.72912,
    "c": 0.73,
    "v": 1797
  },
  {
    "dt": "2021.11.11 14:00",
    "o": 0.73,
    "h": 0.73108,
    "l": 0.72966,
    "c": 0.73023,
    "v": 2021
  },
  {
    "dt": "2021.11.11 15:00",
    "o": 0.73023,
    "h": 0.73086,
    "l": 0.72945,
    "c": 0.73086,
    "v": 2269
  },
  {
    "dt": "2021.11.11 16:00",
    "o": 0.73084,
    "h": 0.73104,
    "l": 0.72987,
    "c": 0.73022,
    "v": 2366
  },
  {
    "dt": "2021.11.11 17:00",
    "o": 0.7302,
    "h": 0.73104,
    "l": 0.72979,
    "c": 0.73062,
    "v": 2877
  },
  {
    "dt": "2021.11.11 18:00",
    "o": 0.73064,
    "h": 0.73078,
    "l": 0.72961,
    "c": 0.72964,
    "v": 2205
  },
  {
    "dt": "2021.11.11 19:00",
    "o": 0.72967,
    "h": 0.72983,
    "l": 0.72897,
    "c": 0.72913,
    "v": 1559
  },
  {
    "dt": "2021.11.11 20:00",
    "o": 0.72913,
    "h": 0.72954,
    "l": 0.72877,
    "c": 0.72933,
    "v": 1502
  },
  {
    "dt": "2021.11.11 21:00",
    "o": 0.72932,
    "h": 0.72963,
    "l": 0.72906,
    "c": 0.72912,
    "v": 1410
  },
  {
    "dt": "2021.11.11 22:00",
    "o": 0.72912,
    "h": 0.72937,
    "l": 0.72869,
    "c": 0.7288,
    "v": 1145
  },
  {
    "dt": "2021.11.11 23:00",
    "o": 0.72879,
    "h": 0.72912,
    "l": 0.72875,
    "c": 0.7289,
    "v": 498
  },
  {
    "dt": "2021.11.12 00:00",
    "o": 0.72921,
    "h": 0.72943,
    "l": 0.72871,
    "c": 0.729,
    "v": 433
  },
  {
    "dt": "2021.11.12 01:00",
    "o": 0.72899,
    "h": 0.7292,
    "l": 0.72859,
    "c": 0.72897,
    "v": 716
  },
  {
    "dt": "2021.11.12 02:00",
    "o": 0.72897,
    "h": 0.72959,
    "l": 0.72875,
    "c": 0.72879,
    "v": 1400
  },
  {
    "dt": "2021.11.12 03:00",
    "o": 0.72877,
    "h": 0.72896,
    "l": 0.72792,
    "c": 0.72797,
    "v": 1747
  },
  {
    "dt": "2021.11.12 04:00",
    "o": 0.72796,
    "h": 0.72858,
    "l": 0.72767,
    "c": 0.7281,
    "v": 1454
  },
  {
    "dt": "2021.11.12 05:00",
    "o": 0.72808,
    "h": 0.72826,
    "l": 0.72757,
    "c": 0.72819,
    "v": 940
  },
  {
    "dt": "2021.11.12 06:00",
    "o": 0.72819,
    "h": 0.72865,
    "l": 0.72818,
    "c": 0.72853,
    "v": 654
  },
  {
    "dt": "2021.11.12 07:00",
    "o": 0.72853,
    "h": 0.72933,
    "l": 0.72818,
    "c": 0.72922,
    "v": 1063
  },
  {
    "dt": "2021.11.12 08:00",
    "o": 0.72922,
    "h": 0.72958,
    "l": 0.72885,
    "c": 0.72948,
    "v": 1273
  },
  {
    "dt": "2021.11.12 09:00",
    "o": 0.72942,
    "h": 0.73056,
    "l": 0.729,
    "c": 0.73056,
    "v": 1586
  },
  {
    "dt": "2021.11.12 10:00",
    "o": 0.73053,
    "h": 0.73072,
    "l": 0.72981,
    "c": 0.73023,
    "v": 2172
  },
  {
    "dt": "2021.11.12 11:00",
    "o": 0.73023,
    "h": 0.73023,
    "l": 0.72893,
    "c": 0.72915,
    "v": 1900
  },
  {
    "dt": "2021.11.12 12:00",
    "o": 0.72913,
    "h": 0.73,
    "l": 0.72896,
    "c": 0.72968,
    "v": 1362
  },
  {
    "dt": "2021.11.12 13:00",
    "o": 0.72968,
    "h": 0.72991,
    "l": 0.72914,
    "c": 0.72952,
    "v": 1476
  },
  {
    "dt": "2021.11.12 14:00",
    "o": 0.72953,
    "h": 0.73036,
    "l": 0.72943,
    "c": 0.72965,
    "v": 1589
  },
  {
    "dt": "2021.11.12 15:00",
    "o": 0.72966,
    "h": 0.73038,
    "l": 0.72932,
    "c": 0.73014,
    "v": 2289
  },
  {
    "dt": "2021.11.12 16:00",
    "o": 0.73014,
    "h": 0.73049,
    "l": 0.72954,
    "c": 0.72996,
    "v": 2693
  },
  {
    "dt": "2021.11.12 17:00",
    "o": 0.72998,
    "h": 0.73204,
    "l": 0.72996,
    "c": 0.73196,
    "v": 3602
  },
  {
    "dt": "2021.11.12 18:00",
    "o": 0.73197,
    "h": 0.73233,
    "l": 0.73182,
    "c": 0.732,
    "v": 2384
  },
  {
    "dt": "2021.11.12 19:00",
    "o": 0.73199,
    "h": 0.73295,
    "l": 0.73199,
    "c": 0.73282,
    "v": 1622
  },
  {
    "dt": "2021.11.12 20:00",
    "o": 0.73279,
    "h": 0.73318,
    "l": 0.73262,
    "c": 0.73304,
    "v": 1386
  },
  {
    "dt": "2021.11.12 21:00",
    "o": 0.73305,
    "h": 0.73333,
    "l": 0.7329,
    "c": 0.7329,
    "v": 1198
  },
  {
    "dt": "2021.11.12 22:00",
    "o": 0.7329,
    "h": 0.73342,
    "l": 0.73286,
    "c": 0.73337,
    "v": 1268
  },
  {
    "dt": "2021.11.12 23:00",
    "o": 0.73337,
    "h": 0.73341,
    "l": 0.73276,
    "c": 0.73296,
    "v": 834
  },
  {
    "dt": "2021.11.15 00:00",
    "o": 0.7324,
    "h": 0.73292,
    "l": 0.73216,
    "c": 0.73264,
    "v": 468
  },
  {
    "dt": "2021.11.15 01:00",
    "o": 0.73281,
    "h": 0.73355,
    "l": 0.73281,
    "c": 0.73311,
    "v": 553
  },
  {
    "dt": "2021.11.15 02:00",
    "o": 0.73311,
    "h": 0.73329,
    "l": 0.73226,
    "c": 0.7332,
    "v": 1023
  },
  {
    "dt": "2021.11.15 03:00",
    "o": 0.73318,
    "h": 0.73399,
    "l": 0.73242,
    "c": 0.73397,
    "v": 1714
  },
  {
    "dt": "2021.11.15 04:00",
    "o": 0.73396,
    "h": 0.73437,
    "l": 0.73353,
    "c": 0.73385,
    "v": 1294
  },
  {
    "dt": "2021.11.15 05:00",
    "o": 0.73385,
    "h": 0.73429,
    "l": 0.73373,
    "c": 0.73386,
    "v": 763
  },
  {
    "dt": "2021.11.15 06:00",
    "o": 0.73386,
    "h": 0.73438,
    "l": 0.73377,
    "c": 0.73411,
    "v": 816
  },
  {
    "dt": "2021.11.15 07:00",
    "o": 0.73411,
    "h": 0.73477,
    "l": 0.73399,
    "c": 0.73465,
    "v": 1018
  },
  {
    "dt": "2021.11.15 08:00",
    "o": 0.73468,
    "h": 0.73492,
    "l": 0.73427,
    "c": 0.73447,
    "v": 932
  },
  {
    "dt": "2021.11.15 09:00",
    "o": 0.73442,
    "h": 0.73536,
    "l": 0.73442,
    "c": 0.7353,
    "v": 1495
  },
  {
    "dt": "2021.11.15 10:00",
    "o": 0.73531,
    "h": 0.73558,
    "l": 0.73467,
    "c": 0.73543,
    "v": 2165
  },
  {
    "dt": "2021.11.15 11:00",
    "o": 0.73543,
    "h": 0.73645,
    "l": 0.73521,
    "c": 0.73596,
    "v": 1721
  },
  {
    "dt": "2021.11.15 12:00",
    "o": 0.73594,
    "h": 0.73672,
    "l": 0.73582,
    "c": 0.73646,
    "v": 1620
  },
  {
    "dt": "2021.11.15 13:00",
    "o": 0.73645,
    "h": 0.73698,
    "l": 0.73592,
    "c": 0.73657,
    "v": 1449
  },
  {
    "dt": "2021.11.15 14:00",
    "o": 0.73656,
    "h": 0.7368,
    "l": 0.73607,
    "c": 0.73617,
    "v": 1389
  },
  {
    "dt": "2021.11.15 15:00",
    "o": 0.73616,
    "h": 0.73679,
    "l": 0.73577,
    "c": 0.73623,
    "v": 2178
  },
  {
    "dt": "2021.11.15 16:00",
    "o": 0.73627,
    "h": 0.73648,
    "l": 0.7354,
    "c": 0.73577,
    "v": 2993
  },
  {
    "dt": "2021.11.15 17:00",
    "o": 0.73576,
    "h": 0.73617,
    "l": 0.7353,
    "c": 0.73589,
    "v": 3117
  },
  {
    "dt": "2021.11.15 18:00",
    "o": 0.7359,
    "h": 0.73653,
    "l": 0.73551,
    "c": 0.73596,
    "v": 2499
  },
  {
    "dt": "2021.11.15 19:00",
    "o": 0.73596,
    "h": 0.73598,
    "l": 0.73483,
    "c": 0.73506,
    "v": 2495
  },
  {
    "dt": "2021.11.15 20:00",
    "o": 0.73504,
    "h": 0.73551,
    "l": 0.73504,
    "c": 0.73543,
    "v": 1921
  },
  {
    "dt": "2021.11.15 21:00",
    "o": 0.73544,
    "h": 0.73564,
    "l": 0.73494,
    "c": 0.73494,
    "v": 1308
  },
  {
    "dt": "2021.11.15 22:00",
    "o": 0.73494,
    "h": 0.73498,
    "l": 0.73421,
    "c": 0.73446,
    "v": 1714
  },
  {
    "dt": "2021.11.15 23:00",
    "o": 0.73444,
    "h": 0.73486,
    "l": 0.73403,
    "c": 0.73432,
    "v": 804
  },
  {
    "dt": "2021.11.16 00:00",
    "o": 0.73427,
    "h": 0.73463,
    "l": 0.73407,
    "c": 0.73423,
    "v": 646
  },
  {
    "dt": "2021.11.16 01:00",
    "o": 0.73436,
    "h": 0.73468,
    "l": 0.7342,
    "c": 0.73444,
    "v": 493
  },
  {
    "dt": "2021.11.16 02:00",
    "o": 0.73443,
    "h": 0.73556,
    "l": 0.7343,
    "c": 0.73502,
    "v": 1261
  },
  {
    "dt": "2021.11.16 03:00",
    "o": 0.73501,
    "h": 0.73639,
    "l": 0.73497,
    "c": 0.73607,
    "v": 1754
  },
  {
    "dt": "2021.11.16 04:00",
    "o": 0.73606,
    "h": 0.73672,
    "l": 0.7356,
    "c": 0.73622,
    "v": 1808
  },
  {
    "dt": "2021.11.16 05:00",
    "o": 0.7362,
    "h": 0.73669,
    "l": 0.73561,
    "c": 0.73572,
    "v": 1254
  },
  {
    "dt": "2021.11.16 06:00",
    "o": 0.73575,
    "h": 0.73591,
    "l": 0.73494,
    "c": 0.73532,
    "v": 1056
  },
  {
    "dt": "2021.11.16 07:00",
    "o": 0.73533,
    "h": 0.73578,
    "l": 0.73363,
    "c": 0.73395,
    "v": 1330
  },
  {
    "dt": "2021.11.16 08:00",
    "o": 0.73396,
    "h": 0.73442,
    "l": 0.73338,
    "c": 0.73376,
    "v": 1806
  },
  {
    "dt": "2021.11.16 09:00",
    "o": 0.73374,
    "h": 0.73421,
    "l": 0.73341,
    "c": 0.73406,
    "v": 2093
  },
  {
    "dt": "2021.11.16 10:00",
    "o": 0.73406,
    "h": 0.73453,
    "l": 0.73352,
    "c": 0.73414,
    "v": 2351
  },
  {
    "dt": "2021.11.16 11:00",
    "o": 0.73413,
    "h": 0.73458,
    "l": 0.73317,
    "c": 0.73377,
    "v": 2015
  },
  {
    "dt": "2021.11.16 12:00",
    "o": 0.73376,
    "h": 0.73398,
    "l": 0.73303,
    "c": 0.73339,
    "v": 1574
  },
  {
    "dt": "2021.11.16 13:00",
    "o": 0.73338,
    "h": 0.73444,
    "l": 0.73314,
    "c": 0.73424,
    "v": 1990
  },
  {
    "dt": "2021.11.16 14:00",
    "o": 0.73424,
    "h": 0.73428,
    "l": 0.73333,
    "c": 0.73354,
    "v": 1585
  },
  {
    "dt": "2021.11.16 15:00",
    "o": 0.73353,
    "h": 0.7345,
    "l": 0.73276,
    "c": 0.73352,
    "v": 3000
  },
  {
    "dt": "2021.11.16 16:00",
    "o": 0.73351,
    "h": 0.73361,
    "l": 0.73127,
    "c": 0.73136,
    "v": 3709
  },
  {
    "dt": "2021.11.16 17:00",
    "o": 0.73137,
    "h": 0.73264,
    "l": 0.73107,
    "c": 0.73162,
    "v": 3224
  },
  {
    "dt": "2021.11.16 18:00",
    "o": 0.73158,
    "h": 0.73181,
    "l": 0.73086,
    "c": 0.73087,
    "v": 2461
  },
  {
    "dt": "2021.11.16 19:00",
    "o": 0.73086,
    "h": 0.73122,
    "l": 0.73014,
    "c": 0.73045,
    "v": 1866
  },
  {
    "dt": "2021.11.16 20:00",
    "o": 0.73047,
    "h": 0.7311,
    "l": 0.73029,
    "c": 0.73089,
    "v": 1626
  },
  {
    "dt": "2021.11.16 21:00",
    "o": 0.73089,
    "h": 0.73107,
    "l": 0.72998,
    "c": 0.72998,
    "v": 1571
  },
  {
    "dt": "2021.11.16 22:00",
    "o": 0.73,
    "h": 0.73037,
    "l": 0.72914,
    "c": 0.72946,
    "v": 1596
  },
  {
    "dt": "2021.11.16 23:00",
    "o": 0.72948,
    "h": 0.7303,
    "l": 0.72947,
    "c": 0.73002,
    "v": 947
  },
  {
    "dt": "2021.11.17 00:00",
    "o": 0.72997,
    "h": 0.7303,
    "l": 0.72934,
    "c": 0.72984,
    "v": 651
  },
  {
    "dt": "2021.11.17 01:00",
    "o": 0.72988,
    "h": 0.73008,
    "l": 0.7294,
    "c": 0.73002,
    "v": 704
  },
  {
    "dt": "2021.11.17 02:00",
    "o": 0.73003,
    "h": 0.73014,
    "l": 0.72813,
    "c": 0.72862,
    "v": 1312
  },
  {
    "dt": "2021.11.17 03:00",
    "o": 0.72861,
    "h": 0.72904,
    "l": 0.72803,
    "c": 0.72859,
    "v": 1955
  },
  {
    "dt": "2021.11.17 04:00",
    "o": 0.72858,
    "h": 0.72888,
    "l": 0.72815,
    "c": 0.72838,
    "v": 1361
  },
  {
    "dt": "2021.11.17 05:00",
    "o": 0.72838,
    "h": 0.72839,
    "l": 0.72615,
    "c": 0.72737,
    "v": 2292
  },
  {
    "dt": "2021.11.17 06:00",
    "o": 0.72737,
    "h": 0.72829,
    "l": 0.72737,
    "c": 0.7282,
    "v": 1426
  },
  {
    "dt": "2021.11.17 07:00",
    "o": 0.72824,
    "h": 0.7285,
    "l": 0.7276,
    "c": 0.72809,
    "v": 1215
  },
  {
    "dt": "2021.11.17 08:00",
    "o": 0.72808,
    "h": 0.72984,
    "l": 0.728,
    "c": 0.72936,
    "v": 1462
  },
  {
    "dt": "2021.11.17 09:00",
    "o": 0.72936,
    "h": 0.73042,
    "l": 0.72928,
    "c": 0.72931,
    "v": 2275
  },
  {
    "dt": "2021.11.17 10:00",
    "o": 0.72931,
    "h": 0.72948,
    "l": 0.72863,
    "c": 0.72905,
    "v": 2185
  },
  {
    "dt": "2021.11.17 11:00",
    "o": 0.72909,
    "h": 0.72911,
    "l": 0.72748,
    "c": 0.728,
    "v": 2128
  },
  {
    "dt": "2021.11.17 12:00",
    "o": 0.72801,
    "h": 0.72809,
    "l": 0.72705,
    "c": 0.72725,
    "v": 1747
  },
  {
    "dt": "2021.11.17 13:00",
    "o": 0.72726,
    "h": 0.72918,
    "l": 0.72718,
    "c": 0.72917,
    "v": 1397
  },
  {
    "dt": "2021.11.17 14:00",
    "o": 0.72917,
    "h": 0.72976,
    "l": 0.72902,
    "c": 0.72923,
    "v": 1562
  },
  {
    "dt": "2021.11.17 15:00",
    "o": 0.72927,
    "h": 0.72972,
    "l": 0.72794,
    "c": 0.72795,
    "v": 2241
  },
  {
    "dt": "2021.11.17 16:00",
    "o": 0.72799,
    "h": 0.72819,
    "l": 0.72705,
    "c": 0.72741,
    "v": 2724
  },
  {
    "dt": "2021.11.17 17:00",
    "o": 0.7274,
    "h": 0.72785,
    "l": 0.72654,
    "c": 0.7275,
    "v": 2807
  },
  {
    "dt": "2021.11.17 18:00",
    "o": 0.72749,
    "h": 0.7276,
    "l": 0.72628,
    "c": 0.72718,
    "v": 2106
  },
  {
    "dt": "2021.11.17 19:00",
    "o": 0.72718,
    "h": 0.72737,
    "l": 0.72649,
    "c": 0.72686,
    "v": 2165
  },
  {
    "dt": "2021.11.17 20:00",
    "o": 0.72687,
    "h": 0.72717,
    "l": 0.72645,
    "c": 0.72667,
    "v": 2134
  },
  {
    "dt": "2021.11.17 21:00",
    "o": 0.7267,
    "h": 0.72671,
    "l": 0.72593,
    "c": 0.72593,
    "v": 1546
  },
  {
    "dt": "2021.11.17 22:00",
    "o": 0.72593,
    "h": 0.72671,
    "l": 0.72579,
    "c": 0.72655,
    "v": 1751
  },
  {
    "dt": "2021.11.17 23:00",
    "o": 0.72656,
    "h": 0.72657,
    "l": 0.72629,
    "c": 0.72642,
    "v": 848
  },
  {
    "dt": "2021.11.18 00:00",
    "o": 0.72637,
    "h": 0.7265,
    "l": 0.72613,
    "c": 0.72624,
    "v": 409
  },
  {
    "dt": "2021.11.18 01:00",
    "o": 0.72628,
    "h": 0.72679,
    "l": 0.72616,
    "c": 0.72675,
    "v": 641
  },
  {
    "dt": "2021.11.18 02:00",
    "o": 0.72675,
    "h": 0.72695,
    "l": 0.72589,
    "c": 0.72592,
    "v": 968
  },
  {
    "dt": "2021.11.18 03:00",
    "o": 0.72593,
    "h": 0.72636,
    "l": 0.72508,
    "c": 0.72558,
    "v": 1718
  },
  {
    "dt": "2021.11.18 04:00",
    "o": 0.72558,
    "h": 0.7266,
    "l": 0.72552,
    "c": 0.72658,
    "v": 2074
  },
  {
    "dt": "2021.11.18 05:00",
    "o": 0.72657,
    "h": 0.72705,
    "l": 0.72601,
    "c": 0.72666,
    "v": 1058
  },
  {
    "dt": "2021.11.18 06:00",
    "o": 0.72671,
    "h": 0.72763,
    "l": 0.72664,
    "c": 0.72715,
    "v": 932
  },
  {
    "dt": "2021.11.18 07:00",
    "o": 0.72718,
    "h": 0.72769,
    "l": 0.72695,
    "c": 0.72769,
    "v": 1174
  },
  {
    "dt": "2021.11.18 08:00",
    "o": 0.7277,
    "h": 0.72804,
    "l": 0.72725,
    "c": 0.72801,
    "v": 1365
  },
  {
    "dt": "2021.11.18 09:00",
    "o": 0.72802,
    "h": 0.72922,
    "l": 0.72761,
    "c": 0.7289,
    "v": 1690
  },
  {
    "dt": "2021.11.18 10:00",
    "o": 0.72891,
    "h": 0.72891,
    "l": 0.72734,
    "c": 0.72776,
    "v": 2181
  },
  {
    "dt": "2021.11.18 11:00",
    "o": 0.72778,
    "h": 0.72898,
    "l": 0.72767,
    "c": 0.72836,
    "v": 1668
  },
  {
    "dt": "2021.11.18 12:00",
    "o": 0.72835,
    "h": 0.72861,
    "l": 0.72781,
    "c": 0.72818,
    "v": 1511
  },
  {
    "dt": "2021.11.18 13:00",
    "o": 0.72818,
    "h": 0.72897,
    "l": 0.72813,
    "c": 0.72858,
    "v": 1454
  },
  {
    "dt": "2021.11.18 14:00",
    "o": 0.72863,
    "h": 0.72908,
    "l": 0.72808,
    "c": 0.72831,
    "v": 1529
  },
  {
    "dt": "2021.11.18 15:00",
    "o": 0.72829,
    "h": 0.72851,
    "l": 0.72609,
    "c": 0.72611,
    "v": 2752
  },
  {
    "dt": "2021.11.18 16:00",
    "o": 0.72606,
    "h": 0.72721,
    "l": 0.72584,
    "c": 0.72636,
    "v": 2863
  },
  {
    "dt": "2021.11.18 17:00",
    "o": 0.72635,
    "h": 0.72656,
    "l": 0.72489,
    "c": 0.72585,
    "v": 3445
  },
  {
    "dt": "2021.11.18 18:00",
    "o": 0.72585,
    "h": 0.72698,
    "l": 0.72553,
    "c": 0.72685,
    "v": 2354
  },
  {
    "dt": "2021.11.18 19:00",
    "o": 0.72684,
    "h": 0.7282,
    "l": 0.72679,
    "c": 0.72751,
    "v": 2041
  },
  {
    "dt": "2021.11.18 20:00",
    "o": 0.7275,
    "h": 0.72764,
    "l": 0.72708,
    "c": 0.7273,
    "v": 1906
  },
  {
    "dt": "2021.11.18 21:00",
    "o": 0.7273,
    "h": 0.72758,
    "l": 0.72712,
    "c": 0.7275,
    "v": 1631
  },
  {
    "dt": "2021.11.18 22:00",
    "o": 0.72749,
    "h": 0.72774,
    "l": 0.72734,
    "c": 0.72756,
    "v": 1642
  },
  {
    "dt": "2021.11.18 23:00",
    "o": 0.72755,
    "h": 0.72774,
    "l": 0.72735,
    "c": 0.72735,
    "v": 746
  },
  {
    "dt": "2021.11.19 00:00",
    "o": 0.7273,
    "h": 0.72781,
    "l": 0.72688,
    "c": 0.72735,
    "v": 652
  },
  {
    "dt": "2021.11.19 01:00",
    "o": 0.72742,
    "h": 0.72797,
    "l": 0.72742,
    "c": 0.72755,
    "v": 444
  },
  {
    "dt": "2021.11.19 02:00",
    "o": 0.72756,
    "h": 0.72789,
    "l": 0.72728,
    "c": 0.72729,
    "v": 682
  },
  {
    "dt": "2021.11.19 03:00",
    "o": 0.7273,
    "h": 0.72801,
    "l": 0.72666,
    "c": 0.72771,
    "v": 1611
  },
  {
    "dt": "2021.11.19 04:00",
    "o": 0.72772,
    "h": 0.72792,
    "l": 0.72699,
    "c": 0.727,
    "v": 1404
  },
  {
    "dt": "2021.11.19 05:00",
    "o": 0.72702,
    "h": 0.72749,
    "l": 0.7268,
    "c": 0.72719,
    "v": 963
  },
  {
    "dt": "2021.11.19 06:00",
    "o": 0.7272,
    "h": 0.72771,
    "l": 0.72692,
    "c": 0.7271,
    "v": 714
  },
  {
    "dt": "2021.11.19 07:00",
    "o": 0.72711,
    "h": 0.72817,
    "l": 0.72709,
    "c": 0.72811,
    "v": 1112
  },
  {
    "dt": "2021.11.19 08:00",
    "o": 0.7281,
    "h": 0.72876,
    "l": 0.72787,
    "c": 0.72843,
    "v": 1315
  },
  {
    "dt": "2021.11.19 09:00",
    "o": 0.72845,
    "h": 0.72904,
    "l": 0.72811,
    "c": 0.72817,
    "v": 1486
  },
  {
    "dt": "2021.11.19 10:00",
    "o": 0.72817,
    "h": 0.7285,
    "l": 0.72687,
    "c": 0.727,
    "v": 2366
  },
  {
    "dt": "2021.11.19 11:00",
    "o": 0.727,
    "h": 0.727,
    "l": 0.72404,
    "c": 0.72423,
    "v": 3716
  },
  {
    "dt": "2021.11.19 12:00",
    "o": 0.72424,
    "h": 0.72449,
    "l": 0.72309,
    "c": 0.72431,
    "v": 3722
  },
  {
    "dt": "2021.11.19 13:00",
    "o": 0.72431,
    "h": 0.7245,
    "l": 0.7233,
    "c": 0.72369,
    "v": 2845
  },
  {
    "dt": "2021.11.19 14:00",
    "o": 0.72372,
    "h": 0.72461,
    "l": 0.72288,
    "c": 0.7231,
    "v": 2719
  },
  {
    "dt": "2021.11.19 15:00",
    "o": 0.72308,
    "h": 0.72476,
    "l": 0.7226,
    "c": 0.72441,
    "v": 3053
  },
  {
    "dt": "2021.11.19 16:00",
    "o": 0.72442,
    "h": 0.72645,
    "l": 0.72439,
    "c": 0.72575,
    "v": 3739
  },
  {
    "dt": "2021.11.19 17:00",
    "o": 0.72572,
    "h": 0.72601,
    "l": 0.72477,
    "c": 0.72529,
    "v": 3827
  },
  {
    "dt": "2021.11.19 18:00",
    "o": 0.72531,
    "h": 0.72578,
    "l": 0.72511,
    "c": 0.72558,
    "v": 2387
  },
  {
    "dt": "2021.11.19 19:00",
    "o": 0.72557,
    "h": 0.72588,
    "l": 0.72367,
    "c": 0.72423,
    "v": 2604
  },
  {
    "dt": "2021.11.19 20:00",
    "o": 0.72426,
    "h": 0.72451,
    "l": 0.72326,
    "c": 0.72347,
    "v": 2537
  },
  {
    "dt": "2021.11.19 21:00",
    "o": 0.72348,
    "h": 0.72384,
    "l": 0.72326,
    "c": 0.72341,
    "v": 1752
  },
  {
    "dt": "2021.11.19 22:00",
    "o": 0.7234,
    "h": 0.72363,
    "l": 0.72312,
    "c": 0.72319,
    "v": 1492
  },
  {
    "dt": "2021.11.19 23:00",
    "o": 0.72317,
    "h": 0.7235,
    "l": 0.72262,
    "c": 0.72294,
    "v": 789
  },
  {
    "dt": "2021.11.22 00:00",
    "o": 0.72366,
    "h": 0.72366,
    "l": 0.72269,
    "c": 0.72288,
    "v": 204
  },
  {
    "dt": "2021.11.22 01:00",
    "o": 0.72296,
    "h": 0.72344,
    "l": 0.72276,
    "c": 0.72302,
    "v": 791
  },
  {
    "dt": "2021.11.22 02:00",
    "o": 0.72303,
    "h": 0.72398,
    "l": 0.72267,
    "c": 0.72315,
    "v": 1232
  },
  {
    "dt": "2021.11.22 03:00",
    "o": 0.72317,
    "h": 0.72392,
    "l": 0.72308,
    "c": 0.72345,
    "v": 1696
  },
  {
    "dt": "2021.11.22 04:00",
    "o": 0.72348,
    "h": 0.72406,
    "l": 0.72319,
    "c": 0.72362,
    "v": 1255
  },
  {
    "dt": "2021.11.22 05:00",
    "o": 0.72362,
    "h": 0.72431,
    "l": 0.72338,
    "c": 0.72421,
    "v": 1192
  },
  {
    "dt": "2021.11.22 06:00",
    "o": 0.72422,
    "h": 0.72545,
    "l": 0.72422,
    "c": 0.7252,
    "v": 1499
  },
  {
    "dt": "2021.11.22 07:00",
    "o": 0.72518,
    "h": 0.72546,
    "l": 0.72458,
    "c": 0.72534,
    "v": 1047
  },
  {
    "dt": "2021.11.22 08:00",
    "o": 0.72535,
    "h": 0.72553,
    "l": 0.72453,
    "c": 0.72458,
    "v": 1251
  },
  {
    "dt": "2021.11.22 09:00",
    "o": 0.72461,
    "h": 0.72532,
    "l": 0.72434,
    "c": 0.72482,
    "v": 1901
  },
  {
    "dt": "2021.11.22 10:00",
    "o": 0.72482,
    "h": 0.72543,
    "l": 0.72427,
    "c": 0.72456,
    "v": 3079
  },
  {
    "dt": "2021.11.22 11:00",
    "o": 0.72454,
    "h": 0.72591,
    "l": 0.72445,
    "c": 0.72541,
    "v": 2074
  },
  {
    "dt": "2021.11.22 12:00",
    "o": 0.72543,
    "h": 0.72602,
    "l": 0.72532,
    "c": 0.7256,
    "v": 1633
  },
  {
    "dt": "2021.11.22 13:00",
    "o": 0.7256,
    "h": 0.7262,
    "l": 0.72527,
    "c": 0.72559,
    "v": 1949
  },
  {
    "dt": "2021.11.22 14:00",
    "o": 0.72559,
    "h": 0.72621,
    "l": 0.72534,
    "c": 0.7258,
    "v": 1682
  },
  {
    "dt": "2021.11.22 15:00",
    "o": 0.72578,
    "h": 0.72726,
    "l": 0.72555,
    "c": 0.72696,
    "v": 2397
  },
  {
    "dt": "2021.11.22 16:00",
    "o": 0.72695,
    "h": 0.72695,
    "l": 0.72373,
    "c": 0.72514,
    "v": 4539
  },
  {
    "dt": "2021.11.22 17:00",
    "o": 0.72515,
    "h": 0.72529,
    "l": 0.72406,
    "c": 0.72461,
    "v": 3481
  },
  {
    "dt": "2021.11.22 18:00",
    "o": 0.7246,
    "h": 0.72504,
    "l": 0.72328,
    "c": 0.72345,
    "v": 2750
  },
  {
    "dt": "2021.11.22 19:00",
    "o": 0.72345,
    "h": 0.72351,
    "l": 0.72277,
    "c": 0.72296,
    "v": 2433
  },
  {
    "dt": "2021.11.22 20:00",
    "o": 0.72295,
    "h": 0.72308,
    "l": 0.72254,
    "c": 0.72279,
    "v": 1699
  },
  {
    "dt": "2021.11.22 21:00",
    "o": 0.7228,
    "h": 0.7229,
    "l": 0.72241,
    "c": 0.72249,
    "v": 1458
  },
  {
    "dt": "2021.11.22 22:00",
    "o": 0.7225,
    "h": 0.72285,
    "l": 0.72215,
    "c": 0.72216,
    "v": 1719
  },
  {
    "dt": "2021.11.22 23:00",
    "o": 0.72217,
    "h": 0.72255,
    "l": 0.72201,
    "c": 0.72228,
    "v": 901
  },
  {
    "dt": "2021.11.23 00:00",
    "o": 0.72223,
    "h": 0.72249,
    "l": 0.72213,
    "c": 0.7224,
    "v": 340
  },
  {
    "dt": "2021.11.23 01:00",
    "o": 0.72237,
    "h": 0.72285,
    "l": 0.72231,
    "c": 0.72264,
    "v": 635
  },
  {
    "dt": "2021.11.23 02:00",
    "o": 0.72265,
    "h": 0.72331,
    "l": 0.72263,
    "c": 0.72281,
    "v": 862
  },
  {
    "dt": "2021.11.23 03:00",
    "o": 0.72283,
    "h": 0.72355,
    "l": 0.72256,
    "c": 0.72315,
    "v": 1439
  },
  {
    "dt": "2021.11.23 04:00",
    "o": 0.72315,
    "h": 0.72328,
    "l": 0.72158,
    "c": 0.7225,
    "v": 1739
  },
  {
    "dt": "2021.11.23 05:00",
    "o": 0.72252,
    "h": 0.72304,
    "l": 0.72228,
    "c": 0.72257,
    "v": 1264
  },
  {
    "dt": "2021.11.23 06:00",
    "o": 0.72258,
    "h": 0.7227,
    "l": 0.72184,
    "c": 0.72205,
    "v": 800
  },
  {
    "dt": "2021.11.23 07:00",
    "o": 0.72205,
    "h": 0.72226,
    "l": 0.7211,
    "c": 0.72145,
    "v": 1293
  },
  {
    "dt": "2021.11.23 08:00",
    "o": 0.72146,
    "h": 0.72207,
    "l": 0.7213,
    "c": 0.72194,
    "v": 1453
  },
  {
    "dt": "2021.11.23 09:00",
    "o": 0.72195,
    "h": 0.72316,
    "l": 0.72113,
    "c": 0.7226,
    "v": 3157
  },
  {
    "dt": "2021.11.23 10:00",
    "o": 0.72257,
    "h": 0.72259,
    "l": 0.72102,
    "c": 0.72158,
    "v": 3652
  },
  {
    "dt": "2021.11.23 11:00",
    "o": 0.72161,
    "h": 0.72301,
    "l": 0.72153,
    "c": 0.72238,
    "v": 2736
  },
  {
    "dt": "2021.11.23 12:00",
    "o": 0.72239,
    "h": 0.72311,
    "l": 0.72216,
    "c": 0.72222,
    "v": 2025
  },
  {
    "dt": "2021.11.23 13:00",
    "o": 0.72226,
    "h": 0.72254,
    "l": 0.72153,
    "c": 0.72168,
    "v": 2114
  },
  {
    "dt": "2021.11.23 14:00",
    "o": 0.72171,
    "h": 0.72202,
    "l": 0.72109,
    "c": 0.72138,
    "v": 2456
  },
  {
    "dt": "2021.11.23 15:00",
    "o": 0.72137,
    "h": 0.72258,
    "l": 0.72133,
    "c": 0.72159,
    "v": 3028
  },
  {
    "dt": "2021.11.23 16:00",
    "o": 0.7216,
    "h": 0.7229,
    "l": 0.7216,
    "c": 0.7227,
    "v": 3189
  },
  {
    "dt": "2021.11.23 17:00",
    "o": 0.72269,
    "h": 0.72283,
    "l": 0.72075,
    "c": 0.72181,
    "v": 4100
  },
  {
    "dt": "2021.11.23 18:00",
    "o": 0.7218,
    "h": 0.72226,
    "l": 0.7206,
    "c": 0.72194,
    "v": 3477
  },
  {
    "dt": "2021.11.23 19:00",
    "o": 0.72194,
    "h": 0.72253,
    "l": 0.72158,
    "c": 0.72166,
    "v": 2505
  },
  {
    "dt": "2021.11.23 20:00",
    "o": 0.72168,
    "h": 0.72208,
    "l": 0.7212,
    "c": 0.72181,
    "v": 2295
  },
  {
    "dt": "2021.11.23 21:00",
    "o": 0.72181,
    "h": 0.72235,
    "l": 0.72152,
    "c": 0.72218,
    "v": 2073
  },
  {
    "dt": "2021.11.23 22:00",
    "o": 0.72221,
    "h": 0.72291,
    "l": 0.72217,
    "c": 0.72278,
    "v": 1987
  },
  {
    "dt": "2021.11.23 23:00",
    "o": 0.72277,
    "h": 0.72277,
    "l": 0.72239,
    "c": 0.72253,
    "v": 752
  },
  {
    "dt": "2021.11.24 00:00",
    "o": 0.7225,
    "h": 0.72257,
    "l": 0.72198,
    "c": 0.7222,
    "v": 406
  },
  {
    "dt": "2021.11.24 01:00",
    "o": 0.72235,
    "h": 0.72262,
    "l": 0.72194,
    "c": 0.72209,
    "v": 529
  },
  {
    "dt": "2021.11.24 02:00",
    "o": 0.72206,
    "h": 0.72251,
    "l": 0.72183,
    "c": 0.72193,
    "v": 1196
  },
  {
    "dt": "2021.11.24 03:00",
    "o": 0.72192,
    "h": 0.72265,
    "l": 0.72106,
    "c": 0.72206,
    "v": 2303
  },
  {
    "dt": "2021.11.24 04:00",
    "o": 0.72204,
    "h": 0.72251,
    "l": 0.7217,
    "c": 0.72185,
    "v": 1489
  },
  {
    "dt": "2021.11.24 05:00",
    "o": 0.7219,
    "h": 0.722,
    "l": 0.72036,
    "c": 0.72051,
    "v": 1307
  },
  {
    "dt": "2021.11.24 06:00",
    "o": 0.7205,
    "h": 0.72071,
    "l": 0.71983,
    "c": 0.72069,
    "v": 1152
  },
  {
    "dt": "2021.11.24 07:00",
    "o": 0.72069,
    "h": 0.7215,
    "l": 0.72055,
    "c": 0.72146,
    "v": 1190
  },
  {
    "dt": "2021.11.24 08:00",
    "o": 0.72143,
    "h": 0.72219,
    "l": 0.72134,
    "c": 0.722,
    "v": 1391
  },
  {
    "dt": "2021.11.24 09:00",
    "o": 0.72207,
    "h": 0.72219,
    "l": 0.72117,
    "c": 0.72165,
    "v": 1946
  },
  {
    "dt": "2021.11.24 10:00",
    "o": 0.72161,
    "h": 0.72262,
    "l": 0.7213,
    "c": 0.72179,
    "v": 2642
  },
  {
    "dt": "2021.11.24 11:00",
    "o": 0.72179,
    "h": 0.72267,
    "l": 0.7216,
    "c": 0.7216,
    "v": 2539
  },
  {
    "dt": "2021.11.24 12:00",
    "o": 0.72163,
    "h": 0.72242,
    "l": 0.72103,
    "c": 0.72103,
    "v": 2032
  },
  {
    "dt": "2021.11.24 13:00",
    "o": 0.72103,
    "h": 0.72142,
    "l": 0.72073,
    "c": 0.72122,
    "v": 1795
  },
  {
    "dt": "2021.11.24 14:00",
    "o": 0.72114,
    "h": 0.72155,
    "l": 0.72015,
    "c": 0.72018,
    "v": 2034
  },
  {
    "dt": "2021.11.24 15:00",
    "o": 0.72018,
    "h": 0.72062,
    "l": 0.71907,
    "c": 0.7194,
    "v": 3177
  },
  {
    "dt": "2021.11.24 16:00",
    "o": 0.71943,
    "h": 0.71981,
    "l": 0.71852,
    "c": 0.71955,
    "v": 4119
  },
  {
    "dt": "2021.11.24 17:00",
    "o": 0.71944,
    "h": 0.72013,
    "l": 0.71891,
    "c": 0.71905,
    "v": 3821
  },
  {
    "dt": "2021.11.24 18:00",
    "o": 0.71906,
    "h": 0.72007,
    "l": 0.71863,
    "c": 0.71959,
    "v": 2672
  },
  {
    "dt": "2021.11.24 19:00",
    "o": 0.71959,
    "h": 0.7196,
    "l": 0.71852,
    "c": 0.71882,
    "v": 1683
  },
  {
    "dt": "2021.11.24 20:00",
    "o": 0.71887,
    "h": 0.71913,
    "l": 0.71861,
    "c": 0.71886,
    "v": 1391
  },
  {
    "dt": "2021.11.24 21:00",
    "o": 0.71883,
    "h": 0.71952,
    "l": 0.71831,
    "c": 0.71911,
    "v": 2385
  },
  {
    "dt": "2021.11.24 22:00",
    "o": 0.7191,
    "h": 0.71987,
    "l": 0.71906,
    "c": 0.7198,
    "v": 1530
  },
  {
    "dt": "2021.11.24 23:00",
    "o": 0.71978,
    "h": 0.71979,
    "l": 0.71922,
    "c": 0.71922,
    "v": 929
  },
  {
    "dt": "2021.11.25 00:00",
    "o": 0.71922,
    "h": 0.7196,
    "l": 0.71903,
    "c": 0.71935,
    "v": 256
  },
  {
    "dt": "2021.11.25 01:00",
    "o": 0.7194,
    "h": 0.72013,
    "l": 0.71936,
    "c": 0.72006,
    "v": 639
  },
  {
    "dt": "2021.11.25 02:00",
    "o": 0.72011,
    "h": 0.72085,
    "l": 0.71994,
    "c": 0.72046,
    "v": 1000
  },
  {
    "dt": "2021.11.25 03:00",
    "o": 0.72042,
    "h": 0.72072,
    "l": 0.71991,
    "c": 0.72004,
    "v": 1377
  },
  {
    "dt": "2021.11.25 04:00",
    "o": 0.72003,
    "h": 0.72062,
    "l": 0.71993,
    "c": 0.72007,
    "v": 1026
  },
  {
    "dt": "2021.11.25 05:00",
    "o": 0.72003,
    "h": 0.72052,
    "l": 0.72002,
    "c": 0.72026,
    "v": 707
  },
  {
    "dt": "2021.11.25 06:00",
    "o": 0.72027,
    "h": 0.72028,
    "l": 0.71992,
    "c": 0.72025,
    "v": 597
  },
  {
    "dt": "2021.11.25 07:00",
    "o": 0.72025,
    "h": 0.72033,
    "l": 0.71961,
    "c": 0.72003,
    "v": 746
  },
  {
    "dt": "2021.11.25 08:00",
    "o": 0.72002,
    "h": 0.72052,
    "l": 0.71997,
    "c": 0.72007,
    "v": 769
  },
  {
    "dt": "2021.11.25 09:00",
    "o": 0.72002,
    "h": 0.72076,
    "l": 0.72002,
    "c": 0.72024,
    "v": 1254
  },
  {
    "dt": "2021.11.25 10:00",
    "o": 0.72022,
    "h": 0.72032,
    "l": 0.71912,
    "c": 0.71916,
    "v": 1709
  },
  {
    "dt": "2021.11.25 11:00",
    "o": 0.71918,
    "h": 0.71934,
    "l": 0.71793,
    "c": 0.71886,
    "v": 1757
  },
  {
    "dt": "2021.11.25 12:00",
    "o": 0.71886,
    "h": 0.71896,
    "l": 0.71828,
    "c": 0.71867,
    "v": 1301
  },
  {
    "dt": "2021.11.25 13:00",
    "o": 0.71865,
    "h": 0.7189,
    "l": 0.71824,
    "c": 0.71881,
    "v": 1354
  },
  {
    "dt": "2021.11.25 14:00",
    "o": 0.7188,
    "h": 0.71894,
    "l": 0.71809,
    "c": 0.71809,
    "v": 1318
  },
  {
    "dt": "2021.11.25 15:00",
    "o": 0.71812,
    "h": 0.71837,
    "l": 0.71791,
    "c": 0.71826,
    "v": 1533
  },
  {
    "dt": "2021.11.25 16:00",
    "o": 0.71826,
    "h": 0.71903,
    "l": 0.71808,
    "c": 0.71883,
    "v": 1567
  },
  {
    "dt": "2021.11.25 17:00",
    "o": 0.71884,
    "h": 0.71921,
    "l": 0.71822,
    "c": 0.71878,
    "v": 1651
  },
  {
    "dt": "2021.11.25 18:00",
    "o": 0.71877,
    "h": 0.71897,
    "l": 0.71855,
    "c": 0.71892,
    "v": 1068
  },
  {
    "dt": "2021.11.25 19:00",
    "o": 0.71891,
    "h": 0.71892,
    "l": 0.71839,
    "c": 0.71854,
    "v": 741
  },
  {
    "dt": "2021.11.25 20:00",
    "o": 0.71856,
    "h": 0.71902,
    "l": 0.71816,
    "c": 0.71832,
    "v": 2208
  },
  {
    "dt": "2021.11.25 21:00",
    "o": 0.71829,
    "h": 0.71892,
    "l": 0.71828,
    "c": 0.71848,
    "v": 2110
  },
  {
    "dt": "2021.11.25 22:00",
    "o": 0.71847,
    "h": 0.71886,
    "l": 0.71836,
    "c": 0.71856,
    "v": 1595
  },
  {
    "dt": "2021.11.25 23:00",
    "o": 0.71856,
    "h": 0.71888,
    "l": 0.71841,
    "c": 0.71872,
    "v": 1668
  },
  {
    "dt": "2021.11.26 00:00",
    "o": 0.7187,
    "h": 0.71914,
    "l": 0.71825,
    "c": 0.7186,
    "v": 459
  },
  {
    "dt": "2021.11.26 01:00",
    "o": 0.71859,
    "h": 0.71891,
    "l": 0.7172,
    "c": 0.71721,
    "v": 930
  },
  {
    "dt": "2021.11.26 02:00",
    "o": 0.71722,
    "h": 0.71768,
    "l": 0.71615,
    "c": 0.71705,
    "v": 2206
  },
  {
    "dt": "2021.11.26 03:00",
    "o": 0.7171,
    "h": 0.71751,
    "l": 0.71525,
    "c": 0.71552,
    "v": 2874
  },
  {
    "dt": "2021.11.26 04:00",
    "o": 0.71553,
    "h": 0.71561,
    "l": 0.71385,
    "c": 0.71434,
    "v": 2434
  },
  {
    "dt": "2021.11.26 05:00",
    "o": 0.71435,
    "h": 0.71452,
    "l": 0.7133,
    "c": 0.7141,
    "v": 2198
  },
  {
    "dt": "2021.11.26 06:00",
    "o": 0.71411,
    "h": 0.71442,
    "l": 0.71386,
    "c": 0.71403,
    "v": 1543
  },
  {
    "dt": "2021.11.26 07:00",
    "o": 0.71405,
    "h": 0.71435,
    "l": 0.71361,
    "c": 0.71432,
    "v": 1475
  },
  {
    "dt": "2021.11.26 08:00",
    "o": 0.71433,
    "h": 0.71434,
    "l": 0.71301,
    "c": 0.71365,
    "v": 2365
  },
  {
    "dt": "2021.11.26 09:00",
    "o": 0.71363,
    "h": 0.71363,
    "l": 0.7119,
    "c": 0.7122,
    "v": 3834
  },
  {
    "dt": "2021.11.26 10:00",
    "o": 0.71219,
    "h": 0.71412,
    "l": 0.71117,
    "c": 0.71391,
    "v": 4662
  },
  {
    "dt": "2021.11.26 11:00",
    "o": 0.7139,
    "h": 0.71476,
    "l": 0.71204,
    "c": 0.71263,
    "v": 4203
  },
  {
    "dt": "2021.11.26 12:00",
    "o": 0.71263,
    "h": 0.71455,
    "l": 0.71248,
    "c": 0.71328,
    "v": 3601
  },
  {
    "dt": "2021.11.26 13:00",
    "o": 0.71324,
    "h": 0.71448,
    "l": 0.71324,
    "c": 0.71385,
    "v": 2971
  },
  {
    "dt": "2021.11.26 14:00",
    "o": 0.71384,
    "h": 0.71555,
    "l": 0.71373,
    "c": 0.71492,
    "v": 2836
  },
  {
    "dt": "2021.11.26 15:00",
    "o": 0.71489,
    "h": 0.71535,
    "l": 0.71414,
    "c": 0.71435,
    "v": 3667
  },
  {
    "dt": "2021.11.26 16:00",
    "o": 0.71431,
    "h": 0.715,
    "l": 0.71358,
    "c": 0.71468,
    "v": 3802
  },
  {
    "dt": "2021.11.26 17:00",
    "o": 0.71469,
    "h": 0.71471,
    "l": 0.71229,
    "c": 0.71251,
    "v": 4136
  },
  {
    "dt": "2021.11.26 18:00",
    "o": 0.71257,
    "h": 0.71305,
    "l": 0.71144,
    "c": 0.71218,
    "v": 3724
  },
  {
    "dt": "2021.11.26 19:00",
    "o": 0.7122,
    "h": 0.71345,
    "l": 0.71192,
    "c": 0.7127,
    "v": 2498
  },
  {
    "dt": "2021.11.26 20:00",
    "o": 0.71273,
    "h": 0.71307,
    "l": 0.71149,
    "c": 0.71215,
    "v": 2287
  },
  {
    "dt": "2021.11.26 21:00",
    "o": 0.71214,
    "h": 0.71244,
    "l": 0.71115,
    "c": 0.71169,
    "v": 580
  },
  {
    "dt": "2021.11.26 22:00",
    "o": 0.71172,
    "h": 0.71333,
    "l": 0.71126,
    "c": 0.71319,
    "v": 630
  },
  {
    "dt": "2021.11.26 23:00",
    "o": 0.71322,
    "h": 0.71398,
    "l": 0.71146,
    "c": 0.71216,
    "v": 436
  },
  {
    "dt": "2021.11.29 00:00",
    "o": 0.71369,
    "h": 0.71369,
    "l": 0.71131,
    "c": 0.71161,
    "v": 603
  },
  {
    "dt": "2021.11.29 01:00",
    "o": 0.71159,
    "h": 0.7144,
    "l": 0.71159,
    "c": 0.71413,
    "v": 1803
  },
  {
    "dt": "2021.11.29 02:00",
    "o": 0.71416,
    "h": 0.71419,
    "l": 0.71306,
    "c": 0.71331,
    "v": 1955
  },
  {
    "dt": "2021.11.29 03:00",
    "o": 0.71332,
    "h": 0.71439,
    "l": 0.71305,
    "c": 0.71411,
    "v": 2065
  },
  {
    "dt": "2021.11.29 04:00",
    "o": 0.71409,
    "h": 0.71438,
    "l": 0.71344,
    "c": 0.71416,
    "v": 1813
  },
  {
    "dt": "2021.11.29 05:00",
    "o": 0.71416,
    "h": 0.71457,
    "l": 0.71343,
    "c": 0.71448,
    "v": 1258
  },
  {
    "dt": "2021.11.29 06:00",
    "o": 0.71444,
    "h": 0.71461,
    "l": 0.7137,
    "c": 0.71391,
    "v": 1194
  },
  {
    "dt": "2021.11.29 07:00",
    "o": 0.7139,
    "h": 0.71422,
    "l": 0.71309,
    "c": 0.71383,
    "v": 1698
  },
  {
    "dt": "2021.11.29 08:00",
    "o": 0.71382,
    "h": 0.71475,
    "l": 0.71335,
    "c": 0.71453,
    "v": 1855
  },
  {
    "dt": "2021.11.29 09:00",
    "o": 0.71454,
    "h": 0.7148,
    "l": 0.71394,
    "c": 0.71472,
    "v": 2517
  },
  {
    "dt": "2021.11.29 10:00",
    "o": 0.71471,
    "h": 0.71475,
    "l": 0.71348,
    "c": 0.71414,
    "v": 3085
  },
  {
    "dt": "2021.11.29 11:00",
    "o": 0.71412,
    "h": 0.71529,
    "l": 0.71403,
    "c": 0.71475,
    "v": 3141
  },
  {
    "dt": "2021.11.29 12:00",
    "o": 0.71477,
    "h": 0.71587,
    "l": 0.71459,
    "c": 0.71489,
    "v": 2251
  },
  {
    "dt": "2021.11.29 13:00",
    "o": 0.71488,
    "h": 0.71551,
    "l": 0.71482,
    "c": 0.71488,
    "v": 1776
  },
  {
    "dt": "2021.11.29 14:00",
    "o": 0.71488,
    "h": 0.71503,
    "l": 0.71403,
    "c": 0.71445,
    "v": 2173
  },
  {
    "dt": "2021.11.29 15:00",
    "o": 0.71444,
    "h": 0.71492,
    "l": 0.71407,
    "c": 0.71447,
    "v": 2904
  },
  {
    "dt": "2021.11.29 16:00",
    "o": 0.71448,
    "h": 0.71487,
    "l": 0.71328,
    "c": 0.71328,
    "v": 3195
  },
  {
    "dt": "2021.11.29 17:00",
    "o": 0.71322,
    "h": 0.71369,
    "l": 0.71141,
    "c": 0.7115,
    "v": 3760
  },
  {
    "dt": "2021.11.29 18:00",
    "o": 0.71149,
    "h": 0.71223,
    "l": 0.71129,
    "c": 0.71172,
    "v": 2903
  },
  {
    "dt": "2021.11.29 19:00",
    "o": 0.71171,
    "h": 0.71295,
    "l": 0.71163,
    "c": 0.71271,
    "v": 1833
  },
  {
    "dt": "2021.11.29 20:00",
    "o": 0.71271,
    "h": 0.71332,
    "l": 0.71269,
    "c": 0.71306,
    "v": 1490
  },
  {
    "dt": "2021.11.29 21:00",
    "o": 0.71306,
    "h": 0.71307,
    "l": 0.71252,
    "c": 0.71278,
    "v": 1640
  },
  {
    "dt": "2021.11.29 22:00",
    "o": 0.71277,
    "h": 0.71321,
    "l": 0.71277,
    "c": 0.713,
    "v": 1742
  },
  {
    "dt": "2021.11.29 23:00",
    "o": 0.71299,
    "h": 0.71425,
    "l": 0.71298,
    "c": 0.71397,
    "v": 951
  },
  {
    "dt": "2021.11.30 00:00",
    "o": 0.71392,
    "h": 0.7142,
    "l": 0.71251,
    "c": 0.7137,
    "v": 390
  },
  {
    "dt": "2021.11.30 01:00",
    "o": 0.71378,
    "h": 0.71499,
    "l": 0.71376,
    "c": 0.71445,
    "v": 809
  },
  {
    "dt": "2021.11.30 02:00",
    "o": 0.71446,
    "h": 0.71471,
    "l": 0.71405,
    "c": 0.71406,
    "v": 1176
  },
  {
    "dt": "2021.11.30 03:00",
    "o": 0.71413,
    "h": 0.71522,
    "l": 0.714,
    "c": 0.71486,
    "v": 1688
  },
  {
    "dt": "2021.11.30 04:00",
    "o": 0.71487,
    "h": 0.71539,
    "l": 0.71465,
    "c": 0.71538,
    "v": 1435
  },
  {
    "dt": "2021.11.30 05:00",
    "o": 0.7154,
    "h": 0.71542,
    "l": 0.71428,
    "c": 0.71451,
    "v": 1349
  },
  {
    "dt": "2021.11.30 06:00",
    "o": 0.71455,
    "h": 0.71455,
    "l": 0.71396,
    "c": 0.71418,
    "v": 1041
  },
  {
    "dt": "2021.11.30 07:00",
    "o": 0.71416,
    "h": 0.71437,
    "l": 0.71008,
    "c": 0.71025,
    "v": 3831
  },
  {
    "dt": "2021.11.30 08:00",
    "o": 0.71024,
    "h": 0.71149,
    "l": 0.70917,
    "c": 0.71086,
    "v": 3579
  },
  {
    "dt": "2021.11.30 09:00",
    "o": 0.71087,
    "h": 0.71207,
    "l": 0.71039,
    "c": 0.71186,
    "v": 3547
  },
  {
    "dt": "2021.11.30 10:00",
    "o": 0.71185,
    "h": 0.7127,
    "l": 0.7112,
    "c": 0.71164,
    "v": 3655
  },
  {
    "dt": "2021.11.30 11:00",
    "o": 0.7116,
    "h": 0.71263,
    "l": 0.71084,
    "c": 0.71244,
    "v": 3482
  },
  {
    "dt": "2021.11.30 12:00",
    "o": 0.71246,
    "h": 0.71338,
    "l": 0.71226,
    "c": 0.71304,
    "v": 2767
  },
  {
    "dt": "2021.11.30 13:00",
    "o": 0.71303,
    "h": 0.71345,
    "l": 0.71251,
    "c": 0.71304,
    "v": 2579
  },
  {
    "dt": "2021.11.30 14:00",
    "o": 0.71304,
    "h": 0.71404,
    "l": 0.71303,
    "c": 0.71404,
    "v": 2448
  },
  {
    "dt": "2021.11.30 15:00",
    "o": 0.71404,
    "h": 0.71516,
    "l": 0.71386,
    "c": 0.7151,
    "v": 2906
  },
  {
    "dt": "2021.11.30 16:00",
    "o": 0.7151,
    "h": 0.71629,
    "l": 0.7147,
    "c": 0.71599,
    "v": 3839
  },
  {
    "dt": "2021.11.30 17:00",
    "o": 0.71597,
    "h": 0.71696,
    "l": 0.70888,
    "c": 0.7092,
    "v": 5448
  },
  {
    "dt": "2021.11.30 18:00",
    "o": 0.70916,
    "h": 0.71003,
    "l": 0.70622,
    "c": 0.70887,
    "v": 5645
  },
  {
    "dt": "2021.11.30 19:00",
    "o": 0.70887,
    "h": 0.71049,
    "l": 0.70787,
    "c": 0.71011,
    "v": 4205
  },
  {
    "dt": "2021.11.30 20:00",
    "o": 0.71018,
    "h": 0.71137,
    "l": 0.70959,
    "c": 0.71115,
    "v": 3261
  },
  {
    "dt": "2021.11.30 21:00",
    "o": 0.71116,
    "h": 0.71235,
    "l": 0.7111,
    "c": 0.71204,
    "v": 2905
  },
  {
    "dt": "2021.11.30 22:00",
    "o": 0.71205,
    "h": 0.71286,
    "l": 0.71189,
    "c": 0.71269,
    "v": 3265
  },
  {
    "dt": "2021.11.30 23:00",
    "o": 0.71264,
    "h": 0.71312,
    "l": 0.71236,
    "c": 0.71238,
    "v": 1150
  }
]