[
  {
    "dt": "2022.02.01 00:00",
    "o": 1.12309,
    "h": 1.12332,
    "l": 1.12293,
    "c": 1.123,
    "v": 194
  },
  {
    "dt": "2022.02.01 01:00",
    "o": 1.12301,
    "h": 1.12316,
    "l": 1.12283,
    "c": 1.12284,
    "v": 675
  },
  {
    "dt": "2022.02.01 02:00",
    "o": 1.12282,
    "h": 1.12296,
    "l": 1.12201,
    "c": 1.12232,
    "v": 1105
  },
  {
    "dt": "2022.02.01 03:00",
    "o": 1.12231,
    "h": 1.12276,
    "l": 1.1221,
    "c": 1.12254,
    "v": 1114
  },
  {
    "dt": "2022.02.01 04:00",
    "o": 1.12254,
    "h": 1.1232,
    "l": 1.12246,
    "c": 1.12319,
    "v": 932
  },
  {
    "dt": "2022.02.01 05:00",
    "o": 1.12318,
    "h": 1.12331,
    "l": 1.12251,
    "c": 1.12324,
    "v": 1440
  },
  {
    "dt": "2022.02.01 06:00",
    "o": 1.12324,
    "h": 1.1244,
    "l": 1.12324,
    "c": 1.12422,
    "v": 1128
  },
  {
    "dt": "2022.02.01 07:00",
    "o": 1.12423,
    "h": 1.12443,
    "l": 1.12389,
    "c": 1.12394,
    "v": 912
  },
  {
    "dt": "2022.02.01 08:00",
    "o": 1.12393,
    "h": 1.12417,
    "l": 1.12336,
    "c": 1.12338,
    "v": 1122
  },
  {
    "dt": "2022.02.01 09:00",
    "o": 1.12342,
    "h": 1.12671,
    "l": 1.12341,
    "c": 1.12656,
    "v": 2737
  },
  {
    "dt": "2022.02.01 10:00",
    "o": 1.12655,
    "h": 1.12687,
    "l": 1.12511,
    "c": 1.12566,
    "v": 2808
  },
  {
    "dt": "2022.02.01 11:00",
    "o": 1.12565,
    "h": 1.12664,
    "l": 1.12528,
    "c": 1.12605,
    "v": 3228
  },
  {
    "dt": "2022.02.01 12:00",
    "o": 1.12605,
    "h": 1.12666,
    "l": 1.12546,
    "c": 1.12612,
    "v": 2224
  },
  {
    "dt": "2022.02.01 13:00",
    "o": 1.12613,
    "h": 1.12779,
    "l": 1.12583,
    "c": 1.12723,
    "v": 2455
  },
  {
    "dt": "2022.02.01 14:00",
    "o": 1.12724,
    "h": 1.12727,
    "l": 1.12568,
    "c": 1.12605,
    "v": 2470
  },
  {
    "dt": "2022.02.01 15:00",
    "o": 1.12611,
    "h": 1.12675,
    "l": 1.12526,
    "c": 1.12651,
    "v": 2843
  },
  {
    "dt": "2022.02.01 16:00",
    "o": 1.12649,
    "h": 1.12736,
    "l": 1.12592,
    "c": 1.1263,
    "v": 3327
  },
  {
    "dt": "2022.02.01 17:00",
    "o": 1.12639,
    "h": 1.12641,
    "l": 1.12444,
    "c": 1.12465,
    "v": 4361
  },
  {
    "dt": "2022.02.01 18:00",
    "o": 1.12465,
    "h": 1.12533,
    "l": 1.12337,
    "c": 1.12383,
    "v": 3154
  },
  {
    "dt": "2022.02.01 19:00",
    "o": 1.12384,
    "h": 1.12485,
    "l": 1.12352,
    "c": 1.12442,
    "v": 1997
  },
  {
    "dt": "2022.02.01 20:00",
    "o": 1.12443,
    "h": 1.12492,
    "l": 1.12422,
    "c": 1.12478,
    "v": 1469
  },
  {
    "dt": "2022.02.01 21:00",
    "o": 1.12478,
    "h": 1.12567,
    "l": 1.12423,
    "c": 1.12524,
    "v": 1574
  },
  {
    "dt": "2022.02.01 22:00",
    "o": 1.12521,
    "h": 1.12697,
    "l": 1.1251,
    "c": 1.12679,
    "v": 1812
  },
  {
    "dt": "2022.02.01 23:00",
    "o": 1.12676,
    "h": 1.1273,
    "l": 1.1265,
    "c": 1.12683,
    "v": 872
  },
  {
    "dt": "2022.02.02 00:00",
    "o": 1.12678,
    "h": 1.12719,
    "l": 1.12678,
    "c": 1.12682,
    "v": 254
  },
  {
    "dt": "2022.02.02 01:00",
    "o": 1.12681,
    "h": 1.12731,
    "l": 1.12679,
    "c": 1.12722,
    "v": 619
  },
  {
    "dt": "2022.02.02 02:00",
    "o": 1.12721,
    "h": 1.1274,
    "l": 1.12672,
    "c": 1.12703,
    "v": 821
  },
  {
    "dt": "2022.02.02 03:00",
    "o": 1.12703,
    "h": 1.1276,
    "l": 1.127,
    "c": 1.12754,
    "v": 795
  },
  {
    "dt": "2022.02.02 04:00",
    "o": 1.12755,
    "h": 1.12771,
    "l": 1.1274,
    "c": 1.12767,
    "v": 763
  },
  {
    "dt": "2022.02.02 05:00",
    "o": 1.12768,
    "h": 1.12768,
    "l": 1.12699,
    "c": 1.12699,
    "v": 778
  },
  {
    "dt": "2022.02.02 06:00",
    "o": 1.12699,
    "h": 1.12751,
    "l": 1.12699,
    "c": 1.12738,
    "v": 549
  },
  {
    "dt": "2022.02.02 07:00",
    "o": 1.12738,
    "h": 1.1275,
    "l": 1.12702,
    "c": 1.12724,
    "v": 725
  },
  {
    "dt": "2022.02.02 08:00",
    "o": 1.12724,
    "h": 1.12738,
    "l": 1.12658,
    "c": 1.12685,
    "v": 1019
  },
  {
    "dt": "2022.02.02 09:00",
    "o": 1.12687,
    "h": 1.12834,
    "l": 1.12674,
    "c": 1.12804,
    "v": 1747
  },
  {
    "dt": "2022.02.02 10:00",
    "o": 1.12802,
    "h": 1.12934,
    "l": 1.12788,
    "c": 1.12887,
    "v": 2746
  },
  {
    "dt": "2022.02.02 11:00",
    "o": 1.12886,
    "h": 1.12937,
    "l": 1.12777,
    "c": 1.12925,
    "v": 2363
  },
  {
    "dt": "2022.02.02 12:00",
    "o": 1.12942,
    "h": 1.13135,
    "l": 1.12891,
    "c": 1.1308,
    "v": 2865
  },
  {
    "dt": "2022.02.02 13:00",
    "o": 1.13081,
    "h": 1.13192,
    "l": 1.1305,
    "c": 1.13155,
    "v": 2263
  },
  {
    "dt": "2022.02.02 14:00",
    "o": 1.13157,
    "h": 1.13276,
    "l": 1.13134,
    "c": 1.1324,
    "v": 2146
  },
  {
    "dt": "2022.02.02 15:00",
    "o": 1.13241,
    "h": 1.13292,
    "l": 1.13103,
    "c": 1.13107,
    "v": 3153
  },
  {
    "dt": "2022.02.02 16:00",
    "o": 1.13106,
    "h": 1.13204,
    "l": 1.13024,
    "c": 1.13038,
    "v": 3550
  },
  {
    "dt": "2022.02.02 17:00",
    "o": 1.13044,
    "h": 1.13092,
    "l": 1.12917,
    "c": 1.12959,
    "v": 3498
  },
  {
    "dt": "2022.02.02 18:00",
    "o": 1.1296,
    "h": 1.13011,
    "l": 1.12923,
    "c": 1.12986,
    "v": 2402
  },
  {
    "dt": "2022.02.02 19:00",
    "o": 1.12984,
    "h": 1.13114,
    "l": 1.12975,
    "c": 1.13105,
    "v": 1520
  },
  {
    "dt": "2022.02.02 20:00",
    "o": 1.13104,
    "h": 1.13136,
    "l": 1.13051,
    "c": 1.13085,
    "v": 1315
  },
  {
    "dt": "2022.02.02 21:00",
    "o": 1.13082,
    "h": 1.13115,
    "l": 1.13052,
    "c": 1.13093,
    "v": 1288
  },
  {
    "dt": "2022.02.02 22:00",
    "o": 1.13093,
    "h": 1.13132,
    "l": 1.13031,
    "c": 1.13045,
    "v": 1438
  },
  {
    "dt": "2022.02.02 23:00",
    "o": 1.13043,
    "h": 1.13073,
    "l": 1.1298,
    "c": 1.1299,
    "v": 616
  },
  {
    "dt": "2022.02.03 00:00",
    "o": 1.13009,
    "h": 1.13034,
    "l": 1.13007,
    "c": 1.13021,
    "v": 405
  },
  {
    "dt": "2022.02.03 01:00",
    "o": 1.13026,
    "h": 1.13045,
    "l": 1.12975,
    "c": 1.12986,
    "v": 763
  },
  {
    "dt": "2022.02.03 02:00",
    "o": 1.12985,
    "h": 1.12992,
    "l": 1.12942,
    "c": 1.12956,
    "v": 841
  },
  {
    "dt": "2022.02.03 03:00",
    "o": 1.12955,
    "h": 1.12995,
    "l": 1.12922,
    "c": 1.12992,
    "v": 915
  },
  {
    "dt": "2022.02.03 04:00",
    "o": 1.12991,
    "h": 1.13027,
    "l": 1.12966,
    "c": 1.12979,
    "v": 832
  },
  {
    "dt": "2022.02.03 05:00",
    "o": 1.1298,
    "h": 1.13074,
    "l": 1.12968,
    "c": 1.13039,
    "v": 879
  },
  {
    "dt": "2022.02.03 06:00",
    "o": 1.13035,
    "h": 1.13045,
    "l": 1.12938,
    "c": 1.12961,
    "v": 731
  },
  {
    "dt": "2022.02.03 07:00",
    "o": 1.12961,
    "h": 1.13012,
    "l": 1.12955,
    "c": 1.12998,
    "v": 864
  },
  {
    "dt": "2022.02.03 08:00",
    "o": 1.12999,
    "h": 1.13005,
    "l": 1.12897,
    "c": 1.12903,
    "v": 1007
  },
  {
    "dt": "2022.02.03 09:00",
    "o": 1.12904,
    "h": 1.12967,
    "l": 1.12872,
    "c": 1.12966,
    "v": 1875
  },
  {
    "dt": "2022.02.03 10:00",
    "o": 1.1296,
    "h": 1.13018,
    "l": 1.12876,
    "c": 1.12943,
    "v": 2702
  },
  {
    "dt": "2022.02.03 11:00",
    "o": 1.12944,
    "h": 1.12961,
    "l": 1.1283,
    "c": 1.12834,
    "v": 2195
  },
  {
    "dt": "2022.02.03 12:00",
    "o": 1.12831,
    "h": 1.12851,
    "l": 1.12755,
    "c": 1.12784,
    "v": 1934
  },
  {
    "dt": "2022.02.03 13:00",
    "o": 1.12784,
    "h": 1.12821,
    "l": 1.12745,
    "c": 1.12793,
    "v": 1827
  },
  {
    "dt": "2022.02.03 14:00",
    "o": 1.12805,
    "h": 1.12977,
    "l": 1.12667,
    "c": 1.12907,
    "v": 4132
  },
  {
    "dt": "2022.02.03 15:00",
    "o": 1.12906,
    "h": 1.13665,
    "l": 1.12785,
    "c": 1.13665,
    "v": 4887
  },
  {
    "dt": "2022.02.03 16:00",
    "o": 1.13662,
    "h": 1.1411,
    "l": 1.13616,
    "c": 1.13903,
    "v": 5516
  },
  {
    "dt": "2022.02.03 17:00",
    "o": 1.13896,
    "h": 1.14228,
    "l": 1.13852,
    "c": 1.14166,
    "v": 4753
  },
  {
    "dt": "2022.02.03 18:00",
    "o": 1.14165,
    "h": 1.14507,
    "l": 1.14136,
    "c": 1.14247,
    "v": 3797
  },
  {
    "dt": "2022.02.03 19:00",
    "o": 1.14245,
    "h": 1.14446,
    "l": 1.14192,
    "c": 1.1443,
    "v": 2940
  },
  {
    "dt": "2022.02.03 20:00",
    "o": 1.14426,
    "h": 1.14434,
    "l": 1.14253,
    "c": 1.14421,
    "v": 2080
  },
  {
    "dt": "2022.02.03 21:00",
    "o": 1.14418,
    "h": 1.14489,
    "l": 1.14295,
    "c": 1.14325,
    "v": 2100
  },
  {
    "dt": "2022.02.03 22:00",
    "o": 1.14322,
    "h": 1.14354,
    "l": 1.14275,
    "c": 1.14292,
    "v": 1679
  },
  {
    "dt": "2022.02.03 23:00",
    "o": 1.14293,
    "h": 1.14386,
    "l": 1.14284,
    "c": 1.1436,
    "v": 954
  },
  {
    "dt": "2022.02.04 00:00",
    "o": 1.14338,
    "h": 1.14395,
    "l": 1.14317,
    "c": 1.14384,
    "v": 560
  },
  {
    "dt": "2022.02.04 01:00",
    "o": 1.14387,
    "h": 1.14413,
    "l": 1.14343,
    "c": 1.14344,
    "v": 679
  },
  {
    "dt": "2022.02.04 02:00",
    "o": 1.1434,
    "h": 1.14452,
    "l": 1.14312,
    "c": 1.14452,
    "v": 1246
  },
  {
    "dt": "2022.02.04 03:00",
    "o": 1.14451,
    "h": 1.14531,
    "l": 1.1444,
    "c": 1.14512,
    "v": 1563
  },
  {
    "dt": "2022.02.04 04:00",
    "o": 1.14511,
    "h": 1.14628,
    "l": 1.14482,
    "c": 1.14624,
    "v": 1555
  },
  {
    "dt": "2022.02.04 05:00",
    "o": 1.14623,
    "h": 1.1468,
    "l": 1.14585,
    "c": 1.14614,
    "v": 1305
  },
  {
    "dt": "2022.02.04 06:00",
    "o": 1.14613,
    "h": 1.1471,
    "l": 1.14585,
    "c": 1.14652,
    "v": 1138
  },
  {
    "dt": "2022.02.04 07:00",
    "o": 1.14652,
    "h": 1.14678,
    "l": 1.14586,
    "c": 1.14593,
    "v": 1067
  },
  {
    "dt": "2022.02.04 08:00",
    "o": 1.14591,
    "h": 1.14605,
    "l": 1.14532,
    "c": 1.14559,
    "v": 1433
  },
  {
    "dt": "2022.02.04 09:00",
    "o": 1.14557,
    "h": 1.14679,
    "l": 1.14505,
    "c": 1.14664,
    "v": 2816
  },
  {
    "dt": "2022.02.04 10:00",
    "o": 1.14663,
    "h": 1.14663,
    "l": 1.1439,
    "c": 1.14593,
    "v": 3401
  },
  {
    "dt": "2022.02.04 11:00",
    "o": 1.14593,
    "h": 1.14646,
    "l": 1.14487,
    "c": 1.14624,
    "v": 2852
  },
  {
    "dt": "2022.02.04 12:00",
    "o": 1.14625,
    "h": 1.14746,
    "l": 1.14581,
    "c": 1.14622,
    "v": 3156
  },
  {
    "dt": "2022.02.04 13:00",
    "o": 1.14621,
    "h": 1.1483,
    "l": 1.14562,
    "c": 1.14778,
    "v": 2898
  },
  {
    "dt": "2022.02.04 14:00",
    "o": 1.14777,
    "h": 1.14811,
    "l": 1.14642,
    "c": 1.14647,
    "v": 2586
  },
  {
    "dt": "2022.02.04 15:00",
    "o": 1.14651,
    "h": 1.14674,
    "l": 1.14211,
    "c": 1.14356,
    "v": 4569
  },
  {
    "dt": "2022.02.04 16:00",
    "o": 1.14355,
    "h": 1.14572,
    "l": 1.14145,
    "c": 1.14151,
    "v": 5035
  },
  {
    "dt": "2022.02.04 17:00",
    "o": 1.14149,
    "h": 1.14423,
    "l": 1.14108,
    "c": 1.14412,
    "v": 4397
  },
  {
    "dt": "2022.02.04 18:00",
    "o": 1.14411,
    "h": 1.14549,
    "l": 1.14353,
    "c": 1.14512,
    "v": 3061
  },
  {
    "dt": "2022.02.04 19:00",
    "o": 1.14513,
    "h": 1.14618,
    "l": 1.14513,
    "c": 1.14535,
    "v": 1982
  },
  {
    "dt": "2022.02.04 20:00",
    "o": 1.1454,
    "h": 1.14633,
    "l": 1.14508,
    "c": 1.14539,
    "v": 1511
  },
  {
    "dt": "2022.02.04 21:00",
    "o": 1.14539,
    "h": 1.14572,
    "l": 1.14466,
    "c": 1.14472,
    "v": 1496
  },
  {
    "dt": "2022.02.04 22:00",
    "o": 1.14474,
    "h": 1.1459,
    "l": 1.14469,
    "c": 1.14542,
    "v": 1688
  },
  {
    "dt": "2022.02.04 23:00",
    "o": 1.14537,
    "h": 1.14549,
    "l": 1.14483,
    "c": 1.14484,
    "v": 611
  },
  {
    "dt": "2022.02.07 00:00",
    "o": 1.14642,
    "h": 1.14642,
    "l": 1.14526,
    "c": 1.14538,
    "v": 576
  },
  {
    "dt": "2022.02.07 01:00",
    "o": 1.14556,
    "h": 1.14576,
    "l": 1.14506,
    "c": 1.14537,
    "v": 949
  },
  {
    "dt": "2022.02.07 02:00",
    "o": 1.1454,
    "h": 1.14551,
    "l": 1.14497,
    "c": 1.14521,
    "v": 1156
  },
  {
    "dt": "2022.02.07 03:00",
    "o": 1.14522,
    "h": 1.14529,
    "l": 1.14386,
    "c": 1.14407,
    "v": 1576
  },
  {
    "dt": "2022.02.07 04:00",
    "o": 1.14407,
    "h": 1.14418,
    "l": 1.14263,
    "c": 1.1427,
    "v": 1401
  },
  {
    "dt": "2022.02.07 05:00",
    "o": 1.14269,
    "h": 1.14327,
    "l": 1.14239,
    "c": 1.1432,
    "v": 1031
  },
  {
    "dt": "2022.02.07 06:00",
    "o": 1.1432,
    "h": 1.14397,
    "l": 1.14314,
    "c": 1.14378,
    "v": 866
  },
  {
    "dt": "2022.02.07 07:00",
    "o": 1.14379,
    "h": 1.14395,
    "l": 1.14291,
    "c": 1.14297,
    "v": 1150
  },
  {
    "dt": "2022.02.07 08:00",
    "o": 1.14298,
    "h": 1.14353,
    "l": 1.14281,
    "c": 1.14301,
    "v": 1259
  },
  {
    "dt": "2022.02.07 09:00",
    "o": 1.14297,
    "h": 1.14344,
    "l": 1.14248,
    "c": 1.14315,
    "v": 2362
  },
  {
    "dt": "2022.02.07 10:00",
    "o": 1.14319,
    "h": 1.14484,
    "l": 1.14261,
    "c": 1.14332,
    "v": 3377
  },
  {
    "dt": "2022.02.07 11:00",
    "o": 1.14332,
    "h": 1.14335,
    "l": 1.14143,
    "c": 1.14227,
    "v": 2735
  },
  {
    "dt": "2022.02.07 12:00",
    "o": 1.14225,
    "h": 1.14298,
    "l": 1.14154,
    "c": 1.14201,
    "v": 2277
  },
  {
    "dt": "2022.02.07 13:00",
    "o": 1.14202,
    "h": 1.14455,
    "l": 1.14198,
    "c": 1.14425,
    "v": 2521
  },
  {
    "dt": "2022.02.07 14:00",
    "o": 1.14423,
    "h": 1.1458,
    "l": 1.14413,
    "c": 1.14544,
    "v": 2713
  },
  {
    "dt": "2022.02.07 15:00",
    "o": 1.14541,
    "h": 1.14559,
    "l": 1.14286,
    "c": 1.14389,
    "v": 3272
  },
  {
    "dt": "2022.02.07 16:00",
    "o": 1.14389,
    "h": 1.14451,
    "l": 1.14195,
    "c": 1.14374,
    "v": 3644
  },
  {
    "dt": "2022.02.07 17:00",
    "o": 1.14374,
    "h": 1.14502,
    "l": 1.14292,
    "c": 1.14425,
    "v": 3518
  },
  {
    "dt": "2022.02.07 18:00",
    "o": 1.14426,
    "h": 1.145,
    "l": 1.14196,
    "c": 1.14331,
    "v": 3426
  },
  {
    "dt": "2022.02.07 19:00",
    "o": 1.14331,
    "h": 1.14332,
    "l": 1.14166,
    "c": 1.14178,
    "v": 1768
  },
  {
    "dt": "2022.02.07 20:00",
    "o": 1.14178,
    "h": 1.1426,
    "l": 1.14164,
    "c": 1.14257,
    "v": 1273
  },
  {
    "dt": "2022.02.07 21:00",
    "o": 1.14257,
    "h": 1.1443,
    "l": 1.14245,
    "c": 1.14423,
    "v": 1411
  },
  {
    "dt": "2022.02.07 22:00",
    "o": 1.14415,
    "h": 1.14415,
    "l": 1.14352,
    "c": 1.14373,
    "v": 1508
  },
  {
    "dt": "2022.02.07 23:00",
    "o": 1.14373,
    "h": 1.14408,
    "l": 1.14356,
    "c": 1.14402,
    "v": 757
  },
  {
    "dt": "2022.02.08 00:00",
    "o": 1.14394,
    "h": 1.14429,
    "l": 1.14365,
    "c": 1.14406,
    "v": 360
  },
  {
    "dt": "2022.02.08 01:00",
    "o": 1.14375,
    "h": 1.14409,
    "l": 1.14326,
    "c": 1.14408,
    "v": 810
  },
  {
    "dt": "2022.02.08 02:00",
    "o": 1.14408,
    "h": 1.1442,
    "l": 1.14353,
    "c": 1.14419,
    "v": 844
  },
  {
    "dt": "2022.02.08 03:00",
    "o": 1.14418,
    "h": 1.14479,
    "l": 1.14346,
    "c": 1.14349,
    "v": 1154
  },
  {
    "dt": "2022.02.08 04:00",
    "o": 1.14347,
    "h": 1.1435,
    "l": 1.14261,
    "c": 1.14294,
    "v": 1242
  },
  {
    "dt": "2022.02.08 05:00",
    "o": 1.14291,
    "h": 1.14314,
    "l": 1.14283,
    "c": 1.14292,
    "v": 644
  },
  {
    "dt": "2022.02.08 06:00",
    "o": 1.14293,
    "h": 1.143,
    "l": 1.14208,
    "c": 1.14229,
    "v": 782
  },
  {
    "dt": "2022.02.08 07:00",
    "o": 1.14229,
    "h": 1.14242,
    "l": 1.14145,
    "c": 1.14161,
    "v": 1244
  },
  {
    "dt": "2022.02.08 08:00",
    "o": 1.14161,
    "h": 1.14226,
    "l": 1.14129,
    "c": 1.1419,
    "v": 1208
  },
  {
    "dt": "2022.02.08 09:00",
    "o": 1.14188,
    "h": 1.14198,
    "l": 1.13955,
    "c": 1.13985,
    "v": 2816
  },
  {
    "dt": "2022.02.08 10:00",
    "o": 1.1398,
    "h": 1.14084,
    "l": 1.13972,
    "c": 1.14042,
    "v": 3075
  },
  {
    "dt": "2022.02.08 11:00",
    "o": 1.14044,
    "h": 1.14077,
    "l": 1.13971,
    "c": 1.1405,
    "v": 2465
  },
  {
    "dt": "2022.02.08 12:00",
    "o": 1.14049,
    "h": 1.14275,
    "l": 1.14016,
    "c": 1.14271,
    "v": 2345
  },
  {
    "dt": "2022.02.08 13:00",
    "o": 1.14272,
    "h": 1.14326,
    "l": 1.14217,
    "c": 1.14252,
    "v": 2446
  },
  {
    "dt": "2022.02.08 14:00",
    "o": 1.14253,
    "h": 1.14264,
    "l": 1.14143,
    "c": 1.14172,
    "v": 2261
  },
  {
    "dt": "2022.02.08 15:00",
    "o": 1.14168,
    "h": 1.14168,
    "l": 1.13996,
    "c": 1.1408,
    "v": 2980
  },
  {
    "dt": "2022.02.08 16:00",
    "o": 1.14079,
    "h": 1.14228,
    "l": 1.1405,
    "c": 1.14078,
    "v": 3148
  },
  {
    "dt": "2022.02.08 17:00",
    "o": 1.14078,
    "h": 1.1421,
    "l": 1.14023,
    "c": 1.14175,
    "v": 3243
  },
  {
    "dt": "2022.02.08 18:00",
    "o": 1.14174,
    "h": 1.142,
    "l": 1.14089,
    "c": 1.1414,
    "v": 2207
  },
  {
    "dt": "2022.02.08 19:00",
    "o": 1.14139,
    "h": 1.14227,
    "l": 1.14138,
    "c": 1.14195,
    "v": 1334
  },
  {
    "dt": "2022.02.08 20:00",
    "o": 1.14195,
    "h": 1.14221,
    "l": 1.14008,
    "c": 1.14217,
    "v": 1451
  },
  {
    "dt": "2022.02.08 21:00",
    "o": 1.14218,
    "h": 1.14231,
    "l": 1.14106,
    "c": 1.14135,
    "v": 1156
  },
  {
    "dt": "2022.02.08 22:00",
    "o": 1.14134,
    "h": 1.14198,
    "l": 1.14122,
    "c": 1.14182,
    "v": 1020
  },
  {
    "dt": "2022.02.08 23:00",
    "o": 1.14182,
    "h": 1.14195,
    "l": 1.14108,
    "c": 1.14108,
    "v": 449
  },
  {
    "dt": "2022.02.09 00:00",
    "o": 1.1411,
    "h": 1.14188,
    "l": 1.1411,
    "c": 1.14155,
    "v": 381
  },
  {
    "dt": "2022.02.09 01:00",
    "o": 1.14152,
    "h": 1.14202,
    "l": 1.14139,
    "c": 1.142,
    "v": 677
  },
  {
    "dt": "2022.02.09 02:00",
    "o": 1.14197,
    "h": 1.14226,
    "l": 1.14113,
    "c": 1.14124,
    "v": 781
  },
  {
    "dt": "2022.02.09 03:00",
    "o": 1.14125,
    "h": 1.14222,
    "l": 1.14113,
    "c": 1.14221,
    "v": 914
  },
  {
    "dt": "2022.02.09 04:00",
    "o": 1.1422,
    "h": 1.1431,
    "l": 1.1422,
    "c": 1.14309,
    "v": 923
  },
  {
    "dt": "2022.02.09 05:00",
    "o": 1.14309,
    "h": 1.14317,
    "l": 1.14268,
    "c": 1.14292,
    "v": 658
  },
  {
    "dt": "2022.02.09 06:00",
    "o": 1.1429,
    "h": 1.14307,
    "l": 1.14244,
    "c": 1.1426,
    "v": 482
  },
  {
    "dt": "2022.02.09 07:00",
    "o": 1.1426,
    "h": 1.14269,
    "l": 1.1421,
    "c": 1.14213,
    "v": 586
  },
  {
    "dt": "2022.02.09 08:00",
    "o": 1.14212,
    "h": 1.14251,
    "l": 1.14167,
    "c": 1.14171,
    "v": 833
  },
  {
    "dt": "2022.02.09 09:00",
    "o": 1.14172,
    "h": 1.14205,
    "l": 1.14018,
    "c": 1.14082,
    "v": 2045
  },
  {
    "dt": "2022.02.09 10:00",
    "o": 1.14082,
    "h": 1.14266,
    "l": 1.14076,
    "c": 1.14214,
    "v": 2648
  },
  {
    "dt": "2022.02.09 11:00",
    "o": 1.14215,
    "h": 1.1427,
    "l": 1.1417,
    "c": 1.14256,
    "v": 2020
  },
  {
    "dt": "2022.02.09 12:00",
    "o": 1.14256,
    "h": 1.14441,
    "l": 1.14224,
    "c": 1.14408,
    "v": 2280
  },
  {
    "dt": "2022.02.09 13:00",
    "o": 1.14408,
    "h": 1.14408,
    "l": 1.14273,
    "c": 1.14287,
    "v": 1918
  },
  {
    "dt": "2022.02.09 14:00",
    "o": 1.14287,
    "h": 1.14404,
    "l": 1.14287,
    "c": 1.14366,
    "v": 2027
  },
  {
    "dt": "2022.02.09 15:00",
    "o": 1.14367,
    "h": 1.1445,
    "l": 1.14289,
    "c": 1.14348,
    "v": 2780
  },
  {
    "dt": "2022.02.09 16:00",
    "o": 1.14347,
    "h": 1.14366,
    "l": 1.14247,
    "c": 1.14307,
    "v": 3050
  },
  {
    "dt": "2022.02.09 17:00",
    "o": 1.14308,
    "h": 1.14406,
    "l": 1.14264,
    "c": 1.14275,
    "v": 2984
  },
  {
    "dt": "2022.02.09 18:00",
    "o": 1.14274,
    "h": 1.14402,
    "l": 1.14253,
    "c": 1.14337,
    "v": 2037
  },
  {
    "dt": "2022.02.09 19:00",
    "o": 1.14337,
    "h": 1.14469,
    "l": 1.14252,
    "c": 1.14366,
    "v": 2393
  },
  {
    "dt": "2022.02.09 20:00",
    "o": 1.14364,
    "h": 1.14395,
    "l": 1.14274,
    "c": 1.14316,
    "v": 1787
  },
  {
    "dt": "2022.02.09 21:00",
    "o": 1.14318,
    "h": 1.14325,
    "l": 1.14262,
    "c": 1.14314,
    "v": 1138
  },
  {
    "dt": "2022.02.09 22:00",
    "o": 1.14313,
    "h": 1.14327,
    "l": 1.14194,
    "c": 1.14244,
    "v": 1432
  },
  {
    "dt": "2022.02.09 23:00",
    "o": 1.14242,
    "h": 1.14257,
    "l": 1.14212,
    "c": 1.14218,
    "v": 704
  },
  {
    "dt": "2022.02.10 00:00",
    "o": 1.14214,
    "h": 1.14242,
    "l": 1.14195,
    "c": 1.14201,
    "v": 582
  },
  {
    "dt": "2022.02.10 01:00",
    "o": 1.14206,
    "h": 1.14225,
    "l": 1.14192,
    "c": 1.14204,
    "v": 634
  },
  {
    "dt": "2022.02.10 02:00",
    "o": 1.14203,
    "h": 1.1422,
    "l": 1.14123,
    "c": 1.14164,
    "v": 820
  },
  {
    "dt": "2022.02.10 03:00",
    "o": 1.14167,
    "h": 1.14198,
    "l": 1.14162,
    "c": 1.14187,
    "v": 980
  },
  {
    "dt": "2022.02.10 04:00",
    "o": 1.14187,
    "h": 1.14287,
    "l": 1.14169,
    "c": 1.14282,
    "v": 935
  },
  {
    "dt": "2022.02.10 05:00",
    "o": 1.14281,
    "h": 1.14291,
    "l": 1.14242,
    "c": 1.14277,
    "v": 824
  },
  {
    "dt": "2022.02.10 06:00",
    "o": 1.14278,
    "h": 1.14307,
    "l": 1.1422,
    "c": 1.14242,
    "v": 728
  },
  {
    "dt": "2022.02.10 07:00",
    "o": 1.14243,
    "h": 1.1426,
    "l": 1.14228,
    "c": 1.14252,
    "v": 649
  },
  {
    "dt": "2022.02.10 08:00",
    "o": 1.14254,
    "h": 1.14272,
    "l": 1.14196,
    "c": 1.14219,
    "v": 956
  },
  {
    "dt": "2022.02.10 09:00",
    "o": 1.14219,
    "h": 1.14281,
    "l": 1.14187,
    "c": 1.14281,
    "v": 1849
  },
  {
    "dt": "2022.02.10 10:00",
    "o": 1.14283,
    "h": 1.14327,
    "l": 1.14218,
    "c": 1.14325,
    "v": 2569
  },
  {
    "dt": "2022.02.10 11:00",
    "o": 1.14324,
    "h": 1.14456,
    "l": 1.14318,
    "c": 1.14426,
    "v": 2603
  },
  {
    "dt": "2022.02.10 12:00",
    "o": 1.14427,
    "h": 1.14448,
    "l": 1.14335,
    "c": 1.14349,
    "v": 2063
  },
  {
    "dt": "2022.02.10 13:00",
    "o": 1.14351,
    "h": 1.14399,
    "l": 1.14304,
    "c": 1.14311,
    "v": 1988
  },
  {
    "dt": "2022.02.10 14:00",
    "o": 1.14311,
    "h": 1.14384,
    "l": 1.14292,
    "c": 1.14356,
    "v": 1994
  },
  {
    "dt": "2022.02.10 15:00",
    "o": 1.14356,
    "h": 1.14408,
    "l": 1.13816,
    "c": 1.14067,
    "v": 4138
  },
  {
    "dt": "2022.02.10 16:00",
    "o": 1.14059,
    "h": 1.14091,
    "l": 1.1374,
    "c": 1.14067,
    "v": 4854
  },
  {
    "dt": "2022.02.10 17:00",
    "o": 1.14069,
    "h": 1.14728,
    "l": 1.14069,
    "c": 1.14661,
    "v": 5033
  },
  {
    "dt": "2022.02.10 18:00",
    "o": 1.14663,
    "h": 1.14941,
    "l": 1.14645,
    "c": 1.1488,
    "v": 4181
  },
  {
    "dt": "2022.02.10 19:00",
    "o": 1.1488,
    "h": 1.1488,
    "l": 1.14467,
    "c": 1.14639,
    "v": 3327
  },
  {
    "dt": "2022.02.10 20:00",
    "o": 1.14645,
    "h": 1.14743,
    "l": 1.14594,
    "c": 1.14642,
    "v": 3855
  },
  {
    "dt": "2022.02.10 21:00",
    "o": 1.1464,
    "h": 1.14648,
    "l": 1.14459,
    "c": 1.14487,
    "v": 2637
  },
  {
    "dt": "2022.02.10 22:00",
    "o": 1.14485,
    "h": 1.14542,
    "l": 1.14305,
    "c": 1.14306,
    "v": 2499
  },
  {
    "dt": "2022.02.10 23:00",
    "o": 1.14307,
    "h": 1.14325,
    "l": 1.14064,
    "c": 1.14271,
    "v": 1516
  },
  {
    "dt": "2022.02.11 00:00",
    "o": 1.1427,
    "h": 1.1429,
    "l": 1.1425,
    "c": 1.14269,
    "v": 244
  },
  {
    "dt": "2022.02.11 01:00",
    "o": 1.14267,
    "h": 1.14269,
    "l": 1.1401,
    "c": 1.14104,
    "v": 1537
  },
  {
    "dt": "2022.02.11 02:00",
    "o": 1.14103,
    "h": 1.14112,
    "l": 1.13852,
    "c": 1.13986,
    "v": 1878
  },
  {
    "dt": "2022.02.11 03:00",
    "o": 1.13983,
    "h": 1.14052,
    "l": 1.13936,
    "c": 1.14017,
    "v": 1452
  },
  {
    "dt": "2022.02.11 04:00",
    "o": 1.14016,
    "h": 1.14061,
    "l": 1.13951,
    "c": 1.14022,
    "v": 1086
  },
  {
    "dt": "2022.02.11 05:00",
    "o": 1.14017,
    "h": 1.14018,
    "l": 1.13917,
    "c": 1.13921,
    "v": 896
  },
  {
    "dt": "2022.02.11 06:00",
    "o": 1.13918,
    "h": 1.13922,
    "l": 1.13741,
    "c": 1.13802,
    "v": 1493
  },
  {
    "dt": "2022.02.11 07:00",
    "o": 1.13802,
    "h": 1.13878,
    "l": 1.13796,
    "c": 1.13858,
    "v": 1009
  },
  {
    "dt": "2022.02.11 08:00",
    "o": 1.13857,
    "h": 1.13865,
    "l": 1.13692,
    "c": 1.1375,
    "v": 1213
  },
  {
    "dt": "2022.02.11 09:00",
    "o": 1.13753,
    "h": 1.13912,
    "l": 1.13718,
    "c": 1.13843,
    "v": 2861
  },
  {
    "dt": "2022.02.11 10:00",
    "o": 1.1384,
    "h": 1.1397,
    "l": 1.13773,
    "c": 1.13923,
    "v": 3511
  },
  {
    "dt": "2022.02.11 11:00",
    "o": 1.13923,
    "h": 1.13949,
    "l": 1.13815,
    "c": 1.13853,
    "v": 2856
  },
  {
    "dt": "2022.02.11 12:00",
    "o": 1.13852,
    "h": 1.13988,
    "l": 1.1383,
    "c": 1.13971,
    "v": 2008
  },
  {
    "dt": "2022.02.11 13:00",
    "o": 1.1397,
    "h": 1.13984,
    "l": 1.13894,
    "c": 1.1394,
    "v": 1950
  },
  {
    "dt": "2022.02.11 14:00",
    "o": 1.13943,
    "h": 1.1414,
    "l": 1.1391,
    "c": 1.14055,
    "v": 2735
  },
  {
    "dt": "2022.02.11 15:00",
    "o": 1.14055,
    "h": 1.14172,
    "l": 1.13888,
    "c": 1.13893,
    "v": 3273
  },
  {
    "dt": "2022.02.11 16:00",
    "o": 1.13894,
    "h": 1.13995,
    "l": 1.13794,
    "c": 1.13882,
    "v": 3578
  },
  {
    "dt": "2022.02.11 17:00",
    "o": 1.13882,
    "h": 1.14046,
    "l": 1.13828,
    "c": 1.14014,
    "v": 4008
  },
  {
    "dt": "2022.02.11 18:00",
    "o": 1.14015,
    "h": 1.14073,
    "l": 1.13915,
    "c": 1.14039,
    "v": 2995
  },
  {
    "dt": "2022.02.11 19:00",
    "o": 1.14041,
    "h": 1.14069,
    "l": 1.13928,
    "c": 1.13956,
    "v": 2150
  },
  {
    "dt": "2022.02.11 20:00",
    "o": 1.13955,
    "h": 1.13986,
    "l": 1.13405,
    "c": 1.13498,
    "v": 3797
  },
  {
    "dt": "2022.02.11 21:00",
    "o": 1.13494,
    "h": 1.13637,
    "l": 1.1329,
    "c": 1.13332,
    "v": 5585
  },
  {
    "dt": "2022.02.11 22:00",
    "o": 1.13331,
    "h": 1.13513,
    "l": 1.13305,
    "c": 1.13401,
    "v": 4187
  },
  {
    "dt": "2022.02.11 23:00",
    "o": 1.13399,
    "h": 1.13506,
    "l": 1.13395,
    "c": 1.1348,
    "v": 1309
  },
  {
    "dt": "2022.02.14 00:00",
    "o": 1.13377,
    "h": 1.13455,
    "l": 1.13361,
    "c": 1.13404,
    "v": 1474
  },
  {
    "dt": "2022.02.14 01:00",
    "o": 1.13427,
    "h": 1.1366,
    "l": 1.13422,
    "c": 1.13635,
    "v": 1435
  },
  {
    "dt": "2022.02.14 02:00",
    "o": 1.13636,
    "h": 1.13681,
    "l": 1.13582,
    "c": 1.13616,
    "v": 1415
  },
  {
    "dt": "2022.02.14 03:00",
    "o": 1.13613,
    "h": 1.13642,
    "l": 1.13512,
    "c": 1.13527,
    "v": 1939
  },
  {
    "dt": "2022.02.14 04:00",
    "o": 1.13526,
    "h": 1.13527,
    "l": 1.13396,
    "c": 1.13423,
    "v": 1525
  },
  {
    "dt": "2022.02.14 05:00",
    "o": 1.13423,
    "h": 1.13473,
    "l": 1.13404,
    "c": 1.13423,
    "v": 1445
  },
  {
    "dt": "2022.02.14 06:00",
    "o": 1.1342,
    "h": 1.13476,
    "l": 1.13405,
    "c": 1.13444,
    "v": 1211
  },
  {
    "dt": "2022.02.14 07:00",
    "o": 1.13443,
    "h": 1.13514,
    "l": 1.13411,
    "c": 1.13506,
    "v": 1054
  },
  {
    "dt": "2022.02.14 08:00",
    "o": 1.13502,
    "h": 1.13511,
    "l": 1.1338,
    "c": 1.13435,
    "v": 1423
  },
  {
    "dt": "2022.02.14 09:00",
    "o": 1.13434,
    "h": 1.13489,
    "l": 1.1335,
    "c": 1.13373,
    "v": 2954
  },
  {
    "dt": "2022.02.14 10:00",
    "o": 1.13368,
    "h": 1.13424,
    "l": 1.13029,
    "c": 1.13084,
    "v": 4234
  },
  {
    "dt": "2022.02.14 11:00",
    "o": 1.13083,
    "h": 1.13208,
    "l": 1.13073,
    "c": 1.13111,
    "v": 3183
  },
  {
    "dt": "2022.02.14 12:00",
    "o": 1.1311,
    "h": 1.13172,
    "l": 1.13006,
    "c": 1.13126,
    "v": 2733
  },
  {
    "dt": "2022.02.14 13:00",
    "o": 1.13132,
    "h": 1.13132,
    "l": 1.12999,
    "c": 1.13102,
    "v": 2160
  },
  {
    "dt": "2022.02.14 14:00",
    "o": 1.13098,
    "h": 1.13415,
    "l": 1.13011,
    "c": 1.13262,
    "v": 3643
  },
  {
    "dt": "2022.02.14 15:00",
    "o": 1.13265,
    "h": 1.13303,
    "l": 1.13102,
    "c": 1.13143,
    "v": 4362
  },
  {
    "dt": "2022.02.14 16:00",
    "o": 1.13139,
    "h": 1.13203,
    "l": 1.13041,
    "c": 1.13193,
    "v": 4010
  },
  {
    "dt": "2022.02.14 17:00",
    "o": 1.13191,
    "h": 1.13191,
    "l": 1.12907,
    "c": 1.13047,
    "v": 4183
  },
  {
    "dt": "2022.02.14 18:00",
    "o": 1.13051,
    "h": 1.13136,
    "l": 1.12952,
    "c": 1.13054,
    "v": 3598
  },
  {
    "dt": "2022.02.14 19:00",
    "o": 1.13053,
    "h": 1.13128,
    "l": 1.12979,
    "c": 1.13089,
    "v": 2135
  },
  {
    "dt": "2022.02.14 20:00",
    "o": 1.13092,
    "h": 1.13134,
    "l": 1.1296,
    "c": 1.12965,
    "v": 2444
  },
  {
    "dt": "2022.02.14 21:00",
    "o": 1.12966,
    "h": 1.13008,
    "l": 1.1279,
    "c": 1.12938,
    "v": 4043
  },
  {
    "dt": "2022.02.14 22:00",
    "o": 1.12937,
    "h": 1.13036,
    "l": 1.12921,
    "c": 1.12933,
    "v": 2499
  },
  {
    "dt": "2022.02.14 23:00",
    "o": 1.12935,
    "h": 1.13068,
    "l": 1.12934,
    "c": 1.13054,
    "v": 960
  },
  {
    "dt": "2022.02.15 00:00",
    "o": 1.13056,
    "h": 1.13056,
    "l": 1.12954,
    "c": 1.13036,
    "v": 329
  },
  {
    "dt": "2022.02.15 01:00",
    "o": 1.13038,
    "h": 1.13067,
    "l": 1.1303,
    "c": 1.13049,
    "v": 675
  },
  {
    "dt": "2022.02.15 02:00",
    "o": 1.13052,
    "h": 1.13123,
    "l": 1.13023,
    "c": 1.13109,
    "v": 1171
  },
  {
    "dt": "2022.02.15 03:00",
    "o": 1.13109,
    "h": 1.13137,
    "l": 1.13077,
    "c": 1.13097,
    "v": 1364
  },
  {
    "dt": "2022.02.15 04:00",
    "o": 1.13096,
    "h": 1.13215,
    "l": 1.13082,
    "c": 1.1318,
    "v": 1356
  },
  {
    "dt": "2022.02.15 05:00",
    "o": 1.13179,
    "h": 1.13216,
    "l": 1.13144,
    "c": 1.13164,
    "v": 1462
  },
  {
    "dt": "2022.02.15 06:00",
    "o": 1.13161,
    "h": 1.13197,
    "l": 1.13154,
    "c": 1.13182,
    "v": 965
  },
  {
    "dt": "2022.02.15 07:00",
    "o": 1.13181,
    "h": 1.13201,
    "l": 1.1314,
    "c": 1.13164,
    "v": 1471
  },
  {
    "dt": "2022.02.15 08:00",
    "o": 1.13165,
    "h": 1.13229,
    "l": 1.13128,
    "c": 1.1321,
    "v": 1672
  },
  {
    "dt": "2022.02.15 09:00",
    "o": 1.1321,
    "h": 1.13272,
    "l": 1.13107,
    "c": 1.13117,
    "v": 2296
  },
  {
    "dt": "2022.02.15 10:00",
    "o": 1.13116,
    "h": 1.13481,
    "l": 1.13085,
    "c": 1.13453,
    "v": 4214
  },
  {
    "dt": "2022.02.15 11:00",
    "o": 1.13452,
    "h": 1.13492,
    "l": 1.13354,
    "c": 1.13452,
    "v": 3012
  },
  {
    "dt": "2022.02.15 12:00",
    "o": 1.13454,
    "h": 1.13529,
    "l": 1.13375,
    "c": 1.13471,
    "v": 3025
  },
  {
    "dt": "2022.02.15 13:00",
    "o": 1.1347,
    "h": 1.13519,
    "l": 1.134,
    "c": 1.13447,
    "v": 2633
  },
  {
    "dt": "2022.02.15 14:00",
    "o": 1.13457,
    "h": 1.13496,
    "l": 1.13357,
    "c": 1.13396,
    "v": 2805
  },
  {
    "dt": "2022.02.15 15:00",
    "o": 1.134,
    "h": 1.13591,
    "l": 1.13397,
    "c": 1.1355,
    "v": 3212
  },
  {
    "dt": "2022.02.15 16:00",
    "o": 1.13547,
    "h": 1.13582,
    "l": 1.13194,
    "c": 1.13209,
    "v": 3982
  },
  {
    "dt": "2022.02.15 17:00",
    "o": 1.1321,
    "h": 1.13565,
    "l": 1.1321,
    "c": 1.13539,
    "v": 3797
  },
  {
    "dt": "2022.02.15 18:00",
    "o": 1.13541,
    "h": 1.13674,
    "l": 1.13537,
    "c": 1.13615,
    "v": 2993
  },
  {
    "dt": "2022.02.15 19:00",
    "o": 1.13615,
    "h": 1.1362,
    "l": 1.13452,
    "c": 1.13579,
    "v": 2053
  },
  {
    "dt": "2022.02.15 20:00",
    "o": 1.13576,
    "h": 1.13634,
    "l": 1.13546,
    "c": 1.13546,
    "v": 1318
  },
  {
    "dt": "2022.02.15 21:00",
    "o": 1.13545,
    "h": 1.1363,
    "l": 1.13536,
    "c": 1.13586,
    "v": 1403
  },
  {
    "dt": "2022.02.15 22:00",
    "o": 1.13592,
    "h": 1.13628,
    "l": 1.13536,
    "c": 1.13574,
    "v": 1786
  },
  {
    "dt": "2022.02.15 23:00",
    "o": 1.13573,
    "h": 1.13589,
    "l": 1.1355,
    "c": 1.13566,
    "v": 833
  },
  {
    "dt": "2022.02.16 00:00",
    "o": 1.13574,
    "h": 1.1359,
    "l": 1.1355,
    "c": 1.13562,
    "v": 210
  },
  {
    "dt": "2022.02.16 01:00",
    "o": 1.13562,
    "h": 1.13587,
    "l": 1.13542,
    "c": 1.13543,
    "v": 586
  },
  {
    "dt": "2022.02.16 02:00",
    "o": 1.13535,
    "h": 1.13586,
    "l": 1.13534,
    "c": 1.13562,
    "v": 732
  },
  {
    "dt": "2022.02.16 03:00",
    "o": 1.1356,
    "h": 1.1356,
    "l": 1.13479,
    "c": 1.1351,
    "v": 1106
  },
  {
    "dt": "2022.02.16 04:00",
    "o": 1.1351,
    "h": 1.13526,
    "l": 1.1344,
    "c": 1.13464,
    "v": 1107
  },
  {
    "dt": "2022.02.16 05:00",
    "o": 1.13465,
    "h": 1.13474,
    "l": 1.13441,
    "c": 1.1345,
    "v": 625
  },
  {
    "dt": "2022.02.16 06:00",
    "o": 1.13449,
    "h": 1.13481,
    "l": 1.13444,
    "c": 1.1347,
    "v": 536
  },
  {
    "dt": "2022.02.16 07:00",
    "o": 1.13473,
    "h": 1.13546,
    "l": 1.13469,
    "c": 1.13528,
    "v": 732
  },
  {
    "dt": "2022.02.16 08:00",
    "o": 1.13525,
    "h": 1.13627,
    "l": 1.13522,
    "c": 1.13627,
    "v": 1042
  },
  {
    "dt": "2022.02.16 09:00",
    "o": 1.13624,
    "h": 1.13777,
    "l": 1.13622,
    "c": 1.13744,
    "v": 2337
  },
  {
    "dt": "2022.02.16 10:00",
    "o": 1.13745,
    "h": 1.13945,
    "l": 1.13721,
    "c": 1.13888,
    "v": 2939
  },
  {
    "dt": "2022.02.16 11:00",
    "o": 1.13888,
    "h": 1.13889,
    "l": 1.13701,
    "c": 1.13766,
    "v": 2961
  },
  {
    "dt": "2022.02.16 12:00",
    "o": 1.13766,
    "h": 1.13856,
    "l": 1.13723,
    "c": 1.138,
    "v": 2348
  },
  {
    "dt": "2022.02.16 13:00",
    "o": 1.13794,
    "h": 1.13873,
    "l": 1.13732,
    "c": 1.13841,
    "v": 2191
  },
  {
    "dt": "2022.02.16 14:00",
    "o": 1.1384,
    "h": 1.13858,
    "l": 1.13636,
    "c": 1.13647,
    "v": 2634
  },
  {
    "dt": "2022.02.16 15:00",
    "o": 1.13648,
    "h": 1.13732,
    "l": 1.13539,
    "c": 1.13623,
    "v": 3298
  },
  {
    "dt": "2022.02.16 16:00",
    "o": 1.13624,
    "h": 1.1372,
    "l": 1.13523,
    "c": 1.13642,
    "v": 3440
  },
  {
    "dt": "2022.02.16 17:00",
    "o": 1.13643,
    "h": 1.13722,
    "l": 1.13591,
    "c": 1.13645,
    "v": 3040
  },
  {
    "dt": "2022.02.16 18:00",
    "o": 1.13644,
    "h": 1.138,
    "l": 1.13597,
    "c": 1.13799,
    "v": 2322
  },
  {
    "dt": "2022.02.16 19:00",
    "o": 1.13799,
    "h": 1.13819,
    "l": 1.13725,
    "c": 1.13733,
    "v": 1883
  },
  {
    "dt": "2022.02.16 20:00",
    "o": 1.13735,
    "h": 1.13816,
    "l": 1.13702,
    "c": 1.13758,
    "v": 1971
  },
  {
    "dt": "2022.02.16 21:00",
    "o": 1.13757,
    "h": 1.13949,
    "l": 1.13693,
    "c": 1.13896,
    "v": 3713
  },
  {
    "dt": "2022.02.16 22:00",
    "o": 1.13896,
    "h": 1.13925,
    "l": 1.13795,
    "c": 1.1381,
    "v": 2084
  },
  {
    "dt": "2022.02.16 23:00",
    "o": 1.13811,
    "h": 1.13815,
    "l": 1.13713,
    "c": 1.13722,
    "v": 908
  },
  {
    "dt": "2022.02.17 00:00",
    "o": 1.13716,
    "h": 1.13746,
    "l": 1.13715,
    "c": 1.13739,
    "v": 237
  },
  {
    "dt": "2022.02.17 01:00",
    "o": 1.13745,
    "h": 1.13838,
    "l": 1.13662,
    "c": 1.13719,
    "v": 1111
  },
  {
    "dt": "2022.02.17 02:00",
    "o": 1.13719,
    "h": 1.13818,
    "l": 1.13719,
    "c": 1.13787,
    "v": 1190
  },
  {
    "dt": "2022.02.17 03:00",
    "o": 1.13787,
    "h": 1.13811,
    "l": 1.1373,
    "c": 1.13807,
    "v": 1252
  },
  {
    "dt": "2022.02.17 04:00",
    "o": 1.13807,
    "h": 1.1384,
    "l": 1.1378,
    "c": 1.13819,
    "v": 958
  },
  {
    "dt": "2022.02.17 05:00",
    "o": 1.13819,
    "h": 1.13837,
    "l": 1.13292,
    "c": 1.13358,
    "v": 1507
  },
  {
    "dt": "2022.02.17 06:00",
    "o": 1.13343,
    "h": 1.13633,
    "l": 1.13223,
    "c": 1.13413,
    "v": 3697
  },
  {
    "dt": "2022.02.17 07:00",
    "o": 1.13412,
    "h": 1.13586,
    "l": 1.13412,
    "c": 1.13553,
    "v": 1961
  },
  {
    "dt": "2022.02.17 08:00",
    "o": 1.13554,
    "h": 1.13728,
    "l": 1.13505,
    "c": 1.13596,
    "v": 1987
  },
  {
    "dt": "2022.02.17 09:00",
    "o": 1.13591,
    "h": 1.13745,
    "l": 1.13562,
    "c": 1.13742,
    "v": 2618
  },
  {
    "dt": "2022.02.17 10:00",
    "o": 1.13745,
    "h": 1.13851,
    "l": 1.13488,
    "c": 1.1357,
    "v": 4316
  },
  {
    "dt": "2022.02.17 11:00",
    "o": 1.13573,
    "h": 1.13635,
    "l": 1.1342,
    "c": 1.13604,
    "v": 3779
  },
  {
    "dt": "2022.02.17 12:00",
    "o": 1.13609,
    "h": 1.13755,
    "l": 1.13541,
    "c": 1.13745,
    "v": 2544
  },
  {
    "dt": "2022.02.17 13:00",
    "o": 1.13745,
    "h": 1.13786,
    "l": 1.13614,
    "c": 1.13649,
    "v": 2063
  },
  {
    "dt": "2022.02.17 14:00",
    "o": 1.13649,
    "h": 1.13782,
    "l": 1.13648,
    "c": 1.13769,
    "v": 2385
  },
  {
    "dt": "2022.02.17 15:00",
    "o": 1.13767,
    "h": 1.13781,
    "l": 1.13506,
    "c": 1.13584,
    "v": 3860
  },
  {
    "dt": "2022.02.17 16:00",
    "o": 1.13583,
    "h": 1.13749,
    "l": 1.13496,
    "c": 1.13584,
    "v": 4355
  },
  {
    "dt": "2022.02.17 17:00",
    "o": 1.13584,
    "h": 1.13777,
    "l": 1.13538,
    "c": 1.13684,
    "v": 4111
  },
  {
    "dt": "2022.02.17 18:00",
    "o": 1.13687,
    "h": 1.13745,
    "l": 1.13614,
    "c": 1.13619,
    "v": 2802
  },
  {
    "dt": "2022.02.17 19:00",
    "o": 1.13621,
    "h": 1.13685,
    "l": 1.13572,
    "c": 1.13582,
    "v": 2057
  },
  {
    "dt": "2022.02.17 20:00",
    "o": 1.13583,
    "h": 1.13638,
    "l": 1.13559,
    "c": 1.13617,
    "v": 1716
  },
  {
    "dt": "2022.02.17 21:00",
    "o": 1.13616,
    "h": 1.13663,
    "l": 1.13595,
    "c": 1.1363,
    "v": 1412
  },
  {
    "dt": "2022.02.17 22:00",
    "o": 1.13639,
    "h": 1.13639,
    "l": 1.1356,
    "c": 1.13588,
    "v": 1868
  },
  {
    "dt": "2022.02.17 23:00",
    "o": 1.13586,
    "h": 1.13612,
    "l": 1.13581,
    "c": 1.13608,
    "v": 771
  },
  {
    "dt": "2022.02.18 00:00",
    "o": 1.13592,
    "h": 1.13639,
    "l": 1.13556,
    "c": 1.13594,
    "v": 481
  },
  {
    "dt": "2022.02.18 01:00",
    "o": 1.13595,
    "h": 1.13688,
    "l": 1.13579,
    "c": 1.13629,
    "v": 878
  },
  {
    "dt": "2022.02.18 02:00",
    "o": 1.13625,
    "h": 1.1365,
    "l": 1.1357,
    "c": 1.13587,
    "v": 1025
  },
  {
    "dt": "2022.02.18 03:00",
    "o": 1.13588,
    "h": 1.13702,
    "l": 1.13569,
    "c": 1.13673,
    "v": 2078
  },
  {
    "dt": "2022.02.18 04:00",
    "o": 1.1367,
    "h": 1.13704,
    "l": 1.13617,
    "c": 1.13661,
    "v": 1589
  },
  {
    "dt": "2022.02.18 05:00",
    "o": 1.1366,
    "h": 1.13692,
    "l": 1.13631,
    "c": 1.13665,
    "v": 1250
  },
  {
    "dt": "2022.02.18 06:00",
    "o": 1.13662,
    "h": 1.13678,
    "l": 1.1362,
    "c": 1.13629,
    "v": 769
  },
  {
    "dt": "2022.02.18 07:00",
    "o": 1.13632,
    "h": 1.13665,
    "l": 1.13603,
    "c": 1.1365,
    "v": 965
  },
  {
    "dt": "2022.02.18 08:00",
    "o": 1.13649,
    "h": 1.1371,
    "l": 1.13648,
    "c": 1.13695,
    "v": 1015
  },
  {
    "dt": "2022.02.18 09:00",
    "o": 1.13695,
    "h": 1.13727,
    "l": 1.13663,
    "c": 1.13689,
    "v": 1854
  },
  {
    "dt": "2022.02.18 10:00",
    "o": 1.13689,
    "h": 1.13759,
    "l": 1.1365,
    "c": 1.13746,
    "v": 2834
  },
  {
    "dt": "2022.02.18 11:00",
    "o": 1.13749,
    "h": 1.1376,
    "l": 1.1363,
    "c": 1.137,
    "v": 2446
  },
  {
    "dt": "2022.02.18 12:00",
    "o": 1.137,
    "h": 1.13714,
    "l": 1.13597,
    "c": 1.13598,
    "v": 2350
  },
  {
    "dt": "2022.02.18 13:00",
    "o": 1.13599,
    "h": 1.13628,
    "l": 1.13461,
    "c": 1.13616,
    "v": 2224
  },
  {
    "dt": "2022.02.18 14:00",
    "o": 1.13611,
    "h": 1.13673,
    "l": 1.13565,
    "c": 1.13594,
    "v": 2158
  },
  {
    "dt": "2022.02.18 15:00",
    "o": 1.13594,
    "h": 1.13607,
    "l": 1.13471,
    "c": 1.13481,
    "v": 3415
  },
  {
    "dt": "2022.02.18 16:00",
    "o": 1.1348,
    "h": 1.13508,
    "l": 1.13378,
    "c": 1.13472,
    "v": 3545
  },
  {
    "dt": "2022.02.18 17:00",
    "o": 1.13473,
    "h": 1.13532,
    "l": 1.13266,
    "c": 1.13403,
    "v": 3536
  },
  {
    "dt": "2022.02.18 18:00",
    "o": 1.134,
    "h": 1.13414,
    "l": 1.13139,
    "c": 1.13249,
    "v": 3841
  },
  {
    "dt": "2022.02.18 19:00",
    "o": 1.1325,
    "h": 1.13285,
    "l": 1.13137,
    "c": 1.13213,
    "v": 2680
  },
  {
    "dt": "2022.02.18 20:00",
    "o": 1.13214,
    "h": 1.13316,
    "l": 1.1321,
    "c": 1.13291,
    "v": 1739
  },
  {
    "dt": "2022.02.18 21:00",
    "o": 1.13292,
    "h": 1.13348,
    "l": 1.13267,
    "c": 1.13303,
    "v": 1710
  },
  {
    "dt": "2022.02.18 22:00",
    "o": 1.13302,
    "h": 1.13309,
    "l": 1.13229,
    "c": 1.13238,
    "v": 1925
  },
  {
    "dt": "2022.02.18 23:00",
    "o": 1.13236,
    "h": 1.13285,
    "l": 1.1322,
    "c": 1.13224,
    "v": 856
  },
  {
    "dt": "2022.02.21 00:00",
    "o": 1.1315,
    "h": 1.13236,
    "l": 1.1315,
    "c": 1.13169,
    "v": 450
  },
  {
    "dt": "2022.02.21 01:00",
    "o": 1.13187,
    "h": 1.1323,
    "l": 1.13124,
    "c": 1.13161,
    "v": 1432
  },
  {
    "dt": "2022.02.21 02:00",
    "o": 1.13157,
    "h": 1.13348,
    "l": 1.13124,
    "c": 1.13316,
    "v": 1299
  },
  {
    "dt": "2022.02.21 03:00",
    "o": 1.13317,
    "h": 1.13571,
    "l": 1.13273,
    "c": 1.13525,
    "v": 2215
  },
  {
    "dt": "2022.02.21 04:00",
    "o": 1.13524,
    "h": 1.13573,
    "l": 1.1352,
    "c": 1.13564,
    "v": 1251
  },
  {
    "dt": "2022.02.21 05:00",
    "o": 1.13564,
    "h": 1.13671,
    "l": 1.13562,
    "c": 1.136,
    "v": 1104
  },
  {
    "dt": "2022.02.21 06:00",
    "o": 1.13599,
    "h": 1.13618,
    "l": 1.13575,
    "c": 1.13614,
    "v": 722
  },
  {
    "dt": "2022.02.21 07:00",
    "o": 1.13614,
    "h": 1.13636,
    "l": 1.13599,
    "c": 1.13617,
    "v": 667
  },
  {
    "dt": "2022.02.21 08:00",
    "o": 1.13616,
    "h": 1.13691,
    "l": 1.13615,
    "c": 1.13681,
    "v": 974
  },
  {
    "dt": "2022.02.21 09:00",
    "o": 1.1368,
    "h": 1.13781,
    "l": 1.13673,
    "c": 1.13728,
    "v": 1962
  },
  {
    "dt": "2022.02.21 10:00",
    "o": 1.13727,
    "h": 1.13893,
    "l": 1.13552,
    "c": 1.13557,
    "v": 2821
  },
  {
    "dt": "2022.02.21 11:00",
    "o": 1.13555,
    "h": 1.13674,
    "l": 1.13532,
    "c": 1.13627,
    "v": 2306
  },
  {
    "dt": "2022.02.21 12:00",
    "o": 1.13627,
    "h": 1.13658,
    "l": 1.13543,
    "c": 1.13554,
    "v": 1671
  },
  {
    "dt": "2022.02.21 13:00",
    "o": 1.13555,
    "h": 1.13605,
    "l": 1.13449,
    "c": 1.13469,
    "v": 2122
  },
  {
    "dt": "2022.02.21 14:00",
    "o": 1.13463,
    "h": 1.13495,
    "l": 1.13322,
    "c": 1.13335,
    "v": 2445
  },
  {
    "dt": "2022.02.21 15:00",
    "o": 1.13334,
    "h": 1.13394,
    "l": 1.13203,
    "c": 1.13286,
    "v": 2552
  },
  {
    "dt": "2022.02.21 16:00",
    "o": 1.13286,
    "h": 1.13453,
    "l": 1.13242,
    "c": 1.13329,
    "v": 2671
  },
  {
    "dt": "2022.02.21 17:00",
    "o": 1.13326,
    "h": 1.13439,
    "l": 1.1325,
    "c": 1.13353,
    "v": 2509
  },
  {
    "dt": "2022.02.21 18:00",
    "o": 1.13354,
    "h": 1.13461,
    "l": 1.13343,
    "c": 1.13456,
    "v": 1739
  },
  {
    "dt": "2022.02.21 19:00",
    "o": 1.13459,
    "h": 1.13483,
    "l": 1.13349,
    "c": 1.13359,
    "v": 1279
  },
  {
    "dt": "2022.02.21 20:00",
    "o": 1.13363,
    "h": 1.13423,
    "l": 1.13163,
    "c": 1.13166,
    "v": 1095
  },
  {
    "dt": "2022.02.21 21:00",
    "o": 1.13165,
    "h": 1.13196,
    "l": 1.13059,
    "c": 1.13178,
    "v": 1398
  },
  {
    "dt": "2022.02.21 22:00",
    "o": 1.13178,
    "h": 1.1318,
    "l": 1.13065,
    "c": 1.13137,
    "v": 545
  },
  {
    "dt": "2022.02.21 23:00",
    "o": 1.13138,
    "h": 1.1318,
    "l": 1.13074,
    "c": 1.13093,
    "v": 668
  },
  {
    "dt": "2022.02.22 00:00",
    "o": 1.13097,
    "h": 1.13104,
    "l": 1.13057,
    "c": 1.13057,
    "v": 393
  },
  {
    "dt": "2022.02.22 01:00",
    "o": 1.13063,
    "h": 1.13085,
    "l": 1.12954,
    "c": 1.13085,
    "v": 1528
  },
  {
    "dt": "2022.02.22 02:00",
    "o": 1.13081,
    "h": 1.1319,
    "l": 1.13064,
    "c": 1.13129,
    "v": 1491
  },
  {
    "dt": "2022.02.22 03:00",
    "o": 1.13129,
    "h": 1.13151,
    "l": 1.12987,
    "c": 1.13029,
    "v": 2129
  },
  {
    "dt": "2022.02.22 04:00",
    "o": 1.1303,
    "h": 1.13086,
    "l": 1.12971,
    "c": 1.13038,
    "v": 1579
  },
  {
    "dt": "2022.02.22 05:00",
    "o": 1.13033,
    "h": 1.13033,
    "l": 1.12871,
    "c": 1.12915,
    "v": 1506
  },
  {
    "dt": "2022.02.22 06:00",
    "o": 1.12916,
    "h": 1.12996,
    "l": 1.12916,
    "c": 1.12978,
    "v": 1265
  },
  {
    "dt": "2022.02.22 07:00",
    "o": 1.12971,
    "h": 1.13084,
    "l": 1.12967,
    "c": 1.13059,
    "v": 1291
  },
  {
    "dt": "2022.02.22 08:00",
    "o": 1.13058,
    "h": 1.13118,
    "l": 1.12989,
    "c": 1.13034,
    "v": 1824
  },
  {
    "dt": "2022.02.22 09:00",
    "o": 1.13031,
    "h": 1.13047,
    "l": 1.12917,
    "c": 1.12957,
    "v": 3329
  },
  {
    "dt": "2022.02.22 10:00",
    "o": 1.12957,
    "h": 1.1327,
    "l": 1.12922,
    "c": 1.13248,
    "v": 4117
  },
  {
    "dt": "2022.02.22 11:00",
    "o": 1.13245,
    "h": 1.13359,
    "l": 1.13137,
    "c": 1.13189,
    "v": 3382
  },
  {
    "dt": "2022.02.22 12:00",
    "o": 1.1319,
    "h": 1.13659,
    "l": 1.13176,
    "c": 1.13514,
    "v": 3798
  },
  {
    "dt": "2022.02.22 13:00",
    "o": 1.13517,
    "h": 1.1358,
    "l": 1.13363,
    "c": 1.13453,
    "v": 3454
  },
  {
    "dt": "2022.02.22 14:00",
    "o": 1.13448,
    "h": 1.13586,
    "l": 1.13422,
    "c": 1.135,
    "v": 3172
  },
  {
    "dt": "2022.02.22 15:00",
    "o": 1.13501,
    "h": 1.13526,
    "l": 1.13363,
    "c": 1.13399,
    "v": 3026
  },
  {
    "dt": "2022.02.22 16:00",
    "o": 1.134,
    "h": 1.13473,
    "l": 1.1335,
    "c": 1.13459,
    "v": 3204
  },
  {
    "dt": "2022.02.22 17:00",
    "o": 1.13455,
    "h": 1.13496,
    "l": 1.13299,
    "c": 1.13345,
    "v": 4132
  },
  {
    "dt": "2022.02.22 18:00",
    "o": 1.13345,
    "h": 1.13532,
    "l": 1.13305,
    "c": 1.13426,
    "v": 3329
  },
  {
    "dt": "2022.02.22 19:00",
    "o": 1.13424,
    "h": 1.13424,
    "l": 1.13241,
    "c": 1.13329,
    "v": 2172
  },
  {
    "dt": "2022.02.22 20:00",
    "o": 1.13326,
    "h": 1.13373,
    "l": 1.13245,
    "c": 1.1328,
    "v": 1837
  },
  {
    "dt": "2022.02.22 21:00",
    "o": 1.1328,
    "h": 1.13405,
    "l": 1.13212,
    "c": 1.13339,
    "v": 2939
  },
  {
    "dt": "2022.02.22 22:00",
    "o": 1.13344,
    "h": 1.13403,
    "l": 1.1323,
    "c": 1.13234,
    "v": 2499
  },
  {
    "dt": "2022.02.22 23:00",
    "o": 1.13235,
    "h": 1.13286,
    "l": 1.13235,
    "c": 1.13243,
    "v": 857
  },
  {
    "dt": "2022.02.23 00:00",
    "o": 1.13245,
    "h": 1.13271,
    "l": 1.13226,
    "c": 1.13245,
    "v": 206
  },
  {
    "dt": "2022.02.23 01:00",
    "o": 1.1325,
    "h": 1.133,
    "l": 1.1325,
    "c": 1.13277,
    "v": 680
  },
  {
    "dt": "2022.02.23 02:00",
    "o": 1.13277,
    "h": 1.13347,
    "l": 1.13277,
    "c": 1.13324,
    "v": 807
  },
  {
    "dt": "2022.02.23 03:00",
    "o": 1.13323,
    "h": 1.13351,
    "l": 1.13285,
    "c": 1.13342,
    "v": 1251
  },
  {
    "dt": "2022.02.23 04:00",
    "o": 1.13344,
    "h": 1.1338,
    "l": 1.13195,
    "c": 1.13216,
    "v": 1080
  },
  {
    "dt": "2022.02.23 05:00",
    "o": 1.13215,
    "h": 1.13257,
    "l": 1.13193,
    "c": 1.1325,
    "v": 689
  },
  {
    "dt": "2022.02.23 06:00",
    "o": 1.13252,
    "h": 1.13255,
    "l": 1.13224,
    "c": 1.13247,
    "v": 521
  },
  {
    "dt": "2022.02.23 07:00",
    "o": 1.13247,
    "h": 1.13293,
    "l": 1.13211,
    "c": 1.13248,
    "v": 915
  },
  {
    "dt": "2022.02.23 08:00",
    "o": 1.13247,
    "h": 1.13293,
    "l": 1.13213,
    "c": 1.13215,
    "v": 924
  },
  {
    "dt": "2022.02.23 09:00",
    "o": 1.13209,
    "h": 1.1342,
    "l": 1.13153,
    "c": 1.1339,
    "v": 2616
  },
  {
    "dt": "2022.02.23 10:00",
    "o": 1.13389,
    "h": 1.13465,
    "l": 1.13332,
    "c": 1.13464,
    "v": 2662
  },
  {
    "dt": "2022.02.23 11:00",
    "o": 1.13463,
    "h": 1.13581,
    "l": 1.1337,
    "c": 1.13548,
    "v": 2662
  },
  {
    "dt": "2022.02.23 12:00",
    "o": 1.13547,
    "h": 1.13574,
    "l": 1.1349,
    "c": 1.13504,
    "v": 2585
  },
  {
    "dt": "2022.02.23 13:00",
    "o": 1.13504,
    "h": 1.13522,
    "l": 1.13392,
    "c": 1.13394,
    "v": 2311
  },
  {
    "dt": "2022.02.23 14:00",
    "o": 1.13393,
    "h": 1.13481,
    "l": 1.13361,
    "c": 1.13369,
    "v": 2166
  },
  {
    "dt": "2022.02.23 15:00",
    "o": 1.13369,
    "h": 1.13515,
    "l": 1.13356,
    "c": 1.13507,
    "v": 2523
  },
  {
    "dt": "2022.02.23 16:00",
    "o": 1.13508,
    "h": 1.13509,
    "l": 1.13293,
    "c": 1.1333,
    "v": 3412
  },
  {
    "dt": "2022.02.23 17:00",
    "o": 1.13324,
    "h": 1.1337,
    "l": 1.13199,
    "c": 1.13236,
    "v": 3809
  },
  {
    "dt": "2022.02.23 18:00",
    "o": 1.13234,
    "h": 1.13251,
    "l": 1.13056,
    "c": 1.13132,
    "v": 3174
  },
  {
    "dt": "2022.02.23 19:00",
    "o": 1.13133,
    "h": 1.13176,
    "l": 1.13069,
    "c": 1.13115,
    "v": 2013
  },
  {
    "dt": "2022.02.23 20:00",
    "o": 1.13117,
    "h": 1.13117,
    "l": 1.13031,
    "c": 1.13084,
    "v": 1842
  },
  {
    "dt": "2022.02.23 21:00",
    "o": 1.13084,
    "h": 1.13112,
    "l": 1.13031,
    "c": 1.13069,
    "v": 1998
  },
  {
    "dt": "2022.02.23 22:00",
    "o": 1.13067,
    "h": 1.13097,
    "l": 1.13005,
    "c": 1.13045,
    "v": 1879
  },
  {
    "dt": "2022.02.23 23:00",
    "o": 1.13044,
    "h": 1.13069,
    "l": 1.13017,
    "c": 1.13038,
    "v": 926
  },
  {
    "dt": "2022.02.24 00:00",
    "o": 1.13035,
    "h": 1.13086,
    "l": 1.13008,
    "c": 1.13029,
    "v": 497
  },
  {
    "dt": "2022.02.24 01:00",
    "o": 1.13028,
    "h": 1.13079,
    "l": 1.12995,
    "c": 1.13048,
    "v": 878
  },
  {
    "dt": "2022.02.24 02:00",
    "o": 1.13049,
    "h": 1.13053,
    "l": 1.12742,
    "c": 1.12753,
    "v": 1698
  },
  {
    "dt": "2022.02.24 03:00",
    "o": 1.1276,
    "h": 1.12933,
    "l": 1.1276,
    "c": 1.12924,
    "v": 2544
  },
  {
    "dt": "2022.02.24 04:00",
    "o": 1.12924,
    "h": 1.12932,
    "l": 1.12642,
    "c": 1.12721,
    "v": 2601
  },
  {
    "dt": "2022.02.24 05:00",
    "o": 1.12718,
    "h": 1.1278,
    "l": 1.12341,
    "c": 1.12372,
    "v": 4279
  },
  {
    "dt": "2022.02.24 06:00",
    "o": 1.12372,
    "h": 1.12481,
    "l": 1.12075,
    "c": 1.12447,
    "v": 4330
  },
  {
    "dt": "2022.02.24 07:00",
    "o": 1.12444,
    "h": 1.12453,
    "l": 1.12201,
    "c": 1.1237,
    "v": 3574
  },
  {
    "dt": "2022.02.24 08:00",
    "o": 1.12369,
    "h": 1.12527,
    "l": 1.12313,
    "c": 1.12422,
    "v": 3324
  },
  {
    "dt": "2022.02.24 09:00",
    "o": 1.12425,
    "h": 1.12545,
    "l": 1.12345,
    "c": 1.12445,
    "v": 4899
  },
  {
    "dt": "2022.02.24 10:00",
    "o": 1.12443,
    "h": 1.12613,
    "l": 1.12324,
    "c": 1.12391,
    "v": 5214
  },
  {
    "dt": "2022.02.24 11:00",
    "o": 1.12394,
    "h": 1.12494,
    "l": 1.12084,
    "c": 1.12106,
    "v": 4659
  },
  {
    "dt": "2022.02.24 12:00",
    "o": 1.12105,
    "h": 1.12115,
    "l": 1.11625,
    "c": 1.11771,
    "v": 4762
  },
  {
    "dt": "2022.02.24 13:00",
    "o": 1.11773,
    "h": 1.11798,
    "l": 1.11543,
    "c": 1.11734,
    "v": 4840
  },
  {
    "dt": "2022.02.24 14:00",
    "o": 1.11739,
    "h": 1.11842,
    "l": 1.1161,
    "c": 1.11698,
    "v": 4580
  },
  {
    "dt": "2022.02.24 15:00",
    "o": 1.117,
    "h": 1.11794,
    "l": 1.11522,
    "c": 1.11608,
    "v": 4518
  },
  {
    "dt": "2022.02.24 16:00",
    "o": 1.11601,
    "h": 1.11703,
    "l": 1.11435,
    "c": 1.11462,
    "v": 5071
  },
  {
    "dt": "2022.02.24 17:00",
    "o": 1.11471,
    "h": 1.11495,
    "l": 1.11072,
    "c": 1.11089,
    "v": 4804
  },
  {
    "dt": "2022.02.24 18:00",
    "o": 1.11089,
    "h": 1.11562,
    "l": 1.11057,
    "c": 1.11494,
    "v": 4861
  },
  {
    "dt": "2022.02.24 19:00",
    "o": 1.11497,
    "h": 1.11777,
    "l": 1.11401,
    "c": 1.11659,
    "v": 3760
  },
  {
    "dt": "2022.02.24 20:00",
    "o": 1.11659,
    "h": 1.12053,
    "l": 1.11591,
    "c": 1.11895,
    "v": 3569
  },
  {
    "dt": "2022.02.24 21:00",
    "o": 1.11887,
    "h": 1.12117,
    "l": 1.11835,
    "c": 1.11871,
    "v": 4785
  },
  {
    "dt": "2022.02.24 22:00",
    "o": 1.11873,
    "h": 1.12204,
    "l": 1.11839,
    "c": 1.11993,
    "v": 3700
  },
  {
    "dt": "2022.02.24 23:00",
    "o": 1.11991,
    "h": 1.12041,
    "l": 1.11904,
    "c": 1.11919,
    "v": 1063
  },
  {
    "dt": "2022.02.25 00:00",
    "o": 1.11894,
    "h": 1.12017,
    "l": 1.11894,
    "c": 1.11942,
    "v": 465
  },
  {
    "dt": "2022.02.25 01:00",
    "o": 1.11948,
    "h": 1.11995,
    "l": 1.1189,
    "c": 1.119,
    "v": 886
  },
  {
    "dt": "2022.02.25 02:00",
    "o": 1.11903,
    "h": 1.12087,
    "l": 1.11856,
    "c": 1.12011,
    "v": 1841
  },
  {
    "dt": "2022.02.25 03:00",
    "o": 1.12008,
    "h": 1.12049,
    "l": 1.11889,
    "c": 1.12026,
    "v": 3297
  },
  {
    "dt": "2022.02.25 04:00",
    "o": 1.12026,
    "h": 1.12134,
    "l": 1.11978,
    "c": 1.12127,
    "v": 2099
  },
  {
    "dt": "2022.02.25 05:00",
    "o": 1.12125,
    "h": 1.12171,
    "l": 1.12045,
    "c": 1.12161,
    "v": 1992
  },
  {
    "dt": "2022.02.25 06:00",
    "o": 1.1216,
    "h": 1.12278,
    "l": 1.12152,
    "c": 1.12206,
    "v": 1883
  },
  {
    "dt": "2022.02.25 07:00",
    "o": 1.12205,
    "h": 1.12248,
    "l": 1.12135,
    "c": 1.12245,
    "v": 1571
  },
  {
    "dt": "2022.02.25 08:00",
    "o": 1.12244,
    "h": 1.12246,
    "l": 1.12003,
    "c": 1.12014,
    "v": 1747
  },
  {
    "dt": "2022.02.25 09:00",
    "o": 1.12008,
    "h": 1.12214,
    "l": 1.11961,
    "c": 1.12091,
    "v": 3418
  },
  {
    "dt": "2022.02.25 10:00",
    "o": 1.12092,
    "h": 1.12145,
    "l": 1.11693,
    "c": 1.11764,
    "v": 4506
  },
  {
    "dt": "2022.02.25 11:00",
    "o": 1.11765,
    "h": 1.11874,
    "l": 1.11686,
    "c": 1.11805,
    "v": 3878
  },
  {
    "dt": "2022.02.25 12:00",
    "o": 1.11805,
    "h": 1.11824,
    "l": 1.11652,
    "c": 1.11794,
    "v": 3260
  },
  {
    "dt": "2022.02.25 13:00",
    "o": 1.11795,
    "h": 1.11861,
    "l": 1.11673,
    "c": 1.11846,
    "v": 3057
  },
  {
    "dt": "2022.02.25 14:00",
    "o": 1.11843,
    "h": 1.12361,
    "l": 1.1183,
    "c": 1.1221,
    "v": 3989
  },
  {
    "dt": "2022.02.25 15:00",
    "o": 1.12211,
    "h": 1.12402,
    "l": 1.12112,
    "c": 1.12358,
    "v": 4496
  },
  {
    "dt": "2022.02.25 16:00",
    "o": 1.1236,
    "h": 1.1249,
    "l": 1.12176,
    "c": 1.12325,
    "v": 4256
  },
  {
    "dt": "2022.02.25 17:00",
    "o": 1.12323,
    "h": 1.12501,
    "l": 1.1231,
    "c": 1.12439,
    "v": 4441
  },
  {
    "dt": "2022.02.25 18:00",
    "o": 1.12442,
    "h": 1.12662,
    "l": 1.12379,
    "c": 1.12583,
    "v": 3456
  },
  {
    "dt": "2022.02.25 19:00",
    "o": 1.12584,
    "h": 1.12611,
    "l": 1.12343,
    "c": 1.124,
    "v": 2355
  },
  {
    "dt": "2022.02.25 20:00",
    "o": 1.12401,
    "h": 1.12596,
    "l": 1.12401,
    "c": 1.12563,
    "v": 2088
  },
  {
    "dt": "2022.02.25 21:00",
    "o": 1.12563,
    "h": 1.12648,
    "l": 1.12489,
    "c": 1.12625,
    "v": 2008
  },
  {
    "dt": "2022.02.25 22:00",
    "o": 1.12625,
    "h": 1.12697,
    "l": 1.12573,
    "c": 1.12647,
    "v": 2540
  },
  {
    "dt": "2022.02.25 23:00",
    "o": 1.12645,
    "h": 1.12734,
    "l": 1.12639,
    "c": 1.12708,
    "v": 1208
  },
  {
    "dt": "2022.02.28 00:00",
    "o": 1.11289,
    "h": 1.11567,
    "l": 1.1128,
    "c": 1.11497,
    "v": 2149
  },
  {
    "dt": "2022.02.28 01:00",
    "o": 1.11577,
    "h": 1.11871,
    "l": 1.11481,
    "c": 1.11793,
    "v": 3630
  },
  {
    "dt": "2022.02.28 02:00",
    "o": 1.11794,
    "h": 1.11936,
    "l": 1.11769,
    "c": 1.1181,
    "v": 3089
  },
  {
    "dt": "2022.02.28 03:00",
    "o": 1.11814,
    "h": 1.11852,
    "l": 1.11582,
    "c": 1.11701,
    "v": 3751
  },
  {
    "dt": "2022.02.28 04:00",
    "o": 1.11704,
    "h": 1.11729,
    "l": 1.11453,
    "c": 1.11564,
    "v": 2922
  },
  {
    "dt": "2022.02.28 05:00",
    "o": 1.11563,
    "h": 1.11598,
    "l": 1.11483,
    "c": 1.115,
    "v": 2377
  },
  {
    "dt": "2022.02.28 06:00",
    "o": 1.11505,
    "h": 1.1152,
    "l": 1.11413,
    "c": 1.11451,
    "v": 1794
  },
  {
    "dt": "2022.02.28 07:00",
    "o": 1.11455,
    "h": 1.11576,
    "l": 1.11438,
    "c": 1.11555,
    "v": 1827
  },
  {
    "dt": "2022.02.28 08:00",
    "o": 1.11555,
    "h": 1.11672,
    "l": 1.11535,
    "c": 1.11575,
    "v": 2695
  },
  {
    "dt": "2022.02.28 09:00",
    "o": 1.11576,
    "h": 1.1199,
    "l": 1.11549,
    "c": 1.11885,
    "v": 4513
  },
  {
    "dt": "2022.02.28 10:00",
    "o": 1.11887,
    "h": 1.11957,
    "l": 1.11632,
    "c": 1.11779,
    "v": 4326
  },
  {
    "dt": "2022.02.28 11:00",
    "o": 1.11779,
    "h": 1.11844,
    "l": 1.11642,
    "c": 1.11778,
    "v": 3775
  },
  {
    "dt": "2022.02.28 12:00",
    "o": 1.1177,
    "h": 1.1231,
    "l": 1.11769,
    "c": 1.12268,
    "v": 3608
  },
  {
    "dt": "2022.02.28 13:00",
    "o": 1.12279,
    "h": 1.12279,
    "l": 1.11883,
    "c": 1.11981,
    "v": 3656
  },
  {
    "dt": "2022.02.28 14:00",
    "o": 1.11982,
    "h": 1.12073,
    "l": 1.11905,
    "c": 1.1192,
    "v": 3443
  },
  {
    "dt": "2022.02.28 15:00",
    "o": 1.1192,
    "h": 1.12159,
    "l": 1.11783,
    "c": 1.12114,
    "v": 4041
  },
  {
    "dt": "2022.02.28 16:00",
    "o": 1.12121,
    "h": 1.12288,
    "l": 1.12038,
    "c": 1.12212,
    "v": 3659
  },
  {
    "dt": "2022.02.28 17:00",
    "o": 1.12209,
    "h": 1.12357,
    "l": 1.11999,
    "c": 1.12309,
    "v": 4510
  },
  {
    "dt": "2022.02.28 18:00",
    "o": 1.12308,
    "h": 1.12456,
    "l": 1.1216,
    "c": 1.12234,
    "v": 4358
  },
  {
    "dt": "2022.02.28 19:00",
    "o": 1.12235,
    "h": 1.12274,
    "l": 1.11966,
    "c": 1.1204,
    "v": 3233
  },
  {
    "dt": "2022.02.28 20:00",
    "o": 1.1204,
    "h": 1.12152,
    "l": 1.12026,
    "c": 1.12143,
    "v": 2256
  },
  {
    "dt": "2022.02.28 21:00",
    "o": 1.1214,
    "h": 1.12227,
    "l": 1.12029,
    "c": 1.1221,
    "v": 2649
  },
  {
    "dt": "2022.02.28 22:00",
    "o": 1.12214,
    "h": 1.12221,
    "l": 1.12082,
    "c": 1.12094,
    "v": 2659
  },
  {
    "dt": "2022.02.28 23:00",
    "o": 1.12095,
    "h": 1.12189,
    "l": 1.12092,
    "c": 1.12182,
    "v": 1013
  }
]