[
  {
    "dt": "2022.04.01 00:00",
    "o": 1.1063,
    "h": 1.10663,
    "l": 1.10621,
    "c": 1.10654,
    "v": 182
  },
  {
    "dt": "2022.04.01 01:00",
    "o": 1.1065,
    "h": 1.10755,
    "l": 1.10649,
    "c": 1.10724,
    "v": 1228
  },
  {
    "dt": "2022.04.01 02:00",
    "o": 1.10725,
    "h": 1.10736,
    "l": 1.10665,
    "c": 1.10727,
    "v": 1024
  },
  {
    "dt": "2022.04.01 03:00",
    "o": 1.10728,
    "h": 1.10735,
    "l": 1.10588,
    "c": 1.10664,
    "v": 2378
  },
  {
    "dt": "2022.04.01 04:00",
    "o": 1.10665,
    "h": 1.10723,
    "l": 1.10627,
    "c": 1.10711,
    "v": 2221
  },
  {
    "dt": "2022.04.01 05:00",
    "o": 1.10705,
    "h": 1.10719,
    "l": 1.10622,
    "c": 1.10638,
    "v": 1842
  },
  {
    "dt": "2022.04.01 06:00",
    "o": 1.10639,
    "h": 1.10679,
    "l": 1.10607,
    "c": 1.10641,
    "v": 1649
  },
  {
    "dt": "2022.04.01 07:00",
    "o": 1.10642,
    "h": 1.10674,
    "l": 1.1062,
    "c": 1.10632,
    "v": 1454
  },
  {
    "dt": "2022.04.01 08:00",
    "o": 1.10632,
    "h": 1.10735,
    "l": 1.10628,
    "c": 1.10681,
    "v": 1502
  },
  {
    "dt": "2022.04.01 09:00",
    "o": 1.10684,
    "h": 1.10744,
    "l": 1.10514,
    "c": 1.10724,
    "v": 3278
  },
  {
    "dt": "2022.04.01 10:00",
    "o": 1.10713,
    "h": 1.10747,
    "l": 1.10421,
    "c": 1.10518,
    "v": 4447
  },
  {
    "dt": "2022.04.01 11:00",
    "o": 1.10518,
    "h": 1.10734,
    "l": 1.10477,
    "c": 1.10598,
    "v": 3485
  },
  {
    "dt": "2022.04.01 12:00",
    "o": 1.10595,
    "h": 1.10596,
    "l": 1.10406,
    "c": 1.10553,
    "v": 3720
  },
  {
    "dt": "2022.04.01 13:00",
    "o": 1.10555,
    "h": 1.10666,
    "l": 1.10471,
    "c": 1.10666,
    "v": 2608
  },
  {
    "dt": "2022.04.01 14:00",
    "o": 1.10668,
    "h": 1.10668,
    "l": 1.10472,
    "c": 1.10472,
    "v": 2667
  },
  {
    "dt": "2022.04.01 15:00",
    "o": 1.10475,
    "h": 1.10582,
    "l": 1.10356,
    "c": 1.10435,
    "v": 3834
  },
  {
    "dt": "2022.04.01 16:00",
    "o": 1.10434,
    "h": 1.1053,
    "l": 1.10379,
    "c": 1.10448,
    "v": 3532
  },
  {
    "dt": "2022.04.01 17:00",
    "o": 1.10445,
    "h": 1.10491,
    "l": 1.10272,
    "c": 1.10364,
    "v": 3960
  },
  {
    "dt": "2022.04.01 18:00",
    "o": 1.10365,
    "h": 1.10438,
    "l": 1.10289,
    "c": 1.10429,
    "v": 3260
  },
  {
    "dt": "2022.04.01 19:00",
    "o": 1.10429,
    "h": 1.10484,
    "l": 1.10383,
    "c": 1.10395,
    "v": 2452
  },
  {
    "dt": "2022.04.01 20:00",
    "o": 1.10395,
    "h": 1.10417,
    "l": 1.10321,
    "c": 1.10387,
    "v": 2039
  },
  {
    "dt": "2022.04.01 21:00",
    "o": 1.10387,
    "h": 1.10471,
    "l": 1.10378,
    "c": 1.10381,
    "v": 1952
  },
  {
    "dt": "2022.04.01 22:00",
    "o": 1.10382,
    "h": 1.1047,
    "l": 1.10381,
    "c": 1.10465,
    "v": 1973
  },
  {
    "dt": "2022.04.01 23:00",
    "o": 1.10465,
    "h": 1.10516,
    "l": 1.10433,
    "c": 1.1048,
    "v": 1101
  },
  {
    "dt": "2022.04.04 00:00",
    "o": 1.10332,
    "h": 1.10417,
    "l": 1.10317,
    "c": 1.10384,
    "v": 362
  },
  {
    "dt": "2022.04.04 01:00",
    "o": 1.10384,
    "h": 1.10431,
    "l": 1.10372,
    "c": 1.10424,
    "v": 899
  },
  {
    "dt": "2022.04.04 02:00",
    "o": 1.10423,
    "h": 1.1045,
    "l": 1.10401,
    "c": 1.10447,
    "v": 780
  },
  {
    "dt": "2022.04.04 03:00",
    "o": 1.10452,
    "h": 1.10528,
    "l": 1.10436,
    "c": 1.10483,
    "v": 1983
  },
  {
    "dt": "2022.04.04 04:00",
    "o": 1.10483,
    "h": 1.10535,
    "l": 1.10426,
    "c": 1.10482,
    "v": 1756
  },
  {
    "dt": "2022.04.04 05:00",
    "o": 1.10481,
    "h": 1.10509,
    "l": 1.10458,
    "c": 1.1048,
    "v": 1304
  },
  {
    "dt": "2022.04.04 06:00",
    "o": 1.10479,
    "h": 1.10525,
    "l": 1.10463,
    "c": 1.10472,
    "v": 1045
  },
  {
    "dt": "2022.04.04 07:00",
    "o": 1.10471,
    "h": 1.10487,
    "l": 1.10452,
    "c": 1.10471,
    "v": 1281
  },
  {
    "dt": "2022.04.04 08:00",
    "o": 1.10473,
    "h": 1.10512,
    "l": 1.10457,
    "c": 1.10502,
    "v": 1575
  },
  {
    "dt": "2022.04.04 09:00",
    "o": 1.10501,
    "h": 1.1053,
    "l": 1.10354,
    "c": 1.10387,
    "v": 2605
  },
  {
    "dt": "2022.04.04 10:00",
    "o": 1.10386,
    "h": 1.10418,
    "l": 1.10267,
    "c": 1.10305,
    "v": 3384
  },
  {
    "dt": "2022.04.04 11:00",
    "o": 1.10306,
    "h": 1.10377,
    "l": 1.10185,
    "c": 1.10214,
    "v": 3351
  },
  {
    "dt": "2022.04.04 12:00",
    "o": 1.10214,
    "h": 1.1031,
    "l": 1.10084,
    "c": 1.10088,
    "v": 2749
  },
  {
    "dt": "2022.04.04 13:00",
    "o": 1.10087,
    "h": 1.10132,
    "l": 1.09998,
    "c": 1.10005,
    "v": 2412
  },
  {
    "dt": "2022.04.04 14:00",
    "o": 1.10003,
    "h": 1.10075,
    "l": 1.09953,
    "c": 1.09957,
    "v": 2626
  },
  {
    "dt": "2022.04.04 15:00",
    "o": 1.09966,
    "h": 1.1008,
    "l": 1.09951,
    "c": 1.09984,
    "v": 2962
  },
  {
    "dt": "2022.04.04 16:00",
    "o": 1.09985,
    "h": 1.1002,
    "l": 1.09805,
    "c": 1.09917,
    "v": 3169
  },
  {
    "dt": "2022.04.04 17:00",
    "o": 1.09915,
    "h": 1.09976,
    "l": 1.09783,
    "c": 1.0994,
    "v": 3667
  },
  {
    "dt": "2022.04.04 18:00",
    "o": 1.09937,
    "h": 1.10004,
    "l": 1.09897,
    "c": 1.09922,
    "v": 2534
  },
  {
    "dt": "2022.04.04 19:00",
    "o": 1.09918,
    "h": 1.0992,
    "l": 1.09736,
    "c": 1.0974,
    "v": 2172
  },
  {
    "dt": "2022.04.04 20:00",
    "o": 1.09741,
    "h": 1.09762,
    "l": 1.09621,
    "c": 1.0963,
    "v": 2065
  },
  {
    "dt": "2022.04.04 21:00",
    "o": 1.09629,
    "h": 1.09719,
    "l": 1.09598,
    "c": 1.09704,
    "v": 1733
  },
  {
    "dt": "2022.04.04 22:00",
    "o": 1.09704,
    "h": 1.09745,
    "l": 1.09685,
    "c": 1.09689,
    "v": 1659
  },
  {
    "dt": "2022.04.04 23:00",
    "o": 1.09688,
    "h": 1.09734,
    "l": 1.09684,
    "c": 1.09712,
    "v": 841
  },
  {
    "dt": "2022.04.05 00:00",
    "o": 1.09695,
    "h": 1.0974,
    "l": 1.09695,
    "c": 1.09717,
    "v": 184
  },
  {
    "dt": "2022.04.05 01:00",
    "o": 1.09714,
    "h": 1.0974,
    "l": 1.09697,
    "c": 1.09717,
    "v": 682
  },
  {
    "dt": "2022.04.05 02:00",
    "o": 1.0972,
    "h": 1.09752,
    "l": 1.09703,
    "c": 1.09742,
    "v": 854
  },
  {
    "dt": "2022.04.05 03:00",
    "o": 1.09741,
    "h": 1.09788,
    "l": 1.09694,
    "c": 1.09752,
    "v": 2052
  },
  {
    "dt": "2022.04.05 04:00",
    "o": 1.09753,
    "h": 1.09761,
    "l": 1.09666,
    "c": 1.09674,
    "v": 1511
  },
  {
    "dt": "2022.04.05 05:00",
    "o": 1.09674,
    "h": 1.09723,
    "l": 1.09646,
    "c": 1.09685,
    "v": 1007
  },
  {
    "dt": "2022.04.05 06:00",
    "o": 1.09685,
    "h": 1.09717,
    "l": 1.09673,
    "c": 1.09716,
    "v": 1042
  },
  {
    "dt": "2022.04.05 07:00",
    "o": 1.09716,
    "h": 1.09717,
    "l": 1.09615,
    "c": 1.09631,
    "v": 2141
  },
  {
    "dt": "2022.04.05 08:00",
    "o": 1.09634,
    "h": 1.09713,
    "l": 1.09618,
    "c": 1.09682,
    "v": 1503
  },
  {
    "dt": "2022.04.05 09:00",
    "o": 1.09681,
    "h": 1.09796,
    "l": 1.09631,
    "c": 1.09749,
    "v": 2685
  },
  {
    "dt": "2022.04.05 10:00",
    "o": 1.09748,
    "h": 1.09878,
    "l": 1.09707,
    "c": 1.09808,
    "v": 3807
  },
  {
    "dt": "2022.04.05 11:00",
    "o": 1.09807,
    "h": 1.09842,
    "l": 1.09623,
    "c": 1.0967,
    "v": 2998
  },
  {
    "dt": "2022.04.05 12:00",
    "o": 1.0967,
    "h": 1.09844,
    "l": 1.09661,
    "c": 1.09774,
    "v": 2648
  },
  {
    "dt": "2022.04.05 13:00",
    "o": 1.09773,
    "h": 1.09773,
    "l": 1.09559,
    "c": 1.09687,
    "v": 2809
  },
  {
    "dt": "2022.04.05 14:00",
    "o": 1.09688,
    "h": 1.09767,
    "l": 1.09619,
    "c": 1.09665,
    "v": 2637
  },
  {
    "dt": "2022.04.05 15:00",
    "o": 1.09665,
    "h": 1.09709,
    "l": 1.09553,
    "c": 1.09632,
    "v": 2779
  },
  {
    "dt": "2022.04.05 16:00",
    "o": 1.09637,
    "h": 1.09748,
    "l": 1.09579,
    "c": 1.09682,
    "v": 3035
  },
  {
    "dt": "2022.04.05 17:00",
    "o": 1.09681,
    "h": 1.09716,
    "l": 1.09309,
    "c": 1.09374,
    "v": 4970
  },
  {
    "dt": "2022.04.05 18:00",
    "o": 1.09375,
    "h": 1.09407,
    "l": 1.09183,
    "c": 1.09197,
    "v": 3083
  },
  {
    "dt": "2022.04.05 19:00",
    "o": 1.09197,
    "h": 1.09223,
    "l": 1.09114,
    "c": 1.09133,
    "v": 2192
  },
  {
    "dt": "2022.04.05 20:00",
    "o": 1.09134,
    "h": 1.09203,
    "l": 1.09103,
    "c": 1.09124,
    "v": 1796
  },
  {
    "dt": "2022.04.05 21:00",
    "o": 1.09124,
    "h": 1.09144,
    "l": 1.09021,
    "c": 1.09034,
    "v": 1940
  },
  {
    "dt": "2022.04.05 22:00",
    "o": 1.09037,
    "h": 1.09047,
    "l": 1.08991,
    "c": 1.0903,
    "v": 1913
  },
  {
    "dt": "2022.04.05 23:00",
    "o": 1.0903,
    "h": 1.09054,
    "l": 1.0902,
    "c": 1.09048,
    "v": 976
  },
  {
    "dt": "2022.04.06 00:00",
    "o": 1.09039,
    "h": 1.09044,
    "l": 1.09009,
    "c": 1.09042,
    "v": 256
  },
  {
    "dt": "2022.04.06 01:00",
    "o": 1.09041,
    "h": 1.09072,
    "l": 1.09036,
    "c": 1.09064,
    "v": 725
  },
  {
    "dt": "2022.04.06 02:00",
    "o": 1.09058,
    "h": 1.09074,
    "l": 1.0904,
    "c": 1.0905,
    "v": 810
  },
  {
    "dt": "2022.04.06 03:00",
    "o": 1.09051,
    "h": 1.09055,
    "l": 1.08932,
    "c": 1.08936,
    "v": 2031
  },
  {
    "dt": "2022.04.06 04:00",
    "o": 1.08935,
    "h": 1.08955,
    "l": 1.08898,
    "c": 1.08908,
    "v": 2480
  },
  {
    "dt": "2022.04.06 05:00",
    "o": 1.08907,
    "h": 1.09024,
    "l": 1.08902,
    "c": 1.08955,
    "v": 2043
  },
  {
    "dt": "2022.04.06 06:00",
    "o": 1.08956,
    "h": 1.0902,
    "l": 1.08949,
    "c": 1.08996,
    "v": 1773
  },
  {
    "dt": "2022.04.06 07:00",
    "o": 1.08996,
    "h": 1.09006,
    "l": 1.08923,
    "c": 1.0896,
    "v": 1436
  },
  {
    "dt": "2022.04.06 08:00",
    "o": 1.08959,
    "h": 1.08998,
    "l": 1.08825,
    "c": 1.08828,
    "v": 1704
  },
  {
    "dt": "2022.04.06 09:00",
    "o": 1.08828,
    "h": 1.08875,
    "l": 1.08734,
    "c": 1.08873,
    "v": 3156
  },
  {
    "dt": "2022.04.06 10:00",
    "o": 1.08871,
    "h": 1.09011,
    "l": 1.08832,
    "c": 1.08946,
    "v": 4003
  },
  {
    "dt": "2022.04.06 11:00",
    "o": 1.08944,
    "h": 1.09255,
    "l": 1.08905,
    "c": 1.09223,
    "v": 3676
  },
  {
    "dt": "2022.04.06 12:00",
    "o": 1.09224,
    "h": 1.09248,
    "l": 1.09061,
    "c": 1.09118,
    "v": 3146
  },
  {
    "dt": "2022.04.06 13:00",
    "o": 1.09119,
    "h": 1.0913,
    "l": 1.08985,
    "c": 1.09112,
    "v": 2832
  },
  {
    "dt": "2022.04.06 14:00",
    "o": 1.09107,
    "h": 1.09178,
    "l": 1.09037,
    "c": 1.09161,
    "v": 2893
  },
  {
    "dt": "2022.04.06 15:00",
    "o": 1.0917,
    "h": 1.0937,
    "l": 1.0917,
    "c": 1.09324,
    "v": 3314
  },
  {
    "dt": "2022.04.06 16:00",
    "o": 1.09325,
    "h": 1.09363,
    "l": 1.09117,
    "c": 1.09119,
    "v": 3409
  },
  {
    "dt": "2022.04.06 17:00",
    "o": 1.0913,
    "h": 1.09231,
    "l": 1.09047,
    "c": 1.09189,
    "v": 3703
  },
  {
    "dt": "2022.04.06 18:00",
    "o": 1.09182,
    "h": 1.09217,
    "l": 1.0902,
    "c": 1.09095,
    "v": 3209
  },
  {
    "dt": "2022.04.06 19:00",
    "o": 1.091,
    "h": 1.09148,
    "l": 1.09029,
    "c": 1.09075,
    "v": 2396
  },
  {
    "dt": "2022.04.06 20:00",
    "o": 1.09072,
    "h": 1.09097,
    "l": 1.08989,
    "c": 1.08995,
    "v": 2050
  },
  {
    "dt": "2022.04.06 21:00",
    "o": 1.08997,
    "h": 1.09282,
    "l": 1.08781,
    "c": 1.08986,
    "v": 5608
  },
  {
    "dt": "2022.04.06 22:00",
    "o": 1.08988,
    "h": 1.09055,
    "l": 1.08909,
    "c": 1.08996,
    "v": 3340
  },
  {
    "dt": "2022.04.06 23:00",
    "o": 1.08995,
    "h": 1.09012,
    "l": 1.08939,
    "c": 1.08954,
    "v": 1050
  },
  {
    "dt": "2022.04.07 00:00",
    "o": 1.0888,
    "h": 1.08969,
    "l": 1.0888,
    "c": 1.08965,
    "v": 255
  },
  {
    "dt": "2022.04.07 01:00",
    "o": 1.08968,
    "h": 1.08987,
    "l": 1.08937,
    "c": 1.08952,
    "v": 669
  },
  {
    "dt": "2022.04.07 02:00",
    "o": 1.08954,
    "h": 1.08987,
    "l": 1.08944,
    "c": 1.08967,
    "v": 1044
  },
  {
    "dt": "2022.04.07 03:00",
    "o": 1.08966,
    "h": 1.09114,
    "l": 1.08959,
    "c": 1.0911,
    "v": 2654
  },
  {
    "dt": "2022.04.07 04:00",
    "o": 1.09111,
    "h": 1.09119,
    "l": 1.09035,
    "c": 1.09097,
    "v": 2319
  },
  {
    "dt": "2022.04.07 05:00",
    "o": 1.09093,
    "h": 1.09109,
    "l": 1.09037,
    "c": 1.09108,
    "v": 1724
  },
  {
    "dt": "2022.04.07 06:00",
    "o": 1.09105,
    "h": 1.09116,
    "l": 1.09044,
    "c": 1.09063,
    "v": 1579
  },
  {
    "dt": "2022.04.07 07:00",
    "o": 1.09064,
    "h": 1.09152,
    "l": 1.09052,
    "c": 1.09134,
    "v": 1255
  },
  {
    "dt": "2022.04.07 08:00",
    "o": 1.09133,
    "h": 1.09196,
    "l": 1.09088,
    "c": 1.09177,
    "v": 1758
  },
  {
    "dt": "2022.04.07 09:00",
    "o": 1.09178,
    "h": 1.09334,
    "l": 1.09118,
    "c": 1.09164,
    "v": 2934
  },
  {
    "dt": "2022.04.07 10:00",
    "o": 1.09173,
    "h": 1.09181,
    "l": 1.0894,
    "c": 1.08978,
    "v": 3509
  },
  {
    "dt": "2022.04.07 11:00",
    "o": 1.08971,
    "h": 1.08999,
    "l": 1.08747,
    "c": 1.08772,
    "v": 3215
  },
  {
    "dt": "2022.04.07 12:00",
    "o": 1.08772,
    "h": 1.08966,
    "l": 1.08643,
    "c": 1.08912,
    "v": 3301
  },
  {
    "dt": "2022.04.07 13:00",
    "o": 1.08913,
    "h": 1.08977,
    "l": 1.08859,
    "c": 1.08932,
    "v": 2457
  },
  {
    "dt": "2022.04.07 14:00",
    "o": 1.08933,
    "h": 1.09208,
    "l": 1.089,
    "c": 1.09105,
    "v": 4333
  },
  {
    "dt": "2022.04.07 15:00",
    "o": 1.09102,
    "h": 1.09258,
    "l": 1.09093,
    "c": 1.09129,
    "v": 3282
  },
  {
    "dt": "2022.04.07 16:00",
    "o": 1.09127,
    "h": 1.09376,
    "l": 1.09064,
    "c": 1.09135,
    "v": 3703
  },
  {
    "dt": "2022.04.07 17:00",
    "o": 1.09136,
    "h": 1.09226,
    "l": 1.08973,
    "c": 1.09103,
    "v": 4469
  },
  {
    "dt": "2022.04.07 18:00",
    "o": 1.09104,
    "h": 1.09145,
    "l": 1.08946,
    "c": 1.08977,
    "v": 3539
  },
  {
    "dt": "2022.04.07 19:00",
    "o": 1.08976,
    "h": 1.08993,
    "l": 1.08759,
    "c": 1.08764,
    "v": 2723
  },
  {
    "dt": "2022.04.07 20:00",
    "o": 1.08763,
    "h": 1.08915,
    "l": 1.08759,
    "c": 1.08824,
    "v": 2354
  },
  {
    "dt": "2022.04.07 21:00",
    "o": 1.08822,
    "h": 1.08875,
    "l": 1.08732,
    "c": 1.08792,
    "v": 2266
  },
  {
    "dt": "2022.04.07 22:00",
    "o": 1.08795,
    "h": 1.08814,
    "l": 1.08669,
    "c": 1.08714,
    "v": 2067
  },
  {
    "dt": "2022.04.07 23:00",
    "o": 1.08713,
    "h": 1.08808,
    "l": 1.08693,
    "c": 1.08791,
    "v": 1185
  },
  {
    "dt": "2022.04.08 00:00",
    "o": 1.08749,
    "h": 1.08787,
    "l": 1.08749,
    "c": 1.08778,
    "v": 198
  },
  {
    "dt": "2022.04.08 01:00",
    "o": 1.08775,
    "h": 1.08813,
    "l": 1.08715,
    "c": 1.0874,
    "v": 868
  },
  {
    "dt": "2022.04.08 02:00",
    "o": 1.08744,
    "h": 1.08744,
    "l": 1.08595,
    "c": 1.08635,
    "v": 1113
  },
  {
    "dt": "2022.04.08 03:00",
    "o": 1.0864,
    "h": 1.0871,
    "l": 1.0857,
    "c": 1.08612,
    "v": 2963
  },
  {
    "dt": "2022.04.08 04:00",
    "o": 1.08613,
    "h": 1.0869,
    "l": 1.08583,
    "c": 1.08649,
    "v": 2495
  },
  {
    "dt": "2022.04.08 05:00",
    "o": 1.08649,
    "h": 1.08674,
    "l": 1.08561,
    "c": 1.0858,
    "v": 2024
  },
  {
    "dt": "2022.04.08 06:00",
    "o": 1.08579,
    "h": 1.0864,
    "l": 1.08557,
    "c": 1.08631,
    "v": 1403
  },
  {
    "dt": "2022.04.08 07:00",
    "o": 1.0863,
    "h": 1.0863,
    "l": 1.0854,
    "c": 1.0854,
    "v": 1323
  },
  {
    "dt": "2022.04.08 08:00",
    "o": 1.0854,
    "h": 1.08671,
    "l": 1.0854,
    "c": 1.08669,
    "v": 1873
  },
  {
    "dt": "2022.04.08 09:00",
    "o": 1.08662,
    "h": 1.08684,
    "l": 1.08576,
    "c": 1.0861,
    "v": 2682
  },
  {
    "dt": "2022.04.08 10:00",
    "o": 1.08608,
    "h": 1.08668,
    "l": 1.08473,
    "c": 1.08664,
    "v": 3487
  },
  {
    "dt": "2022.04.08 11:00",
    "o": 1.08664,
    "h": 1.08782,
    "l": 1.08596,
    "c": 1.0866,
    "v": 3076
  },
  {
    "dt": "2022.04.08 12:00",
    "o": 1.0866,
    "h": 1.08787,
    "l": 1.08634,
    "c": 1.08684,
    "v": 2694
  },
  {
    "dt": "2022.04.08 13:00",
    "o": 1.08681,
    "h": 1.0891,
    "l": 1.08624,
    "c": 1.08853,
    "v": 2729
  },
  {
    "dt": "2022.04.08 14:00",
    "o": 1.08859,
    "h": 1.08871,
    "l": 1.08582,
    "c": 1.08629,
    "v": 2727
  },
  {
    "dt": "2022.04.08 15:00",
    "o": 1.08629,
    "h": 1.08654,
    "l": 1.08493,
    "c": 1.08522,
    "v": 2942
  },
  {
    "dt": "2022.04.08 16:00",
    "o": 1.08515,
    "h": 1.08569,
    "l": 1.08356,
    "c": 1.08393,
    "v": 3605
  },
  {
    "dt": "2022.04.08 17:00",
    "o": 1.08389,
    "h": 1.0879,
    "l": 1.08382,
    "c": 1.0872,
    "v": 3708
  },
  {
    "dt": "2022.04.08 18:00",
    "o": 1.08714,
    "h": 1.08807,
    "l": 1.08694,
    "c": 1.08732,
    "v": 3038
  },
  {
    "dt": "2022.04.08 19:00",
    "o": 1.08728,
    "h": 1.08759,
    "l": 1.08668,
    "c": 1.08715,
    "v": 2056
  },
  {
    "dt": "2022.04.08 20:00",
    "o": 1.08715,
    "h": 1.08746,
    "l": 1.08642,
    "c": 1.0871,
    "v": 1882
  },
  {
    "dt": "2022.04.08 21:00",
    "o": 1.08716,
    "h": 1.08843,
    "l": 1.08688,
    "c": 1.08827,
    "v": 1963
  },
  {
    "dt": "2022.04.08 22:00",
    "o": 1.08837,
    "h": 1.08839,
    "l": 1.08742,
    "c": 1.08774,
    "v": 1771
  },
  {
    "dt": "2022.04.08 23:00",
    "o": 1.08771,
    "h": 1.0878,
    "l": 1.08714,
    "c": 1.08752,
    "v": 931
  },
  {
    "dt": "2022.04.11 00:00",
    "o": 1.0918,
    "h": 1.0918,
    "l": 1.08953,
    "c": 1.09066,
    "v": 599
  },
  {
    "dt": "2022.04.11 01:00",
    "o": 1.09034,
    "h": 1.09123,
    "l": 1.0885,
    "c": 1.08907,
    "v": 1669
  },
  {
    "dt": "2022.04.11 02:00",
    "o": 1.08909,
    "h": 1.08931,
    "l": 1.08835,
    "c": 1.08835,
    "v": 1544
  },
  {
    "dt": "2022.04.11 03:00",
    "o": 1.08836,
    "h": 1.08915,
    "l": 1.08796,
    "c": 1.08872,
    "v": 2020
  },
  {
    "dt": "2022.04.11 04:00",
    "o": 1.08873,
    "h": 1.08939,
    "l": 1.08844,
    "c": 1.08895,
    "v": 2232
  },
  {
    "dt": "2022.04.11 05:00",
    "o": 1.08895,
    "h": 1.08901,
    "l": 1.08743,
    "c": 1.08758,
    "v": 2334
  },
  {
    "dt": "2022.04.11 06:00",
    "o": 1.08757,
    "h": 1.08858,
    "l": 1.08754,
    "c": 1.08824,
    "v": 1784
  },
  {
    "dt": "2022.04.11 07:00",
    "o": 1.08824,
    "h": 1.08865,
    "l": 1.08791,
    "c": 1.08843,
    "v": 1443
  },
  {
    "dt": "2022.04.11 08:00",
    "o": 1.08843,
    "h": 1.08922,
    "l": 1.08804,
    "c": 1.08917,
    "v": 2020
  },
  {
    "dt": "2022.04.11 09:00",
    "o": 1.08916,
    "h": 1.08923,
    "l": 1.08733,
    "c": 1.08816,
    "v": 3277
  },
  {
    "dt": "2022.04.11 10:00",
    "o": 1.08809,
    "h": 1.09126,
    "l": 1.08769,
    "c": 1.09089,
    "v": 4002
  },
  {
    "dt": "2022.04.11 11:00",
    "o": 1.09093,
    "h": 1.09174,
    "l": 1.0903,
    "c": 1.09063,
    "v": 2942
  },
  {
    "dt": "2022.04.11 12:00",
    "o": 1.09063,
    "h": 1.09273,
    "l": 1.0903,
    "c": 1.09243,
    "v": 2685
  },
  {
    "dt": "2022.04.11 13:00",
    "o": 1.09245,
    "h": 1.09324,
    "l": 1.09039,
    "c": 1.09114,
    "v": 2868
  },
  {
    "dt": "2022.04.11 14:00",
    "o": 1.09117,
    "h": 1.09127,
    "l": 1.0897,
    "c": 1.09004,
    "v": 2537
  },
  {
    "dt": "2022.04.11 15:00",
    "o": 1.09009,
    "h": 1.09052,
    "l": 1.08916,
    "c": 1.09043,
    "v": 2818
  },
  {
    "dt": "2022.04.11 16:00",
    "o": 1.09042,
    "h": 1.09051,
    "l": 1.08783,
    "c": 1.08803,
    "v": 3350
  },
  {
    "dt": "2022.04.11 17:00",
    "o": 1.08804,
    "h": 1.08974,
    "l": 1.0877,
    "c": 1.08949,
    "v": 3497
  },
  {
    "dt": "2022.04.11 18:00",
    "o": 1.08951,
    "h": 1.08988,
    "l": 1.08728,
    "c": 1.08749,
    "v": 3051
  },
  {
    "dt": "2022.04.11 19:00",
    "o": 1.08748,
    "h": 1.08841,
    "l": 1.0872,
    "c": 1.08769,
    "v": 2174
  },
  {
    "dt": "2022.04.11 20:00",
    "o": 1.08772,
    "h": 1.08879,
    "l": 1.08768,
    "c": 1.08814,
    "v": 2119
  },
  {
    "dt": "2022.04.11 21:00",
    "o": 1.08816,
    "h": 1.08939,
    "l": 1.08798,
    "c": 1.08891,
    "v": 2145
  },
  {
    "dt": "2022.04.11 22:00",
    "o": 1.0889,
    "h": 1.08899,
    "l": 1.08808,
    "c": 1.08828,
    "v": 2024
  },
  {
    "dt": "2022.04.11 23:00",
    "o": 1.08829,
    "h": 1.08843,
    "l": 1.08792,
    "c": 1.08827,
    "v": 1147
  },
  {
    "dt": "2022.04.12 00:00",
    "o": 1.08813,
    "h": 1.08849,
    "l": 1.08789,
    "c": 1.08816,
    "v": 268
  },
  {
    "dt": "2022.04.12 01:00",
    "o": 1.08817,
    "h": 1.08853,
    "l": 1.0879,
    "c": 1.08797,
    "v": 903
  },
  {
    "dt": "2022.04.12 02:00",
    "o": 1.08798,
    "h": 1.08846,
    "l": 1.08757,
    "c": 1.0876,
    "v": 1335
  },
  {
    "dt": "2022.04.12 03:00",
    "o": 1.08762,
    "h": 1.08863,
    "l": 1.08701,
    "c": 1.08736,
    "v": 2334
  },
  {
    "dt": "2022.04.12 04:00",
    "o": 1.08734,
    "h": 1.08734,
    "l": 1.08655,
    "c": 1.087,
    "v": 2110
  },
  {
    "dt": "2022.04.12 05:00",
    "o": 1.087,
    "h": 1.0874,
    "l": 1.08659,
    "c": 1.08707,
    "v": 1985
  },
  {
    "dt": "2022.04.12 06:00",
    "o": 1.08707,
    "h": 1.08759,
    "l": 1.08704,
    "c": 1.08738,
    "v": 1534
  },
  {
    "dt": "2022.04.12 07:00",
    "o": 1.08738,
    "h": 1.08823,
    "l": 1.08738,
    "c": 1.08786,
    "v": 1578
  },
  {
    "dt": "2022.04.12 08:00",
    "o": 1.08786,
    "h": 1.08812,
    "l": 1.08693,
    "c": 1.08697,
    "v": 2101
  },
  {
    "dt": "2022.04.12 09:00",
    "o": 1.0869,
    "h": 1.08713,
    "l": 1.08593,
    "c": 1.08596,
    "v": 2949
  },
  {
    "dt": "2022.04.12 10:00",
    "o": 1.08594,
    "h": 1.08719,
    "l": 1.08525,
    "c": 1.08702,
    "v": 3861
  },
  {
    "dt": "2022.04.12 11:00",
    "o": 1.08701,
    "h": 1.08705,
    "l": 1.08544,
    "c": 1.0861,
    "v": 2991
  },
  {
    "dt": "2022.04.12 12:00",
    "o": 1.0861,
    "h": 1.08729,
    "l": 1.0859,
    "c": 1.08729,
    "v": 2609
  },
  {
    "dt": "2022.04.12 13:00",
    "o": 1.08728,
    "h": 1.08731,
    "l": 1.08648,
    "c": 1.08662,
    "v": 2324
  },
  {
    "dt": "2022.04.12 14:00",
    "o": 1.08661,
    "h": 1.08677,
    "l": 1.08538,
    "c": 1.08615,
    "v": 2701
  },
  {
    "dt": "2022.04.12 15:00",
    "o": 1.0862,
    "h": 1.09028,
    "l": 1.08502,
    "c": 1.08948,
    "v": 4378
  },
  {
    "dt": "2022.04.12 16:00",
    "o": 1.0895,
    "h": 1.0902,
    "l": 1.0868,
    "c": 1.08693,
    "v": 5053
  },
  {
    "dt": "2022.04.12 17:00",
    "o": 1.08694,
    "h": 1.08875,
    "l": 1.08693,
    "c": 1.08721,
    "v": 4176
  },
  {
    "dt": "2022.04.12 18:00",
    "o": 1.08719,
    "h": 1.08745,
    "l": 1.08506,
    "c": 1.08518,
    "v": 3710
  },
  {
    "dt": "2022.04.12 19:00",
    "o": 1.08518,
    "h": 1.08641,
    "l": 1.08312,
    "c": 1.08406,
    "v": 3893
  },
  {
    "dt": "2022.04.12 20:00",
    "o": 1.08409,
    "h": 1.0844,
    "l": 1.08268,
    "c": 1.08276,
    "v": 3198
  },
  {
    "dt": "2022.04.12 21:00",
    "o": 1.08275,
    "h": 1.0831,
    "l": 1.08205,
    "c": 1.08271,
    "v": 2500
  },
  {
    "dt": "2022.04.12 22:00",
    "o": 1.08271,
    "h": 1.08329,
    "l": 1.08271,
    "c": 1.08298,
    "v": 2122
  },
  {
    "dt": "2022.04.12 23:00",
    "o": 1.08297,
    "h": 1.08303,
    "l": 1.08247,
    "c": 1.08251,
    "v": 1023
  },
  {
    "dt": "2022.04.13 00:00",
    "o": 1.08261,
    "h": 1.08272,
    "l": 1.08249,
    "c": 1.08265,
    "v": 580
  },
  {
    "dt": "2022.04.13 01:00",
    "o": 1.08264,
    "h": 1.08304,
    "l": 1.08249,
    "c": 1.08273,
    "v": 938
  },
  {
    "dt": "2022.04.13 02:00",
    "o": 1.08273,
    "h": 1.08279,
    "l": 1.08226,
    "c": 1.08251,
    "v": 1041
  },
  {
    "dt": "2022.04.13 03:00",
    "o": 1.08251,
    "h": 1.08285,
    "l": 1.08108,
    "c": 1.0815,
    "v": 2077
  },
  {
    "dt": "2022.04.13 04:00",
    "o": 1.0815,
    "h": 1.08298,
    "l": 1.08137,
    "c": 1.08294,
    "v": 2196
  },
  {
    "dt": "2022.04.13 05:00",
    "o": 1.08292,
    "h": 1.08378,
    "l": 1.08272,
    "c": 1.08343,
    "v": 2110
  },
  {
    "dt": "2022.04.13 06:00",
    "o": 1.08343,
    "h": 1.084,
    "l": 1.0832,
    "c": 1.08364,
    "v": 1638
  },
  {
    "dt": "2022.04.13 07:00",
    "o": 1.08363,
    "h": 1.08379,
    "l": 1.08285,
    "c": 1.08326,
    "v": 1663
  },
  {
    "dt": "2022.04.13 08:00",
    "o": 1.08327,
    "h": 1.0843,
    "l": 1.08286,
    "c": 1.08427,
    "v": 1764
  },
  {
    "dt": "2022.04.13 09:00",
    "o": 1.08425,
    "h": 1.08438,
    "l": 1.08204,
    "c": 1.08211,
    "v": 3590
  },
  {
    "dt": "2022.04.13 10:00",
    "o": 1.08215,
    "h": 1.08391,
    "l": 1.08143,
    "c": 1.08373,
    "v": 3481
  },
  {
    "dt": "2022.04.13 11:00",
    "o": 1.08371,
    "h": 1.08381,
    "l": 1.08263,
    "c": 1.08361,
    "v": 2873
  },
  {
    "dt": "2022.04.13 12:00",
    "o": 1.08361,
    "h": 1.08361,
    "l": 1.08244,
    "c": 1.08337,
    "v": 2533
  },
  {
    "dt": "2022.04.13 13:00",
    "o": 1.0834,
    "h": 1.08345,
    "l": 1.08225,
    "c": 1.08261,
    "v": 2279
  },
  {
    "dt": "2022.04.13 14:00",
    "o": 1.0826,
    "h": 1.08471,
    "l": 1.08251,
    "c": 1.08297,
    "v": 3268
  },
  {
    "dt": "2022.04.13 15:00",
    "o": 1.08301,
    "h": 1.08337,
    "l": 1.08143,
    "c": 1.08172,
    "v": 3853
  },
  {
    "dt": "2022.04.13 16:00",
    "o": 1.0817,
    "h": 1.08265,
    "l": 1.08081,
    "c": 1.08159,
    "v": 4031
  },
  {
    "dt": "2022.04.13 17:00",
    "o": 1.0816,
    "h": 1.08479,
    "l": 1.08136,
    "c": 1.08466,
    "v": 3884
  },
  {
    "dt": "2022.04.13 18:00",
    "o": 1.08467,
    "h": 1.08724,
    "l": 1.08443,
    "c": 1.08706,
    "v": 3334
  },
  {
    "dt": "2022.04.13 19:00",
    "o": 1.08707,
    "h": 1.08933,
    "l": 1.08707,
    "c": 1.0881,
    "v": 3294
  },
  {
    "dt": "2022.04.13 20:00",
    "o": 1.08812,
    "h": 1.08852,
    "l": 1.08728,
    "c": 1.0874,
    "v": 2603
  },
  {
    "dt": "2022.04.13 21:00",
    "o": 1.08741,
    "h": 1.08863,
    "l": 1.08711,
    "c": 1.08848,
    "v": 2449
  },
  {
    "dt": "2022.04.13 22:00",
    "o": 1.08849,
    "h": 1.08894,
    "l": 1.08819,
    "c": 1.0882,
    "v": 2123
  },
  {
    "dt": "2022.04.13 23:00",
    "o": 1.08822,
    "h": 1.08919,
    "l": 1.08822,
    "c": 1.08909,
    "v": 960
  },
  {
    "dt": "2022.04.14 00:00",
    "o": 1.08837,
    "h": 1.08906,
    "l": 1.08781,
    "c": 1.08883,
    "v": 702
  },
  {
    "dt": "2022.04.14 01:00",
    "o": 1.08884,
    "h": 1.08916,
    "l": 1.08859,
    "c": 1.08885,
    "v": 1013
  },
  {
    "dt": "2022.04.14 02:00",
    "o": 1.08888,
    "h": 1.08961,
    "l": 1.08886,
    "c": 1.08943,
    "v": 1097
  },
  {
    "dt": "2022.04.14 03:00",
    "o": 1.08943,
    "h": 1.08991,
    "l": 1.08819,
    "c": 1.08839,
    "v": 2331
  },
  {
    "dt": "2022.04.14 04:00",
    "o": 1.08839,
    "h": 1.0908,
    "l": 1.0882,
    "c": 1.09054,
    "v": 2433
  },
  {
    "dt": "2022.04.14 05:00",
    "o": 1.09058,
    "h": 1.09072,
    "l": 1.0901,
    "c": 1.09011,
    "v": 1972
  },
  {
    "dt": "2022.04.14 06:00",
    "o": 1.09012,
    "h": 1.09086,
    "l": 1.09012,
    "c": 1.09063,
    "v": 1564
  },
  {
    "dt": "2022.04.14 07:00",
    "o": 1.09062,
    "h": 1.0912,
    "l": 1.09026,
    "c": 1.09113,
    "v": 1513
  },
  {
    "dt": "2022.04.14 08:00",
    "o": 1.09115,
    "h": 1.09172,
    "l": 1.09086,
    "c": 1.09091,
    "v": 1749
  },
  {
    "dt": "2022.04.14 09:00",
    "o": 1.09094,
    "h": 1.09224,
    "l": 1.09094,
    "c": 1.09168,
    "v": 2624
  },
  {
    "dt": "2022.04.14 10:00",
    "o": 1.09173,
    "h": 1.09188,
    "l": 1.09027,
    "c": 1.09079,
    "v": 3370
  },
  {
    "dt": "2022.04.14 11:00",
    "o": 1.09076,
    "h": 1.09115,
    "l": 1.09022,
    "c": 1.09073,
    "v": 2562
  },
  {
    "dt": "2022.04.14 12:00",
    "o": 1.09074,
    "h": 1.09168,
    "l": 1.0901,
    "c": 1.0913,
    "v": 2404
  },
  {
    "dt": "2022.04.14 13:00",
    "o": 1.0913,
    "h": 1.09164,
    "l": 1.09008,
    "c": 1.0905,
    "v": 2171
  },
  {
    "dt": "2022.04.14 14:00",
    "o": 1.09049,
    "h": 1.09159,
    "l": 1.08627,
    "c": 1.08643,
    "v": 3176
  },
  {
    "dt": "2022.04.14 15:00",
    "o": 1.08644,
    "h": 1.08884,
    "l": 1.08433,
    "c": 1.08466,
    "v": 4877
  },
  {
    "dt": "2022.04.14 16:00",
    "o": 1.08471,
    "h": 1.08482,
    "l": 1.07567,
    "c": 1.07692,
    "v": 5484
  },
  {
    "dt": "2022.04.14 17:00",
    "o": 1.07698,
    "h": 1.07975,
    "l": 1.07681,
    "c": 1.07771,
    "v": 4991
  },
  {
    "dt": "2022.04.14 18:00",
    "o": 1.0777,
    "h": 1.08167,
    "l": 1.0773,
    "c": 1.07963,
    "v": 4674
  },
  {
    "dt": "2022.04.14 19:00",
    "o": 1.07965,
    "h": 1.08307,
    "l": 1.07939,
    "c": 1.08153,
    "v": 3591
  },
  {
    "dt": "2022.04.14 20:00",
    "o": 1.08152,
    "h": 1.08261,
    "l": 1.08081,
    "c": 1.08233,
    "v": 2553
  },
  {
    "dt": "2022.04.14 21:00",
    "o": 1.08233,
    "h": 1.08303,
    "l": 1.08201,
    "c": 1.08294,
    "v": 1927
  },
  {
    "dt": "2022.04.14 22:00",
    "o": 1.08295,
    "h": 1.08341,
    "l": 1.08228,
    "c": 1.08236,
    "v": 1849
  },
  {
    "dt": "2022.04.14 23:00",
    "o": 1.08237,
    "h": 1.08334,
    "l": 1.08236,
    "c": 1.08285,
    "v": 994
  },
  {
    "dt": "2022.04.15 00:00",
    "o": 1.08265,
    "h": 1.08294,
    "l": 1.08235,
    "c": 1.0825,
    "v": 240
  },
  {
    "dt": "2022.04.15 01:00",
    "o": 1.0825,
    "h": 1.08261,
    "l": 1.08213,
    "c": 1.08224,
    "v": 1196
  },
  {
    "dt": "2022.04.15 02:00",
    "o": 1.08222,
    "h": 1.08251,
    "l": 1.08129,
    "c": 1.08195,
    "v": 2312
  },
  {
    "dt": "2022.04.15 03:00",
    "o": 1.08197,
    "h": 1.08207,
    "l": 1.07969,
    "c": 1.08071,
    "v": 1996
  },
  {
    "dt": "2022.04.15 04:00",
    "o": 1.08072,
    "h": 1.08145,
    "l": 1.08033,
    "c": 1.08108,
    "v": 2325
  },
  {
    "dt": "2022.04.15 05:00",
    "o": 1.08109,
    "h": 1.0813,
    "l": 1.07958,
    "c": 1.07965,
    "v": 2259
  },
  {
    "dt": "2022.04.15 06:00",
    "o": 1.07965,
    "h": 1.08046,
    "l": 1.07965,
    "c": 1.0803,
    "v": 2585
  },
  {
    "dt": "2022.04.15 07:00",
    "o": 1.08031,
    "h": 1.08055,
    "l": 1.08006,
    "c": 1.08042,
    "v": 1089
  },
  {
    "dt": "2022.04.15 08:00",
    "o": 1.0804,
    "h": 1.08065,
    "l": 1.08033,
    "c": 1.08048,
    "v": 752
  },
  {
    "dt": "2022.04.15 09:00",
    "o": 1.08048,
    "h": 1.08064,
    "l": 1.0801,
    "c": 1.08016,
    "v": 868
  },
  {
    "dt": "2022.04.15 10:00",
    "o": 1.08015,
    "h": 1.0811,
    "l": 1.08015,
    "c": 1.08107,
    "v": 1206
  },
  {
    "dt": "2022.04.15 11:00",
    "o": 1.08109,
    "h": 1.08225,
    "l": 1.0808,
    "c": 1.08176,
    "v": 1420
  },
  {
    "dt": "2022.04.15 12:00",
    "o": 1.08175,
    "h": 1.08186,
    "l": 1.08112,
    "c": 1.0813,
    "v": 1551
  },
  {
    "dt": "2022.04.15 13:00",
    "o": 1.08132,
    "h": 1.08158,
    "l": 1.08059,
    "c": 1.08075,
    "v": 2815
  },
  {
    "dt": "2022.04.15 14:00",
    "o": 1.08074,
    "h": 1.08147,
    "l": 1.08041,
    "c": 1.08141,
    "v": 1820
  },
  {
    "dt": "2022.04.15 15:00",
    "o": 1.08142,
    "h": 1.08183,
    "l": 1.08111,
    "c": 1.08117,
    "v": 1850
  },
  {
    "dt": "2022.04.15 16:00",
    "o": 1.08119,
    "h": 1.08121,
    "l": 1.08059,
    "c": 1.0811,
    "v": 1729
  },
  {
    "dt": "2022.04.15 17:00",
    "o": 1.0811,
    "h": 1.0811,
    "l": 1.08057,
    "c": 1.08072,
    "v": 1019
  },
  {
    "dt": "2022.04.15 18:00",
    "o": 1.08071,
    "h": 1.08082,
    "l": 1.08045,
    "c": 1.08064,
    "v": 721
  },
  {
    "dt": "2022.04.15 19:00",
    "o": 1.08062,
    "h": 1.08086,
    "l": 1.08037,
    "c": 1.08041,
    "v": 529
  },
  {
    "dt": "2022.04.15 20:00",
    "o": 1.08042,
    "h": 1.08103,
    "l": 1.08036,
    "c": 1.0808,
    "v": 852
  },
  {
    "dt": "2022.04.15 21:00",
    "o": 1.08085,
    "h": 1.08101,
    "l": 1.08061,
    "c": 1.08087,
    "v": 766
  },
  {
    "dt": "2022.04.15 22:00",
    "o": 1.08087,
    "h": 1.08087,
    "l": 1.08052,
    "c": 1.08077,
    "v": 503
  },
  {
    "dt": "2022.04.15 23:00",
    "o": 1.08076,
    "h": 1.08138,
    "l": 1.08068,
    "c": 1.08138,
    "v": 561
  },
  {
    "dt": "2022.04.18 00:00",
    "o": 1.08026,
    "h": 1.08065,
    "l": 1.08026,
    "c": 1.08064,
    "v": 164
  },
  {
    "dt": "2022.04.18 01:00",
    "o": 1.0807,
    "h": 1.08208,
    "l": 1.08025,
    "c": 1.08196,
    "v": 1539
  },
  {
    "dt": "2022.04.18 02:00",
    "o": 1.08193,
    "h": 1.08207,
    "l": 1.08118,
    "c": 1.0813,
    "v": 1519
  },
  {
    "dt": "2022.04.18 03:00",
    "o": 1.0813,
    "h": 1.0815,
    "l": 1.07926,
    "c": 1.08001,
    "v": 2220
  },
  {
    "dt": "2022.04.18 04:00",
    "o": 1.07998,
    "h": 1.0811,
    "l": 1.07949,
    "c": 1.08058,
    "v": 2506
  },
  {
    "dt": "2022.04.18 05:00",
    "o": 1.08059,
    "h": 1.08084,
    "l": 1.0795,
    "c": 1.0801,
    "v": 1582
  },
  {
    "dt": "2022.04.18 06:00",
    "o": 1.08013,
    "h": 1.08019,
    "l": 1.07899,
    "c": 1.07923,
    "v": 1527
  },
  {
    "dt": "2022.04.18 07:00",
    "o": 1.07921,
    "h": 1.07958,
    "l": 1.07884,
    "c": 1.07915,
    "v": 1378
  },
  {
    "dt": "2022.04.18 08:00",
    "o": 1.07917,
    "h": 1.07942,
    "l": 1.07879,
    "c": 1.07936,
    "v": 1386
  },
  {
    "dt": "2022.04.18 09:00",
    "o": 1.07934,
    "h": 1.07992,
    "l": 1.079,
    "c": 1.07929,
    "v": 1447
  },
  {
    "dt": "2022.04.18 10:00",
    "o": 1.07929,
    "h": 1.08028,
    "l": 1.07861,
    "c": 1.07904,
    "v": 1689
  },
  {
    "dt": "2022.04.18 11:00",
    "o": 1.07904,
    "h": 1.07939,
    "l": 1.07824,
    "c": 1.0791,
    "v": 1533
  },
  {
    "dt": "2022.04.18 12:00",
    "o": 1.07911,
    "h": 1.07975,
    "l": 1.07888,
    "c": 1.07918,
    "v": 1247
  },
  {
    "dt": "2022.04.18 13:00",
    "o": 1.07916,
    "h": 1.08004,
    "l": 1.07892,
    "c": 1.07997,
    "v": 1384
  },
  {
    "dt": "2022.04.18 14:00",
    "o": 1.07997,
    "h": 1.08128,
    "l": 1.07997,
    "c": 1.08086,
    "v": 1809
  },
  {
    "dt": "2022.04.18 15:00",
    "o": 1.08087,
    "h": 1.08137,
    "l": 1.07984,
    "c": 1.08042,
    "v": 2425
  },
  {
    "dt": "2022.04.18 16:00",
    "o": 1.08041,
    "h": 1.08098,
    "l": 1.07957,
    "c": 1.07998,
    "v": 3149
  },
  {
    "dt": "2022.04.18 17:00",
    "o": 1.07996,
    "h": 1.08038,
    "l": 1.07902,
    "c": 1.07917,
    "v": 2477
  },
  {
    "dt": "2022.04.18 18:00",
    "o": 1.07918,
    "h": 1.0797,
    "l": 1.07822,
    "c": 1.07828,
    "v": 2159
  },
  {
    "dt": "2022.04.18 19:00",
    "o": 1.07828,
    "h": 1.07859,
    "l": 1.07691,
    "c": 1.0772,
    "v": 2233
  },
  {
    "dt": "2022.04.18 20:00",
    "o": 1.0772,
    "h": 1.0783,
    "l": 1.07706,
    "c": 1.07821,
    "v": 1824
  },
  {
    "dt": "2022.04.18 21:00",
    "o": 1.07823,
    "h": 1.07855,
    "l": 1.07818,
    "c": 1.07834,
    "v": 1751
  },
  {
    "dt": "2022.04.18 22:00",
    "o": 1.07832,
    "h": 1.07835,
    "l": 1.07773,
    "c": 1.07821,
    "v": 1733
  },
  {
    "dt": "2022.04.18 23:00",
    "o": 1.07823,
    "h": 1.07832,
    "l": 1.07797,
    "c": 1.078,
    "v": 761
  },
  {
    "dt": "2022.04.19 00:00",
    "o": 1.07763,
    "h": 1.07798,
    "l": 1.07747,
    "c": 1.0775,
    "v": 329
  },
  {
    "dt": "2022.04.19 01:00",
    "o": 1.07749,
    "h": 1.07872,
    "l": 1.07749,
    "c": 1.07802,
    "v": 989
  },
  {
    "dt": "2022.04.19 02:00",
    "o": 1.07801,
    "h": 1.07838,
    "l": 1.07745,
    "c": 1.07791,
    "v": 1213
  },
  {
    "dt": "2022.04.19 03:00",
    "o": 1.07791,
    "h": 1.07867,
    "l": 1.07723,
    "c": 1.07781,
    "v": 2611
  },
  {
    "dt": "2022.04.19 04:00",
    "o": 1.07782,
    "h": 1.07835,
    "l": 1.07744,
    "c": 1.07762,
    "v": 2498
  },
  {
    "dt": "2022.04.19 05:00",
    "o": 1.07762,
    "h": 1.0777,
    "l": 1.07604,
    "c": 1.07677,
    "v": 1904
  },
  {
    "dt": "2022.04.19 06:00",
    "o": 1.07678,
    "h": 1.07744,
    "l": 1.07662,
    "c": 1.07717,
    "v": 1760
  },
  {
    "dt": "2022.04.19 07:00",
    "o": 1.07718,
    "h": 1.07808,
    "l": 1.07664,
    "c": 1.07713,
    "v": 1787
  },
  {
    "dt": "2022.04.19 08:00",
    "o": 1.07713,
    "h": 1.07764,
    "l": 1.07657,
    "c": 1.07735,
    "v": 2133
  },
  {
    "dt": "2022.04.19 09:00",
    "o": 1.07732,
    "h": 1.07869,
    "l": 1.07665,
    "c": 1.07819,
    "v": 2795
  },
  {
    "dt": "2022.04.19 10:00",
    "o": 1.07818,
    "h": 1.08019,
    "l": 1.07806,
    "c": 1.0801,
    "v": 3352
  },
  {
    "dt": "2022.04.19 11:00",
    "o": 1.08013,
    "h": 1.08133,
    "l": 1.07924,
    "c": 1.08098,
    "v": 3138
  },
  {
    "dt": "2022.04.19 12:00",
    "o": 1.08101,
    "h": 1.08101,
    "l": 1.07928,
    "c": 1.07975,
    "v": 2565
  },
  {
    "dt": "2022.04.19 13:00",
    "o": 1.07974,
    "h": 1.07974,
    "l": 1.07839,
    "c": 1.07931,
    "v": 2125
  },
  {
    "dt": "2022.04.19 14:00",
    "o": 1.0793,
    "h": 1.07965,
    "l": 1.07842,
    "c": 1.0795,
    "v": 2294
  },
  {
    "dt": "2022.04.19 15:00",
    "o": 1.0795,
    "h": 1.08035,
    "l": 1.07879,
    "c": 1.07931,
    "v": 3318
  },
  {
    "dt": "2022.04.19 16:00",
    "o": 1.07933,
    "h": 1.08074,
    "l": 1.07853,
    "c": 1.0805,
    "v": 3910
  },
  {
    "dt": "2022.04.19 17:00",
    "o": 1.08052,
    "h": 1.08054,
    "l": 1.07842,
    "c": 1.07848,
    "v": 3862
  },
  {
    "dt": "2022.04.19 18:00",
    "o": 1.07842,
    "h": 1.07954,
    "l": 1.07811,
    "c": 1.07886,
    "v": 3058
  },
  {
    "dt": "2022.04.19 19:00",
    "o": 1.07885,
    "h": 1.07972,
    "l": 1.07829,
    "c": 1.07958,
    "v": 2292
  },
  {
    "dt": "2022.04.19 20:00",
    "o": 1.07957,
    "h": 1.08026,
    "l": 1.0788,
    "c": 1.07882,
    "v": 2103
  },
  {
    "dt": "2022.04.19 21:00",
    "o": 1.07884,
    "h": 1.07936,
    "l": 1.07814,
    "c": 1.07894,
    "v": 2202
  },
  {
    "dt": "2022.04.19 22:00",
    "o": 1.07893,
    "h": 1.07911,
    "l": 1.07821,
    "c": 1.07887,
    "v": 1877
  },
  {
    "dt": "2022.04.19 23:00",
    "o": 1.07879,
    "h": 1.07906,
    "l": 1.07842,
    "c": 1.07878,
    "v": 1118
  },
  {
    "dt": "2022.04.20 00:00",
    "o": 1.07865,
    "h": 1.07886,
    "l": 1.07816,
    "c": 1.07874,
    "v": 651
  },
  {
    "dt": "2022.04.20 01:00",
    "o": 1.07873,
    "h": 1.07918,
    "l": 1.07865,
    "c": 1.07894,
    "v": 1506
  },
  {
    "dt": "2022.04.20 02:00",
    "o": 1.07893,
    "h": 1.07944,
    "l": 1.07865,
    "c": 1.07933,
    "v": 1481
  },
  {
    "dt": "2022.04.20 03:00",
    "o": 1.07936,
    "h": 1.07981,
    "l": 1.07861,
    "c": 1.07955,
    "v": 2232
  },
  {
    "dt": "2022.04.20 04:00",
    "o": 1.07957,
    "h": 1.08001,
    "l": 1.07832,
    "c": 1.07961,
    "v": 3215
  },
  {
    "dt": "2022.04.20 05:00",
    "o": 1.07957,
    "h": 1.08087,
    "l": 1.07918,
    "c": 1.08063,
    "v": 2666
  },
  {
    "dt": "2022.04.20 06:00",
    "o": 1.08068,
    "h": 1.08214,
    "l": 1.08053,
    "c": 1.08179,
    "v": 3025
  },
  {
    "dt": "2022.04.20 07:00",
    "o": 1.08181,
    "h": 1.08213,
    "l": 1.0814,
    "c": 1.08194,
    "v": 2259
  },
  {
    "dt": "2022.04.20 08:00",
    "o": 1.08186,
    "h": 1.08191,
    "l": 1.0812,
    "c": 1.08157,
    "v": 2091
  },
  {
    "dt": "2022.04.20 09:00",
    "o": 1.08152,
    "h": 1.08174,
    "l": 1.0807,
    "c": 1.08124,
    "v": 2506
  },
  {
    "dt": "2022.04.20 10:00",
    "o": 1.08123,
    "h": 1.08178,
    "l": 1.08062,
    "c": 1.08084,
    "v": 3090
  },
  {
    "dt": "2022.04.20 11:00",
    "o": 1.08084,
    "h": 1.08404,
    "l": 1.08049,
    "c": 1.08389,
    "v": 2665
  },
  {
    "dt": "2022.04.20 12:00",
    "o": 1.08388,
    "h": 1.08661,
    "l": 1.08287,
    "c": 1.08534,
    "v": 3271
  },
  {
    "dt": "2022.04.20 13:00",
    "o": 1.08533,
    "h": 1.08647,
    "l": 1.08504,
    "c": 1.08579,
    "v": 3126
  },
  {
    "dt": "2022.04.20 14:00",
    "o": 1.08579,
    "h": 1.08584,
    "l": 1.08243,
    "c": 1.0826,
    "v": 2825
  },
  {
    "dt": "2022.04.20 15:00",
    "o": 1.08259,
    "h": 1.08318,
    "l": 1.082,
    "c": 1.08282,
    "v": 3135
  },
  {
    "dt": "2022.04.20 16:00",
    "o": 1.08284,
    "h": 1.08428,
    "l": 1.08212,
    "c": 1.08408,
    "v": 3918
  },
  {
    "dt": "2022.04.20 17:00",
    "o": 1.08406,
    "h": 1.0865,
    "l": 1.08406,
    "c": 1.08636,
    "v": 4002
  },
  {
    "dt": "2022.04.20 18:00",
    "o": 1.08635,
    "h": 1.08653,
    "l": 1.08458,
    "c": 1.08538,
    "v": 2956
  },
  {
    "dt": "2022.04.20 19:00",
    "o": 1.08539,
    "h": 1.08591,
    "l": 1.08402,
    "c": 1.08421,
    "v": 2490
  },
  {
    "dt": "2022.04.20 20:00",
    "o": 1.08419,
    "h": 1.08515,
    "l": 1.08389,
    "c": 1.08509,
    "v": 2474
  },
  {
    "dt": "2022.04.20 21:00",
    "o": 1.08506,
    "h": 1.08566,
    "l": 1.08393,
    "c": 1.08404,
    "v": 2474
  },
  {
    "dt": "2022.04.20 22:00",
    "o": 1.08401,
    "h": 1.08535,
    "l": 1.08399,
    "c": 1.08528,
    "v": 2078
  },
  {
    "dt": "2022.04.20 23:00",
    "o": 1.08522,
    "h": 1.0854,
    "l": 1.0847,
    "c": 1.08534,
    "v": 1064
  },
  {
    "dt": "2022.04.21 00:00",
    "o": 1.08467,
    "h": 1.08506,
    "l": 1.08412,
    "c": 1.08506,
    "v": 288
  },
  {
    "dt": "2022.04.21 01:00",
    "o": 1.08502,
    "h": 1.08544,
    "l": 1.0845,
    "c": 1.0852,
    "v": 1294
  },
  {
    "dt": "2022.04.21 02:00",
    "o": 1.0852,
    "h": 1.08538,
    "l": 1.08461,
    "c": 1.08487,
    "v": 1153
  },
  {
    "dt": "2022.04.21 03:00",
    "o": 1.08477,
    "h": 1.08497,
    "l": 1.08303,
    "c": 1.0835,
    "v": 2330
  },
  {
    "dt": "2022.04.21 04:00",
    "o": 1.08349,
    "h": 1.08428,
    "l": 1.08338,
    "c": 1.0837,
    "v": 2544
  },
  {
    "dt": "2022.04.21 05:00",
    "o": 1.08369,
    "h": 1.08369,
    "l": 1.08235,
    "c": 1.08253,
    "v": 1744
  },
  {
    "dt": "2022.04.21 06:00",
    "o": 1.08254,
    "h": 1.08308,
    "l": 1.08228,
    "c": 1.08297,
    "v": 1847
  },
  {
    "dt": "2022.04.21 07:00",
    "o": 1.08298,
    "h": 1.08346,
    "l": 1.08282,
    "c": 1.08313,
    "v": 1611
  },
  {
    "dt": "2022.04.21 08:00",
    "o": 1.08313,
    "h": 1.0851,
    "l": 1.08309,
    "c": 1.0846,
    "v": 2414
  },
  {
    "dt": "2022.04.21 09:00",
    "o": 1.08457,
    "h": 1.09026,
    "l": 1.08453,
    "c": 1.09014,
    "v": 3674
  },
  {
    "dt": "2022.04.21 10:00",
    "o": 1.09014,
    "h": 1.09354,
    "l": 1.08882,
    "c": 1.09263,
    "v": 4095
  },
  {
    "dt": "2022.04.21 11:00",
    "o": 1.09261,
    "h": 1.09292,
    "l": 1.09104,
    "c": 1.09204,
    "v": 3245
  },
  {
    "dt": "2022.04.21 12:00",
    "o": 1.09206,
    "h": 1.09243,
    "l": 1.09072,
    "c": 1.09132,
    "v": 2734
  },
  {
    "dt": "2022.04.21 13:00",
    "o": 1.09132,
    "h": 1.09208,
    "l": 1.0899,
    "c": 1.08996,
    "v": 2705
  },
  {
    "dt": "2022.04.21 14:00",
    "o": 1.09001,
    "h": 1.09002,
    "l": 1.08737,
    "c": 1.0879,
    "v": 3269
  },
  {
    "dt": "2022.04.21 15:00",
    "o": 1.08794,
    "h": 1.08924,
    "l": 1.0875,
    "c": 1.08901,
    "v": 3152
  },
  {
    "dt": "2022.04.21 16:00",
    "o": 1.08902,
    "h": 1.08951,
    "l": 1.08697,
    "c": 1.08711,
    "v": 3863
  },
  {
    "dt": "2022.04.21 17:00",
    "o": 1.08711,
    "h": 1.08751,
    "l": 1.08404,
    "c": 1.08421,
    "v": 3769
  },
  {
    "dt": "2022.04.21 18:00",
    "o": 1.08419,
    "h": 1.08588,
    "l": 1.0836,
    "c": 1.08411,
    "v": 3757
  },
  {
    "dt": "2022.04.21 19:00",
    "o": 1.08412,
    "h": 1.08492,
    "l": 1.08322,
    "c": 1.08428,
    "v": 3081
  },
  {
    "dt": "2022.04.21 20:00",
    "o": 1.08429,
    "h": 1.08574,
    "l": 1.08367,
    "c": 1.08488,
    "v": 3669
  },
  {
    "dt": "2022.04.21 21:00",
    "o": 1.08484,
    "h": 1.08504,
    "l": 1.0837,
    "c": 1.08376,
    "v": 3110
  },
  {
    "dt": "2022.04.21 22:00",
    "o": 1.08373,
    "h": 1.08412,
    "l": 1.08299,
    "c": 1.08376,
    "v": 2550
  },
  {
    "dt": "2022.04.21 23:00",
    "o": 1.08375,
    "h": 1.08413,
    "l": 1.08302,
    "c": 1.08312,
    "v": 1433
  },
  {
    "dt": "2022.04.22 00:00",
    "o": 1.08347,
    "h": 1.0837,
    "l": 1.08322,
    "c": 1.0834,
    "v": 858
  },
  {
    "dt": "2022.04.22 01:00",
    "o": 1.08346,
    "h": 1.08389,
    "l": 1.08319,
    "c": 1.08388,
    "v": 1074
  },
  {
    "dt": "2022.04.22 02:00",
    "o": 1.0839,
    "h": 1.08392,
    "l": 1.08329,
    "c": 1.08341,
    "v": 1447
  },
  {
    "dt": "2022.04.22 03:00",
    "o": 1.08341,
    "h": 1.08421,
    "l": 1.08311,
    "c": 1.08363,
    "v": 2268
  },
  {
    "dt": "2022.04.22 04:00",
    "o": 1.08366,
    "h": 1.08457,
    "l": 1.08352,
    "c": 1.08399,
    "v": 2520
  },
  {
    "dt": "2022.04.22 05:00",
    "o": 1.08399,
    "h": 1.08436,
    "l": 1.0834,
    "c": 1.08398,
    "v": 1822
  },
  {
    "dt": "2022.04.22 06:00",
    "o": 1.08396,
    "h": 1.0841,
    "l": 1.08301,
    "c": 1.08406,
    "v": 2164
  },
  {
    "dt": "2022.04.22 07:00",
    "o": 1.08406,
    "h": 1.08497,
    "l": 1.08399,
    "c": 1.08449,
    "v": 2002
  },
  {
    "dt": "2022.04.22 08:00",
    "o": 1.08449,
    "h": 1.08508,
    "l": 1.08377,
    "c": 1.08449,
    "v": 2256
  },
  {
    "dt": "2022.04.22 09:00",
    "o": 1.0845,
    "h": 1.08507,
    "l": 1.08241,
    "c": 1.0825,
    "v": 3323
  },
  {
    "dt": "2022.04.22 10:00",
    "o": 1.08257,
    "h": 1.08279,
    "l": 1.08022,
    "c": 1.08065,
    "v": 3949
  },
  {
    "dt": "2022.04.22 11:00",
    "o": 1.08057,
    "h": 1.08105,
    "l": 1.07897,
    "c": 1.07971,
    "v": 3438
  },
  {
    "dt": "2022.04.22 12:00",
    "o": 1.07971,
    "h": 1.08078,
    "l": 1.07915,
    "c": 1.08048,
    "v": 3058
  },
  {
    "dt": "2022.04.22 13:00",
    "o": 1.08046,
    "h": 1.0815,
    "l": 1.07984,
    "c": 1.08149,
    "v": 2565
  },
  {
    "dt": "2022.04.22 14:00",
    "o": 1.08147,
    "h": 1.08243,
    "l": 1.08135,
    "c": 1.08206,
    "v": 2585
  },
  {
    "dt": "2022.04.22 15:00",
    "o": 1.08205,
    "h": 1.08225,
    "l": 1.08142,
    "c": 1.08184,
    "v": 2994
  },
  {
    "dt": "2022.04.22 16:00",
    "o": 1.08187,
    "h": 1.0844,
    "l": 1.08019,
    "c": 1.08051,
    "v": 4173
  },
  {
    "dt": "2022.04.22 17:00",
    "o": 1.08047,
    "h": 1.08161,
    "l": 1.07747,
    "c": 1.07755,
    "v": 4267
  },
  {
    "dt": "2022.04.22 18:00",
    "o": 1.07756,
    "h": 1.0791,
    "l": 1.07699,
    "c": 1.07884,
    "v": 4145
  },
  {
    "dt": "2022.04.22 19:00",
    "o": 1.07882,
    "h": 1.0791,
    "l": 1.07755,
    "c": 1.07784,
    "v": 2704
  },
  {
    "dt": "2022.04.22 20:00",
    "o": 1.07787,
    "h": 1.07941,
    "l": 1.07776,
    "c": 1.07869,
    "v": 2290
  },
  {
    "dt": "2022.04.22 21:00",
    "o": 1.07868,
    "h": 1.07944,
    "l": 1.07839,
    "c": 1.07853,
    "v": 2541
  },
  {
    "dt": "2022.04.22 22:00",
    "o": 1.07857,
    "h": 1.07994,
    "l": 1.07856,
    "c": 1.07921,
    "v": 2685
  },
  {
    "dt": "2022.04.22 23:00",
    "o": 1.07917,
    "h": 1.08012,
    "l": 1.07901,
    "c": 1.07957,
    "v": 1308
  },
  {
    "dt": "2022.04.25 00:00",
    "o": 1.08039,
    "h": 1.08075,
    "l": 1.07954,
    "c": 1.08053,
    "v": 619
  },
  {
    "dt": "2022.04.25 01:00",
    "o": 1.08058,
    "h": 1.0813,
    "l": 1.0795,
    "c": 1.08054,
    "v": 1594
  },
  {
    "dt": "2022.04.25 02:00",
    "o": 1.08053,
    "h": 1.08111,
    "l": 1.08032,
    "c": 1.08084,
    "v": 1387
  },
  {
    "dt": "2022.04.25 03:00",
    "o": 1.08085,
    "h": 1.08111,
    "l": 1.07991,
    "c": 1.08017,
    "v": 2490
  },
  {
    "dt": "2022.04.25 04:00",
    "o": 1.0802,
    "h": 1.08038,
    "l": 1.07829,
    "c": 1.07863,
    "v": 3014
  },
  {
    "dt": "2022.04.25 05:00",
    "o": 1.07865,
    "h": 1.07881,
    "l": 1.07765,
    "c": 1.07806,
    "v": 2656
  },
  {
    "dt": "2022.04.25 06:00",
    "o": 1.07807,
    "h": 1.07875,
    "l": 1.07794,
    "c": 1.07805,
    "v": 1899
  },
  {
    "dt": "2022.04.25 07:00",
    "o": 1.07806,
    "h": 1.07845,
    "l": 1.07715,
    "c": 1.07733,
    "v": 1694
  },
  {
    "dt": "2022.04.25 08:00",
    "o": 1.07737,
    "h": 1.07779,
    "l": 1.07675,
    "c": 1.07745,
    "v": 2221
  },
  {
    "dt": "2022.04.25 09:00",
    "o": 1.0774,
    "h": 1.0777,
    "l": 1.07061,
    "c": 1.07141,
    "v": 4481
  },
  {
    "dt": "2022.04.25 10:00",
    "o": 1.07139,
    "h": 1.07401,
    "l": 1.07128,
    "c": 1.07373,
    "v": 4564
  },
  {
    "dt": "2022.04.25 11:00",
    "o": 1.07371,
    "h": 1.07535,
    "l": 1.07329,
    "c": 1.07438,
    "v": 3820
  },
  {
    "dt": "2022.04.25 12:00",
    "o": 1.07436,
    "h": 1.07482,
    "l": 1.07293,
    "c": 1.07301,
    "v": 3112
  },
  {
    "dt": "2022.04.25 13:00",
    "o": 1.07304,
    "h": 1.07358,
    "l": 1.0719,
    "c": 1.07234,
    "v": 2905
  },
  {
    "dt": "2022.04.25 14:00",
    "o": 1.07233,
    "h": 1.07515,
    "l": 1.07192,
    "c": 1.07488,
    "v": 3965
  },
  {
    "dt": "2022.04.25 15:00",
    "o": 1.07487,
    "h": 1.07574,
    "l": 1.07312,
    "c": 1.07425,
    "v": 4339
  },
  {
    "dt": "2022.04.25 16:00",
    "o": 1.07425,
    "h": 1.07425,
    "l": 1.07147,
    "c": 1.0722,
    "v": 4290
  },
  {
    "dt": "2022.04.25 17:00",
    "o": 1.07217,
    "h": 1.0728,
    "l": 1.0696,
    "c": 1.07063,
    "v": 4631
  },
  {
    "dt": "2022.04.25 18:00",
    "o": 1.07064,
    "h": 1.07155,
    "l": 1.06981,
    "c": 1.07021,
    "v": 4043
  },
  {
    "dt": "2022.04.25 19:00",
    "o": 1.07024,
    "h": 1.0718,
    "l": 1.06958,
    "c": 1.07144,
    "v": 3419
  },
  {
    "dt": "2022.04.25 20:00",
    "o": 1.07145,
    "h": 1.07177,
    "l": 1.07081,
    "c": 1.07124,
    "v": 2893
  },
  {
    "dt": "2022.04.25 21:00",
    "o": 1.07123,
    "h": 1.07181,
    "l": 1.07086,
    "c": 1.07086,
    "v": 2683
  },
  {
    "dt": "2022.04.25 22:00",
    "o": 1.07083,
    "h": 1.07174,
    "l": 1.07039,
    "c": 1.07129,
    "v": 2595
  },
  {
    "dt": "2022.04.25 23:00",
    "o": 1.07128,
    "h": 1.07142,
    "l": 1.07085,
    "c": 1.07109,
    "v": 924
  },
  {
    "dt": "2022.04.26 00:00",
    "o": 1.07106,
    "h": 1.0712,
    "l": 1.07103,
    "c": 1.07112,
    "v": 196
  },
  {
    "dt": "2022.04.26 01:00",
    "o": 1.0712,
    "h": 1.0714,
    "l": 1.07088,
    "c": 1.07122,
    "v": 1053
  },
  {
    "dt": "2022.04.26 02:00",
    "o": 1.07121,
    "h": 1.07136,
    "l": 1.07061,
    "c": 1.07117,
    "v": 1349
  },
  {
    "dt": "2022.04.26 03:00",
    "o": 1.07116,
    "h": 1.07304,
    "l": 1.07106,
    "c": 1.07295,
    "v": 2878
  },
  {
    "dt": "2022.04.26 04:00",
    "o": 1.07292,
    "h": 1.07327,
    "l": 1.07197,
    "c": 1.07241,
    "v": 2861
  },
  {
    "dt": "2022.04.26 05:00",
    "o": 1.07241,
    "h": 1.07307,
    "l": 1.07229,
    "c": 1.07291,
    "v": 2456
  },
  {
    "dt": "2022.04.26 06:00",
    "o": 1.07292,
    "h": 1.07379,
    "l": 1.07288,
    "c": 1.07312,
    "v": 2532
  },
  {
    "dt": "2022.04.26 07:00",
    "o": 1.07314,
    "h": 1.07324,
    "l": 1.07256,
    "c": 1.07272,
    "v": 1569
  },
  {
    "dt": "2022.04.26 08:00",
    "o": 1.07273,
    "h": 1.07327,
    "l": 1.07218,
    "c": 1.07307,
    "v": 1976
  },
  {
    "dt": "2022.04.26 09:00",
    "o": 1.07306,
    "h": 1.07336,
    "l": 1.06998,
    "c": 1.07029,
    "v": 3570
  },
  {
    "dt": "2022.04.26 10:00",
    "o": 1.07028,
    "h": 1.07103,
    "l": 1.06747,
    "c": 1.06754,
    "v": 4255
  },
  {
    "dt": "2022.04.26 11:00",
    "o": 1.06754,
    "h": 1.06914,
    "l": 1.06724,
    "c": 1.06803,
    "v": 3602
  },
  {
    "dt": "2022.04.26 12:00",
    "o": 1.06808,
    "h": 1.06964,
    "l": 1.06802,
    "c": 1.06859,
    "v": 2868
  },
  {
    "dt": "2022.04.26 13:00",
    "o": 1.06858,
    "h": 1.06965,
    "l": 1.06781,
    "c": 1.06891,
    "v": 2584
  },
  {
    "dt": "2022.04.26 14:00",
    "o": 1.0689,
    "h": 1.06933,
    "l": 1.06686,
    "c": 1.06698,
    "v": 2699
  },
  {
    "dt": "2022.04.26 15:00",
    "o": 1.067,
    "h": 1.06827,
    "l": 1.06696,
    "c": 1.06782,
    "v": 3343
  },
  {
    "dt": "2022.04.26 16:00",
    "o": 1.06783,
    "h": 1.06847,
    "l": 1.06633,
    "c": 1.06738,
    "v": 3804
  },
  {
    "dt": "2022.04.26 17:00",
    "o": 1.06736,
    "h": 1.06768,
    "l": 1.06414,
    "c": 1.06496,
    "v": 4382
  },
  {
    "dt": "2022.04.26 18:00",
    "o": 1.06487,
    "h": 1.06627,
    "l": 1.06465,
    "c": 1.06583,
    "v": 3542
  },
  {
    "dt": "2022.04.26 19:00",
    "o": 1.06581,
    "h": 1.06643,
    "l": 1.06529,
    "c": 1.06583,
    "v": 2772
  },
  {
    "dt": "2022.04.26 20:00",
    "o": 1.06585,
    "h": 1.06608,
    "l": 1.0645,
    "c": 1.0646,
    "v": 2224
  },
  {
    "dt": "2022.04.26 21:00",
    "o": 1.06459,
    "h": 1.06505,
    "l": 1.06401,
    "c": 1.06441,
    "v": 2343
  },
  {
    "dt": "2022.04.26 22:00",
    "o": 1.06444,
    "h": 1.06468,
    "l": 1.06376,
    "c": 1.06428,
    "v": 2309
  },
  {
    "dt": "2022.04.26 23:00",
    "o": 1.06427,
    "h": 1.06428,
    "l": 1.0635,
    "c": 1.06365,
    "v": 1391
  },
  {
    "dt": "2022.04.27 00:00",
    "o": 1.06367,
    "h": 1.06385,
    "l": 1.06349,
    "c": 1.06375,
    "v": 341
  },
  {
    "dt": "2022.04.27 01:00",
    "o": 1.06376,
    "h": 1.06448,
    "l": 1.06343,
    "c": 1.06439,
    "v": 1418
  },
  {
    "dt": "2022.04.27 02:00",
    "o": 1.06445,
    "h": 1.06473,
    "l": 1.06417,
    "c": 1.06418,
    "v": 1288
  },
  {
    "dt": "2022.04.27 03:00",
    "o": 1.0642,
    "h": 1.0646,
    "l": 1.06342,
    "c": 1.06426,
    "v": 2111
  },
  {
    "dt": "2022.04.27 04:00",
    "o": 1.06427,
    "h": 1.0646,
    "l": 1.06354,
    "c": 1.06459,
    "v": 2709
  },
  {
    "dt": "2022.04.27 05:00",
    "o": 1.06458,
    "h": 1.06527,
    "l": 1.06335,
    "c": 1.06339,
    "v": 2382
  },
  {
    "dt": "2022.04.27 06:00",
    "o": 1.06343,
    "h": 1.06433,
    "l": 1.06331,
    "c": 1.06401,
    "v": 2114
  },
  {
    "dt": "2022.04.27 07:00",
    "o": 1.06401,
    "h": 1.06496,
    "l": 1.0637,
    "c": 1.0649,
    "v": 1739
  },
  {
    "dt": "2022.04.27 08:00",
    "o": 1.06479,
    "h": 1.06539,
    "l": 1.06466,
    "c": 1.06499,
    "v": 2048
  },
  {
    "dt": "2022.04.27 09:00",
    "o": 1.06488,
    "h": 1.06511,
    "l": 1.06157,
    "c": 1.06199,
    "v": 4040
  },
  {
    "dt": "2022.04.27 10:00",
    "o": 1.06201,
    "h": 1.06278,
    "l": 1.05874,
    "c": 1.06226,
    "v": 4597
  },
  {
    "dt": "2022.04.27 11:00",
    "o": 1.06226,
    "h": 1.0624,
    "l": 1.05846,
    "c": 1.05877,
    "v": 3684
  },
  {
    "dt": "2022.04.27 12:00",
    "o": 1.05873,
    "h": 1.062,
    "l": 1.05854,
    "c": 1.06126,
    "v": 3388
  },
  {
    "dt": "2022.04.27 13:00",
    "o": 1.06126,
    "h": 1.0622,
    "l": 1.06028,
    "c": 1.06096,
    "v": 3055
  },
  {
    "dt": "2022.04.27 14:00",
    "o": 1.06094,
    "h": 1.06098,
    "l": 1.05799,
    "c": 1.05838,
    "v": 3273
  },
  {
    "dt": "2022.04.27 15:00",
    "o": 1.05839,
    "h": 1.0585,
    "l": 1.05445,
    "c": 1.05547,
    "v": 4070
  },
  {
    "dt": "2022.04.27 16:00",
    "o": 1.05552,
    "h": 1.05604,
    "l": 1.05326,
    "c": 1.05474,
    "v": 4269
  },
  {
    "dt": "2022.04.27 17:00",
    "o": 1.05473,
    "h": 1.0553,
    "l": 1.0514,
    "c": 1.0514,
    "v": 4553
  },
  {
    "dt": "2022.04.27 18:00",
    "o": 1.05139,
    "h": 1.05535,
    "l": 1.05139,
    "c": 1.05447,
    "v": 4051
  },
  {
    "dt": "2022.04.27 19:00",
    "o": 1.05448,
    "h": 1.05704,
    "l": 1.05446,
    "c": 1.0562,
    "v": 3027
  },
  {
    "dt": "2022.04.27 20:00",
    "o": 1.05621,
    "h": 1.05715,
    "l": 1.05574,
    "c": 1.05696,
    "v": 2910
  },
  {
    "dt": "2022.04.27 21:00",
    "o": 1.05695,
    "h": 1.05715,
    "l": 1.0555,
    "c": 1.05603,
    "v": 2803
  },
  {
    "dt": "2022.04.27 22:00",
    "o": 1.05597,
    "h": 1.05613,
    "l": 1.05528,
    "c": 1.05575,
    "v": 2925
  },
  {
    "dt": "2022.04.27 23:00",
    "o": 1.05577,
    "h": 1.05598,
    "l": 1.05552,
    "c": 1.05577,
    "v": 1109
  },
  {
    "dt": "2022.04.28 00:00",
    "o": 1.05596,
    "h": 1.05597,
    "l": 1.05517,
    "c": 1.05536,
    "v": 436
  },
  {
    "dt": "2022.04.28 01:00",
    "o": 1.05547,
    "h": 1.05561,
    "l": 1.05493,
    "c": 1.05502,
    "v": 969
  },
  {
    "dt": "2022.04.28 02:00",
    "o": 1.05499,
    "h": 1.05555,
    "l": 1.05487,
    "c": 1.0553,
    "v": 1151
  },
  {
    "dt": "2022.04.28 03:00",
    "o": 1.05531,
    "h": 1.05533,
    "l": 1.05301,
    "c": 1.05377,
    "v": 2301
  },
  {
    "dt": "2022.04.28 04:00",
    "o": 1.05377,
    "h": 1.05524,
    "l": 1.05342,
    "c": 1.05461,
    "v": 2888
  },
  {
    "dt": "2022.04.28 05:00",
    "o": 1.05461,
    "h": 1.05466,
    "l": 1.0532,
    "c": 1.0536,
    "v": 2020
  },
  {
    "dt": "2022.04.28 06:00",
    "o": 1.05359,
    "h": 1.05399,
    "l": 1.05083,
    "c": 1.05083,
    "v": 3791
  },
  {
    "dt": "2022.04.28 07:00",
    "o": 1.05082,
    "h": 1.0526,
    "l": 1.05081,
    "c": 1.05167,
    "v": 2453
  },
  {
    "dt": "2022.04.28 08:00",
    "o": 1.05168,
    "h": 1.0525,
    "l": 1.04815,
    "c": 1.05113,
    "v": 3417
  },
  {
    "dt": "2022.04.28 09:00",
    "o": 1.05115,
    "h": 1.053,
    "l": 1.05059,
    "c": 1.0523,
    "v": 4275
  },
  {
    "dt": "2022.04.28 10:00",
    "o": 1.05232,
    "h": 1.0564,
    "l": 1.05145,
    "c": 1.05541,
    "v": 4999
  },
  {
    "dt": "2022.04.28 11:00",
    "o": 1.0554,
    "h": 1.05553,
    "l": 1.05141,
    "c": 1.05151,
    "v": 3574
  },
  {
    "dt": "2022.04.28 12:00",
    "o": 1.05151,
    "h": 1.05377,
    "l": 1.05131,
    "c": 1.05194,
    "v": 3599
  },
  {
    "dt": "2022.04.28 13:00",
    "o": 1.05195,
    "h": 1.05289,
    "l": 1.04958,
    "c": 1.04963,
    "v": 3357
  },
  {
    "dt": "2022.04.28 14:00",
    "o": 1.04962,
    "h": 1.05089,
    "l": 1.04857,
    "c": 1.049,
    "v": 3661
  },
  {
    "dt": "2022.04.28 15:00",
    "o": 1.049,
    "h": 1.05228,
    "l": 1.04707,
    "c": 1.04842,
    "v": 4741
  },
  {
    "dt": "2022.04.28 16:00",
    "o": 1.04843,
    "h": 1.05132,
    "l": 1.04808,
    "c": 1.05074,
    "v": 4592
  },
  {
    "dt": "2022.04.28 17:00",
    "o": 1.05075,
    "h": 1.05188,
    "l": 1.04812,
    "c": 1.05146,
    "v": 4891
  },
  {
    "dt": "2022.04.28 18:00",
    "o": 1.05151,
    "h": 1.05302,
    "l": 1.04962,
    "c": 1.04991,
    "v": 4216
  },
  {
    "dt": "2022.04.28 19:00",
    "o": 1.04993,
    "h": 1.05142,
    "l": 1.04928,
    "c": 1.05119,
    "v": 3308
  },
  {
    "dt": "2022.04.28 20:00",
    "o": 1.0512,
    "h": 1.0515,
    "l": 1.04963,
    "c": 1.04986,
    "v": 3144
  },
  {
    "dt": "2022.04.28 21:00",
    "o": 1.04987,
    "h": 1.05094,
    "l": 1.0497,
    "c": 1.05034,
    "v": 2052
  },
  {
    "dt": "2022.04.28 22:00",
    "o": 1.05034,
    "h": 1.051,
    "l": 1.05024,
    "c": 1.05089,
    "v": 2190
  },
  {
    "dt": "2022.04.28 23:00",
    "o": 1.05085,
    "h": 1.05088,
    "l": 1.04971,
    "c": 1.04975,
    "v": 1172
  },
  {
    "dt": "2022.04.29 00:00",
    "o": 1.04964,
    "h": 1.05004,
    "l": 1.04964,
    "c": 1.04973,
    "v": 230
  },
  {
    "dt": "2022.04.29 01:00",
    "o": 1.04971,
    "h": 1.05005,
    "l": 1.04904,
    "c": 1.04951,
    "v": 1182
  },
  {
    "dt": "2022.04.29 02:00",
    "o": 1.0495,
    "h": 1.05027,
    "l": 1.04941,
    "c": 1.05024,
    "v": 964
  },
  {
    "dt": "2022.04.29 03:00",
    "o": 1.05027,
    "h": 1.05162,
    "l": 1.05013,
    "c": 1.05151,
    "v": 1923
  },
  {
    "dt": "2022.04.29 04:00",
    "o": 1.05149,
    "h": 1.0529,
    "l": 1.05144,
    "c": 1.05181,
    "v": 2259
  },
  {
    "dt": "2022.04.29 05:00",
    "o": 1.05179,
    "h": 1.05225,
    "l": 1.05042,
    "c": 1.05098,
    "v": 1985
  },
  {
    "dt": "2022.04.29 06:00",
    "o": 1.05098,
    "h": 1.05186,
    "l": 1.05058,
    "c": 1.05125,
    "v": 1952
  },
  {
    "dt": "2022.04.29 07:00",
    "o": 1.05121,
    "h": 1.052,
    "l": 1.0508,
    "c": 1.05158,
    "v": 1455
  },
  {
    "dt": "2022.04.29 08:00",
    "o": 1.05159,
    "h": 1.05409,
    "l": 1.05159,
    "c": 1.05362,
    "v": 2587
  },
  {
    "dt": "2022.04.29 09:00",
    "o": 1.05353,
    "h": 1.0548,
    "l": 1.05302,
    "c": 1.05433,
    "v": 3337
  },
  {
    "dt": "2022.04.29 10:00",
    "o": 1.05428,
    "h": 1.05779,
    "l": 1.05352,
    "c": 1.05611,
    "v": 3852
  },
  {
    "dt": "2022.04.29 11:00",
    "o": 1.0561,
    "h": 1.05921,
    "l": 1.05573,
    "c": 1.05683,
    "v": 3593
  },
  {
    "dt": "2022.04.29 12:00",
    "o": 1.05686,
    "h": 1.05795,
    "l": 1.05649,
    "c": 1.05772,
    "v": 3210
  },
  {
    "dt": "2022.04.29 13:00",
    "o": 1.05771,
    "h": 1.05773,
    "l": 1.05607,
    "c": 1.05638,
    "v": 2831
  },
  {
    "dt": "2022.04.29 14:00",
    "o": 1.05638,
    "h": 1.05782,
    "l": 1.05393,
    "c": 1.05436,
    "v": 3414
  },
  {
    "dt": "2022.04.29 15:00",
    "o": 1.05438,
    "h": 1.05465,
    "l": 1.05091,
    "c": 1.05305,
    "v": 3966
  },
  {
    "dt": "2022.04.29 16:00",
    "o": 1.05304,
    "h": 1.05406,
    "l": 1.05218,
    "c": 1.0533,
    "v": 4256
  },
  {
    "dt": "2022.04.29 17:00",
    "o": 1.05329,
    "h": 1.05586,
    "l": 1.05178,
    "c": 1.05461,
    "v": 4320
  },
  {
    "dt": "2022.04.29 18:00",
    "o": 1.05464,
    "h": 1.05533,
    "l": 1.0532,
    "c": 1.05394,
    "v": 3928
  },
  {
    "dt": "2022.04.29 19:00",
    "o": 1.05391,
    "h": 1.05489,
    "l": 1.05316,
    "c": 1.05486,
    "v": 2700
  },
  {
    "dt": "2022.04.29 20:00",
    "o": 1.05485,
    "h": 1.05781,
    "l": 1.05477,
    "c": 1.05718,
    "v": 2652
  },
  {
    "dt": "2022.04.29 21:00",
    "o": 1.05719,
    "h": 1.05734,
    "l": 1.0563,
    "c": 1.05686,
    "v": 2612
  },
  {
    "dt": "2022.04.29 22:00",
    "o": 1.05685,
    "h": 1.05689,
    "l": 1.05445,
    "c": 1.05481,
    "v": 3288
  },
  {
    "dt": "2022.04.29 23:00",
    "o": 1.05484,
    "h": 1.05511,
    "l": 1.05409,
    "c": 1.05431,
    "v": 1370
  }
]