[
  {
    "dt": "2022.05.02 00:00",
    "o": 91.764,
    "h": 91.802,
    "l": 91.695,
    "c": 91.764,
    "v": 303
  },
  {
    "dt": "2022.05.02 01:00",
    "o": 91.736,
    "h": 92.137,
    "l": 91.734,
    "c": 92.001,
    "v": 2969
  },
  {
    "dt": "2022.05.02 02:00",
    "o": 91.998,
    "h": 92.02,
    "l": 91.781,
    "c": 91.816,
    "v": 3098
  },
  {
    "dt": "2022.05.02 03:00",
    "o": 91.816,
    "h": 91.952,
    "l": 91.673,
    "c": 91.836,
    "v": 4617
  },
  {
    "dt": "2022.05.02 04:00",
    "o": 91.836,
    "h": 91.953,
    "l": 91.636,
    "c": 91.697,
    "v": 3957
  },
  {
    "dt": "2022.05.02 05:00",
    "o": 91.695,
    "h": 91.699,
    "l": 91.517,
    "c": 91.665,
    "v": 3367
  },
  {
    "dt": "2022.05.02 06:00",
    "o": 91.667,
    "h": 91.873,
    "l": 91.665,
    "c": 91.866,
    "v": 3395
  },
  {
    "dt": "2022.05.02 07:00",
    "o": 91.867,
    "h": 91.88,
    "l": 91.712,
    "c": 91.764,
    "v": 2744
  },
  {
    "dt": "2022.05.02 08:00",
    "o": 91.76,
    "h": 91.879,
    "l": 91.685,
    "c": 91.841,
    "v": 3073
  },
  {
    "dt": "2022.05.02 09:00",
    "o": 91.839,
    "h": 92.023,
    "l": 91.832,
    "c": 91.981,
    "v": 4222
  },
  {
    "dt": "2022.05.02 10:00",
    "o": 91.976,
    "h": 91.978,
    "l": 91.616,
    "c": 91.683,
    "v": 4239
  },
  {
    "dt": "2022.05.02 11:00",
    "o": 91.673,
    "h": 91.842,
    "l": 91.575,
    "c": 91.775,
    "v": 4509
  },
  {
    "dt": "2022.05.02 12:00",
    "o": 91.775,
    "h": 91.949,
    "l": 91.747,
    "c": 91.851,
    "v": 4130
  },
  {
    "dt": "2022.05.02 13:00",
    "o": 91.85,
    "h": 91.975,
    "l": 91.828,
    "c": 91.876,
    "v": 3141
  },
  {
    "dt": "2022.05.02 14:00",
    "o": 91.877,
    "h": 91.932,
    "l": 91.752,
    "c": 91.777,
    "v": 3206
  },
  {
    "dt": "2022.05.02 15:00",
    "o": 91.775,
    "h": 91.815,
    "l": 91.555,
    "c": 91.675,
    "v": 4243
  },
  {
    "dt": "2022.05.02 16:00",
    "o": 91.679,
    "h": 91.925,
    "l": 91.601,
    "c": 91.871,
    "v": 5085
  },
  {
    "dt": "2022.05.02 17:00",
    "o": 91.833,
    "h": 91.943,
    "l": 91.649,
    "c": 91.782,
    "v": 5819
  },
  {
    "dt": "2022.05.02 18:00",
    "o": 91.782,
    "h": 91.89,
    "l": 91.619,
    "c": 91.889,
    "v": 4853
  },
  {
    "dt": "2022.05.02 19:00",
    "o": 91.889,
    "h": 91.958,
    "l": 91.606,
    "c": 91.633,
    "v": 4241
  },
  {
    "dt": "2022.05.02 20:00",
    "o": 91.634,
    "h": 91.745,
    "l": 91.541,
    "c": 91.619,
    "v": 3708
  },
  {
    "dt": "2022.05.02 21:00",
    "o": 91.615,
    "h": 91.666,
    "l": 91.488,
    "c": 91.555,
    "v": 4197
  },
  {
    "dt": "2022.05.02 22:00",
    "o": 91.55,
    "h": 91.828,
    "l": 91.55,
    "c": 91.824,
    "v": 4721
  },
  {
    "dt": "2022.05.02 23:00",
    "o": 91.822,
    "h": 91.826,
    "l": 91.753,
    "c": 91.799,
    "v": 1853
  },
  {
    "dt": "2022.05.03 00:00",
    "o": 91.676,
    "h": 91.819,
    "l": 91.676,
    "c": 91.808,
    "v": 354
  },
  {
    "dt": "2022.05.03 01:00",
    "o": 91.808,
    "h": 91.835,
    "l": 91.688,
    "c": 91.747,
    "v": 1596
  },
  {
    "dt": "2022.05.03 02:00",
    "o": 91.762,
    "h": 91.816,
    "l": 91.694,
    "c": 91.731,
    "v": 1491
  },
  {
    "dt": "2022.05.03 03:00",
    "o": 91.729,
    "h": 92.177,
    "l": 91.729,
    "c": 92.135,
    "v": 3411
  },
  {
    "dt": "2022.05.03 04:00",
    "o": 92.134,
    "h": 92.201,
    "l": 91.98,
    "c": 92.146,
    "v": 2997
  },
  {
    "dt": "2022.05.03 05:00",
    "o": 92.146,
    "h": 92.314,
    "l": 92.103,
    "c": 92.257,
    "v": 2447
  },
  {
    "dt": "2022.05.03 06:00",
    "o": 92.26,
    "h": 92.26,
    "l": 92.104,
    "c": 92.174,
    "v": 2178
  },
  {
    "dt": "2022.05.03 07:00",
    "o": 92.173,
    "h": 92.921,
    "l": 92.081,
    "c": 92.392,
    "v": 3099
  },
  {
    "dt": "2022.05.03 08:00",
    "o": 92.399,
    "h": 92.632,
    "l": 92.185,
    "c": 92.546,
    "v": 3478
  },
  {
    "dt": "2022.05.03 09:00",
    "o": 92.538,
    "h": 92.735,
    "l": 92.364,
    "c": 92.466,
    "v": 3967
  },
  {
    "dt": "2022.05.03 10:00",
    "o": 92.467,
    "h": 92.624,
    "l": 92.266,
    "c": 92.59,
    "v": 4806
  },
  {
    "dt": "2022.05.03 11:00",
    "o": 92.593,
    "h": 92.666,
    "l": 92.195,
    "c": 92.365,
    "v": 3889
  },
  {
    "dt": "2022.05.03 12:00",
    "o": 92.364,
    "h": 92.435,
    "l": 92.23,
    "c": 92.406,
    "v": 3744
  },
  {
    "dt": "2022.05.03 13:00",
    "o": 92.407,
    "h": 92.423,
    "l": 92.072,
    "c": 92.12,
    "v": 3710
  },
  {
    "dt": "2022.05.03 14:00",
    "o": 92.126,
    "h": 92.492,
    "l": 92.126,
    "c": 92.446,
    "v": 3786
  },
  {
    "dt": "2022.05.03 15:00",
    "o": 92.443,
    "h": 92.557,
    "l": 92.324,
    "c": 92.424,
    "v": 4807
  },
  {
    "dt": "2022.05.03 16:00",
    "o": 92.425,
    "h": 92.445,
    "l": 92.208,
    "c": 92.301,
    "v": 5081
  },
  {
    "dt": "2022.05.03 17:00",
    "o": 92.313,
    "h": 92.512,
    "l": 92.182,
    "c": 92.208,
    "v": 5279
  },
  {
    "dt": "2022.05.03 18:00",
    "o": 92.213,
    "h": 92.359,
    "l": 92.169,
    "c": 92.345,
    "v": 4530
  },
  {
    "dt": "2022.05.03 19:00",
    "o": 92.348,
    "h": 92.37,
    "l": 92.231,
    "c": 92.295,
    "v": 4251
  },
  {
    "dt": "2022.05.03 20:00",
    "o": 92.3,
    "h": 92.414,
    "l": 92.284,
    "c": 92.331,
    "v": 3995
  },
  {
    "dt": "2022.05.03 21:00",
    "o": 92.331,
    "h": 92.383,
    "l": 92.161,
    "c": 92.353,
    "v": 4004
  },
  {
    "dt": "2022.05.03 22:00",
    "o": 92.355,
    "h": 92.36,
    "l": 92.216,
    "c": 92.333,
    "v": 4408
  },
  {
    "dt": "2022.05.03 23:00",
    "o": 92.33,
    "h": 92.369,
    "l": 92.316,
    "c": 92.326,
    "v": 2023
  },
  {
    "dt": "2022.05.04 00:00",
    "o": 92.296,
    "h": 92.344,
    "l": 92.286,
    "c": 92.324,
    "v": 211
  },
  {
    "dt": "2022.05.04 01:00",
    "o": 92.329,
    "h": 92.414,
    "l": 92.289,
    "c": 92.407,
    "v": 1592
  },
  {
    "dt": "2022.05.04 02:00",
    "o": 92.405,
    "h": 92.446,
    "l": 92.357,
    "c": 92.39,
    "v": 1177
  },
  {
    "dt": "2022.05.04 03:00",
    "o": 92.385,
    "h": 92.454,
    "l": 92.252,
    "c": 92.389,
    "v": 2403
  },
  {
    "dt": "2022.05.04 04:00",
    "o": 92.388,
    "h": 92.557,
    "l": 92.311,
    "c": 92.461,
    "v": 2648
  },
  {
    "dt": "2022.05.04 05:00",
    "o": 92.469,
    "h": 92.592,
    "l": 92.436,
    "c": 92.542,
    "v": 2358
  },
  {
    "dt": "2022.05.04 06:00",
    "o": 92.543,
    "h": 92.611,
    "l": 92.478,
    "c": 92.536,
    "v": 2213
  },
  {
    "dt": "2022.05.04 07:00",
    "o": 92.533,
    "h": 92.58,
    "l": 92.477,
    "c": 92.488,
    "v": 2015
  },
  {
    "dt": "2022.05.04 08:00",
    "o": 92.487,
    "h": 92.538,
    "l": 92.378,
    "c": 92.513,
    "v": 2462
  },
  {
    "dt": "2022.05.04 09:00",
    "o": 92.512,
    "h": 92.696,
    "l": 92.458,
    "c": 92.587,
    "v": 3707
  },
  {
    "dt": "2022.05.04 10:00",
    "o": 92.586,
    "h": 92.605,
    "l": 92.373,
    "c": 92.472,
    "v": 4338
  },
  {
    "dt": "2022.05.04 11:00",
    "o": 92.469,
    "h": 92.598,
    "l": 92.435,
    "c": 92.574,
    "v": 3725
  },
  {
    "dt": "2022.05.04 12:00",
    "o": 92.577,
    "h": 92.591,
    "l": 92.498,
    "c": 92.546,
    "v": 3265
  },
  {
    "dt": "2022.05.04 13:00",
    "o": 92.547,
    "h": 92.728,
    "l": 92.531,
    "c": 92.639,
    "v": 3216
  },
  {
    "dt": "2022.05.04 14:00",
    "o": 92.637,
    "h": 92.714,
    "l": 92.596,
    "c": 92.707,
    "v": 3283
  },
  {
    "dt": "2022.05.04 15:00",
    "o": 92.702,
    "h": 92.786,
    "l": 92.558,
    "c": 92.774,
    "v": 4331
  },
  {
    "dt": "2022.05.04 16:00",
    "o": 92.772,
    "h": 92.846,
    "l": 92.71,
    "c": 92.73,
    "v": 4738
  },
  {
    "dt": "2022.05.04 17:00",
    "o": 92.728,
    "h": 92.775,
    "l": 92.556,
    "c": 92.733,
    "v": 4978
  },
  {
    "dt": "2022.05.04 18:00",
    "o": 92.735,
    "h": 92.903,
    "l": 92.697,
    "c": 92.861,
    "v": 4336
  },
  {
    "dt": "2022.05.04 19:00",
    "o": 92.862,
    "h": 92.968,
    "l": 92.831,
    "c": 92.957,
    "v": 3685
  },
  {
    "dt": "2022.05.04 20:00",
    "o": 92.958,
    "h": 93.031,
    "l": 92.896,
    "c": 92.932,
    "v": 3747
  },
  {
    "dt": "2022.05.04 21:00",
    "o": 92.923,
    "h": 93.663,
    "l": 92.879,
    "c": 93.113,
    "v": 6582
  },
  {
    "dt": "2022.05.04 22:00",
    "o": 93.093,
    "h": 93.82,
    "l": 93.022,
    "c": 93.691,
    "v": 6418
  },
  {
    "dt": "2022.05.04 23:00",
    "o": 93.688,
    "h": 93.816,
    "l": 93.622,
    "c": 93.645,
    "v": 3501
  },
  {
    "dt": "2022.05.05 00:00",
    "o": 93.652,
    "h": 93.766,
    "l": 93.626,
    "c": 93.703,
    "v": 417
  },
  {
    "dt": "2022.05.05 01:00",
    "o": 93.692,
    "h": 94.018,
    "l": 93.647,
    "c": 93.775,
    "v": 2379
  },
  {
    "dt": "2022.05.05 02:00",
    "o": 93.779,
    "h": 93.803,
    "l": 93.615,
    "c": 93.705,
    "v": 2412
  },
  {
    "dt": "2022.05.05 03:00",
    "o": 93.702,
    "h": 93.74,
    "l": 93.45,
    "c": 93.459,
    "v": 3775
  },
  {
    "dt": "2022.05.05 04:00",
    "o": 93.456,
    "h": 93.561,
    "l": 93.326,
    "c": 93.414,
    "v": 4350
  },
  {
    "dt": "2022.05.05 05:00",
    "o": 93.41,
    "h": 93.593,
    "l": 93.396,
    "c": 93.459,
    "v": 3502
  },
  {
    "dt": "2022.05.05 06:00",
    "o": 93.463,
    "h": 93.616,
    "l": 93.454,
    "c": 93.505,
    "v": 2855
  },
  {
    "dt": "2022.05.05 07:00",
    "o": 93.506,
    "h": 93.579,
    "l": 93.461,
    "c": 93.51,
    "v": 2808
  },
  {
    "dt": "2022.05.05 08:00",
    "o": 93.516,
    "h": 93.65,
    "l": 93.486,
    "c": 93.645,
    "v": 3021
  },
  {
    "dt": "2022.05.05 09:00",
    "o": 93.653,
    "h": 93.776,
    "l": 93.5,
    "c": 93.516,
    "v": 4663
  },
  {
    "dt": "2022.05.05 10:00",
    "o": 93.512,
    "h": 93.706,
    "l": 93.424,
    "c": 93.703,
    "v": 5232
  },
  {
    "dt": "2022.05.05 11:00",
    "o": 93.706,
    "h": 93.706,
    "l": 93.467,
    "c": 93.607,
    "v": 4585
  },
  {
    "dt": "2022.05.05 12:00",
    "o": 93.606,
    "h": 93.67,
    "l": 93.519,
    "c": 93.566,
    "v": 3995
  },
  {
    "dt": "2022.05.05 13:00",
    "o": 93.568,
    "h": 93.645,
    "l": 93.495,
    "c": 93.581,
    "v": 3793
  },
  {
    "dt": "2022.05.05 14:00",
    "o": 93.576,
    "h": 93.64,
    "l": 93.425,
    "c": 93.483,
    "v": 5560
  },
  {
    "dt": "2022.05.05 15:00",
    "o": 93.472,
    "h": 93.529,
    "l": 93.162,
    "c": 93.325,
    "v": 5242
  },
  {
    "dt": "2022.05.05 16:00",
    "o": 93.322,
    "h": 93.455,
    "l": 93.187,
    "c": 93.289,
    "v": 5895
  },
  {
    "dt": "2022.05.05 17:00",
    "o": 93.288,
    "h": 93.288,
    "l": 92.665,
    "c": 92.935,
    "v": 5571
  },
  {
    "dt": "2022.05.05 18:00",
    "o": 92.931,
    "h": 92.931,
    "l": 92.463,
    "c": 92.463,
    "v": 5461
  },
  {
    "dt": "2022.05.05 19:00",
    "o": 92.464,
    "h": 92.632,
    "l": 92.333,
    "c": 92.427,
    "v": 5598
  },
  {
    "dt": "2022.05.05 20:00",
    "o": 92.438,
    "h": 92.693,
    "l": 92.438,
    "c": 92.49,
    "v": 5344
  },
  {
    "dt": "2022.05.05 21:00",
    "o": 92.486,
    "h": 92.552,
    "l": 92.376,
    "c": 92.47,
    "v": 5171
  },
  {
    "dt": "2022.05.05 22:00",
    "o": 92.469,
    "h": 92.504,
    "l": 92.283,
    "c": 92.485,
    "v": 5506
  },
  {
    "dt": "2022.05.05 23:00",
    "o": 92.482,
    "h": 92.608,
    "l": 92.476,
    "c": 92.59,
    "v": 2711
  },
  {
    "dt": "2022.05.06 00:00",
    "o": 92.557,
    "h": 92.608,
    "l": 92.46,
    "c": 92.6,
    "v": 286
  },
  {
    "dt": "2022.05.06 01:00",
    "o": 92.595,
    "h": 92.71,
    "l": 92.537,
    "c": 92.68,
    "v": 2009
  },
  {
    "dt": "2022.05.06 02:00",
    "o": 92.679,
    "h": 92.811,
    "l": 92.599,
    "c": 92.77,
    "v": 2712
  },
  {
    "dt": "2022.05.06 03:00",
    "o": 92.782,
    "h": 92.982,
    "l": 92.645,
    "c": 92.936,
    "v": 3985
  },
  {
    "dt": "2022.05.06 04:00",
    "o": 92.934,
    "h": 92.945,
    "l": 92.604,
    "c": 92.794,
    "v": 4991
  },
  {
    "dt": "2022.05.06 05:00",
    "o": 92.795,
    "h": 92.908,
    "l": 92.763,
    "c": 92.803,
    "v": 3892
  },
  {
    "dt": "2022.05.06 06:00",
    "o": 92.812,
    "h": 92.922,
    "l": 92.716,
    "c": 92.875,
    "v": 3148
  },
  {
    "dt": "2022.05.06 07:00",
    "o": 92.873,
    "h": 92.932,
    "l": 92.712,
    "c": 92.822,
    "v": 2472
  },
  {
    "dt": "2022.05.06 08:00",
    "o": 92.821,
    "h": 92.845,
    "l": 92.662,
    "c": 92.706,
    "v": 3051
  },
  {
    "dt": "2022.05.06 09:00",
    "o": 92.707,
    "h": 92.727,
    "l": 92.267,
    "c": 92.296,
    "v": 4286
  },
  {
    "dt": "2022.05.06 10:00",
    "o": 92.293,
    "h": 92.459,
    "l": 92.139,
    "c": 92.327,
    "v": 5590
  },
  {
    "dt": "2022.05.06 11:00",
    "o": 92.329,
    "h": 92.809,
    "l": 92.212,
    "c": 92.449,
    "v": 5675
  },
  {
    "dt": "2022.05.06 12:00",
    "o": 92.45,
    "h": 92.654,
    "l": 92.353,
    "c": 92.576,
    "v": 4557
  },
  {
    "dt": "2022.05.06 13:00",
    "o": 92.575,
    "h": 92.597,
    "l": 92.438,
    "c": 92.473,
    "v": 4146
  },
  {
    "dt": "2022.05.06 14:00",
    "o": 92.476,
    "h": 92.547,
    "l": 92.371,
    "c": 92.472,
    "v": 4110
  },
  {
    "dt": "2022.05.06 15:00",
    "o": 92.473,
    "h": 92.928,
    "l": 92.424,
    "c": 92.466,
    "v": 5456
  },
  {
    "dt": "2022.05.06 16:00",
    "o": 92.462,
    "h": 92.576,
    "l": 91.984,
    "c": 92.123,
    "v": 6259
  },
  {
    "dt": "2022.05.06 17:00",
    "o": 92.12,
    "h": 92.675,
    "l": 92.083,
    "c": 92.6,
    "v": 6514
  },
  {
    "dt": "2022.05.06 18:00",
    "o": 92.601,
    "h": 92.69,
    "l": 92.418,
    "c": 92.423,
    "v": 5965
  },
  {
    "dt": "2022.05.06 19:00",
    "o": 92.422,
    "h": 92.65,
    "l": 92.4,
    "c": 92.621,
    "v": 5655
  },
  {
    "dt": "2022.05.06 20:00",
    "o": 92.627,
    "h": 92.656,
    "l": 92.385,
    "c": 92.394,
    "v": 5173
  },
  {
    "dt": "2022.05.06 21:00",
    "o": 92.381,
    "h": 92.451,
    "l": 92.321,
    "c": 92.368,
    "v": 4787
  },
  {
    "dt": "2022.05.06 22:00",
    "o": 92.374,
    "h": 92.51,
    "l": 92.251,
    "c": 92.45,
    "v": 4822
  },
  {
    "dt": "2022.05.06 23:00",
    "o": 92.445,
    "h": 92.445,
    "l": 92.284,
    "c": 92.335,
    "v": 2398
  },
  {
    "dt": "2022.05.09 00:00",
    "o": 92.21,
    "h": 92.317,
    "l": 92.167,
    "c": 92.309,
    "v": 371
  },
  {
    "dt": "2022.05.09 01:00",
    "o": 92.304,
    "h": 92.319,
    "l": 92.109,
    "c": 92.111,
    "v": 2671
  },
  {
    "dt": "2022.05.09 02:00",
    "o": 92.114,
    "h": 92.195,
    "l": 92.068,
    "c": 92.088,
    "v": 2978
  },
  {
    "dt": "2022.05.09 03:00",
    "o": 92.083,
    "h": 92.135,
    "l": 91.726,
    "c": 91.755,
    "v": 4586
  },
  {
    "dt": "2022.05.09 04:00",
    "o": 91.757,
    "h": 91.914,
    "l": 91.605,
    "c": 91.871,
    "v": 4568
  },
  {
    "dt": "2022.05.09 05:00",
    "o": 91.871,
    "h": 91.964,
    "l": 91.717,
    "c": 91.842,
    "v": 3541
  },
  {
    "dt": "2022.05.09 06:00",
    "o": 91.843,
    "h": 92.011,
    "l": 91.729,
    "c": 91.826,
    "v": 3465
  },
  {
    "dt": "2022.05.09 07:00",
    "o": 91.823,
    "h": 91.851,
    "l": 91.681,
    "c": 91.796,
    "v": 2757
  },
  {
    "dt": "2022.05.09 08:00",
    "o": 91.789,
    "h": 91.875,
    "l": 91.67,
    "c": 91.693,
    "v": 3473
  },
  {
    "dt": "2022.05.09 09:00",
    "o": 91.695,
    "h": 91.957,
    "l": 91.687,
    "c": 91.945,
    "v": 4347
  },
  {
    "dt": "2022.05.09 10:00",
    "o": 91.951,
    "h": 92.06,
    "l": 91.81,
    "c": 91.954,
    "v": 5311
  },
  {
    "dt": "2022.05.09 11:00",
    "o": 91.957,
    "h": 91.976,
    "l": 91.688,
    "c": 91.83,
    "v": 4652
  },
  {
    "dt": "2022.05.09 12:00",
    "o": 91.827,
    "h": 91.946,
    "l": 91.778,
    "c": 91.835,
    "v": 4104
  },
  {
    "dt": "2022.05.09 13:00",
    "o": 91.836,
    "h": 91.889,
    "l": 91.769,
    "c": 91.84,
    "v": 4438
  },
  {
    "dt": "2022.05.09 14:00",
    "o": 91.841,
    "h": 91.868,
    "l": 91.55,
    "c": 91.746,
    "v": 4643
  },
  {
    "dt": "2022.05.09 15:00",
    "o": 91.749,
    "h": 91.856,
    "l": 91.635,
    "c": 91.772,
    "v": 5519
  },
  {
    "dt": "2022.05.09 16:00",
    "o": 91.774,
    "h": 91.794,
    "l": 91.552,
    "c": 91.573,
    "v": 5741
  },
  {
    "dt": "2022.05.09 17:00",
    "o": 91.565,
    "h": 91.582,
    "l": 91.041,
    "c": 91.112,
    "v": 5918
  },
  {
    "dt": "2022.05.09 18:00",
    "o": 91.111,
    "h": 91.178,
    "l": 90.68,
    "c": 91.116,
    "v": 5625
  },
  {
    "dt": "2022.05.09 19:00",
    "o": 91.11,
    "h": 91.431,
    "l": 90.955,
    "c": 91.075,
    "v": 5198
  },
  {
    "dt": "2022.05.09 20:00",
    "o": 91.08,
    "h": 91.113,
    "l": 90.691,
    "c": 90.798,
    "v": 5013
  },
  {
    "dt": "2022.05.09 21:00",
    "o": 90.797,
    "h": 90.84,
    "l": 90.565,
    "c": 90.659,
    "v": 4911
  },
  {
    "dt": "2022.05.09 22:00",
    "o": 90.663,
    "h": 90.782,
    "l": 90.449,
    "c": 90.524,
    "v": 5232
  },
  {
    "dt": "2022.05.09 23:00",
    "o": 90.523,
    "h": 90.595,
    "l": 90.471,
    "c": 90.543,
    "v": 2596
  },
  {
    "dt": "2022.05.10 00:00",
    "o": 90.526,
    "h": 90.73,
    "l": 90.51,
    "c": 90.562,
    "v": 465
  },
  {
    "dt": "2022.05.10 01:00",
    "o": 90.568,
    "h": 90.728,
    "l": 90.563,
    "c": 90.66,
    "v": 2520
  },
  {
    "dt": "2022.05.10 02:00",
    "o": 90.66,
    "h": 90.79,
    "l": 90.607,
    "c": 90.645,
    "v": 2914
  },
  {
    "dt": "2022.05.10 03:00",
    "o": 90.659,
    "h": 90.678,
    "l": 89.884,
    "c": 89.992,
    "v": 5362
  },
  {
    "dt": "2022.05.10 04:00",
    "o": 90.002,
    "h": 90.329,
    "l": 89.736,
    "c": 90.29,
    "v": 5480
  },
  {
    "dt": "2022.05.10 05:00",
    "o": 90.294,
    "h": 90.824,
    "l": 90.289,
    "c": 90.781,
    "v": 4541
  },
  {
    "dt": "2022.05.10 06:00",
    "o": 90.783,
    "h": 90.835,
    "l": 90.478,
    "c": 90.772,
    "v": 3788
  },
  {
    "dt": "2022.05.10 07:00",
    "o": 90.773,
    "h": 90.942,
    "l": 90.685,
    "c": 90.897,
    "v": 3235
  },
  {
    "dt": "2022.05.10 08:00",
    "o": 90.891,
    "h": 91.143,
    "l": 90.829,
    "c": 90.893,
    "v": 3962
  },
  {
    "dt": "2022.05.10 09:00",
    "o": 90.895,
    "h": 91.008,
    "l": 90.797,
    "c": 90.861,
    "v": 4572
  },
  {
    "dt": "2022.05.10 10:00",
    "o": 90.863,
    "h": 90.914,
    "l": 90.42,
    "c": 90.505,
    "v": 5345
  },
  {
    "dt": "2022.05.10 11:00",
    "o": 90.508,
    "h": 90.631,
    "l": 90.422,
    "c": 90.596,
    "v": 4538
  },
  {
    "dt": "2022.05.10 12:00",
    "o": 90.591,
    "h": 90.802,
    "l": 90.545,
    "c": 90.578,
    "v": 4404
  },
  {
    "dt": "2022.05.10 13:00",
    "o": 90.578,
    "h": 90.673,
    "l": 90.355,
    "c": 90.499,
    "v": 4044
  },
  {
    "dt": "2022.05.10 14:00",
    "o": 90.498,
    "h": 90.562,
    "l": 90.251,
    "c": 90.466,
    "v": 4343
  },
  {
    "dt": "2022.05.10 15:00",
    "o": 90.471,
    "h": 90.661,
    "l": 90.399,
    "c": 90.503,
    "v": 5051
  },
  {
    "dt": "2022.05.10 16:00",
    "o": 90.503,
    "h": 90.785,
    "l": 90.476,
    "c": 90.646,
    "v": 5728
  },
  {
    "dt": "2022.05.10 17:00",
    "o": 90.64,
    "h": 90.799,
    "l": 90.256,
    "c": 90.339,
    "v": 5990
  },
  {
    "dt": "2022.05.10 18:00",
    "o": 90.342,
    "h": 90.447,
    "l": 90.06,
    "c": 90.166,
    "v": 6105
  },
  {
    "dt": "2022.05.10 19:00",
    "o": 90.161,
    "h": 90.316,
    "l": 90.028,
    "c": 90.159,
    "v": 5673
  },
  {
    "dt": "2022.05.10 20:00",
    "o": 90.159,
    "h": 90.654,
    "l": 90.085,
    "c": 90.654,
    "v": 5533
  },
  {
    "dt": "2022.05.10 21:00",
    "o": 90.676,
    "h": 90.678,
    "l": 90.461,
    "c": 90.499,
    "v": 5242
  },
  {
    "dt": "2022.05.10 22:00",
    "o": 90.494,
    "h": 90.65,
    "l": 90.37,
    "c": 90.462,
    "v": 5122
  },
  {
    "dt": "2022.05.10 23:00",
    "o": 90.463,
    "h": 90.52,
    "l": 90.422,
    "c": 90.504,
    "v": 2121
  },
  {
    "dt": "2022.05.11 00:00",
    "o": 90.437,
    "h": 90.509,
    "l": 90.437,
    "c": 90.468,
    "v": 402
  },
  {
    "dt": "2022.05.11 01:00",
    "o": 90.468,
    "h": 90.503,
    "l": 90.332,
    "c": 90.42,
    "v": 1802
  },
  {
    "dt": "2022.05.11 02:00",
    "o": 90.422,
    "h": 90.426,
    "l": 90.327,
    "c": 90.369,
    "v": 1617
  },
  {
    "dt": "2022.05.11 03:00",
    "o": 90.369,
    "h": 90.531,
    "l": 90.354,
    "c": 90.475,
    "v": 2814
  },
  {
    "dt": "2022.05.11 04:00",
    "o": 90.478,
    "h": 90.689,
    "l": 90.417,
    "c": 90.63,
    "v": 3677
  },
  {
    "dt": "2022.05.11 05:00",
    "o": 90.63,
    "h": 90.757,
    "l": 90.516,
    "c": 90.633,
    "v": 3110
  },
  {
    "dt": "2022.05.11 06:00",
    "o": 90.632,
    "h": 90.755,
    "l": 90.587,
    "c": 90.746,
    "v": 2467
  },
  {
    "dt": "2022.05.11 07:00",
    "o": 90.742,
    "h": 90.773,
    "l": 90.664,
    "c": 90.74,
    "v": 2499
  },
  {
    "dt": "2022.05.11 08:00",
    "o": 90.742,
    "h": 90.762,
    "l": 90.622,
    "c": 90.658,
    "v": 2882
  },
  {
    "dt": "2022.05.11 09:00",
    "o": 90.658,
    "h": 90.83,
    "l": 90.639,
    "c": 90.779,
    "v": 4039
  },
  {
    "dt": "2022.05.11 10:00",
    "o": 90.779,
    "h": 90.795,
    "l": 90.507,
    "c": 90.692,
    "v": 4913
  },
  {
    "dt": "2022.05.11 11:00",
    "o": 90.694,
    "h": 91.0,
    "l": 90.645,
    "c": 90.947,
    "v": 4681
  },
  {
    "dt": "2022.05.11 12:00",
    "o": 90.949,
    "h": 91.015,
    "l": 90.817,
    "c": 90.966,
    "v": 4323
  },
  {
    "dt": "2022.05.11 13:00",
    "o": 90.965,
    "h": 90.995,
    "l": 90.834,
    "c": 90.956,
    "v": 3813
  },
  {
    "dt": "2022.05.11 14:00",
    "o": 90.959,
    "h": 91.073,
    "l": 90.906,
    "c": 91.046,
    "v": 3950
  },
  {
    "dt": "2022.05.11 15:00",
    "o": 91.047,
    "h": 91.109,
    "l": 90.585,
    "c": 90.63,
    "v": 5389
  },
  {
    "dt": "2022.05.11 16:00",
    "o": 90.628,
    "h": 91.756,
    "l": 90.628,
    "c": 91.683,
    "v": 6560
  },
  {
    "dt": "2022.05.11 17:00",
    "o": 91.683,
    "h": 91.711,
    "l": 91.04,
    "c": 91.084,
    "v": 6427
  },
  {
    "dt": "2022.05.11 18:00",
    "o": 91.085,
    "h": 91.287,
    "l": 90.975,
    "c": 91.044,
    "v": 5788
  },
  {
    "dt": "2022.05.11 19:00",
    "o": 91.042,
    "h": 91.063,
    "l": 90.325,
    "c": 90.365,
    "v": 5546
  },
  {
    "dt": "2022.05.11 20:00",
    "o": 90.362,
    "h": 90.377,
    "l": 89.768,
    "c": 89.849,
    "v": 5849
  },
  {
    "dt": "2022.05.11 21:00",
    "o": 89.844,
    "h": 90.419,
    "l": 89.844,
    "c": 90.137,
    "v": 5928
  },
  {
    "dt": "2022.05.11 22:00",
    "o": 90.135,
    "h": 90.268,
    "l": 89.982,
    "c": 90.077,
    "v": 5445
  },
  {
    "dt": "2022.05.11 23:00",
    "o": 90.077,
    "h": 90.232,
    "l": 90.059,
    "c": 90.142,
    "v": 2679
  },
  {
    "dt": "2022.05.12 00:00",
    "o": 90.066,
    "h": 90.175,
    "l": 90.033,
    "c": 90.174,
    "v": 367
  },
  {
    "dt": "2022.05.12 01:00",
    "o": 90.175,
    "h": 90.243,
    "l": 90.024,
    "c": 90.166,
    "v": 2018
  },
  {
    "dt": "2022.05.12 02:00",
    "o": 90.169,
    "h": 90.191,
    "l": 89.915,
    "c": 89.927,
    "v": 2622
  },
  {
    "dt": "2022.05.12 03:00",
    "o": 89.923,
    "h": 90.085,
    "l": 89.538,
    "c": 90.006,
    "v": 5479
  },
  {
    "dt": "2022.05.12 04:00",
    "o": 90.008,
    "h": 90.298,
    "l": 89.907,
    "c": 90.161,
    "v": 4549
  },
  {
    "dt": "2022.05.12 05:00",
    "o": 90.16,
    "h": 90.215,
    "l": 89.557,
    "c": 89.796,
    "v": 4004
  },
  {
    "dt": "2022.05.12 06:00",
    "o": 89.797,
    "h": 89.896,
    "l": 89.644,
    "c": 89.867,
    "v": 3670
  },
  {
    "dt": "2022.05.12 07:00",
    "o": 89.871,
    "h": 89.896,
    "l": 89.396,
    "c": 89.418,
    "v": 3340
  },
  {
    "dt": "2022.05.12 08:00",
    "o": 89.428,
    "h": 89.548,
    "l": 89.102,
    "c": 89.167,
    "v": 4559
  },
  {
    "dt": "2022.05.12 09:00",
    "o": 89.167,
    "h": 89.381,
    "l": 89.034,
    "c": 89.163,
    "v": 5467
  },
  {
    "dt": "2022.05.12 10:00",
    "o": 89.164,
    "h": 89.166,
    "l": 88.487,
    "c": 88.771,
    "v": 6372
  },
  {
    "dt": "2022.05.12 11:00",
    "o": 88.784,
    "h": 88.814,
    "l": 88.326,
    "c": 88.332,
    "v": 5919
  },
  {
    "dt": "2022.05.12 12:00",
    "o": 88.328,
    "h": 88.524,
    "l": 88.208,
    "c": 88.451,
    "v": 5508
  },
  {
    "dt": "2022.05.12 13:00",
    "o": 88.452,
    "h": 88.658,
    "l": 88.372,
    "c": 88.51,
    "v": 4950
  },
  {
    "dt": "2022.05.12 14:00",
    "o": 88.509,
    "h": 88.571,
    "l": 88.032,
    "c": 88.107,
    "v": 5457
  },
  {
    "dt": "2022.05.12 15:00",
    "o": 88.095,
    "h": 88.381,
    "l": 87.949,
    "c": 88.043,
    "v": 5910
  },
  {
    "dt": "2022.05.12 16:00",
    "o": 88.044,
    "h": 88.201,
    "l": 87.298,
    "c": 87.722,
    "v": 6261
  },
  {
    "dt": "2022.05.12 17:00",
    "o": 87.718,
    "h": 88.195,
    "l": 87.431,
    "c": 88.079,
    "v": 6617
  },
  {
    "dt": "2022.05.12 18:00",
    "o": 88.079,
    "h": 88.349,
    "l": 87.713,
    "c": 87.745,
    "v": 6004
  },
  {
    "dt": "2022.05.12 19:00",
    "o": 87.75,
    "h": 88.288,
    "l": 87.684,
    "c": 88.094,
    "v": 6005
  },
  {
    "dt": "2022.05.12 20:00",
    "o": 88.089,
    "h": 88.099,
    "l": 87.653,
    "c": 87.78,
    "v": 5697
  },
  {
    "dt": "2022.05.12 21:00",
    "o": 87.769,
    "h": 87.884,
    "l": 87.467,
    "c": 87.472,
    "v": 5289
  },
  {
    "dt": "2022.05.12 22:00",
    "o": 87.477,
    "h": 88.078,
    "l": 87.477,
    "c": 88.073,
    "v": 5724
  },
  {
    "dt": "2022.05.12 23:00",
    "o": 88.073,
    "h": 88.073,
    "l": 87.926,
    "c": 87.938,
    "v": 2676
  },
  {
    "dt": "2022.05.13 00:00",
    "o": 87.952,
    "h": 88.019,
    "l": 87.911,
    "c": 87.987,
    "v": 408
  },
  {
    "dt": "2022.05.13 01:00",
    "o": 88.0,
    "h": 88.235,
    "l": 88.0,
    "c": 88.134,
    "v": 1993
  },
  {
    "dt": "2022.05.13 02:00",
    "o": 88.138,
    "h": 88.378,
    "l": 88.116,
    "c": 88.318,
    "v": 2394
  },
  {
    "dt": "2022.05.13 03:00",
    "o": 88.318,
    "h": 88.657,
    "l": 88.166,
    "c": 88.579,
    "v": 4358
  },
  {
    "dt": "2022.05.13 04:00",
    "o": 88.576,
    "h": 89.079,
    "l": 88.535,
    "c": 88.612,
    "v": 4759
  },
  {
    "dt": "2022.05.13 05:00",
    "o": 88.612,
    "h": 88.897,
    "l": 88.588,
    "c": 88.631,
    "v": 3698
  },
  {
    "dt": "2022.05.13 06:00",
    "o": 88.628,
    "h": 88.992,
    "l": 88.562,
    "c": 88.827,
    "v": 3868
  },
  {
    "dt": "2022.05.13 07:00",
    "o": 88.826,
    "h": 88.855,
    "l": 88.642,
    "c": 88.782,
    "v": 2892
  },
  {
    "dt": "2022.05.13 08:00",
    "o": 88.784,
    "h": 88.915,
    "l": 88.741,
    "c": 88.881,
    "v": 2991
  },
  {
    "dt": "2022.05.13 09:00",
    "o": 88.872,
    "h": 88.893,
    "l": 88.447,
    "c": 88.566,
    "v": 4945
  },
  {
    "dt": "2022.05.13 10:00",
    "o": 88.574,
    "h": 88.999,
    "l": 88.362,
    "c": 88.842,
    "v": 5676
  },
  {
    "dt": "2022.05.13 11:00",
    "o": 88.841,
    "h": 88.954,
    "l": 88.615,
    "c": 88.714,
    "v": 4421
  },
  {
    "dt": "2022.05.13 12:00",
    "o": 88.714,
    "h": 88.761,
    "l": 88.439,
    "c": 88.497,
    "v": 4327
  },
  {
    "dt": "2022.05.13 13:00",
    "o": 88.497,
    "h": 88.851,
    "l": 88.492,
    "c": 88.816,
    "v": 3785
  },
  {
    "dt": "2022.05.13 14:00",
    "o": 88.814,
    "h": 88.96,
    "l": 88.77,
    "c": 88.95,
    "v": 3888
  },
  {
    "dt": "2022.05.13 15:00",
    "o": 88.95,
    "h": 88.982,
    "l": 88.707,
    "c": 88.835,
    "v": 4429
  },
  {
    "dt": "2022.05.13 16:00",
    "o": 88.84,
    "h": 89.146,
    "l": 88.735,
    "c": 89.088,
    "v": 5530
  },
  {
    "dt": "2022.05.13 17:00",
    "o": 89.083,
    "h": 89.596,
    "l": 88.988,
    "c": 89.382,
    "v": 5915
  },
  {
    "dt": "2022.05.13 18:00",
    "o": 89.385,
    "h": 89.498,
    "l": 89.305,
    "c": 89.405,
    "v": 4621
  },
  {
    "dt": "2022.05.13 19:00",
    "o": 89.409,
    "h": 89.664,
    "l": 89.374,
    "c": 89.569,
    "v": 3337
  },
  {
    "dt": "2022.05.13 20:00",
    "o": 89.569,
    "h": 89.68,
    "l": 89.385,
    "c": 89.428,
    "v": 3443
  },
  {
    "dt": "2022.05.13 21:00",
    "o": 89.425,
    "h": 89.549,
    "l": 89.237,
    "c": 89.526,
    "v": 3881
  },
  {
    "dt": "2022.05.13 22:00",
    "o": 89.527,
    "h": 89.617,
    "l": 89.482,
    "c": 89.591,
    "v": 3092
  },
  {
    "dt": "2022.05.13 23:00",
    "o": 89.593,
    "h": 89.703,
    "l": 89.564,
    "c": 89.654,
    "v": 1677
  },
  {
    "dt": "2022.05.16 00:00",
    "o": 89.535,
    "h": 89.649,
    "l": 89.459,
    "c": 89.64,
    "v": 204
  },
  {
    "dt": "2022.05.16 01:00",
    "o": 89.641,
    "h": 89.883,
    "l": 89.639,
    "c": 89.838,
    "v": 2324
  },
  {
    "dt": "2022.05.16 02:00",
    "o": 89.851,
    "h": 89.992,
    "l": 89.73,
    "c": 89.894,
    "v": 2391
  },
  {
    "dt": "2022.05.16 03:00",
    "o": 89.902,
    "h": 90.045,
    "l": 89.794,
    "c": 89.952,
    "v": 3581
  },
  {
    "dt": "2022.05.16 04:00",
    "o": 89.952,
    "h": 90.113,
    "l": 89.332,
    "c": 89.4,
    "v": 4559
  },
  {
    "dt": "2022.05.16 05:00",
    "o": 89.395,
    "h": 89.395,
    "l": 88.679,
    "c": 89.001,
    "v": 4838
  },
  {
    "dt": "2022.05.16 06:00",
    "o": 89.001,
    "h": 89.049,
    "l": 88.45,
    "c": 88.688,
    "v": 3820
  },
  {
    "dt": "2022.05.16 07:00",
    "o": 88.69,
    "h": 88.918,
    "l": 88.679,
    "c": 88.868,
    "v": 2714
  },
  {
    "dt": "2022.05.16 08:00",
    "o": 88.871,
    "h": 89.008,
    "l": 88.707,
    "c": 88.847,
    "v": 3335
  },
  {
    "dt": "2022.05.16 09:00",
    "o": 88.845,
    "h": 88.933,
    "l": 88.722,
    "c": 88.756,
    "v": 4303
  },
  {
    "dt": "2022.05.16 10:00",
    "o": 88.767,
    "h": 89.346,
    "l": 88.74,
    "c": 89.225,
    "v": 5262
  },
  {
    "dt": "2022.05.16 11:00",
    "o": 89.231,
    "h": 89.523,
    "l": 89.207,
    "c": 89.477,
    "v": 4433
  },
  {
    "dt": "2022.05.16 12:00",
    "o": 89.479,
    "h": 89.535,
    "l": 89.214,
    "c": 89.217,
    "v": 3850
  },
  {
    "dt": "2022.05.16 13:00",
    "o": 89.216,
    "h": 89.535,
    "l": 89.216,
    "c": 89.499,
    "v": 3767
  },
  {
    "dt": "2022.05.16 14:00",
    "o": 89.493,
    "h": 89.638,
    "l": 89.465,
    "c": 89.615,
    "v": 4046
  },
  {
    "dt": "2022.05.16 15:00",
    "o": 89.619,
    "h": 89.733,
    "l": 89.504,
    "c": 89.615,
    "v": 4831
  },
  {
    "dt": "2022.05.16 16:00",
    "o": 89.617,
    "h": 89.686,
    "l": 89.304,
    "c": 89.429,
    "v": 5693
  },
  {
    "dt": "2022.05.16 17:00",
    "o": 89.425,
    "h": 89.73,
    "l": 89.32,
    "c": 89.501,
    "v": 6008
  },
  {
    "dt": "2022.05.16 18:00",
    "o": 89.495,
    "h": 89.656,
    "l": 89.292,
    "c": 89.656,
    "v": 5273
  },
  {
    "dt": "2022.05.16 19:00",
    "o": 89.659,
    "h": 89.699,
    "l": 89.512,
    "c": 89.593,
    "v": 4567
  },
  {
    "dt": "2022.05.16 20:00",
    "o": 89.585,
    "h": 89.915,
    "l": 89.58,
    "c": 89.903,
    "v": 4524
  },
  {
    "dt": "2022.05.16 21:00",
    "o": 89.911,
    "h": 90.166,
    "l": 89.853,
    "c": 90.066,
    "v": 4413
  },
  {
    "dt": "2022.05.16 22:00",
    "o": 90.067,
    "h": 90.126,
    "l": 89.885,
    "c": 89.996,
    "v": 4659
  },
  {
    "dt": "2022.05.16 23:00",
    "o": 89.999,
    "h": 90.005,
    "l": 89.901,
    "c": 89.987,
    "v": 1798
  },
  {
    "dt": "2022.05.17 00:00",
    "o": 89.991,
    "h": 89.991,
    "l": 89.892,
    "c": 89.956,
    "v": 321
  },
  {
    "dt": "2022.05.17 01:00",
    "o": 89.947,
    "h": 89.995,
    "l": 89.884,
    "c": 89.972,
    "v": 1892
  },
  {
    "dt": "2022.05.17 02:00",
    "o": 89.986,
    "h": 90.024,
    "l": 89.78,
    "c": 89.892,
    "v": 2078
  },
  {
    "dt": "2022.05.17 03:00",
    "o": 89.883,
    "h": 90.304,
    "l": 89.866,
    "c": 90.155,
    "v": 4104
  },
  {
    "dt": "2022.05.17 04:00",
    "o": 90.15,
    "h": 90.624,
    "l": 90.049,
    "c": 90.61,
    "v": 4123
  },
  {
    "dt": "2022.05.17 05:00",
    "o": 90.608,
    "h": 90.688,
    "l": 90.314,
    "c": 90.396,
    "v": 3350
  },
  {
    "dt": "2022.05.17 06:00",
    "o": 90.398,
    "h": 90.646,
    "l": 90.326,
    "c": 90.47,
    "v": 3173
  },
  {
    "dt": "2022.05.17 07:00",
    "o": 90.468,
    "h": 90.639,
    "l": 90.444,
    "c": 90.607,
    "v": 2511
  },
  {
    "dt": "2022.05.17 08:00",
    "o": 90.608,
    "h": 90.696,
    "l": 90.488,
    "c": 90.619,
    "v": 2821
  },
  {
    "dt": "2022.05.17 09:00",
    "o": 90.619,
    "h": 90.782,
    "l": 90.46,
    "c": 90.678,
    "v": 4229
  },
  {
    "dt": "2022.05.17 10:00",
    "o": 90.674,
    "h": 90.771,
    "l": 90.62,
    "c": 90.699,
    "v": 4807
  },
  {
    "dt": "2022.05.17 11:00",
    "o": 90.704,
    "h": 91.056,
    "l": 90.701,
    "c": 90.991,
    "v": 4644
  },
  {
    "dt": "2022.05.17 12:00",
    "o": 90.989,
    "h": 91.021,
    "l": 90.847,
    "c": 90.918,
    "v": 4225
  },
  {
    "dt": "2022.05.17 13:00",
    "o": 90.918,
    "h": 91.042,
    "l": 90.877,
    "c": 91.003,
    "v": 4265
  },
  {
    "dt": "2022.05.17 14:00",
    "o": 91.002,
    "h": 91.026,
    "l": 90.885,
    "c": 90.918,
    "v": 4563
  },
  {
    "dt": "2022.05.17 15:00",
    "o": 90.913,
    "h": 91.158,
    "l": 90.785,
    "c": 91.14,
    "v": 4689
  },
  {
    "dt": "2022.05.17 16:00",
    "o": 91.136,
    "h": 91.157,
    "l": 90.883,
    "c": 90.976,
    "v": 5147
  },
  {
    "dt": "2022.05.17 17:00",
    "o": 90.977,
    "h": 91.058,
    "l": 90.338,
    "c": 90.544,
    "v": 5570
  },
  {
    "dt": "2022.05.17 18:00",
    "o": 90.542,
    "h": 90.787,
    "l": 90.503,
    "c": 90.67,
    "v": 4321
  },
  {
    "dt": "2022.05.17 19:00",
    "o": 90.676,
    "h": 90.789,
    "l": 90.535,
    "c": 90.758,
    "v": 4101
  },
  {
    "dt": "2022.05.17 20:00",
    "o": 90.758,
    "h": 90.849,
    "l": 90.739,
    "c": 90.75,
    "v": 3629
  },
  {
    "dt": "2022.05.17 21:00",
    "o": 90.752,
    "h": 90.854,
    "l": 90.407,
    "c": 90.751,
    "v": 6008
  },
  {
    "dt": "2022.05.17 22:00",
    "o": 90.749,
    "h": 90.872,
    "l": 90.719,
    "c": 90.819,
    "v": 4350
  },
  {
    "dt": "2022.05.17 23:00",
    "o": 90.827,
    "h": 90.928,
    "l": 90.793,
    "c": 90.925,
    "v": 2064
  },
  {
    "dt": "2022.05.18 00:00",
    "o": 90.912,
    "h": 90.933,
    "l": 90.852,
    "c": 90.91,
    "v": 2094
  },
  {
    "dt": "2022.05.18 01:00",
    "o": 90.912,
    "h": 91.037,
    "l": 90.911,
    "c": 90.989,
    "v": 1439
  },
  {
    "dt": "2022.05.18 02:00",
    "o": 90.989,
    "h": 91.082,
    "l": 90.949,
    "c": 90.975,
    "v": 1459
  },
  {
    "dt": "2022.05.18 03:00",
    "o": 90.974,
    "h": 91.159,
    "l": 90.883,
    "c": 90.909,
    "v": 3500
  },
  {
    "dt": "2022.05.18 04:00",
    "o": 90.911,
    "h": 91.009,
    "l": 90.444,
    "c": 90.665,
    "v": 3813
  },
  {
    "dt": "2022.05.18 05:00",
    "o": 90.663,
    "h": 90.67,
    "l": 90.503,
    "c": 90.601,
    "v": 3179
  },
  {
    "dt": "2022.05.18 06:00",
    "o": 90.6,
    "h": 90.616,
    "l": 90.288,
    "c": 90.409,
    "v": 2945
  },
  {
    "dt": "2022.05.18 07:00",
    "o": 90.408,
    "h": 90.472,
    "l": 90.198,
    "c": 90.429,
    "v": 2697
  },
  {
    "dt": "2022.05.18 08:00",
    "o": 90.434,
    "h": 90.86,
    "l": 90.433,
    "c": 90.836,
    "v": 3144
  },
  {
    "dt": "2022.05.18 09:00",
    "o": 90.847,
    "h": 90.848,
    "l": 90.565,
    "c": 90.628,
    "v": 4400
  },
  {
    "dt": "2022.05.18 10:00",
    "o": 90.63,
    "h": 90.715,
    "l": 90.463,
    "c": 90.646,
    "v": 4912
  },
  {
    "dt": "2022.05.18 11:00",
    "o": 90.645,
    "h": 90.745,
    "l": 90.368,
    "c": 90.516,
    "v": 4294
  },
  {
    "dt": "2022.05.18 12:00",
    "o": 90.518,
    "h": 90.715,
    "l": 90.499,
    "c": 90.715,
    "v": 3791
  },
  {
    "dt": "2022.05.18 13:00",
    "o": 90.716,
    "h": 90.746,
    "l": 90.619,
    "c": 90.626,
    "v": 3809
  },
  {
    "dt": "2022.05.18 14:00",
    "o": 90.634,
    "h": 90.671,
    "l": 90.526,
    "c": 90.549,
    "v": 3927
  },
  {
    "dt": "2022.05.18 15:00",
    "o": 90.548,
    "h": 90.684,
    "l": 90.432,
    "c": 90.447,
    "v": 4659
  },
  {
    "dt": "2022.05.18 16:00",
    "o": 90.451,
    "h": 90.483,
    "l": 89.961,
    "c": 89.979,
    "v": 5551
  },
  {
    "dt": "2022.05.18 17:00",
    "o": 89.979,
    "h": 90.115,
    "l": 89.772,
    "c": 90.067,
    "v": 5786
  },
  {
    "dt": "2022.05.18 18:00",
    "o": 90.068,
    "h": 90.073,
    "l": 89.561,
    "c": 89.693,
    "v": 5545
  },
  {
    "dt": "2022.05.18 19:00",
    "o": 89.696,
    "h": 89.867,
    "l": 89.608,
    "c": 89.852,
    "v": 5177
  },
  {
    "dt": "2022.05.18 20:00",
    "o": 89.846,
    "h": 89.852,
    "l": 89.245,
    "c": 89.306,
    "v": 4765
  },
  {
    "dt": "2022.05.18 21:00",
    "o": 89.308,
    "h": 89.521,
    "l": 89.209,
    "c": 89.211,
    "v": 4998
  },
  {
    "dt": "2022.05.18 22:00",
    "o": 89.21,
    "h": 89.377,
    "l": 89.154,
    "c": 89.269,
    "v": 4895
  },
  {
    "dt": "2022.05.18 23:00",
    "o": 89.269,
    "h": 89.287,
    "l": 89.08,
    "c": 89.153,
    "v": 2510
  },
  {
    "dt": "2022.05.19 00:00",
    "o": 89.082,
    "h": 89.268,
    "l": 89.071,
    "c": 89.253,
    "v": 1714
  },
  {
    "dt": "2022.05.19 01:00",
    "o": 89.259,
    "h": 89.605,
    "l": 89.253,
    "c": 89.461,
    "v": 2924
  },
  {
    "dt": "2022.05.19 02:00",
    "o": 89.455,
    "h": 89.535,
    "l": 88.984,
    "c": 89.01,
    "v": 3619
  },
  {
    "dt": "2022.05.19 03:00",
    "o": 89.007,
    "h": 89.571,
    "l": 88.996,
    "c": 89.398,
    "v": 5417
  },
  {
    "dt": "2022.05.19 04:00",
    "o": 89.408,
    "h": 89.64,
    "l": 89.298,
    "c": 89.447,
    "v": 5208
  },
  {
    "dt": "2022.05.19 05:00",
    "o": 89.442,
    "h": 90.06,
    "l": 89.442,
    "c": 90.008,
    "v": 4736
  },
  {
    "dt": "2022.05.19 06:00",
    "o": 90.007,
    "h": 90.362,
    "l": 90.007,
    "c": 90.266,
    "v": 4910
  },
  {
    "dt": "2022.05.19 07:00",
    "o": 90.267,
    "h": 90.519,
    "l": 90.248,
    "c": 90.31,
    "v": 4243
  },
  {
    "dt": "2022.05.19 08:00",
    "o": 90.316,
    "h": 90.396,
    "l": 89.933,
    "c": 89.969,
    "v": 4626
  },
  {
    "dt": "2022.05.19 09:00",
    "o": 89.972,
    "h": 90.024,
    "l": 89.583,
    "c": 89.723,
    "v": 5393
  },
  {
    "dt": "2022.05.19 10:00",
    "o": 89.722,
    "h": 89.722,
    "l": 89.192,
    "c": 89.653,
    "v": 6072
  },
  {
    "dt": "2022.05.19 11:00",
    "o": 89.653,
    "h": 89.655,
    "l": 89.182,
    "c": 89.269,
    "v": 5886
  },
  {
    "dt": "2022.05.19 12:00",
    "o": 89.266,
    "h": 89.402,
    "l": 89.176,
    "c": 89.239,
    "v": 5478
  },
  {
    "dt": "2022.05.19 13:00",
    "o": 89.241,
    "h": 89.553,
    "l": 89.219,
    "c": 89.503,
    "v": 5328
  },
  {
    "dt": "2022.05.19 14:00",
    "o": 89.5,
    "h": 89.573,
    "l": 89.281,
    "c": 89.544,
    "v": 5282
  },
  {
    "dt": "2022.05.19 15:00",
    "o": 89.543,
    "h": 89.591,
    "l": 89.064,
    "c": 89.175,
    "v": 5556
  },
  {
    "dt": "2022.05.19 16:00",
    "o": 89.179,
    "h": 89.764,
    "l": 89.147,
    "c": 89.611,
    "v": 6381
  },
  {
    "dt": "2022.05.19 17:00",
    "o": 89.602,
    "h": 90.008,
    "l": 89.494,
    "c": 89.814,
    "v": 6612
  },
  {
    "dt": "2022.05.19 18:00",
    "o": 89.812,
    "h": 90.248,
    "l": 89.758,
    "c": 90.049,
    "v": 6125
  },
  {
    "dt": "2022.05.19 19:00",
    "o": 90.064,
    "h": 90.237,
    "l": 89.881,
    "c": 90.073,
    "v": 5675
  },
  {
    "dt": "2022.05.19 20:00",
    "o": 90.07,
    "h": 90.271,
    "l": 89.898,
    "c": 90.234,
    "v": 5763
  },
  {
    "dt": "2022.05.19 21:00",
    "o": 90.24,
    "h": 90.283,
    "l": 90.034,
    "c": 90.198,
    "v": 5738
  },
  {
    "dt": "2022.05.19 22:00",
    "o": 90.194,
    "h": 90.263,
    "l": 89.983,
    "c": 90.102,
    "v": 5468
  },
  {
    "dt": "2022.05.19 23:00",
    "o": 90.104,
    "h": 90.109,
    "l": 90.014,
    "c": 90.074,
    "v": 2530
  },
  {
    "dt": "2022.05.20 00:00",
    "o": 90.017,
    "h": 90.086,
    "l": 89.97,
    "c": 89.993,
    "v": 310
  },
  {
    "dt": "2022.05.20 01:00",
    "o": 90.012,
    "h": 90.088,
    "l": 89.938,
    "c": 89.994,
    "v": 2378
  },
  {
    "dt": "2022.05.20 02:00",
    "o": 89.992,
    "h": 90.158,
    "l": 89.946,
    "c": 90.017,
    "v": 3025
  },
  {
    "dt": "2022.05.20 03:00",
    "o": 90.024,
    "h": 90.081,
    "l": 89.649,
    "c": 89.776,
    "v": 4484
  },
  {
    "dt": "2022.05.20 04:00",
    "o": 89.775,
    "h": 90.231,
    "l": 89.701,
    "c": 90.03,
    "v": 5031
  },
  {
    "dt": "2022.05.20 05:00",
    "o": 90.029,
    "h": 90.051,
    "l": 89.682,
    "c": 89.803,
    "v": 4436
  },
  {
    "dt": "2022.05.20 06:00",
    "o": 89.8,
    "h": 89.81,
    "l": 89.379,
    "c": 89.421,
    "v": 4170
  },
  {
    "dt": "2022.05.20 07:00",
    "o": 89.418,
    "h": 89.779,
    "l": 89.357,
    "c": 89.775,
    "v": 4067
  },
  {
    "dt": "2022.05.20 08:00",
    "o": 89.777,
    "h": 90.036,
    "l": 89.724,
    "c": 89.923,
    "v": 4432
  },
  {
    "dt": "2022.05.20 09:00",
    "o": 89.925,
    "h": 90.102,
    "l": 89.894,
    "c": 90.023,
    "v": 4941
  },
  {
    "dt": "2022.05.20 10:00",
    "o": 90.016,
    "h": 90.483,
    "l": 89.978,
    "c": 90.321,
    "v": 5471
  },
  {
    "dt": "2022.05.20 11:00",
    "o": 90.325,
    "h": 90.592,
    "l": 90.133,
    "c": 90.533,
    "v": 4859
  },
  {
    "dt": "2022.05.20 12:00",
    "o": 90.533,
    "h": 90.687,
    "l": 90.427,
    "c": 90.496,
    "v": 4484
  },
  {
    "dt": "2022.05.20 13:00",
    "o": 90.494,
    "h": 90.586,
    "l": 90.435,
    "c": 90.44,
    "v": 4131
  },
  {
    "dt": "2022.05.20 14:00",
    "o": 90.441,
    "h": 90.45,
    "l": 90.194,
    "c": 90.376,
    "v": 4259
  },
  {
    "dt": "2022.05.20 15:00",
    "o": 90.379,
    "h": 90.446,
    "l": 90.076,
    "c": 90.124,
    "v": 5017
  },
  {
    "dt": "2022.05.20 16:00",
    "o": 90.124,
    "h": 90.516,
    "l": 90.114,
    "c": 90.482,
    "v": 5870
  },
  {
    "dt": "2022.05.20 17:00",
    "o": 90.489,
    "h": 90.527,
    "l": 89.93,
    "c": 89.951,
    "v": 5980
  },
  {
    "dt": "2022.05.20 18:00",
    "o": 89.949,
    "h": 89.977,
    "l": 89.762,
    "c": 89.895,
    "v": 5759
  },
  {
    "dt": "2022.05.20 19:00",
    "o": 89.892,
    "h": 89.912,
    "l": 89.51,
    "c": 89.614,
    "v": 5503
  },
  {
    "dt": "2022.05.20 20:00",
    "o": 89.615,
    "h": 89.851,
    "l": 89.458,
    "c": 89.774,
    "v": 5485
  },
  {
    "dt": "2022.05.20 21:00",
    "o": 89.777,
    "h": 89.793,
    "l": 89.522,
    "c": 89.688,
    "v": 5374
  },
  {
    "dt": "2022.05.20 22:00",
    "o": 89.688,
    "h": 90.06,
    "l": 89.638,
    "c": 89.987,
    "v": 5336
  },
  {
    "dt": "2022.05.20 23:00",
    "o": 89.987,
    "h": 90.156,
    "l": 89.915,
    "c": 90.064,
    "v": 2723
  },
  {
    "dt": "2022.05.23 00:00",
    "o": 90.144,
    "h": 90.199,
    "l": 89.981,
    "c": 90.181,
    "v": 360
  },
  {
    "dt": "2022.05.23 01:00",
    "o": 90.156,
    "h": 90.421,
    "l": 90.09,
    "c": 90.36,
    "v": 2826
  },
  {
    "dt": "2022.05.23 02:00",
    "o": 90.357,
    "h": 90.434,
    "l": 90.225,
    "c": 90.291,
    "v": 3117
  },
  {
    "dt": "2022.05.23 03:00",
    "o": 90.29,
    "h": 90.734,
    "l": 90.161,
    "c": 90.521,
    "v": 4506
  },
  {
    "dt": "2022.05.23 04:00",
    "o": 90.516,
    "h": 90.617,
    "l": 90.162,
    "c": 90.217,
    "v": 4749
  },
  {
    "dt": "2022.05.23 05:00",
    "o": 90.212,
    "h": 90.304,
    "l": 90.057,
    "c": 90.282,
    "v": 4524
  },
  {
    "dt": "2022.05.23 06:00",
    "o": 90.283,
    "h": 90.385,
    "l": 90.094,
    "c": 90.286,
    "v": 3687
  },
  {
    "dt": "2022.05.23 07:00",
    "o": 90.291,
    "h": 90.354,
    "l": 90.206,
    "c": 90.325,
    "v": 2937
  },
  {
    "dt": "2022.05.23 08:00",
    "o": 90.322,
    "h": 91.028,
    "l": 90.274,
    "c": 90.829,
    "v": 3732
  },
  {
    "dt": "2022.05.23 09:00",
    "o": 90.837,
    "h": 91.007,
    "l": 90.723,
    "c": 90.854,
    "v": 4924
  },
  {
    "dt": "2022.05.23 10:00",
    "o": 90.854,
    "h": 90.891,
    "l": 90.55,
    "c": 90.608,
    "v": 5187
  },
  {
    "dt": "2022.05.23 11:00",
    "o": 90.608,
    "h": 90.76,
    "l": 90.422,
    "c": 90.599,
    "v": 5340
  },
  {
    "dt": "2022.05.23 12:00",
    "o": 90.597,
    "h": 90.788,
    "l": 90.557,
    "c": 90.663,
    "v": 4643
  },
  {
    "dt": "2022.05.23 13:00",
    "o": 90.665,
    "h": 90.856,
    "l": 90.546,
    "c": 90.856,
    "v": 4070
  },
  {
    "dt": "2022.05.23 14:00",
    "o": 90.856,
    "h": 90.868,
    "l": 90.651,
    "c": 90.768,
    "v": 4231
  },
  {
    "dt": "2022.05.23 15:00",
    "o": 90.775,
    "h": 90.865,
    "l": 90.682,
    "c": 90.79,
    "v": 4672
  },
  {
    "dt": "2022.05.23 16:00",
    "o": 90.797,
    "h": 90.818,
    "l": 90.509,
    "c": 90.651,
    "v": 5405
  },
  {
    "dt": "2022.05.23 17:00",
    "o": 90.642,
    "h": 90.85,
    "l": 90.457,
    "c": 90.633,
    "v": 6143
  },
  {
    "dt": "2022.05.23 18:00",
    "o": 90.634,
    "h": 90.858,
    "l": 90.604,
    "c": 90.727,
    "v": 5294
  },
  {
    "dt": "2022.05.23 19:00",
    "o": 90.722,
    "h": 90.866,
    "l": 90.69,
    "c": 90.79,
    "v": 4401
  },
  {
    "dt": "2022.05.23 20:00",
    "o": 90.787,
    "h": 90.787,
    "l": 90.558,
    "c": 90.763,
    "v": 4096
  },
  {
    "dt": "2022.05.23 21:00",
    "o": 90.765,
    "h": 90.977,
    "l": 90.721,
    "c": 90.896,
    "v": 3858
  },
  {
    "dt": "2022.05.23 22:00",
    "o": 90.898,
    "h": 90.913,
    "l": 90.732,
    "c": 90.842,
    "v": 3986
  },
  {
    "dt": "2022.05.23 23:00",
    "o": 90.844,
    "h": 90.934,
    "l": 90.842,
    "c": 90.881,
    "v": 1845
  },
  {
    "dt": "2022.05.24 00:00",
    "o": 90.863,
    "h": 90.895,
    "l": 90.776,
    "c": 90.862,
    "v": 1495
  },
  {
    "dt": "2022.05.24 01:00",
    "o": 90.861,
    "h": 90.879,
    "l": 90.666,
    "c": 90.683,
    "v": 2553
  },
  {
    "dt": "2022.05.24 02:00",
    "o": 90.691,
    "h": 90.691,
    "l": 90.505,
    "c": 90.543,
    "v": 2830
  },
  {
    "dt": "2022.05.24 03:00",
    "o": 90.539,
    "h": 90.571,
    "l": 90.303,
    "c": 90.414,
    "v": 3652
  },
  {
    "dt": "2022.05.24 04:00",
    "o": 90.415,
    "h": 90.706,
    "l": 90.321,
    "c": 90.559,
    "v": 4474
  },
  {
    "dt": "2022.05.24 05:00",
    "o": 90.554,
    "h": 90.574,
    "l": 90.282,
    "c": 90.41,
    "v": 3475
  },
  {
    "dt": "2022.05.24 06:00",
    "o": 90.409,
    "h": 90.583,
    "l": 90.298,
    "c": 90.558,
    "v": 2831
  },
  {
    "dt": "2022.05.24 07:00",
    "o": 90.559,
    "h": 90.566,
    "l": 90.336,
    "c": 90.368,
    "v": 2772
  },
  {
    "dt": "2022.05.24 08:00",
    "o": 90.368,
    "h": 90.475,
    "l": 90.273,
    "c": 90.38,
    "v": 3992
  },
  {
    "dt": "2022.05.24 09:00",
    "o": 90.37,
    "h": 90.438,
    "l": 90.253,
    "c": 90.349,
    "v": 4560
  },
  {
    "dt": "2022.05.24 10:00",
    "o": 90.351,
    "h": 90.519,
    "l": 90.234,
    "c": 90.391,
    "v": 5536
  },
  {
    "dt": "2022.05.24 11:00",
    "o": 90.384,
    "h": 90.461,
    "l": 89.941,
    "c": 90.014,
    "v": 5307
  },
  {
    "dt": "2022.05.24 12:00",
    "o": 90.011,
    "h": 90.133,
    "l": 89.89,
    "c": 90.07,
    "v": 4627
  },
  {
    "dt": "2022.05.24 13:00",
    "o": 90.06,
    "h": 90.269,
    "l": 90.02,
    "c": 90.228,
    "v": 4043
  },
  {
    "dt": "2022.05.24 14:00",
    "o": 90.231,
    "h": 90.314,
    "l": 90.041,
    "c": 90.107,
    "v": 4344
  },
  {
    "dt": "2022.05.24 15:00",
    "o": 90.107,
    "h": 90.179,
    "l": 89.967,
    "c": 90.032,
    "v": 4766
  },
  {
    "dt": "2022.05.24 16:00",
    "o": 90.039,
    "h": 90.11,
    "l": 89.585,
    "c": 89.745,
    "v": 5796
  },
  {
    "dt": "2022.05.24 17:00",
    "o": 89.746,
    "h": 89.759,
    "l": 89.231,
    "c": 89.443,
    "v": 6415
  },
  {
    "dt": "2022.05.24 18:00",
    "o": 89.447,
    "h": 89.698,
    "l": 89.309,
    "c": 89.593,
    "v": 5831
  },
  {
    "dt": "2022.05.24 19:00",
    "o": 89.591,
    "h": 89.885,
    "l": 89.577,
    "c": 89.706,
    "v": 5588
  },
  {
    "dt": "2022.05.24 20:00",
    "o": 89.705,
    "h": 89.951,
    "l": 89.572,
    "c": 89.913,
    "v": 5121
  },
  {
    "dt": "2022.05.24 21:00",
    "o": 89.921,
    "h": 89.995,
    "l": 89.746,
    "c": 89.814,
    "v": 5437
  },
  {
    "dt": "2022.05.24 22:00",
    "o": 89.814,
    "h": 90.231,
    "l": 89.803,
    "c": 90.171,
    "v": 5155
  },
  {
    "dt": "2022.05.24 23:00",
    "o": 90.172,
    "h": 90.191,
    "l": 90.107,
    "c": 90.124,
    "v": 2244
  },
  {
    "dt": "2022.05.25 00:00",
    "o": 90.032,
    "h": 90.161,
    "l": 89.979,
    "c": 90.123,
    "v": 734
  },
  {
    "dt": "2022.05.25 01:00",
    "o": 90.125,
    "h": 90.294,
    "l": 90.12,
    "c": 90.184,
    "v": 2276
  },
  {
    "dt": "2022.05.25 02:00",
    "o": 90.182,
    "h": 90.251,
    "l": 89.984,
    "c": 89.99,
    "v": 2976
  },
  {
    "dt": "2022.05.25 03:00",
    "o": 89.983,
    "h": 90.121,
    "l": 89.943,
    "c": 89.995,
    "v": 4583
  },
  {
    "dt": "2022.05.25 04:00",
    "o": 89.993,
    "h": 90.042,
    "l": 89.843,
    "c": 89.892,
    "v": 4965
  },
  {
    "dt": "2022.05.25 05:00",
    "o": 89.893,
    "h": 90.194,
    "l": 89.893,
    "c": 90.169,
    "v": 4823
  },
  {
    "dt": "2022.05.25 06:00",
    "o": 90.167,
    "h": 90.494,
    "l": 90.14,
    "c": 90.402,
    "v": 3969
  },
  {
    "dt": "2022.05.25 07:00",
    "o": 90.402,
    "h": 90.458,
    "l": 90.277,
    "c": 90.289,
    "v": 3168
  },
  {
    "dt": "2022.05.25 08:00",
    "o": 90.285,
    "h": 90.366,
    "l": 90.173,
    "c": 90.264,
    "v": 3660
  },
  {
    "dt": "2022.05.25 09:00",
    "o": 90.263,
    "h": 90.382,
    "l": 90.069,
    "c": 90.352,
    "v": 4823
  },
  {
    "dt": "2022.05.25 10:00",
    "o": 90.354,
    "h": 90.505,
    "l": 90.121,
    "c": 90.171,
    "v": 5582
  },
  {
    "dt": "2022.05.25 11:00",
    "o": 90.168,
    "h": 90.217,
    "l": 89.842,
    "c": 89.951,
    "v": 5169
  },
  {
    "dt": "2022.05.25 12:00",
    "o": 89.951,
    "h": 90.005,
    "l": 89.804,
    "c": 89.962,
    "v": 4478
  },
  {
    "dt": "2022.05.25 13:00",
    "o": 89.956,
    "h": 90.057,
    "l": 89.758,
    "c": 89.782,
    "v": 4126
  },
  {
    "dt": "2022.05.25 14:00",
    "o": 89.782,
    "h": 89.853,
    "l": 89.406,
    "c": 89.524,
    "v": 5092
  },
  {
    "dt": "2022.05.25 15:00",
    "o": 89.523,
    "h": 89.588,
    "l": 89.295,
    "c": 89.564,
    "v": 5402
  },
  {
    "dt": "2022.05.25 16:00",
    "o": 89.565,
    "h": 89.893,
    "l": 89.498,
    "c": 89.76,
    "v": 5865
  },
  {
    "dt": "2022.05.25 17:00",
    "o": 89.763,
    "h": 90.209,
    "l": 89.734,
    "c": 90.055,
    "v": 6137
  },
  {
    "dt": "2022.05.25 18:00",
    "o": 90.062,
    "h": 90.067,
    "l": 89.811,
    "c": 89.94,
    "v": 5382
  },
  {
    "dt": "2022.05.25 19:00",
    "o": 89.939,
    "h": 90.02,
    "l": 89.865,
    "c": 89.957,
    "v": 4689
  },
  {
    "dt": "2022.05.25 20:00",
    "o": 89.956,
    "h": 90.071,
    "l": 89.874,
    "c": 90.048,
    "v": 4424
  },
  {
    "dt": "2022.05.25 21:00",
    "o": 90.048,
    "h": 90.311,
    "l": 89.814,
    "c": 90.269,
    "v": 6222
  },
  {
    "dt": "2022.05.25 22:00",
    "o": 90.273,
    "h": 90.371,
    "l": 90.175,
    "c": 90.236,
    "v": 4784
  },
  {
    "dt": "2022.05.25 23:00",
    "o": 90.238,
    "h": 90.247,
    "l": 90.153,
    "c": 90.169,
    "v": 3096
  },
  {
    "dt": "2022.05.26 00:00",
    "o": 90.275,
    "h": 90.329,
    "l": 90.113,
    "c": 90.166,
    "v": 460
  },
  {
    "dt": "2022.05.26 01:00",
    "o": 90.162,
    "h": 90.308,
    "l": 90.16,
    "c": 90.243,
    "v": 2333
  },
  {
    "dt": "2022.05.26 02:00",
    "o": 90.252,
    "h": 90.309,
    "l": 90.115,
    "c": 90.131,
    "v": 2723
  },
  {
    "dt": "2022.05.26 03:00",
    "o": 90.132,
    "h": 90.581,
    "l": 90.127,
    "c": 90.553,
    "v": 4815
  },
  {
    "dt": "2022.05.26 04:00",
    "o": 90.551,
    "h": 90.646,
    "l": 90.031,
    "c": 90.069,
    "v": 4829
  },
  {
    "dt": "2022.05.26 05:00",
    "o": 90.066,
    "h": 90.415,
    "l": 90.062,
    "c": 90.265,
    "v": 4162
  },
  {
    "dt": "2022.05.26 06:00",
    "o": 90.267,
    "h": 90.36,
    "l": 90.191,
    "c": 90.341,
    "v": 4121
  },
  {
    "dt": "2022.05.26 07:00",
    "o": 90.347,
    "h": 90.361,
    "l": 89.989,
    "c": 90.033,
    "v": 3499
  },
  {
    "dt": "2022.05.26 08:00",
    "o": 90.032,
    "h": 90.1,
    "l": 89.873,
    "c": 89.91,
    "v": 4081
  },
  {
    "dt": "2022.05.26 09:00",
    "o": 89.913,
    "h": 90.059,
    "l": 89.88,
    "c": 89.967,
    "v": 4307
  },
  {
    "dt": "2022.05.26 10:00",
    "o": 89.967,
    "h": 89.994,
    "l": 89.698,
    "c": 89.855,
    "v": 5615
  },
  {
    "dt": "2022.05.26 11:00",
    "o": 89.863,
    "h": 89.901,
    "l": 89.708,
    "c": 89.723,
    "v": 4585
  },
  {
    "dt": "2022.05.26 12:00",
    "o": 89.72,
    "h": 89.942,
    "l": 89.638,
    "c": 89.938,
    "v": 4297
  },
  {
    "dt": "2022.05.26 13:00",
    "o": 89.937,
    "h": 90.004,
    "l": 89.673,
    "c": 89.821,
    "v": 4211
  },
  {
    "dt": "2022.05.26 14:00",
    "o": 89.822,
    "h": 90.162,
    "l": 89.812,
    "c": 90.019,
    "v": 4907
  },
  {
    "dt": "2022.05.26 15:00",
    "o": 90.015,
    "h": 90.097,
    "l": 89.824,
    "c": 89.956,
    "v": 4945
  },
  {
    "dt": "2022.05.26 16:00",
    "o": 89.955,
    "h": 90.21,
    "l": 89.832,
    "c": 90.09,
    "v": 5521
  },
  {
    "dt": "2022.05.26 17:00",
    "o": 90.093,
    "h": 90.292,
    "l": 90.028,
    "c": 90.07,
    "v": 5705
  },
  {
    "dt": "2022.05.26 18:00",
    "o": 90.077,
    "h": 90.222,
    "l": 89.975,
    "c": 90.027,
    "v": 4711
  },
  {
    "dt": "2022.05.26 19:00",
    "o": 90.033,
    "h": 90.257,
    "l": 90.032,
    "c": 90.233,
    "v": 3947
  },
  {
    "dt": "2022.05.26 20:00",
    "o": 90.231,
    "h": 90.267,
    "l": 90.146,
    "c": 90.229,
    "v": 4042
  },
  {
    "dt": "2022.05.26 21:00",
    "o": 90.229,
    "h": 90.248,
    "l": 90.163,
    "c": 90.187,
    "v": 3781
  },
  {
    "dt": "2022.05.26 22:00",
    "o": 90.186,
    "h": 90.204,
    "l": 90.018,
    "c": 90.153,
    "v": 4100
  },
  {
    "dt": "2022.05.26 23:00",
    "o": 90.149,
    "h": 90.209,
    "l": 90.119,
    "c": 90.194,
    "v": 2247
  },
  {
    "dt": "2022.05.27 00:00",
    "o": 90.179,
    "h": 90.202,
    "l": 90.093,
    "c": 90.158,
    "v": 1119
  },
  {
    "dt": "2022.05.27 01:00",
    "o": 90.156,
    "h": 90.254,
    "l": 90.146,
    "c": 90.178,
    "v": 1757
  },
  {
    "dt": "2022.05.27 02:00",
    "o": 90.187,
    "h": 90.252,
    "l": 90.159,
    "c": 90.214,
    "v": 2195
  },
  {
    "dt": "2022.05.27 03:00",
    "o": 90.203,
    "h": 90.395,
    "l": 89.982,
    "c": 90.108,
    "v": 4743
  },
  {
    "dt": "2022.05.27 04:00",
    "o": 90.107,
    "h": 90.53,
    "l": 90.069,
    "c": 90.39,
    "v": 5189
  },
  {
    "dt": "2022.05.27 05:00",
    "o": 90.393,
    "h": 90.434,
    "l": 90.288,
    "c": 90.385,
    "v": 3904
  },
  {
    "dt": "2022.05.27 06:00",
    "o": 90.385,
    "h": 90.6,
    "l": 90.381,
    "c": 90.524,
    "v": 3477
  },
  {
    "dt": "2022.05.27 07:00",
    "o": 90.524,
    "h": 90.62,
    "l": 90.502,
    "c": 90.572,
    "v": 2606
  },
  {
    "dt": "2022.05.27 08:00",
    "o": 90.569,
    "h": 90.569,
    "l": 90.395,
    "c": 90.488,
    "v": 3056
  },
  {
    "dt": "2022.05.27 09:00",
    "o": 90.484,
    "h": 90.563,
    "l": 90.393,
    "c": 90.502,
    "v": 4163
  },
  {
    "dt": "2022.05.27 10:00",
    "o": 90.499,
    "h": 90.787,
    "l": 90.463,
    "c": 90.692,
    "v": 4971
  },
  {
    "dt": "2022.05.27 11:00",
    "o": 90.692,
    "h": 90.858,
    "l": 90.644,
    "c": 90.722,
    "v": 4516
  },
  {
    "dt": "2022.05.27 12:00",
    "o": 90.723,
    "h": 90.798,
    "l": 90.632,
    "c": 90.742,
    "v": 4047
  },
  {
    "dt": "2022.05.27 13:00",
    "o": 90.74,
    "h": 90.776,
    "l": 90.651,
    "c": 90.734,
    "v": 3779
  },
  {
    "dt": "2022.05.27 14:00",
    "o": 90.732,
    "h": 90.735,
    "l": 90.551,
    "c": 90.644,
    "v": 4401
  },
  {
    "dt": "2022.05.27 15:00",
    "o": 90.645,
    "h": 90.795,
    "l": 90.624,
    "c": 90.758,
    "v": 4778
  },
  {
    "dt": "2022.05.27 16:00",
    "o": 90.762,
    "h": 90.993,
    "l": 90.686,
    "c": 90.854,
    "v": 5062
  },
  {
    "dt": "2022.05.27 17:00",
    "o": 90.864,
    "h": 90.946,
    "l": 90.779,
    "c": 90.9,
    "v": 5255
  },
  {
    "dt": "2022.05.27 18:00",
    "o": 90.899,
    "h": 90.975,
    "l": 90.785,
    "c": 90.942,
    "v": 4838
  },
  {
    "dt": "2022.05.27 19:00",
    "o": 90.947,
    "h": 90.955,
    "l": 90.781,
    "c": 90.804,
    "v": 3111
  },
  {
    "dt": "2022.05.27 20:00",
    "o": 90.804,
    "h": 90.849,
    "l": 90.773,
    "c": 90.849,
    "v": 2861
  },
  {
    "dt": "2022.05.27 21:00",
    "o": 90.853,
    "h": 90.94,
    "l": 90.818,
    "c": 90.94,
    "v": 2215
  },
  {
    "dt": "2022.05.27 22:00",
    "o": 90.938,
    "h": 91.002,
    "l": 90.868,
    "c": 90.999,
    "v": 2833
  },
  {
    "dt": "2022.05.27 23:00",
    "o": 91.002,
    "h": 91.009,
    "l": 90.926,
    "c": 90.966,
    "v": 1641
  },
  {
    "dt": "2022.05.30 00:00",
    "o": 90.911,
    "h": 90.99,
    "l": 90.849,
    "c": 90.956,
    "v": 269
  },
  {
    "dt": "2022.05.30 01:00",
    "o": 90.978,
    "h": 91.061,
    "l": 90.966,
    "c": 91.007,
    "v": 1754
  },
  {
    "dt": "2022.05.30 02:00",
    "o": 91.012,
    "h": 91.22,
    "l": 90.989,
    "c": 91.098,
    "v": 2635
  },
  {
    "dt": "2022.05.30 03:00",
    "o": 91.096,
    "h": 91.222,
    "l": 90.962,
    "c": 90.981,
    "v": 3948
  },
  {
    "dt": "2022.05.30 04:00",
    "o": 90.982,
    "h": 91.147,
    "l": 90.941,
    "c": 91.113,
    "v": 3697
  },
  {
    "dt": "2022.05.30 05:00",
    "o": 91.115,
    "h": 91.277,
    "l": 91.045,
    "c": 91.11,
    "v": 3687
  },
  {
    "dt": "2022.05.30 06:00",
    "o": 91.112,
    "h": 91.199,
    "l": 90.984,
    "c": 91.119,
    "v": 3012
  },
  {
    "dt": "2022.05.30 07:00",
    "o": 91.12,
    "h": 91.183,
    "l": 91.018,
    "c": 91.161,
    "v": 2947
  },
  {
    "dt": "2022.05.30 08:00",
    "o": 91.16,
    "h": 91.271,
    "l": 91.145,
    "c": 91.239,
    "v": 3295
  },
  {
    "dt": "2022.05.30 09:00",
    "o": 91.247,
    "h": 91.429,
    "l": 91.227,
    "c": 91.26,
    "v": 3924
  },
  {
    "dt": "2022.05.30 10:00",
    "o": 91.261,
    "h": 91.378,
    "l": 91.23,
    "c": 91.353,
    "v": 4369
  },
  {
    "dt": "2022.05.30 11:00",
    "o": 91.356,
    "h": 91.519,
    "l": 91.306,
    "c": 91.477,
    "v": 3992
  },
  {
    "dt": "2022.05.30 12:00",
    "o": 91.479,
    "h": 91.575,
    "l": 91.471,
    "c": 91.508,
    "v": 3354
  },
  {
    "dt": "2022.05.30 13:00",
    "o": 91.511,
    "h": 91.511,
    "l": 91.347,
    "c": 91.47,
    "v": 3236
  },
  {
    "dt": "2022.05.30 14:00",
    "o": 91.47,
    "h": 91.567,
    "l": 91.429,
    "c": 91.554,
    "v": 3079
  },
  {
    "dt": "2022.05.30 15:00",
    "o": 91.554,
    "h": 91.707,
    "l": 91.544,
    "c": 91.637,
    "v": 3825
  },
  {
    "dt": "2022.05.30 16:00",
    "o": 91.638,
    "h": 91.718,
    "l": 91.615,
    "c": 91.717,
    "v": 3789
  },
  {
    "dt": "2022.05.30 17:00",
    "o": 91.719,
    "h": 91.838,
    "l": 91.667,
    "c": 91.824,
    "v": 3902
  },
  {
    "dt": "2022.05.30 18:00",
    "o": 91.825,
    "h": 91.825,
    "l": 91.709,
    "c": 91.775,
    "v": 3300
  },
  {
    "dt": "2022.05.30 19:00",
    "o": 91.778,
    "h": 91.825,
    "l": 91.746,
    "c": 91.786,
    "v": 2195
  },
  {
    "dt": "2022.05.30 20:00",
    "o": 91.785,
    "h": 91.824,
    "l": 91.773,
    "c": 91.808,
    "v": 1234
  },
  {
    "dt": "2022.05.30 21:00",
    "o": 91.807,
    "h": 91.82,
    "l": 91.793,
    "c": 91.804,
    "v": 1075
  },
  {
    "dt": "2022.05.30 22:00",
    "o": 91.801,
    "h": 91.806,
    "l": 91.761,
    "c": 91.802,
    "v": 1294
  },
  {
    "dt": "2022.05.30 23:00",
    "o": 91.8,
    "h": 91.84,
    "l": 91.772,
    "c": 91.828,
    "v": 1942
  },
  {
    "dt": "2022.05.31 00:00",
    "o": 91.739,
    "h": 91.859,
    "l": 91.739,
    "c": 91.842,
    "v": 312
  },
  {
    "dt": "2022.05.31 01:00",
    "o": 91.85,
    "h": 91.852,
    "l": 91.687,
    "c": 91.769,
    "v": 1697
  },
  {
    "dt": "2022.05.31 02:00",
    "o": 91.766,
    "h": 91.994,
    "l": 91.766,
    "c": 91.923,
    "v": 2755
  },
  {
    "dt": "2022.05.31 03:00",
    "o": 91.923,
    "h": 92.227,
    "l": 91.873,
    "c": 91.958,
    "v": 5181
  },
  {
    "dt": "2022.05.31 04:00",
    "o": 91.96,
    "h": 92.076,
    "l": 91.811,
    "c": 92.006,
    "v": 5078
  },
  {
    "dt": "2022.05.31 05:00",
    "o": 92.007,
    "h": 92.065,
    "l": 91.87,
    "c": 92.049,
    "v": 3923
  },
  {
    "dt": "2022.05.31 06:00",
    "o": 92.05,
    "h": 92.069,
    "l": 91.905,
    "c": 92.052,
    "v": 3382
  },
  {
    "dt": "2022.05.31 07:00",
    "o": 92.053,
    "h": 92.053,
    "l": 91.861,
    "c": 92.008,
    "v": 3212
  },
  {
    "dt": "2022.05.31 08:00",
    "o": 92.004,
    "h": 92.08,
    "l": 91.885,
    "c": 91.901,
    "v": 3607
  },
  {
    "dt": "2022.05.31 09:00",
    "o": 91.904,
    "h": 92.025,
    "l": 91.805,
    "c": 91.901,
    "v": 4821
  },
  {
    "dt": "2022.05.31 10:00",
    "o": 91.9,
    "h": 91.94,
    "l": 91.576,
    "c": 91.736,
    "v": 5240
  },
  {
    "dt": "2022.05.31 11:00",
    "o": 91.737,
    "h": 91.967,
    "l": 91.736,
    "c": 91.954,
    "v": 4646
  },
  {
    "dt": "2022.05.31 12:00",
    "o": 91.959,
    "h": 91.99,
    "l": 91.821,
    "c": 91.897,
    "v": 4442
  },
  {
    "dt": "2022.05.31 13:00",
    "o": 91.899,
    "h": 92.02,
    "l": 91.838,
    "c": 91.957,
    "v": 4098
  },
  {
    "dt": "2022.05.31 14:00",
    "o": 91.958,
    "h": 92.023,
    "l": 91.902,
    "c": 92.01,
    "v": 4316
  },
  {
    "dt": "2022.05.31 15:00",
    "o": 92.016,
    "h": 92.071,
    "l": 91.937,
    "c": 91.98,
    "v": 5124
  },
  {
    "dt": "2022.05.31 16:00",
    "o": 91.98,
    "h": 92.412,
    "l": 91.971,
    "c": 92.326,
    "v": 5617
  },
  {
    "dt": "2022.05.31 17:00",
    "o": 92.318,
    "h": 92.421,
    "l": 92.184,
    "c": 92.259,
    "v": 5804
  },
  {
    "dt": "2022.05.31 18:00",
    "o": 92.259,
    "h": 92.407,
    "l": 92.133,
    "c": 92.351,
    "v": 5274
  },
  {
    "dt": "2022.05.31 19:00",
    "o": 92.351,
    "h": 92.439,
    "l": 92.276,
    "c": 92.371,
    "v": 4266
  },
  {
    "dt": "2022.05.31 20:00",
    "o": 92.369,
    "h": 92.516,
    "l": 92.258,
    "c": 92.486,
    "v": 3988
  },
  {
    "dt": "2022.05.31 21:00",
    "o": 92.487,
    "h": 92.508,
    "l": 92.262,
    "c": 92.309,
    "v": 4085
  },
  {
    "dt": "2022.05.31 22:00",
    "o": 92.308,
    "h": 92.45,
    "l": 92.247,
    "c": 92.369,
    "v": 4706
  },
  {
    "dt": "2022.05.31 23:00",
    "o": 92.37,
    "h": 92.397,
    "l": 92.322,
    "c": 92.361,
    "v": 2531
  }
]