[
  {
    "dt": "2023.06.01 00:00",
    "o": 0.81401,
    "h": 0.81673,
    "l": 0.8139,
    "c": 0.81626,
    "v": 278
  },
  {
    "dt": "2023.06.01 01:00",
    "o": 0.81623,
    "h": 0.81712,
    "l": 0.81615,
    "c": 0.817,
    "v": 796
  },
  {
    "dt": "2023.06.01 02:00",
    "o": 0.817,
    "h": 0.81772,
    "l": 0.8168,
    "c": 0.81695,
    "v": 766
  },
  {
    "dt": "2023.06.01 03:00",
    "o": 0.81696,
    "h": 0.81702,
    "l": 0.8155,
    "c": 0.81576,
    "v": 1626
  },
  {
    "dt": "2023.06.01 04:00",
    "o": 0.81577,
    "h": 0.81635,
    "l": 0.81471,
    "c": 0.81584,
    "v": 2666
  },
  {
    "dt": "2023.06.01 05:00",
    "o": 0.81582,
    "h": 0.8163,
    "l": 0.81524,
    "c": 0.81574,
    "v": 2077
  },
  {
    "dt": "2023.06.01 06:00",
    "o": 0.81575,
    "h": 0.81613,
    "l": 0.81496,
    "c": 0.8151,
    "v": 1627
  },
  {
    "dt": "2023.06.01 07:00",
    "o": 0.81512,
    "h": 0.8155,
    "l": 0.81469,
    "c": 0.81476,
    "v": 1411
  },
  {
    "dt": "2023.06.01 08:00",
    "o": 0.81477,
    "h": 0.81566,
    "l": 0.81466,
    "c": 0.81496,
    "v": 2024
  },
  {
    "dt": "2023.06.01 09:00",
    "o": 0.815,
    "h": 0.81567,
    "l": 0.81456,
    "c": 0.81478,
    "v": 2617
  },
  {
    "dt": "2023.06.01 10:00",
    "o": 0.8148,
    "h": 0.81497,
    "l": 0.81359,
    "c": 0.8141,
    "v": 3079
  },
  {
    "dt": "2023.06.01 11:00",
    "o": 0.81404,
    "h": 0.81552,
    "l": 0.81368,
    "c": 0.81527,
    "v": 2535
  },
  {
    "dt": "2023.06.01 12:00",
    "o": 0.81527,
    "h": 0.81572,
    "l": 0.81478,
    "c": 0.81554,
    "v": 2313
  },
  {
    "dt": "2023.06.01 13:00",
    "o": 0.81552,
    "h": 0.81667,
    "l": 0.81551,
    "c": 0.81645,
    "v": 2323
  },
  {
    "dt": "2023.06.01 14:00",
    "o": 0.81653,
    "h": 0.81706,
    "l": 0.81579,
    "c": 0.8167,
    "v": 2247
  },
  {
    "dt": "2023.06.01 15:00",
    "o": 0.81671,
    "h": 0.81682,
    "l": 0.8145,
    "c": 0.81573,
    "v": 3605
  },
  {
    "dt": "2023.06.01 16:00",
    "o": 0.81577,
    "h": 0.8171,
    "l": 0.81558,
    "c": 0.81638,
    "v": 3730
  },
  {
    "dt": "2023.06.01 17:00",
    "o": 0.8168,
    "h": 0.81822,
    "l": 0.81595,
    "c": 0.81777,
    "v": 4313
  },
  {
    "dt": "2023.06.01 18:00",
    "o": 0.81775,
    "h": 0.81846,
    "l": 0.81616,
    "c": 0.81628,
    "v": 3503
  },
  {
    "dt": "2023.06.01 19:00",
    "o": 0.81628,
    "h": 0.81681,
    "l": 0.81533,
    "c": 0.81546,
    "v": 2951
  },
  {
    "dt": "2023.06.01 20:00",
    "o": 0.81549,
    "h": 0.81586,
    "l": 0.81523,
    "c": 0.8156,
    "v": 2383
  },
  {
    "dt": "2023.06.01 21:00",
    "o": 0.81562,
    "h": 0.81604,
    "l": 0.81504,
    "c": 0.8153,
    "v": 2320
  },
  {
    "dt": "2023.06.01 22:00",
    "o": 0.81507,
    "h": 0.8163,
    "l": 0.81507,
    "c": 0.81629,
    "v": 2191
  },
  {
    "dt": "2023.06.01 23:00",
    "o": 0.81629,
    "h": 0.81651,
    "l": 0.81593,
    "c": 0.81618,
    "v": 859
  },
  {
    "dt": "2023.06.02 00:00",
    "o": 0.81593,
    "h": 0.81612,
    "l": 0.81455,
    "c": 0.81552,
    "v": 959
  },
  {
    "dt": "2023.06.02 01:00",
    "o": 0.81549,
    "h": 0.81619,
    "l": 0.81549,
    "c": 0.81612,
    "v": 1511
  },
  {
    "dt": "2023.06.02 02:00",
    "o": 0.81608,
    "h": 0.8162,
    "l": 0.81516,
    "c": 0.81516,
    "v": 492
  },
  {
    "dt": "2023.06.02 03:00",
    "o": 0.81517,
    "h": 0.81553,
    "l": 0.81456,
    "c": 0.81514,
    "v": 1100
  },
  {
    "dt": "2023.06.02 04:00",
    "o": 0.81525,
    "h": 0.81648,
    "l": 0.81484,
    "c": 0.81618,
    "v": 1918
  },
  {
    "dt": "2023.06.02 05:00",
    "o": 0.81623,
    "h": 0.81727,
    "l": 0.81613,
    "c": 0.81704,
    "v": 1455
  },
  {
    "dt": "2023.06.02 06:00",
    "o": 0.81707,
    "h": 0.81979,
    "l": 0.81698,
    "c": 0.81954,
    "v": 1865
  },
  {
    "dt": "2023.06.02 07:00",
    "o": 0.81952,
    "h": 0.81979,
    "l": 0.81772,
    "c": 0.818,
    "v": 1425
  },
  {
    "dt": "2023.06.02 08:00",
    "o": 0.81799,
    "h": 0.81872,
    "l": 0.81797,
    "c": 0.81854,
    "v": 1425
  },
  {
    "dt": "2023.06.02 09:00",
    "o": 0.81858,
    "h": 0.81936,
    "l": 0.8174,
    "c": 0.8182,
    "v": 2105
  },
  {
    "dt": "2023.06.02 10:00",
    "o": 0.81821,
    "h": 0.81871,
    "l": 0.8177,
    "c": 0.81775,
    "v": 2560
  },
  {
    "dt": "2023.06.02 11:00",
    "o": 0.81771,
    "h": 0.8192,
    "l": 0.81742,
    "c": 0.819,
    "v": 2436
  },
  {
    "dt": "2023.06.02 12:00",
    "o": 0.81901,
    "h": 0.81901,
    "l": 0.818,
    "c": 0.81878,
    "v": 2415
  },
  {
    "dt": "2023.06.02 13:00",
    "o": 0.81878,
    "h": 0.81923,
    "l": 0.81754,
    "c": 0.81758,
    "v": 1786
  },
  {
    "dt": "2023.06.02 14:00",
    "o": 0.81758,
    "h": 0.8178,
    "l": 0.81687,
    "c": 0.81755,
    "v": 1893
  },
  {
    "dt": "2023.06.02 15:00",
    "o": 0.81757,
    "h": 0.81892,
    "l": 0.81654,
    "c": 0.81725,
    "v": 3720
  },
  {
    "dt": "2023.06.02 16:00",
    "o": 0.81721,
    "h": 0.81833,
    "l": 0.81635,
    "c": 0.81677,
    "v": 4213
  },
  {
    "dt": "2023.06.02 17:00",
    "o": 0.81676,
    "h": 0.81697,
    "l": 0.81564,
    "c": 0.81568,
    "v": 3853
  },
  {
    "dt": "2023.06.02 18:00",
    "o": 0.81565,
    "h": 0.81614,
    "l": 0.81545,
    "c": 0.81558,
    "v": 2619
  },
  {
    "dt": "2023.06.02 19:00",
    "o": 0.81559,
    "h": 0.81588,
    "l": 0.81505,
    "c": 0.81516,
    "v": 2418
  },
  {
    "dt": "2023.06.02 20:00",
    "o": 0.81517,
    "h": 0.81544,
    "l": 0.81453,
    "c": 0.81461,
    "v": 1996
  },
  {
    "dt": "2023.06.02 21:00",
    "o": 0.81461,
    "h": 0.8148,
    "l": 0.81409,
    "c": 0.81433,
    "v": 2060
  },
  {
    "dt": "2023.06.02 22:00",
    "o": 0.81433,
    "h": 0.81442,
    "l": 0.81333,
    "c": 0.81335,
    "v": 1314
  },
  {
    "dt": "2023.06.02 23:00",
    "o": 0.81334,
    "h": 0.81351,
    "l": 0.81293,
    "c": 0.8132,
    "v": 1157
  },
  {
    "dt": "2023.06.05 00:00",
    "o": 0.81329,
    "h": 0.81408,
    "l": 0.81212,
    "c": 0.81268,
    "v": 372
  },
  {
    "dt": "2023.06.05 01:00",
    "o": 0.81259,
    "h": 0.81295,
    "l": 0.81202,
    "c": 0.81268,
    "v": 836
  },
  {
    "dt": "2023.06.05 02:00",
    "o": 0.81267,
    "h": 0.81335,
    "l": 0.81265,
    "c": 0.81321,
    "v": 809
  },
  {
    "dt": "2023.06.05 03:00",
    "o": 0.81322,
    "h": 0.81329,
    "l": 0.8124,
    "c": 0.81289,
    "v": 1343
  },
  {
    "dt": "2023.06.05 04:00",
    "o": 0.81296,
    "h": 0.8137,
    "l": 0.8124,
    "c": 0.81322,
    "v": 2302
  },
  {
    "dt": "2023.06.05 05:00",
    "o": 0.81322,
    "h": 0.81386,
    "l": 0.81269,
    "c": 0.81376,
    "v": 1793
  },
  {
    "dt": "2023.06.05 06:00",
    "o": 0.81374,
    "h": 0.81468,
    "l": 0.81373,
    "c": 0.81455,
    "v": 1461
  },
  {
    "dt": "2023.06.05 07:00",
    "o": 0.81455,
    "h": 0.81459,
    "l": 0.81373,
    "c": 0.81437,
    "v": 1148
  },
  {
    "dt": "2023.06.05 08:00",
    "o": 0.81438,
    "h": 0.81483,
    "l": 0.81389,
    "c": 0.81463,
    "v": 1809
  },
  {
    "dt": "2023.06.05 09:00",
    "o": 0.81464,
    "h": 0.81507,
    "l": 0.81329,
    "c": 0.81366,
    "v": 2600
  },
  {
    "dt": "2023.06.05 10:00",
    "o": 0.81365,
    "h": 0.81365,
    "l": 0.81173,
    "c": 0.81252,
    "v": 3018
  },
  {
    "dt": "2023.06.05 11:00",
    "o": 0.81255,
    "h": 0.81344,
    "l": 0.8117,
    "c": 0.81335,
    "v": 2760
  },
  {
    "dt": "2023.06.05 12:00",
    "o": 0.81333,
    "h": 0.81342,
    "l": 0.81246,
    "c": 0.81315,
    "v": 2278
  },
  {
    "dt": "2023.06.05 13:00",
    "o": 0.81314,
    "h": 0.81361,
    "l": 0.81277,
    "c": 0.81356,
    "v": 1952
  },
  {
    "dt": "2023.06.05 14:00",
    "o": 0.81358,
    "h": 0.81373,
    "l": 0.81243,
    "c": 0.81285,
    "v": 2359
  },
  {
    "dt": "2023.06.05 15:00",
    "o": 0.81287,
    "h": 0.81392,
    "l": 0.8126,
    "c": 0.81367,
    "v": 2663
  },
  {
    "dt": "2023.06.05 16:00",
    "o": 0.81368,
    "h": 0.81434,
    "l": 0.81334,
    "c": 0.81357,
    "v": 3106
  },
  {
    "dt": "2023.06.05 17:00",
    "o": 0.81403,
    "h": 0.8174,
    "l": 0.81339,
    "c": 0.81563,
    "v": 3682
  },
  {
    "dt": "2023.06.05 18:00",
    "o": 0.81562,
    "h": 0.81603,
    "l": 0.81501,
    "c": 0.81603,
    "v": 2717
  },
  {
    "dt": "2023.06.05 19:00",
    "o": 0.81605,
    "h": 0.81635,
    "l": 0.81534,
    "c": 0.8155,
    "v": 2228
  },
  {
    "dt": "2023.06.05 20:00",
    "o": 0.81549,
    "h": 0.81607,
    "l": 0.81511,
    "c": 0.81597,
    "v": 2252
  },
  {
    "dt": "2023.06.05 21:00",
    "o": 0.81598,
    "h": 0.81637,
    "l": 0.81591,
    "c": 0.81591,
    "v": 2641
  },
  {
    "dt": "2023.06.05 22:00",
    "o": 0.81605,
    "h": 0.8161,
    "l": 0.81552,
    "c": 0.81562,
    "v": 2310
  },
  {
    "dt": "2023.06.05 23:00",
    "o": 0.81564,
    "h": 0.8161,
    "l": 0.81564,
    "c": 0.81595,
    "v": 924
  },
  {
    "dt": "2023.06.06 00:00",
    "o": 0.81488,
    "h": 0.81585,
    "l": 0.81488,
    "c": 0.81579,
    "v": 496
  },
  {
    "dt": "2023.06.06 01:00",
    "o": 0.81577,
    "h": 0.81613,
    "l": 0.81558,
    "c": 0.81603,
    "v": 663
  },
  {
    "dt": "2023.06.06 02:00",
    "o": 0.81606,
    "h": 0.81632,
    "l": 0.81586,
    "c": 0.81627,
    "v": 670
  },
  {
    "dt": "2023.06.06 03:00",
    "o": 0.81625,
    "h": 0.81665,
    "l": 0.81606,
    "c": 0.81629,
    "v": 899
  },
  {
    "dt": "2023.06.06 04:00",
    "o": 0.81632,
    "h": 0.81633,
    "l": 0.81547,
    "c": 0.81607,
    "v": 1484
  },
  {
    "dt": "2023.06.06 05:00",
    "o": 0.81606,
    "h": 0.81646,
    "l": 0.8158,
    "c": 0.81612,
    "v": 1661
  },
  {
    "dt": "2023.06.06 06:00",
    "o": 0.81611,
    "h": 0.81614,
    "l": 0.81567,
    "c": 0.81576,
    "v": 1155
  },
  {
    "dt": "2023.06.06 07:00",
    "o": 0.81579,
    "h": 0.81802,
    "l": 0.81536,
    "c": 0.81603,
    "v": 2127
  },
  {
    "dt": "2023.06.06 08:00",
    "o": 0.81606,
    "h": 0.8164,
    "l": 0.81561,
    "c": 0.81638,
    "v": 1941
  },
  {
    "dt": "2023.06.06 09:00",
    "o": 0.81636,
    "h": 0.81713,
    "l": 0.81548,
    "c": 0.81573,
    "v": 2823
  },
  {
    "dt": "2023.06.06 10:00",
    "o": 0.81576,
    "h": 0.81612,
    "l": 0.81483,
    "c": 0.81567,
    "v": 3645
  },
  {
    "dt": "2023.06.06 11:00",
    "o": 0.81565,
    "h": 0.81659,
    "l": 0.81539,
    "c": 0.81637,
    "v": 2984
  },
  {
    "dt": "2023.06.06 12:00",
    "o": 0.81634,
    "h": 0.81673,
    "l": 0.81478,
    "c": 0.81485,
    "v": 2248
  },
  {
    "dt": "2023.06.06 13:00",
    "o": 0.81485,
    "h": 0.81601,
    "l": 0.81475,
    "c": 0.81579,
    "v": 2073
  },
  {
    "dt": "2023.06.06 14:00",
    "o": 0.81579,
    "h": 0.81642,
    "l": 0.8157,
    "c": 0.81582,
    "v": 1795
  },
  {
    "dt": "2023.06.06 15:00",
    "o": 0.8158,
    "h": 0.81601,
    "l": 0.81362,
    "c": 0.81457,
    "v": 2910
  },
  {
    "dt": "2023.06.06 16:00",
    "o": 0.8146,
    "h": 0.8154,
    "l": 0.81245,
    "c": 0.81302,
    "v": 3155
  },
  {
    "dt": "2023.06.06 17:00",
    "o": 0.81301,
    "h": 0.81349,
    "l": 0.81221,
    "c": 0.81306,
    "v": 3388
  },
  {
    "dt": "2023.06.06 18:00",
    "o": 0.81307,
    "h": 0.81519,
    "l": 0.81269,
    "c": 0.81459,
    "v": 2966
  },
  {
    "dt": "2023.06.06 19:00",
    "o": 0.81459,
    "h": 0.81557,
    "l": 0.81416,
    "c": 0.81422,
    "v": 2583
  },
  {
    "dt": "2023.06.06 20:00",
    "o": 0.81422,
    "h": 0.81458,
    "l": 0.81399,
    "c": 0.81406,
    "v": 2246
  },
  {
    "dt": "2023.06.06 21:00",
    "o": 0.81405,
    "h": 0.81444,
    "l": 0.81382,
    "c": 0.81406,
    "v": 2144
  },
  {
    "dt": "2023.06.06 22:00",
    "o": 0.81385,
    "h": 0.81475,
    "l": 0.81383,
    "c": 0.81433,
    "v": 1698
  },
  {
    "dt": "2023.06.06 23:00",
    "o": 0.81432,
    "h": 0.8145,
    "l": 0.81394,
    "c": 0.81442,
    "v": 966
  },
  {
    "dt": "2023.06.07 00:00",
    "o": 0.81354,
    "h": 0.81458,
    "l": 0.81345,
    "c": 0.81405,
    "v": 567
  },
  {
    "dt": "2023.06.07 01:00",
    "o": 0.81408,
    "h": 0.81461,
    "l": 0.81408,
    "c": 0.81453,
    "v": 346
  },
  {
    "dt": "2023.06.07 02:00",
    "o": 0.81452,
    "h": 0.8147,
    "l": 0.81392,
    "c": 0.81431,
    "v": 797
  },
  {
    "dt": "2023.06.07 03:00",
    "o": 0.81431,
    "h": 0.81534,
    "l": 0.81428,
    "c": 0.81469,
    "v": 1333
  },
  {
    "dt": "2023.06.07 04:00",
    "o": 0.81469,
    "h": 0.8151,
    "l": 0.81416,
    "c": 0.81449,
    "v": 2345
  },
  {
    "dt": "2023.06.07 05:00",
    "o": 0.81447,
    "h": 0.81483,
    "l": 0.81396,
    "c": 0.81472,
    "v": 1527
  },
  {
    "dt": "2023.06.07 06:00",
    "o": 0.81472,
    "h": 0.81475,
    "l": 0.81393,
    "c": 0.8145,
    "v": 1450
  },
  {
    "dt": "2023.06.07 07:00",
    "o": 0.8145,
    "h": 0.81488,
    "l": 0.81432,
    "c": 0.81455,
    "v": 1232
  },
  {
    "dt": "2023.06.07 08:00",
    "o": 0.8145,
    "h": 0.81455,
    "l": 0.81388,
    "c": 0.8141,
    "v": 1341
  },
  {
    "dt": "2023.06.07 09:00",
    "o": 0.81406,
    "h": 0.81442,
    "l": 0.81337,
    "c": 0.8139,
    "v": 2324
  },
  {
    "dt": "2023.06.07 10:00",
    "o": 0.81389,
    "h": 0.81403,
    "l": 0.81307,
    "c": 0.81356,
    "v": 2614
  },
  {
    "dt": "2023.06.07 11:00",
    "o": 0.81358,
    "h": 0.81382,
    "l": 0.81289,
    "c": 0.81375,
    "v": 2688
  },
  {
    "dt": "2023.06.07 12:00",
    "o": 0.81381,
    "h": 0.81402,
    "l": 0.81297,
    "c": 0.81397,
    "v": 2255
  },
  {
    "dt": "2023.06.07 13:00",
    "o": 0.81396,
    "h": 0.81425,
    "l": 0.81307,
    "c": 0.81365,
    "v": 2257
  },
  {
    "dt": "2023.06.07 14:00",
    "o": 0.81365,
    "h": 0.8141,
    "l": 0.81325,
    "c": 0.81372,
    "v": 2421
  },
  {
    "dt": "2023.06.07 15:00",
    "o": 0.81373,
    "h": 0.81374,
    "l": 0.81284,
    "c": 0.81287,
    "v": 2838
  },
  {
    "dt": "2023.06.07 16:00",
    "o": 0.81293,
    "h": 0.81575,
    "l": 0.81235,
    "c": 0.8154,
    "v": 3309
  },
  {
    "dt": "2023.06.07 17:00",
    "o": 0.81278,
    "h": 0.81295,
    "l": 0.80828,
    "c": 0.80875,
    "v": 4951
  },
  {
    "dt": "2023.06.07 18:00",
    "o": 0.80876,
    "h": 0.809,
    "l": 0.80794,
    "c": 0.80819,
    "v": 3405
  },
  {
    "dt": "2023.06.07 19:00",
    "o": 0.8082,
    "h": 0.80838,
    "l": 0.80715,
    "c": 0.80718,
    "v": 2677
  },
  {
    "dt": "2023.06.07 20:00",
    "o": 0.80717,
    "h": 0.80815,
    "l": 0.80711,
    "c": 0.80757,
    "v": 2404
  },
  {
    "dt": "2023.06.07 21:00",
    "o": 0.80758,
    "h": 0.80808,
    "l": 0.80731,
    "c": 0.80742,
    "v": 2162
  },
  {
    "dt": "2023.06.07 22:00",
    "o": 0.80763,
    "h": 0.80805,
    "l": 0.80698,
    "c": 0.80707,
    "v": 2011
  },
  {
    "dt": "2023.06.07 23:00",
    "o": 0.80709,
    "h": 0.80743,
    "l": 0.8069,
    "c": 0.80706,
    "v": 1086
  },
  {
    "dt": "2023.06.08 00:00",
    "o": 0.80595,
    "h": 0.8077,
    "l": 0.80566,
    "c": 0.80721,
    "v": 494
  },
  {
    "dt": "2023.06.08 01:00",
    "o": 0.80728,
    "h": 0.80746,
    "l": 0.80662,
    "c": 0.80706,
    "v": 618
  },
  {
    "dt": "2023.06.08 02:00",
    "o": 0.80707,
    "h": 0.80799,
    "l": 0.80663,
    "c": 0.80768,
    "v": 749
  },
  {
    "dt": "2023.06.08 03:00",
    "o": 0.80769,
    "h": 0.80847,
    "l": 0.80766,
    "c": 0.80829,
    "v": 1422
  },
  {
    "dt": "2023.06.08 04:00",
    "o": 0.80829,
    "h": 0.80841,
    "l": 0.80723,
    "c": 0.80759,
    "v": 2065
  },
  {
    "dt": "2023.06.08 05:00",
    "o": 0.80763,
    "h": 0.80862,
    "l": 0.80759,
    "c": 0.80819,
    "v": 1709
  },
  {
    "dt": "2023.06.08 06:00",
    "o": 0.80819,
    "h": 0.8085,
    "l": 0.80794,
    "c": 0.80794,
    "v": 1510
  },
  {
    "dt": "2023.06.08 07:00",
    "o": 0.80792,
    "h": 0.80806,
    "l": 0.80733,
    "c": 0.80799,
    "v": 1190
  },
  {
    "dt": "2023.06.08 08:00",
    "o": 0.80798,
    "h": 0.80872,
    "l": 0.80775,
    "c": 0.8081,
    "v": 1743
  },
  {
    "dt": "2023.06.08 09:00",
    "o": 0.80811,
    "h": 0.8084,
    "l": 0.80745,
    "c": 0.80782,
    "v": 2247
  },
  {
    "dt": "2023.06.08 10:00",
    "o": 0.80781,
    "h": 0.81065,
    "l": 0.80739,
    "c": 0.81007,
    "v": 2981
  },
  {
    "dt": "2023.06.08 11:00",
    "o": 0.81005,
    "h": 0.81052,
    "l": 0.80943,
    "c": 0.81008,
    "v": 2407
  },
  {
    "dt": "2023.06.08 12:00",
    "o": 0.81007,
    "h": 0.81016,
    "l": 0.80944,
    "c": 0.80973,
    "v": 2195
  },
  {
    "dt": "2023.06.08 13:00",
    "o": 0.80979,
    "h": 0.81013,
    "l": 0.80882,
    "c": 0.80886,
    "v": 1882
  },
  {
    "dt": "2023.06.08 14:00",
    "o": 0.80885,
    "h": 0.81054,
    "l": 0.80875,
    "c": 0.8104,
    "v": 2101
  },
  {
    "dt": "2023.06.08 15:00",
    "o": 0.81038,
    "h": 0.81286,
    "l": 0.81011,
    "c": 0.81182,
    "v": 3124
  },
  {
    "dt": "2023.06.08 16:00",
    "o": 0.81182,
    "h": 0.81393,
    "l": 0.81107,
    "c": 0.813,
    "v": 3527
  },
  {
    "dt": "2023.06.08 17:00",
    "o": 0.81299,
    "h": 0.81384,
    "l": 0.81244,
    "c": 0.81344,
    "v": 2897
  },
  {
    "dt": "2023.06.08 18:00",
    "o": 0.81342,
    "h": 0.81552,
    "l": 0.81319,
    "c": 0.81507,
    "v": 2912
  },
  {
    "dt": "2023.06.08 19:00",
    "o": 0.81505,
    "h": 0.8151,
    "l": 0.81345,
    "c": 0.81363,
    "v": 2534
  },
  {
    "dt": "2023.06.08 20:00",
    "o": 0.81359,
    "h": 0.81395,
    "l": 0.81319,
    "c": 0.8134,
    "v": 2072
  },
  {
    "dt": "2023.06.08 21:00",
    "o": 0.8134,
    "h": 0.81425,
    "l": 0.8133,
    "c": 0.81415,
    "v": 2002
  },
  {
    "dt": "2023.06.08 22:00",
    "o": 0.8141,
    "h": 0.81444,
    "l": 0.81379,
    "c": 0.81385,
    "v": 1716
  },
  {
    "dt": "2023.06.08 23:00",
    "o": 0.81384,
    "h": 0.8143,
    "l": 0.81376,
    "c": 0.8139,
    "v": 841
  },
  {
    "dt": "2023.06.09 00:00",
    "o": 0.81358,
    "h": 0.81406,
    "l": 0.81168,
    "c": 0.81354,
    "v": 457
  },
  {
    "dt": "2023.06.09 01:00",
    "o": 0.81349,
    "h": 0.81429,
    "l": 0.81349,
    "c": 0.81417,
    "v": 517
  },
  {
    "dt": "2023.06.09 02:00",
    "o": 0.81417,
    "h": 0.81444,
    "l": 0.81409,
    "c": 0.8141,
    "v": 519
  },
  {
    "dt": "2023.06.09 03:00",
    "o": 0.81411,
    "h": 0.81482,
    "l": 0.81411,
    "c": 0.81438,
    "v": 1412
  },
  {
    "dt": "2023.06.09 04:00",
    "o": 0.81437,
    "h": 0.81463,
    "l": 0.81363,
    "c": 0.81384,
    "v": 1670
  },
  {
    "dt": "2023.06.09 05:00",
    "o": 0.81381,
    "h": 0.81428,
    "l": 0.81361,
    "c": 0.8139,
    "v": 1324
  },
  {
    "dt": "2023.06.09 06:00",
    "o": 0.81393,
    "h": 0.81416,
    "l": 0.8137,
    "c": 0.81384,
    "v": 1252
  },
  {
    "dt": "2023.06.09 07:00",
    "o": 0.81385,
    "h": 0.81395,
    "l": 0.81344,
    "c": 0.81362,
    "v": 1072
  },
  {
    "dt": "2023.06.09 08:00",
    "o": 0.81363,
    "h": 0.81418,
    "l": 0.81356,
    "c": 0.81399,
    "v": 1487
  },
  {
    "dt": "2023.06.09 09:00",
    "o": 0.81401,
    "h": 0.81438,
    "l": 0.81341,
    "c": 0.81384,
    "v": 2208
  },
  {
    "dt": "2023.06.09 10:00",
    "o": 0.81381,
    "h": 0.81394,
    "l": 0.81262,
    "c": 0.81356,
    "v": 2824
  },
  {
    "dt": "2023.06.09 11:00",
    "o": 0.81357,
    "h": 0.81374,
    "l": 0.81269,
    "c": 0.81269,
    "v": 2539
  },
  {
    "dt": "2023.06.09 12:00",
    "o": 0.81271,
    "h": 0.81301,
    "l": 0.81195,
    "c": 0.812,
    "v": 2131
  },
  {
    "dt": "2023.06.09 13:00",
    "o": 0.81202,
    "h": 0.8134,
    "l": 0.81202,
    "c": 0.81319,
    "v": 2218
  },
  {
    "dt": "2023.06.09 14:00",
    "o": 0.81318,
    "h": 0.81497,
    "l": 0.81312,
    "c": 0.81475,
    "v": 2561
  },
  {
    "dt": "2023.06.09 15:00",
    "o": 0.81477,
    "h": 0.81822,
    "l": 0.81429,
    "c": 0.81817,
    "v": 3336
  },
  {
    "dt": "2023.06.09 16:00",
    "o": 0.81811,
    "h": 0.81871,
    "l": 0.81623,
    "c": 0.81643,
    "v": 3569
  },
  {
    "dt": "2023.06.09 17:00",
    "o": 0.81647,
    "h": 0.81736,
    "l": 0.81581,
    "c": 0.81605,
    "v": 3557
  },
  {
    "dt": "2023.06.09 18:00",
    "o": 0.81604,
    "h": 0.81783,
    "l": 0.81599,
    "c": 0.81734,
    "v": 2690
  },
  {
    "dt": "2023.06.09 19:00",
    "o": 0.81734,
    "h": 0.81803,
    "l": 0.81731,
    "c": 0.81767,
    "v": 2568
  },
  {
    "dt": "2023.06.09 20:00",
    "o": 0.81769,
    "h": 0.81805,
    "l": 0.81751,
    "c": 0.81755,
    "v": 2151
  },
  {
    "dt": "2023.06.09 21:00",
    "o": 0.81765,
    "h": 0.81788,
    "l": 0.81743,
    "c": 0.81767,
    "v": 2154
  },
  {
    "dt": "2023.06.09 22:00",
    "o": 0.81767,
    "h": 0.81785,
    "l": 0.81731,
    "c": 0.81736,
    "v": 1554
  },
  {
    "dt": "2023.06.09 23:00",
    "o": 0.81737,
    "h": 0.81787,
    "l": 0.81726,
    "c": 0.81735,
    "v": 774
  },
  {
    "dt": "2023.06.12 00:00",
    "o": 0.81602,
    "h": 0.81722,
    "l": 0.81592,
    "c": 0.81646,
    "v": 247
  },
  {
    "dt": "2023.06.12 01:00",
    "o": 0.81647,
    "h": 0.8176,
    "l": 0.81647,
    "c": 0.81745,
    "v": 819
  },
  {
    "dt": "2023.06.12 02:00",
    "o": 0.81745,
    "h": 0.81757,
    "l": 0.81713,
    "c": 0.8174,
    "v": 578
  },
  {
    "dt": "2023.06.12 03:00",
    "o": 0.81747,
    "h": 0.81756,
    "l": 0.81656,
    "c": 0.81658,
    "v": 1149
  },
  {
    "dt": "2023.06.12 04:00",
    "o": 0.81654,
    "h": 0.81697,
    "l": 0.81646,
    "c": 0.81662,
    "v": 1527
  },
  {
    "dt": "2023.06.12 05:00",
    "o": 0.8166,
    "h": 0.81678,
    "l": 0.81621,
    "c": 0.8163,
    "v": 1351
  },
  {
    "dt": "2023.06.12 06:00",
    "o": 0.81632,
    "h": 0.81733,
    "l": 0.81628,
    "c": 0.81704,
    "v": 1419
  },
  {
    "dt": "2023.06.12 07:00",
    "o": 0.81703,
    "h": 0.81717,
    "l": 0.81671,
    "c": 0.81679,
    "v": 1334
  },
  {
    "dt": "2023.06.12 08:00",
    "o": 0.81677,
    "h": 0.81711,
    "l": 0.81665,
    "c": 0.81669,
    "v": 1701
  },
  {
    "dt": "2023.06.12 09:00",
    "o": 0.81669,
    "h": 0.81739,
    "l": 0.8163,
    "c": 0.81673,
    "v": 2206
  },
  {
    "dt": "2023.06.12 10:00",
    "o": 0.81668,
    "h": 0.81726,
    "l": 0.81569,
    "c": 0.81688,
    "v": 2740
  },
  {
    "dt": "2023.06.12 11:00",
    "o": 0.81686,
    "h": 0.81857,
    "l": 0.81681,
    "c": 0.81845,
    "v": 2646
  },
  {
    "dt": "2023.06.12 12:00",
    "o": 0.81844,
    "h": 0.81978,
    "l": 0.81844,
    "c": 0.81897,
    "v": 2666
  },
  {
    "dt": "2023.06.12 13:00",
    "o": 0.81899,
    "h": 0.81925,
    "l": 0.81832,
    "c": 0.81861,
    "v": 2705
  },
  {
    "dt": "2023.06.12 14:00",
    "o": 0.8186,
    "h": 0.81875,
    "l": 0.81765,
    "c": 0.81821,
    "v": 2400
  },
  {
    "dt": "2023.06.12 15:00",
    "o": 0.8182,
    "h": 0.81875,
    "l": 0.81804,
    "c": 0.81816,
    "v": 2830
  },
  {
    "dt": "2023.06.12 16:00",
    "o": 0.8181,
    "h": 0.81849,
    "l": 0.81569,
    "c": 0.8163,
    "v": 3447
  },
  {
    "dt": "2023.06.12 17:00",
    "o": 0.81627,
    "h": 0.81808,
    "l": 0.81627,
    "c": 0.81727,
    "v": 3736
  },
  {
    "dt": "2023.06.12 18:00",
    "o": 0.81726,
    "h": 0.81867,
    "l": 0.81712,
    "c": 0.81794,
    "v": 2826
  },
  {
    "dt": "2023.06.12 19:00",
    "o": 0.81793,
    "h": 0.81827,
    "l": 0.81722,
    "c": 0.81749,
    "v": 2520
  },
  {
    "dt": "2023.06.12 20:00",
    "o": 0.8175,
    "h": 0.81841,
    "l": 0.81743,
    "c": 0.81814,
    "v": 2425
  },
  {
    "dt": "2023.06.12 21:00",
    "o": 0.81808,
    "h": 0.81844,
    "l": 0.81783,
    "c": 0.81808,
    "v": 2374
  },
  {
    "dt": "2023.06.12 22:00",
    "o": 0.81811,
    "h": 0.81844,
    "l": 0.81785,
    "c": 0.81832,
    "v": 2114
  },
  {
    "dt": "2023.06.12 23:00",
    "o": 0.81835,
    "h": 0.81855,
    "l": 0.81822,
    "c": 0.81825,
    "v": 1255
  },
  {
    "dt": "2023.06.13 00:00",
    "o": 0.81708,
    "h": 0.81835,
    "l": 0.81708,
    "c": 0.81826,
    "v": 264
  },
  {
    "dt": "2023.06.13 01:00",
    "o": 0.81855,
    "h": 0.81877,
    "l": 0.81817,
    "c": 0.8185,
    "v": 1108
  },
  {
    "dt": "2023.06.13 02:00",
    "o": 0.8185,
    "h": 0.81915,
    "l": 0.8185,
    "c": 0.8188,
    "v": 1034
  },
  {
    "dt": "2023.06.13 03:00",
    "o": 0.8188,
    "h": 0.81883,
    "l": 0.81777,
    "c": 0.81783,
    "v": 1475
  },
  {
    "dt": "2023.06.13 04:00",
    "o": 0.81785,
    "h": 0.81808,
    "l": 0.81713,
    "c": 0.81794,
    "v": 2047
  },
  {
    "dt": "2023.06.13 05:00",
    "o": 0.81797,
    "h": 0.81809,
    "l": 0.81679,
    "c": 0.81694,
    "v": 1813
  },
  {
    "dt": "2023.06.13 06:00",
    "o": 0.81693,
    "h": 0.81857,
    "l": 0.81648,
    "c": 0.81852,
    "v": 2094
  },
  {
    "dt": "2023.06.13 07:00",
    "o": 0.81852,
    "h": 0.81897,
    "l": 0.81818,
    "c": 0.81892,
    "v": 1545
  },
  {
    "dt": "2023.06.13 08:00",
    "o": 0.81894,
    "h": 0.8195,
    "l": 0.81838,
    "c": 0.81845,
    "v": 1727
  },
  {
    "dt": "2023.06.13 09:00",
    "o": 0.81843,
    "h": 0.81994,
    "l": 0.81836,
    "c": 0.81947,
    "v": 2733
  },
  {
    "dt": "2023.06.13 10:00",
    "o": 0.81949,
    "h": 0.82137,
    "l": 0.81949,
    "c": 0.82077,
    "v": 2902
  },
  {
    "dt": "2023.06.13 11:00",
    "o": 0.82074,
    "h": 0.82089,
    "l": 0.82037,
    "c": 0.82042,
    "v": 2535
  },
  {
    "dt": "2023.06.13 12:00",
    "o": 0.82043,
    "h": 0.82046,
    "l": 0.8192,
    "c": 0.81959,
    "v": 2124
  },
  {
    "dt": "2023.06.13 13:00",
    "o": 0.81957,
    "h": 0.82021,
    "l": 0.81948,
    "c": 0.82004,
    "v": 2086
  },
  {
    "dt": "2023.06.13 14:00",
    "o": 0.82008,
    "h": 0.82041,
    "l": 0.81957,
    "c": 0.82022,
    "v": 2266
  },
  {
    "dt": "2023.06.13 15:00",
    "o": 0.82026,
    "h": 0.82241,
    "l": 0.81752,
    "c": 0.82175,
    "v": 4247
  },
  {
    "dt": "2023.06.13 16:00",
    "o": 0.82176,
    "h": 0.82246,
    "l": 0.81918,
    "c": 0.81923,
    "v": 4453
  },
  {
    "dt": "2023.06.13 17:00",
    "o": 0.81922,
    "h": 0.81928,
    "l": 0.81768,
    "c": 0.81845,
    "v": 4217
  },
  {
    "dt": "2023.06.13 18:00",
    "o": 0.81845,
    "h": 0.81875,
    "l": 0.81732,
    "c": 0.81742,
    "v": 2817
  },
  {
    "dt": "2023.06.13 19:00",
    "o": 0.81736,
    "h": 0.8186,
    "l": 0.81733,
    "c": 0.8184,
    "v": 2063
  },
  {
    "dt": "2023.06.13 20:00",
    "o": 0.81835,
    "h": 0.8186,
    "l": 0.81708,
    "c": 0.81724,
    "v": 2441
  },
  {
    "dt": "2023.06.13 21:00",
    "o": 0.81725,
    "h": 0.81767,
    "l": 0.81686,
    "c": 0.81755,
    "v": 2683
  },
  {
    "dt": "2023.06.13 22:00",
    "o": 0.8175,
    "h": 0.81818,
    "l": 0.81738,
    "c": 0.81807,
    "v": 2336
  },
  {
    "dt": "2023.06.13 23:00",
    "o": 0.81805,
    "h": 0.81867,
    "l": 0.81786,
    "c": 0.81867,
    "v": 1302
  },
  {
    "dt": "2023.06.14 00:00",
    "o": 0.8182,
    "h": 0.81868,
    "l": 0.81803,
    "c": 0.81848,
    "v": 330
  },
  {
    "dt": "2023.06.14 01:00",
    "o": 0.81848,
    "h": 0.81967,
    "l": 0.81831,
    "c": 0.81937,
    "v": 787
  },
  {
    "dt": "2023.06.14 02:00",
    "o": 0.81938,
    "h": 0.82017,
    "l": 0.81927,
    "c": 0.82001,
    "v": 929
  },
  {
    "dt": "2023.06.14 03:00",
    "o": 0.82003,
    "h": 0.82019,
    "l": 0.81912,
    "c": 0.81915,
    "v": 1467
  },
  {
    "dt": "2023.06.14 04:00",
    "o": 0.8192,
    "h": 0.82056,
    "l": 0.81909,
    "c": 0.82,
    "v": 1875
  },
  {
    "dt": "2023.06.14 05:00",
    "o": 0.82,
    "h": 0.82019,
    "l": 0.81942,
    "c": 0.81975,
    "v": 1419
  },
  {
    "dt": "2023.06.14 06:00",
    "o": 0.81975,
    "h": 0.82029,
    "l": 0.81934,
    "c": 0.82014,
    "v": 1460
  },
  {
    "dt": "2023.06.14 07:00",
    "o": 0.82013,
    "h": 0.82013,
    "l": 0.81842,
    "c": 0.81849,
    "v": 1089
  },
  {
    "dt": "2023.06.14 08:00",
    "o": 0.81845,
    "h": 0.81869,
    "l": 0.81782,
    "c": 0.81798,
    "v": 1504
  },
  {
    "dt": "2023.06.14 09:00",
    "o": 0.81799,
    "h": 0.81835,
    "l": 0.81772,
    "c": 0.81783,
    "v": 2218
  },
  {
    "dt": "2023.06.14 10:00",
    "o": 0.81779,
    "h": 0.8193,
    "l": 0.81776,
    "c": 0.81905,
    "v": 2633
  },
  {
    "dt": "2023.06.14 11:00",
    "o": 0.81905,
    "h": 0.81986,
    "l": 0.81897,
    "c": 0.81954,
    "v": 2398
  },
  {
    "dt": "2023.06.14 12:00",
    "o": 0.81953,
    "h": 0.82057,
    "l": 0.81893,
    "c": 0.82057,
    "v": 2121
  },
  {
    "dt": "2023.06.14 13:00",
    "o": 0.82057,
    "h": 0.82118,
    "l": 0.82027,
    "c": 0.82047,
    "v": 2272
  },
  {
    "dt": "2023.06.14 14:00",
    "o": 0.82047,
    "h": 0.82152,
    "l": 0.82019,
    "c": 0.82109,
    "v": 2289
  },
  {
    "dt": "2023.06.14 15:00",
    "o": 0.82109,
    "h": 0.8251,
    "l": 0.82109,
    "c": 0.82498,
    "v": 3213
  },
  {
    "dt": "2023.06.14 16:00",
    "o": 0.82495,
    "h": 0.82544,
    "l": 0.82439,
    "c": 0.82496,
    "v": 3052
  },
  {
    "dt": "2023.06.14 17:00",
    "o": 0.82494,
    "h": 0.82787,
    "l": 0.82452,
    "c": 0.82709,
    "v": 2995
  },
  {
    "dt": "2023.06.14 18:00",
    "o": 0.82703,
    "h": 0.82829,
    "l": 0.82644,
    "c": 0.82802,
    "v": 2504
  },
  {
    "dt": "2023.06.14 19:00",
    "o": 0.82797,
    "h": 0.82801,
    "l": 0.82689,
    "c": 0.82728,
    "v": 2138
  },
  {
    "dt": "2023.06.14 20:00",
    "o": 0.82723,
    "h": 0.82793,
    "l": 0.82694,
    "c": 0.82701,
    "v": 2318
  },
  {
    "dt": "2023.06.14 21:00",
    "o": 0.82696,
    "h": 0.82935,
    "l": 0.82317,
    "c": 0.82755,
    "v": 5886
  },
  {
    "dt": "2023.06.14 22:00",
    "o": 0.82736,
    "h": 0.8283,
    "l": 0.82638,
    "c": 0.82796,
    "v": 4323
  },
  {
    "dt": "2023.06.14 23:00",
    "o": 0.82793,
    "h": 0.82843,
    "l": 0.82665,
    "c": 0.82672,
    "v": 1362
  },
  {
    "dt": "2023.06.15 00:00",
    "o": 0.82658,
    "h": 0.8269,
    "l": 0.82566,
    "c": 0.82603,
    "v": 674
  },
  {
    "dt": "2023.06.15 01:00",
    "o": 0.82615,
    "h": 0.82816,
    "l": 0.8242,
    "c": 0.8252,
    "v": 908
  },
  {
    "dt": "2023.06.15 02:00",
    "o": 0.82518,
    "h": 0.82584,
    "l": 0.82469,
    "c": 0.82581,
    "v": 944
  },
  {
    "dt": "2023.06.15 03:00",
    "o": 0.82581,
    "h": 0.82646,
    "l": 0.82491,
    "c": 0.82526,
    "v": 1671
  },
  {
    "dt": "2023.06.15 04:00",
    "o": 0.82526,
    "h": 0.82546,
    "l": 0.82207,
    "c": 0.82266,
    "v": 2540
  },
  {
    "dt": "2023.06.15 05:00",
    "o": 0.82264,
    "h": 0.82355,
    "l": 0.82223,
    "c": 0.82351,
    "v": 2284
  },
  {
    "dt": "2023.06.15 06:00",
    "o": 0.82348,
    "h": 0.82452,
    "l": 0.82326,
    "c": 0.82431,
    "v": 1672
  },
  {
    "dt": "2023.06.15 07:00",
    "o": 0.82433,
    "h": 0.82437,
    "l": 0.82359,
    "c": 0.82426,
    "v": 1478
  },
  {
    "dt": "2023.06.15 08:00",
    "o": 0.82424,
    "h": 0.82619,
    "l": 0.82396,
    "c": 0.82546,
    "v": 2249
  },
  {
    "dt": "2023.06.15 09:00",
    "o": 0.82541,
    "h": 0.82544,
    "l": 0.82341,
    "c": 0.82366,
    "v": 2436
  },
  {
    "dt": "2023.06.15 10:00",
    "o": 0.82372,
    "h": 0.82387,
    "l": 0.8227,
    "c": 0.82349,
    "v": 2615
  },
  {
    "dt": "2023.06.15 11:00",
    "o": 0.82344,
    "h": 0.82378,
    "l": 0.82266,
    "c": 0.82285,
    "v": 2094
  },
  {
    "dt": "2023.06.15 12:00",
    "o": 0.82287,
    "h": 0.8241,
    "l": 0.82266,
    "c": 0.82387,
    "v": 2432
  },
  {
    "dt": "2023.06.15 13:00",
    "o": 0.82383,
    "h": 0.82385,
    "l": 0.82241,
    "c": 0.8235,
    "v": 1820
  },
  {
    "dt": "2023.06.15 14:00",
    "o": 0.82348,
    "h": 0.82362,
    "l": 0.82107,
    "c": 0.82114,
    "v": 1679
  },
  {
    "dt": "2023.06.15 15:00",
    "o": 0.82114,
    "h": 0.82319,
    "l": 0.82044,
    "c": 0.82241,
    "v": 3783
  },
  {
    "dt": "2023.06.15 16:00",
    "o": 0.82251,
    "h": 0.82536,
    "l": 0.8223,
    "c": 0.82462,
    "v": 3796
  },
  {
    "dt": "2023.06.15 17:00",
    "o": 0.82459,
    "h": 0.82523,
    "l": 0.82285,
    "c": 0.82304,
    "v": 3748
  },
  {
    "dt": "2023.06.15 18:00",
    "o": 0.82302,
    "h": 0.82421,
    "l": 0.82252,
    "c": 0.82416,
    "v": 2641
  },
  {
    "dt": "2023.06.15 19:00",
    "o": 0.82413,
    "h": 0.82464,
    "l": 0.82398,
    "c": 0.82437,
    "v": 2031
  },
  {
    "dt": "2023.06.15 20:00",
    "o": 0.82436,
    "h": 0.82455,
    "l": 0.82368,
    "c": 0.8241,
    "v": 2026
  },
  {
    "dt": "2023.06.15 21:00",
    "o": 0.82405,
    "h": 0.82452,
    "l": 0.82384,
    "c": 0.82449,
    "v": 2079
  },
  {
    "dt": "2023.06.15 22:00",
    "o": 0.82445,
    "h": 0.82463,
    "l": 0.82404,
    "c": 0.82459,
    "v": 2046
  },
  {
    "dt": "2023.06.15 23:00",
    "o": 0.82456,
    "h": 0.8246,
    "l": 0.82396,
    "c": 0.82414,
    "v": 1146
  },
  {
    "dt": "2023.06.16 00:00",
    "o": 0.82418,
    "h": 0.82452,
    "l": 0.82372,
    "c": 0.82418,
    "v": 497
  },
  {
    "dt": "2023.06.16 01:00",
    "o": 0.82407,
    "h": 0.82423,
    "l": 0.82343,
    "c": 0.82375,
    "v": 960
  },
  {
    "dt": "2023.06.16 02:00",
    "o": 0.82374,
    "h": 0.82473,
    "l": 0.82365,
    "c": 0.82426,
    "v": 891
  },
  {
    "dt": "2023.06.16 03:00",
    "o": 0.82425,
    "h": 0.82524,
    "l": 0.82425,
    "c": 0.82522,
    "v": 1476
  },
  {
    "dt": "2023.06.16 04:00",
    "o": 0.82522,
    "h": 0.8259,
    "l": 0.82474,
    "c": 0.82534,
    "v": 2087
  },
  {
    "dt": "2023.06.16 05:00",
    "o": 0.82534,
    "h": 0.82547,
    "l": 0.82426,
    "c": 0.82429,
    "v": 2154
  },
  {
    "dt": "2023.06.16 06:00",
    "o": 0.82429,
    "h": 0.82471,
    "l": 0.82406,
    "c": 0.82422,
    "v": 1635
  },
  {
    "dt": "2023.06.16 07:00",
    "o": 0.82421,
    "h": 0.82451,
    "l": 0.82384,
    "c": 0.82449,
    "v": 1369
  },
  {
    "dt": "2023.06.16 08:00",
    "o": 0.82444,
    "h": 0.82551,
    "l": 0.8244,
    "c": 0.82502,
    "v": 1939
  },
  {
    "dt": "2023.06.16 09:00",
    "o": 0.82504,
    "h": 0.82541,
    "l": 0.82443,
    "c": 0.82443,
    "v": 2738
  },
  {
    "dt": "2023.06.16 10:00",
    "o": 0.82444,
    "h": 0.82468,
    "l": 0.82353,
    "c": 0.82417,
    "v": 2876
  },
  {
    "dt": "2023.06.16 11:00",
    "o": 0.82413,
    "h": 0.82466,
    "l": 0.82347,
    "c": 0.82462,
    "v": 2788
  },
  {
    "dt": "2023.06.16 12:00",
    "o": 0.82461,
    "h": 0.82481,
    "l": 0.82367,
    "c": 0.82385,
    "v": 2326
  },
  {
    "dt": "2023.06.16 13:00",
    "o": 0.82387,
    "h": 0.82391,
    "l": 0.82338,
    "c": 0.82368,
    "v": 1693
  },
  {
    "dt": "2023.06.16 14:00",
    "o": 0.82367,
    "h": 0.82421,
    "l": 0.8232,
    "c": 0.82396,
    "v": 1966
  },
  {
    "dt": "2023.06.16 15:00",
    "o": 0.82397,
    "h": 0.82434,
    "l": 0.82265,
    "c": 0.82286,
    "v": 3105
  },
  {
    "dt": "2023.06.16 16:00",
    "o": 0.82286,
    "h": 0.82295,
    "l": 0.82056,
    "c": 0.82279,
    "v": 3811
  },
  {
    "dt": "2023.06.16 17:00",
    "o": 0.8226,
    "h": 0.82308,
    "l": 0.82003,
    "c": 0.82109,
    "v": 4521
  },
  {
    "dt": "2023.06.16 18:00",
    "o": 0.82108,
    "h": 0.8221,
    "l": 0.82034,
    "c": 0.82085,
    "v": 3216
  },
  {
    "dt": "2023.06.16 19:00",
    "o": 0.82084,
    "h": 0.82115,
    "l": 0.82038,
    "c": 0.82088,
    "v": 2313
  },
  {
    "dt": "2023.06.16 20:00",
    "o": 0.82087,
    "h": 0.82106,
    "l": 0.82043,
    "c": 0.82087,
    "v": 1944
  },
  {
    "dt": "2023.06.16 21:00",
    "o": 0.82088,
    "h": 0.82157,
    "l": 0.82061,
    "c": 0.82139,
    "v": 2472
  },
  {
    "dt": "2023.06.16 22:00",
    "o": 0.82139,
    "h": 0.82253,
    "l": 0.82105,
    "c": 0.82244,
    "v": 2027
  },
  {
    "dt": "2023.06.16 23:00",
    "o": 0.82246,
    "h": 0.82361,
    "l": 0.82212,
    "c": 0.82271,
    "v": 1317
  },
  {
    "dt": "2023.06.19 00:00",
    "o": 0.8216,
    "h": 0.8223,
    "l": 0.821,
    "c": 0.82208,
    "v": 188
  },
  {
    "dt": "2023.06.19 01:00",
    "o": 0.82159,
    "h": 0.82244,
    "l": 0.82139,
    "c": 0.82225,
    "v": 1076
  },
  {
    "dt": "2023.06.19 02:00",
    "o": 0.82228,
    "h": 0.8226,
    "l": 0.82202,
    "c": 0.82218,
    "v": 942
  },
  {
    "dt": "2023.06.19 03:00",
    "o": 0.82218,
    "h": 0.82263,
    "l": 0.82097,
    "c": 0.82103,
    "v": 1723
  },
  {
    "dt": "2023.06.19 04:00",
    "o": 0.82104,
    "h": 0.82164,
    "l": 0.82093,
    "c": 0.82164,
    "v": 2206
  },
  {
    "dt": "2023.06.19 05:00",
    "o": 0.82163,
    "h": 0.82237,
    "l": 0.82137,
    "c": 0.82225,
    "v": 1680
  },
  {
    "dt": "2023.06.19 06:00",
    "o": 0.82223,
    "h": 0.82239,
    "l": 0.82083,
    "c": 0.82097,
    "v": 1818
  },
  {
    "dt": "2023.06.19 07:00",
    "o": 0.82096,
    "h": 0.82155,
    "l": 0.82065,
    "c": 0.82096,
    "v": 1883
  },
  {
    "dt": "2023.06.19 08:00",
    "o": 0.82095,
    "h": 0.82183,
    "l": 0.82077,
    "c": 0.82108,
    "v": 1976
  },
  {
    "dt": "2023.06.19 09:00",
    "o": 0.82105,
    "h": 0.82179,
    "l": 0.82063,
    "c": 0.8214,
    "v": 2081
  },
  {
    "dt": "2023.06.19 10:00",
    "o": 0.82143,
    "h": 0.82154,
    "l": 0.82029,
    "c": 0.82133,
    "v": 2611
  },
  {
    "dt": "2023.06.19 11:00",
    "o": 0.82129,
    "h": 0.82164,
    "l": 0.82081,
    "c": 0.82152,
    "v": 2500
  },
  {
    "dt": "2023.06.19 12:00",
    "o": 0.8215,
    "h": 0.82166,
    "l": 0.81993,
    "c": 0.82,
    "v": 2400
  },
  {
    "dt": "2023.06.19 13:00",
    "o": 0.81999,
    "h": 0.82006,
    "l": 0.81798,
    "c": 0.81837,
    "v": 2324
  },
  {
    "dt": "2023.06.19 14:00",
    "o": 0.81835,
    "h": 0.8185,
    "l": 0.81727,
    "c": 0.81732,
    "v": 1925
  },
  {
    "dt": "2023.06.19 15:00",
    "o": 0.81728,
    "h": 0.81834,
    "l": 0.81711,
    "c": 0.81809,
    "v": 2007
  },
  {
    "dt": "2023.06.19 16:00",
    "o": 0.81811,
    "h": 0.8183,
    "l": 0.81747,
    "c": 0.81815,
    "v": 2218
  },
  {
    "dt": "2023.06.19 17:00",
    "o": 0.81816,
    "h": 0.81911,
    "l": 0.81769,
    "c": 0.81884,
    "v": 2621
  },
  {
    "dt": "2023.06.19 18:00",
    "o": 0.81885,
    "h": 0.81952,
    "l": 0.81858,
    "c": 0.81913,
    "v": 1601
  },
  {
    "dt": "2023.06.19 19:00",
    "o": 0.81912,
    "h": 0.81951,
    "l": 0.81875,
    "c": 0.81924,
    "v": 1118
  },
  {
    "dt": "2023.06.19 20:00",
    "o": 0.81924,
    "h": 0.81952,
    "l": 0.81911,
    "c": 0.81926,
    "v": 802
  },
  {
    "dt": "2023.06.19 21:00",
    "o": 0.81924,
    "h": 0.8193,
    "l": 0.81903,
    "c": 0.81905,
    "v": 1894
  },
  {
    "dt": "2023.06.19 22:00",
    "o": 0.81905,
    "h": 0.81914,
    "l": 0.81872,
    "c": 0.81877,
    "v": 1510
  },
  {
    "dt": "2023.06.19 23:00",
    "o": 0.81877,
    "h": 0.81907,
    "l": 0.81839,
    "c": 0.81886,
    "v": 766
  },
  {
    "dt": "2023.06.20 00:00",
    "o": 0.8197,
    "h": 0.8197,
    "l": 0.81819,
    "c": 0.81853,
    "v": 168
  },
  {
    "dt": "2023.06.20 01:00",
    "o": 0.81853,
    "h": 0.81937,
    "l": 0.81853,
    "c": 0.81895,
    "v": 1145
  },
  {
    "dt": "2023.06.20 02:00",
    "o": 0.81895,
    "h": 0.81914,
    "l": 0.81878,
    "c": 0.81904,
    "v": 809
  },
  {
    "dt": "2023.06.20 03:00",
    "o": 0.81904,
    "h": 0.81945,
    "l": 0.81863,
    "c": 0.81905,
    "v": 1801
  },
  {
    "dt": "2023.06.20 04:00",
    "o": 0.81902,
    "h": 0.8194,
    "l": 0.81781,
    "c": 0.81792,
    "v": 2525
  },
  {
    "dt": "2023.06.20 05:00",
    "o": 0.81791,
    "h": 0.81856,
    "l": 0.81723,
    "c": 0.81769,
    "v": 2600
  },
  {
    "dt": "2023.06.20 06:00",
    "o": 0.81763,
    "h": 0.81809,
    "l": 0.81693,
    "c": 0.81706,
    "v": 1761
  },
  {
    "dt": "2023.06.20 07:00",
    "o": 0.81704,
    "h": 0.81717,
    "l": 0.81631,
    "c": 0.81657,
    "v": 1603
  },
  {
    "dt": "2023.06.20 08:00",
    "o": 0.81657,
    "h": 0.81674,
    "l": 0.81529,
    "c": 0.81641,
    "v": 2413
  },
  {
    "dt": "2023.06.20 09:00",
    "o": 0.81641,
    "h": 0.81788,
    "l": 0.81607,
    "c": 0.81685,
    "v": 2781
  },
  {
    "dt": "2023.06.20 10:00",
    "o": 0.81684,
    "h": 0.81872,
    "l": 0.81673,
    "c": 0.81844,
    "v": 3483
  },
  {
    "dt": "2023.06.20 11:00",
    "o": 0.81843,
    "h": 0.81863,
    "l": 0.81762,
    "c": 0.81773,
    "v": 3067
  },
  {
    "dt": "2023.06.20 12:00",
    "o": 0.81774,
    "h": 0.818,
    "l": 0.81675,
    "c": 0.81701,
    "v": 2954
  },
  {
    "dt": "2023.06.20 13:00",
    "o": 0.81699,
    "h": 0.81721,
    "l": 0.81624,
    "c": 0.8165,
    "v": 2434
  },
  {
    "dt": "2023.06.20 14:00",
    "o": 0.8165,
    "h": 0.81717,
    "l": 0.81641,
    "c": 0.81682,
    "v": 2491
  },
  {
    "dt": "2023.06.20 15:00",
    "o": 0.8168,
    "h": 0.81725,
    "l": 0.81442,
    "c": 0.81501,
    "v": 3478
  },
  {
    "dt": "2023.06.20 16:00",
    "o": 0.815,
    "h": 0.81517,
    "l": 0.81402,
    "c": 0.81485,
    "v": 3900
  },
  {
    "dt": "2023.06.20 17:00",
    "o": 0.81485,
    "h": 0.81532,
    "l": 0.8137,
    "c": 0.8147,
    "v": 4355
  },
  {
    "dt": "2023.06.20 18:00",
    "o": 0.81469,
    "h": 0.81585,
    "l": 0.81442,
    "c": 0.81444,
    "v": 3123
  },
  {
    "dt": "2023.06.20 19:00",
    "o": 0.81447,
    "h": 0.81553,
    "l": 0.81426,
    "c": 0.81517,
    "v": 2822
  },
  {
    "dt": "2023.06.20 20:00",
    "o": 0.81514,
    "h": 0.81535,
    "l": 0.81472,
    "c": 0.81495,
    "v": 2889
  },
  {
    "dt": "2023.06.20 21:00",
    "o": 0.81494,
    "h": 0.8157,
    "l": 0.81463,
    "c": 0.81503,
    "v": 2893
  },
  {
    "dt": "2023.06.20 22:00",
    "o": 0.81496,
    "h": 0.81585,
    "l": 0.81486,
    "c": 0.81577,
    "v": 2192
  },
  {
    "dt": "2023.06.20 23:00",
    "o": 0.81576,
    "h": 0.81622,
    "l": 0.8153,
    "c": 0.81605,
    "v": 1145
  },
  {
    "dt": "2023.06.21 00:00",
    "o": 0.81475,
    "h": 0.81645,
    "l": 0.81475,
    "c": 0.81596,
    "v": 326
  },
  {
    "dt": "2023.06.21 01:00",
    "o": 0.81582,
    "h": 0.81613,
    "l": 0.8155,
    "c": 0.81563,
    "v": 568
  },
  {
    "dt": "2023.06.21 02:00",
    "o": 0.81563,
    "h": 0.81574,
    "l": 0.81518,
    "c": 0.81538,
    "v": 622
  },
  {
    "dt": "2023.06.21 03:00",
    "o": 0.81541,
    "h": 0.81559,
    "l": 0.81511,
    "c": 0.81539,
    "v": 1758
  },
  {
    "dt": "2023.06.21 04:00",
    "o": 0.8154,
    "h": 0.81628,
    "l": 0.81536,
    "c": 0.81554,
    "v": 2493
  },
  {
    "dt": "2023.06.21 05:00",
    "o": 0.81555,
    "h": 0.81583,
    "l": 0.815,
    "c": 0.81536,
    "v": 2394
  },
  {
    "dt": "2023.06.21 06:00",
    "o": 0.81535,
    "h": 0.81562,
    "l": 0.8151,
    "c": 0.8156,
    "v": 2236
  },
  {
    "dt": "2023.06.21 07:00",
    "o": 0.8156,
    "h": 0.81707,
    "l": 0.81558,
    "c": 0.81684,
    "v": 1833
  },
  {
    "dt": "2023.06.21 08:00",
    "o": 0.81685,
    "h": 0.81731,
    "l": 0.81613,
    "c": 0.81726,
    "v": 2346
  },
  {
    "dt": "2023.06.21 09:00",
    "o": 0.81739,
    "h": 0.81746,
    "l": 0.81569,
    "c": 0.81576,
    "v": 3303
  },
  {
    "dt": "2023.06.21 10:00",
    "o": 0.81579,
    "h": 0.81687,
    "l": 0.8153,
    "c": 0.81567,
    "v": 3156
  },
  {
    "dt": "2023.06.21 11:00",
    "o": 0.81566,
    "h": 0.81633,
    "l": 0.8152,
    "c": 0.81525,
    "v": 2961
  },
  {
    "dt": "2023.06.21 12:00",
    "o": 0.81524,
    "h": 0.81622,
    "l": 0.81474,
    "c": 0.81546,
    "v": 2865
  },
  {
    "dt": "2023.06.21 13:00",
    "o": 0.81543,
    "h": 0.81643,
    "l": 0.81537,
    "c": 0.81581,
    "v": 2723
  },
  {
    "dt": "2023.06.21 14:00",
    "o": 0.81583,
    "h": 0.81618,
    "l": 0.81554,
    "c": 0.81556,
    "v": 2728
  },
  {
    "dt": "2023.06.21 15:00",
    "o": 0.81555,
    "h": 0.81565,
    "l": 0.8141,
    "c": 0.81512,
    "v": 3765
  },
  {
    "dt": "2023.06.21 16:00",
    "o": 0.81513,
    "h": 0.8154,
    "l": 0.81354,
    "c": 0.81525,
    "v": 4043
  },
  {
    "dt": "2023.06.21 17:00",
    "o": 0.81523,
    "h": 0.8165,
    "l": 0.81457,
    "c": 0.81538,
    "v": 4463
  },
  {
    "dt": "2023.06.21 18:00",
    "o": 0.81537,
    "h": 0.81606,
    "l": 0.81484,
    "c": 0.81537,
    "v": 3579
  },
  {
    "dt": "2023.06.21 19:00",
    "o": 0.81535,
    "h": 0.81694,
    "l": 0.81525,
    "c": 0.81648,
    "v": 2941
  },
  {
    "dt": "2023.06.21 20:00",
    "o": 0.81642,
    "h": 0.81698,
    "l": 0.8161,
    "c": 0.81683,
    "v": 2786
  },
  {
    "dt": "2023.06.21 21:00",
    "o": 0.81683,
    "h": 0.81806,
    "l": 0.81681,
    "c": 0.81696,
    "v": 2611
  },
  {
    "dt": "2023.06.21 22:00",
    "o": 0.81714,
    "h": 0.81722,
    "l": 0.81645,
    "c": 0.81715,
    "v": 2179
  },
  {
    "dt": "2023.06.21 23:00",
    "o": 0.81718,
    "h": 0.8173,
    "l": 0.8163,
    "c": 0.81635,
    "v": 1217
  },
  {
    "dt": "2023.06.22 00:00",
    "o": 0.81653,
    "h": 0.81672,
    "l": 0.81588,
    "c": 0.81634,
    "v": 391
  },
  {
    "dt": "2023.06.22 01:00",
    "o": 0.81629,
    "h": 0.81681,
    "l": 0.8162,
    "c": 0.81648,
    "v": 822
  },
  {
    "dt": "2023.06.22 02:00",
    "o": 0.8165,
    "h": 0.81705,
    "l": 0.81648,
    "c": 0.81662,
    "v": 611
  },
  {
    "dt": "2023.06.22 03:00",
    "o": 0.81661,
    "h": 0.8173,
    "l": 0.81635,
    "c": 0.81658,
    "v": 1709
  },
  {
    "dt": "2023.06.22 04:00",
    "o": 0.81659,
    "h": 0.81786,
    "l": 0.81648,
    "c": 0.81758,
    "v": 1761
  },
  {
    "dt": "2023.06.22 05:00",
    "o": 0.8176,
    "h": 0.81763,
    "l": 0.81654,
    "c": 0.8167,
    "v": 1612
  },
  {
    "dt": "2023.06.22 06:00",
    "o": 0.81673,
    "h": 0.81745,
    "l": 0.81602,
    "c": 0.81623,
    "v": 1245
  },
  {
    "dt": "2023.06.22 07:00",
    "o": 0.81624,
    "h": 0.81642,
    "l": 0.81476,
    "c": 0.81478,
    "v": 1766
  },
  {
    "dt": "2023.06.22 08:00",
    "o": 0.81477,
    "h": 0.81504,
    "l": 0.81441,
    "c": 0.81472,
    "v": 1961
  },
  {
    "dt": "2023.06.22 09:00",
    "o": 0.81474,
    "h": 0.8149,
    "l": 0.81426,
    "c": 0.8147,
    "v": 2781
  },
  {
    "dt": "2023.06.22 10:00",
    "o": 0.81469,
    "h": 0.81649,
    "l": 0.81431,
    "c": 0.81608,
    "v": 3193
  },
  {
    "dt": "2023.06.22 11:00",
    "o": 0.816,
    "h": 0.81696,
    "l": 0.81577,
    "c": 0.81589,
    "v": 3032
  },
  {
    "dt": "2023.06.22 12:00",
    "o": 0.8159,
    "h": 0.8173,
    "l": 0.81589,
    "c": 0.8171,
    "v": 2566
  },
  {
    "dt": "2023.06.22 13:00",
    "o": 0.81704,
    "h": 0.8181,
    "l": 0.81698,
    "c": 0.81763,
    "v": 2357
  },
  {
    "dt": "2023.06.22 14:00",
    "o": 0.81766,
    "h": 0.81838,
    "l": 0.81705,
    "c": 0.81742,
    "v": 3414
  },
  {
    "dt": "2023.06.22 15:00",
    "o": 0.81742,
    "h": 0.81766,
    "l": 0.81568,
    "c": 0.81596,
    "v": 3561
  },
  {
    "dt": "2023.06.22 16:00",
    "o": 0.81597,
    "h": 0.81624,
    "l": 0.81439,
    "c": 0.81599,
    "v": 3918
  },
  {
    "dt": "2023.06.22 17:00",
    "o": 0.81591,
    "h": 0.81677,
    "l": 0.81466,
    "c": 0.81563,
    "v": 4088
  },
  {
    "dt": "2023.06.22 18:00",
    "o": 0.81558,
    "h": 0.81567,
    "l": 0.81376,
    "c": 0.81412,
    "v": 3412
  },
  {
    "dt": "2023.06.22 19:00",
    "o": 0.81412,
    "h": 0.81435,
    "l": 0.81298,
    "c": 0.81301,
    "v": 2836
  },
  {
    "dt": "2023.06.22 20:00",
    "o": 0.81304,
    "h": 0.81316,
    "l": 0.81202,
    "c": 0.8123,
    "v": 2959
  },
  {
    "dt": "2023.06.22 21:00",
    "o": 0.81228,
    "h": 0.81263,
    "l": 0.81174,
    "c": 0.81174,
    "v": 2646
  },
  {
    "dt": "2023.06.22 22:00",
    "o": 0.81175,
    "h": 0.81245,
    "l": 0.81175,
    "c": 0.81217,
    "v": 2425
  },
  {
    "dt": "2023.06.22 23:00",
    "o": 0.81216,
    "h": 0.81247,
    "l": 0.81175,
    "c": 0.81215,
    "v": 1496
  },
  {
    "dt": "2023.06.23 00:00",
    "o": 0.81165,
    "h": 0.81235,
    "l": 0.81128,
    "c": 0.81214,
    "v": 247
  },
  {
    "dt": "2023.06.23 01:00",
    "o": 0.81208,
    "h": 0.81271,
    "l": 0.81196,
    "c": 0.81229,
    "v": 789
  },
  {
    "dt": "2023.06.23 02:00",
    "o": 0.81229,
    "h": 0.81284,
    "l": 0.81229,
    "c": 0.81252,
    "v": 815
  },
  {
    "dt": "2023.06.23 03:00",
    "o": 0.81252,
    "h": 0.81359,
    "l": 0.81248,
    "c": 0.81335,
    "v": 2226
  },
  {
    "dt": "2023.06.23 04:00",
    "o": 0.81334,
    "h": 0.81341,
    "l": 0.81158,
    "c": 0.81185,
    "v": 2396
  },
  {
    "dt": "2023.06.23 05:00",
    "o": 0.81182,
    "h": 0.81182,
    "l": 0.81054,
    "c": 0.81075,
    "v": 2304
  },
  {
    "dt": "2023.06.23 06:00",
    "o": 0.81075,
    "h": 0.81081,
    "l": 0.81006,
    "c": 0.81055,
    "v": 1993
  },
  {
    "dt": "2023.06.23 07:00",
    "o": 0.81056,
    "h": 0.81077,
    "l": 0.80973,
    "c": 0.81014,
    "v": 1955
  },
  {
    "dt": "2023.06.23 08:00",
    "o": 0.81013,
    "h": 0.81055,
    "l": 0.80913,
    "c": 0.80933,
    "v": 2392
  },
  {
    "dt": "2023.06.23 09:00",
    "o": 0.80932,
    "h": 0.81036,
    "l": 0.80932,
    "c": 0.81018,
    "v": 2462
  },
  {
    "dt": "2023.06.23 10:00",
    "o": 0.81016,
    "h": 0.81098,
    "l": 0.80968,
    "c": 0.81001,
    "v": 3595
  },
  {
    "dt": "2023.06.23 11:00",
    "o": 0.81,
    "h": 0.81029,
    "l": 0.80926,
    "c": 0.8094,
    "v": 3149
  },
  {
    "dt": "2023.06.23 12:00",
    "o": 0.80939,
    "h": 0.80997,
    "l": 0.80921,
    "c": 0.80974,
    "v": 2336
  },
  {
    "dt": "2023.06.23 13:00",
    "o": 0.80975,
    "h": 0.81014,
    "l": 0.80928,
    "c": 0.80975,
    "v": 2160
  },
  {
    "dt": "2023.06.23 14:00",
    "o": 0.80973,
    "h": 0.81033,
    "l": 0.80898,
    "c": 0.80905,
    "v": 2210
  },
  {
    "dt": "2023.06.23 15:00",
    "o": 0.80906,
    "h": 0.81047,
    "l": 0.80882,
    "c": 0.80991,
    "v": 3161
  },
  {
    "dt": "2023.06.23 16:00",
    "o": 0.80992,
    "h": 0.81061,
    "l": 0.80888,
    "c": 0.80965,
    "v": 3893
  },
  {
    "dt": "2023.06.23 17:00",
    "o": 0.80959,
    "h": 0.81065,
    "l": 0.80798,
    "c": 0.80885,
    "v": 4318
  },
  {
    "dt": "2023.06.23 18:00",
    "o": 0.80888,
    "h": 0.81148,
    "l": 0.80877,
    "c": 0.81109,
    "v": 3603
  },
  {
    "dt": "2023.06.23 19:00",
    "o": 0.81106,
    "h": 0.81106,
    "l": 0.81024,
    "c": 0.81035,
    "v": 3080
  },
  {
    "dt": "2023.06.23 20:00",
    "o": 0.81035,
    "h": 0.81061,
    "l": 0.80949,
    "c": 0.8095,
    "v": 2896
  },
  {
    "dt": "2023.06.23 21:00",
    "o": 0.80953,
    "h": 0.81045,
    "l": 0.80913,
    "c": 0.80974,
    "v": 2823
  },
  {
    "dt": "2023.06.23 22:00",
    "o": 0.80978,
    "h": 0.81059,
    "l": 0.80943,
    "c": 0.81051,
    "v": 2160
  },
  {
    "dt": "2023.06.23 23:00",
    "o": 0.8105,
    "h": 0.81056,
    "l": 0.80927,
    "c": 0.8095,
    "v": 1194
  },
  {
    "dt": "2023.06.26 00:00",
    "o": 0.80918,
    "h": 0.8092,
    "l": 0.80839,
    "c": 0.80883,
    "v": 166
  },
  {
    "dt": "2023.06.26 01:00",
    "o": 0.80884,
    "h": 0.81025,
    "l": 0.80867,
    "c": 0.80938,
    "v": 1079
  },
  {
    "dt": "2023.06.26 02:00",
    "o": 0.80938,
    "h": 0.80991,
    "l": 0.8092,
    "c": 0.80926,
    "v": 1027
  },
  {
    "dt": "2023.06.26 03:00",
    "o": 0.80926,
    "h": 0.81069,
    "l": 0.80925,
    "c": 0.81066,
    "v": 2029
  },
  {
    "dt": "2023.06.26 04:00",
    "o": 0.8107,
    "h": 0.81189,
    "l": 0.81037,
    "c": 0.81117,
    "v": 2695
  },
  {
    "dt": "2023.06.26 05:00",
    "o": 0.81116,
    "h": 0.81214,
    "l": 0.81113,
    "c": 0.8114,
    "v": 2171
  },
  {
    "dt": "2023.06.26 06:00",
    "o": 0.8114,
    "h": 0.81222,
    "l": 0.81119,
    "c": 0.81203,
    "v": 1473
  },
  {
    "dt": "2023.06.26 07:00",
    "o": 0.81201,
    "h": 0.81207,
    "l": 0.81162,
    "c": 0.81185,
    "v": 1533
  },
  {
    "dt": "2023.06.26 08:00",
    "o": 0.81185,
    "h": 0.81189,
    "l": 0.81045,
    "c": 0.81052,
    "v": 2132
  },
  {
    "dt": "2023.06.26 09:00",
    "o": 0.81053,
    "h": 0.81086,
    "l": 0.80782,
    "c": 0.8087,
    "v": 2845
  },
  {
    "dt": "2023.06.26 10:00",
    "o": 0.80872,
    "h": 0.81021,
    "l": 0.80815,
    "c": 0.80956,
    "v": 3492
  },
  {
    "dt": "2023.06.26 11:00",
    "o": 0.80954,
    "h": 0.8115,
    "l": 0.80952,
    "c": 0.81133,
    "v": 3610
  },
  {
    "dt": "2023.06.26 12:00",
    "o": 0.81132,
    "h": 0.8121,
    "l": 0.8107,
    "c": 0.8107,
    "v": 2771
  },
  {
    "dt": "2023.06.26 13:00",
    "o": 0.81071,
    "h": 0.81202,
    "l": 0.81046,
    "c": 0.81196,
    "v": 2588
  },
  {
    "dt": "2023.06.26 14:00",
    "o": 0.81196,
    "h": 0.81217,
    "l": 0.8116,
    "c": 0.81185,
    "v": 2660
  },
  {
    "dt": "2023.06.26 15:00",
    "o": 0.81179,
    "h": 0.81238,
    "l": 0.81075,
    "c": 0.81163,
    "v": 2919
  },
  {
    "dt": "2023.06.26 16:00",
    "o": 0.81158,
    "h": 0.81167,
    "l": 0.81029,
    "c": 0.8108,
    "v": 3540
  },
  {
    "dt": "2023.06.26 17:00",
    "o": 0.81081,
    "h": 0.81227,
    "l": 0.81035,
    "c": 0.81045,
    "v": 3799
  },
  {
    "dt": "2023.06.26 18:00",
    "o": 0.81045,
    "h": 0.8115,
    "l": 0.81025,
    "c": 0.81081,
    "v": 3243
  },
  {
    "dt": "2023.06.26 19:00",
    "o": 0.81081,
    "h": 0.81127,
    "l": 0.81046,
    "c": 0.81112,
    "v": 2905
  },
  {
    "dt": "2023.06.26 20:00",
    "o": 0.81112,
    "h": 0.81135,
    "l": 0.81078,
    "c": 0.81089,
    "v": 2825
  },
  {
    "dt": "2023.06.26 21:00",
    "o": 0.8109,
    "h": 0.81143,
    "l": 0.81082,
    "c": 0.8113,
    "v": 2715
  },
  {
    "dt": "2023.06.26 22:00",
    "o": 0.81138,
    "h": 0.81173,
    "l": 0.81053,
    "c": 0.81068,
    "v": 2663
  },
  {
    "dt": "2023.06.26 23:00",
    "o": 0.81066,
    "h": 0.81099,
    "l": 0.81054,
    "c": 0.8106,
    "v": 905
  },
  {
    "dt": "2023.06.27 00:00",
    "o": 0.81005,
    "h": 0.81058,
    "l": 0.8091,
    "c": 0.81012,
    "v": 577
  },
  {
    "dt": "2023.06.27 01:00",
    "o": 0.81014,
    "h": 0.81079,
    "l": 0.81006,
    "c": 0.81065,
    "v": 1604
  },
  {
    "dt": "2023.06.27 02:00",
    "o": 0.81064,
    "h": 0.81064,
    "l": 0.81003,
    "c": 0.81039,
    "v": 906
  },
  {
    "dt": "2023.06.27 03:00",
    "o": 0.81038,
    "h": 0.8104,
    "l": 0.80971,
    "c": 0.80981,
    "v": 1610
  },
  {
    "dt": "2023.06.27 04:00",
    "o": 0.80982,
    "h": 0.81127,
    "l": 0.8096,
    "c": 0.81071,
    "v": 3041
  },
  {
    "dt": "2023.06.27 05:00",
    "o": 0.81071,
    "h": 0.81218,
    "l": 0.81045,
    "c": 0.81176,
    "v": 2306
  },
  {
    "dt": "2023.06.27 06:00",
    "o": 0.81176,
    "h": 0.81205,
    "l": 0.8105,
    "c": 0.81079,
    "v": 2458
  },
  {
    "dt": "2023.06.27 07:00",
    "o": 0.81077,
    "h": 0.81247,
    "l": 0.81071,
    "c": 0.81219,
    "v": 1416
  },
  {
    "dt": "2023.06.27 08:00",
    "o": 0.81219,
    "h": 0.81266,
    "l": 0.81181,
    "c": 0.81189,
    "v": 1887
  },
  {
    "dt": "2023.06.27 09:00",
    "o": 0.81191,
    "h": 0.81279,
    "l": 0.81158,
    "c": 0.81269,
    "v": 2668
  },
  {
    "dt": "2023.06.27 10:00",
    "o": 0.81268,
    "h": 0.81318,
    "l": 0.81211,
    "c": 0.81241,
    "v": 3527
  },
  {
    "dt": "2023.06.27 11:00",
    "o": 0.81243,
    "h": 0.81253,
    "l": 0.81073,
    "c": 0.81128,
    "v": 3274
  },
  {
    "dt": "2023.06.27 12:00",
    "o": 0.81131,
    "h": 0.81198,
    "l": 0.81062,
    "c": 0.81135,
    "v": 2955
  },
  {
    "dt": "2023.06.27 13:00",
    "o": 0.81134,
    "h": 0.81174,
    "l": 0.81032,
    "c": 0.81174,
    "v": 2797
  },
  {
    "dt": "2023.06.27 14:00",
    "o": 0.81172,
    "h": 0.81223,
    "l": 0.8114,
    "c": 0.81181,
    "v": 3127
  },
  {
    "dt": "2023.06.27 15:00",
    "o": 0.81182,
    "h": 0.81418,
    "l": 0.81162,
    "c": 0.81351,
    "v": 3986
  },
  {
    "dt": "2023.06.27 16:00",
    "o": 0.81356,
    "h": 0.81564,
    "l": 0.81332,
    "c": 0.81512,
    "v": 3949
  },
  {
    "dt": "2023.06.27 17:00",
    "o": 0.81521,
    "h": 0.81521,
    "l": 0.81223,
    "c": 0.81343,
    "v": 4822
  },
  {
    "dt": "2023.06.27 18:00",
    "o": 0.81342,
    "h": 0.81356,
    "l": 0.81178,
    "c": 0.81227,
    "v": 3921
  },
  {
    "dt": "2023.06.27 19:00",
    "o": 0.81226,
    "h": 0.81346,
    "l": 0.81219,
    "c": 0.81337,
    "v": 2922
  },
  {
    "dt": "2023.06.27 20:00",
    "o": 0.81337,
    "h": 0.81357,
    "l": 0.81297,
    "c": 0.81329,
    "v": 3135
  },
  {
    "dt": "2023.06.27 21:00",
    "o": 0.81331,
    "h": 0.81348,
    "l": 0.81236,
    "c": 0.81263,
    "v": 2686
  },
  {
    "dt": "2023.06.27 22:00",
    "o": 0.81263,
    "h": 0.81332,
    "l": 0.8125,
    "c": 0.81298,
    "v": 2479
  },
  {
    "dt": "2023.06.27 23:00",
    "o": 0.81297,
    "h": 0.81319,
    "l": 0.81256,
    "c": 0.81275,
    "v": 1127
  },
  {
    "dt": "2023.06.28 00:00",
    "o": 0.81262,
    "h": 0.81317,
    "l": 0.81231,
    "c": 0.81302,
    "v": 285
  },
  {
    "dt": "2023.06.28 01:00",
    "o": 0.81302,
    "h": 0.81325,
    "l": 0.81245,
    "c": 0.81245,
    "v": 571
  },
  {
    "dt": "2023.06.28 02:00",
    "o": 0.8125,
    "h": 0.81272,
    "l": 0.8123,
    "c": 0.81242,
    "v": 706
  },
  {
    "dt": "2023.06.28 03:00",
    "o": 0.8124,
    "h": 0.81241,
    "l": 0.81158,
    "c": 0.81193,
    "v": 2125
  },
  {
    "dt": "2023.06.28 04:00",
    "o": 0.81191,
    "h": 0.8121,
    "l": 0.80881,
    "c": 0.80915,
    "v": 3298
  },
  {
    "dt": "2023.06.28 05:00",
    "o": 0.80913,
    "h": 0.80944,
    "l": 0.80812,
    "c": 0.80821,
    "v": 1924
  },
  {
    "dt": "2023.06.28 06:00",
    "o": 0.80821,
    "h": 0.8085,
    "l": 0.80783,
    "c": 0.80832,
    "v": 1964
  },
  {
    "dt": "2023.06.28 07:00",
    "o": 0.80833,
    "h": 0.80878,
    "l": 0.80778,
    "c": 0.80832,
    "v": 1792
  },
  {
    "dt": "2023.06.28 08:00",
    "o": 0.80832,
    "h": 0.8086,
    "l": 0.80695,
    "c": 0.80723,
    "v": 1787
  },
  {
    "dt": "2023.06.28 09:00",
    "o": 0.80723,
    "h": 0.80785,
    "l": 0.80626,
    "c": 0.80653,
    "v": 2553
  },
  {
    "dt": "2023.06.28 10:00",
    "o": 0.80654,
    "h": 0.8067,
    "l": 0.80563,
    "c": 0.80614,
    "v": 3254
  },
  {
    "dt": "2023.06.28 11:00",
    "o": 0.80611,
    "h": 0.80654,
    "l": 0.80455,
    "c": 0.80513,
    "v": 3223
  },
  {
    "dt": "2023.06.28 12:00",
    "o": 0.8051,
    "h": 0.80593,
    "l": 0.80501,
    "c": 0.80549,
    "v": 2770
  },
  {
    "dt": "2023.06.28 13:00",
    "o": 0.80551,
    "h": 0.80594,
    "l": 0.80509,
    "c": 0.80531,
    "v": 2392
  },
  {
    "dt": "2023.06.28 14:00",
    "o": 0.8053,
    "h": 0.80561,
    "l": 0.80456,
    "c": 0.8049,
    "v": 2719
  },
  {
    "dt": "2023.06.28 15:00",
    "o": 0.80492,
    "h": 0.80648,
    "l": 0.80492,
    "c": 0.80555,
    "v": 3464
  },
  {
    "dt": "2023.06.28 16:00",
    "o": 0.80559,
    "h": 0.80684,
    "l": 0.80502,
    "c": 0.8059,
    "v": 3912
  },
  {
    "dt": "2023.06.28 17:00",
    "o": 0.80593,
    "h": 0.80771,
    "l": 0.80554,
    "c": 0.80625,
    "v": 4580
  },
  {
    "dt": "2023.06.28 18:00",
    "o": 0.80622,
    "h": 0.8064,
    "l": 0.8051,
    "c": 0.80637,
    "v": 3836
  },
  {
    "dt": "2023.06.28 19:00",
    "o": 0.80639,
    "h": 0.807,
    "l": 0.80621,
    "c": 0.80622,
    "v": 3162
  },
  {
    "dt": "2023.06.28 20:00",
    "o": 0.8062,
    "h": 0.80645,
    "l": 0.80583,
    "c": 0.80616,
    "v": 2960
  },
  {
    "dt": "2023.06.28 21:00",
    "o": 0.80616,
    "h": 0.80652,
    "l": 0.80545,
    "c": 0.80545,
    "v": 2720
  },
  {
    "dt": "2023.06.28 22:00",
    "o": 0.80584,
    "h": 0.806,
    "l": 0.80477,
    "c": 0.80521,
    "v": 2063
  },
  {
    "dt": "2023.06.28 23:00",
    "o": 0.8052,
    "h": 0.80535,
    "l": 0.80459,
    "c": 0.80505,
    "v": 748
  },
  {
    "dt": "2023.06.29 00:00",
    "o": 0.80513,
    "h": 0.80519,
    "l": 0.80446,
    "c": 0.80478,
    "v": 376
  },
  {
    "dt": "2023.06.29 01:00",
    "o": 0.80483,
    "h": 0.80498,
    "l": 0.80441,
    "c": 0.80447,
    "v": 573
  },
  {
    "dt": "2023.06.29 02:00",
    "o": 0.80449,
    "h": 0.80526,
    "l": 0.80449,
    "c": 0.80471,
    "v": 674
  },
  {
    "dt": "2023.06.29 03:00",
    "o": 0.80468,
    "h": 0.80526,
    "l": 0.80429,
    "c": 0.80497,
    "v": 1593
  },
  {
    "dt": "2023.06.29 04:00",
    "o": 0.805,
    "h": 0.8071,
    "l": 0.805,
    "c": 0.80615,
    "v": 2817
  },
  {
    "dt": "2023.06.29 05:00",
    "o": 0.80615,
    "h": 0.80637,
    "l": 0.80535,
    "c": 0.80575,
    "v": 2320
  },
  {
    "dt": "2023.06.29 06:00",
    "o": 0.8057,
    "h": 0.8065,
    "l": 0.80519,
    "c": 0.80641,
    "v": 2451
  },
  {
    "dt": "2023.06.29 07:00",
    "o": 0.80642,
    "h": 0.80689,
    "l": 0.80601,
    "c": 0.80658,
    "v": 1504
  },
  {
    "dt": "2023.06.29 08:00",
    "o": 0.8066,
    "h": 0.807,
    "l": 0.80618,
    "c": 0.80662,
    "v": 1636
  },
  {
    "dt": "2023.06.29 09:00",
    "o": 0.8066,
    "h": 0.80676,
    "l": 0.8059,
    "c": 0.80622,
    "v": 2691
  },
  {
    "dt": "2023.06.29 10:00",
    "o": 0.8062,
    "h": 0.80724,
    "l": 0.80596,
    "c": 0.80691,
    "v": 3486
  },
  {
    "dt": "2023.06.29 11:00",
    "o": 0.80693,
    "h": 0.80755,
    "l": 0.80621,
    "c": 0.80628,
    "v": 3499
  },
  {
    "dt": "2023.06.29 12:00",
    "o": 0.80626,
    "h": 0.80626,
    "l": 0.80533,
    "c": 0.806,
    "v": 2812
  },
  {
    "dt": "2023.06.29 13:00",
    "o": 0.806,
    "h": 0.80776,
    "l": 0.80592,
    "c": 0.80763,
    "v": 2338
  },
  {
    "dt": "2023.06.29 14:00",
    "o": 0.80764,
    "h": 0.80873,
    "l": 0.80747,
    "c": 0.80796,
    "v": 2260
  },
  {
    "dt": "2023.06.29 15:00",
    "o": 0.80794,
    "h": 0.8085,
    "l": 0.80497,
    "c": 0.80554,
    "v": 3655
  },
  {
    "dt": "2023.06.29 16:00",
    "o": 0.80549,
    "h": 0.80568,
    "l": 0.80313,
    "c": 0.80369,
    "v": 3878
  },
  {
    "dt": "2023.06.29 17:00",
    "o": 0.80369,
    "h": 0.80468,
    "l": 0.80277,
    "c": 0.80457,
    "v": 4392
  },
  {
    "dt": "2023.06.29 18:00",
    "o": 0.80455,
    "h": 0.8051,
    "l": 0.80403,
    "c": 0.80427,
    "v": 3131
  },
  {
    "dt": "2023.06.29 19:00",
    "o": 0.80424,
    "h": 0.80439,
    "l": 0.80377,
    "c": 0.80386,
    "v": 2875
  },
  {
    "dt": "2023.06.29 20:00",
    "o": 0.80387,
    "h": 0.80398,
    "l": 0.80314,
    "c": 0.80323,
    "v": 2766
  },
  {
    "dt": "2023.06.29 21:00",
    "o": 0.80323,
    "h": 0.80343,
    "l": 0.80285,
    "c": 0.80297,
    "v": 2647
  },
  {
    "dt": "2023.06.29 22:00",
    "o": 0.80295,
    "h": 0.80373,
    "l": 0.80295,
    "c": 0.80363,
    "v": 2228
  },
  {
    "dt": "2023.06.29 23:00",
    "o": 0.80362,
    "h": 0.80443,
    "l": 0.80362,
    "c": 0.80428,
    "v": 1318
  },
  {
    "dt": "2023.06.30 00:00",
    "o": 0.80384,
    "h": 0.80439,
    "l": 0.80354,
    "c": 0.80393,
    "v": 451
  },
  {
    "dt": "2023.06.30 01:00",
    "o": 0.80403,
    "h": 0.80419,
    "l": 0.80372,
    "c": 0.80398,
    "v": 502
  },
  {
    "dt": "2023.06.30 02:00",
    "o": 0.80399,
    "h": 0.80435,
    "l": 0.80349,
    "c": 0.80354,
    "v": 678
  },
  {
    "dt": "2023.06.30 03:00",
    "o": 0.80355,
    "h": 0.80432,
    "l": 0.80304,
    "c": 0.8041,
    "v": 1685
  },
  {
    "dt": "2023.06.30 04:00",
    "o": 0.80411,
    "h": 0.8052,
    "l": 0.80407,
    "c": 0.80495,
    "v": 2449
  },
  {
    "dt": "2023.06.30 05:00",
    "o": 0.80495,
    "h": 0.80656,
    "l": 0.80495,
    "c": 0.80563,
    "v": 2051
  },
  {
    "dt": "2023.06.30 06:00",
    "o": 0.80564,
    "h": 0.80642,
    "l": 0.80527,
    "c": 0.80627,
    "v": 2121
  },
  {
    "dt": "2023.06.30 07:00",
    "o": 0.80626,
    "h": 0.80674,
    "l": 0.80613,
    "c": 0.8067,
    "v": 1583
  },
  {
    "dt": "2023.06.30 08:00",
    "o": 0.80669,
    "h": 0.80775,
    "l": 0.80661,
    "c": 0.80718,
    "v": 1869
  },
  {
    "dt": "2023.06.30 09:00",
    "o": 0.80719,
    "h": 0.80735,
    "l": 0.80616,
    "c": 0.80693,
    "v": 2426
  },
  {
    "dt": "2023.06.30 10:00",
    "o": 0.80685,
    "h": 0.80755,
    "l": 0.80647,
    "c": 0.80727,
    "v": 3224
  },
  {
    "dt": "2023.06.30 11:00",
    "o": 0.8073,
    "h": 0.80736,
    "l": 0.80575,
    "c": 0.80575,
    "v": 3152
  },
  {
    "dt": "2023.06.30 12:00",
    "o": 0.80578,
    "h": 0.80667,
    "l": 0.80578,
    "c": 0.80592,
    "v": 2343
  },
  {
    "dt": "2023.06.30 13:00",
    "o": 0.80594,
    "h": 0.80733,
    "l": 0.8057,
    "c": 0.80697,
    "v": 2510
  },
  {
    "dt": "2023.06.30 14:00",
    "o": 0.80697,
    "h": 0.80718,
    "l": 0.80633,
    "c": 0.80636,
    "v": 2299
  },
  {
    "dt": "2023.06.30 15:00",
    "o": 0.80634,
    "h": 0.81052,
    "l": 0.80625,
    "c": 0.81006,
    "v": 4110
  },
  {
    "dt": "2023.06.30 16:00",
    "o": 0.80997,
    "h": 0.8103,
    "l": 0.80858,
    "c": 0.80935,
    "v": 4069
  },
  {
    "dt": "2023.06.30 17:00",
    "o": 0.80941,
    "h": 0.81147,
    "l": 0.80899,
    "c": 0.81062,
    "v": 4716
  },
  {
    "dt": "2023.06.30 18:00",
    "o": 0.81058,
    "h": 0.81149,
    "l": 0.81029,
    "c": 0.81135,
    "v": 3456
  },
  {
    "dt": "2023.06.30 19:00",
    "o": 0.81133,
    "h": 0.81207,
    "l": 0.81076,
    "c": 0.81206,
    "v": 3192
  },
  {
    "dt": "2023.06.30 20:00",
    "o": 0.81206,
    "h": 0.81222,
    "l": 0.81139,
    "c": 0.81221,
    "v": 2790
  },
  {
    "dt": "2023.06.30 21:00",
    "o": 0.8122,
    "h": 0.81265,
    "l": 0.81198,
    "c": 0.81251,
    "v": 2532
  },
  {
    "dt": "2023.06.30 22:00",
    "o": 0.81252,
    "h": 0.81286,
    "l": 0.81233,
    "c": 0.8128,
    "v": 1976
  },
  {
    "dt": "2023.06.30 23:00",
    "o": 0.8128,
    "h": 0.8131,
    "l": 0.8125,
    "c": 0.8126,
    "v": 1688
  }
]