[
  {
    "dt": "2021.01.04 00:00",
    "o": 1.08075,
    "h": 1.08128,
    "l": 1.08042,
    "c": 1.08097,
    "v": 330
  },
  {
    "dt": "2021.01.04 01:00",
    "o": 1.08127,
    "h": 1.08186,
    "l": 1.08085,
    "c": 1.08176,
    "v": 1512
  },
  {
    "dt": "2021.01.04 02:00",
    "o": 1.08175,
    "h": 1.08209,
    "l": 1.08156,
    "c": 1.08162,
    "v": 1676
  },
  {
    "dt": "2021.01.04 03:00",
    "o": 1.08164,
    "h": 1.08268,
    "l": 1.08157,
    "c": 1.08253,
    "v": 1874
  },
  {
    "dt": "2021.01.04 04:00",
    "o": 1.08254,
    "h": 1.08282,
    "l": 1.08236,
    "c": 1.08257,
    "v": 1530
  },
  {
    "dt": "2021.01.04 05:00",
    "o": 1.08258,
    "h": 1.08306,
    "l": 1.08254,
    "c": 1.08287,
    "v": 1352
  },
  {
    "dt": "2021.01.04 06:00",
    "o": 1.08287,
    "h": 1.08306,
    "l": 1.08273,
    "c": 1.08283,
    "v": 1041
  },
  {
    "dt": "2021.01.04 07:00",
    "o": 1.08282,
    "h": 1.08291,
    "l": 1.08258,
    "c": 1.08283,
    "v": 1275
  },
  {
    "dt": "2021.01.04 08:00",
    "o": 1.08281,
    "h": 1.08301,
    "l": 1.082,
    "c": 1.08227,
    "v": 1202
  },
  {
    "dt": "2021.01.04 09:00",
    "o": 1.08234,
    "h": 1.08306,
    "l": 1.0822,
    "c": 1.0827,
    "v": 1698
  },
  {
    "dt": "2021.01.04 10:00",
    "o": 1.08269,
    "h": 1.0827,
    "l": 1.08052,
    "c": 1.08125,
    "v": 2347
  },
  {
    "dt": "2021.01.04 11:00",
    "o": 1.08128,
    "h": 1.08172,
    "l": 1.08085,
    "c": 1.08143,
    "v": 2087
  },
  {
    "dt": "2021.01.04 12:00",
    "o": 1.08144,
    "h": 1.08183,
    "l": 1.08091,
    "c": 1.08122,
    "v": 1755
  },
  {
    "dt": "2021.01.04 13:00",
    "o": 1.08122,
    "h": 1.08181,
    "l": 1.08068,
    "c": 1.08152,
    "v": 1672
  },
  {
    "dt": "2021.01.04 14:00",
    "o": 1.08152,
    "h": 1.0817,
    "l": 1.08051,
    "c": 1.08081,
    "v": 2094
  },
  {
    "dt": "2021.01.04 15:00",
    "o": 1.08082,
    "h": 1.0817,
    "l": 1.08029,
    "c": 1.0816,
    "v": 2435
  },
  {
    "dt": "2021.01.04 16:00",
    "o": 1.08162,
    "h": 1.08248,
    "l": 1.08117,
    "c": 1.08224,
    "v": 3143
  },
  {
    "dt": "2021.01.04 17:00",
    "o": 1.08222,
    "h": 1.08254,
    "l": 1.07913,
    "c": 1.07941,
    "v": 3743
  },
  {
    "dt": "2021.01.04 18:00",
    "o": 1.07941,
    "h": 1.08023,
    "l": 1.07897,
    "c": 1.07969,
    "v": 3324
  },
  {
    "dt": "2021.01.04 19:00",
    "o": 1.07968,
    "h": 1.08029,
    "l": 1.07939,
    "c": 1.07986,
    "v": 2967
  },
  {
    "dt": "2021.01.04 20:00",
    "o": 1.07985,
    "h": 1.08008,
    "l": 1.07906,
    "c": 1.07937,
    "v": 2121
  },
  {
    "dt": "2021.01.04 21:00",
    "o": 1.07935,
    "h": 1.07939,
    "l": 1.07886,
    "c": 1.07891,
    "v": 1945
  },
  {
    "dt": "2021.01.04 22:00",
    "o": 1.0789,
    "h": 1.07933,
    "l": 1.0789,
    "c": 1.07918,
    "v": 1809
  },
  {
    "dt": "2021.01.04 23:00",
    "o": 1.07918,
    "h": 1.0793,
    "l": 1.0789,
    "c": 1.07928,
    "v": 1257
  },
  {
    "dt": "2021.01.05 00:00",
    "o": 1.07894,
    "h": 1.07966,
    "l": 1.07893,
    "c": 1.07898,
    "v": 349
  },
  {
    "dt": "2021.01.05 01:00",
    "o": 1.07914,
    "h": 1.07972,
    "l": 1.07902,
    "c": 1.07968,
    "v": 945
  },
  {
    "dt": "2021.01.05 02:00",
    "o": 1.07969,
    "h": 1.08009,
    "l": 1.07963,
    "c": 1.08003,
    "v": 1202
  },
  {
    "dt": "2021.01.05 03:00",
    "o": 1.08003,
    "h": 1.08053,
    "l": 1.07997,
    "c": 1.08022,
    "v": 1254
  },
  {
    "dt": "2021.01.05 04:00",
    "o": 1.08025,
    "h": 1.0805,
    "l": 1.08025,
    "c": 1.08032,
    "v": 1213
  },
  {
    "dt": "2021.01.05 05:00",
    "o": 1.08029,
    "h": 1.08031,
    "l": 1.07983,
    "c": 1.07998,
    "v": 1495
  },
  {
    "dt": "2021.01.05 06:00",
    "o": 1.07995,
    "h": 1.08012,
    "l": 1.07963,
    "c": 1.08008,
    "v": 1305
  },
  {
    "dt": "2021.01.05 07:00",
    "o": 1.08009,
    "h": 1.08029,
    "l": 1.07999,
    "c": 1.08028,
    "v": 1359
  },
  {
    "dt": "2021.01.05 08:00",
    "o": 1.08029,
    "h": 1.08033,
    "l": 1.07988,
    "c": 1.08025,
    "v": 1017
  },
  {
    "dt": "2021.01.05 09:00",
    "o": 1.08022,
    "h": 1.0803,
    "l": 1.07975,
    "c": 1.07982,
    "v": 1643
  },
  {
    "dt": "2021.01.05 10:00",
    "o": 1.07983,
    "h": 1.0802,
    "l": 1.07895,
    "c": 1.07938,
    "v": 2428
  },
  {
    "dt": "2021.01.05 11:00",
    "o": 1.0794,
    "h": 1.08031,
    "l": 1.07915,
    "c": 1.07997,
    "v": 2025
  },
  {
    "dt": "2021.01.05 12:00",
    "o": 1.07996,
    "h": 1.08188,
    "l": 1.07968,
    "c": 1.08105,
    "v": 1632
  },
  {
    "dt": "2021.01.05 13:00",
    "o": 1.08105,
    "h": 1.08152,
    "l": 1.08015,
    "c": 1.0803,
    "v": 1786
  },
  {
    "dt": "2021.01.05 14:00",
    "o": 1.08029,
    "h": 1.0803,
    "l": 1.0794,
    "c": 1.07986,
    "v": 2089
  },
  {
    "dt": "2021.01.05 15:00",
    "o": 1.07985,
    "h": 1.08039,
    "l": 1.07908,
    "c": 1.07954,
    "v": 2209
  },
  {
    "dt": "2021.01.05 16:00",
    "o": 1.07955,
    "h": 1.08009,
    "l": 1.0792,
    "c": 1.07925,
    "v": 2541
  },
  {
    "dt": "2021.01.05 17:00",
    "o": 1.07951,
    "h": 1.07991,
    "l": 1.07924,
    "c": 1.07959,
    "v": 3178
  },
  {
    "dt": "2021.01.05 18:00",
    "o": 1.07959,
    "h": 1.08012,
    "l": 1.07918,
    "c": 1.0799,
    "v": 2614
  },
  {
    "dt": "2021.01.05 19:00",
    "o": 1.07991,
    "h": 1.08033,
    "l": 1.07965,
    "c": 1.07977,
    "v": 2478
  },
  {
    "dt": "2021.01.05 20:00",
    "o": 1.07977,
    "h": 1.07986,
    "l": 1.07939,
    "c": 1.07956,
    "v": 2230
  },
  {
    "dt": "2021.01.05 21:00",
    "o": 1.07956,
    "h": 1.07998,
    "l": 1.0795,
    "c": 1.07992,
    "v": 1921
  },
  {
    "dt": "2021.01.05 22:00",
    "o": 1.07991,
    "h": 1.08027,
    "l": 1.07974,
    "c": 1.08016,
    "v": 1498
  },
  {
    "dt": "2021.01.05 23:00",
    "o": 1.08016,
    "h": 1.08029,
    "l": 1.07973,
    "c": 1.08005,
    "v": 1010
  },
  {
    "dt": "2021.01.06 00:00",
    "o": 1.07933,
    "h": 1.07999,
    "l": 1.07933,
    "c": 1.07979,
    "v": 262
  },
  {
    "dt": "2021.01.06 01:00",
    "o": 1.07977,
    "h": 1.08012,
    "l": 1.07966,
    "c": 1.07997,
    "v": 896
  },
  {
    "dt": "2021.01.06 02:00",
    "o": 1.07999,
    "h": 1.08096,
    "l": 1.07973,
    "c": 1.08042,
    "v": 2051
  },
  {
    "dt": "2021.01.06 03:00",
    "o": 1.08043,
    "h": 1.08051,
    "l": 1.0799,
    "c": 1.08019,
    "v": 3243
  },
  {
    "dt": "2021.01.06 04:00",
    "o": 1.08019,
    "h": 1.0805,
    "l": 1.07993,
    "c": 1.08009,
    "v": 1980
  },
  {
    "dt": "2021.01.06 05:00",
    "o": 1.08003,
    "h": 1.08029,
    "l": 1.07977,
    "c": 1.07986,
    "v": 1591
  },
  {
    "dt": "2021.01.06 06:00",
    "o": 1.07984,
    "h": 1.08022,
    "l": 1.07973,
    "c": 1.07998,
    "v": 1962
  },
  {
    "dt": "2021.01.06 07:00",
    "o": 1.07998,
    "h": 1.0804,
    "l": 1.07976,
    "c": 1.08015,
    "v": 1626
  },
  {
    "dt": "2021.01.06 08:00",
    "o": 1.08016,
    "h": 1.08091,
    "l": 1.07996,
    "c": 1.08075,
    "v": 1351
  },
  {
    "dt": "2021.01.06 09:00",
    "o": 1.08083,
    "h": 1.08171,
    "l": 1.08059,
    "c": 1.08109,
    "v": 2591
  },
  {
    "dt": "2021.01.06 10:00",
    "o": 1.08112,
    "h": 1.08155,
    "l": 1.08059,
    "c": 1.08093,
    "v": 2705
  },
  {
    "dt": "2021.01.06 11:00",
    "o": 1.08092,
    "h": 1.08181,
    "l": 1.08084,
    "c": 1.08173,
    "v": 2134
  },
  {
    "dt": "2021.01.06 12:00",
    "o": 1.08173,
    "h": 1.08175,
    "l": 1.08077,
    "c": 1.08124,
    "v": 2194
  },
  {
    "dt": "2021.01.06 13:00",
    "o": 1.08122,
    "h": 1.08179,
    "l": 1.08085,
    "c": 1.08093,
    "v": 1963
  },
  {
    "dt": "2021.01.06 14:00",
    "o": 1.08094,
    "h": 1.08212,
    "l": 1.08082,
    "c": 1.08188,
    "v": 2219
  },
  {
    "dt": "2021.01.06 15:00",
    "o": 1.08189,
    "h": 1.08316,
    "l": 1.0816,
    "c": 1.08304,
    "v": 2798
  },
  {
    "dt": "2021.01.06 16:00",
    "o": 1.08305,
    "h": 1.08309,
    "l": 1.08198,
    "c": 1.08253,
    "v": 3836
  },
  {
    "dt": "2021.01.06 17:00",
    "o": 1.08254,
    "h": 1.08316,
    "l": 1.08148,
    "c": 1.08217,
    "v": 3696
  },
  {
    "dt": "2021.01.06 18:00",
    "o": 1.08218,
    "h": 1.08317,
    "l": 1.08175,
    "c": 1.08278,
    "v": 3345
  },
  {
    "dt": "2021.01.06 19:00",
    "o": 1.08279,
    "h": 1.08359,
    "l": 1.08258,
    "c": 1.08331,
    "v": 2156
  },
  {
    "dt": "2021.01.06 20:00",
    "o": 1.0833,
    "h": 1.08367,
    "l": 1.0828,
    "c": 1.08319,
    "v": 2219
  },
  {
    "dt": "2021.01.06 21:00",
    "o": 1.08312,
    "h": 1.08344,
    "l": 1.08208,
    "c": 1.08264,
    "v": 2715
  },
  {
    "dt": "2021.01.06 22:00",
    "o": 1.08263,
    "h": 1.08342,
    "l": 1.08242,
    "c": 1.08279,
    "v": 2846
  },
  {
    "dt": "2021.01.06 23:00",
    "o": 1.0828,
    "h": 1.08306,
    "l": 1.08267,
    "c": 1.08276,
    "v": 1719
  },
  {
    "dt": "2021.01.07 00:00",
    "o": 1.08218,
    "h": 1.08296,
    "l": 1.08197,
    "c": 1.0827,
    "v": 451
  },
  {
    "dt": "2021.01.07 01:00",
    "o": 1.0827,
    "h": 1.08353,
    "l": 1.08267,
    "c": 1.08333,
    "v": 1413
  },
  {
    "dt": "2021.01.07 02:00",
    "o": 1.08333,
    "h": 1.08337,
    "l": 1.08288,
    "c": 1.08316,
    "v": 1608
  },
  {
    "dt": "2021.01.07 03:00",
    "o": 1.08317,
    "h": 1.08339,
    "l": 1.08295,
    "c": 1.08331,
    "v": 1388
  },
  {
    "dt": "2021.01.07 04:00",
    "o": 1.08331,
    "h": 1.08351,
    "l": 1.08299,
    "c": 1.08305,
    "v": 1605
  },
  {
    "dt": "2021.01.07 05:00",
    "o": 1.08303,
    "h": 1.08318,
    "l": 1.08285,
    "c": 1.08292,
    "v": 995
  },
  {
    "dt": "2021.01.07 06:00",
    "o": 1.08295,
    "h": 1.08322,
    "l": 1.08284,
    "c": 1.08284,
    "v": 959
  },
  {
    "dt": "2021.01.07 07:00",
    "o": 1.08282,
    "h": 1.08288,
    "l": 1.08252,
    "c": 1.08268,
    "v": 1403
  },
  {
    "dt": "2021.01.07 08:00",
    "o": 1.08269,
    "h": 1.08294,
    "l": 1.08253,
    "c": 1.08278,
    "v": 1180
  },
  {
    "dt": "2021.01.07 09:00",
    "o": 1.08279,
    "h": 1.0838,
    "l": 1.0827,
    "c": 1.08321,
    "v": 1964
  },
  {
    "dt": "2021.01.07 10:00",
    "o": 1.0832,
    "h": 1.08398,
    "l": 1.08297,
    "c": 1.08372,
    "v": 2497
  },
  {
    "dt": "2021.01.07 11:00",
    "o": 1.08373,
    "h": 1.08415,
    "l": 1.08266,
    "c": 1.08346,
    "v": 2611
  },
  {
    "dt": "2021.01.07 12:00",
    "o": 1.08345,
    "h": 1.08358,
    "l": 1.08241,
    "c": 1.08316,
    "v": 2407
  },
  {
    "dt": "2021.01.07 13:00",
    "o": 1.08316,
    "h": 1.08357,
    "l": 1.08263,
    "c": 1.08311,
    "v": 1903
  },
  {
    "dt": "2021.01.07 14:00",
    "o": 1.08312,
    "h": 1.08387,
    "l": 1.08288,
    "c": 1.08365,
    "v": 1846
  },
  {
    "dt": "2021.01.07 15:00",
    "o": 1.08364,
    "h": 1.08378,
    "l": 1.0827,
    "c": 1.08284,
    "v": 2197
  },
  {
    "dt": "2021.01.07 16:00",
    "o": 1.08283,
    "h": 1.08495,
    "l": 1.08271,
    "c": 1.08479,
    "v": 3597
  },
  {
    "dt": "2021.01.07 17:00",
    "o": 1.08479,
    "h": 1.08619,
    "l": 1.08409,
    "c": 1.08539,
    "v": 3419
  },
  {
    "dt": "2021.01.07 18:00",
    "o": 1.08542,
    "h": 1.08567,
    "l": 1.08436,
    "c": 1.08443,
    "v": 2672
  },
  {
    "dt": "2021.01.07 19:00",
    "o": 1.08441,
    "h": 1.08538,
    "l": 1.08426,
    "c": 1.08515,
    "v": 2135
  },
  {
    "dt": "2021.01.07 20:00",
    "o": 1.08513,
    "h": 1.08604,
    "l": 1.0851,
    "c": 1.08571,
    "v": 1537
  },
  {
    "dt": "2021.01.07 21:00",
    "o": 1.08572,
    "h": 1.08578,
    "l": 1.08539,
    "c": 1.0857,
    "v": 1555
  },
  {
    "dt": "2021.01.07 22:00",
    "o": 1.08567,
    "h": 1.08585,
    "l": 1.08539,
    "c": 1.08566,
    "v": 1539
  },
  {
    "dt": "2021.01.07 23:00",
    "o": 1.08565,
    "h": 1.0867,
    "l": 1.08561,
    "c": 1.08621,
    "v": 1272
  },
  {
    "dt": "2021.01.08 00:00",
    "o": 1.08562,
    "h": 1.08567,
    "l": 1.08485,
    "c": 1.08552,
    "v": 281
  },
  {
    "dt": "2021.01.08 01:00",
    "o": 1.08552,
    "h": 1.08626,
    "l": 1.08552,
    "c": 1.08597,
    "v": 833
  },
  {
    "dt": "2021.01.08 02:00",
    "o": 1.08596,
    "h": 1.08618,
    "l": 1.08557,
    "c": 1.08582,
    "v": 1608
  },
  {
    "dt": "2021.01.08 03:00",
    "o": 1.08586,
    "h": 1.08597,
    "l": 1.08515,
    "c": 1.08555,
    "v": 2229
  },
  {
    "dt": "2021.01.08 04:00",
    "o": 1.08555,
    "h": 1.08591,
    "l": 1.08531,
    "c": 1.0855,
    "v": 1659
  },
  {
    "dt": "2021.01.08 05:00",
    "o": 1.08544,
    "h": 1.08587,
    "l": 1.08542,
    "c": 1.0857,
    "v": 1335
  },
  {
    "dt": "2021.01.08 06:00",
    "o": 1.0857,
    "h": 1.08589,
    "l": 1.08553,
    "c": 1.08584,
    "v": 902
  },
  {
    "dt": "2021.01.08 07:00",
    "o": 1.08583,
    "h": 1.08603,
    "l": 1.08551,
    "c": 1.08557,
    "v": 1063
  },
  {
    "dt": "2021.01.08 08:00",
    "o": 1.08555,
    "h": 1.08616,
    "l": 1.08552,
    "c": 1.08575,
    "v": 1300
  },
  {
    "dt": "2021.01.08 09:00",
    "o": 1.0858,
    "h": 1.08607,
    "l": 1.08481,
    "c": 1.085,
    "v": 1862
  },
  {
    "dt": "2021.01.08 10:00",
    "o": 1.08502,
    "h": 1.08593,
    "l": 1.08439,
    "c": 1.08454,
    "v": 3009
  },
  {
    "dt": "2021.01.08 11:00",
    "o": 1.08456,
    "h": 1.08477,
    "l": 1.08378,
    "c": 1.08418,
    "v": 1973
  },
  {
    "dt": "2021.01.08 12:00",
    "o": 1.08423,
    "h": 1.08465,
    "l": 1.08377,
    "c": 1.08427,
    "v": 1694
  },
  {
    "dt": "2021.01.08 13:00",
    "o": 1.08427,
    "h": 1.08429,
    "l": 1.08296,
    "c": 1.08296,
    "v": 1697
  },
  {
    "dt": "2021.01.08 14:00",
    "o": 1.08295,
    "h": 1.08334,
    "l": 1.08256,
    "c": 1.08265,
    "v": 2078
  },
  {
    "dt": "2021.01.08 15:00",
    "o": 1.08262,
    "h": 1.08374,
    "l": 1.08226,
    "c": 1.08321,
    "v": 3176
  },
  {
    "dt": "2021.01.08 16:00",
    "o": 1.08319,
    "h": 1.0841,
    "l": 1.08296,
    "c": 1.08369,
    "v": 3512
  },
  {
    "dt": "2021.01.08 17:00",
    "o": 1.08369,
    "h": 1.08402,
    "l": 1.08216,
    "c": 1.08233,
    "v": 3575
  },
  {
    "dt": "2021.01.08 18:00",
    "o": 1.08232,
    "h": 1.08357,
    "l": 1.08201,
    "c": 1.08348,
    "v": 3454
  },
  {
    "dt": "2021.01.08 19:00",
    "o": 1.08348,
    "h": 1.08398,
    "l": 1.08299,
    "c": 1.08335,
    "v": 2490
  },
  {
    "dt": "2021.01.08 20:00",
    "o": 1.08335,
    "h": 1.08346,
    "l": 1.08198,
    "c": 1.08226,
    "v": 2672
  },
  {
    "dt": "2021.01.08 21:00",
    "o": 1.08227,
    "h": 1.0828,
    "l": 1.08219,
    "c": 1.08256,
    "v": 2012
  },
  {
    "dt": "2021.01.08 22:00",
    "o": 1.08255,
    "h": 1.08269,
    "l": 1.08212,
    "c": 1.08221,
    "v": 1617
  },
  {
    "dt": "2021.01.08 23:00",
    "o": 1.08221,
    "h": 1.08261,
    "l": 1.08136,
    "c": 1.08181,
    "v": 1286
  },
  {
    "dt": "2021.01.11 00:00",
    "o": 1.0822,
    "h": 1.08229,
    "l": 1.08198,
    "c": 1.08218,
    "v": 124
  },
  {
    "dt": "2021.01.11 01:00",
    "o": 1.08217,
    "h": 1.08224,
    "l": 1.08142,
    "c": 1.0816,
    "v": 1625
  },
  {
    "dt": "2021.01.11 02:00",
    "o": 1.08159,
    "h": 1.08192,
    "l": 1.08138,
    "c": 1.08167,
    "v": 1758
  },
  {
    "dt": "2021.01.11 03:00",
    "o": 1.08166,
    "h": 1.08209,
    "l": 1.0815,
    "c": 1.08199,
    "v": 1830
  },
  {
    "dt": "2021.01.11 04:00",
    "o": 1.08197,
    "h": 1.08205,
    "l": 1.08147,
    "c": 1.0819,
    "v": 1687
  },
  {
    "dt": "2021.01.11 05:00",
    "o": 1.0819,
    "h": 1.08199,
    "l": 1.08159,
    "c": 1.0817,
    "v": 1206
  },
  {
    "dt": "2021.01.11 06:00",
    "o": 1.0817,
    "h": 1.08182,
    "l": 1.08143,
    "c": 1.08164,
    "v": 1252
  },
  {
    "dt": "2021.01.11 07:00",
    "o": 1.08163,
    "h": 1.08191,
    "l": 1.08152,
    "c": 1.08188,
    "v": 1232
  },
  {
    "dt": "2021.01.11 08:00",
    "o": 1.08189,
    "h": 1.082,
    "l": 1.08155,
    "c": 1.08169,
    "v": 1464
  },
  {
    "dt": "2021.01.11 09:00",
    "o": 1.08168,
    "h": 1.08249,
    "l": 1.08155,
    "c": 1.08196,
    "v": 1919
  },
  {
    "dt": "2021.01.11 10:00",
    "o": 1.08196,
    "h": 1.08235,
    "l": 1.08143,
    "c": 1.08152,
    "v": 2600
  },
  {
    "dt": "2021.01.11 11:00",
    "o": 1.08153,
    "h": 1.08271,
    "l": 1.08143,
    "c": 1.08178,
    "v": 2393
  },
  {
    "dt": "2021.01.11 12:00",
    "o": 1.08179,
    "h": 1.08337,
    "l": 1.08155,
    "c": 1.0828,
    "v": 2244
  },
  {
    "dt": "2021.01.11 13:00",
    "o": 1.08283,
    "h": 1.08318,
    "l": 1.08243,
    "c": 1.08278,
    "v": 2024
  },
  {
    "dt": "2021.01.11 14:00",
    "o": 1.08277,
    "h": 1.08399,
    "l": 1.08258,
    "c": 1.0839,
    "v": 2005
  },
  {
    "dt": "2021.01.11 15:00",
    "o": 1.08391,
    "h": 1.08392,
    "l": 1.08226,
    "c": 1.08273,
    "v": 2724
  },
  {
    "dt": "2021.01.11 16:00",
    "o": 1.08274,
    "h": 1.08288,
    "l": 1.08159,
    "c": 1.0821,
    "v": 3576
  },
  {
    "dt": "2021.01.11 17:00",
    "o": 1.08211,
    "h": 1.08326,
    "l": 1.0817,
    "c": 1.08304,
    "v": 3495
  },
  {
    "dt": "2021.01.11 18:00",
    "o": 1.08303,
    "h": 1.08329,
    "l": 1.08252,
    "c": 1.08261,
    "v": 2701
  },
  {
    "dt": "2021.01.11 19:00",
    "o": 1.0826,
    "h": 1.08266,
    "l": 1.08128,
    "c": 1.08181,
    "v": 2327
  },
  {
    "dt": "2021.01.11 20:00",
    "o": 1.08181,
    "h": 1.08191,
    "l": 1.08128,
    "c": 1.08139,
    "v": 1775
  },
  {
    "dt": "2021.01.11 21:00",
    "o": 1.08138,
    "h": 1.0818,
    "l": 1.08136,
    "c": 1.08177,
    "v": 1431
  },
  {
    "dt": "2021.01.11 22:00",
    "o": 1.08177,
    "h": 1.08192,
    "l": 1.08141,
    "c": 1.08159,
    "v": 1679
  },
  {
    "dt": "2021.01.11 23:00",
    "o": 1.0816,
    "h": 1.08193,
    "l": 1.08154,
    "c": 1.08171,
    "v": 1100
  },
  {
    "dt": "2021.01.12 00:00",
    "o": 1.08158,
    "h": 1.08185,
    "l": 1.08126,
    "c": 1.08168,
    "v": 323
  },
  {
    "dt": "2021.01.12 01:00",
    "o": 1.08167,
    "h": 1.0819,
    "l": 1.08146,
    "c": 1.08181,
    "v": 1046
  },
  {
    "dt": "2021.01.12 02:00",
    "o": 1.08182,
    "h": 1.08226,
    "l": 1.08172,
    "c": 1.0822,
    "v": 1228
  },
  {
    "dt": "2021.01.12 03:00",
    "o": 1.08219,
    "h": 1.08238,
    "l": 1.08179,
    "c": 1.08214,
    "v": 1815
  },
  {
    "dt": "2021.01.12 04:00",
    "o": 1.08214,
    "h": 1.08215,
    "l": 1.08167,
    "c": 1.08192,
    "v": 1296
  },
  {
    "dt": "2021.01.12 05:00",
    "o": 1.08194,
    "h": 1.08253,
    "l": 1.08192,
    "c": 1.08252,
    "v": 744
  },
  {
    "dt": "2021.01.12 06:00",
    "o": 1.08251,
    "h": 1.08251,
    "l": 1.0821,
    "c": 1.08224,
    "v": 892
  },
  {
    "dt": "2021.01.12 07:00",
    "o": 1.08223,
    "h": 1.08245,
    "l": 1.08213,
    "c": 1.08237,
    "v": 1118
  },
  {
    "dt": "2021.01.12 08:00",
    "o": 1.08239,
    "h": 1.08273,
    "l": 1.08211,
    "c": 1.08265,
    "v": 1237
  },
  {
    "dt": "2021.01.12 09:00",
    "o": 1.08275,
    "h": 1.08305,
    "l": 1.08215,
    "c": 1.08232,
    "v": 1993
  },
  {
    "dt": "2021.01.12 10:00",
    "o": 1.08233,
    "h": 1.0826,
    "l": 1.08181,
    "c": 1.08204,
    "v": 2299
  },
  {
    "dt": "2021.01.12 11:00",
    "o": 1.08205,
    "h": 1.08301,
    "l": 1.08197,
    "c": 1.08218,
    "v": 2483
  },
  {
    "dt": "2021.01.12 12:00",
    "o": 1.08219,
    "h": 1.08271,
    "l": 1.08104,
    "c": 1.08109,
    "v": 1959
  },
  {
    "dt": "2021.01.12 13:00",
    "o": 1.08112,
    "h": 1.08127,
    "l": 1.08069,
    "c": 1.08111,
    "v": 1910
  },
  {
    "dt": "2021.01.12 14:00",
    "o": 1.08111,
    "h": 1.08217,
    "l": 1.08107,
    "c": 1.08145,
    "v": 2088
  },
  {
    "dt": "2021.01.12 15:00",
    "o": 1.08144,
    "h": 1.08147,
    "l": 1.08053,
    "c": 1.08112,
    "v": 2215
  },
  {
    "dt": "2021.01.12 16:00",
    "o": 1.08116,
    "h": 1.0817,
    "l": 1.08097,
    "c": 1.08131,
    "v": 2936
  },
  {
    "dt": "2021.01.12 17:00",
    "o": 1.0813,
    "h": 1.08168,
    "l": 1.08097,
    "c": 1.08124,
    "v": 2844
  },
  {
    "dt": "2021.01.12 18:00",
    "o": 1.08126,
    "h": 1.08253,
    "l": 1.08126,
    "c": 1.08209,
    "v": 2334
  },
  {
    "dt": "2021.01.12 19:00",
    "o": 1.0821,
    "h": 1.08256,
    "l": 1.08169,
    "c": 1.08224,
    "v": 2492
  },
  {
    "dt": "2021.01.12 20:00",
    "o": 1.08225,
    "h": 1.08232,
    "l": 1.08146,
    "c": 1.08173,
    "v": 2601
  },
  {
    "dt": "2021.01.12 21:00",
    "o": 1.08172,
    "h": 1.08223,
    "l": 1.08145,
    "c": 1.08196,
    "v": 2051
  },
  {
    "dt": "2021.01.12 22:00",
    "o": 1.08196,
    "h": 1.08205,
    "l": 1.08162,
    "c": 1.08167,
    "v": 1573
  },
  {
    "dt": "2021.01.12 23:00",
    "o": 1.08163,
    "h": 1.08212,
    "l": 1.08152,
    "c": 1.082,
    "v": 1212
  },
  {
    "dt": "2021.01.13 00:00",
    "o": 1.08176,
    "h": 1.08221,
    "l": 1.08143,
    "c": 1.08199,
    "v": 696
  },
  {
    "dt": "2021.01.13 01:00",
    "o": 1.08201,
    "h": 1.08213,
    "l": 1.08167,
    "c": 1.08176,
    "v": 894
  },
  {
    "dt": "2021.01.13 02:00",
    "o": 1.08176,
    "h": 1.08207,
    "l": 1.08164,
    "c": 1.08178,
    "v": 1308
  },
  {
    "dt": "2021.01.13 03:00",
    "o": 1.08179,
    "h": 1.08216,
    "l": 1.08167,
    "c": 1.08216,
    "v": 1505
  },
  {
    "dt": "2021.01.13 04:00",
    "o": 1.08216,
    "h": 1.08217,
    "l": 1.08172,
    "c": 1.08174,
    "v": 1008
  },
  {
    "dt": "2021.01.13 05:00",
    "o": 1.08175,
    "h": 1.08216,
    "l": 1.08175,
    "c": 1.08192,
    "v": 992
  },
  {
    "dt": "2021.01.13 06:00",
    "o": 1.08193,
    "h": 1.08205,
    "l": 1.08171,
    "c": 1.08176,
    "v": 656
  },
  {
    "dt": "2021.01.13 07:00",
    "o": 1.08172,
    "h": 1.0819,
    "l": 1.08164,
    "c": 1.08175,
    "v": 971
  },
  {
    "dt": "2021.01.13 08:00",
    "o": 1.08175,
    "h": 1.08201,
    "l": 1.08161,
    "c": 1.08175,
    "v": 937
  },
  {
    "dt": "2021.01.13 09:00",
    "o": 1.08172,
    "h": 1.08207,
    "l": 1.08146,
    "c": 1.08185,
    "v": 1677
  },
  {
    "dt": "2021.01.13 10:00",
    "o": 1.08184,
    "h": 1.08202,
    "l": 1.08097,
    "c": 1.08132,
    "v": 2541
  },
  {
    "dt": "2021.01.13 11:00",
    "o": 1.08131,
    "h": 1.08216,
    "l": 1.08112,
    "c": 1.08147,
    "v": 2378
  },
  {
    "dt": "2021.01.13 12:00",
    "o": 1.08148,
    "h": 1.08168,
    "l": 1.08091,
    "c": 1.08153,
    "v": 2049
  },
  {
    "dt": "2021.01.13 13:00",
    "o": 1.08155,
    "h": 1.08175,
    "l": 1.08092,
    "c": 1.08098,
    "v": 2004
  },
  {
    "dt": "2021.01.13 14:00",
    "o": 1.08097,
    "h": 1.08132,
    "l": 1.08092,
    "c": 1.08117,
    "v": 1760
  },
  {
    "dt": "2021.01.13 15:00",
    "o": 1.08117,
    "h": 1.08131,
    "l": 1.07995,
    "c": 1.08025,
    "v": 2387
  },
  {
    "dt": "2021.01.13 16:00",
    "o": 1.08025,
    "h": 1.08031,
    "l": 1.0793,
    "c": 1.07943,
    "v": 2816
  },
  {
    "dt": "2021.01.13 17:00",
    "o": 1.07944,
    "h": 1.07964,
    "l": 1.07833,
    "c": 1.07926,
    "v": 3274
  },
  {
    "dt": "2021.01.13 18:00",
    "o": 1.07929,
    "h": 1.07971,
    "l": 1.07875,
    "c": 1.0789,
    "v": 2483
  },
  {
    "dt": "2021.01.13 19:00",
    "o": 1.07891,
    "h": 1.07949,
    "l": 1.07834,
    "c": 1.07924,
    "v": 2512
  },
  {
    "dt": "2021.01.13 20:00",
    "o": 1.07922,
    "h": 1.07947,
    "l": 1.07891,
    "c": 1.07941,
    "v": 1856
  },
  {
    "dt": "2021.01.13 21:00",
    "o": 1.07943,
    "h": 1.07947,
    "l": 1.07883,
    "c": 1.07915,
    "v": 1456
  },
  {
    "dt": "2021.01.13 22:00",
    "o": 1.07915,
    "h": 1.07922,
    "l": 1.07882,
    "c": 1.07896,
    "v": 1359
  },
  {
    "dt": "2021.01.13 23:00",
    "o": 1.07899,
    "h": 1.07933,
    "l": 1.07877,
    "c": 1.07898,
    "v": 1124
  },
  {
    "dt": "2021.01.14 00:00",
    "o": 1.07868,
    "h": 1.07943,
    "l": 1.07827,
    "c": 1.07888,
    "v": 603
  },
  {
    "dt": "2021.01.14 01:00",
    "o": 1.07878,
    "h": 1.07923,
    "l": 1.07875,
    "c": 1.07883,
    "v": 1118
  },
  {
    "dt": "2021.01.14 02:00",
    "o": 1.07882,
    "h": 1.07928,
    "l": 1.07867,
    "c": 1.07926,
    "v": 1142
  },
  {
    "dt": "2021.01.14 03:00",
    "o": 1.07925,
    "h": 1.07928,
    "l": 1.07905,
    "c": 1.0792,
    "v": 1379
  },
  {
    "dt": "2021.01.14 04:00",
    "o": 1.0792,
    "h": 1.07948,
    "l": 1.07875,
    "c": 1.07887,
    "v": 2254
  },
  {
    "dt": "2021.01.14 05:00",
    "o": 1.0789,
    "h": 1.079,
    "l": 1.07852,
    "c": 1.0788,
    "v": 1634
  },
  {
    "dt": "2021.01.14 06:00",
    "o": 1.0788,
    "h": 1.0788,
    "l": 1.07834,
    "c": 1.07847,
    "v": 1104
  },
  {
    "dt": "2021.01.14 07:00",
    "o": 1.07846,
    "h": 1.07851,
    "l": 1.07815,
    "c": 1.07842,
    "v": 1451
  },
  {
    "dt": "2021.01.14 08:00",
    "o": 1.07843,
    "h": 1.07856,
    "l": 1.07823,
    "c": 1.07839,
    "v": 1140
  },
  {
    "dt": "2021.01.14 09:00",
    "o": 1.07831,
    "h": 1.07848,
    "l": 1.07777,
    "c": 1.07797,
    "v": 2008
  },
  {
    "dt": "2021.01.14 10:00",
    "o": 1.07799,
    "h": 1.07837,
    "l": 1.07789,
    "c": 1.07803,
    "v": 2443
  },
  {
    "dt": "2021.01.14 11:00",
    "o": 1.07803,
    "h": 1.07955,
    "l": 1.078,
    "c": 1.07935,
    "v": 2328
  },
  {
    "dt": "2021.01.14 12:00",
    "o": 1.07935,
    "h": 1.08099,
    "l": 1.07902,
    "c": 1.08041,
    "v": 2038
  },
  {
    "dt": "2021.01.14 13:00",
    "o": 1.08044,
    "h": 1.08094,
    "l": 1.08036,
    "c": 1.08087,
    "v": 2023
  },
  {
    "dt": "2021.01.14 14:00",
    "o": 1.08088,
    "h": 1.08139,
    "l": 1.08016,
    "c": 1.08029,
    "v": 2409
  },
  {
    "dt": "2021.01.14 15:00",
    "o": 1.08031,
    "h": 1.08063,
    "l": 1.0789,
    "c": 1.07903,
    "v": 3197
  },
  {
    "dt": "2021.01.14 16:00",
    "o": 1.07904,
    "h": 1.07945,
    "l": 1.07804,
    "c": 1.0781,
    "v": 2809
  },
  {
    "dt": "2021.01.14 17:00",
    "o": 1.07809,
    "h": 1.07898,
    "l": 1.07803,
    "c": 1.07866,
    "v": 3571
  },
  {
    "dt": "2021.01.14 18:00",
    "o": 1.07864,
    "h": 1.07884,
    "l": 1.07751,
    "c": 1.0781,
    "v": 2710
  },
  {
    "dt": "2021.01.14 19:00",
    "o": 1.0781,
    "h": 1.07859,
    "l": 1.07785,
    "c": 1.07825,
    "v": 2593
  },
  {
    "dt": "2021.01.14 20:00",
    "o": 1.07824,
    "h": 1.07912,
    "l": 1.07822,
    "c": 1.07868,
    "v": 2648
  },
  {
    "dt": "2021.01.14 21:00",
    "o": 1.07867,
    "h": 1.07924,
    "l": 1.07852,
    "c": 1.07915,
    "v": 2013
  },
  {
    "dt": "2021.01.14 22:00",
    "o": 1.07916,
    "h": 1.07919,
    "l": 1.07876,
    "c": 1.07898,
    "v": 1651
  },
  {
    "dt": "2021.01.14 23:00",
    "o": 1.07899,
    "h": 1.07961,
    "l": 1.07892,
    "c": 1.07948,
    "v": 1426
  },
  {
    "dt": "2021.01.15 00:00",
    "o": 1.07931,
    "h": 1.07947,
    "l": 1.07917,
    "c": 1.07918,
    "v": 166
  },
  {
    "dt": "2021.01.15 01:00",
    "o": 1.07923,
    "h": 1.07947,
    "l": 1.07904,
    "c": 1.07933,
    "v": 1022
  },
  {
    "dt": "2021.01.15 02:00",
    "o": 1.07935,
    "h": 1.07951,
    "l": 1.07924,
    "c": 1.07932,
    "v": 1246
  },
  {
    "dt": "2021.01.15 03:00",
    "o": 1.07933,
    "h": 1.07934,
    "l": 1.07889,
    "c": 1.07914,
    "v": 1513
  },
  {
    "dt": "2021.01.15 04:00",
    "o": 1.07915,
    "h": 1.07915,
    "l": 1.07878,
    "c": 1.07907,
    "v": 1124
  },
  {
    "dt": "2021.01.15 05:00",
    "o": 1.07908,
    "h": 1.07958,
    "l": 1.079,
    "c": 1.07928,
    "v": 1032
  },
  {
    "dt": "2021.01.15 06:00",
    "o": 1.07928,
    "h": 1.07954,
    "l": 1.07907,
    "c": 1.07928,
    "v": 957
  },
  {
    "dt": "2021.01.15 07:00",
    "o": 1.07926,
    "h": 1.07946,
    "l": 1.07875,
    "c": 1.07937,
    "v": 1568
  },
  {
    "dt": "2021.01.15 08:00",
    "o": 1.07937,
    "h": 1.07947,
    "l": 1.07849,
    "c": 1.07851,
    "v": 1329
  },
  {
    "dt": "2021.01.15 09:00",
    "o": 1.07849,
    "h": 1.07863,
    "l": 1.07752,
    "c": 1.07766,
    "v": 1896
  },
  {
    "dt": "2021.01.15 10:00",
    "o": 1.07766,
    "h": 1.07797,
    "l": 1.07664,
    "c": 1.07714,
    "v": 2722
  },
  {
    "dt": "2021.01.15 11:00",
    "o": 1.07711,
    "h": 1.07771,
    "l": 1.07688,
    "c": 1.0771,
    "v": 2122
  },
  {
    "dt": "2021.01.15 12:00",
    "o": 1.07714,
    "h": 1.07737,
    "l": 1.0763,
    "c": 1.07645,
    "v": 2051
  },
  {
    "dt": "2021.01.15 13:00",
    "o": 1.0765,
    "h": 1.07678,
    "l": 1.07592,
    "c": 1.07599,
    "v": 1850
  },
  {
    "dt": "2021.01.15 14:00",
    "o": 1.07599,
    "h": 1.07672,
    "l": 1.07582,
    "c": 1.07665,
    "v": 2196
  },
  {
    "dt": "2021.01.15 15:00",
    "o": 1.07665,
    "h": 1.07704,
    "l": 1.07594,
    "c": 1.07598,
    "v": 2612
  },
  {
    "dt": "2021.01.15 16:00",
    "o": 1.07598,
    "h": 1.07631,
    "l": 1.07571,
    "c": 1.07584,
    "v": 2737
  },
  {
    "dt": "2021.01.15 17:00",
    "o": 1.07584,
    "h": 1.0766,
    "l": 1.07498,
    "c": 1.07616,
    "v": 3607
  },
  {
    "dt": "2021.01.15 18:00",
    "o": 1.07617,
    "h": 1.07643,
    "l": 1.07582,
    "c": 1.07605,
    "v": 2849
  },
  {
    "dt": "2021.01.15 19:00",
    "o": 1.07606,
    "h": 1.07635,
    "l": 1.07581,
    "c": 1.07622,
    "v": 2069
  },
  {
    "dt": "2021.01.15 20:00",
    "o": 1.07622,
    "h": 1.07629,
    "l": 1.07595,
    "c": 1.07619,
    "v": 1995
  },
  {
    "dt": "2021.01.15 21:00",
    "o": 1.07619,
    "h": 1.07647,
    "l": 1.07603,
    "c": 1.07611,
    "v": 1880
  },
  {
    "dt": "2021.01.15 22:00",
    "o": 1.0761,
    "h": 1.07643,
    "l": 1.07604,
    "c": 1.07635,
    "v": 1445
  },
  {
    "dt": "2021.01.15 23:00",
    "o": 1.07634,
    "h": 1.07652,
    "l": 1.07605,
    "c": 1.07607,
    "v": 1080
  },
  {
    "dt": "2021.01.18 00:00",
    "o": 1.07546,
    "h": 1.07598,
    "l": 1.07526,
    "c": 1.07549,
    "v": 195
  },
  {
    "dt": "2021.01.18 01:00",
    "o": 1.07538,
    "h": 1.07693,
    "l": 1.07538,
    "c": 1.07685,
    "v": 1475
  },
  {
    "dt": "2021.01.18 02:00",
    "o": 1.07684,
    "h": 1.07687,
    "l": 1.07613,
    "c": 1.07633,
    "v": 1658
  },
  {
    "dt": "2021.01.18 03:00",
    "o": 1.07636,
    "h": 1.07639,
    "l": 1.07607,
    "c": 1.07618,
    "v": 1450
  },
  {
    "dt": "2021.01.18 04:00",
    "o": 1.07618,
    "h": 1.07653,
    "l": 1.07608,
    "c": 1.07636,
    "v": 1386
  },
  {
    "dt": "2021.01.18 05:00",
    "o": 1.07638,
    "h": 1.0764,
    "l": 1.07601,
    "c": 1.07611,
    "v": 1062
  },
  {
    "dt": "2021.01.18 06:00",
    "o": 1.0761,
    "h": 1.07658,
    "l": 1.0761,
    "c": 1.07654,
    "v": 935
  },
  {
    "dt": "2021.01.18 07:00",
    "o": 1.07653,
    "h": 1.07653,
    "l": 1.07603,
    "c": 1.07649,
    "v": 1409
  },
  {
    "dt": "2021.01.18 08:00",
    "o": 1.07648,
    "h": 1.07675,
    "l": 1.07621,
    "c": 1.07662,
    "v": 1090
  },
  {
    "dt": "2021.01.18 09:00",
    "o": 1.07659,
    "h": 1.07683,
    "l": 1.07611,
    "c": 1.07614,
    "v": 1795
  },
  {
    "dt": "2021.01.18 10:00",
    "o": 1.07613,
    "h": 1.07649,
    "l": 1.07591,
    "c": 1.07636,
    "v": 2352
  },
  {
    "dt": "2021.01.18 11:00",
    "o": 1.07637,
    "h": 1.07688,
    "l": 1.07512,
    "c": 1.0752,
    "v": 2279
  },
  {
    "dt": "2021.01.18 12:00",
    "o": 1.07514,
    "h": 1.07602,
    "l": 1.07484,
    "c": 1.07485,
    "v": 1974
  },
  {
    "dt": "2021.01.18 13:00",
    "o": 1.07486,
    "h": 1.07527,
    "l": 1.07383,
    "c": 1.07434,
    "v": 2019
  },
  {
    "dt": "2021.01.18 14:00",
    "o": 1.07432,
    "h": 1.0747,
    "l": 1.07417,
    "c": 1.07446,
    "v": 1796
  },
  {
    "dt": "2021.01.18 15:00",
    "o": 1.07445,
    "h": 1.0755,
    "l": 1.07433,
    "c": 1.07528,
    "v": 1684
  },
  {
    "dt": "2021.01.18 16:00",
    "o": 1.07529,
    "h": 1.07572,
    "l": 1.07512,
    "c": 1.07539,
    "v": 1485
  },
  {
    "dt": "2021.01.18 17:00",
    "o": 1.07535,
    "h": 1.07597,
    "l": 1.07491,
    "c": 1.0752,
    "v": 1719
  },
  {
    "dt": "2021.01.18 18:00",
    "o": 1.0752,
    "h": 1.07573,
    "l": 1.07517,
    "c": 1.07555,
    "v": 1541
  },
  {
    "dt": "2021.01.18 19:00",
    "o": 1.07554,
    "h": 1.07607,
    "l": 1.07546,
    "c": 1.07606,
    "v": 1103
  },
  {
    "dt": "2021.01.18 20:00",
    "o": 1.07607,
    "h": 1.07607,
    "l": 1.0756,
    "c": 1.07566,
    "v": 804
  },
  {
    "dt": "2021.01.18 21:00",
    "o": 1.07565,
    "h": 1.07598,
    "l": 1.07565,
    "c": 1.07584,
    "v": 1306
  },
  {
    "dt": "2021.01.18 22:00",
    "o": 1.07584,
    "h": 1.07594,
    "l": 1.07573,
    "c": 1.07578,
    "v": 715
  },
  {
    "dt": "2021.01.18 23:00",
    "o": 1.07578,
    "h": 1.07619,
    "l": 1.07531,
    "c": 1.07539,
    "v": 1478
  },
  {
    "dt": "2021.01.19 00:00",
    "o": 1.0755,
    "h": 1.07564,
    "l": 1.07532,
    "c": 1.07564,
    "v": 130
  },
  {
    "dt": "2021.01.19 01:00",
    "o": 1.07564,
    "h": 1.07597,
    "l": 1.07564,
    "c": 1.07596,
    "v": 611
  },
  {
    "dt": "2021.01.19 02:00",
    "o": 1.07595,
    "h": 1.07661,
    "l": 1.07591,
    "c": 1.0765,
    "v": 1229
  },
  {
    "dt": "2021.01.19 03:00",
    "o": 1.07648,
    "h": 1.0771,
    "l": 1.07648,
    "c": 1.07677,
    "v": 1329
  },
  {
    "dt": "2021.01.19 04:00",
    "o": 1.07678,
    "h": 1.07719,
    "l": 1.07669,
    "c": 1.0771,
    "v": 1066
  },
  {
    "dt": "2021.01.19 05:00",
    "o": 1.0771,
    "h": 1.07741,
    "l": 1.07701,
    "c": 1.07736,
    "v": 828
  },
  {
    "dt": "2021.01.19 06:00",
    "o": 1.07735,
    "h": 1.07753,
    "l": 1.07732,
    "c": 1.07744,
    "v": 421
  },
  {
    "dt": "2021.01.19 07:00",
    "o": 1.07743,
    "h": 1.07761,
    "l": 1.07734,
    "c": 1.07759,
    "v": 899
  },
  {
    "dt": "2021.01.19 08:00",
    "o": 1.0776,
    "h": 1.07763,
    "l": 1.07728,
    "c": 1.07735,
    "v": 1058
  },
  {
    "dt": "2021.01.19 09:00",
    "o": 1.07736,
    "h": 1.07803,
    "l": 1.07694,
    "c": 1.07752,
    "v": 1911
  },
  {
    "dt": "2021.01.19 10:00",
    "o": 1.07753,
    "h": 1.07773,
    "l": 1.07649,
    "c": 1.07709,
    "v": 2573
  },
  {
    "dt": "2021.01.19 11:00",
    "o": 1.0771,
    "h": 1.07726,
    "l": 1.07601,
    "c": 1.07614,
    "v": 2377
  },
  {
    "dt": "2021.01.19 12:00",
    "o": 1.07615,
    "h": 1.0767,
    "l": 1.07553,
    "c": 1.07583,
    "v": 2504
  },
  {
    "dt": "2021.01.19 13:00",
    "o": 1.07583,
    "h": 1.07701,
    "l": 1.07583,
    "c": 1.07681,
    "v": 1935
  },
  {
    "dt": "2021.01.19 14:00",
    "o": 1.07688,
    "h": 1.07727,
    "l": 1.07651,
    "c": 1.07675,
    "v": 1881
  },
  {
    "dt": "2021.01.19 15:00",
    "o": 1.07678,
    "h": 1.07691,
    "l": 1.07592,
    "c": 1.07678,
    "v": 2345
  },
  {
    "dt": "2021.01.19 16:00",
    "o": 1.07681,
    "h": 1.07734,
    "l": 1.07661,
    "c": 1.07686,
    "v": 2361
  },
  {
    "dt": "2021.01.19 17:00",
    "o": 1.07689,
    "h": 1.07737,
    "l": 1.0764,
    "c": 1.07734,
    "v": 2573
  },
  {
    "dt": "2021.01.19 18:00",
    "o": 1.07735,
    "h": 1.07758,
    "l": 1.07677,
    "c": 1.07753,
    "v": 2328
  },
  {
    "dt": "2021.01.19 19:00",
    "o": 1.07754,
    "h": 1.0777,
    "l": 1.07713,
    "c": 1.07745,
    "v": 1639
  },
  {
    "dt": "2021.01.19 20:00",
    "o": 1.07745,
    "h": 1.07785,
    "l": 1.07715,
    "c": 1.0777,
    "v": 1872
  },
  {
    "dt": "2021.01.19 21:00",
    "o": 1.07771,
    "h": 1.07801,
    "l": 1.07735,
    "c": 1.07735,
    "v": 1537
  },
  {
    "dt": "2021.01.19 22:00",
    "o": 1.07738,
    "h": 1.07775,
    "l": 1.07738,
    "c": 1.07751,
    "v": 1206
  },
  {
    "dt": "2021.01.19 23:00",
    "o": 1.07747,
    "h": 1.07776,
    "l": 1.07732,
    "c": 1.07762,
    "v": 1001
  },
  {
    "dt": "2021.01.20 00:00",
    "o": 1.07737,
    "h": 1.07765,
    "l": 1.07688,
    "c": 1.07728,
    "v": 288
  },
  {
    "dt": "2021.01.20 01:00",
    "o": 1.07732,
    "h": 1.07803,
    "l": 1.07729,
    "c": 1.07798,
    "v": 947
  },
  {
    "dt": "2021.01.20 02:00",
    "o": 1.07798,
    "h": 1.07809,
    "l": 1.07769,
    "c": 1.07789,
    "v": 1416
  },
  {
    "dt": "2021.01.20 03:00",
    "o": 1.07789,
    "h": 1.07798,
    "l": 1.0777,
    "c": 1.07776,
    "v": 1108
  },
  {
    "dt": "2021.01.20 04:00",
    "o": 1.07776,
    "h": 1.07814,
    "l": 1.07773,
    "c": 1.07791,
    "v": 1070
  },
  {
    "dt": "2021.01.20 05:00",
    "o": 1.07792,
    "h": 1.07805,
    "l": 1.07776,
    "c": 1.07797,
    "v": 815
  },
  {
    "dt": "2021.01.20 06:00",
    "o": 1.07796,
    "h": 1.07805,
    "l": 1.07767,
    "c": 1.07794,
    "v": 836
  },
  {
    "dt": "2021.01.20 07:00",
    "o": 1.07792,
    "h": 1.07819,
    "l": 1.07791,
    "c": 1.07816,
    "v": 904
  },
  {
    "dt": "2021.01.20 08:00",
    "o": 1.07816,
    "h": 1.07887,
    "l": 1.07813,
    "c": 1.07881,
    "v": 1185
  },
  {
    "dt": "2021.01.20 09:00",
    "o": 1.07882,
    "h": 1.07916,
    "l": 1.07824,
    "c": 1.07858,
    "v": 1752
  },
  {
    "dt": "2021.01.20 10:00",
    "o": 1.07856,
    "h": 1.07889,
    "l": 1.07684,
    "c": 1.07761,
    "v": 2638
  },
  {
    "dt": "2021.01.20 11:00",
    "o": 1.07761,
    "h": 1.07808,
    "l": 1.07693,
    "c": 1.07757,
    "v": 2612
  },
  {
    "dt": "2021.01.20 12:00",
    "o": 1.07757,
    "h": 1.07807,
    "l": 1.07724,
    "c": 1.0777,
    "v": 2277
  },
  {
    "dt": "2021.01.20 13:00",
    "o": 1.07771,
    "h": 1.07805,
    "l": 1.07747,
    "c": 1.07754,
    "v": 1891
  },
  {
    "dt": "2021.01.20 14:00",
    "o": 1.07755,
    "h": 1.07783,
    "l": 1.07729,
    "c": 1.07736,
    "v": 2057
  },
  {
    "dt": "2021.01.20 15:00",
    "o": 1.07736,
    "h": 1.07798,
    "l": 1.07722,
    "c": 1.07765,
    "v": 2505
  },
  {
    "dt": "2021.01.20 16:00",
    "o": 1.07767,
    "h": 1.0781,
    "l": 1.07704,
    "c": 1.07733,
    "v": 2531
  },
  {
    "dt": "2021.01.20 17:00",
    "o": 1.07731,
    "h": 1.07817,
    "l": 1.07664,
    "c": 1.07763,
    "v": 2881
  },
  {
    "dt": "2021.01.20 18:00",
    "o": 1.07766,
    "h": 1.07781,
    "l": 1.077,
    "c": 1.07751,
    "v": 2186
  },
  {
    "dt": "2021.01.20 19:00",
    "o": 1.0775,
    "h": 1.07782,
    "l": 1.07735,
    "c": 1.0777,
    "v": 1662
  },
  {
    "dt": "2021.01.20 20:00",
    "o": 1.07769,
    "h": 1.07776,
    "l": 1.07734,
    "c": 1.07747,
    "v": 1166
  },
  {
    "dt": "2021.01.20 21:00",
    "o": 1.07747,
    "h": 1.07748,
    "l": 1.077,
    "c": 1.07722,
    "v": 1082
  },
  {
    "dt": "2021.01.20 22:00",
    "o": 1.07722,
    "h": 1.07725,
    "l": 1.07659,
    "c": 1.07675,
    "v": 1257
  },
  {
    "dt": "2021.01.20 23:00",
    "o": 1.07677,
    "h": 1.07712,
    "l": 1.07669,
    "c": 1.07694,
    "v": 1041
  },
  {
    "dt": "2021.01.21 00:00",
    "o": 1.07666,
    "h": 1.07694,
    "l": 1.07642,
    "c": 1.07674,
    "v": 168
  },
  {
    "dt": "2021.01.21 01:00",
    "o": 1.07676,
    "h": 1.07734,
    "l": 1.07674,
    "c": 1.07733,
    "v": 747
  },
  {
    "dt": "2021.01.21 02:00",
    "o": 1.07733,
    "h": 1.07764,
    "l": 1.07703,
    "c": 1.07761,
    "v": 923
  },
  {
    "dt": "2021.01.21 03:00",
    "o": 1.07759,
    "h": 1.07785,
    "l": 1.07755,
    "c": 1.0776,
    "v": 1310
  },
  {
    "dt": "2021.01.21 04:00",
    "o": 1.07761,
    "h": 1.0779,
    "l": 1.07759,
    "c": 1.07773,
    "v": 867
  },
  {
    "dt": "2021.01.21 05:00",
    "o": 1.07775,
    "h": 1.07789,
    "l": 1.07759,
    "c": 1.07783,
    "v": 1015
  },
  {
    "dt": "2021.01.21 06:00",
    "o": 1.07783,
    "h": 1.07807,
    "l": 1.07783,
    "c": 1.07797,
    "v": 765
  },
  {
    "dt": "2021.01.21 07:00",
    "o": 1.07796,
    "h": 1.07829,
    "l": 1.07796,
    "c": 1.07822,
    "v": 799
  },
  {
    "dt": "2021.01.21 08:00",
    "o": 1.07823,
    "h": 1.07829,
    "l": 1.07795,
    "c": 1.07805,
    "v": 981
  },
  {
    "dt": "2021.01.21 09:00",
    "o": 1.07802,
    "h": 1.07854,
    "l": 1.07768,
    "c": 1.07795,
    "v": 1791
  },
  {
    "dt": "2021.01.21 10:00",
    "o": 1.07798,
    "h": 1.078,
    "l": 1.07555,
    "c": 1.07635,
    "v": 2519
  },
  {
    "dt": "2021.01.21 11:00",
    "o": 1.07635,
    "h": 1.07741,
    "l": 1.07594,
    "c": 1.07739,
    "v": 2285
  },
  {
    "dt": "2021.01.21 12:00",
    "o": 1.0774,
    "h": 1.07757,
    "l": 1.07664,
    "c": 1.07734,
    "v": 1782
  },
  {
    "dt": "2021.01.21 13:00",
    "o": 1.07734,
    "h": 1.07751,
    "l": 1.07622,
    "c": 1.07642,
    "v": 1783
  },
  {
    "dt": "2021.01.21 14:00",
    "o": 1.07642,
    "h": 1.07729,
    "l": 1.07636,
    "c": 1.07669,
    "v": 2629
  },
  {
    "dt": "2021.01.21 15:00",
    "o": 1.0767,
    "h": 1.07783,
    "l": 1.07661,
    "c": 1.07766,
    "v": 3806
  },
  {
    "dt": "2021.01.21 16:00",
    "o": 1.07767,
    "h": 1.07824,
    "l": 1.07593,
    "c": 1.07616,
    "v": 3119
  },
  {
    "dt": "2021.01.21 17:00",
    "o": 1.07616,
    "h": 1.07702,
    "l": 1.07615,
    "c": 1.07675,
    "v": 2737
  },
  {
    "dt": "2021.01.21 18:00",
    "o": 1.07671,
    "h": 1.07694,
    "l": 1.07621,
    "c": 1.07694,
    "v": 2124
  },
  {
    "dt": "2021.01.21 19:00",
    "o": 1.07694,
    "h": 1.07704,
    "l": 1.07639,
    "c": 1.07668,
    "v": 1530
  },
  {
    "dt": "2021.01.21 20:00",
    "o": 1.07669,
    "h": 1.07688,
    "l": 1.07637,
    "c": 1.07651,
    "v": 1270
  },
  {
    "dt": "2021.01.21 21:00",
    "o": 1.07651,
    "h": 1.07677,
    "l": 1.07638,
    "c": 1.07639,
    "v": 1298
  },
  {
    "dt": "2021.01.21 22:00",
    "o": 1.0764,
    "h": 1.07704,
    "l": 1.07637,
    "c": 1.0768,
    "v": 1082
  },
  {
    "dt": "2021.01.21 23:00",
    "o": 1.07681,
    "h": 1.07713,
    "l": 1.07673,
    "c": 1.07695,
    "v": 982
  },
  {
    "dt": "2021.01.22 00:00",
    "o": 1.07644,
    "h": 1.07672,
    "l": 1.0764,
    "c": 1.07664,
    "v": 209
  },
  {
    "dt": "2021.01.22 01:00",
    "o": 1.0767,
    "h": 1.07714,
    "l": 1.07664,
    "c": 1.07702,
    "v": 1017
  },
  {
    "dt": "2021.01.22 02:00",
    "o": 1.07702,
    "h": 1.07741,
    "l": 1.07681,
    "c": 1.07708,
    "v": 1121
  },
  {
    "dt": "2021.01.22 03:00",
    "o": 1.07709,
    "h": 1.07747,
    "l": 1.07692,
    "c": 1.07744,
    "v": 1314
  },
  {
    "dt": "2021.01.22 04:00",
    "o": 1.07743,
    "h": 1.07745,
    "l": 1.07699,
    "c": 1.0773,
    "v": 1214
  },
  {
    "dt": "2021.01.22 05:00",
    "o": 1.0773,
    "h": 1.0773,
    "l": 1.0768,
    "c": 1.07717,
    "v": 656
  },
  {
    "dt": "2021.01.22 06:00",
    "o": 1.07717,
    "h": 1.07726,
    "l": 1.07707,
    "c": 1.07707,
    "v": 549
  },
  {
    "dt": "2021.01.22 07:00",
    "o": 1.07708,
    "h": 1.07721,
    "l": 1.07699,
    "c": 1.07717,
    "v": 666
  },
  {
    "dt": "2021.01.22 08:00",
    "o": 1.07718,
    "h": 1.07718,
    "l": 1.07682,
    "c": 1.07683,
    "v": 1093
  },
  {
    "dt": "2021.01.22 09:00",
    "o": 1.07682,
    "h": 1.07697,
    "l": 1.0762,
    "c": 1.07636,
    "v": 1947
  },
  {
    "dt": "2021.01.22 10:00",
    "o": 1.07632,
    "h": 1.07745,
    "l": 1.07632,
    "c": 1.07713,
    "v": 2839
  },
  {
    "dt": "2021.01.22 11:00",
    "o": 1.07713,
    "h": 1.0776,
    "l": 1.07685,
    "c": 1.07715,
    "v": 2987
  },
  {
    "dt": "2021.01.22 12:00",
    "o": 1.07716,
    "h": 1.07728,
    "l": 1.07675,
    "c": 1.07695,
    "v": 1814
  },
  {
    "dt": "2021.01.22 13:00",
    "o": 1.07694,
    "h": 1.07781,
    "l": 1.07694,
    "c": 1.07747,
    "v": 1940
  },
  {
    "dt": "2021.01.22 14:00",
    "o": 1.07745,
    "h": 1.07758,
    "l": 1.07664,
    "c": 1.07737,
    "v": 2169
  },
  {
    "dt": "2021.01.22 15:00",
    "o": 1.07737,
    "h": 1.07758,
    "l": 1.07685,
    "c": 1.07756,
    "v": 2169
  },
  {
    "dt": "2021.01.22 16:00",
    "o": 1.07755,
    "h": 1.07786,
    "l": 1.07717,
    "c": 1.07726,
    "v": 2457
  },
  {
    "dt": "2021.01.22 17:00",
    "o": 1.07729,
    "h": 1.07782,
    "l": 1.0772,
    "c": 1.0777,
    "v": 2788
  },
  {
    "dt": "2021.01.22 18:00",
    "o": 1.0777,
    "h": 1.07821,
    "l": 1.07738,
    "c": 1.07811,
    "v": 2267
  },
  {
    "dt": "2021.01.22 19:00",
    "o": 1.07811,
    "h": 1.07835,
    "l": 1.07752,
    "c": 1.07787,
    "v": 2356
  },
  {
    "dt": "2021.01.22 20:00",
    "o": 1.07785,
    "h": 1.07807,
    "l": 1.07771,
    "c": 1.07783,
    "v": 1729
  },
  {
    "dt": "2021.01.22 21:00",
    "o": 1.07784,
    "h": 1.07812,
    "l": 1.07773,
    "c": 1.07808,
    "v": 1745
  },
  {
    "dt": "2021.01.22 22:00",
    "o": 1.07799,
    "h": 1.07804,
    "l": 1.07729,
    "c": 1.07739,
    "v": 1122
  },
  {
    "dt": "2021.01.22 23:00",
    "o": 1.0774,
    "h": 1.07744,
    "l": 1.07697,
    "c": 1.07717,
    "v": 1001
  },
  {
    "dt": "2021.01.25 00:00",
    "o": 1.07717,
    "h": 1.07735,
    "l": 1.07661,
    "c": 1.07708,
    "v": 293
  },
  {
    "dt": "2021.01.25 01:00",
    "o": 1.07723,
    "h": 1.0775,
    "l": 1.0769,
    "c": 1.07743,
    "v": 1156
  },
  {
    "dt": "2021.01.25 02:00",
    "o": 1.07741,
    "h": 1.07775,
    "l": 1.0772,
    "c": 1.07722,
    "v": 1184
  },
  {
    "dt": "2021.01.25 03:00",
    "o": 1.07722,
    "h": 1.07766,
    "l": 1.07717,
    "c": 1.0775,
    "v": 1497
  },
  {
    "dt": "2021.01.25 04:00",
    "o": 1.0775,
    "h": 1.07782,
    "l": 1.07745,
    "c": 1.07759,
    "v": 1144
  },
  {
    "dt": "2021.01.25 05:00",
    "o": 1.07759,
    "h": 1.07786,
    "l": 1.07759,
    "c": 1.07769,
    "v": 839
  },
  {
    "dt": "2021.01.25 06:00",
    "o": 1.07769,
    "h": 1.0779,
    "l": 1.07766,
    "c": 1.07783,
    "v": 649
  },
  {
    "dt": "2021.01.25 07:00",
    "o": 1.07783,
    "h": 1.07794,
    "l": 1.07767,
    "c": 1.07786,
    "v": 928
  },
  {
    "dt": "2021.01.25 08:00",
    "o": 1.07786,
    "h": 1.07812,
    "l": 1.07775,
    "c": 1.0781,
    "v": 1084
  },
  {
    "dt": "2021.01.25 09:00",
    "o": 1.07808,
    "h": 1.07811,
    "l": 1.07769,
    "c": 1.07786,
    "v": 1763
  },
  {
    "dt": "2021.01.25 10:00",
    "o": 1.07785,
    "h": 1.07874,
    "l": 1.07757,
    "c": 1.07811,
    "v": 2573
  },
  {
    "dt": "2021.01.25 11:00",
    "o": 1.07812,
    "h": 1.07834,
    "l": 1.0774,
    "c": 1.0776,
    "v": 2728
  },
  {
    "dt": "2021.01.25 12:00",
    "o": 1.07759,
    "h": 1.07801,
    "l": 1.07739,
    "c": 1.07758,
    "v": 2312
  },
  {
    "dt": "2021.01.25 13:00",
    "o": 1.07759,
    "h": 1.07782,
    "l": 1.07729,
    "c": 1.07741,
    "v": 1799
  },
  {
    "dt": "2021.01.25 14:00",
    "o": 1.07741,
    "h": 1.07772,
    "l": 1.07695,
    "c": 1.07746,
    "v": 2015
  },
  {
    "dt": "2021.01.25 15:00",
    "o": 1.07747,
    "h": 1.07779,
    "l": 1.07688,
    "c": 1.07754,
    "v": 2011
  },
  {
    "dt": "2021.01.25 16:00",
    "o": 1.0775,
    "h": 1.07806,
    "l": 1.07708,
    "c": 1.07729,
    "v": 2688
  },
  {
    "dt": "2021.01.25 17:00",
    "o": 1.07728,
    "h": 1.07801,
    "l": 1.07692,
    "c": 1.07782,
    "v": 3095
  },
  {
    "dt": "2021.01.25 18:00",
    "o": 1.07785,
    "h": 1.07827,
    "l": 1.07748,
    "c": 1.07805,
    "v": 2986
  },
  {
    "dt": "2021.01.25 19:00",
    "o": 1.07806,
    "h": 1.07848,
    "l": 1.07781,
    "c": 1.07838,
    "v": 2003
  },
  {
    "dt": "2021.01.25 20:00",
    "o": 1.07838,
    "h": 1.07854,
    "l": 1.07816,
    "c": 1.07817,
    "v": 1364
  },
  {
    "dt": "2021.01.25 21:00",
    "o": 1.07816,
    "h": 1.07829,
    "l": 1.07795,
    "c": 1.078,
    "v": 1227
  },
  {
    "dt": "2021.01.25 22:00",
    "o": 1.07806,
    "h": 1.07832,
    "l": 1.07803,
    "c": 1.07813,
    "v": 1114
  },
  {
    "dt": "2021.01.25 23:00",
    "o": 1.07812,
    "h": 1.07835,
    "l": 1.07801,
    "c": 1.07825,
    "v": 872
  },
  {
    "dt": "2021.01.26 00:00",
    "o": 1.07792,
    "h": 1.07817,
    "l": 1.07767,
    "c": 1.07793,
    "v": 692
  },
  {
    "dt": "2021.01.26 01:00",
    "o": 1.07797,
    "h": 1.07835,
    "l": 1.07792,
    "c": 1.07825,
    "v": 628
  },
  {
    "dt": "2021.01.26 02:00",
    "o": 1.07826,
    "h": 1.07837,
    "l": 1.07797,
    "c": 1.07801,
    "v": 883
  },
  {
    "dt": "2021.01.26 03:00",
    "o": 1.07802,
    "h": 1.07826,
    "l": 1.07798,
    "c": 1.07825,
    "v": 1280
  },
  {
    "dt": "2021.01.26 04:00",
    "o": 1.07823,
    "h": 1.07848,
    "l": 1.0781,
    "c": 1.07837,
    "v": 1170
  },
  {
    "dt": "2021.01.26 05:00",
    "o": 1.07836,
    "h": 1.07861,
    "l": 1.07817,
    "c": 1.07823,
    "v": 1007
  },
  {
    "dt": "2021.01.26 06:00",
    "o": 1.07822,
    "h": 1.07824,
    "l": 1.07783,
    "c": 1.07806,
    "v": 1008
  },
  {
    "dt": "2021.01.26 07:00",
    "o": 1.07806,
    "h": 1.07809,
    "l": 1.07791,
    "c": 1.07803,
    "v": 1046
  },
  {
    "dt": "2021.01.26 08:00",
    "o": 1.07804,
    "h": 1.07808,
    "l": 1.07774,
    "c": 1.07791,
    "v": 1178
  },
  {
    "dt": "2021.01.26 09:00",
    "o": 1.07789,
    "h": 1.07814,
    "l": 1.07695,
    "c": 1.07714,
    "v": 2198
  },
  {
    "dt": "2021.01.26 10:00",
    "o": 1.0772,
    "h": 1.0784,
    "l": 1.07717,
    "c": 1.0784,
    "v": 2693
  },
  {
    "dt": "2021.01.26 11:00",
    "o": 1.0784,
    "h": 1.07864,
    "l": 1.07803,
    "c": 1.07842,
    "v": 2638
  },
  {
    "dt": "2021.01.26 12:00",
    "o": 1.07841,
    "h": 1.0786,
    "l": 1.07794,
    "c": 1.07846,
    "v": 2119
  },
  {
    "dt": "2021.01.26 13:00",
    "o": 1.07847,
    "h": 1.07916,
    "l": 1.0781,
    "c": 1.07852,
    "v": 1990
  },
  {
    "dt": "2021.01.26 14:00",
    "o": 1.07852,
    "h": 1.07927,
    "l": 1.07841,
    "c": 1.07882,
    "v": 2428
  },
  {
    "dt": "2021.01.26 15:00",
    "o": 1.07882,
    "h": 1.0794,
    "l": 1.07865,
    "c": 1.07922,
    "v": 2430
  },
  {
    "dt": "2021.01.26 16:00",
    "o": 1.07922,
    "h": 1.07952,
    "l": 1.07885,
    "c": 1.07891,
    "v": 2815
  },
  {
    "dt": "2021.01.26 17:00",
    "o": 1.07893,
    "h": 1.07992,
    "l": 1.07891,
    "c": 1.07947,
    "v": 3443
  },
  {
    "dt": "2021.01.26 18:00",
    "o": 1.07951,
    "h": 1.07954,
    "l": 1.07849,
    "c": 1.07863,
    "v": 2519
  },
  {
    "dt": "2021.01.26 19:00",
    "o": 1.07863,
    "h": 1.07884,
    "l": 1.07833,
    "c": 1.07849,
    "v": 1811
  },
  {
    "dt": "2021.01.26 20:00",
    "o": 1.07848,
    "h": 1.07869,
    "l": 1.07839,
    "c": 1.07868,
    "v": 1249
  },
  {
    "dt": "2021.01.26 21:00",
    "o": 1.07869,
    "h": 1.07872,
    "l": 1.07839,
    "c": 1.07844,
    "v": 1169
  },
  {
    "dt": "2021.01.26 22:00",
    "o": 1.07845,
    "h": 1.07848,
    "l": 1.07819,
    "c": 1.07822,
    "v": 1333
  },
  {
    "dt": "2021.01.26 23:00",
    "o": 1.07822,
    "h": 1.07833,
    "l": 1.078,
    "c": 1.0782,
    "v": 1293
  },
  {
    "dt": "2021.01.27 00:00",
    "o": 1.0783,
    "h": 1.0783,
    "l": 1.07795,
    "c": 1.07826,
    "v": 176
  },
  {
    "dt": "2021.01.27 01:00",
    "o": 1.07824,
    "h": 1.07842,
    "l": 1.07806,
    "c": 1.07836,
    "v": 685
  },
  {
    "dt": "2021.01.27 02:00",
    "o": 1.07836,
    "h": 1.07842,
    "l": 1.07823,
    "c": 1.07834,
    "v": 1095
  },
  {
    "dt": "2021.01.27 03:00",
    "o": 1.07833,
    "h": 1.07847,
    "l": 1.07807,
    "c": 1.0781,
    "v": 1277
  },
  {
    "dt": "2021.01.27 04:00",
    "o": 1.07814,
    "h": 1.07815,
    "l": 1.07794,
    "c": 1.07799,
    "v": 780
  },
  {
    "dt": "2021.01.27 05:00",
    "o": 1.07798,
    "h": 1.07813,
    "l": 1.0779,
    "c": 1.07808,
    "v": 725
  },
  {
    "dt": "2021.01.27 06:00",
    "o": 1.07808,
    "h": 1.07808,
    "l": 1.0779,
    "c": 1.07797,
    "v": 521
  },
  {
    "dt": "2021.01.27 07:00",
    "o": 1.07796,
    "h": 1.07811,
    "l": 1.07794,
    "c": 1.07795,
    "v": 602
  },
  {
    "dt": "2021.01.27 08:00",
    "o": 1.07796,
    "h": 1.07822,
    "l": 1.07793,
    "c": 1.07818,
    "v": 904
  },
  {
    "dt": "2021.01.27 09:00",
    "o": 1.07815,
    "h": 1.07818,
    "l": 1.07758,
    "c": 1.07761,
    "v": 1540
  },
  {
    "dt": "2021.01.27 10:00",
    "o": 1.07761,
    "h": 1.07783,
    "l": 1.07717,
    "c": 1.07779,
    "v": 2558
  },
  {
    "dt": "2021.01.27 11:00",
    "o": 1.07778,
    "h": 1.0778,
    "l": 1.07651,
    "c": 1.07692,
    "v": 3056
  },
  {
    "dt": "2021.01.27 12:00",
    "o": 1.07691,
    "h": 1.07711,
    "l": 1.07612,
    "c": 1.07662,
    "v": 2269
  },
  {
    "dt": "2021.01.27 13:00",
    "o": 1.0766,
    "h": 1.07679,
    "l": 1.07595,
    "c": 1.0764,
    "v": 2594
  },
  {
    "dt": "2021.01.27 14:00",
    "o": 1.07639,
    "h": 1.07662,
    "l": 1.07602,
    "c": 1.07612,
    "v": 2692
  },
  {
    "dt": "2021.01.27 15:00",
    "o": 1.07613,
    "h": 1.07656,
    "l": 1.07564,
    "c": 1.07618,
    "v": 2993
  },
  {
    "dt": "2021.01.27 16:00",
    "o": 1.07618,
    "h": 1.07628,
    "l": 1.07499,
    "c": 1.07512,
    "v": 3731
  },
  {
    "dt": "2021.01.27 17:00",
    "o": 1.07513,
    "h": 1.07571,
    "l": 1.07494,
    "c": 1.07539,
    "v": 4054
  },
  {
    "dt": "2021.01.27 18:00",
    "o": 1.07539,
    "h": 1.07589,
    "l": 1.07509,
    "c": 1.07566,
    "v": 2907
  },
  {
    "dt": "2021.01.27 19:00",
    "o": 1.07566,
    "h": 1.07606,
    "l": 1.07539,
    "c": 1.07602,
    "v": 2634
  },
  {
    "dt": "2021.01.27 20:00",
    "o": 1.07602,
    "h": 1.07631,
    "l": 1.07567,
    "c": 1.07578,
    "v": 1864
  },
  {
    "dt": "2021.01.27 21:00",
    "o": 1.07579,
    "h": 1.07638,
    "l": 1.07579,
    "c": 1.07597,
    "v": 3354
  },
  {
    "dt": "2021.01.27 22:00",
    "o": 1.07598,
    "h": 1.07615,
    "l": 1.07567,
    "c": 1.07584,
    "v": 2861
  },
  {
    "dt": "2021.01.27 23:00",
    "o": 1.07588,
    "h": 1.07633,
    "l": 1.07565,
    "c": 1.07614,
    "v": 2157
  },
  {
    "dt": "2021.01.28 00:00",
    "o": 1.0759,
    "h": 1.07625,
    "l": 1.07565,
    "c": 1.07579,
    "v": 226
  },
  {
    "dt": "2021.01.28 01:00",
    "o": 1.07567,
    "h": 1.07631,
    "l": 1.07567,
    "c": 1.07616,
    "v": 1150
  },
  {
    "dt": "2021.01.28 02:00",
    "o": 1.07615,
    "h": 1.07627,
    "l": 1.07553,
    "c": 1.07571,
    "v": 1918
  },
  {
    "dt": "2021.01.28 03:00",
    "o": 1.0757,
    "h": 1.07628,
    "l": 1.07554,
    "c": 1.07619,
    "v": 1781
  },
  {
    "dt": "2021.01.28 04:00",
    "o": 1.0762,
    "h": 1.0763,
    "l": 1.0756,
    "c": 1.07572,
    "v": 1452
  },
  {
    "dt": "2021.01.28 05:00",
    "o": 1.0757,
    "h": 1.0757,
    "l": 1.07529,
    "c": 1.07539,
    "v": 1357
  },
  {
    "dt": "2021.01.28 06:00",
    "o": 1.07539,
    "h": 1.07549,
    "l": 1.07512,
    "c": 1.07549,
    "v": 1169
  },
  {
    "dt": "2021.01.28 07:00",
    "o": 1.07546,
    "h": 1.07575,
    "l": 1.07521,
    "c": 1.07569,
    "v": 1360
  },
  {
    "dt": "2021.01.28 08:00",
    "o": 1.07568,
    "h": 1.07573,
    "l": 1.07525,
    "c": 1.07569,
    "v": 1161
  },
  {
    "dt": "2021.01.28 09:00",
    "o": 1.07568,
    "h": 1.07614,
    "l": 1.07517,
    "c": 1.07588,
    "v": 2470
  },
  {
    "dt": "2021.01.28 10:00",
    "o": 1.07593,
    "h": 1.07687,
    "l": 1.07583,
    "c": 1.07678,
    "v": 3165
  },
  {
    "dt": "2021.01.28 11:00",
    "o": 1.07678,
    "h": 1.07736,
    "l": 1.07673,
    "c": 1.07713,
    "v": 2919
  },
  {
    "dt": "2021.01.28 12:00",
    "o": 1.07711,
    "h": 1.0778,
    "l": 1.07703,
    "c": 1.07714,
    "v": 2781
  },
  {
    "dt": "2021.01.28 13:00",
    "o": 1.07716,
    "h": 1.07783,
    "l": 1.07705,
    "c": 1.07751,
    "v": 2487
  },
  {
    "dt": "2021.01.28 14:00",
    "o": 1.07753,
    "h": 1.07814,
    "l": 1.07747,
    "c": 1.07793,
    "v": 2460
  },
  {
    "dt": "2021.01.28 15:00",
    "o": 1.07791,
    "h": 1.07838,
    "l": 1.07755,
    "c": 1.07831,
    "v": 3283
  },
  {
    "dt": "2021.01.28 16:00",
    "o": 1.07828,
    "h": 1.07885,
    "l": 1.07717,
    "c": 1.07726,
    "v": 3767
  },
  {
    "dt": "2021.01.28 17:00",
    "o": 1.07725,
    "h": 1.07731,
    "l": 1.07637,
    "c": 1.07695,
    "v": 3927
  },
  {
    "dt": "2021.01.28 18:00",
    "o": 1.07696,
    "h": 1.07757,
    "l": 1.07677,
    "c": 1.07713,
    "v": 2884
  },
  {
    "dt": "2021.01.28 19:00",
    "o": 1.07714,
    "h": 1.07736,
    "l": 1.07671,
    "c": 1.07694,
    "v": 2417
  },
  {
    "dt": "2021.01.28 20:00",
    "o": 1.07694,
    "h": 1.07718,
    "l": 1.07671,
    "c": 1.07718,
    "v": 1983
  },
  {
    "dt": "2021.01.28 21:00",
    "o": 1.07719,
    "h": 1.07719,
    "l": 1.07683,
    "c": 1.07689,
    "v": 1743
  },
  {
    "dt": "2021.01.28 22:00",
    "o": 1.07689,
    "h": 1.07713,
    "l": 1.07683,
    "c": 1.07699,
    "v": 1620
  },
  {
    "dt": "2021.01.28 23:00",
    "o": 1.07703,
    "h": 1.07716,
    "l": 1.07672,
    "c": 1.07706,
    "v": 1274
  },
  {
    "dt": "2021.01.29 00:00",
    "o": 1.07686,
    "h": 1.07691,
    "l": 1.07657,
    "c": 1.07669,
    "v": 330
  },
  {
    "dt": "2021.01.29 01:00",
    "o": 1.07674,
    "h": 1.07709,
    "l": 1.07674,
    "c": 1.07694,
    "v": 873
  },
  {
    "dt": "2021.01.29 02:00",
    "o": 1.07694,
    "h": 1.07704,
    "l": 1.07651,
    "c": 1.07679,
    "v": 1616
  },
  {
    "dt": "2021.01.29 03:00",
    "o": 1.07677,
    "h": 1.07699,
    "l": 1.07655,
    "c": 1.07671,
    "v": 1388
  },
  {
    "dt": "2021.01.29 04:00",
    "o": 1.07671,
    "h": 1.07681,
    "l": 1.07649,
    "c": 1.07667,
    "v": 1032
  },
  {
    "dt": "2021.01.29 05:00",
    "o": 1.07666,
    "h": 1.07672,
    "l": 1.07636,
    "c": 1.0765,
    "v": 1107
  },
  {
    "dt": "2021.01.29 06:00",
    "o": 1.07648,
    "h": 1.07657,
    "l": 1.07636,
    "c": 1.0765,
    "v": 1196
  },
  {
    "dt": "2021.01.29 07:00",
    "o": 1.07651,
    "h": 1.07651,
    "l": 1.07596,
    "c": 1.07612,
    "v": 1198
  },
  {
    "dt": "2021.01.29 08:00",
    "o": 1.07611,
    "h": 1.07647,
    "l": 1.076,
    "c": 1.07606,
    "v": 1125
  },
  {
    "dt": "2021.01.29 09:00",
    "o": 1.07605,
    "h": 1.07658,
    "l": 1.07596,
    "c": 1.07642,
    "v": 2204
  },
  {
    "dt": "2021.01.29 10:00",
    "o": 1.07644,
    "h": 1.07725,
    "l": 1.07603,
    "c": 1.07691,
    "v": 3124
  },
  {
    "dt": "2021.01.29 11:00",
    "o": 1.07688,
    "h": 1.078,
    "l": 1.07681,
    "c": 1.0775,
    "v": 3026
  },
  {
    "dt": "2021.01.29 12:00",
    "o": 1.07751,
    "h": 1.07805,
    "l": 1.07711,
    "c": 1.078,
    "v": 2923
  },
  {
    "dt": "2021.01.29 13:00",
    "o": 1.07799,
    "h": 1.07851,
    "l": 1.07788,
    "c": 1.07794,
    "v": 2524
  },
  {
    "dt": "2021.01.29 14:00",
    "o": 1.07795,
    "h": 1.07885,
    "l": 1.07779,
    "c": 1.07856,
    "v": 2699
  },
  {
    "dt": "2021.01.29 15:00",
    "o": 1.07855,
    "h": 1.08004,
    "l": 1.0783,
    "c": 1.07856,
    "v": 4142
  },
  {
    "dt": "2021.01.29 16:00",
    "o": 1.07855,
    "h": 1.07936,
    "l": 1.0784,
    "c": 1.07936,
    "v": 3251
  },
  {
    "dt": "2021.01.29 17:00",
    "o": 1.07934,
    "h": 1.08076,
    "l": 1.07913,
    "c": 1.08053,
    "v": 3694
  },
  {
    "dt": "2021.01.29 18:00",
    "o": 1.08053,
    "h": 1.0808,
    "l": 1.07987,
    "c": 1.08065,
    "v": 3305
  },
  {
    "dt": "2021.01.29 19:00",
    "o": 1.08065,
    "h": 1.08092,
    "l": 1.0798,
    "c": 1.08032,
    "v": 2761
  },
  {
    "dt": "2021.01.29 20:00",
    "o": 1.08031,
    "h": 1.08091,
    "l": 1.08007,
    "c": 1.08011,
    "v": 2288
  },
  {
    "dt": "2021.01.29 21:00",
    "o": 1.08009,
    "h": 1.08051,
    "l": 1.07998,
    "c": 1.08051,
    "v": 2354
  },
  {
    "dt": "2021.01.29 22:00",
    "o": 1.08049,
    "h": 1.08091,
    "l": 1.08023,
    "c": 1.08081,
    "v": 1966
  },
  {
    "dt": "2021.01.29 23:00",
    "o": 1.08082,
    "h": 1.0812,
    "l": 1.08072,
    "c": 1.08104,
    "v": 1408
  }
]