[
  {
    "dt": "2021.02.01 00:00",
    "o": 1.07942,
    "h": 1.07958,
    "l": 1.07911,
    "c": 1.07943,
    "v": 401
  },
  {
    "dt": "2021.02.01 01:00",
    "o": 1.07944,
    "h": 1.08105,
    "l": 1.07925,
    "c": 1.08064,
    "v": 1909
  },
  {
    "dt": "2021.02.01 02:00",
    "o": 1.08062,
    "h": 1.08086,
    "l": 1.0805,
    "c": 1.08052,
    "v": 1363
  },
  {
    "dt": "2021.02.01 03:00",
    "o": 1.08053,
    "h": 1.08099,
    "l": 1.08052,
    "c": 1.08069,
    "v": 1637
  },
  {
    "dt": "2021.02.01 04:00",
    "o": 1.08069,
    "h": 1.08147,
    "l": 1.08068,
    "c": 1.08146,
    "v": 1040
  },
  {
    "dt": "2021.02.01 05:00",
    "o": 1.08147,
    "h": 1.08179,
    "l": 1.08139,
    "c": 1.08148,
    "v": 1172
  },
  {
    "dt": "2021.02.01 06:00",
    "o": 1.08147,
    "h": 1.08176,
    "l": 1.08139,
    "c": 1.08159,
    "v": 987
  },
  {
    "dt": "2021.02.01 07:00",
    "o": 1.08158,
    "h": 1.08166,
    "l": 1.08139,
    "c": 1.08162,
    "v": 1003
  },
  {
    "dt": "2021.02.01 08:00",
    "o": 1.08163,
    "h": 1.08174,
    "l": 1.08116,
    "c": 1.08133,
    "v": 837
  },
  {
    "dt": "2021.02.01 09:00",
    "o": 1.08133,
    "h": 1.08175,
    "l": 1.08113,
    "c": 1.08165,
    "v": 1776
  },
  {
    "dt": "2021.02.01 10:00",
    "o": 1.08163,
    "h": 1.08241,
    "l": 1.08083,
    "c": 1.08204,
    "v": 3354
  },
  {
    "dt": "2021.02.01 11:00",
    "o": 1.08199,
    "h": 1.08248,
    "l": 1.08171,
    "c": 1.08205,
    "v": 2941
  },
  {
    "dt": "2021.02.01 12:00",
    "o": 1.08205,
    "h": 1.08246,
    "l": 1.08117,
    "c": 1.08189,
    "v": 2759
  },
  {
    "dt": "2021.02.01 13:00",
    "o": 1.08189,
    "h": 1.08241,
    "l": 1.08125,
    "c": 1.08145,
    "v": 2327
  },
  {
    "dt": "2021.02.01 14:00",
    "o": 1.08146,
    "h": 1.08196,
    "l": 1.08103,
    "c": 1.08113,
    "v": 2525
  },
  {
    "dt": "2021.02.01 15:00",
    "o": 1.08112,
    "h": 1.08258,
    "l": 1.08109,
    "c": 1.08242,
    "v": 2541
  },
  {
    "dt": "2021.02.01 16:00",
    "o": 1.08244,
    "h": 1.08265,
    "l": 1.08185,
    "c": 1.08187,
    "v": 3132
  },
  {
    "dt": "2021.02.01 17:00",
    "o": 1.082,
    "h": 1.08233,
    "l": 1.08086,
    "c": 1.08219,
    "v": 3480
  },
  {
    "dt": "2021.02.01 18:00",
    "o": 1.08221,
    "h": 1.08236,
    "l": 1.08166,
    "c": 1.082,
    "v": 2487
  },
  {
    "dt": "2021.02.01 19:00",
    "o": 1.08201,
    "h": 1.08214,
    "l": 1.08159,
    "c": 1.08188,
    "v": 1958
  },
  {
    "dt": "2021.02.01 20:00",
    "o": 1.08187,
    "h": 1.08206,
    "l": 1.08172,
    "c": 1.08203,
    "v": 1809
  },
  {
    "dt": "2021.02.01 21:00",
    "o": 1.08203,
    "h": 1.08235,
    "l": 1.08198,
    "c": 1.0821,
    "v": 1733
  },
  {
    "dt": "2021.02.01 22:00",
    "o": 1.08206,
    "h": 1.08218,
    "l": 1.08158,
    "c": 1.08172,
    "v": 2248
  },
  {
    "dt": "2021.02.01 23:00",
    "o": 1.08172,
    "h": 1.08188,
    "l": 1.08145,
    "c": 1.08178,
    "v": 1125
  },
  {
    "dt": "2021.02.02 00:00",
    "o": 1.08139,
    "h": 1.08176,
    "l": 1.08134,
    "c": 1.08165,
    "v": 227
  },
  {
    "dt": "2021.02.02 01:00",
    "o": 1.08164,
    "h": 1.08199,
    "l": 1.08159,
    "c": 1.08185,
    "v": 1070
  },
  {
    "dt": "2021.02.02 02:00",
    "o": 1.08185,
    "h": 1.08217,
    "l": 1.08175,
    "c": 1.08213,
    "v": 1040
  },
  {
    "dt": "2021.02.02 03:00",
    "o": 1.08212,
    "h": 1.08252,
    "l": 1.08193,
    "c": 1.08248,
    "v": 1339
  },
  {
    "dt": "2021.02.02 04:00",
    "o": 1.0825,
    "h": 1.08263,
    "l": 1.0823,
    "c": 1.0825,
    "v": 1032
  },
  {
    "dt": "2021.02.02 05:00",
    "o": 1.0825,
    "h": 1.08267,
    "l": 1.0824,
    "c": 1.0826,
    "v": 1281
  },
  {
    "dt": "2021.02.02 06:00",
    "o": 1.08261,
    "h": 1.08282,
    "l": 1.08254,
    "c": 1.08272,
    "v": 643
  },
  {
    "dt": "2021.02.02 07:00",
    "o": 1.08271,
    "h": 1.08282,
    "l": 1.08254,
    "c": 1.08274,
    "v": 943
  },
  {
    "dt": "2021.02.02 08:00",
    "o": 1.08274,
    "h": 1.08281,
    "l": 1.08237,
    "c": 1.08245,
    "v": 932
  },
  {
    "dt": "2021.02.02 09:00",
    "o": 1.08244,
    "h": 1.08304,
    "l": 1.08227,
    "c": 1.08291,
    "v": 1852
  },
  {
    "dt": "2021.02.02 10:00",
    "o": 1.08294,
    "h": 1.0832,
    "l": 1.0811,
    "c": 1.08154,
    "v": 2866
  },
  {
    "dt": "2021.02.02 11:00",
    "o": 1.08154,
    "h": 1.08165,
    "l": 1.08092,
    "c": 1.08134,
    "v": 2195
  },
  {
    "dt": "2021.02.02 12:00",
    "o": 1.08133,
    "h": 1.08148,
    "l": 1.0801,
    "c": 1.08055,
    "v": 2914
  },
  {
    "dt": "2021.02.02 13:00",
    "o": 1.08057,
    "h": 1.08085,
    "l": 1.07982,
    "c": 1.08037,
    "v": 2299
  },
  {
    "dt": "2021.02.02 14:00",
    "o": 1.08038,
    "h": 1.0808,
    "l": 1.08006,
    "c": 1.08008,
    "v": 2274
  },
  {
    "dt": "2021.02.02 15:00",
    "o": 1.0801,
    "h": 1.08119,
    "l": 1.07998,
    "c": 1.08085,
    "v": 2763
  },
  {
    "dt": "2021.02.02 16:00",
    "o": 1.08092,
    "h": 1.0817,
    "l": 1.08074,
    "c": 1.08125,
    "v": 3355
  },
  {
    "dt": "2021.02.02 17:00",
    "o": 1.08128,
    "h": 1.08148,
    "l": 1.08074,
    "c": 1.08097,
    "v": 3088
  },
  {
    "dt": "2021.02.02 18:00",
    "o": 1.08096,
    "h": 1.08108,
    "l": 1.0802,
    "c": 1.08022,
    "v": 2398
  },
  {
    "dt": "2021.02.02 19:00",
    "o": 1.08023,
    "h": 1.08065,
    "l": 1.08003,
    "c": 1.08018,
    "v": 2525
  },
  {
    "dt": "2021.02.02 20:00",
    "o": 1.08018,
    "h": 1.08045,
    "l": 1.08013,
    "c": 1.0802,
    "v": 1767
  },
  {
    "dt": "2021.02.02 21:00",
    "o": 1.0802,
    "h": 1.08038,
    "l": 1.08006,
    "c": 1.08012,
    "v": 1379
  },
  {
    "dt": "2021.02.02 22:00",
    "o": 1.08012,
    "h": 1.08088,
    "l": 1.08004,
    "c": 1.08068,
    "v": 1659
  },
  {
    "dt": "2021.02.02 23:00",
    "o": 1.08068,
    "h": 1.08112,
    "l": 1.0806,
    "c": 1.08074,
    "v": 1263
  },
  {
    "dt": "2021.02.03 00:00",
    "o": 1.08048,
    "h": 1.08082,
    "l": 1.08048,
    "c": 1.08062,
    "v": 207
  },
  {
    "dt": "2021.02.03 01:00",
    "o": 1.08063,
    "h": 1.0812,
    "l": 1.08057,
    "c": 1.08075,
    "v": 999
  },
  {
    "dt": "2021.02.03 02:00",
    "o": 1.08076,
    "h": 1.08117,
    "l": 1.08066,
    "c": 1.08089,
    "v": 996
  },
  {
    "dt": "2021.02.03 03:00",
    "o": 1.08091,
    "h": 1.081,
    "l": 1.08074,
    "c": 1.08079,
    "v": 1220
  },
  {
    "dt": "2021.02.03 04:00",
    "o": 1.08079,
    "h": 1.08108,
    "l": 1.08073,
    "c": 1.08104,
    "v": 845
  },
  {
    "dt": "2021.02.03 05:00",
    "o": 1.08104,
    "h": 1.08109,
    "l": 1.0809,
    "c": 1.08096,
    "v": 868
  },
  {
    "dt": "2021.02.03 06:00",
    "o": 1.08096,
    "h": 1.08116,
    "l": 1.08093,
    "c": 1.08113,
    "v": 663
  },
  {
    "dt": "2021.02.03 07:00",
    "o": 1.08114,
    "h": 1.08125,
    "l": 1.08099,
    "c": 1.08112,
    "v": 679
  },
  {
    "dt": "2021.02.03 08:00",
    "o": 1.08113,
    "h": 1.0813,
    "l": 1.08105,
    "c": 1.08122,
    "v": 799
  },
  {
    "dt": "2021.02.03 09:00",
    "o": 1.08126,
    "h": 1.08129,
    "l": 1.08051,
    "c": 1.08094,
    "v": 1783
  },
  {
    "dt": "2021.02.03 10:00",
    "o": 1.08097,
    "h": 1.08181,
    "l": 1.08094,
    "c": 1.08119,
    "v": 2132
  },
  {
    "dt": "2021.02.03 11:00",
    "o": 1.0812,
    "h": 1.08145,
    "l": 1.08024,
    "c": 1.08055,
    "v": 2568
  },
  {
    "dt": "2021.02.03 12:00",
    "o": 1.08057,
    "h": 1.08116,
    "l": 1.08042,
    "c": 1.08062,
    "v": 2151
  },
  {
    "dt": "2021.02.03 13:00",
    "o": 1.08062,
    "h": 1.08077,
    "l": 1.08008,
    "c": 1.08012,
    "v": 1409
  },
  {
    "dt": "2021.02.03 14:00",
    "o": 1.08011,
    "h": 1.08052,
    "l": 1.07993,
    "c": 1.07998,
    "v": 2565
  },
  {
    "dt": "2021.02.03 15:00",
    "o": 1.07998,
    "h": 1.08027,
    "l": 1.0795,
    "c": 1.07998,
    "v": 2532
  },
  {
    "dt": "2021.02.03 16:00",
    "o": 1.07994,
    "h": 1.08156,
    "l": 1.07978,
    "c": 1.0813,
    "v": 3137
  },
  {
    "dt": "2021.02.03 17:00",
    "o": 1.08124,
    "h": 1.08147,
    "l": 1.0803,
    "c": 1.08044,
    "v": 3249
  },
  {
    "dt": "2021.02.03 18:00",
    "o": 1.08048,
    "h": 1.08134,
    "l": 1.08044,
    "c": 1.08129,
    "v": 2495
  },
  {
    "dt": "2021.02.03 19:00",
    "o": 1.08131,
    "h": 1.08158,
    "l": 1.08109,
    "c": 1.08145,
    "v": 1959
  },
  {
    "dt": "2021.02.03 20:00",
    "o": 1.08146,
    "h": 1.08161,
    "l": 1.08129,
    "c": 1.08159,
    "v": 1516
  },
  {
    "dt": "2021.02.03 21:00",
    "o": 1.08158,
    "h": 1.08162,
    "l": 1.08131,
    "c": 1.08139,
    "v": 1200
  },
  {
    "dt": "2021.02.03 22:00",
    "o": 1.08141,
    "h": 1.08168,
    "l": 1.08125,
    "c": 1.08157,
    "v": 1967
  },
  {
    "dt": "2021.02.03 23:00",
    "o": 1.08157,
    "h": 1.08187,
    "l": 1.08149,
    "c": 1.08187,
    "v": 972
  },
  {
    "dt": "2021.02.04 00:00",
    "o": 1.08186,
    "h": 1.08192,
    "l": 1.08137,
    "c": 1.08167,
    "v": 192
  },
  {
    "dt": "2021.02.04 01:00",
    "o": 1.08175,
    "h": 1.08199,
    "l": 1.08157,
    "c": 1.08175,
    "v": 838
  },
  {
    "dt": "2021.02.04 02:00",
    "o": 1.08174,
    "h": 1.08199,
    "l": 1.08167,
    "c": 1.08184,
    "v": 956
  },
  {
    "dt": "2021.02.04 03:00",
    "o": 1.08185,
    "h": 1.0821,
    "l": 1.08176,
    "c": 1.08207,
    "v": 1548
  },
  {
    "dt": "2021.02.04 04:00",
    "o": 1.08206,
    "h": 1.0821,
    "l": 1.08183,
    "c": 1.08197,
    "v": 1367
  },
  {
    "dt": "2021.02.04 05:00",
    "o": 1.08199,
    "h": 1.08208,
    "l": 1.08138,
    "c": 1.0815,
    "v": 1206
  },
  {
    "dt": "2021.02.04 06:00",
    "o": 1.08149,
    "h": 1.08163,
    "l": 1.08139,
    "c": 1.08149,
    "v": 755
  },
  {
    "dt": "2021.02.04 07:00",
    "o": 1.08146,
    "h": 1.08162,
    "l": 1.08133,
    "c": 1.08143,
    "v": 1065
  },
  {
    "dt": "2021.02.04 08:00",
    "o": 1.08142,
    "h": 1.08158,
    "l": 1.0812,
    "c": 1.08157,
    "v": 982
  },
  {
    "dt": "2021.02.04 09:00",
    "o": 1.08157,
    "h": 1.08169,
    "l": 1.08107,
    "c": 1.08127,
    "v": 2044
  },
  {
    "dt": "2021.02.04 10:00",
    "o": 1.08126,
    "h": 1.08202,
    "l": 1.081,
    "c": 1.08198,
    "v": 2733
  },
  {
    "dt": "2021.02.04 11:00",
    "o": 1.08197,
    "h": 1.08198,
    "l": 1.08113,
    "c": 1.08141,
    "v": 2341
  },
  {
    "dt": "2021.02.04 12:00",
    "o": 1.0814,
    "h": 1.08154,
    "l": 1.08095,
    "c": 1.0814,
    "v": 1716
  },
  {
    "dt": "2021.02.04 13:00",
    "o": 1.08141,
    "h": 1.08192,
    "l": 1.08125,
    "c": 1.08173,
    "v": 1587
  },
  {
    "dt": "2021.02.04 14:00",
    "o": 1.08174,
    "h": 1.08199,
    "l": 1.0815,
    "c": 1.08174,
    "v": 2248
  },
  {
    "dt": "2021.02.04 15:00",
    "o": 1.08177,
    "h": 1.08188,
    "l": 1.08144,
    "c": 1.08149,
    "v": 2138
  },
  {
    "dt": "2021.02.04 16:00",
    "o": 1.08152,
    "h": 1.08224,
    "l": 1.08145,
    "c": 1.08175,
    "v": 2138
  },
  {
    "dt": "2021.02.04 17:00",
    "o": 1.08176,
    "h": 1.08206,
    "l": 1.08143,
    "c": 1.08188,
    "v": 2487
  },
  {
    "dt": "2021.02.04 18:00",
    "o": 1.08187,
    "h": 1.08196,
    "l": 1.08127,
    "c": 1.08139,
    "v": 1903
  },
  {
    "dt": "2021.02.04 19:00",
    "o": 1.08138,
    "h": 1.08157,
    "l": 1.08097,
    "c": 1.0811,
    "v": 1534
  },
  {
    "dt": "2021.02.04 20:00",
    "o": 1.08108,
    "h": 1.08143,
    "l": 1.08102,
    "c": 1.0811,
    "v": 1181
  },
  {
    "dt": "2021.02.04 21:00",
    "o": 1.0811,
    "h": 1.08175,
    "l": 1.08097,
    "c": 1.08169,
    "v": 1159
  },
  {
    "dt": "2021.02.04 22:00",
    "o": 1.0817,
    "h": 1.0817,
    "l": 1.08134,
    "c": 1.08166,
    "v": 1049
  },
  {
    "dt": "2021.02.04 23:00",
    "o": 1.08167,
    "h": 1.08185,
    "l": 1.0815,
    "c": 1.08166,
    "v": 907
  },
  {
    "dt": "2021.02.05 00:00",
    "o": 1.08118,
    "h": 1.08166,
    "l": 1.08104,
    "c": 1.0816,
    "v": 475
  },
  {
    "dt": "2021.02.05 01:00",
    "o": 1.08169,
    "h": 1.08181,
    "l": 1.08149,
    "c": 1.08172,
    "v": 709
  },
  {
    "dt": "2021.02.05 02:00",
    "o": 1.08171,
    "h": 1.08189,
    "l": 1.08158,
    "c": 1.08163,
    "v": 848
  },
  {
    "dt": "2021.02.05 03:00",
    "o": 1.08163,
    "h": 1.08171,
    "l": 1.08138,
    "c": 1.08139,
    "v": 1075
  },
  {
    "dt": "2021.02.05 04:00",
    "o": 1.08141,
    "h": 1.08155,
    "l": 1.08109,
    "c": 1.08111,
    "v": 938
  },
  {
    "dt": "2021.02.05 05:00",
    "o": 1.08112,
    "h": 1.08121,
    "l": 1.08105,
    "c": 1.08106,
    "v": 637
  },
  {
    "dt": "2021.02.05 06:00",
    "o": 1.08107,
    "h": 1.08118,
    "l": 1.08104,
    "c": 1.08109,
    "v": 646
  },
  {
    "dt": "2021.02.05 07:00",
    "o": 1.08111,
    "h": 1.08124,
    "l": 1.08101,
    "c": 1.0812,
    "v": 827
  },
  {
    "dt": "2021.02.05 08:00",
    "o": 1.08121,
    "h": 1.08142,
    "l": 1.08113,
    "c": 1.08128,
    "v": 585
  },
  {
    "dt": "2021.02.05 09:00",
    "o": 1.08132,
    "h": 1.08142,
    "l": 1.081,
    "c": 1.08117,
    "v": 1115
  },
  {
    "dt": "2021.02.05 10:00",
    "o": 1.08121,
    "h": 1.08153,
    "l": 1.08077,
    "c": 1.08104,
    "v": 2362
  },
  {
    "dt": "2021.02.05 11:00",
    "o": 1.08104,
    "h": 1.08146,
    "l": 1.08067,
    "c": 1.08136,
    "v": 1769
  },
  {
    "dt": "2021.02.05 12:00",
    "o": 1.08135,
    "h": 1.08162,
    "l": 1.08102,
    "c": 1.08116,
    "v": 1487
  },
  {
    "dt": "2021.02.05 13:00",
    "o": 1.08117,
    "h": 1.0823,
    "l": 1.08097,
    "c": 1.08228,
    "v": 1539
  },
  {
    "dt": "2021.02.05 14:00",
    "o": 1.08226,
    "h": 1.08242,
    "l": 1.08191,
    "c": 1.08242,
    "v": 1927
  },
  {
    "dt": "2021.02.05 15:00",
    "o": 1.08242,
    "h": 1.08291,
    "l": 1.08196,
    "c": 1.08271,
    "v": 3071
  },
  {
    "dt": "2021.02.05 16:00",
    "o": 1.08271,
    "h": 1.08328,
    "l": 1.08217,
    "c": 1.08252,
    "v": 2925
  },
  {
    "dt": "2021.02.05 17:00",
    "o": 1.08253,
    "h": 1.08327,
    "l": 1.08223,
    "c": 1.08258,
    "v": 2545
  },
  {
    "dt": "2021.02.05 18:00",
    "o": 1.08268,
    "h": 1.08285,
    "l": 1.08222,
    "c": 1.08266,
    "v": 1969
  },
  {
    "dt": "2021.02.05 19:00",
    "o": 1.08265,
    "h": 1.0832,
    "l": 1.08247,
    "c": 1.08316,
    "v": 1798
  },
  {
    "dt": "2021.02.05 20:00",
    "o": 1.08314,
    "h": 1.08343,
    "l": 1.08314,
    "c": 1.08325,
    "v": 1387
  },
  {
    "dt": "2021.02.05 21:00",
    "o": 1.08325,
    "h": 1.08338,
    "l": 1.08294,
    "c": 1.08337,
    "v": 990
  },
  {
    "dt": "2021.02.05 22:00",
    "o": 1.08338,
    "h": 1.08339,
    "l": 1.08302,
    "c": 1.08326,
    "v": 948
  },
  {
    "dt": "2021.02.05 23:00",
    "o": 1.08325,
    "h": 1.08339,
    "l": 1.08287,
    "c": 1.08305,
    "v": 1030
  },
  {
    "dt": "2021.02.08 00:00",
    "o": 1.08225,
    "h": 1.08249,
    "l": 1.082,
    "c": 1.08223,
    "v": 202
  },
  {
    "dt": "2021.02.08 01:00",
    "o": 1.08226,
    "h": 1.08321,
    "l": 1.08226,
    "c": 1.08313,
    "v": 1512
  },
  {
    "dt": "2021.02.08 02:00",
    "o": 1.08315,
    "h": 1.0836,
    "l": 1.0831,
    "c": 1.08327,
    "v": 1553
  },
  {
    "dt": "2021.02.08 03:00",
    "o": 1.0833,
    "h": 1.08349,
    "l": 1.08311,
    "c": 1.08318,
    "v": 839
  },
  {
    "dt": "2021.02.08 04:00",
    "o": 1.08318,
    "h": 1.0834,
    "l": 1.0831,
    "c": 1.08334,
    "v": 735
  },
  {
    "dt": "2021.02.08 05:00",
    "o": 1.08332,
    "h": 1.08333,
    "l": 1.08291,
    "c": 1.08311,
    "v": 650
  },
  {
    "dt": "2021.02.08 06:00",
    "o": 1.08312,
    "h": 1.08312,
    "l": 1.08286,
    "c": 1.08293,
    "v": 589
  },
  {
    "dt": "2021.02.08 07:00",
    "o": 1.08293,
    "h": 1.08316,
    "l": 1.08293,
    "c": 1.08298,
    "v": 667
  },
  {
    "dt": "2021.02.08 08:00",
    "o": 1.08298,
    "h": 1.08316,
    "l": 1.08268,
    "c": 1.08312,
    "v": 529
  },
  {
    "dt": "2021.02.08 09:00",
    "o": 1.08312,
    "h": 1.08339,
    "l": 1.0829,
    "c": 1.08334,
    "v": 1068
  },
  {
    "dt": "2021.02.08 10:00",
    "o": 1.08335,
    "h": 1.08385,
    "l": 1.08294,
    "c": 1.08313,
    "v": 1813
  },
  {
    "dt": "2021.02.08 11:00",
    "o": 1.08315,
    "h": 1.08377,
    "l": 1.08299,
    "c": 1.0837,
    "v": 1660
  },
  {
    "dt": "2021.02.08 12:00",
    "o": 1.08368,
    "h": 1.08377,
    "l": 1.08321,
    "c": 1.08338,
    "v": 1612
  },
  {
    "dt": "2021.02.08 13:00",
    "o": 1.08339,
    "h": 1.08366,
    "l": 1.08328,
    "c": 1.08344,
    "v": 1348
  },
  {
    "dt": "2021.02.08 14:00",
    "o": 1.08343,
    "h": 1.08455,
    "l": 1.0834,
    "c": 1.08451,
    "v": 1766
  },
  {
    "dt": "2021.02.08 15:00",
    "o": 1.08453,
    "h": 1.08453,
    "l": 1.0838,
    "c": 1.08398,
    "v": 2179
  },
  {
    "dt": "2021.02.08 16:00",
    "o": 1.08397,
    "h": 1.08407,
    "l": 1.08332,
    "c": 1.08347,
    "v": 2580
  },
  {
    "dt": "2021.02.08 17:00",
    "o": 1.08353,
    "h": 1.08375,
    "l": 1.08282,
    "c": 1.08284,
    "v": 2481
  },
  {
    "dt": "2021.02.08 18:00",
    "o": 1.08285,
    "h": 1.08295,
    "l": 1.08214,
    "c": 1.08233,
    "v": 2080
  },
  {
    "dt": "2021.02.08 19:00",
    "o": 1.08232,
    "h": 1.08279,
    "l": 1.08215,
    "c": 1.08253,
    "v": 1870
  },
  {
    "dt": "2021.02.08 20:00",
    "o": 1.08255,
    "h": 1.08294,
    "l": 1.08244,
    "c": 1.08284,
    "v": 1458
  },
  {
    "dt": "2021.02.08 21:00",
    "o": 1.08285,
    "h": 1.08343,
    "l": 1.08283,
    "c": 1.08328,
    "v": 1345
  },
  {
    "dt": "2021.02.08 22:00",
    "o": 1.08328,
    "h": 1.08328,
    "l": 1.0829,
    "c": 1.08314,
    "v": 1234
  },
  {
    "dt": "2021.02.08 23:00",
    "o": 1.08315,
    "h": 1.08326,
    "l": 1.08292,
    "c": 1.0832,
    "v": 1017
  },
  {
    "dt": "2021.02.09 00:00",
    "o": 1.08228,
    "h": 1.08272,
    "l": 1.08227,
    "c": 1.08243,
    "v": 458
  },
  {
    "dt": "2021.02.09 01:00",
    "o": 1.08254,
    "h": 1.08315,
    "l": 1.08237,
    "c": 1.08303,
    "v": 670
  },
  {
    "dt": "2021.02.09 02:00",
    "o": 1.08302,
    "h": 1.08324,
    "l": 1.08289,
    "c": 1.0831,
    "v": 1039
  },
  {
    "dt": "2021.02.09 03:00",
    "o": 1.0831,
    "h": 1.08317,
    "l": 1.08282,
    "c": 1.08295,
    "v": 1129
  },
  {
    "dt": "2021.02.09 04:00",
    "o": 1.08295,
    "h": 1.08324,
    "l": 1.0827,
    "c": 1.08287,
    "v": 1366
  },
  {
    "dt": "2021.02.09 05:00",
    "o": 1.08288,
    "h": 1.08302,
    "l": 1.08261,
    "c": 1.08271,
    "v": 1026
  },
  {
    "dt": "2021.02.09 06:00",
    "o": 1.0827,
    "h": 1.08281,
    "l": 1.08247,
    "c": 1.0825,
    "v": 717
  },
  {
    "dt": "2021.02.09 07:00",
    "o": 1.08249,
    "h": 1.08262,
    "l": 1.08241,
    "c": 1.08247,
    "v": 738
  },
  {
    "dt": "2021.02.09 08:00",
    "o": 1.08246,
    "h": 1.08261,
    "l": 1.08228,
    "c": 1.08239,
    "v": 931
  },
  {
    "dt": "2021.02.09 09:00",
    "o": 1.08237,
    "h": 1.08256,
    "l": 1.08201,
    "c": 1.08214,
    "v": 1514
  },
  {
    "dt": "2021.02.09 10:00",
    "o": 1.08214,
    "h": 1.08252,
    "l": 1.082,
    "c": 1.08231,
    "v": 2491
  },
  {
    "dt": "2021.02.09 11:00",
    "o": 1.08231,
    "h": 1.08262,
    "l": 1.08186,
    "c": 1.08197,
    "v": 2677
  },
  {
    "dt": "2021.02.09 12:00",
    "o": 1.08196,
    "h": 1.08202,
    "l": 1.08131,
    "c": 1.08148,
    "v": 1980
  },
  {
    "dt": "2021.02.09 13:00",
    "o": 1.08149,
    "h": 1.0816,
    "l": 1.08115,
    "c": 1.08156,
    "v": 1628
  },
  {
    "dt": "2021.02.09 14:00",
    "o": 1.08159,
    "h": 1.08181,
    "l": 1.08143,
    "c": 1.08161,
    "v": 1724
  },
  {
    "dt": "2021.02.09 15:00",
    "o": 1.08161,
    "h": 1.08169,
    "l": 1.08097,
    "c": 1.08116,
    "v": 2403
  },
  {
    "dt": "2021.02.09 16:00",
    "o": 1.08114,
    "h": 1.08135,
    "l": 1.08074,
    "c": 1.08111,
    "v": 2620
  },
  {
    "dt": "2021.02.09 17:00",
    "o": 1.08112,
    "h": 1.08153,
    "l": 1.08041,
    "c": 1.0806,
    "v": 2877
  },
  {
    "dt": "2021.02.09 18:00",
    "o": 1.0806,
    "h": 1.08102,
    "l": 1.08041,
    "c": 1.08092,
    "v": 2007
  },
  {
    "dt": "2021.02.09 19:00",
    "o": 1.08091,
    "h": 1.08095,
    "l": 1.0806,
    "c": 1.08062,
    "v": 2050
  },
  {
    "dt": "2021.02.09 20:00",
    "o": 1.08061,
    "h": 1.08077,
    "l": 1.0804,
    "c": 1.08063,
    "v": 1288
  },
  {
    "dt": "2021.02.09 21:00",
    "o": 1.08068,
    "h": 1.08108,
    "l": 1.0805,
    "c": 1.08087,
    "v": 1665
  },
  {
    "dt": "2021.02.09 22:00",
    "o": 1.08087,
    "h": 1.0812,
    "l": 1.08087,
    "c": 1.0811,
    "v": 964
  },
  {
    "dt": "2021.02.09 23:00",
    "o": 1.08112,
    "h": 1.08139,
    "l": 1.0811,
    "c": 1.08128,
    "v": 678
  },
  {
    "dt": "2021.02.10 00:00",
    "o": 1.08103,
    "h": 1.08137,
    "l": 1.08103,
    "c": 1.0813,
    "v": 331
  },
  {
    "dt": "2021.02.10 01:00",
    "o": 1.08126,
    "h": 1.08146,
    "l": 1.08107,
    "c": 1.0814,
    "v": 634
  },
  {
    "dt": "2021.02.10 02:00",
    "o": 1.08142,
    "h": 1.08148,
    "l": 1.08121,
    "c": 1.08134,
    "v": 909
  },
  {
    "dt": "2021.02.10 03:00",
    "o": 1.08136,
    "h": 1.08159,
    "l": 1.08126,
    "c": 1.08146,
    "v": 994
  },
  {
    "dt": "2021.02.10 04:00",
    "o": 1.08146,
    "h": 1.08183,
    "l": 1.08142,
    "c": 1.08157,
    "v": 1086
  },
  {
    "dt": "2021.02.10 05:00",
    "o": 1.08159,
    "h": 1.08169,
    "l": 1.08104,
    "c": 1.08114,
    "v": 837
  },
  {
    "dt": "2021.02.10 06:00",
    "o": 1.08113,
    "h": 1.08125,
    "l": 1.08108,
    "c": 1.08123,
    "v": 549
  },
  {
    "dt": "2021.02.10 07:00",
    "o": 1.08123,
    "h": 1.08126,
    "l": 1.081,
    "c": 1.08114,
    "v": 727
  },
  {
    "dt": "2021.02.10 08:00",
    "o": 1.08113,
    "h": 1.08121,
    "l": 1.08079,
    "c": 1.08104,
    "v": 829
  },
  {
    "dt": "2021.02.10 09:00",
    "o": 1.08101,
    "h": 1.08111,
    "l": 1.08065,
    "c": 1.08105,
    "v": 1397
  },
  {
    "dt": "2021.02.10 10:00",
    "o": 1.08107,
    "h": 1.08107,
    "l": 1.0801,
    "c": 1.08025,
    "v": 2264
  },
  {
    "dt": "2021.02.10 11:00",
    "o": 1.08025,
    "h": 1.08066,
    "l": 1.07965,
    "c": 1.08049,
    "v": 2438
  },
  {
    "dt": "2021.02.10 12:00",
    "o": 1.0805,
    "h": 1.08058,
    "l": 1.08,
    "c": 1.08017,
    "v": 2010
  },
  {
    "dt": "2021.02.10 13:00",
    "o": 1.08017,
    "h": 1.08061,
    "l": 1.07997,
    "c": 1.08014,
    "v": 1539
  },
  {
    "dt": "2021.02.10 14:00",
    "o": 1.08012,
    "h": 1.08036,
    "l": 1.07996,
    "c": 1.08021,
    "v": 2001
  },
  {
    "dt": "2021.02.10 15:00",
    "o": 1.08024,
    "h": 1.08038,
    "l": 1.07955,
    "c": 1.07975,
    "v": 2599
  },
  {
    "dt": "2021.02.10 16:00",
    "o": 1.07974,
    "h": 1.07994,
    "l": 1.07951,
    "c": 1.07978,
    "v": 2373
  },
  {
    "dt": "2021.02.10 17:00",
    "o": 1.07979,
    "h": 1.08032,
    "l": 1.07966,
    "c": 1.08004,
    "v": 3259
  },
  {
    "dt": "2021.02.10 18:00",
    "o": 1.08005,
    "h": 1.08028,
    "l": 1.07859,
    "c": 1.0787,
    "v": 2485
  },
  {
    "dt": "2021.02.10 19:00",
    "o": 1.07868,
    "h": 1.07947,
    "l": 1.07854,
    "c": 1.07931,
    "v": 2013
  },
  {
    "dt": "2021.02.10 20:00",
    "o": 1.0793,
    "h": 1.07945,
    "l": 1.07918,
    "c": 1.07935,
    "v": 1375
  },
  {
    "dt": "2021.02.10 21:00",
    "o": 1.07935,
    "h": 1.07944,
    "l": 1.07904,
    "c": 1.07916,
    "v": 1300
  },
  {
    "dt": "2021.02.10 22:00",
    "o": 1.07915,
    "h": 1.07915,
    "l": 1.07887,
    "c": 1.07903,
    "v": 1214
  },
  {
    "dt": "2021.02.10 23:00",
    "o": 1.07901,
    "h": 1.07912,
    "l": 1.0787,
    "c": 1.07884,
    "v": 915
  },
  {
    "dt": "2021.02.11 00:00",
    "o": 1.07836,
    "h": 1.07883,
    "l": 1.07836,
    "c": 1.07876,
    "v": 241
  },
  {
    "dt": "2021.02.11 01:00",
    "o": 1.07887,
    "h": 1.07897,
    "l": 1.07861,
    "c": 1.07884,
    "v": 499
  },
  {
    "dt": "2021.02.11 02:00",
    "o": 1.07885,
    "h": 1.07899,
    "l": 1.07881,
    "c": 1.07897,
    "v": 689
  },
  {
    "dt": "2021.02.11 03:00",
    "o": 1.07897,
    "h": 1.07898,
    "l": 1.07857,
    "c": 1.07864,
    "v": 599
  },
  {
    "dt": "2021.02.11 04:00",
    "o": 1.07863,
    "h": 1.07889,
    "l": 1.07858,
    "c": 1.07876,
    "v": 613
  },
  {
    "dt": "2021.02.11 05:00",
    "o": 1.07876,
    "h": 1.07897,
    "l": 1.07876,
    "c": 1.07883,
    "v": 632
  },
  {
    "dt": "2021.02.11 06:00",
    "o": 1.07883,
    "h": 1.079,
    "l": 1.07881,
    "c": 1.07894,
    "v": 488
  },
  {
    "dt": "2021.02.11 07:00",
    "o": 1.07895,
    "h": 1.07911,
    "l": 1.07883,
    "c": 1.07904,
    "v": 707
  },
  {
    "dt": "2021.02.11 08:00",
    "o": 1.07902,
    "h": 1.07926,
    "l": 1.07894,
    "c": 1.07921,
    "v": 394
  },
  {
    "dt": "2021.02.11 09:00",
    "o": 1.07914,
    "h": 1.07942,
    "l": 1.07904,
    "c": 1.07934,
    "v": 876
  },
  {
    "dt": "2021.02.11 10:00",
    "o": 1.07935,
    "h": 1.07957,
    "l": 1.07904,
    "c": 1.0795,
    "v": 1906
  },
  {
    "dt": "2021.02.11 11:00",
    "o": 1.07949,
    "h": 1.07973,
    "l": 1.0792,
    "c": 1.07959,
    "v": 1520
  },
  {
    "dt": "2021.02.11 12:00",
    "o": 1.0796,
    "h": 1.07996,
    "l": 1.07943,
    "c": 1.07947,
    "v": 1061
  },
  {
    "dt": "2021.02.11 13:00",
    "o": 1.07947,
    "h": 1.07969,
    "l": 1.07934,
    "c": 1.07951,
    "v": 1294
  },
  {
    "dt": "2021.02.11 14:00",
    "o": 1.07952,
    "h": 1.07998,
    "l": 1.07952,
    "c": 1.07998,
    "v": 1369
  },
  {
    "dt": "2021.02.11 15:00",
    "o": 1.07998,
    "h": 1.08049,
    "l": 1.07984,
    "c": 1.08039,
    "v": 2072
  },
  {
    "dt": "2021.02.11 16:00",
    "o": 1.08033,
    "h": 1.08057,
    "l": 1.08004,
    "c": 1.0803,
    "v": 2538
  },
  {
    "dt": "2021.02.11 17:00",
    "o": 1.08031,
    "h": 1.08068,
    "l": 1.07986,
    "c": 1.08005,
    "v": 2357
  },
  {
    "dt": "2021.02.11 18:00",
    "o": 1.08004,
    "h": 1.08014,
    "l": 1.0797,
    "c": 1.08002,
    "v": 1948
  },
  {
    "dt": "2021.02.11 19:00",
    "o": 1.08003,
    "h": 1.08025,
    "l": 1.07992,
    "c": 1.07996,
    "v": 2196
  },
  {
    "dt": "2021.02.11 20:00",
    "o": 1.07998,
    "h": 1.0804,
    "l": 1.07984,
    "c": 1.08026,
    "v": 1580
  },
  {
    "dt": "2021.02.11 21:00",
    "o": 1.08025,
    "h": 1.08028,
    "l": 1.07949,
    "c": 1.07954,
    "v": 1406
  },
  {
    "dt": "2021.02.11 22:00",
    "o": 1.07955,
    "h": 1.07971,
    "l": 1.07945,
    "c": 1.0796,
    "v": 843
  },
  {
    "dt": "2021.02.11 23:00",
    "o": 1.07959,
    "h": 1.07964,
    "l": 1.07934,
    "c": 1.07952,
    "v": 633
  },
  {
    "dt": "2021.02.12 00:00",
    "o": 1.07915,
    "h": 1.07969,
    "l": 1.07899,
    "c": 1.07951,
    "v": 306
  },
  {
    "dt": "2021.02.12 01:00",
    "o": 1.07954,
    "h": 1.07974,
    "l": 1.07944,
    "c": 1.07968,
    "v": 488
  },
  {
    "dt": "2021.02.12 02:00",
    "o": 1.07967,
    "h": 1.0798,
    "l": 1.07941,
    "c": 1.07951,
    "v": 665
  },
  {
    "dt": "2021.02.12 03:00",
    "o": 1.0795,
    "h": 1.07968,
    "l": 1.07942,
    "c": 1.07955,
    "v": 706
  },
  {
    "dt": "2021.02.12 04:00",
    "o": 1.07956,
    "h": 1.07967,
    "l": 1.0794,
    "c": 1.07948,
    "v": 809
  },
  {
    "dt": "2021.02.12 05:00",
    "o": 1.07948,
    "h": 1.0795,
    "l": 1.07924,
    "c": 1.07924,
    "v": 652
  },
  {
    "dt": "2021.02.12 06:00",
    "o": 1.07926,
    "h": 1.07955,
    "l": 1.07926,
    "c": 1.07934,
    "v": 757
  },
  {
    "dt": "2021.02.12 07:00",
    "o": 1.07935,
    "h": 1.07983,
    "l": 1.07933,
    "c": 1.07981,
    "v": 701
  },
  {
    "dt": "2021.02.12 08:00",
    "o": 1.07982,
    "h": 1.07983,
    "l": 1.07946,
    "c": 1.07954,
    "v": 671
  },
  {
    "dt": "2021.02.12 09:00",
    "o": 1.07957,
    "h": 1.0796,
    "l": 1.07897,
    "c": 1.07905,
    "v": 1351
  },
  {
    "dt": "2021.02.12 10:00",
    "o": 1.07904,
    "h": 1.07979,
    "l": 1.07867,
    "c": 1.07969,
    "v": 2128
  },
  {
    "dt": "2021.02.12 11:00",
    "o": 1.07967,
    "h": 1.0806,
    "l": 1.0795,
    "c": 1.08039,
    "v": 1837
  },
  {
    "dt": "2021.02.12 12:00",
    "o": 1.08038,
    "h": 1.08085,
    "l": 1.08005,
    "c": 1.08057,
    "v": 1368
  },
  {
    "dt": "2021.02.12 13:00",
    "o": 1.08057,
    "h": 1.08068,
    "l": 1.08008,
    "c": 1.08059,
    "v": 1466
  },
  {
    "dt": "2021.02.12 14:00",
    "o": 1.08056,
    "h": 1.08067,
    "l": 1.0803,
    "c": 1.08046,
    "v": 1143
  },
  {
    "dt": "2021.02.12 15:00",
    "o": 1.08046,
    "h": 1.08048,
    "l": 1.07998,
    "c": 1.08011,
    "v": 1961
  },
  {
    "dt": "2021.02.12 16:00",
    "o": 1.08012,
    "h": 1.08035,
    "l": 1.07983,
    "c": 1.08025,
    "v": 2025
  },
  {
    "dt": "2021.02.12 17:00",
    "o": 1.08024,
    "h": 1.08052,
    "l": 1.07986,
    "c": 1.08049,
    "v": 2087
  },
  {
    "dt": "2021.02.12 18:00",
    "o": 1.08047,
    "h": 1.0807,
    "l": 1.08008,
    "c": 1.08036,
    "v": 1777
  },
  {
    "dt": "2021.02.12 19:00",
    "o": 1.08035,
    "h": 1.08079,
    "l": 1.08035,
    "c": 1.08068,
    "v": 1172
  },
  {
    "dt": "2021.02.12 20:00",
    "o": 1.08069,
    "h": 1.08078,
    "l": 1.08045,
    "c": 1.0807,
    "v": 969
  },
  {
    "dt": "2021.02.12 21:00",
    "o": 1.08071,
    "h": 1.08087,
    "l": 1.08053,
    "c": 1.08084,
    "v": 653
  },
  {
    "dt": "2021.02.12 22:00",
    "o": 1.08085,
    "h": 1.08085,
    "l": 1.08049,
    "c": 1.08069,
    "v": 782
  },
  {
    "dt": "2021.02.12 23:00",
    "o": 1.0807,
    "h": 1.08101,
    "l": 1.08061,
    "c": 1.08081,
    "v": 924
  },
  {
    "dt": "2021.02.15 00:00",
    "o": 1.08069,
    "h": 1.08079,
    "l": 1.07998,
    "c": 1.08058,
    "v": 265
  },
  {
    "dt": "2021.02.15 01:00",
    "o": 1.08031,
    "h": 1.08108,
    "l": 1.08031,
    "c": 1.08099,
    "v": 977
  },
  {
    "dt": "2021.02.15 02:00",
    "o": 1.081,
    "h": 1.08143,
    "l": 1.08095,
    "c": 1.08109,
    "v": 672
  },
  {
    "dt": "2021.02.15 03:00",
    "o": 1.08109,
    "h": 1.08129,
    "l": 1.08088,
    "c": 1.08095,
    "v": 809
  },
  {
    "dt": "2021.02.15 04:00",
    "o": 1.08096,
    "h": 1.08112,
    "l": 1.08077,
    "c": 1.08088,
    "v": 684
  },
  {
    "dt": "2021.02.15 05:00",
    "o": 1.08087,
    "h": 1.08109,
    "l": 1.08077,
    "c": 1.08102,
    "v": 643
  },
  {
    "dt": "2021.02.15 06:00",
    "o": 1.08104,
    "h": 1.08119,
    "l": 1.08083,
    "c": 1.08091,
    "v": 423
  },
  {
    "dt": "2021.02.15 07:00",
    "o": 1.08092,
    "h": 1.08129,
    "l": 1.08087,
    "c": 1.08106,
    "v": 598
  },
  {
    "dt": "2021.02.15 08:00",
    "o": 1.08107,
    "h": 1.08189,
    "l": 1.08106,
    "c": 1.08167,
    "v": 613
  },
  {
    "dt": "2021.02.15 09:00",
    "o": 1.0817,
    "h": 1.08172,
    "l": 1.08126,
    "c": 1.08132,
    "v": 780
  },
  {
    "dt": "2021.02.15 10:00",
    "o": 1.08132,
    "h": 1.08171,
    "l": 1.08119,
    "c": 1.08166,
    "v": 1504
  },
  {
    "dt": "2021.02.15 11:00",
    "o": 1.08168,
    "h": 1.08171,
    "l": 1.0806,
    "c": 1.08068,
    "v": 1365
  },
  {
    "dt": "2021.02.15 12:00",
    "o": 1.08065,
    "h": 1.08101,
    "l": 1.08048,
    "c": 1.08066,
    "v": 985
  },
  {
    "dt": "2021.02.15 13:00",
    "o": 1.08067,
    "h": 1.08077,
    "l": 1.08014,
    "c": 1.08028,
    "v": 778
  },
  {
    "dt": "2021.02.15 14:00",
    "o": 1.08026,
    "h": 1.08066,
    "l": 1.08014,
    "c": 1.08024,
    "v": 1022
  },
  {
    "dt": "2021.02.15 15:00",
    "o": 1.08022,
    "h": 1.08042,
    "l": 1.08013,
    "c": 1.08018,
    "v": 908
  },
  {
    "dt": "2021.02.15 16:00",
    "o": 1.08016,
    "h": 1.0802,
    "l": 1.07947,
    "c": 1.07961,
    "v": 1015
  },
  {
    "dt": "2021.02.15 17:00",
    "o": 1.0796,
    "h": 1.0798,
    "l": 1.07934,
    "c": 1.07947,
    "v": 1067
  },
  {
    "dt": "2021.02.15 18:00",
    "o": 1.07946,
    "h": 1.08002,
    "l": 1.07937,
    "c": 1.07999,
    "v": 1035
  },
  {
    "dt": "2021.02.15 19:00",
    "o": 1.07998,
    "h": 1.08017,
    "l": 1.07964,
    "c": 1.07984,
    "v": 759
  },
  {
    "dt": "2021.02.15 20:00",
    "o": 1.07987,
    "h": 1.08018,
    "l": 1.07967,
    "c": 1.07988,
    "v": 504
  },
  {
    "dt": "2021.02.15 21:00",
    "o": 1.07985,
    "h": 1.07999,
    "l": 1.07965,
    "c": 1.07969,
    "v": 219
  },
  {
    "dt": "2021.02.15 22:00",
    "o": 1.0797,
    "h": 1.07994,
    "l": 1.07944,
    "c": 1.07982,
    "v": 317
  },
  {
    "dt": "2021.02.15 23:00",
    "o": 1.07982,
    "h": 1.07988,
    "l": 1.07929,
    "c": 1.07942,
    "v": 419
  },
  {
    "dt": "2021.02.16 00:00",
    "o": 1.07956,
    "h": 1.07964,
    "l": 1.07886,
    "c": 1.07927,
    "v": 677
  },
  {
    "dt": "2021.02.16 01:00",
    "o": 1.07926,
    "h": 1.07959,
    "l": 1.07923,
    "c": 1.07959,
    "v": 508
  },
  {
    "dt": "2021.02.16 02:00",
    "o": 1.0796,
    "h": 1.0797,
    "l": 1.07909,
    "c": 1.0792,
    "v": 756
  },
  {
    "dt": "2021.02.16 03:00",
    "o": 1.0792,
    "h": 1.07947,
    "l": 1.07904,
    "c": 1.07934,
    "v": 1164
  },
  {
    "dt": "2021.02.16 04:00",
    "o": 1.07938,
    "h": 1.0794,
    "l": 1.07913,
    "c": 1.07929,
    "v": 682
  },
  {
    "dt": "2021.02.16 05:00",
    "o": 1.07927,
    "h": 1.0794,
    "l": 1.07916,
    "c": 1.0793,
    "v": 703
  },
  {
    "dt": "2021.02.16 06:00",
    "o": 1.0793,
    "h": 1.07945,
    "l": 1.07922,
    "c": 1.07927,
    "v": 636
  },
  {
    "dt": "2021.02.16 07:00",
    "o": 1.07927,
    "h": 1.07928,
    "l": 1.07867,
    "c": 1.07882,
    "v": 936
  },
  {
    "dt": "2021.02.16 08:00",
    "o": 1.07881,
    "h": 1.07941,
    "l": 1.0788,
    "c": 1.07914,
    "v": 812
  },
  {
    "dt": "2021.02.16 09:00",
    "o": 1.07911,
    "h": 1.07938,
    "l": 1.07902,
    "c": 1.07922,
    "v": 995
  },
  {
    "dt": "2021.02.16 10:00",
    "o": 1.07921,
    "h": 1.0798,
    "l": 1.0792,
    "c": 1.07945,
    "v": 1713
  },
  {
    "dt": "2021.02.16 11:00",
    "o": 1.07946,
    "h": 1.07976,
    "l": 1.07903,
    "c": 1.07969,
    "v": 1414
  },
  {
    "dt": "2021.02.16 12:00",
    "o": 1.07968,
    "h": 1.08008,
    "l": 1.07947,
    "c": 1.07975,
    "v": 1480
  },
  {
    "dt": "2021.02.16 13:00",
    "o": 1.07975,
    "h": 1.08002,
    "l": 1.07921,
    "c": 1.07993,
    "v": 1454
  },
  {
    "dt": "2021.02.16 14:00",
    "o": 1.07993,
    "h": 1.08021,
    "l": 1.07935,
    "c": 1.07957,
    "v": 1413
  },
  {
    "dt": "2021.02.16 15:00",
    "o": 1.07957,
    "h": 1.08012,
    "l": 1.07956,
    "c": 1.07977,
    "v": 2964
  },
  {
    "dt": "2021.02.16 16:00",
    "o": 1.07976,
    "h": 1.08024,
    "l": 1.07961,
    "c": 1.07995,
    "v": 3202
  },
  {
    "dt": "2021.02.16 17:00",
    "o": 1.07996,
    "h": 1.08025,
    "l": 1.07985,
    "c": 1.08,
    "v": 2716
  },
  {
    "dt": "2021.02.16 18:00",
    "o": 1.07999,
    "h": 1.08029,
    "l": 1.07985,
    "c": 1.08026,
    "v": 2106
  },
  {
    "dt": "2021.02.16 19:00",
    "o": 1.08025,
    "h": 1.08071,
    "l": 1.08012,
    "c": 1.08047,
    "v": 2064
  },
  {
    "dt": "2021.02.16 20:00",
    "o": 1.08048,
    "h": 1.0806,
    "l": 1.08028,
    "c": 1.08038,
    "v": 1101
  },
  {
    "dt": "2021.02.16 21:00",
    "o": 1.08038,
    "h": 1.08054,
    "l": 1.08028,
    "c": 1.08038,
    "v": 992
  },
  {
    "dt": "2021.02.16 22:00",
    "o": 1.08035,
    "h": 1.08068,
    "l": 1.08033,
    "c": 1.08044,
    "v": 608
  },
  {
    "dt": "2021.02.16 23:00",
    "o": 1.08043,
    "h": 1.08063,
    "l": 1.08026,
    "c": 1.0805,
    "v": 667
  },
  {
    "dt": "2021.02.17 00:00",
    "o": 1.07971,
    "h": 1.08024,
    "l": 1.07959,
    "c": 1.07995,
    "v": 449
  },
  {
    "dt": "2021.02.17 01:00",
    "o": 1.07987,
    "h": 1.08079,
    "l": 1.07987,
    "c": 1.08008,
    "v": 1209
  },
  {
    "dt": "2021.02.17 02:00",
    "o": 1.0801,
    "h": 1.08029,
    "l": 1.07987,
    "c": 1.08013,
    "v": 1111
  },
  {
    "dt": "2021.02.17 03:00",
    "o": 1.08012,
    "h": 1.08022,
    "l": 1.07985,
    "c": 1.07989,
    "v": 1134
  },
  {
    "dt": "2021.02.17 04:00",
    "o": 1.0799,
    "h": 1.07999,
    "l": 1.07971,
    "c": 1.07986,
    "v": 1038
  },
  {
    "dt": "2021.02.17 05:00",
    "o": 1.07986,
    "h": 1.08002,
    "l": 1.07976,
    "c": 1.07993,
    "v": 962
  },
  {
    "dt": "2021.02.17 06:00",
    "o": 1.07991,
    "h": 1.07996,
    "l": 1.07973,
    "c": 1.07982,
    "v": 995
  },
  {
    "dt": "2021.02.17 07:00",
    "o": 1.07983,
    "h": 1.07992,
    "l": 1.07968,
    "c": 1.07979,
    "v": 1122
  },
  {
    "dt": "2021.02.17 08:00",
    "o": 1.07982,
    "h": 1.07997,
    "l": 1.0797,
    "c": 1.07972,
    "v": 1125
  },
  {
    "dt": "2021.02.17 09:00",
    "o": 1.07966,
    "h": 1.08084,
    "l": 1.07944,
    "c": 1.08057,
    "v": 1872
  },
  {
    "dt": "2021.02.17 10:00",
    "o": 1.08059,
    "h": 1.08107,
    "l": 1.08027,
    "c": 1.08047,
    "v": 2457
  },
  {
    "dt": "2021.02.17 11:00",
    "o": 1.08045,
    "h": 1.08095,
    "l": 1.07982,
    "c": 1.07982,
    "v": 2307
  },
  {
    "dt": "2021.02.17 12:00",
    "o": 1.0798,
    "h": 1.08036,
    "l": 1.07934,
    "c": 1.07958,
    "v": 1692
  },
  {
    "dt": "2021.02.17 13:00",
    "o": 1.07959,
    "h": 1.08028,
    "l": 1.07957,
    "c": 1.07995,
    "v": 1277
  },
  {
    "dt": "2021.02.17 14:00",
    "o": 1.07996,
    "h": 1.08042,
    "l": 1.07992,
    "c": 1.08032,
    "v": 1438
  },
  {
    "dt": "2021.02.17 15:00",
    "o": 1.08034,
    "h": 1.08067,
    "l": 1.07995,
    "c": 1.08055,
    "v": 3073
  },
  {
    "dt": "2021.02.17 16:00",
    "o": 1.08054,
    "h": 1.08086,
    "l": 1.08036,
    "c": 1.08049,
    "v": 3678
  },
  {
    "dt": "2021.02.17 17:00",
    "o": 1.08049,
    "h": 1.08104,
    "l": 1.08035,
    "c": 1.0808,
    "v": 2854
  },
  {
    "dt": "2021.02.17 18:00",
    "o": 1.08083,
    "h": 1.08209,
    "l": 1.08077,
    "c": 1.08188,
    "v": 2902
  },
  {
    "dt": "2021.02.17 19:00",
    "o": 1.08186,
    "h": 1.08205,
    "l": 1.08159,
    "c": 1.08184,
    "v": 1952
  },
  {
    "dt": "2021.02.17 20:00",
    "o": 1.08185,
    "h": 1.08211,
    "l": 1.08161,
    "c": 1.08161,
    "v": 1543
  },
  {
    "dt": "2021.02.17 21:00",
    "o": 1.0816,
    "h": 1.08225,
    "l": 1.0816,
    "c": 1.08223,
    "v": 1337
  },
  {
    "dt": "2021.02.17 22:00",
    "o": 1.08222,
    "h": 1.08223,
    "l": 1.08201,
    "c": 1.08223,
    "v": 1220
  },
  {
    "dt": "2021.02.17 23:00",
    "o": 1.08223,
    "h": 1.08237,
    "l": 1.0821,
    "c": 1.08221,
    "v": 913
  },
  {
    "dt": "2021.02.18 00:00",
    "o": 1.08153,
    "h": 1.08231,
    "l": 1.08119,
    "c": 1.08192,
    "v": 350
  },
  {
    "dt": "2021.02.18 01:00",
    "o": 1.08192,
    "h": 1.08237,
    "l": 1.08192,
    "c": 1.08228,
    "v": 679
  },
  {
    "dt": "2021.02.18 02:00",
    "o": 1.08228,
    "h": 1.08234,
    "l": 1.08186,
    "c": 1.08193,
    "v": 1324
  },
  {
    "dt": "2021.02.18 03:00",
    "o": 1.08192,
    "h": 1.08214,
    "l": 1.08188,
    "c": 1.08205,
    "v": 1579
  },
  {
    "dt": "2021.02.18 04:00",
    "o": 1.08205,
    "h": 1.0823,
    "l": 1.08194,
    "c": 1.08221,
    "v": 1271
  },
  {
    "dt": "2021.02.18 05:00",
    "o": 1.08221,
    "h": 1.08227,
    "l": 1.08194,
    "c": 1.08204,
    "v": 1265
  },
  {
    "dt": "2021.02.18 06:00",
    "o": 1.08205,
    "h": 1.08209,
    "l": 1.08182,
    "c": 1.082,
    "v": 835
  },
  {
    "dt": "2021.02.18 07:00",
    "o": 1.08201,
    "h": 1.0826,
    "l": 1.08199,
    "c": 1.08253,
    "v": 996
  },
  {
    "dt": "2021.02.18 08:00",
    "o": 1.08252,
    "h": 1.08272,
    "l": 1.08247,
    "c": 1.08267,
    "v": 761
  },
  {
    "dt": "2021.02.18 09:00",
    "o": 1.08269,
    "h": 1.08277,
    "l": 1.08242,
    "c": 1.08267,
    "v": 1570
  },
  {
    "dt": "2021.02.18 10:00",
    "o": 1.08266,
    "h": 1.08275,
    "l": 1.08186,
    "c": 1.08209,
    "v": 2424
  },
  {
    "dt": "2021.02.18 11:00",
    "o": 1.0822,
    "h": 1.08262,
    "l": 1.08184,
    "c": 1.08248,
    "v": 2043
  },
  {
    "dt": "2021.02.18 12:00",
    "o": 1.0825,
    "h": 1.08306,
    "l": 1.08245,
    "c": 1.0829,
    "v": 1713
  },
  {
    "dt": "2021.02.18 13:00",
    "o": 1.08289,
    "h": 1.08304,
    "l": 1.08264,
    "c": 1.0829,
    "v": 1617
  },
  {
    "dt": "2021.02.18 14:00",
    "o": 1.0829,
    "h": 1.08293,
    "l": 1.08257,
    "c": 1.08284,
    "v": 1843
  },
  {
    "dt": "2021.02.18 15:00",
    "o": 1.08288,
    "h": 1.08303,
    "l": 1.08253,
    "c": 1.08261,
    "v": 2049
  },
  {
    "dt": "2021.02.18 16:00",
    "o": 1.08259,
    "h": 1.08324,
    "l": 1.08259,
    "c": 1.08284,
    "v": 3180
  },
  {
    "dt": "2021.02.18 17:00",
    "o": 1.08285,
    "h": 1.08335,
    "l": 1.08264,
    "c": 1.08333,
    "v": 2576
  },
  {
    "dt": "2021.02.18 18:00",
    "o": 1.08335,
    "h": 1.08339,
    "l": 1.08301,
    "c": 1.08305,
    "v": 1943
  },
  {
    "dt": "2021.02.18 19:00",
    "o": 1.08306,
    "h": 1.08328,
    "l": 1.08292,
    "c": 1.08292,
    "v": 1455
  },
  {
    "dt": "2021.02.18 20:00",
    "o": 1.08292,
    "h": 1.08312,
    "l": 1.08291,
    "c": 1.08305,
    "v": 1297
  },
  {
    "dt": "2021.02.18 21:00",
    "o": 1.08306,
    "h": 1.08358,
    "l": 1.08302,
    "c": 1.08324,
    "v": 1125
  },
  {
    "dt": "2021.02.18 22:00",
    "o": 1.08326,
    "h": 1.08341,
    "l": 1.08313,
    "c": 1.08315,
    "v": 1081
  },
  {
    "dt": "2021.02.18 23:00",
    "o": 1.08319,
    "h": 1.08352,
    "l": 1.08313,
    "c": 1.0833,
    "v": 1015
  },
  {
    "dt": "2021.02.19 00:00",
    "o": 1.0828,
    "h": 1.08331,
    "l": 1.08258,
    "c": 1.08322,
    "v": 300
  },
  {
    "dt": "2021.02.19 01:00",
    "o": 1.08324,
    "h": 1.08352,
    "l": 1.0832,
    "c": 1.08336,
    "v": 772
  },
  {
    "dt": "2021.02.19 02:00",
    "o": 1.08337,
    "h": 1.0837,
    "l": 1.08333,
    "c": 1.08369,
    "v": 1218
  },
  {
    "dt": "2021.02.19 03:00",
    "o": 1.08369,
    "h": 1.0837,
    "l": 1.08339,
    "c": 1.08352,
    "v": 972
  },
  {
    "dt": "2021.02.19 04:00",
    "o": 1.08353,
    "h": 1.08369,
    "l": 1.08337,
    "c": 1.08348,
    "v": 1324
  },
  {
    "dt": "2021.02.19 05:00",
    "o": 1.0835,
    "h": 1.08376,
    "l": 1.08346,
    "c": 1.08375,
    "v": 588
  },
  {
    "dt": "2021.02.19 06:00",
    "o": 1.08374,
    "h": 1.08398,
    "l": 1.0837,
    "c": 1.08376,
    "v": 590
  },
  {
    "dt": "2021.02.19 07:00",
    "o": 1.08375,
    "h": 1.08395,
    "l": 1.08373,
    "c": 1.08389,
    "v": 1001
  },
  {
    "dt": "2021.02.19 08:00",
    "o": 1.08388,
    "h": 1.08417,
    "l": 1.08388,
    "c": 1.084,
    "v": 711
  },
  {
    "dt": "2021.02.19 09:00",
    "o": 1.08407,
    "h": 1.08435,
    "l": 1.08386,
    "c": 1.08413,
    "v": 1560
  },
  {
    "dt": "2021.02.19 10:00",
    "o": 1.08412,
    "h": 1.08441,
    "l": 1.08385,
    "c": 1.08431,
    "v": 2319
  },
  {
    "dt": "2021.02.19 11:00",
    "o": 1.08433,
    "h": 1.08491,
    "l": 1.08411,
    "c": 1.08488,
    "v": 1795
  },
  {
    "dt": "2021.02.19 12:00",
    "o": 1.08488,
    "h": 1.085,
    "l": 1.08452,
    "c": 1.08485,
    "v": 1898
  },
  {
    "dt": "2021.02.19 13:00",
    "o": 1.08485,
    "h": 1.0853,
    "l": 1.0848,
    "c": 1.08528,
    "v": 1492
  },
  {
    "dt": "2021.02.19 14:00",
    "o": 1.0853,
    "h": 1.08548,
    "l": 1.08488,
    "c": 1.08497,
    "v": 1959
  },
  {
    "dt": "2021.02.19 15:00",
    "o": 1.08499,
    "h": 1.0857,
    "l": 1.08464,
    "c": 1.0852,
    "v": 2529
  },
  {
    "dt": "2021.02.19 16:00",
    "o": 1.08519,
    "h": 1.08552,
    "l": 1.085,
    "c": 1.08515,
    "v": 1975
  },
  {
    "dt": "2021.02.19 17:00",
    "o": 1.08514,
    "h": 1.08582,
    "l": 1.08499,
    "c": 1.08559,
    "v": 2366
  },
  {
    "dt": "2021.02.19 18:00",
    "o": 1.0856,
    "h": 1.08621,
    "l": 1.08542,
    "c": 1.08584,
    "v": 1836
  },
  {
    "dt": "2021.02.19 19:00",
    "o": 1.08582,
    "h": 1.08698,
    "l": 1.08582,
    "c": 1.08665,
    "v": 1784
  },
  {
    "dt": "2021.02.19 20:00",
    "o": 1.08665,
    "h": 1.08666,
    "l": 1.08608,
    "c": 1.08631,
    "v": 1700
  },
  {
    "dt": "2021.02.19 21:00",
    "o": 1.0863,
    "h": 1.08661,
    "l": 1.08628,
    "c": 1.08637,
    "v": 1403
  },
  {
    "dt": "2021.02.19 22:00",
    "o": 1.08635,
    "h": 1.08645,
    "l": 1.08622,
    "c": 1.08641,
    "v": 833
  },
  {
    "dt": "2021.02.19 23:00",
    "o": 1.08643,
    "h": 1.08659,
    "l": 1.08598,
    "c": 1.08622,
    "v": 776
  },
  {
    "dt": "2021.02.22 00:00",
    "o": 1.08589,
    "h": 1.08641,
    "l": 1.08543,
    "c": 1.0855,
    "v": 363
  },
  {
    "dt": "2021.02.22 01:00",
    "o": 1.08574,
    "h": 1.0874,
    "l": 1.08552,
    "c": 1.08734,
    "v": 1264
  },
  {
    "dt": "2021.02.22 02:00",
    "o": 1.08734,
    "h": 1.08735,
    "l": 1.08689,
    "c": 1.0872,
    "v": 1024
  },
  {
    "dt": "2021.02.22 03:00",
    "o": 1.0872,
    "h": 1.08751,
    "l": 1.08716,
    "c": 1.08729,
    "v": 1134
  },
  {
    "dt": "2021.02.22 04:00",
    "o": 1.08729,
    "h": 1.08783,
    "l": 1.08728,
    "c": 1.08765,
    "v": 895
  },
  {
    "dt": "2021.02.22 05:00",
    "o": 1.08764,
    "h": 1.08791,
    "l": 1.0875,
    "c": 1.08784,
    "v": 825
  },
  {
    "dt": "2021.02.22 06:00",
    "o": 1.08784,
    "h": 1.08821,
    "l": 1.08781,
    "c": 1.0882,
    "v": 793
  },
  {
    "dt": "2021.02.22 07:00",
    "o": 1.08821,
    "h": 1.08866,
    "l": 1.08803,
    "c": 1.0885,
    "v": 944
  },
  {
    "dt": "2021.02.22 08:00",
    "o": 1.0885,
    "h": 1.08856,
    "l": 1.08817,
    "c": 1.08846,
    "v": 630
  },
  {
    "dt": "2021.02.22 09:00",
    "o": 1.08845,
    "h": 1.08985,
    "l": 1.08802,
    "c": 1.08985,
    "v": 1871
  },
  {
    "dt": "2021.02.22 10:00",
    "o": 1.08986,
    "h": 1.09149,
    "l": 1.08948,
    "c": 1.09091,
    "v": 3087
  },
  {
    "dt": "2021.02.22 11:00",
    "o": 1.0909,
    "h": 1.09104,
    "l": 1.08867,
    "c": 1.08887,
    "v": 2562
  },
  {
    "dt": "2021.02.22 12:00",
    "o": 1.08888,
    "h": 1.09067,
    "l": 1.08885,
    "c": 1.09035,
    "v": 1832
  },
  {
    "dt": "2021.02.22 13:00",
    "o": 1.09034,
    "h": 1.09075,
    "l": 1.08969,
    "c": 1.08972,
    "v": 2215
  },
  {
    "dt": "2021.02.22 14:00",
    "o": 1.08971,
    "h": 1.08971,
    "l": 1.0887,
    "c": 1.08881,
    "v": 2064
  },
  {
    "dt": "2021.02.22 15:00",
    "o": 1.0888,
    "h": 1.08899,
    "l": 1.08816,
    "c": 1.0886,
    "v": 2670
  },
  {
    "dt": "2021.02.22 16:00",
    "o": 1.08859,
    "h": 1.08888,
    "l": 1.0875,
    "c": 1.08784,
    "v": 2683
  },
  {
    "dt": "2021.02.22 17:00",
    "o": 1.08782,
    "h": 1.08871,
    "l": 1.08751,
    "c": 1.08853,
    "v": 2924
  },
  {
    "dt": "2021.02.22 18:00",
    "o": 1.08854,
    "h": 1.08878,
    "l": 1.08823,
    "c": 1.08876,
    "v": 2280
  },
  {
    "dt": "2021.02.22 19:00",
    "o": 1.08873,
    "h": 1.08924,
    "l": 1.08865,
    "c": 1.08913,
    "v": 1953
  },
  {
    "dt": "2021.02.22 20:00",
    "o": 1.08913,
    "h": 1.08998,
    "l": 1.08913,
    "c": 1.08981,
    "v": 1369
  },
  {
    "dt": "2021.02.22 21:00",
    "o": 1.08981,
    "h": 1.08982,
    "l": 1.08942,
    "c": 1.08954,
    "v": 1224
  },
  {
    "dt": "2021.02.22 22:00",
    "o": 1.08953,
    "h": 1.08958,
    "l": 1.08921,
    "c": 1.08939,
    "v": 1360
  },
  {
    "dt": "2021.02.22 23:00",
    "o": 1.08937,
    "h": 1.08952,
    "l": 1.08915,
    "c": 1.08932,
    "v": 959
  },
  {
    "dt": "2021.02.23 00:00",
    "o": 1.08875,
    "h": 1.08942,
    "l": 1.08875,
    "c": 1.08935,
    "v": 279
  },
  {
    "dt": "2021.02.23 01:00",
    "o": 1.08933,
    "h": 1.08972,
    "l": 1.08932,
    "c": 1.08956,
    "v": 788
  },
  {
    "dt": "2021.02.23 02:00",
    "o": 1.08957,
    "h": 1.08977,
    "l": 1.08946,
    "c": 1.08967,
    "v": 1091
  },
  {
    "dt": "2021.02.23 03:00",
    "o": 1.08968,
    "h": 1.08991,
    "l": 1.08953,
    "c": 1.08968,
    "v": 1528
  },
  {
    "dt": "2021.02.23 04:00",
    "o": 1.08968,
    "h": 1.08975,
    "l": 1.08943,
    "c": 1.08946,
    "v": 905
  },
  {
    "dt": "2021.02.23 05:00",
    "o": 1.08945,
    "h": 1.08979,
    "l": 1.0893,
    "c": 1.08969,
    "v": 969
  },
  {
    "dt": "2021.02.23 06:00",
    "o": 1.08969,
    "h": 1.08992,
    "l": 1.08969,
    "c": 1.0899,
    "v": 572
  },
  {
    "dt": "2021.02.23 07:00",
    "o": 1.0899,
    "h": 1.09023,
    "l": 1.0899,
    "c": 1.08998,
    "v": 955
  },
  {
    "dt": "2021.02.23 08:00",
    "o": 1.09,
    "h": 1.09017,
    "l": 1.08984,
    "c": 1.09016,
    "v": 1002
  },
  {
    "dt": "2021.02.23 09:00",
    "o": 1.09016,
    "h": 1.09077,
    "l": 1.09007,
    "c": 1.09072,
    "v": 1360
  },
  {
    "dt": "2021.02.23 10:00",
    "o": 1.09072,
    "h": 1.09353,
    "l": 1.09057,
    "c": 1.09276,
    "v": 2809
  },
  {
    "dt": "2021.02.23 11:00",
    "o": 1.09277,
    "h": 1.09482,
    "l": 1.09256,
    "c": 1.09283,
    "v": 2528
  },
  {
    "dt": "2021.02.23 12:00",
    "o": 1.09282,
    "h": 1.0942,
    "l": 1.0928,
    "c": 1.0941,
    "v": 2342
  },
  {
    "dt": "2021.02.23 13:00",
    "o": 1.0941,
    "h": 1.09437,
    "l": 1.09363,
    "c": 1.09413,
    "v": 2027
  },
  {
    "dt": "2021.02.23 14:00",
    "o": 1.09412,
    "h": 1.09413,
    "l": 1.09351,
    "c": 1.09396,
    "v": 2141
  },
  {
    "dt": "2021.02.23 15:00",
    "o": 1.09397,
    "h": 1.0947,
    "l": 1.09374,
    "c": 1.09399,
    "v": 2378
  },
  {
    "dt": "2021.02.23 16:00",
    "o": 1.094,
    "h": 1.094,
    "l": 1.09297,
    "c": 1.09378,
    "v": 3033
  },
  {
    "dt": "2021.02.23 17:00",
    "o": 1.09374,
    "h": 1.09471,
    "l": 1.09332,
    "c": 1.0947,
    "v": 3802
  },
  {
    "dt": "2021.02.23 18:00",
    "o": 1.09468,
    "h": 1.09636,
    "l": 1.09459,
    "c": 1.09552,
    "v": 2842
  },
  {
    "dt": "2021.02.23 19:00",
    "o": 1.09552,
    "h": 1.09783,
    "l": 1.09535,
    "c": 1.09775,
    "v": 2495
  },
  {
    "dt": "2021.02.23 20:00",
    "o": 1.09775,
    "h": 1.09835,
    "l": 1.09755,
    "c": 1.0981,
    "v": 2207
  },
  {
    "dt": "2021.02.23 21:00",
    "o": 1.0981,
    "h": 1.09963,
    "l": 1.09794,
    "c": 1.09945,
    "v": 2033
  },
  {
    "dt": "2021.02.23 22:00",
    "o": 1.09947,
    "h": 1.09966,
    "l": 1.0993,
    "c": 1.09934,
    "v": 1472
  },
  {
    "dt": "2021.02.23 23:00",
    "o": 1.09935,
    "h": 1.09981,
    "l": 1.09932,
    "c": 1.0997,
    "v": 851
  },
  {
    "dt": "2021.02.24 00:00",
    "o": 1.09806,
    "h": 1.09962,
    "l": 1.09747,
    "c": 1.09949,
    "v": 430
  },
  {
    "dt": "2021.02.24 01:00",
    "o": 1.09959,
    "h": 1.09997,
    "l": 1.09889,
    "c": 1.09997,
    "v": 1194
  },
  {
    "dt": "2021.02.24 02:00",
    "o": 1.09996,
    "h": 1.10067,
    "l": 1.09981,
    "c": 1.10063,
    "v": 1124
  },
  {
    "dt": "2021.02.24 03:00",
    "o": 1.10065,
    "h": 1.1016,
    "l": 1.10056,
    "c": 1.10126,
    "v": 2934
  },
  {
    "dt": "2021.02.24 04:00",
    "o": 1.10127,
    "h": 1.10131,
    "l": 1.10039,
    "c": 1.10098,
    "v": 2157
  },
  {
    "dt": "2021.02.24 05:00",
    "o": 1.10098,
    "h": 1.10129,
    "l": 1.10085,
    "c": 1.10129,
    "v": 1823
  },
  {
    "dt": "2021.02.24 06:00",
    "o": 1.10125,
    "h": 1.1015,
    "l": 1.10097,
    "c": 1.10138,
    "v": 1670
  },
  {
    "dt": "2021.02.24 07:00",
    "o": 1.10138,
    "h": 1.10158,
    "l": 1.10098,
    "c": 1.10148,
    "v": 1753
  },
  {
    "dt": "2021.02.24 08:00",
    "o": 1.10147,
    "h": 1.10201,
    "l": 1.10087,
    "c": 1.10095,
    "v": 1423
  },
  {
    "dt": "2021.02.24 09:00",
    "o": 1.10096,
    "h": 1.10197,
    "l": 1.10095,
    "c": 1.10101,
    "v": 2206
  },
  {
    "dt": "2021.02.24 10:00",
    "o": 1.10099,
    "h": 1.10554,
    "l": 1.10016,
    "c": 1.10477,
    "v": 3575
  },
  {
    "dt": "2021.02.24 11:00",
    "o": 1.10484,
    "h": 1.10489,
    "l": 1.10263,
    "c": 1.10284,
    "v": 3084
  },
  {
    "dt": "2021.02.24 12:00",
    "o": 1.10284,
    "h": 1.10371,
    "l": 1.10103,
    "c": 1.10371,
    "v": 2517
  },
  {
    "dt": "2021.02.24 13:00",
    "o": 1.10368,
    "h": 1.10433,
    "l": 1.10285,
    "c": 1.10357,
    "v": 2737
  },
  {
    "dt": "2021.02.24 14:00",
    "o": 1.10352,
    "h": 1.10397,
    "l": 1.10299,
    "c": 1.10343,
    "v": 2385
  },
  {
    "dt": "2021.02.24 15:00",
    "o": 1.10341,
    "h": 1.10349,
    "l": 1.10066,
    "c": 1.10125,
    "v": 3669
  },
  {
    "dt": "2021.02.24 16:00",
    "o": 1.10127,
    "h": 1.10277,
    "l": 1.10101,
    "c": 1.10203,
    "v": 3596
  },
  {
    "dt": "2021.02.24 17:00",
    "o": 1.10203,
    "h": 1.10225,
    "l": 1.10081,
    "c": 1.10191,
    "v": 4170
  },
  {
    "dt": "2021.02.24 18:00",
    "o": 1.10195,
    "h": 1.10239,
    "l": 1.10159,
    "c": 1.10176,
    "v": 3342
  },
  {
    "dt": "2021.02.24 19:00",
    "o": 1.10176,
    "h": 1.102,
    "l": 1.10145,
    "c": 1.10195,
    "v": 2783
  },
  {
    "dt": "2021.02.24 20:00",
    "o": 1.10195,
    "h": 1.10229,
    "l": 1.10171,
    "c": 1.10229,
    "v": 2217
  },
  {
    "dt": "2021.02.24 21:00",
    "o": 1.10228,
    "h": 1.10269,
    "l": 1.10204,
    "c": 1.1026,
    "v": 2035
  },
  {
    "dt": "2021.02.24 22:00",
    "o": 1.10255,
    "h": 1.10333,
    "l": 1.10233,
    "c": 1.10328,
    "v": 1764
  },
  {
    "dt": "2021.02.24 23:00",
    "o": 1.10329,
    "h": 1.10346,
    "l": 1.10288,
    "c": 1.10302,
    "v": 1443
  },
  {
    "dt": "2021.02.25 00:00",
    "o": 1.10306,
    "h": 1.10321,
    "l": 1.10233,
    "c": 1.10288,
    "v": 496
  },
  {
    "dt": "2021.02.25 01:00",
    "o": 1.10278,
    "h": 1.1035,
    "l": 1.10278,
    "c": 1.1034,
    "v": 1563
  },
  {
    "dt": "2021.02.25 02:00",
    "o": 1.10341,
    "h": 1.10348,
    "l": 1.10285,
    "c": 1.10293,
    "v": 1560
  },
  {
    "dt": "2021.02.25 03:00",
    "o": 1.10296,
    "h": 1.10328,
    "l": 1.10284,
    "c": 1.10314,
    "v": 2441
  },
  {
    "dt": "2021.02.25 04:00",
    "o": 1.10315,
    "h": 1.10318,
    "l": 1.10249,
    "c": 1.10253,
    "v": 1483
  },
  {
    "dt": "2021.02.25 05:00",
    "o": 1.10252,
    "h": 1.10312,
    "l": 1.10245,
    "c": 1.10304,
    "v": 1443
  },
  {
    "dt": "2021.02.25 06:00",
    "o": 1.10306,
    "h": 1.10335,
    "l": 1.10304,
    "c": 1.1032,
    "v": 1120
  },
  {
    "dt": "2021.02.25 07:00",
    "o": 1.10321,
    "h": 1.10359,
    "l": 1.10313,
    "c": 1.10329,
    "v": 1766
  },
  {
    "dt": "2021.02.25 08:00",
    "o": 1.10328,
    "h": 1.10374,
    "l": 1.10283,
    "c": 1.10349,
    "v": 1579
  },
  {
    "dt": "2021.02.25 09:00",
    "o": 1.10352,
    "h": 1.10392,
    "l": 1.10283,
    "c": 1.10388,
    "v": 2402
  },
  {
    "dt": "2021.02.25 10:00",
    "o": 1.1039,
    "h": 1.10458,
    "l": 1.10342,
    "c": 1.10397,
    "v": 2586
  },
  {
    "dt": "2021.02.25 11:00",
    "o": 1.10396,
    "h": 1.10747,
    "l": 1.10363,
    "c": 1.10718,
    "v": 3234
  },
  {
    "dt": "2021.02.25 12:00",
    "o": 1.10719,
    "h": 1.1097,
    "l": 1.10663,
    "c": 1.10709,
    "v": 3471
  },
  {
    "dt": "2021.02.25 13:00",
    "o": 1.1071,
    "h": 1.10783,
    "l": 1.1065,
    "c": 1.10781,
    "v": 3351
  },
  {
    "dt": "2021.02.25 14:00",
    "o": 1.1078,
    "h": 1.10855,
    "l": 1.10745,
    "c": 1.10805,
    "v": 3110
  },
  {
    "dt": "2021.02.25 15:00",
    "o": 1.10807,
    "h": 1.10866,
    "l": 1.10706,
    "c": 1.10719,
    "v": 3559
  },
  {
    "dt": "2021.02.25 16:00",
    "o": 1.10719,
    "h": 1.10773,
    "l": 1.10616,
    "c": 1.10647,
    "v": 3822
  },
  {
    "dt": "2021.02.25 17:00",
    "o": 1.10653,
    "h": 1.10653,
    "l": 1.1039,
    "c": 1.10431,
    "v": 3991
  },
  {
    "dt": "2021.02.25 18:00",
    "o": 1.10433,
    "h": 1.10525,
    "l": 1.10366,
    "c": 1.10462,
    "v": 3535
  },
  {
    "dt": "2021.02.25 19:00",
    "o": 1.10459,
    "h": 1.10571,
    "l": 1.10455,
    "c": 1.10485,
    "v": 3717
  },
  {
    "dt": "2021.02.25 20:00",
    "o": 1.10486,
    "h": 1.10515,
    "l": 1.10133,
    "c": 1.10193,
    "v": 4852
  },
  {
    "dt": "2021.02.25 21:00",
    "o": 1.10192,
    "h": 1.10279,
    "l": 1.10178,
    "c": 1.10238,
    "v": 3425
  },
  {
    "dt": "2021.02.25 22:00",
    "o": 1.10239,
    "h": 1.10287,
    "l": 1.10205,
    "c": 1.1023,
    "v": 3099
  },
  {
    "dt": "2021.02.25 23:00",
    "o": 1.10229,
    "h": 1.10248,
    "l": 1.10131,
    "c": 1.10166,
    "v": 1771
  },
  {
    "dt": "2021.02.26 00:00",
    "o": 1.10132,
    "h": 1.10234,
    "l": 1.10116,
    "c": 1.10145,
    "v": 1158
  },
  {
    "dt": "2021.02.26 01:00",
    "o": 1.1015,
    "h": 1.10189,
    "l": 1.10059,
    "c": 1.10109,
    "v": 2553
  },
  {
    "dt": "2021.02.26 02:00",
    "o": 1.10108,
    "h": 1.10171,
    "l": 1.10015,
    "c": 1.10056,
    "v": 3074
  },
  {
    "dt": "2021.02.26 03:00",
    "o": 1.10054,
    "h": 1.10125,
    "l": 1.10033,
    "c": 1.10115,
    "v": 3297
  },
  {
    "dt": "2021.02.26 04:00",
    "o": 1.10116,
    "h": 1.10152,
    "l": 1.10093,
    "c": 1.1011,
    "v": 2370
  },
  {
    "dt": "2021.02.26 05:00",
    "o": 1.1011,
    "h": 1.10115,
    "l": 1.10055,
    "c": 1.10077,
    "v": 2025
  },
  {
    "dt": "2021.02.26 06:00",
    "o": 1.10074,
    "h": 1.10122,
    "l": 1.10054,
    "c": 1.10116,
    "v": 2497
  },
  {
    "dt": "2021.02.26 07:00",
    "o": 1.10116,
    "h": 1.10126,
    "l": 1.10055,
    "c": 1.10061,
    "v": 2425
  },
  {
    "dt": "2021.02.26 08:00",
    "o": 1.10065,
    "h": 1.10075,
    "l": 1.09933,
    "c": 1.10028,
    "v": 2090
  },
  {
    "dt": "2021.02.26 09:00",
    "o": 1.10029,
    "h": 1.10036,
    "l": 1.09708,
    "c": 1.09746,
    "v": 4136
  },
  {
    "dt": "2021.02.26 10:00",
    "o": 1.09744,
    "h": 1.09977,
    "l": 1.09736,
    "c": 1.09853,
    "v": 3723
  },
  {
    "dt": "2021.02.26 11:00",
    "o": 1.09856,
    "h": 1.09863,
    "l": 1.09554,
    "c": 1.09627,
    "v": 3457
  },
  {
    "dt": "2021.02.26 12:00",
    "o": 1.09627,
    "h": 1.09786,
    "l": 1.09616,
    "c": 1.09711,
    "v": 3247
  },
  {
    "dt": "2021.02.26 13:00",
    "o": 1.09711,
    "h": 1.0976,
    "l": 1.09563,
    "c": 1.09684,
    "v": 4067
  },
  {
    "dt": "2021.02.26 14:00",
    "o": 1.09683,
    "h": 1.09804,
    "l": 1.09635,
    "c": 1.09775,
    "v": 3908
  },
  {
    "dt": "2021.02.26 15:00",
    "o": 1.09778,
    "h": 1.09856,
    "l": 1.09758,
    "c": 1.09829,
    "v": 3833
  },
  {
    "dt": "2021.02.26 16:00",
    "o": 1.09828,
    "h": 1.09905,
    "l": 1.09745,
    "c": 1.09812,
    "v": 3875
  },
  {
    "dt": "2021.02.26 17:00",
    "o": 1.09811,
    "h": 1.0993,
    "l": 1.0971,
    "c": 1.09904,
    "v": 4831
  },
  {
    "dt": "2021.02.26 18:00",
    "o": 1.09903,
    "h": 1.09983,
    "l": 1.09739,
    "c": 1.09945,
    "v": 4442
  },
  {
    "dt": "2021.02.26 19:00",
    "o": 1.09946,
    "h": 1.09952,
    "l": 1.09854,
    "c": 1.09902,
    "v": 3095
  },
  {
    "dt": "2021.02.26 20:00",
    "o": 1.09901,
    "h": 1.09934,
    "l": 1.09815,
    "c": 1.09854,
    "v": 3159
  },
  {
    "dt": "2021.02.26 21:00",
    "o": 1.09853,
    "h": 1.09862,
    "l": 1.09787,
    "c": 1.09792,
    "v": 2459
  },
  {
    "dt": "2021.02.26 22:00",
    "o": 1.09795,
    "h": 1.09861,
    "l": 1.0973,
    "c": 1.09739,
    "v": 2455
  },
  {
    "dt": "2021.02.26 23:00",
    "o": 1.09741,
    "h": 1.09743,
    "l": 1.09615,
    "c": 1.0965,
    "v": 2143
  }
]