[
  {
    "dt": "2022.01.03 00:00",
    "o": 1.35256,
    "h": 1.35314,
    "l": 1.35228,
    "c": 1.35278,
    "v": 150
  },
  {
    "dt": "2022.01.03 01:00",
    "o": 1.35302,
    "h": 1.35329,
    "l": 1.35195,
    "c": 1.35208,
    "v": 754
  },
  {
    "dt": "2022.01.03 02:00",
    "o": 1.35208,
    "h": 1.35242,
    "l": 1.35163,
    "c": 1.35163,
    "v": 804
  },
  {
    "dt": "2022.01.03 03:00",
    "o": 1.35162,
    "h": 1.35286,
    "l": 1.35142,
    "c": 1.35163,
    "v": 1264
  },
  {
    "dt": "2022.01.03 04:00",
    "o": 1.35164,
    "h": 1.35164,
    "l": 1.35029,
    "c": 1.35031,
    "v": 912
  },
  {
    "dt": "2022.01.03 05:00",
    "o": 1.35033,
    "h": 1.35058,
    "l": 1.34945,
    "c": 1.34987,
    "v": 965
  },
  {
    "dt": "2022.01.03 06:00",
    "o": 1.34987,
    "h": 1.35048,
    "l": 1.34944,
    "c": 1.34978,
    "v": 717
  },
  {
    "dt": "2022.01.03 07:00",
    "o": 1.34979,
    "h": 1.35001,
    "l": 1.34944,
    "c": 1.34979,
    "v": 708
  },
  {
    "dt": "2022.01.03 08:00",
    "o": 1.34977,
    "h": 1.35072,
    "l": 1.34968,
    "c": 1.35047,
    "v": 893
  },
  {
    "dt": "2022.01.03 09:00",
    "o": 1.35048,
    "h": 1.35061,
    "l": 1.34955,
    "c": 1.35048,
    "v": 1563
  },
  {
    "dt": "2022.01.03 10:00",
    "o": 1.35043,
    "h": 1.35223,
    "l": 1.35024,
    "c": 1.35218,
    "v": 2087
  },
  {
    "dt": "2022.01.03 11:00",
    "o": 1.35217,
    "h": 1.35275,
    "l": 1.35118,
    "c": 1.35166,
    "v": 1853
  },
  {
    "dt": "2022.01.03 12:00",
    "o": 1.35163,
    "h": 1.35238,
    "l": 1.35097,
    "c": 1.35102,
    "v": 1908
  },
  {
    "dt": "2022.01.03 13:00",
    "o": 1.35106,
    "h": 1.35217,
    "l": 1.35073,
    "c": 1.35095,
    "v": 1755
  },
  {
    "dt": "2022.01.03 14:00",
    "o": 1.35102,
    "h": 1.35116,
    "l": 1.35001,
    "c": 1.35049,
    "v": 2035
  },
  {
    "dt": "2022.01.03 15:00",
    "o": 1.35047,
    "h": 1.35054,
    "l": 1.34828,
    "c": 1.34861,
    "v": 2948
  },
  {
    "dt": "2022.01.03 16:00",
    "o": 1.34858,
    "h": 1.34914,
    "l": 1.34542,
    "c": 1.34598,
    "v": 3646
  },
  {
    "dt": "2022.01.03 17:00",
    "o": 1.34596,
    "h": 1.34641,
    "l": 1.34299,
    "c": 1.34462,
    "v": 3948
  },
  {
    "dt": "2022.01.03 18:00",
    "o": 1.34461,
    "h": 1.34682,
    "l": 1.34356,
    "c": 1.34653,
    "v": 2761
  },
  {
    "dt": "2022.01.03 19:00",
    "o": 1.34656,
    "h": 1.34759,
    "l": 1.34647,
    "c": 1.34705,
    "v": 1710
  },
  {
    "dt": "2022.01.03 20:00",
    "o": 1.34706,
    "h": 1.34824,
    "l": 1.34694,
    "c": 1.34783,
    "v": 1458
  },
  {
    "dt": "2022.01.03 21:00",
    "o": 1.34788,
    "h": 1.34849,
    "l": 1.34767,
    "c": 1.34837,
    "v": 1852
  },
  {
    "dt": "2022.01.03 22:00",
    "o": 1.34836,
    "h": 1.34846,
    "l": 1.3473,
    "c": 1.34776,
    "v": 1913
  },
  {
    "dt": "2022.01.03 23:00",
    "o": 1.34776,
    "h": 1.34806,
    "l": 1.34749,
    "c": 1.34749,
    "v": 711
  },
  {
    "dt": "2022.01.04 00:00",
    "o": 1.34743,
    "h": 1.34782,
    "l": 1.34695,
    "c": 1.34695,
    "v": 165
  },
  {
    "dt": "2022.01.04 01:00",
    "o": 1.34689,
    "h": 1.34841,
    "l": 1.34689,
    "c": 1.34811,
    "v": 713
  },
  {
    "dt": "2022.01.04 02:00",
    "o": 1.34812,
    "h": 1.34831,
    "l": 1.34718,
    "c": 1.34775,
    "v": 893
  },
  {
    "dt": "2022.01.04 03:00",
    "o": 1.34771,
    "h": 1.34826,
    "l": 1.34763,
    "c": 1.34797,
    "v": 1468
  },
  {
    "dt": "2022.01.04 04:00",
    "o": 1.34795,
    "h": 1.34796,
    "l": 1.3471,
    "c": 1.34726,
    "v": 1227
  },
  {
    "dt": "2022.01.04 05:00",
    "o": 1.34725,
    "h": 1.34735,
    "l": 1.34619,
    "c": 1.3463,
    "v": 989
  },
  {
    "dt": "2022.01.04 06:00",
    "o": 1.34631,
    "h": 1.34758,
    "l": 1.34622,
    "c": 1.34681,
    "v": 893
  },
  {
    "dt": "2022.01.04 07:00",
    "o": 1.34682,
    "h": 1.34727,
    "l": 1.3466,
    "c": 1.34674,
    "v": 985
  },
  {
    "dt": "2022.01.04 08:00",
    "o": 1.34682,
    "h": 1.34695,
    "l": 1.34587,
    "c": 1.3462,
    "v": 1073
  },
  {
    "dt": "2022.01.04 09:00",
    "o": 1.34623,
    "h": 1.34879,
    "l": 1.34604,
    "c": 1.34877,
    "v": 2135
  },
  {
    "dt": "2022.01.04 10:00",
    "o": 1.3487,
    "h": 1.35014,
    "l": 1.34824,
    "c": 1.34906,
    "v": 2696
  },
  {
    "dt": "2022.01.04 11:00",
    "o": 1.34905,
    "h": 1.35129,
    "l": 1.34876,
    "c": 1.35105,
    "v": 2727
  },
  {
    "dt": "2022.01.04 12:00",
    "o": 1.35095,
    "h": 1.35138,
    "l": 1.34997,
    "c": 1.34997,
    "v": 2592
  },
  {
    "dt": "2022.01.04 13:00",
    "o": 1.34997,
    "h": 1.35021,
    "l": 1.34836,
    "c": 1.34947,
    "v": 2035
  },
  {
    "dt": "2022.01.04 14:00",
    "o": 1.34948,
    "h": 1.34954,
    "l": 1.34779,
    "c": 1.3482,
    "v": 2505
  },
  {
    "dt": "2022.01.04 15:00",
    "o": 1.34825,
    "h": 1.35145,
    "l": 1.34822,
    "c": 1.3514,
    "v": 2871
  },
  {
    "dt": "2022.01.04 16:00",
    "o": 1.35138,
    "h": 1.35287,
    "l": 1.35083,
    "c": 1.35178,
    "v": 3185
  },
  {
    "dt": "2022.01.04 17:00",
    "o": 1.35213,
    "h": 1.35565,
    "l": 1.35192,
    "c": 1.3552,
    "v": 3827
  },
  {
    "dt": "2022.01.04 18:00",
    "o": 1.3552,
    "h": 1.35527,
    "l": 1.35334,
    "c": 1.35411,
    "v": 3235
  },
  {
    "dt": "2022.01.04 19:00",
    "o": 1.35409,
    "h": 1.35475,
    "l": 1.35337,
    "c": 1.3535,
    "v": 1756
  },
  {
    "dt": "2022.01.04 20:00",
    "o": 1.3535,
    "h": 1.35361,
    "l": 1.35206,
    "c": 1.35217,
    "v": 1586
  },
  {
    "dt": "2022.01.04 21:00",
    "o": 1.35216,
    "h": 1.35364,
    "l": 1.35195,
    "c": 1.35339,
    "v": 1539
  },
  {
    "dt": "2022.01.04 22:00",
    "o": 1.35337,
    "h": 1.3537,
    "l": 1.35245,
    "c": 1.35273,
    "v": 1232
  },
  {
    "dt": "2022.01.04 23:00",
    "o": 1.35272,
    "h": 1.35306,
    "l": 1.35249,
    "c": 1.3525,
    "v": 785
  },
  {
    "dt": "2022.01.05 00:00",
    "o": 1.35272,
    "h": 1.35284,
    "l": 1.35212,
    "c": 1.35229,
    "v": 245
  },
  {
    "dt": "2022.01.05 01:00",
    "o": 1.35228,
    "h": 1.35303,
    "l": 1.35228,
    "c": 1.35289,
    "v": 556
  },
  {
    "dt": "2022.01.05 02:00",
    "o": 1.3529,
    "h": 1.35338,
    "l": 1.35257,
    "c": 1.35289,
    "v": 667
  },
  {
    "dt": "2022.01.05 03:00",
    "o": 1.35289,
    "h": 1.35393,
    "l": 1.35274,
    "c": 1.35379,
    "v": 1264
  },
  {
    "dt": "2022.01.05 04:00",
    "o": 1.35378,
    "h": 1.3539,
    "l": 1.353,
    "c": 1.35305,
    "v": 862
  },
  {
    "dt": "2022.01.05 05:00",
    "o": 1.35306,
    "h": 1.35319,
    "l": 1.35277,
    "c": 1.35315,
    "v": 736
  },
  {
    "dt": "2022.01.05 06:00",
    "o": 1.35315,
    "h": 1.35316,
    "l": 1.35219,
    "c": 1.35236,
    "v": 664
  },
  {
    "dt": "2022.01.05 07:00",
    "o": 1.35236,
    "h": 1.35276,
    "l": 1.35215,
    "c": 1.35269,
    "v": 733
  },
  {
    "dt": "2022.01.05 08:00",
    "o": 1.35267,
    "h": 1.35342,
    "l": 1.35262,
    "c": 1.3533,
    "v": 1023
  },
  {
    "dt": "2022.01.05 09:00",
    "o": 1.35329,
    "h": 1.35409,
    "l": 1.35288,
    "c": 1.3535,
    "v": 1653
  },
  {
    "dt": "2022.01.05 10:00",
    "o": 1.3535,
    "h": 1.35537,
    "l": 1.3535,
    "c": 1.35457,
    "v": 1984
  },
  {
    "dt": "2022.01.05 11:00",
    "o": 1.35457,
    "h": 1.35476,
    "l": 1.35277,
    "c": 1.35326,
    "v": 1826
  },
  {
    "dt": "2022.01.05 12:00",
    "o": 1.35316,
    "h": 1.35439,
    "l": 1.3527,
    "c": 1.35318,
    "v": 2263
  },
  {
    "dt": "2022.01.05 13:00",
    "o": 1.35316,
    "h": 1.3547,
    "l": 1.35307,
    "c": 1.35403,
    "v": 1711
  },
  {
    "dt": "2022.01.05 14:00",
    "o": 1.35405,
    "h": 1.3545,
    "l": 1.35308,
    "c": 1.35399,
    "v": 2044
  },
  {
    "dt": "2022.01.05 15:00",
    "o": 1.354,
    "h": 1.35551,
    "l": 1.35321,
    "c": 1.35477,
    "v": 3459
  },
  {
    "dt": "2022.01.05 16:00",
    "o": 1.35476,
    "h": 1.35598,
    "l": 1.35447,
    "c": 1.35462,
    "v": 3040
  },
  {
    "dt": "2022.01.05 17:00",
    "o": 1.35464,
    "h": 1.35667,
    "l": 1.35453,
    "c": 1.35648,
    "v": 3419
  },
  {
    "dt": "2022.01.05 18:00",
    "o": 1.35649,
    "h": 1.35727,
    "l": 1.35565,
    "c": 1.35713,
    "v": 3062
  },
  {
    "dt": "2022.01.05 19:00",
    "o": 1.35712,
    "h": 1.35896,
    "l": 1.35686,
    "c": 1.3588,
    "v": 2268
  },
  {
    "dt": "2022.01.05 20:00",
    "o": 1.35881,
    "h": 1.35977,
    "l": 1.35834,
    "c": 1.35847,
    "v": 1867
  },
  {
    "dt": "2022.01.05 21:00",
    "o": 1.35844,
    "h": 1.35898,
    "l": 1.35564,
    "c": 1.35598,
    "v": 4328
  },
  {
    "dt": "2022.01.05 22:00",
    "o": 1.35597,
    "h": 1.35597,
    "l": 1.35478,
    "c": 1.35483,
    "v": 2898
  },
  {
    "dt": "2022.01.05 23:00",
    "o": 1.35488,
    "h": 1.35554,
    "l": 1.35475,
    "c": 1.355,
    "v": 868
  },
  {
    "dt": "2022.01.06 00:00",
    "o": 1.35505,
    "h": 1.35539,
    "l": 1.35494,
    "c": 1.35509,
    "v": 169
  },
  {
    "dt": "2022.01.06 01:00",
    "o": 1.35511,
    "h": 1.35568,
    "l": 1.35497,
    "c": 1.35538,
    "v": 617
  },
  {
    "dt": "2022.01.06 02:00",
    "o": 1.35538,
    "h": 1.3554,
    "l": 1.35416,
    "c": 1.35464,
    "v": 645
  },
  {
    "dt": "2022.01.06 03:00",
    "o": 1.35464,
    "h": 1.35528,
    "l": 1.35369,
    "c": 1.35508,
    "v": 1388
  },
  {
    "dt": "2022.01.06 04:00",
    "o": 1.35509,
    "h": 1.35511,
    "l": 1.35406,
    "c": 1.35506,
    "v": 1475
  },
  {
    "dt": "2022.01.06 05:00",
    "o": 1.35504,
    "h": 1.35506,
    "l": 1.35312,
    "c": 1.35373,
    "v": 1635
  },
  {
    "dt": "2022.01.06 06:00",
    "o": 1.35373,
    "h": 1.35373,
    "l": 1.35253,
    "c": 1.35253,
    "v": 1316
  },
  {
    "dt": "2022.01.06 07:00",
    "o": 1.35253,
    "h": 1.35317,
    "l": 1.35244,
    "c": 1.35296,
    "v": 1252
  },
  {
    "dt": "2022.01.06 08:00",
    "o": 1.35296,
    "h": 1.35296,
    "l": 1.35117,
    "c": 1.35126,
    "v": 1461
  },
  {
    "dt": "2022.01.06 09:00",
    "o": 1.35128,
    "h": 1.35187,
    "l": 1.34931,
    "c": 1.34982,
    "v": 2335
  },
  {
    "dt": "2022.01.06 10:00",
    "o": 1.34985,
    "h": 1.35137,
    "l": 1.34893,
    "c": 1.34996,
    "v": 3137
  },
  {
    "dt": "2022.01.06 11:00",
    "o": 1.35,
    "h": 1.35185,
    "l": 1.3494,
    "c": 1.3511,
    "v": 2612
  },
  {
    "dt": "2022.01.06 12:00",
    "o": 1.35112,
    "h": 1.35372,
    "l": 1.3509,
    "c": 1.35285,
    "v": 2658
  },
  {
    "dt": "2022.01.06 13:00",
    "o": 1.35285,
    "h": 1.35456,
    "l": 1.35199,
    "c": 1.35359,
    "v": 2447
  },
  {
    "dt": "2022.01.06 14:00",
    "o": 1.35361,
    "h": 1.35454,
    "l": 1.35293,
    "c": 1.35391,
    "v": 2673
  },
  {
    "dt": "2022.01.06 15:00",
    "o": 1.35389,
    "h": 1.35416,
    "l": 1.35252,
    "c": 1.35341,
    "v": 3280
  },
  {
    "dt": "2022.01.06 16:00",
    "o": 1.35338,
    "h": 1.35579,
    "l": 1.35255,
    "c": 1.35335,
    "v": 4165
  },
  {
    "dt": "2022.01.06 17:00",
    "o": 1.35359,
    "h": 1.35407,
    "l": 1.35152,
    "c": 1.35266,
    "v": 4347
  },
  {
    "dt": "2022.01.06 18:00",
    "o": 1.35265,
    "h": 1.35405,
    "l": 1.35222,
    "c": 1.35377,
    "v": 3165
  },
  {
    "dt": "2022.01.06 19:00",
    "o": 1.35377,
    "h": 1.35398,
    "l": 1.35292,
    "c": 1.35297,
    "v": 2145
  },
  {
    "dt": "2022.01.06 20:00",
    "o": 1.35296,
    "h": 1.35338,
    "l": 1.35214,
    "c": 1.35268,
    "v": 1679
  },
  {
    "dt": "2022.01.06 21:00",
    "o": 1.35269,
    "h": 1.35378,
    "l": 1.3524,
    "c": 1.35243,
    "v": 1891
  },
  {
    "dt": "2022.01.06 22:00",
    "o": 1.35241,
    "h": 1.35346,
    "l": 1.35241,
    "c": 1.35295,
    "v": 1610
  },
  {
    "dt": "2022.01.06 23:00",
    "o": 1.35296,
    "h": 1.35361,
    "l": 1.35267,
    "c": 1.35267,
    "v": 1047
  },
  {
    "dt": "2022.01.07 00:00",
    "o": 1.35261,
    "h": 1.35321,
    "l": 1.35261,
    "c": 1.35313,
    "v": 541
  },
  {
    "dt": "2022.01.07 01:00",
    "o": 1.3531,
    "h": 1.35345,
    "l": 1.35307,
    "c": 1.3532,
    "v": 1125
  },
  {
    "dt": "2022.01.07 02:00",
    "o": 1.3532,
    "h": 1.35364,
    "l": 1.35283,
    "c": 1.35359,
    "v": 644
  },
  {
    "dt": "2022.01.07 03:00",
    "o": 1.3536,
    "h": 1.35518,
    "l": 1.35358,
    "c": 1.35517,
    "v": 1325
  },
  {
    "dt": "2022.01.07 04:00",
    "o": 1.35516,
    "h": 1.35519,
    "l": 1.35414,
    "c": 1.35437,
    "v": 925
  },
  {
    "dt": "2022.01.07 05:00",
    "o": 1.35436,
    "h": 1.3549,
    "l": 1.35436,
    "c": 1.35472,
    "v": 717
  },
  {
    "dt": "2022.01.07 06:00",
    "o": 1.35473,
    "h": 1.35473,
    "l": 1.35429,
    "c": 1.35453,
    "v": 611
  },
  {
    "dt": "2022.01.07 07:00",
    "o": 1.35454,
    "h": 1.35464,
    "l": 1.35414,
    "c": 1.35434,
    "v": 618
  },
  {
    "dt": "2022.01.07 08:00",
    "o": 1.35435,
    "h": 1.3547,
    "l": 1.35372,
    "c": 1.35409,
    "v": 933
  },
  {
    "dt": "2022.01.07 09:00",
    "o": 1.35411,
    "h": 1.35456,
    "l": 1.35314,
    "c": 1.35383,
    "v": 1779
  },
  {
    "dt": "2022.01.07 10:00",
    "o": 1.35382,
    "h": 1.35486,
    "l": 1.35262,
    "c": 1.35473,
    "v": 2400
  },
  {
    "dt": "2022.01.07 11:00",
    "o": 1.35472,
    "h": 1.35561,
    "l": 1.35426,
    "c": 1.35541,
    "v": 2029
  },
  {
    "dt": "2022.01.07 12:00",
    "o": 1.35542,
    "h": 1.35566,
    "l": 1.35391,
    "c": 1.35433,
    "v": 1695
  },
  {
    "dt": "2022.01.07 13:00",
    "o": 1.35434,
    "h": 1.35534,
    "l": 1.35411,
    "c": 1.35502,
    "v": 1463
  },
  {
    "dt": "2022.01.07 14:00",
    "o": 1.35501,
    "h": 1.35503,
    "l": 1.35349,
    "c": 1.35409,
    "v": 1879
  },
  {
    "dt": "2022.01.07 15:00",
    "o": 1.35422,
    "h": 1.35639,
    "l": 1.35286,
    "c": 1.35379,
    "v": 4535
  },
  {
    "dt": "2022.01.07 16:00",
    "o": 1.35384,
    "h": 1.35714,
    "l": 1.35349,
    "c": 1.35621,
    "v": 4659
  },
  {
    "dt": "2022.01.07 17:00",
    "o": 1.35622,
    "h": 1.35734,
    "l": 1.35576,
    "c": 1.35716,
    "v": 3839
  },
  {
    "dt": "2022.01.07 18:00",
    "o": 1.35712,
    "h": 1.35816,
    "l": 1.35597,
    "c": 1.35815,
    "v": 3071
  },
  {
    "dt": "2022.01.07 19:00",
    "o": 1.35813,
    "h": 1.35828,
    "l": 1.35705,
    "c": 1.35787,
    "v": 1823
  },
  {
    "dt": "2022.01.07 20:00",
    "o": 1.35788,
    "h": 1.35869,
    "l": 1.35748,
    "c": 1.35847,
    "v": 1227
  },
  {
    "dt": "2022.01.07 21:00",
    "o": 1.35847,
    "h": 1.3596,
    "l": 1.35829,
    "c": 1.35949,
    "v": 1170
  },
  {
    "dt": "2022.01.07 22:00",
    "o": 1.35947,
    "h": 1.35958,
    "l": 1.35903,
    "c": 1.35939,
    "v": 1080
  },
  {
    "dt": "2022.01.07 23:00",
    "o": 1.35938,
    "h": 1.35965,
    "l": 1.35869,
    "c": 1.35875,
    "v": 866
  },
  {
    "dt": "2022.01.10 00:00",
    "o": 1.35788,
    "h": 1.35841,
    "l": 1.3574,
    "c": 1.35793,
    "v": 322
  },
  {
    "dt": "2022.01.10 01:00",
    "o": 1.35783,
    "h": 1.35917,
    "l": 1.35783,
    "c": 1.35906,
    "v": 1260
  },
  {
    "dt": "2022.01.10 02:00",
    "o": 1.35906,
    "h": 1.35966,
    "l": 1.35884,
    "c": 1.35934,
    "v": 824
  },
  {
    "dt": "2022.01.10 03:00",
    "o": 1.35934,
    "h": 1.35949,
    "l": 1.35891,
    "c": 1.35933,
    "v": 1139
  },
  {
    "dt": "2022.01.10 04:00",
    "o": 1.35933,
    "h": 1.35956,
    "l": 1.35845,
    "c": 1.35846,
    "v": 872
  },
  {
    "dt": "2022.01.10 05:00",
    "o": 1.35845,
    "h": 1.35853,
    "l": 1.35805,
    "c": 1.35828,
    "v": 741
  },
  {
    "dt": "2022.01.10 06:00",
    "o": 1.35827,
    "h": 1.35888,
    "l": 1.35823,
    "c": 1.35827,
    "v": 674
  },
  {
    "dt": "2022.01.10 07:00",
    "o": 1.35828,
    "h": 1.35855,
    "l": 1.35794,
    "c": 1.35843,
    "v": 684
  },
  {
    "dt": "2022.01.10 08:00",
    "o": 1.35848,
    "h": 1.3586,
    "l": 1.35774,
    "c": 1.35824,
    "v": 1055
  },
  {
    "dt": "2022.01.10 09:00",
    "o": 1.35823,
    "h": 1.35931,
    "l": 1.35815,
    "c": 1.35846,
    "v": 1708
  },
  {
    "dt": "2022.01.10 10:00",
    "o": 1.35845,
    "h": 1.35895,
    "l": 1.35735,
    "c": 1.35895,
    "v": 3277
  },
  {
    "dt": "2022.01.10 11:00",
    "o": 1.35896,
    "h": 1.36027,
    "l": 1.35807,
    "c": 1.35815,
    "v": 2550
  },
  {
    "dt": "2022.01.10 12:00",
    "o": 1.35813,
    "h": 1.35966,
    "l": 1.35773,
    "c": 1.35874,
    "v": 2381
  },
  {
    "dt": "2022.01.10 13:00",
    "o": 1.35876,
    "h": 1.35904,
    "l": 1.35765,
    "c": 1.35819,
    "v": 2264
  },
  {
    "dt": "2022.01.10 14:00",
    "o": 1.35814,
    "h": 1.35886,
    "l": 1.35633,
    "c": 1.35678,
    "v": 2961
  },
  {
    "dt": "2022.01.10 15:00",
    "o": 1.35676,
    "h": 1.35741,
    "l": 1.35511,
    "c": 1.35527,
    "v": 3329
  },
  {
    "dt": "2022.01.10 16:00",
    "o": 1.35525,
    "h": 1.35529,
    "l": 1.35346,
    "c": 1.35387,
    "v": 3528
  },
  {
    "dt": "2022.01.10 17:00",
    "o": 1.35381,
    "h": 1.35664,
    "l": 1.35313,
    "c": 1.35598,
    "v": 3866
  },
  {
    "dt": "2022.01.10 18:00",
    "o": 1.35598,
    "h": 1.357,
    "l": 1.35526,
    "c": 1.35646,
    "v": 3429
  },
  {
    "dt": "2022.01.10 19:00",
    "o": 1.35651,
    "h": 1.35691,
    "l": 1.35584,
    "c": 1.35619,
    "v": 2273
  },
  {
    "dt": "2022.01.10 20:00",
    "o": 1.35617,
    "h": 1.35736,
    "l": 1.35598,
    "c": 1.35676,
    "v": 2438
  },
  {
    "dt": "2022.01.10 21:00",
    "o": 1.35677,
    "h": 1.35712,
    "l": 1.3561,
    "c": 1.35699,
    "v": 2114
  },
  {
    "dt": "2022.01.10 22:00",
    "o": 1.35699,
    "h": 1.35795,
    "l": 1.35679,
    "c": 1.35774,
    "v": 2137
  },
  {
    "dt": "2022.01.10 23:00",
    "o": 1.35774,
    "h": 1.35795,
    "l": 1.35718,
    "c": 1.35742,
    "v": 1110
  },
  {
    "dt": "2022.01.11 00:00",
    "o": 1.35574,
    "h": 1.35768,
    "l": 1.35574,
    "c": 1.35763,
    "v": 386
  },
  {
    "dt": "2022.01.11 01:00",
    "o": 1.35763,
    "h": 1.35798,
    "l": 1.35757,
    "c": 1.35785,
    "v": 603
  },
  {
    "dt": "2022.01.11 02:00",
    "o": 1.35784,
    "h": 1.35847,
    "l": 1.35768,
    "c": 1.35838,
    "v": 1041
  },
  {
    "dt": "2022.01.11 03:00",
    "o": 1.35838,
    "h": 1.35866,
    "l": 1.35786,
    "c": 1.35791,
    "v": 1753
  },
  {
    "dt": "2022.01.11 04:00",
    "o": 1.35789,
    "h": 1.35914,
    "l": 1.35779,
    "c": 1.35867,
    "v": 1331
  },
  {
    "dt": "2022.01.11 05:00",
    "o": 1.35866,
    "h": 1.35964,
    "l": 1.35865,
    "c": 1.35916,
    "v": 948
  },
  {
    "dt": "2022.01.11 06:00",
    "o": 1.35915,
    "h": 1.3592,
    "l": 1.35874,
    "c": 1.35919,
    "v": 912
  },
  {
    "dt": "2022.01.11 07:00",
    "o": 1.35919,
    "h": 1.3599,
    "l": 1.35914,
    "c": 1.35959,
    "v": 1061
  },
  {
    "dt": "2022.01.11 08:00",
    "o": 1.35961,
    "h": 1.35984,
    "l": 1.35788,
    "c": 1.35839,
    "v": 1650
  },
  {
    "dt": "2022.01.11 09:00",
    "o": 1.35838,
    "h": 1.35971,
    "l": 1.35835,
    "c": 1.35968,
    "v": 2181
  },
  {
    "dt": "2022.01.11 10:00",
    "o": 1.35968,
    "h": 1.36189,
    "l": 1.35943,
    "c": 1.36097,
    "v": 3334
  },
  {
    "dt": "2022.01.11 11:00",
    "o": 1.36098,
    "h": 1.36171,
    "l": 1.36009,
    "c": 1.3608,
    "v": 2912
  },
  {
    "dt": "2022.01.11 12:00",
    "o": 1.36081,
    "h": 1.36112,
    "l": 1.35986,
    "c": 1.3604,
    "v": 2461
  },
  {
    "dt": "2022.01.11 13:00",
    "o": 1.3604,
    "h": 1.3604,
    "l": 1.35839,
    "c": 1.35844,
    "v": 2478
  },
  {
    "dt": "2022.01.11 14:00",
    "o": 1.35848,
    "h": 1.35929,
    "l": 1.35732,
    "c": 1.3575,
    "v": 2841
  },
  {
    "dt": "2022.01.11 15:00",
    "o": 1.35749,
    "h": 1.35824,
    "l": 1.35645,
    "c": 1.35727,
    "v": 2788
  },
  {
    "dt": "2022.01.11 16:00",
    "o": 1.35727,
    "h": 1.35797,
    "l": 1.35607,
    "c": 1.35735,
    "v": 3750
  },
  {
    "dt": "2022.01.11 17:00",
    "o": 1.35736,
    "h": 1.3604,
    "l": 1.35729,
    "c": 1.36034,
    "v": 4244
  },
  {
    "dt": "2022.01.11 18:00",
    "o": 1.36036,
    "h": 1.36235,
    "l": 1.36036,
    "c": 1.36196,
    "v": 3403
  },
  {
    "dt": "2022.01.11 19:00",
    "o": 1.36199,
    "h": 1.36224,
    "l": 1.36128,
    "c": 1.3616,
    "v": 1966
  },
  {
    "dt": "2022.01.11 20:00",
    "o": 1.36159,
    "h": 1.36238,
    "l": 1.36104,
    "c": 1.3622,
    "v": 1668
  },
  {
    "dt": "2022.01.11 21:00",
    "o": 1.3622,
    "h": 1.36277,
    "l": 1.36185,
    "c": 1.36268,
    "v": 1805
  },
  {
    "dt": "2022.01.11 22:00",
    "o": 1.36268,
    "h": 1.36318,
    "l": 1.36238,
    "c": 1.36293,
    "v": 1593
  },
  {
    "dt": "2022.01.11 23:00",
    "o": 1.36294,
    "h": 1.36354,
    "l": 1.36272,
    "c": 1.36326,
    "v": 1041
  },
  {
    "dt": "2022.01.12 00:00",
    "o": 1.36324,
    "h": 1.36345,
    "l": 1.36258,
    "c": 1.36303,
    "v": 355
  },
  {
    "dt": "2022.01.12 01:00",
    "o": 1.36302,
    "h": 1.36352,
    "l": 1.36299,
    "c": 1.36316,
    "v": 536
  },
  {
    "dt": "2022.01.12 02:00",
    "o": 1.36323,
    "h": 1.3641,
    "l": 1.36318,
    "c": 1.36364,
    "v": 801
  },
  {
    "dt": "2022.01.12 03:00",
    "o": 1.36363,
    "h": 1.36385,
    "l": 1.36273,
    "c": 1.36327,
    "v": 1374
  },
  {
    "dt": "2022.01.12 04:00",
    "o": 1.36324,
    "h": 1.36421,
    "l": 1.36317,
    "c": 1.36418,
    "v": 1113
  },
  {
    "dt": "2022.01.12 05:00",
    "o": 1.36416,
    "h": 1.36449,
    "l": 1.36415,
    "c": 1.36433,
    "v": 745
  },
  {
    "dt": "2022.01.12 06:00",
    "o": 1.36432,
    "h": 1.36433,
    "l": 1.36362,
    "c": 1.36363,
    "v": 639
  },
  {
    "dt": "2022.01.12 07:00",
    "o": 1.36364,
    "h": 1.36445,
    "l": 1.36363,
    "c": 1.36408,
    "v": 761
  },
  {
    "dt": "2022.01.12 08:00",
    "o": 1.3641,
    "h": 1.36437,
    "l": 1.3632,
    "c": 1.36326,
    "v": 894
  },
  {
    "dt": "2022.01.12 09:00",
    "o": 1.36325,
    "h": 1.36361,
    "l": 1.36246,
    "c": 1.36288,
    "v": 1777
  },
  {
    "dt": "2022.01.12 10:00",
    "o": 1.36296,
    "h": 1.36396,
    "l": 1.36245,
    "c": 1.36282,
    "v": 2436
  },
  {
    "dt": "2022.01.12 11:00",
    "o": 1.36282,
    "h": 1.36342,
    "l": 1.36221,
    "c": 1.36262,
    "v": 2155
  },
  {
    "dt": "2022.01.12 12:00",
    "o": 1.36262,
    "h": 1.36325,
    "l": 1.36197,
    "c": 1.36263,
    "v": 2134
  },
  {
    "dt": "2022.01.12 13:00",
    "o": 1.36264,
    "h": 1.36368,
    "l": 1.36258,
    "c": 1.3633,
    "v": 1931
  },
  {
    "dt": "2022.01.12 14:00",
    "o": 1.36337,
    "h": 1.3641,
    "l": 1.36332,
    "c": 1.3636,
    "v": 2206
  },
  {
    "dt": "2022.01.12 15:00",
    "o": 1.36359,
    "h": 1.36827,
    "l": 1.36352,
    "c": 1.3676,
    "v": 4153
  },
  {
    "dt": "2022.01.12 16:00",
    "o": 1.36766,
    "h": 1.3691,
    "l": 1.36666,
    "c": 1.36855,
    "v": 4061
  },
  {
    "dt": "2022.01.12 17:00",
    "o": 1.36852,
    "h": 1.36947,
    "l": 1.36777,
    "c": 1.36864,
    "v": 3943
  },
  {
    "dt": "2022.01.12 18:00",
    "o": 1.36863,
    "h": 1.36986,
    "l": 1.36834,
    "c": 1.36983,
    "v": 3317
  },
  {
    "dt": "2022.01.12 19:00",
    "o": 1.36985,
    "h": 1.37079,
    "l": 1.36932,
    "c": 1.37065,
    "v": 2445
  },
  {
    "dt": "2022.01.12 20:00",
    "o": 1.37065,
    "h": 1.37067,
    "l": 1.37005,
    "c": 1.37013,
    "v": 1925
  },
  {
    "dt": "2022.01.12 21:00",
    "o": 1.37013,
    "h": 1.37121,
    "l": 1.37,
    "c": 1.3711,
    "v": 1985
  },
  {
    "dt": "2022.01.12 22:00",
    "o": 1.37117,
    "h": 1.37127,
    "l": 1.37043,
    "c": 1.37099,
    "v": 1812
  },
  {
    "dt": "2022.01.12 23:00",
    "o": 1.37101,
    "h": 1.37117,
    "l": 1.36953,
    "c": 1.36953,
    "v": 1486
  },
  {
    "dt": "2022.01.13 00:00",
    "o": 1.36982,
    "h": 1.37044,
    "l": 1.36971,
    "c": 1.37034,
    "v": 469
  },
  {
    "dt": "2022.01.13 01:00",
    "o": 1.37047,
    "h": 1.37099,
    "l": 1.37033,
    "c": 1.3705,
    "v": 655
  },
  {
    "dt": "2022.01.13 02:00",
    "o": 1.37049,
    "h": 1.37118,
    "l": 1.37038,
    "c": 1.3707,
    "v": 1175
  },
  {
    "dt": "2022.01.13 03:00",
    "o": 1.37075,
    "h": 1.37111,
    "l": 1.37046,
    "c": 1.37065,
    "v": 1706
  },
  {
    "dt": "2022.01.13 04:00",
    "o": 1.37066,
    "h": 1.37181,
    "l": 1.37062,
    "c": 1.37154,
    "v": 1337
  },
  {
    "dt": "2022.01.13 05:00",
    "o": 1.37154,
    "h": 1.37154,
    "l": 1.37081,
    "c": 1.37106,
    "v": 1248
  },
  {
    "dt": "2022.01.13 06:00",
    "o": 1.37107,
    "h": 1.37158,
    "l": 1.37102,
    "c": 1.37126,
    "v": 821
  },
  {
    "dt": "2022.01.13 07:00",
    "o": 1.37126,
    "h": 1.37161,
    "l": 1.37092,
    "c": 1.37092,
    "v": 1068
  },
  {
    "dt": "2022.01.13 08:00",
    "o": 1.37093,
    "h": 1.37109,
    "l": 1.37042,
    "c": 1.37099,
    "v": 1307
  },
  {
    "dt": "2022.01.13 09:00",
    "o": 1.37099,
    "h": 1.37308,
    "l": 1.37088,
    "c": 1.37308,
    "v": 2261
  },
  {
    "dt": "2022.01.13 10:00",
    "o": 1.37309,
    "h": 1.37462,
    "l": 1.37288,
    "c": 1.37332,
    "v": 2676
  },
  {
    "dt": "2022.01.13 11:00",
    "o": 1.3734,
    "h": 1.37416,
    "l": 1.3723,
    "c": 1.37363,
    "v": 2252
  },
  {
    "dt": "2022.01.13 12:00",
    "o": 1.37363,
    "h": 1.3748,
    "l": 1.3733,
    "c": 1.37424,
    "v": 2443
  },
  {
    "dt": "2022.01.13 13:00",
    "o": 1.37424,
    "h": 1.3748,
    "l": 1.37254,
    "c": 1.37272,
    "v": 2430
  },
  {
    "dt": "2022.01.13 14:00",
    "o": 1.37273,
    "h": 1.37342,
    "l": 1.37125,
    "c": 1.37137,
    "v": 2924
  },
  {
    "dt": "2022.01.13 15:00",
    "o": 1.37135,
    "h": 1.37375,
    "l": 1.37126,
    "c": 1.37369,
    "v": 3448
  },
  {
    "dt": "2022.01.13 16:00",
    "o": 1.37376,
    "h": 1.37471,
    "l": 1.37308,
    "c": 1.37453,
    "v": 3432
  },
  {
    "dt": "2022.01.13 17:00",
    "o": 1.37454,
    "h": 1.3746,
    "l": 1.37187,
    "c": 1.37332,
    "v": 4226
  },
  {
    "dt": "2022.01.13 18:00",
    "o": 1.37336,
    "h": 1.37391,
    "l": 1.37228,
    "c": 1.37237,
    "v": 3124
  },
  {
    "dt": "2022.01.13 19:00",
    "o": 1.37237,
    "h": 1.37237,
    "l": 1.37073,
    "c": 1.37119,
    "v": 2636
  },
  {
    "dt": "2022.01.13 20:00",
    "o": 1.3712,
    "h": 1.37216,
    "l": 1.37096,
    "c": 1.37145,
    "v": 2365
  },
  {
    "dt": "2022.01.13 21:00",
    "o": 1.37145,
    "h": 1.37196,
    "l": 1.37137,
    "c": 1.3719,
    "v": 1892
  },
  {
    "dt": "2022.01.13 22:00",
    "o": 1.37192,
    "h": 1.37193,
    "l": 1.36998,
    "c": 1.37024,
    "v": 2048
  },
  {
    "dt": "2022.01.13 23:00",
    "o": 1.37024,
    "h": 1.37088,
    "l": 1.3701,
    "c": 1.37036,
    "v": 958
  },
  {
    "dt": "2022.01.14 00:00",
    "o": 1.3711,
    "h": 1.37111,
    "l": 1.37038,
    "c": 1.37065,
    "v": 865
  },
  {
    "dt": "2022.01.14 01:00",
    "o": 1.3707,
    "h": 1.37144,
    "l": 1.37062,
    "c": 1.37121,
    "v": 728
  },
  {
    "dt": "2022.01.14 02:00",
    "o": 1.37122,
    "h": 1.37122,
    "l": 1.37041,
    "c": 1.37087,
    "v": 1421
  },
  {
    "dt": "2022.01.14 03:00",
    "o": 1.37087,
    "h": 1.37177,
    "l": 1.37059,
    "c": 1.37114,
    "v": 1805
  },
  {
    "dt": "2022.01.14 04:00",
    "o": 1.37114,
    "h": 1.3724,
    "l": 1.37106,
    "c": 1.3724,
    "v": 1643
  },
  {
    "dt": "2022.01.14 05:00",
    "o": 1.3724,
    "h": 1.37287,
    "l": 1.37221,
    "c": 1.37259,
    "v": 1416
  },
  {
    "dt": "2022.01.14 06:00",
    "o": 1.37259,
    "h": 1.37289,
    "l": 1.37235,
    "c": 1.37266,
    "v": 1206
  },
  {
    "dt": "2022.01.14 07:00",
    "o": 1.37268,
    "h": 1.37368,
    "l": 1.3726,
    "c": 1.37319,
    "v": 1188
  },
  {
    "dt": "2022.01.14 08:00",
    "o": 1.37319,
    "h": 1.37358,
    "l": 1.37271,
    "c": 1.37285,
    "v": 1507
  },
  {
    "dt": "2022.01.14 09:00",
    "o": 1.37275,
    "h": 1.3732,
    "l": 1.3715,
    "c": 1.37242,
    "v": 2495
  },
  {
    "dt": "2022.01.14 10:00",
    "o": 1.37243,
    "h": 1.37419,
    "l": 1.37227,
    "c": 1.37324,
    "v": 3207
  },
  {
    "dt": "2022.01.14 11:00",
    "o": 1.37324,
    "h": 1.37389,
    "l": 1.37267,
    "c": 1.37335,
    "v": 2840
  },
  {
    "dt": "2022.01.14 12:00",
    "o": 1.37333,
    "h": 1.37334,
    "l": 1.37246,
    "c": 1.37286,
    "v": 2171
  },
  {
    "dt": "2022.01.14 13:00",
    "o": 1.37284,
    "h": 1.37327,
    "l": 1.37182,
    "c": 1.37183,
    "v": 1893
  },
  {
    "dt": "2022.01.14 14:00",
    "o": 1.37176,
    "h": 1.37257,
    "l": 1.37048,
    "c": 1.37089,
    "v": 3154
  },
  {
    "dt": "2022.01.14 15:00",
    "o": 1.37088,
    "h": 1.37221,
    "l": 1.36943,
    "c": 1.36996,
    "v": 4297
  },
  {
    "dt": "2022.01.14 16:00",
    "o": 1.36995,
    "h": 1.37036,
    "l": 1.36841,
    "c": 1.36915,
    "v": 4494
  },
  {
    "dt": "2022.01.14 17:00",
    "o": 1.36894,
    "h": 1.36952,
    "l": 1.36728,
    "c": 1.36821,
    "v": 4667
  },
  {
    "dt": "2022.01.14 18:00",
    "o": 1.36823,
    "h": 1.36884,
    "l": 1.36648,
    "c": 1.36686,
    "v": 3553
  },
  {
    "dt": "2022.01.14 19:00",
    "o": 1.36689,
    "h": 1.36709,
    "l": 1.36527,
    "c": 1.36545,
    "v": 2634
  },
  {
    "dt": "2022.01.14 20:00",
    "o": 1.36546,
    "h": 1.36718,
    "l": 1.36525,
    "c": 1.36696,
    "v": 2267
  },
  {
    "dt": "2022.01.14 21:00",
    "o": 1.36696,
    "h": 1.36772,
    "l": 1.36686,
    "c": 1.36755,
    "v": 1707
  },
  {
    "dt": "2022.01.14 22:00",
    "o": 1.36755,
    "h": 1.36828,
    "l": 1.36734,
    "c": 1.36785,
    "v": 1692
  },
  {
    "dt": "2022.01.14 23:00",
    "o": 1.36788,
    "h": 1.36821,
    "l": 1.36731,
    "c": 1.3676,
    "v": 1219
  },
  {
    "dt": "2022.01.17 00:00",
    "o": 1.36752,
    "h": 1.36761,
    "l": 1.36662,
    "c": 1.36694,
    "v": 296
  },
  {
    "dt": "2022.01.17 01:00",
    "o": 1.36722,
    "h": 1.36744,
    "l": 1.3665,
    "c": 1.3672,
    "v": 1107
  },
  {
    "dt": "2022.01.17 02:00",
    "o": 1.36721,
    "h": 1.36734,
    "l": 1.36648,
    "c": 1.36702,
    "v": 1281
  },
  {
    "dt": "2022.01.17 03:00",
    "o": 1.36703,
    "h": 1.36723,
    "l": 1.36625,
    "c": 1.36662,
    "v": 2093
  },
  {
    "dt": "2022.01.17 04:00",
    "o": 1.36666,
    "h": 1.36759,
    "l": 1.36632,
    "c": 1.36736,
    "v": 1661
  },
  {
    "dt": "2022.01.17 05:00",
    "o": 1.36735,
    "h": 1.36807,
    "l": 1.36726,
    "c": 1.36772,
    "v": 1100
  },
  {
    "dt": "2022.01.17 06:00",
    "o": 1.36773,
    "h": 1.36806,
    "l": 1.36755,
    "c": 1.36768,
    "v": 1066
  },
  {
    "dt": "2022.01.17 07:00",
    "o": 1.36775,
    "h": 1.36779,
    "l": 1.36715,
    "c": 1.36729,
    "v": 1020
  },
  {
    "dt": "2022.01.17 08:00",
    "o": 1.3673,
    "h": 1.36771,
    "l": 1.36688,
    "c": 1.36707,
    "v": 1191
  },
  {
    "dt": "2022.01.17 09:00",
    "o": 1.36708,
    "h": 1.36852,
    "l": 1.36693,
    "c": 1.36827,
    "v": 2227
  },
  {
    "dt": "2022.01.17 10:00",
    "o": 1.36834,
    "h": 1.36892,
    "l": 1.36752,
    "c": 1.36765,
    "v": 2736
  },
  {
    "dt": "2022.01.17 11:00",
    "o": 1.36764,
    "h": 1.36812,
    "l": 1.36685,
    "c": 1.36786,
    "v": 2710
  },
  {
    "dt": "2022.01.17 12:00",
    "o": 1.36785,
    "h": 1.36858,
    "l": 1.36746,
    "c": 1.36785,
    "v": 2239
  },
  {
    "dt": "2022.01.17 13:00",
    "o": 1.36785,
    "h": 1.36855,
    "l": 1.36554,
    "c": 1.36605,
    "v": 2645
  },
  {
    "dt": "2022.01.17 14:00",
    "o": 1.36605,
    "h": 1.36645,
    "l": 1.364,
    "c": 1.36403,
    "v": 2556
  },
  {
    "dt": "2022.01.17 15:00",
    "o": 1.36402,
    "h": 1.36532,
    "l": 1.36365,
    "c": 1.36507,
    "v": 2894
  },
  {
    "dt": "2022.01.17 16:00",
    "o": 1.36507,
    "h": 1.36626,
    "l": 1.36436,
    "c": 1.36605,
    "v": 2620
  },
  {
    "dt": "2022.01.17 17:00",
    "o": 1.36601,
    "h": 1.36604,
    "l": 1.36404,
    "c": 1.36479,
    "v": 2802
  },
  {
    "dt": "2022.01.17 18:00",
    "o": 1.36481,
    "h": 1.36557,
    "l": 1.36465,
    "c": 1.36507,
    "v": 2023
  },
  {
    "dt": "2022.01.17 19:00",
    "o": 1.36506,
    "h": 1.36557,
    "l": 1.3648,
    "c": 1.365,
    "v": 1333
  },
  {
    "dt": "2022.01.17 20:00",
    "o": 1.365,
    "h": 1.36504,
    "l": 1.36458,
    "c": 1.36462,
    "v": 346
  },
  {
    "dt": "2022.01.17 21:00",
    "o": 1.36463,
    "h": 1.36482,
    "l": 1.36427,
    "c": 1.36438,
    "v": 472
  },
  {
    "dt": "2022.01.17 22:00",
    "o": 1.3644,
    "h": 1.36448,
    "l": 1.36424,
    "c": 1.36428,
    "v": 255
  },
  {
    "dt": "2022.01.17 23:00",
    "o": 1.36428,
    "h": 1.36444,
    "l": 1.36406,
    "c": 1.36436,
    "v": 362
  },
  {
    "dt": "2022.01.18 00:00",
    "o": 1.36423,
    "h": 1.36432,
    "l": 1.36407,
    "c": 1.36415,
    "v": 130
  },
  {
    "dt": "2022.01.18 01:00",
    "o": 1.36412,
    "h": 1.36465,
    "l": 1.36408,
    "c": 1.36463,
    "v": 551
  },
  {
    "dt": "2022.01.18 02:00",
    "o": 1.36462,
    "h": 1.36578,
    "l": 1.36452,
    "c": 1.36576,
    "v": 1018
  },
  {
    "dt": "2022.01.18 03:00",
    "o": 1.36576,
    "h": 1.36607,
    "l": 1.36521,
    "c": 1.36583,
    "v": 1556
  },
  {
    "dt": "2022.01.18 04:00",
    "o": 1.36586,
    "h": 1.366,
    "l": 1.36512,
    "c": 1.36545,
    "v": 1509
  },
  {
    "dt": "2022.01.18 05:00",
    "o": 1.36547,
    "h": 1.36594,
    "l": 1.36205,
    "c": 1.36279,
    "v": 2606
  },
  {
    "dt": "2022.01.18 06:00",
    "o": 1.36278,
    "h": 1.36386,
    "l": 1.36274,
    "c": 1.36382,
    "v": 2213
  },
  {
    "dt": "2022.01.18 07:00",
    "o": 1.36381,
    "h": 1.364,
    "l": 1.36307,
    "c": 1.36334,
    "v": 2018
  },
  {
    "dt": "2022.01.18 08:00",
    "o": 1.36334,
    "h": 1.36427,
    "l": 1.3633,
    "c": 1.36399,
    "v": 2119
  },
  {
    "dt": "2022.01.18 09:00",
    "o": 1.36395,
    "h": 1.36487,
    "l": 1.36332,
    "c": 1.36439,
    "v": 3198
  },
  {
    "dt": "2022.01.18 10:00",
    "o": 1.36436,
    "h": 1.36516,
    "l": 1.36335,
    "c": 1.36428,
    "v": 3797
  },
  {
    "dt": "2022.01.18 11:00",
    "o": 1.36426,
    "h": 1.36434,
    "l": 1.36201,
    "c": 1.36254,
    "v": 3318
  },
  {
    "dt": "2022.01.18 12:00",
    "o": 1.36254,
    "h": 1.36266,
    "l": 1.36111,
    "c": 1.36124,
    "v": 2936
  },
  {
    "dt": "2022.01.18 13:00",
    "o": 1.36119,
    "h": 1.3622,
    "l": 1.36015,
    "c": 1.36022,
    "v": 2973
  },
  {
    "dt": "2022.01.18 14:00",
    "o": 1.36024,
    "h": 1.36028,
    "l": 1.35853,
    "c": 1.35897,
    "v": 3066
  },
  {
    "dt": "2022.01.18 15:00",
    "o": 1.35896,
    "h": 1.35999,
    "l": 1.35794,
    "c": 1.35988,
    "v": 4108
  },
  {
    "dt": "2022.01.18 16:00",
    "o": 1.35987,
    "h": 1.35987,
    "l": 1.358,
    "c": 1.35887,
    "v": 4551
  },
  {
    "dt": "2022.01.18 17:00",
    "o": 1.35882,
    "h": 1.35882,
    "l": 1.35726,
    "c": 1.35812,
    "v": 4426
  },
  {
    "dt": "2022.01.18 18:00",
    "o": 1.35816,
    "h": 1.35881,
    "l": 1.35739,
    "c": 1.35859,
    "v": 3831
  },
  {
    "dt": "2022.01.18 19:00",
    "o": 1.35863,
    "h": 1.35869,
    "l": 1.35724,
    "c": 1.35765,
    "v": 3045
  },
  {
    "dt": "2022.01.18 20:00",
    "o": 1.35766,
    "h": 1.35881,
    "l": 1.35725,
    "c": 1.35849,
    "v": 2713
  },
  {
    "dt": "2022.01.18 21:00",
    "o": 1.35847,
    "h": 1.36028,
    "l": 1.35847,
    "c": 1.35964,
    "v": 3070
  },
  {
    "dt": "2022.01.18 22:00",
    "o": 1.35963,
    "h": 1.35984,
    "l": 1.35836,
    "c": 1.35898,
    "v": 2707
  },
  {
    "dt": "2022.01.18 23:00",
    "o": 1.35897,
    "h": 1.35979,
    "l": 1.35872,
    "c": 1.3593,
    "v": 1641
  },
  {
    "dt": "2022.01.19 00:00",
    "o": 1.35885,
    "h": 1.35975,
    "l": 1.35875,
    "c": 1.35965,
    "v": 729
  },
  {
    "dt": "2022.01.19 01:00",
    "o": 1.35964,
    "h": 1.35996,
    "l": 1.35952,
    "c": 1.35983,
    "v": 734
  },
  {
    "dt": "2022.01.19 02:00",
    "o": 1.35991,
    "h": 1.35992,
    "l": 1.3587,
    "c": 1.35946,
    "v": 1420
  },
  {
    "dt": "2022.01.19 03:00",
    "o": 1.35953,
    "h": 1.36017,
    "l": 1.35933,
    "c": 1.36003,
    "v": 2260
  },
  {
    "dt": "2022.01.19 04:00",
    "o": 1.36003,
    "h": 1.36042,
    "l": 1.35955,
    "c": 1.35975,
    "v": 2241
  },
  {
    "dt": "2022.01.19 05:00",
    "o": 1.35975,
    "h": 1.35988,
    "l": 1.35925,
    "c": 1.35977,
    "v": 1614
  },
  {
    "dt": "2022.01.19 06:00",
    "o": 1.35975,
    "h": 1.36084,
    "l": 1.35956,
    "c": 1.36035,
    "v": 1456
  },
  {
    "dt": "2022.01.19 07:00",
    "o": 1.36033,
    "h": 1.36088,
    "l": 1.36022,
    "c": 1.36076,
    "v": 1873
  },
  {
    "dt": "2022.01.19 08:00",
    "o": 1.3607,
    "h": 1.36095,
    "l": 1.36006,
    "c": 1.3603,
    "v": 2017
  },
  {
    "dt": "2022.01.19 09:00",
    "o": 1.36005,
    "h": 1.36169,
    "l": 1.35876,
    "c": 1.35888,
    "v": 3287
  },
  {
    "dt": "2022.01.19 10:00",
    "o": 1.35886,
    "h": 1.35998,
    "l": 1.35871,
    "c": 1.35919,
    "v": 3689
  },
  {
    "dt": "2022.01.19 11:00",
    "o": 1.35926,
    "h": 1.36187,
    "l": 1.35924,
    "c": 1.36125,
    "v": 3484
  },
  {
    "dt": "2022.01.19 12:00",
    "o": 1.36125,
    "h": 1.36317,
    "l": 1.36085,
    "c": 1.36305,
    "v": 2861
  },
  {
    "dt": "2022.01.19 13:00",
    "o": 1.36305,
    "h": 1.3644,
    "l": 1.36265,
    "c": 1.36294,
    "v": 2776
  },
  {
    "dt": "2022.01.19 14:00",
    "o": 1.36296,
    "h": 1.36346,
    "l": 1.36211,
    "c": 1.36237,
    "v": 2625
  },
  {
    "dt": "2022.01.19 15:00",
    "o": 1.36237,
    "h": 1.36429,
    "l": 1.36201,
    "c": 1.36281,
    "v": 3368
  },
  {
    "dt": "2022.01.19 16:00",
    "o": 1.36281,
    "h": 1.36477,
    "l": 1.36247,
    "c": 1.36424,
    "v": 4154
  },
  {
    "dt": "2022.01.19 17:00",
    "o": 1.36423,
    "h": 1.36477,
    "l": 1.36254,
    "c": 1.36275,
    "v": 3984
  },
  {
    "dt": "2022.01.19 18:00",
    "o": 1.36276,
    "h": 1.36319,
    "l": 1.36224,
    "c": 1.36227,
    "v": 3033
  },
  {
    "dt": "2022.01.19 19:00",
    "o": 1.36227,
    "h": 1.36341,
    "l": 1.36215,
    "c": 1.36252,
    "v": 2318
  },
  {
    "dt": "2022.01.19 20:00",
    "o": 1.36251,
    "h": 1.36338,
    "l": 1.36208,
    "c": 1.36268,
    "v": 2492
  },
  {
    "dt": "2022.01.19 21:00",
    "o": 1.36269,
    "h": 1.36272,
    "l": 1.36198,
    "c": 1.36248,
    "v": 2203
  },
  {
    "dt": "2022.01.19 22:00",
    "o": 1.36246,
    "h": 1.36269,
    "l": 1.36161,
    "c": 1.36176,
    "v": 1878
  },
  {
    "dt": "2022.01.19 23:00",
    "o": 1.36177,
    "h": 1.36196,
    "l": 1.36082,
    "c": 1.36082,
    "v": 915
  },
  {
    "dt": "2022.01.20 00:00",
    "o": 1.36094,
    "h": 1.36108,
    "l": 1.36038,
    "c": 1.36096,
    "v": 346
  },
  {
    "dt": "2022.01.20 01:00",
    "o": 1.36103,
    "h": 1.36109,
    "l": 1.36058,
    "c": 1.3608,
    "v": 720
  },
  {
    "dt": "2022.01.20 02:00",
    "o": 1.36086,
    "h": 1.36236,
    "l": 1.36081,
    "c": 1.36225,
    "v": 1373
  },
  {
    "dt": "2022.01.20 03:00",
    "o": 1.36225,
    "h": 1.36352,
    "l": 1.36203,
    "c": 1.36277,
    "v": 2538
  },
  {
    "dt": "2022.01.20 04:00",
    "o": 1.36279,
    "h": 1.36291,
    "l": 1.36179,
    "c": 1.36254,
    "v": 1758
  },
  {
    "dt": "2022.01.20 05:00",
    "o": 1.36252,
    "h": 1.36279,
    "l": 1.36222,
    "c": 1.36265,
    "v": 1667
  },
  {
    "dt": "2022.01.20 06:00",
    "o": 1.36264,
    "h": 1.36273,
    "l": 1.36214,
    "c": 1.36237,
    "v": 1199
  },
  {
    "dt": "2022.01.20 07:00",
    "o": 1.36238,
    "h": 1.36257,
    "l": 1.3619,
    "c": 1.36227,
    "v": 1838
  },
  {
    "dt": "2022.01.20 08:00",
    "o": 1.36228,
    "h": 1.36298,
    "l": 1.36205,
    "c": 1.36269,
    "v": 1769
  },
  {
    "dt": "2022.01.20 09:00",
    "o": 1.36268,
    "h": 1.36331,
    "l": 1.36204,
    "c": 1.36259,
    "v": 3055
  },
  {
    "dt": "2022.01.20 10:00",
    "o": 1.3626,
    "h": 1.36364,
    "l": 1.36247,
    "c": 1.36282,
    "v": 3600
  },
  {
    "dt": "2022.01.20 11:00",
    "o": 1.36279,
    "h": 1.36362,
    "l": 1.3618,
    "c": 1.36263,
    "v": 3531
  },
  {
    "dt": "2022.01.20 12:00",
    "o": 1.36263,
    "h": 1.36269,
    "l": 1.36146,
    "c": 1.36166,
    "v": 2860
  },
  {
    "dt": "2022.01.20 13:00",
    "o": 1.36167,
    "h": 1.3621,
    "l": 1.36035,
    "c": 1.36067,
    "v": 3159
  },
  {
    "dt": "2022.01.20 14:00",
    "o": 1.36068,
    "h": 1.36143,
    "l": 1.35985,
    "c": 1.36114,
    "v": 2668
  },
  {
    "dt": "2022.01.20 15:00",
    "o": 1.36115,
    "h": 1.36338,
    "l": 1.36112,
    "c": 1.36321,
    "v": 3674
  },
  {
    "dt": "2022.01.20 16:00",
    "o": 1.36324,
    "h": 1.36498,
    "l": 1.36257,
    "c": 1.36492,
    "v": 4049
  },
  {
    "dt": "2022.01.20 17:00",
    "o": 1.36496,
    "h": 1.36611,
    "l": 1.36317,
    "c": 1.3655,
    "v": 4392
  },
  {
    "dt": "2022.01.20 18:00",
    "o": 1.36549,
    "h": 1.36589,
    "l": 1.36389,
    "c": 1.36401,
    "v": 3183
  },
  {
    "dt": "2022.01.20 19:00",
    "o": 1.36401,
    "h": 1.36472,
    "l": 1.36252,
    "c": 1.36257,
    "v": 2624
  },
  {
    "dt": "2022.01.20 20:00",
    "o": 1.36255,
    "h": 1.36265,
    "l": 1.36185,
    "c": 1.36218,
    "v": 2458
  },
  {
    "dt": "2022.01.20 21:00",
    "o": 1.36219,
    "h": 1.36265,
    "l": 1.36115,
    "c": 1.36119,
    "v": 2703
  },
  {
    "dt": "2022.01.20 22:00",
    "o": 1.3612,
    "h": 1.36149,
    "l": 1.35862,
    "c": 1.3588,
    "v": 3202
  },
  {
    "dt": "2022.01.20 23:00",
    "o": 1.35882,
    "h": 1.35987,
    "l": 1.35882,
    "c": 1.35956,
    "v": 1387
  },
  {
    "dt": "2022.01.21 00:00",
    "o": 1.35964,
    "h": 1.35999,
    "l": 1.35945,
    "c": 1.35979,
    "v": 249
  },
  {
    "dt": "2022.01.21 01:00",
    "o": 1.35981,
    "h": 1.36014,
    "l": 1.35918,
    "c": 1.35959,
    "v": 1299
  },
  {
    "dt": "2022.01.21 02:00",
    "o": 1.35959,
    "h": 1.3601,
    "l": 1.35848,
    "c": 1.35849,
    "v": 1786
  },
  {
    "dt": "2022.01.21 03:00",
    "o": 1.35852,
    "h": 1.3595,
    "l": 1.35785,
    "c": 1.3595,
    "v": 2810
  },
  {
    "dt": "2022.01.21 04:00",
    "o": 1.35949,
    "h": 1.36005,
    "l": 1.35927,
    "c": 1.35997,
    "v": 2521
  },
  {
    "dt": "2022.01.21 05:00",
    "o": 1.35996,
    "h": 1.35996,
    "l": 1.35915,
    "c": 1.35947,
    "v": 2251
  },
  {
    "dt": "2022.01.21 06:00",
    "o": 1.35945,
    "h": 1.35962,
    "l": 1.3591,
    "c": 1.35927,
    "v": 1882
  },
  {
    "dt": "2022.01.21 07:00",
    "o": 1.35926,
    "h": 1.35936,
    "l": 1.35876,
    "c": 1.35918,
    "v": 1788
  },
  {
    "dt": "2022.01.21 08:00",
    "o": 1.35916,
    "h": 1.35939,
    "l": 1.35828,
    "c": 1.35887,
    "v": 1954
  },
  {
    "dt": "2022.01.21 09:00",
    "o": 1.3587,
    "h": 1.3593,
    "l": 1.357,
    "c": 1.35754,
    "v": 3155
  },
  {
    "dt": "2022.01.21 10:00",
    "o": 1.35751,
    "h": 1.35751,
    "l": 1.35573,
    "c": 1.35673,
    "v": 3785
  },
  {
    "dt": "2022.01.21 11:00",
    "o": 1.35672,
    "h": 1.35724,
    "l": 1.35612,
    "c": 1.35675,
    "v": 3040
  },
  {
    "dt": "2022.01.21 12:00",
    "o": 1.35676,
    "h": 1.35701,
    "l": 1.35617,
    "c": 1.35662,
    "v": 2257
  },
  {
    "dt": "2022.01.21 13:00",
    "o": 1.35662,
    "h": 1.35669,
    "l": 1.35517,
    "c": 1.35562,
    "v": 2909
  },
  {
    "dt": "2022.01.21 14:00",
    "o": 1.35563,
    "h": 1.35729,
    "l": 1.35522,
    "c": 1.35696,
    "v": 3172
  },
  {
    "dt": "2022.01.21 15:00",
    "o": 1.35692,
    "h": 1.35757,
    "l": 1.35624,
    "c": 1.35718,
    "v": 3145
  },
  {
    "dt": "2022.01.21 16:00",
    "o": 1.35721,
    "h": 1.35727,
    "l": 1.35527,
    "c": 1.35678,
    "v": 4057
  },
  {
    "dt": "2022.01.21 17:00",
    "o": 1.35669,
    "h": 1.35703,
    "l": 1.35449,
    "c": 1.35538,
    "v": 4946
  },
  {
    "dt": "2022.01.21 18:00",
    "o": 1.35543,
    "h": 1.35622,
    "l": 1.35495,
    "c": 1.35609,
    "v": 3791
  },
  {
    "dt": "2022.01.21 19:00",
    "o": 1.35608,
    "h": 1.35619,
    "l": 1.35536,
    "c": 1.35561,
    "v": 3033
  },
  {
    "dt": "2022.01.21 20:00",
    "o": 1.35559,
    "h": 1.35668,
    "l": 1.3555,
    "c": 1.35624,
    "v": 2448
  },
  {
    "dt": "2022.01.21 21:00",
    "o": 1.35624,
    "h": 1.35661,
    "l": 1.35529,
    "c": 1.3554,
    "v": 2366
  },
  {
    "dt": "2022.01.21 22:00",
    "o": 1.35539,
    "h": 1.35579,
    "l": 1.35473,
    "c": 1.35522,
    "v": 2644
  },
  {
    "dt": "2022.01.21 23:00",
    "o": 1.35523,
    "h": 1.35567,
    "l": 1.35501,
    "c": 1.35521,
    "v": 1041
  },
  {
    "dt": "2022.01.24 00:00",
    "o": 1.35487,
    "h": 1.35526,
    "l": 1.35468,
    "c": 1.35494,
    "v": 98
  },
  {
    "dt": "2022.01.24 01:00",
    "o": 1.35508,
    "h": 1.35542,
    "l": 1.35451,
    "c": 1.35541,
    "v": 1100
  },
  {
    "dt": "2022.01.24 02:00",
    "o": 1.35543,
    "h": 1.35543,
    "l": 1.35483,
    "c": 1.35528,
    "v": 1437
  },
  {
    "dt": "2022.01.24 03:00",
    "o": 1.35528,
    "h": 1.35598,
    "l": 1.35499,
    "c": 1.35597,
    "v": 1498
  },
  {
    "dt": "2022.01.24 04:00",
    "o": 1.35597,
    "h": 1.35645,
    "l": 1.35568,
    "c": 1.3557,
    "v": 1608
  },
  {
    "dt": "2022.01.24 05:00",
    "o": 1.35568,
    "h": 1.35598,
    "l": 1.35531,
    "c": 1.35547,
    "v": 1647
  },
  {
    "dt": "2022.01.24 06:00",
    "o": 1.35547,
    "h": 1.35574,
    "l": 1.35542,
    "c": 1.35558,
    "v": 1344
  },
  {
    "dt": "2022.01.24 07:00",
    "o": 1.35558,
    "h": 1.35568,
    "l": 1.35447,
    "c": 1.35455,
    "v": 1710
  },
  {
    "dt": "2022.01.24 08:00",
    "o": 1.35454,
    "h": 1.35472,
    "l": 1.35375,
    "c": 1.35466,
    "v": 2091
  },
  {
    "dt": "2022.01.24 09:00",
    "o": 1.35466,
    "h": 1.35466,
    "l": 1.35327,
    "c": 1.35419,
    "v": 2305
  },
  {
    "dt": "2022.01.24 10:00",
    "o": 1.35418,
    "h": 1.35539,
    "l": 1.35357,
    "c": 1.35359,
    "v": 3706
  },
  {
    "dt": "2022.01.24 11:00",
    "o": 1.35358,
    "h": 1.35389,
    "l": 1.35237,
    "c": 1.35238,
    "v": 3426
  },
  {
    "dt": "2022.01.24 12:00",
    "o": 1.35237,
    "h": 1.35269,
    "l": 1.34912,
    "c": 1.34975,
    "v": 4133
  },
  {
    "dt": "2022.01.24 13:00",
    "o": 1.34979,
    "h": 1.35064,
    "l": 1.34852,
    "c": 1.3487,
    "v": 3314
  },
  {
    "dt": "2022.01.24 14:00",
    "o": 1.34876,
    "h": 1.34938,
    "l": 1.34771,
    "c": 1.34816,
    "v": 3092
  },
  {
    "dt": "2022.01.24 15:00",
    "o": 1.34815,
    "h": 1.34878,
    "l": 1.34701,
    "c": 1.34722,
    "v": 3847
  },
  {
    "dt": "2022.01.24 16:00",
    "o": 1.34727,
    "h": 1.34804,
    "l": 1.34671,
    "c": 1.3475,
    "v": 4751
  },
  {
    "dt": "2022.01.24 17:00",
    "o": 1.34747,
    "h": 1.34801,
    "l": 1.34434,
    "c": 1.34633,
    "v": 5355
  },
  {
    "dt": "2022.01.24 18:00",
    "o": 1.34636,
    "h": 1.34645,
    "l": 1.34417,
    "c": 1.34462,
    "v": 3992
  },
  {
    "dt": "2022.01.24 19:00",
    "o": 1.34462,
    "h": 1.34583,
    "l": 1.34397,
    "c": 1.34544,
    "v": 3531
  },
  {
    "dt": "2022.01.24 20:00",
    "o": 1.34549,
    "h": 1.34766,
    "l": 1.34542,
    "c": 1.34751,
    "v": 3798
  },
  {
    "dt": "2022.01.24 21:00",
    "o": 1.34751,
    "h": 1.34828,
    "l": 1.34674,
    "c": 1.34815,
    "v": 3592
  },
  {
    "dt": "2022.01.24 22:00",
    "o": 1.34816,
    "h": 1.34904,
    "l": 1.34791,
    "c": 1.34859,
    "v": 3238
  },
  {
    "dt": "2022.01.24 23:00",
    "o": 1.34858,
    "h": 1.34914,
    "l": 1.34831,
    "c": 1.34831,
    "v": 1198
  },
  {
    "dt": "2022.01.25 00:00",
    "o": 1.34826,
    "h": 1.34888,
    "l": 1.34826,
    "c": 1.34831,
    "v": 163
  },
  {
    "dt": "2022.01.25 01:00",
    "o": 1.34843,
    "h": 1.349,
    "l": 1.34838,
    "c": 1.34876,
    "v": 1067
  },
  {
    "dt": "2022.01.25 02:00",
    "o": 1.34875,
    "h": 1.34887,
    "l": 1.34764,
    "c": 1.34775,
    "v": 1700
  },
  {
    "dt": "2022.01.25 03:00",
    "o": 1.3477,
    "h": 1.34826,
    "l": 1.34735,
    "c": 1.34815,
    "v": 2196
  },
  {
    "dt": "2022.01.25 04:00",
    "o": 1.34813,
    "h": 1.34817,
    "l": 1.34707,
    "c": 1.34744,
    "v": 2067
  },
  {
    "dt": "2022.01.25 05:00",
    "o": 1.34747,
    "h": 1.34765,
    "l": 1.34662,
    "c": 1.34754,
    "v": 1803
  },
  {
    "dt": "2022.01.25 06:00",
    "o": 1.34756,
    "h": 1.34786,
    "l": 1.34701,
    "c": 1.34724,
    "v": 1586
  },
  {
    "dt": "2022.01.25 07:00",
    "o": 1.34724,
    "h": 1.34777,
    "l": 1.34712,
    "c": 1.34755,
    "v": 1846
  },
  {
    "dt": "2022.01.25 08:00",
    "o": 1.34754,
    "h": 1.34861,
    "l": 1.34713,
    "c": 1.34803,
    "v": 2520
  },
  {
    "dt": "2022.01.25 09:00",
    "o": 1.34796,
    "h": 1.34823,
    "l": 1.34702,
    "c": 1.34815,
    "v": 2831
  },
  {
    "dt": "2022.01.25 10:00",
    "o": 1.3482,
    "h": 1.34924,
    "l": 1.34744,
    "c": 1.34831,
    "v": 3641
  },
  {
    "dt": "2022.01.25 11:00",
    "o": 1.3483,
    "h": 1.34955,
    "l": 1.34785,
    "c": 1.34815,
    "v": 3604
  },
  {
    "dt": "2022.01.25 12:00",
    "o": 1.34813,
    "h": 1.34813,
    "l": 1.34571,
    "c": 1.34683,
    "v": 3155
  },
  {
    "dt": "2022.01.25 13:00",
    "o": 1.34681,
    "h": 1.34764,
    "l": 1.34432,
    "c": 1.34457,
    "v": 3643
  },
  {
    "dt": "2022.01.25 14:00",
    "o": 1.34457,
    "h": 1.34557,
    "l": 1.34356,
    "c": 1.34541,
    "v": 3539
  },
  {
    "dt": "2022.01.25 15:00",
    "o": 1.34543,
    "h": 1.34702,
    "l": 1.34528,
    "c": 1.34661,
    "v": 3557
  },
  {
    "dt": "2022.01.25 16:00",
    "o": 1.3466,
    "h": 1.34795,
    "l": 1.34639,
    "c": 1.34671,
    "v": 4389
  },
  {
    "dt": "2022.01.25 17:00",
    "o": 1.34664,
    "h": 1.34934,
    "l": 1.34583,
    "c": 1.34833,
    "v": 5014
  },
  {
    "dt": "2022.01.25 18:00",
    "o": 1.34831,
    "h": 1.34994,
    "l": 1.34774,
    "c": 1.34941,
    "v": 3680
  },
  {
    "dt": "2022.01.25 19:00",
    "o": 1.3494,
    "h": 1.34992,
    "l": 1.34892,
    "c": 1.34965,
    "v": 3265
  },
  {
    "dt": "2022.01.25 20:00",
    "o": 1.34965,
    "h": 1.35087,
    "l": 1.34946,
    "c": 1.35057,
    "v": 2435
  },
  {
    "dt": "2022.01.25 21:00",
    "o": 1.35056,
    "h": 1.35179,
    "l": 1.35036,
    "c": 1.3517,
    "v": 2734
  },
  {
    "dt": "2022.01.25 22:00",
    "o": 1.35171,
    "h": 1.35171,
    "l": 1.35032,
    "c": 1.35074,
    "v": 3195
  },
  {
    "dt": "2022.01.25 23:00",
    "o": 1.35074,
    "h": 1.35099,
    "l": 1.3496,
    "c": 1.3496,
    "v": 1077
  },
  {
    "dt": "2022.01.26 00:00",
    "o": 1.34916,
    "h": 1.35057,
    "l": 1.34916,
    "c": 1.35041,
    "v": 220
  },
  {
    "dt": "2022.01.26 01:00",
    "o": 1.35021,
    "h": 1.35109,
    "l": 1.3502,
    "c": 1.35086,
    "v": 749
  },
  {
    "dt": "2022.01.26 02:00",
    "o": 1.35088,
    "h": 1.35117,
    "l": 1.35064,
    "c": 1.35093,
    "v": 1401
  },
  {
    "dt": "2022.01.26 03:00",
    "o": 1.35092,
    "h": 1.35119,
    "l": 1.35054,
    "c": 1.35118,
    "v": 1336
  },
  {
    "dt": "2022.01.26 04:00",
    "o": 1.35121,
    "h": 1.35198,
    "l": 1.35072,
    "c": 1.35078,
    "v": 1393
  },
  {
    "dt": "2022.01.26 05:00",
    "o": 1.35078,
    "h": 1.35119,
    "l": 1.35066,
    "c": 1.35082,
    "v": 1641
  },
  {
    "dt": "2022.01.26 06:00",
    "o": 1.3508,
    "h": 1.35124,
    "l": 1.35054,
    "c": 1.35089,
    "v": 1665
  },
  {
    "dt": "2022.01.26 07:00",
    "o": 1.35084,
    "h": 1.35098,
    "l": 1.35043,
    "c": 1.35075,
    "v": 1146
  },
  {
    "dt": "2022.01.26 08:00",
    "o": 1.35077,
    "h": 1.35133,
    "l": 1.35023,
    "c": 1.35031,
    "v": 1247
  },
  {
    "dt": "2022.01.26 09:00",
    "o": 1.35026,
    "h": 1.35046,
    "l": 1.34961,
    "c": 1.35013,
    "v": 2205
  },
  {
    "dt": "2022.01.26 10:00",
    "o": 1.35012,
    "h": 1.35139,
    "l": 1.34953,
    "c": 1.34953,
    "v": 3396
  },
  {
    "dt": "2022.01.26 11:00",
    "o": 1.34952,
    "h": 1.35089,
    "l": 1.34927,
    "c": 1.35086,
    "v": 2913
  },
  {
    "dt": "2022.01.26 12:00",
    "o": 1.35085,
    "h": 1.35142,
    "l": 1.34969,
    "c": 1.35123,
    "v": 2818
  },
  {
    "dt": "2022.01.26 13:00",
    "o": 1.35126,
    "h": 1.35224,
    "l": 1.35082,
    "c": 1.35115,
    "v": 2314
  },
  {
    "dt": "2022.01.26 14:00",
    "o": 1.35113,
    "h": 1.35183,
    "l": 1.35086,
    "c": 1.35146,
    "v": 2668
  },
  {
    "dt": "2022.01.26 15:00",
    "o": 1.35149,
    "h": 1.35194,
    "l": 1.35008,
    "c": 1.35073,
    "v": 3187
  },
  {
    "dt": "2022.01.26 16:00",
    "o": 1.35071,
    "h": 1.35151,
    "l": 1.34967,
    "c": 1.35031,
    "v": 3688
  },
  {
    "dt": "2022.01.26 17:00",
    "o": 1.35046,
    "h": 1.35113,
    "l": 1.34908,
    "c": 1.35091,
    "v": 4097
  },
  {
    "dt": "2022.01.26 18:00",
    "o": 1.35093,
    "h": 1.35179,
    "l": 1.3507,
    "c": 1.35152,
    "v": 3069
  },
  {
    "dt": "2022.01.26 19:00",
    "o": 1.35152,
    "h": 1.35217,
    "l": 1.35127,
    "c": 1.35216,
    "v": 2306
  },
  {
    "dt": "2022.01.26 20:00",
    "o": 1.35215,
    "h": 1.35217,
    "l": 1.34998,
    "c": 1.35022,
    "v": 2560
  },
  {
    "dt": "2022.01.26 21:00",
    "o": 1.35018,
    "h": 1.35237,
    "l": 1.34582,
    "c": 1.34652,
    "v": 6090
  },
  {
    "dt": "2022.01.26 22:00",
    "o": 1.34649,
    "h": 1.34665,
    "l": 1.34436,
    "c": 1.34605,
    "v": 5354
  },
  {
    "dt": "2022.01.26 23:00",
    "o": 1.34602,
    "h": 1.34658,
    "l": 1.34531,
    "c": 1.34607,
    "v": 1615
  },
  {
    "dt": "2022.01.27 00:00",
    "o": 1.3456,
    "h": 1.34612,
    "l": 1.34551,
    "c": 1.34581,
    "v": 132
  },
  {
    "dt": "2022.01.27 01:00",
    "o": 1.34603,
    "h": 1.34669,
    "l": 1.34593,
    "c": 1.34657,
    "v": 826
  },
  {
    "dt": "2022.01.27 02:00",
    "o": 1.34656,
    "h": 1.34662,
    "l": 1.3449,
    "c": 1.34499,
    "v": 2060
  },
  {
    "dt": "2022.01.27 03:00",
    "o": 1.34504,
    "h": 1.34521,
    "l": 1.34419,
    "c": 1.34489,
    "v": 2447
  },
  {
    "dt": "2022.01.27 04:00",
    "o": 1.34488,
    "h": 1.34489,
    "l": 1.34397,
    "c": 1.34405,
    "v": 1988
  },
  {
    "dt": "2022.01.27 05:00",
    "o": 1.34405,
    "h": 1.34428,
    "l": 1.34346,
    "c": 1.34356,
    "v": 2507
  },
  {
    "dt": "2022.01.27 06:00",
    "o": 1.34355,
    "h": 1.34407,
    "l": 1.34306,
    "c": 1.34333,
    "v": 2331
  },
  {
    "dt": "2022.01.27 07:00",
    "o": 1.34333,
    "h": 1.34358,
    "l": 1.34297,
    "c": 1.34311,
    "v": 1754
  },
  {
    "dt": "2022.01.27 08:00",
    "o": 1.34309,
    "h": 1.3432,
    "l": 1.34214,
    "c": 1.34269,
    "v": 2268
  },
  {
    "dt": "2022.01.27 09:00",
    "o": 1.3427,
    "h": 1.34289,
    "l": 1.34109,
    "c": 1.34122,
    "v": 3119
  },
  {
    "dt": "2022.01.27 10:00",
    "o": 1.34113,
    "h": 1.3432,
    "l": 1.34048,
    "c": 1.34301,
    "v": 3613
  },
  {
    "dt": "2022.01.27 11:00",
    "o": 1.34301,
    "h": 1.34322,
    "l": 1.34155,
    "c": 1.34258,
    "v": 3309
  },
  {
    "dt": "2022.01.27 12:00",
    "o": 1.3425,
    "h": 1.34307,
    "l": 1.34052,
    "c": 1.34056,
    "v": 3148
  },
  {
    "dt": "2022.01.27 13:00",
    "o": 1.34057,
    "h": 1.34065,
    "l": 1.3374,
    "c": 1.33857,
    "v": 3347
  },
  {
    "dt": "2022.01.27 14:00",
    "o": 1.33857,
    "h": 1.33974,
    "l": 1.33837,
    "c": 1.33899,
    "v": 3599
  },
  {
    "dt": "2022.01.27 15:00",
    "o": 1.33898,
    "h": 1.33938,
    "l": 1.33571,
    "c": 1.33785,
    "v": 4644
  },
  {
    "dt": "2022.01.27 16:00",
    "o": 1.33787,
    "h": 1.34059,
    "l": 1.33743,
    "c": 1.34013,
    "v": 4108
  },
  {
    "dt": "2022.01.27 17:00",
    "o": 1.34011,
    "h": 1.34011,
    "l": 1.33652,
    "c": 1.33888,
    "v": 4804
  },
  {
    "dt": "2022.01.27 18:00",
    "o": 1.33887,
    "h": 1.3404,
    "l": 1.33827,
    "c": 1.33839,
    "v": 3908
  },
  {
    "dt": "2022.01.27 19:00",
    "o": 1.33843,
    "h": 1.33864,
    "l": 1.33675,
    "c": 1.33712,
    "v": 3318
  },
  {
    "dt": "2022.01.27 20:00",
    "o": 1.33713,
    "h": 1.33855,
    "l": 1.33662,
    "c": 1.3383,
    "v": 3527
  },
  {
    "dt": "2022.01.27 21:00",
    "o": 1.3383,
    "h": 1.33892,
    "l": 1.33722,
    "c": 1.33724,
    "v": 3095
  },
  {
    "dt": "2022.01.27 22:00",
    "o": 1.33724,
    "h": 1.33853,
    "l": 1.33724,
    "c": 1.33788,
    "v": 3039
  },
  {
    "dt": "2022.01.27 23:00",
    "o": 1.33792,
    "h": 1.33816,
    "l": 1.33768,
    "c": 1.33791,
    "v": 1126
  },
  {
    "dt": "2022.01.28 00:00",
    "o": 1.3375,
    "h": 1.33792,
    "l": 1.33727,
    "c": 1.33792,
    "v": 315
  },
  {
    "dt": "2022.01.28 01:00",
    "o": 1.33794,
    "h": 1.33879,
    "l": 1.33784,
    "c": 1.33864,
    "v": 1208
  },
  {
    "dt": "2022.01.28 02:00",
    "o": 1.33864,
    "h": 1.33935,
    "l": 1.33784,
    "c": 1.33918,
    "v": 1952
  },
  {
    "dt": "2022.01.28 03:00",
    "o": 1.33918,
    "h": 1.33937,
    "l": 1.33857,
    "c": 1.3393,
    "v": 2478
  },
  {
    "dt": "2022.01.28 04:00",
    "o": 1.33931,
    "h": 1.34008,
    "l": 1.33906,
    "c": 1.34004,
    "v": 1802
  },
  {
    "dt": "2022.01.28 05:00",
    "o": 1.34003,
    "h": 1.34033,
    "l": 1.33979,
    "c": 1.33988,
    "v": 1529
  },
  {
    "dt": "2022.01.28 06:00",
    "o": 1.33987,
    "h": 1.34081,
    "l": 1.33978,
    "c": 1.34063,
    "v": 1359
  },
  {
    "dt": "2022.01.28 07:00",
    "o": 1.34058,
    "h": 1.34144,
    "l": 1.34035,
    "c": 1.34121,
    "v": 1585
  },
  {
    "dt": "2022.01.28 08:00",
    "o": 1.34121,
    "h": 1.34138,
    "l": 1.34018,
    "c": 1.34019,
    "v": 1601
  },
  {
    "dt": "2022.01.28 09:00",
    "o": 1.34021,
    "h": 1.34024,
    "l": 1.33809,
    "c": 1.3386,
    "v": 3148
  },
  {
    "dt": "2022.01.28 10:00",
    "o": 1.33858,
    "h": 1.33871,
    "l": 1.33689,
    "c": 1.33727,
    "v": 3684
  },
  {
    "dt": "2022.01.28 11:00",
    "o": 1.33726,
    "h": 1.33813,
    "l": 1.33643,
    "c": 1.33813,
    "v": 3311
  },
  {
    "dt": "2022.01.28 12:00",
    "o": 1.33812,
    "h": 1.33933,
    "l": 1.33688,
    "c": 1.33932,
    "v": 3269
  },
  {
    "dt": "2022.01.28 13:00",
    "o": 1.3393,
    "h": 1.3394,
    "l": 1.33809,
    "c": 1.33886,
    "v": 3348
  },
  {
    "dt": "2022.01.28 14:00",
    "o": 1.33886,
    "h": 1.33907,
    "l": 1.33722,
    "c": 1.33757,
    "v": 3406
  },
  {
    "dt": "2022.01.28 15:00",
    "o": 1.33757,
    "h": 1.3426,
    "l": 1.33752,
    "c": 1.34258,
    "v": 4563
  },
  {
    "dt": "2022.01.28 16:00",
    "o": 1.34261,
    "h": 1.34308,
    "l": 1.34095,
    "c": 1.34199,
    "v": 4734
  },
  {
    "dt": "2022.01.28 17:00",
    "o": 1.34183,
    "h": 1.34209,
    "l": 1.33992,
    "c": 1.34136,
    "v": 4868
  },
  {
    "dt": "2022.01.28 18:00",
    "o": 1.34141,
    "h": 1.34319,
    "l": 1.34005,
    "c": 1.34167,
    "v": 4102
  },
  {
    "dt": "2022.01.28 19:00",
    "o": 1.34167,
    "h": 1.34195,
    "l": 1.33873,
    "c": 1.33873,
    "v": 2952
  },
  {
    "dt": "2022.01.28 20:00",
    "o": 1.33874,
    "h": 1.33929,
    "l": 1.33803,
    "c": 1.33803,
    "v": 2711
  },
  {
    "dt": "2022.01.28 21:00",
    "o": 1.33803,
    "h": 1.33921,
    "l": 1.33726,
    "c": 1.33841,
    "v": 2921
  },
  {
    "dt": "2022.01.28 22:00",
    "o": 1.33842,
    "h": 1.33962,
    "l": 1.33805,
    "c": 1.33961,
    "v": 2626
  },
  {
    "dt": "2022.01.28 23:00",
    "o": 1.3396,
    "h": 1.34049,
    "l": 1.33903,
    "c": 1.34011,
    "v": 1058
  },
  {
    "dt": "2022.01.31 00:00",
    "o": 1.33945,
    "h": 1.33998,
    "l": 1.33902,
    "c": 1.33936,
    "v": 153
  },
  {
    "dt": "2022.01.31 01:00",
    "o": 1.3394,
    "h": 1.34021,
    "l": 1.3386,
    "c": 1.34016,
    "v": 1080
  },
  {
    "dt": "2022.01.31 02:00",
    "o": 1.34015,
    "h": 1.34077,
    "l": 1.33985,
    "c": 1.34003,
    "v": 1437
  },
  {
    "dt": "2022.01.31 03:00",
    "o": 1.34004,
    "h": 1.34133,
    "l": 1.34004,
    "c": 1.34126,
    "v": 1693
  },
  {
    "dt": "2022.01.31 04:00",
    "o": 1.34125,
    "h": 1.34132,
    "l": 1.3407,
    "c": 1.34105,
    "v": 1640
  },
  {
    "dt": "2022.01.31 05:00",
    "o": 1.34104,
    "h": 1.34119,
    "l": 1.34082,
    "c": 1.34092,
    "v": 1517
  },
  {
    "dt": "2022.01.31 06:00",
    "o": 1.34093,
    "h": 1.34145,
    "l": 1.34088,
    "c": 1.34135,
    "v": 1247
  },
  {
    "dt": "2022.01.31 07:00",
    "o": 1.34134,
    "h": 1.34196,
    "l": 1.34112,
    "c": 1.34166,
    "v": 1149
  },
  {
    "dt": "2022.01.31 08:00",
    "o": 1.34166,
    "h": 1.34256,
    "l": 1.34151,
    "c": 1.34252,
    "v": 1350
  },
  {
    "dt": "2022.01.31 09:00",
    "o": 1.34246,
    "h": 1.34346,
    "l": 1.3414,
    "c": 1.34336,
    "v": 2826
  },
  {
    "dt": "2022.01.31 10:00",
    "o": 1.34333,
    "h": 1.34437,
    "l": 1.34277,
    "c": 1.34318,
    "v": 3438
  },
  {
    "dt": "2022.01.31 11:00",
    "o": 1.34319,
    "h": 1.34479,
    "l": 1.34283,
    "c": 1.34443,
    "v": 2768
  },
  {
    "dt": "2022.01.31 12:00",
    "o": 1.34442,
    "h": 1.34473,
    "l": 1.34372,
    "c": 1.34381,
    "v": 2901
  },
  {
    "dt": "2022.01.31 13:00",
    "o": 1.34374,
    "h": 1.34402,
    "l": 1.34028,
    "c": 1.34028,
    "v": 2933
  },
  {
    "dt": "2022.01.31 14:00",
    "o": 1.34026,
    "h": 1.34206,
    "l": 1.33924,
    "c": 1.34189,
    "v": 3335
  },
  {
    "dt": "2022.01.31 15:00",
    "o": 1.34188,
    "h": 1.3443,
    "l": 1.34093,
    "c": 1.3442,
    "v": 3904
  },
  {
    "dt": "2022.01.31 16:00",
    "o": 1.34417,
    "h": 1.34429,
    "l": 1.3423,
    "c": 1.3426,
    "v": 3994
  },
  {
    "dt": "2022.01.31 17:00",
    "o": 1.34259,
    "h": 1.3454,
    "l": 1.34101,
    "c": 1.34182,
    "v": 4359
  },
  {
    "dt": "2022.01.31 18:00",
    "o": 1.34183,
    "h": 1.34367,
    "l": 1.34049,
    "c": 1.34366,
    "v": 4219
  },
  {
    "dt": "2022.01.31 19:00",
    "o": 1.34364,
    "h": 1.34409,
    "l": 1.34232,
    "c": 1.34356,
    "v": 2553
  },
  {
    "dt": "2022.01.31 20:00",
    "o": 1.34355,
    "h": 1.34505,
    "l": 1.34344,
    "c": 1.34488,
    "v": 2562
  },
  {
    "dt": "2022.01.31 21:00",
    "o": 1.34487,
    "h": 1.34584,
    "l": 1.34469,
    "c": 1.34566,
    "v": 2456
  },
  {
    "dt": "2022.01.31 22:00",
    "o": 1.34565,
    "h": 1.34594,
    "l": 1.34449,
    "c": 1.34479,
    "v": 2934
  },
  {
    "dt": "2022.01.31 23:00",
    "o": 1.34476,
    "h": 1.34487,
    "l": 1.34396,
    "c": 1.34396,
    "v": 962
  }
]