[
  {
    "dt": "2022.05.02 00:00",
    "o": 1.25762,
    "h": 1.25812,
    "l": 1.25762,
    "c": 1.25779,
    "v": 90
  },
  {
    "dt": "2022.05.02 01:00",
    "o": 1.25749,
    "h": 1.25877,
    "l": 1.2573,
    "c": 1.25785,
    "v": 1415
  },
  {
    "dt": "2022.05.02 02:00",
    "o": 1.25785,
    "h": 1.25841,
    "l": 1.2569,
    "c": 1.25696,
    "v": 1996
  },
  {
    "dt": "2022.05.02 03:00",
    "o": 1.25699,
    "h": 1.25964,
    "l": 1.25661,
    "c": 1.25684,
    "v": 3364
  },
  {
    "dt": "2022.05.02 04:00",
    "o": 1.25687,
    "h": 1.25759,
    "l": 1.25542,
    "c": 1.25586,
    "v": 2567
  },
  {
    "dt": "2022.05.02 05:00",
    "o": 1.25586,
    "h": 1.25649,
    "l": 1.25503,
    "c": 1.25573,
    "v": 2137
  },
  {
    "dt": "2022.05.02 06:00",
    "o": 1.25575,
    "h": 1.25637,
    "l": 1.25528,
    "c": 1.25574,
    "v": 2262
  },
  {
    "dt": "2022.05.02 07:00",
    "o": 1.25574,
    "h": 1.25574,
    "l": 1.25455,
    "c": 1.25508,
    "v": 1984
  },
  {
    "dt": "2022.05.02 08:00",
    "o": 1.25507,
    "h": 1.25528,
    "l": 1.25389,
    "c": 1.25417,
    "v": 2255
  },
  {
    "dt": "2022.05.02 09:00",
    "o": 1.25418,
    "h": 1.25639,
    "l": 1.25409,
    "c": 1.25596,
    "v": 2588
  },
  {
    "dt": "2022.05.02 10:00",
    "o": 1.25591,
    "h": 1.25802,
    "l": 1.25569,
    "c": 1.25727,
    "v": 3429
  },
  {
    "dt": "2022.05.02 11:00",
    "o": 1.25727,
    "h": 1.25869,
    "l": 1.2569,
    "c": 1.25717,
    "v": 3425
  },
  {
    "dt": "2022.05.02 12:00",
    "o": 1.25718,
    "h": 1.25798,
    "l": 1.25636,
    "c": 1.25733,
    "v": 2347
  },
  {
    "dt": "2022.05.02 13:00",
    "o": 1.25734,
    "h": 1.25766,
    "l": 1.2563,
    "c": 1.25681,
    "v": 2121
  },
  {
    "dt": "2022.05.02 14:00",
    "o": 1.25681,
    "h": 1.25702,
    "l": 1.25549,
    "c": 1.25601,
    "v": 2270
  },
  {
    "dt": "2022.05.02 15:00",
    "o": 1.25594,
    "h": 1.25662,
    "l": 1.25339,
    "c": 1.25362,
    "v": 3105
  },
  {
    "dt": "2022.05.02 16:00",
    "o": 1.25361,
    "h": 1.25487,
    "l": 1.2534,
    "c": 1.25371,
    "v": 3460
  },
  {
    "dt": "2022.05.02 17:00",
    "o": 1.25415,
    "h": 1.25465,
    "l": 1.2505,
    "c": 1.25182,
    "v": 4500
  },
  {
    "dt": "2022.05.02 18:00",
    "o": 1.25183,
    "h": 1.25208,
    "l": 1.25027,
    "c": 1.25204,
    "v": 3618
  },
  {
    "dt": "2022.05.02 19:00",
    "o": 1.25203,
    "h": 1.25238,
    "l": 1.24924,
    "c": 1.24969,
    "v": 2551
  },
  {
    "dt": "2022.05.02 20:00",
    "o": 1.2497,
    "h": 1.24997,
    "l": 1.24797,
    "c": 1.24815,
    "v": 2426
  },
  {
    "dt": "2022.05.02 21:00",
    "o": 1.24814,
    "h": 1.24874,
    "l": 1.24721,
    "c": 1.24722,
    "v": 2551
  },
  {
    "dt": "2022.05.02 22:00",
    "o": 1.24722,
    "h": 1.2492,
    "l": 1.24722,
    "c": 1.24892,
    "v": 3087
  },
  {
    "dt": "2022.05.02 23:00",
    "o": 1.2489,
    "h": 1.2493,
    "l": 1.24839,
    "c": 1.24909,
    "v": 1003
  },
  {
    "dt": "2022.05.03 00:00",
    "o": 1.24898,
    "h": 1.24899,
    "l": 1.24828,
    "c": 1.24837,
    "v": 133
  },
  {
    "dt": "2022.05.03 01:00",
    "o": 1.24853,
    "h": 1.24989,
    "l": 1.24853,
    "c": 1.24956,
    "v": 764
  },
  {
    "dt": "2022.05.03 02:00",
    "o": 1.24957,
    "h": 1.24986,
    "l": 1.24907,
    "c": 1.24983,
    "v": 901
  },
  {
    "dt": "2022.05.03 03:00",
    "o": 1.24982,
    "h": 1.25202,
    "l": 1.24963,
    "c": 1.25187,
    "v": 2342
  },
  {
    "dt": "2022.05.03 04:00",
    "o": 1.25187,
    "h": 1.25222,
    "l": 1.25083,
    "c": 1.25193,
    "v": 2129
  },
  {
    "dt": "2022.05.03 05:00",
    "o": 1.25192,
    "h": 1.2527,
    "l": 1.25144,
    "c": 1.25208,
    "v": 1486
  },
  {
    "dt": "2022.05.03 06:00",
    "o": 1.25209,
    "h": 1.25318,
    "l": 1.25166,
    "c": 1.25305,
    "v": 1241
  },
  {
    "dt": "2022.05.03 07:00",
    "o": 1.25304,
    "h": 1.25406,
    "l": 1.25107,
    "c": 1.25119,
    "v": 1916
  },
  {
    "dt": "2022.05.03 08:00",
    "o": 1.25121,
    "h": 1.25218,
    "l": 1.25058,
    "c": 1.25146,
    "v": 2861
  },
  {
    "dt": "2022.05.03 09:00",
    "o": 1.25135,
    "h": 1.25287,
    "l": 1.25043,
    "c": 1.25118,
    "v": 3244
  },
  {
    "dt": "2022.05.03 10:00",
    "o": 1.25132,
    "h": 1.25444,
    "l": 1.25053,
    "c": 1.25364,
    "v": 4396
  },
  {
    "dt": "2022.05.03 11:00",
    "o": 1.25374,
    "h": 1.25547,
    "l": 1.25314,
    "c": 1.25399,
    "v": 3352
  },
  {
    "dt": "2022.05.03 12:00",
    "o": 1.25397,
    "h": 1.25397,
    "l": 1.25174,
    "c": 1.25216,
    "v": 3012
  },
  {
    "dt": "2022.05.03 13:00",
    "o": 1.25213,
    "h": 1.25238,
    "l": 1.24924,
    "c": 1.24939,
    "v": 3066
  },
  {
    "dt": "2022.05.03 14:00",
    "o": 1.24954,
    "h": 1.2534,
    "l": 1.24919,
    "c": 1.25311,
    "v": 3107
  },
  {
    "dt": "2022.05.03 15:00",
    "o": 1.2531,
    "h": 1.25663,
    "l": 1.25307,
    "c": 1.25567,
    "v": 3771
  },
  {
    "dt": "2022.05.03 16:00",
    "o": 1.25568,
    "h": 1.25653,
    "l": 1.25285,
    "c": 1.25376,
    "v": 4230
  },
  {
    "dt": "2022.05.03 17:00",
    "o": 1.25382,
    "h": 1.25435,
    "l": 1.25064,
    "c": 1.25109,
    "v": 4251
  },
  {
    "dt": "2022.05.03 18:00",
    "o": 1.25114,
    "h": 1.25259,
    "l": 1.25048,
    "c": 1.25089,
    "v": 3510
  },
  {
    "dt": "2022.05.03 19:00",
    "o": 1.25088,
    "h": 1.25088,
    "l": 1.24864,
    "c": 1.24872,
    "v": 3244
  },
  {
    "dt": "2022.05.03 20:00",
    "o": 1.24872,
    "h": 1.25138,
    "l": 1.24868,
    "c": 1.24955,
    "v": 3076
  },
  {
    "dt": "2022.05.03 21:00",
    "o": 1.24956,
    "h": 1.24992,
    "l": 1.24695,
    "c": 1.24897,
    "v": 2897
  },
  {
    "dt": "2022.05.03 22:00",
    "o": 1.24908,
    "h": 1.24967,
    "l": 1.24835,
    "c": 1.24955,
    "v": 3659
  },
  {
    "dt": "2022.05.03 23:00",
    "o": 1.24955,
    "h": 1.24966,
    "l": 1.24913,
    "c": 1.24941,
    "v": 1530
  },
  {
    "dt": "2022.05.04 00:00",
    "o": 1.24944,
    "h": 1.24969,
    "l": 1.24853,
    "c": 1.24942,
    "v": 321
  },
  {
    "dt": "2022.05.04 01:00",
    "o": 1.24957,
    "h": 1.25023,
    "l": 1.24929,
    "c": 1.2498,
    "v": 873
  },
  {
    "dt": "2022.05.04 02:00",
    "o": 1.2498,
    "h": 1.24995,
    "l": 1.24927,
    "c": 1.24974,
    "v": 934
  },
  {
    "dt": "2022.05.04 03:00",
    "o": 1.24974,
    "h": 1.25049,
    "l": 1.24893,
    "c": 1.24954,
    "v": 1568
  },
  {
    "dt": "2022.05.04 04:00",
    "o": 1.24953,
    "h": 1.24997,
    "l": 1.24879,
    "c": 1.24928,
    "v": 1641
  },
  {
    "dt": "2022.05.04 05:00",
    "o": 1.24929,
    "h": 1.2496,
    "l": 1.24853,
    "c": 1.24895,
    "v": 1306
  },
  {
    "dt": "2022.05.04 06:00",
    "o": 1.24897,
    "h": 1.24941,
    "l": 1.24817,
    "c": 1.24827,
    "v": 1232
  },
  {
    "dt": "2022.05.04 07:00",
    "o": 1.24828,
    "h": 1.24879,
    "l": 1.2481,
    "c": 1.24814,
    "v": 1077
  },
  {
    "dt": "2022.05.04 08:00",
    "o": 1.24811,
    "h": 1.24814,
    "l": 1.24708,
    "c": 1.24776,
    "v": 1639
  },
  {
    "dt": "2022.05.04 09:00",
    "o": 1.24778,
    "h": 1.24898,
    "l": 1.24661,
    "c": 1.24872,
    "v": 2373
  },
  {
    "dt": "2022.05.04 10:00",
    "o": 1.24871,
    "h": 1.25137,
    "l": 1.24865,
    "c": 1.25117,
    "v": 3366
  },
  {
    "dt": "2022.05.04 11:00",
    "o": 1.25118,
    "h": 1.25236,
    "l": 1.2504,
    "c": 1.25142,
    "v": 3068
  },
  {
    "dt": "2022.05.04 12:00",
    "o": 1.25144,
    "h": 1.25167,
    "l": 1.25013,
    "c": 1.25087,
    "v": 2330
  },
  {
    "dt": "2022.05.04 13:00",
    "o": 1.25087,
    "h": 1.25196,
    "l": 1.25012,
    "c": 1.25187,
    "v": 2447
  },
  {
    "dt": "2022.05.04 14:00",
    "o": 1.25188,
    "h": 1.25207,
    "l": 1.25036,
    "c": 1.2509,
    "v": 2583
  },
  {
    "dt": "2022.05.04 15:00",
    "o": 1.2509,
    "h": 1.25353,
    "l": 1.25042,
    "c": 1.25293,
    "v": 3277
  },
  {
    "dt": "2022.05.04 16:00",
    "o": 1.25291,
    "h": 1.25364,
    "l": 1.24816,
    "c": 1.24855,
    "v": 3881
  },
  {
    "dt": "2022.05.04 17:00",
    "o": 1.24844,
    "h": 1.25038,
    "l": 1.24664,
    "c": 1.24987,
    "v": 4193
  },
  {
    "dt": "2022.05.04 18:00",
    "o": 1.2499,
    "h": 1.25065,
    "l": 1.24842,
    "c": 1.24869,
    "v": 3506
  },
  {
    "dt": "2022.05.04 19:00",
    "o": 1.24872,
    "h": 1.24935,
    "l": 1.24783,
    "c": 1.24935,
    "v": 3224
  },
  {
    "dt": "2022.05.04 20:00",
    "o": 1.24934,
    "h": 1.24991,
    "l": 1.24792,
    "c": 1.24882,
    "v": 2930
  },
  {
    "dt": "2022.05.04 21:00",
    "o": 1.2488,
    "h": 1.25876,
    "l": 1.24513,
    "c": 1.2572,
    "v": 6294
  },
  {
    "dt": "2022.05.04 22:00",
    "o": 1.2571,
    "h": 1.26371,
    "l": 1.25446,
    "c": 1.26158,
    "v": 5906
  },
  {
    "dt": "2022.05.04 23:00",
    "o": 1.26155,
    "h": 1.26372,
    "l": 1.26111,
    "c": 1.26345,
    "v": 2336
  },
  {
    "dt": "2022.05.05 00:00",
    "o": 1.26255,
    "h": 1.26333,
    "l": 1.26222,
    "c": 1.26317,
    "v": 296
  },
  {
    "dt": "2022.05.05 01:00",
    "o": 1.26315,
    "h": 1.26325,
    "l": 1.26049,
    "c": 1.26063,
    "v": 1352
  },
  {
    "dt": "2022.05.05 02:00",
    "o": 1.26064,
    "h": 1.2621,
    "l": 1.26044,
    "c": 1.2616,
    "v": 1716
  },
  {
    "dt": "2022.05.05 03:00",
    "o": 1.26157,
    "h": 1.26259,
    "l": 1.25998,
    "c": 1.26083,
    "v": 2824
  },
  {
    "dt": "2022.05.05 04:00",
    "o": 1.26087,
    "h": 1.26322,
    "l": 1.26063,
    "c": 1.26233,
    "v": 2882
  },
  {
    "dt": "2022.05.05 05:00",
    "o": 1.26234,
    "h": 1.2628,
    "l": 1.2604,
    "c": 1.26041,
    "v": 2272
  },
  {
    "dt": "2022.05.05 06:00",
    "o": 1.26038,
    "h": 1.26049,
    "l": 1.25783,
    "c": 1.25792,
    "v": 1924
  },
  {
    "dt": "2022.05.05 07:00",
    "o": 1.25791,
    "h": 1.25799,
    "l": 1.25408,
    "c": 1.25464,
    "v": 2037
  },
  {
    "dt": "2022.05.05 08:00",
    "o": 1.25463,
    "h": 1.25669,
    "l": 1.25428,
    "c": 1.25522,
    "v": 2414
  },
  {
    "dt": "2022.05.05 09:00",
    "o": 1.25529,
    "h": 1.25673,
    "l": 1.25336,
    "c": 1.25344,
    "v": 3416
  },
  {
    "dt": "2022.05.05 10:00",
    "o": 1.25353,
    "h": 1.25442,
    "l": 1.25164,
    "c": 1.25416,
    "v": 3956
  },
  {
    "dt": "2022.05.05 11:00",
    "o": 1.2542,
    "h": 1.25456,
    "l": 1.25212,
    "c": 1.25452,
    "v": 3326
  },
  {
    "dt": "2022.05.05 12:00",
    "o": 1.25451,
    "h": 1.25682,
    "l": 1.25404,
    "c": 1.25682,
    "v": 2922
  },
  {
    "dt": "2022.05.05 13:00",
    "o": 1.25681,
    "h": 1.25774,
    "l": 1.25422,
    "c": 1.25442,
    "v": 2707
  },
  {
    "dt": "2022.05.05 14:00",
    "o": 1.25448,
    "h": 1.25769,
    "l": 1.23791,
    "c": 1.23933,
    "v": 5392
  },
  {
    "dt": "2022.05.05 15:00",
    "o": 1.23926,
    "h": 1.24131,
    "l": 1.2361,
    "c": 1.23883,
    "v": 4564
  },
  {
    "dt": "2022.05.05 16:00",
    "o": 1.23878,
    "h": 1.24116,
    "l": 1.23736,
    "c": 1.23851,
    "v": 4627
  },
  {
    "dt": "2022.05.05 17:00",
    "o": 1.23848,
    "h": 1.23848,
    "l": 1.23602,
    "c": 1.2373,
    "v": 4534
  },
  {
    "dt": "2022.05.05 18:00",
    "o": 1.23727,
    "h": 1.23729,
    "l": 1.23263,
    "c": 1.23273,
    "v": 4322
  },
  {
    "dt": "2022.05.05 19:00",
    "o": 1.23262,
    "h": 1.23456,
    "l": 1.23253,
    "c": 1.23365,
    "v": 4057
  },
  {
    "dt": "2022.05.05 20:00",
    "o": 1.23373,
    "h": 1.23619,
    "l": 1.2325,
    "c": 1.2325,
    "v": 4133
  },
  {
    "dt": "2022.05.05 21:00",
    "o": 1.23247,
    "h": 1.23519,
    "l": 1.23244,
    "c": 1.23485,
    "v": 3814
  },
  {
    "dt": "2022.05.05 22:00",
    "o": 1.23491,
    "h": 1.23684,
    "l": 1.23491,
    "c": 1.23639,
    "v": 4094
  },
  {
    "dt": "2022.05.05 23:00",
    "o": 1.23638,
    "h": 1.23662,
    "l": 1.23511,
    "c": 1.23552,
    "v": 1482
  },
  {
    "dt": "2022.05.06 00:00",
    "o": 1.23554,
    "h": 1.23616,
    "l": 1.23539,
    "c": 1.23555,
    "v": 187
  },
  {
    "dt": "2022.05.06 01:00",
    "o": 1.2356,
    "h": 1.23727,
    "l": 1.2356,
    "c": 1.23725,
    "v": 1329
  },
  {
    "dt": "2022.05.06 02:00",
    "o": 1.23716,
    "h": 1.23716,
    "l": 1.23581,
    "c": 1.23618,
    "v": 1717
  },
  {
    "dt": "2022.05.06 03:00",
    "o": 1.23617,
    "h": 1.23793,
    "l": 1.23581,
    "c": 1.23652,
    "v": 2867
  },
  {
    "dt": "2022.05.06 04:00",
    "o": 1.23651,
    "h": 1.237,
    "l": 1.23328,
    "c": 1.23435,
    "v": 3929
  },
  {
    "dt": "2022.05.06 05:00",
    "o": 1.23432,
    "h": 1.23606,
    "l": 1.23399,
    "c": 1.23581,
    "v": 3273
  },
  {
    "dt": "2022.05.06 06:00",
    "o": 1.23582,
    "h": 1.23731,
    "l": 1.23552,
    "c": 1.23682,
    "v": 1801
  },
  {
    "dt": "2022.05.06 07:00",
    "o": 1.23681,
    "h": 1.23721,
    "l": 1.23621,
    "c": 1.23672,
    "v": 1505
  },
  {
    "dt": "2022.05.06 08:00",
    "o": 1.23672,
    "h": 1.23672,
    "l": 1.23499,
    "c": 1.23523,
    "v": 2497
  },
  {
    "dt": "2022.05.06 09:00",
    "o": 1.23524,
    "h": 1.23584,
    "l": 1.22752,
    "c": 1.22777,
    "v": 3620
  },
  {
    "dt": "2022.05.06 10:00",
    "o": 1.22776,
    "h": 1.234,
    "l": 1.22776,
    "c": 1.23118,
    "v": 5121
  },
  {
    "dt": "2022.05.06 11:00",
    "o": 1.23117,
    "h": 1.23563,
    "l": 1.23041,
    "c": 1.23393,
    "v": 5155
  },
  {
    "dt": "2022.05.06 12:00",
    "o": 1.23396,
    "h": 1.23454,
    "l": 1.23253,
    "c": 1.23416,
    "v": 3965
  },
  {
    "dt": "2022.05.06 13:00",
    "o": 1.23415,
    "h": 1.23746,
    "l": 1.23355,
    "c": 1.23736,
    "v": 3660
  },
  {
    "dt": "2022.05.06 14:00",
    "o": 1.23736,
    "h": 1.23788,
    "l": 1.23298,
    "c": 1.23352,
    "v": 3609
  },
  {
    "dt": "2022.05.06 15:00",
    "o": 1.23353,
    "h": 1.23742,
    "l": 1.23172,
    "c": 1.23217,
    "v": 5038
  },
  {
    "dt": "2022.05.06 16:00",
    "o": 1.23222,
    "h": 1.23465,
    "l": 1.23003,
    "c": 1.23228,
    "v": 5793
  },
  {
    "dt": "2022.05.06 17:00",
    "o": 1.23227,
    "h": 1.2358,
    "l": 1.23214,
    "c": 1.23495,
    "v": 5870
  },
  {
    "dt": "2022.05.06 18:00",
    "o": 1.23491,
    "h": 1.23689,
    "l": 1.23425,
    "c": 1.23434,
    "v": 5079
  },
  {
    "dt": "2022.05.06 19:00",
    "o": 1.23435,
    "h": 1.23607,
    "l": 1.23399,
    "c": 1.23563,
    "v": 4892
  },
  {
    "dt": "2022.05.06 20:00",
    "o": 1.23566,
    "h": 1.23614,
    "l": 1.23329,
    "c": 1.23336,
    "v": 4378
  },
  {
    "dt": "2022.05.06 21:00",
    "o": 1.23325,
    "h": 1.23444,
    "l": 1.23298,
    "c": 1.23303,
    "v": 3751
  },
  {
    "dt": "2022.05.06 22:00",
    "o": 1.23295,
    "h": 1.23486,
    "l": 1.23221,
    "c": 1.23415,
    "v": 3849
  },
  {
    "dt": "2022.05.06 23:00",
    "o": 1.23412,
    "h": 1.23415,
    "l": 1.23303,
    "c": 1.23321,
    "v": 1278
  },
  {
    "dt": "2022.05.09 00:00",
    "o": 1.23428,
    "h": 1.23446,
    "l": 1.23216,
    "c": 1.23425,
    "v": 209
  },
  {
    "dt": "2022.05.09 01:00",
    "o": 1.23424,
    "h": 1.23424,
    "l": 1.23288,
    "c": 1.23366,
    "v": 1180
  },
  {
    "dt": "2022.05.09 02:00",
    "o": 1.23352,
    "h": 1.23379,
    "l": 1.23234,
    "c": 1.23249,
    "v": 1780
  },
  {
    "dt": "2022.05.09 03:00",
    "o": 1.2325,
    "h": 1.23264,
    "l": 1.23013,
    "c": 1.23028,
    "v": 2830
  },
  {
    "dt": "2022.05.09 04:00",
    "o": 1.23023,
    "h": 1.23115,
    "l": 1.2295,
    "c": 1.23086,
    "v": 3093
  },
  {
    "dt": "2022.05.09 05:00",
    "o": 1.23085,
    "h": 1.23089,
    "l": 1.22851,
    "c": 1.22899,
    "v": 2606
  },
  {
    "dt": "2022.05.09 06:00",
    "o": 1.22898,
    "h": 1.22993,
    "l": 1.22831,
    "c": 1.22898,
    "v": 2287
  },
  {
    "dt": "2022.05.09 07:00",
    "o": 1.22897,
    "h": 1.22939,
    "l": 1.22801,
    "c": 1.2282,
    "v": 1945
  },
  {
    "dt": "2022.05.09 08:00",
    "o": 1.22818,
    "h": 1.22835,
    "l": 1.22678,
    "c": 1.2279,
    "v": 2693
  },
  {
    "dt": "2022.05.09 09:00",
    "o": 1.22788,
    "h": 1.22876,
    "l": 1.22601,
    "c": 1.22633,
    "v": 3336
  },
  {
    "dt": "2022.05.09 10:00",
    "o": 1.22643,
    "h": 1.22981,
    "l": 1.22614,
    "c": 1.22866,
    "v": 4439
  },
  {
    "dt": "2022.05.09 11:00",
    "o": 1.22867,
    "h": 1.23066,
    "l": 1.22688,
    "c": 1.22693,
    "v": 3878
  },
  {
    "dt": "2022.05.09 12:00",
    "o": 1.22694,
    "h": 1.23173,
    "l": 1.22676,
    "c": 1.23155,
    "v": 3717
  },
  {
    "dt": "2022.05.09 13:00",
    "o": 1.23154,
    "h": 1.2347,
    "l": 1.23103,
    "c": 1.23402,
    "v": 3660
  },
  {
    "dt": "2022.05.09 14:00",
    "o": 1.23394,
    "h": 1.23704,
    "l": 1.23272,
    "c": 1.2365,
    "v": 4048
  },
  {
    "dt": "2022.05.09 15:00",
    "o": 1.23657,
    "h": 1.24049,
    "l": 1.23621,
    "c": 1.23887,
    "v": 4741
  },
  {
    "dt": "2022.05.09 16:00",
    "o": 1.2389,
    "h": 1.23896,
    "l": 1.23086,
    "c": 1.23103,
    "v": 4892
  },
  {
    "dt": "2022.05.09 17:00",
    "o": 1.23105,
    "h": 1.23242,
    "l": 1.22998,
    "c": 1.23048,
    "v": 4905
  },
  {
    "dt": "2022.05.09 18:00",
    "o": 1.23047,
    "h": 1.23404,
    "l": 1.23037,
    "c": 1.23329,
    "v": 4409
  },
  {
    "dt": "2022.05.09 19:00",
    "o": 1.23326,
    "h": 1.23792,
    "l": 1.23247,
    "c": 1.23466,
    "v": 4385
  },
  {
    "dt": "2022.05.09 20:00",
    "o": 1.2347,
    "h": 1.23544,
    "l": 1.23308,
    "c": 1.23333,
    "v": 4158
  },
  {
    "dt": "2022.05.09 21:00",
    "o": 1.23334,
    "h": 1.23493,
    "l": 1.23249,
    "c": 1.23417,
    "v": 4013
  },
  {
    "dt": "2022.05.09 22:00",
    "o": 1.23418,
    "h": 1.23533,
    "l": 1.2329,
    "c": 1.23301,
    "v": 4232
  },
  {
    "dt": "2022.05.09 23:00",
    "o": 1.23303,
    "h": 1.23353,
    "l": 1.2326,
    "c": 1.23284,
    "v": 1303
  },
  {
    "dt": "2022.05.10 00:00",
    "o": 1.23288,
    "h": 1.23301,
    "l": 1.23215,
    "c": 1.23262,
    "v": 288
  },
  {
    "dt": "2022.05.10 01:00",
    "o": 1.23263,
    "h": 1.23294,
    "l": 1.23228,
    "c": 1.23285,
    "v": 1018
  },
  {
    "dt": "2022.05.10 02:00",
    "o": 1.23285,
    "h": 1.23411,
    "l": 1.23277,
    "c": 1.2335,
    "v": 1596
  },
  {
    "dt": "2022.05.10 03:00",
    "o": 1.23354,
    "h": 1.23354,
    "l": 1.23165,
    "c": 1.23298,
    "v": 3606
  },
  {
    "dt": "2022.05.10 04:00",
    "o": 1.23299,
    "h": 1.23522,
    "l": 1.23228,
    "c": 1.2346,
    "v": 3852
  },
  {
    "dt": "2022.05.10 05:00",
    "o": 1.23463,
    "h": 1.23709,
    "l": 1.23463,
    "c": 1.23641,
    "v": 3535
  },
  {
    "dt": "2022.05.10 06:00",
    "o": 1.23641,
    "h": 1.23661,
    "l": 1.23491,
    "c": 1.23659,
    "v": 2883
  },
  {
    "dt": "2022.05.10 07:00",
    "o": 1.23659,
    "h": 1.23677,
    "l": 1.23585,
    "c": 1.23645,
    "v": 2154
  },
  {
    "dt": "2022.05.10 08:00",
    "o": 1.23645,
    "h": 1.23748,
    "l": 1.23619,
    "c": 1.23638,
    "v": 3104
  },
  {
    "dt": "2022.05.10 09:00",
    "o": 1.23639,
    "h": 1.23669,
    "l": 1.23442,
    "c": 1.23448,
    "v": 3637
  },
  {
    "dt": "2022.05.10 10:00",
    "o": 1.23451,
    "h": 1.23474,
    "l": 1.23159,
    "c": 1.23164,
    "v": 4615
  },
  {
    "dt": "2022.05.10 11:00",
    "o": 1.23166,
    "h": 1.23436,
    "l": 1.23158,
    "c": 1.23364,
    "v": 3841
  },
  {
    "dt": "2022.05.10 12:00",
    "o": 1.23381,
    "h": 1.23415,
    "l": 1.23039,
    "c": 1.23066,
    "v": 3733
  },
  {
    "dt": "2022.05.10 13:00",
    "o": 1.23065,
    "h": 1.23578,
    "l": 1.23035,
    "c": 1.2348,
    "v": 3561
  },
  {
    "dt": "2022.05.10 14:00",
    "o": 1.23485,
    "h": 1.23554,
    "l": 1.23316,
    "c": 1.23372,
    "v": 3446
  },
  {
    "dt": "2022.05.10 15:00",
    "o": 1.23373,
    "h": 1.23408,
    "l": 1.23169,
    "c": 1.23172,
    "v": 4041
  },
  {
    "dt": "2022.05.10 16:00",
    "o": 1.23167,
    "h": 1.23401,
    "l": 1.23123,
    "c": 1.2322,
    "v": 4614
  },
  {
    "dt": "2022.05.10 17:00",
    "o": 1.23216,
    "h": 1.23403,
    "l": 1.23065,
    "c": 1.23115,
    "v": 5356
  },
  {
    "dt": "2022.05.10 18:00",
    "o": 1.23116,
    "h": 1.23284,
    "l": 1.22917,
    "c": 1.23125,
    "v": 5188
  },
  {
    "dt": "2022.05.10 19:00",
    "o": 1.23124,
    "h": 1.23262,
    "l": 1.22909,
    "c": 1.23088,
    "v": 5243
  },
  {
    "dt": "2022.05.10 20:00",
    "o": 1.23092,
    "h": 1.23286,
    "l": 1.23019,
    "c": 1.23258,
    "v": 4585
  },
  {
    "dt": "2022.05.10 21:00",
    "o": 1.23264,
    "h": 1.23297,
    "l": 1.23105,
    "c": 1.23116,
    "v": 4213
  },
  {
    "dt": "2022.05.10 22:00",
    "o": 1.23116,
    "h": 1.23217,
    "l": 1.2302,
    "c": 1.23172,
    "v": 3688
  },
  {
    "dt": "2022.05.10 23:00",
    "o": 1.23171,
    "h": 1.23213,
    "l": 1.23125,
    "c": 1.23149,
    "v": 1122
  },
  {
    "dt": "2022.05.11 00:00",
    "o": 1.2316,
    "h": 1.23161,
    "l": 1.23078,
    "c": 1.23125,
    "v": 321
  },
  {
    "dt": "2022.05.11 01:00",
    "o": 1.23125,
    "h": 1.23165,
    "l": 1.23106,
    "c": 1.23136,
    "v": 784
  },
  {
    "dt": "2022.05.11 02:00",
    "o": 1.23136,
    "h": 1.2315,
    "l": 1.23058,
    "c": 1.23058,
    "v": 1108
  },
  {
    "dt": "2022.05.11 03:00",
    "o": 1.23058,
    "h": 1.23249,
    "l": 1.23046,
    "c": 1.23164,
    "v": 1913
  },
  {
    "dt": "2022.05.11 04:00",
    "o": 1.23165,
    "h": 1.23257,
    "l": 1.23111,
    "c": 1.23239,
    "v": 2625
  },
  {
    "dt": "2022.05.11 05:00",
    "o": 1.23234,
    "h": 1.23372,
    "l": 1.23225,
    "c": 1.23359,
    "v": 2429
  },
  {
    "dt": "2022.05.11 06:00",
    "o": 1.23358,
    "h": 1.23391,
    "l": 1.23242,
    "c": 1.23299,
    "v": 1958
  },
  {
    "dt": "2022.05.11 07:00",
    "o": 1.23299,
    "h": 1.23351,
    "l": 1.23243,
    "c": 1.23347,
    "v": 1641
  },
  {
    "dt": "2022.05.11 08:00",
    "o": 1.23349,
    "h": 1.23402,
    "l": 1.23257,
    "c": 1.23349,
    "v": 2294
  },
  {
    "dt": "2022.05.11 09:00",
    "o": 1.2333,
    "h": 1.23461,
    "l": 1.23294,
    "c": 1.23367,
    "v": 2956
  },
  {
    "dt": "2022.05.11 10:00",
    "o": 1.23377,
    "h": 1.23451,
    "l": 1.23219,
    "c": 1.23438,
    "v": 3773
  },
  {
    "dt": "2022.05.11 11:00",
    "o": 1.23442,
    "h": 1.2372,
    "l": 1.23388,
    "c": 1.23717,
    "v": 3768
  },
  {
    "dt": "2022.05.11 12:00",
    "o": 1.23718,
    "h": 1.23888,
    "l": 1.23657,
    "c": 1.23744,
    "v": 3311
  },
  {
    "dt": "2022.05.11 13:00",
    "o": 1.23745,
    "h": 1.23774,
    "l": 1.23381,
    "c": 1.23392,
    "v": 3098
  },
  {
    "dt": "2022.05.11 14:00",
    "o": 1.23403,
    "h": 1.23593,
    "l": 1.23239,
    "c": 1.23559,
    "v": 3776
  },
  {
    "dt": "2022.05.11 15:00",
    "o": 1.2356,
    "h": 1.23639,
    "l": 1.22762,
    "c": 1.22862,
    "v": 4795
  },
  {
    "dt": "2022.05.11 16:00",
    "o": 1.22859,
    "h": 1.23987,
    "l": 1.22814,
    "c": 1.23822,
    "v": 5989
  },
  {
    "dt": "2022.05.11 17:00",
    "o": 1.2382,
    "h": 1.23888,
    "l": 1.23367,
    "c": 1.23397,
    "v": 5598
  },
  {
    "dt": "2022.05.11 18:00",
    "o": 1.23404,
    "h": 1.23423,
    "l": 1.23127,
    "c": 1.23138,
    "v": 5026
  },
  {
    "dt": "2022.05.11 19:00",
    "o": 1.23139,
    "h": 1.23234,
    "l": 1.22878,
    "c": 1.22886,
    "v": 4598
  },
  {
    "dt": "2022.05.11 20:00",
    "o": 1.22888,
    "h": 1.22919,
    "l": 1.22627,
    "c": 1.22667,
    "v": 4675
  },
  {
    "dt": "2022.05.11 21:00",
    "o": 1.22667,
    "h": 1.22842,
    "l": 1.22651,
    "c": 1.22681,
    "v": 4907
  },
  {
    "dt": "2022.05.11 22:00",
    "o": 1.2268,
    "h": 1.22687,
    "l": 1.22364,
    "c": 1.22421,
    "v": 3994
  },
  {
    "dt": "2022.05.11 23:00",
    "o": 1.22423,
    "h": 1.22464,
    "l": 1.22369,
    "c": 1.2246,
    "v": 1370
  },
  {
    "dt": "2022.05.12 00:00",
    "o": 1.22504,
    "h": 1.22505,
    "l": 1.22415,
    "c": 1.22471,
    "v": 573
  },
  {
    "dt": "2022.05.12 01:00",
    "o": 1.22473,
    "h": 1.22518,
    "l": 1.22436,
    "c": 1.22467,
    "v": 990
  },
  {
    "dt": "2022.05.12 02:00",
    "o": 1.22468,
    "h": 1.22487,
    "l": 1.22307,
    "c": 1.22325,
    "v": 1237
  },
  {
    "dt": "2022.05.12 03:00",
    "o": 1.22322,
    "h": 1.22476,
    "l": 1.22239,
    "c": 1.22438,
    "v": 3327
  },
  {
    "dt": "2022.05.12 04:00",
    "o": 1.22437,
    "h": 1.22449,
    "l": 1.22313,
    "c": 1.22387,
    "v": 3484
  },
  {
    "dt": "2022.05.12 05:00",
    "o": 1.22392,
    "h": 1.22438,
    "l": 1.22092,
    "c": 1.2217,
    "v": 3033
  },
  {
    "dt": "2022.05.12 06:00",
    "o": 1.22169,
    "h": 1.22323,
    "l": 1.22167,
    "c": 1.22274,
    "v": 2510
  },
  {
    "dt": "2022.05.12 07:00",
    "o": 1.22274,
    "h": 1.22309,
    "l": 1.22061,
    "c": 1.22071,
    "v": 2391
  },
  {
    "dt": "2022.05.12 08:00",
    "o": 1.22081,
    "h": 1.22141,
    "l": 1.21969,
    "c": 1.22005,
    "v": 3275
  },
  {
    "dt": "2022.05.12 09:00",
    "o": 1.22006,
    "h": 1.22203,
    "l": 1.21838,
    "c": 1.22055,
    "v": 4420
  },
  {
    "dt": "2022.05.12 10:00",
    "o": 1.22062,
    "h": 1.22203,
    "l": 1.21794,
    "c": 1.21995,
    "v": 5696
  },
  {
    "dt": "2022.05.12 11:00",
    "o": 1.22005,
    "h": 1.22051,
    "l": 1.21787,
    "c": 1.21787,
    "v": 4666
  },
  {
    "dt": "2022.05.12 12:00",
    "o": 1.21788,
    "h": 1.21988,
    "l": 1.21643,
    "c": 1.21859,
    "v": 4047
  },
  {
    "dt": "2022.05.12 13:00",
    "o": 1.21858,
    "h": 1.22184,
    "l": 1.21852,
    "c": 1.22054,
    "v": 3474
  },
  {
    "dt": "2022.05.12 14:00",
    "o": 1.22059,
    "h": 1.2218,
    "l": 1.21841,
    "c": 1.21948,
    "v": 4203
  },
  {
    "dt": "2022.05.12 15:00",
    "o": 1.21954,
    "h": 1.22467,
    "l": 1.21889,
    "c": 1.22268,
    "v": 4702
  },
  {
    "dt": "2022.05.12 16:00",
    "o": 1.22266,
    "h": 1.22399,
    "l": 1.21951,
    "c": 1.22046,
    "v": 5240
  },
  {
    "dt": "2022.05.12 17:00",
    "o": 1.22045,
    "h": 1.22318,
    "l": 1.21924,
    "c": 1.22265,
    "v": 5625
  },
  {
    "dt": "2022.05.12 18:00",
    "o": 1.22265,
    "h": 1.22425,
    "l": 1.21945,
    "c": 1.21947,
    "v": 4667
  },
  {
    "dt": "2022.05.12 19:00",
    "o": 1.2195,
    "h": 1.22184,
    "l": 1.21866,
    "c": 1.21902,
    "v": 4839
  },
  {
    "dt": "2022.05.12 20:00",
    "o": 1.21905,
    "h": 1.21985,
    "l": 1.21723,
    "c": 1.21846,
    "v": 4465
  },
  {
    "dt": "2022.05.12 21:00",
    "o": 1.21845,
    "h": 1.21926,
    "l": 1.21723,
    "c": 1.21739,
    "v": 4049
  },
  {
    "dt": "2022.05.12 22:00",
    "o": 1.21741,
    "h": 1.21968,
    "l": 1.21735,
    "c": 1.21922,
    "v": 4205
  },
  {
    "dt": "2022.05.12 23:00",
    "o": 1.21917,
    "h": 1.21985,
    "l": 1.21899,
    "c": 1.21938,
    "v": 1296
  },
  {
    "dt": "2022.05.13 00:00",
    "o": 1.21939,
    "h": 1.2198,
    "l": 1.21917,
    "c": 1.21941,
    "v": 233
  },
  {
    "dt": "2022.05.13 01:00",
    "o": 1.21941,
    "h": 1.22015,
    "l": 1.21939,
    "c": 1.2197,
    "v": 814
  },
  {
    "dt": "2022.05.13 02:00",
    "o": 1.21981,
    "h": 1.22066,
    "l": 1.2198,
    "c": 1.22035,
    "v": 1978
  },
  {
    "dt": "2022.05.13 03:00",
    "o": 1.2203,
    "h": 1.22131,
    "l": 1.21984,
    "c": 1.22064,
    "v": 2471
  },
  {
    "dt": "2022.05.13 04:00",
    "o": 1.22064,
    "h": 1.22147,
    "l": 1.21921,
    "c": 1.21995,
    "v": 3329
  },
  {
    "dt": "2022.05.13 05:00",
    "o": 1.21995,
    "h": 1.22171,
    "l": 1.21994,
    "c": 1.22158,
    "v": 2651
  },
  {
    "dt": "2022.05.13 06:00",
    "o": 1.22157,
    "h": 1.22261,
    "l": 1.22131,
    "c": 1.22164,
    "v": 2641
  },
  {
    "dt": "2022.05.13 07:00",
    "o": 1.22163,
    "h": 1.22216,
    "l": 1.22104,
    "c": 1.22216,
    "v": 1766
  },
  {
    "dt": "2022.05.13 08:00",
    "o": 1.22218,
    "h": 1.22249,
    "l": 1.22165,
    "c": 1.22237,
    "v": 2284
  },
  {
    "dt": "2022.05.13 09:00",
    "o": 1.22234,
    "h": 1.22251,
    "l": 1.22046,
    "c": 1.22157,
    "v": 3661
  },
  {
    "dt": "2022.05.13 10:00",
    "o": 1.22153,
    "h": 1.22306,
    "l": 1.21983,
    "c": 1.2216,
    "v": 4823
  },
  {
    "dt": "2022.05.13 11:00",
    "o": 1.22162,
    "h": 1.22272,
    "l": 1.22004,
    "c": 1.22045,
    "v": 3701
  },
  {
    "dt": "2022.05.13 12:00",
    "o": 1.22046,
    "h": 1.22093,
    "l": 1.21736,
    "c": 1.21763,
    "v": 3228
  },
  {
    "dt": "2022.05.13 13:00",
    "o": 1.21764,
    "h": 1.21981,
    "l": 1.21735,
    "c": 1.21981,
    "v": 3028
  },
  {
    "dt": "2022.05.13 14:00",
    "o": 1.21981,
    "h": 1.22155,
    "l": 1.21842,
    "c": 1.21908,
    "v": 2846
  },
  {
    "dt": "2022.05.13 15:00",
    "o": 1.2191,
    "h": 1.22076,
    "l": 1.21822,
    "c": 1.21984,
    "v": 3046
  },
  {
    "dt": "2022.05.13 16:00",
    "o": 1.21984,
    "h": 1.21984,
    "l": 1.21548,
    "c": 1.21722,
    "v": 4434
  },
  {
    "dt": "2022.05.13 17:00",
    "o": 1.21746,
    "h": 1.22192,
    "l": 1.21746,
    "c": 1.22187,
    "v": 4945
  },
  {
    "dt": "2022.05.13 18:00",
    "o": 1.22185,
    "h": 1.2244,
    "l": 1.22169,
    "c": 1.22422,
    "v": 3714
  },
  {
    "dt": "2022.05.13 19:00",
    "o": 1.22421,
    "h": 1.22479,
    "l": 1.22326,
    "c": 1.22351,
    "v": 2722
  },
  {
    "dt": "2022.05.13 20:00",
    "o": 1.22353,
    "h": 1.22475,
    "l": 1.22244,
    "c": 1.22265,
    "v": 2380
  },
  {
    "dt": "2022.05.13 21:00",
    "o": 1.22265,
    "h": 1.2241,
    "l": 1.22191,
    "c": 1.22406,
    "v": 2948
  },
  {
    "dt": "2022.05.13 22:00",
    "o": 1.22406,
    "h": 1.22427,
    "l": 1.22318,
    "c": 1.22411,
    "v": 2179
  },
  {
    "dt": "2022.05.13 23:00",
    "o": 1.22411,
    "h": 1.22614,
    "l": 1.22394,
    "c": 1.22607,
    "v": 1242
  },
  {
    "dt": "2022.05.16 00:00",
    "o": 1.22364,
    "h": 1.22519,
    "l": 1.22344,
    "c": 1.22471,
    "v": 229
  },
  {
    "dt": "2022.05.16 01:00",
    "o": 1.2247,
    "h": 1.22655,
    "l": 1.22467,
    "c": 1.22526,
    "v": 1400
  },
  {
    "dt": "2022.05.16 02:00",
    "o": 1.22528,
    "h": 1.2262,
    "l": 1.22461,
    "c": 1.22563,
    "v": 2123
  },
  {
    "dt": "2022.05.16 03:00",
    "o": 1.22579,
    "h": 1.22696,
    "l": 1.22541,
    "c": 1.22686,
    "v": 2744
  },
  {
    "dt": "2022.05.16 04:00",
    "o": 1.22686,
    "h": 1.22956,
    "l": 1.22611,
    "c": 1.22641,
    "v": 3138
  },
  {
    "dt": "2022.05.16 05:00",
    "o": 1.22641,
    "h": 1.22641,
    "l": 1.22408,
    "c": 1.22493,
    "v": 3292
  },
  {
    "dt": "2022.05.16 06:00",
    "o": 1.22484,
    "h": 1.22501,
    "l": 1.2232,
    "c": 1.22355,
    "v": 2555
  },
  {
    "dt": "2022.05.16 07:00",
    "o": 1.22354,
    "h": 1.2243,
    "l": 1.22326,
    "c": 1.22396,
    "v": 1649
  },
  {
    "dt": "2022.05.16 08:00",
    "o": 1.22395,
    "h": 1.22521,
    "l": 1.22395,
    "c": 1.22457,
    "v": 2075
  },
  {
    "dt": "2022.05.16 09:00",
    "o": 1.22456,
    "h": 1.22506,
    "l": 1.22181,
    "c": 1.22247,
    "v": 3208
  },
  {
    "dt": "2022.05.16 10:00",
    "o": 1.22249,
    "h": 1.22521,
    "l": 1.22161,
    "c": 1.22181,
    "v": 4217
  },
  {
    "dt": "2022.05.16 11:00",
    "o": 1.2218,
    "h": 1.2235,
    "l": 1.2218,
    "c": 1.22349,
    "v": 3644
  },
  {
    "dt": "2022.05.16 12:00",
    "o": 1.2235,
    "h": 1.22417,
    "l": 1.22181,
    "c": 1.22282,
    "v": 3107
  },
  {
    "dt": "2022.05.16 13:00",
    "o": 1.22284,
    "h": 1.2269,
    "l": 1.22284,
    "c": 1.22647,
    "v": 2956
  },
  {
    "dt": "2022.05.16 14:00",
    "o": 1.22646,
    "h": 1.22697,
    "l": 1.22434,
    "c": 1.22582,
    "v": 3137
  },
  {
    "dt": "2022.05.16 15:00",
    "o": 1.22583,
    "h": 1.22666,
    "l": 1.22467,
    "c": 1.2253,
    "v": 3330
  },
  {
    "dt": "2022.05.16 16:00",
    "o": 1.22532,
    "h": 1.22635,
    "l": 1.22388,
    "c": 1.22398,
    "v": 4395
  },
  {
    "dt": "2022.05.16 17:00",
    "o": 1.22396,
    "h": 1.2273,
    "l": 1.22373,
    "c": 1.22508,
    "v": 4801
  },
  {
    "dt": "2022.05.16 18:00",
    "o": 1.22505,
    "h": 1.22705,
    "l": 1.22355,
    "c": 1.22687,
    "v": 4029
  },
  {
    "dt": "2022.05.16 19:00",
    "o": 1.22692,
    "h": 1.22805,
    "l": 1.22648,
    "c": 1.22748,
    "v": 3160
  },
  {
    "dt": "2022.05.16 20:00",
    "o": 1.22738,
    "h": 1.22839,
    "l": 1.22726,
    "c": 1.22827,
    "v": 2637
  },
  {
    "dt": "2022.05.16 21:00",
    "o": 1.22826,
    "h": 1.23193,
    "l": 1.228,
    "c": 1.23179,
    "v": 2924
  },
  {
    "dt": "2022.05.16 22:00",
    "o": 1.23173,
    "h": 1.23287,
    "l": 1.23141,
    "c": 1.23165,
    "v": 3049
  },
  {
    "dt": "2022.05.16 23:00",
    "o": 1.23166,
    "h": 1.23236,
    "l": 1.23135,
    "c": 1.23191,
    "v": 992
  },
  {
    "dt": "2022.05.17 00:00",
    "o": 1.23158,
    "h": 1.23194,
    "l": 1.23149,
    "c": 1.23172,
    "v": 229
  },
  {
    "dt": "2022.05.17 01:00",
    "o": 1.2316,
    "h": 1.23262,
    "l": 1.2316,
    "c": 1.23224,
    "v": 958
  },
  {
    "dt": "2022.05.17 02:00",
    "o": 1.23224,
    "h": 1.23262,
    "l": 1.23206,
    "c": 1.23247,
    "v": 1446
  },
  {
    "dt": "2022.05.17 03:00",
    "o": 1.23239,
    "h": 1.23361,
    "l": 1.23238,
    "c": 1.23283,
    "v": 2466
  },
  {
    "dt": "2022.05.17 04:00",
    "o": 1.23285,
    "h": 1.23432,
    "l": 1.23194,
    "c": 1.23411,
    "v": 2781
  },
  {
    "dt": "2022.05.17 05:00",
    "o": 1.2341,
    "h": 1.23437,
    "l": 1.23284,
    "c": 1.23323,
    "v": 2222
  },
  {
    "dt": "2022.05.17 06:00",
    "o": 1.23324,
    "h": 1.23372,
    "l": 1.23267,
    "c": 1.23349,
    "v": 1891
  },
  {
    "dt": "2022.05.17 07:00",
    "o": 1.23351,
    "h": 1.23461,
    "l": 1.23309,
    "c": 1.23417,
    "v": 1351
  },
  {
    "dt": "2022.05.17 08:00",
    "o": 1.23418,
    "h": 1.23481,
    "l": 1.23341,
    "c": 1.2347,
    "v": 1821
  },
  {
    "dt": "2022.05.17 09:00",
    "o": 1.23469,
    "h": 1.2389,
    "l": 1.23456,
    "c": 1.23837,
    "v": 3505
  },
  {
    "dt": "2022.05.17 10:00",
    "o": 1.23825,
    "h": 1.24307,
    "l": 1.23759,
    "c": 1.24227,
    "v": 3889
  },
  {
    "dt": "2022.05.17 11:00",
    "o": 1.2423,
    "h": 1.24815,
    "l": 1.24198,
    "c": 1.2475,
    "v": 3956
  },
  {
    "dt": "2022.05.17 12:00",
    "o": 1.2475,
    "h": 1.2487,
    "l": 1.24415,
    "c": 1.24532,
    "v": 3596
  },
  {
    "dt": "2022.05.17 13:00",
    "o": 1.24529,
    "h": 1.24799,
    "l": 1.24515,
    "c": 1.24643,
    "v": 4175
  },
  {
    "dt": "2022.05.17 14:00",
    "o": 1.24642,
    "h": 1.24979,
    "l": 1.24572,
    "c": 1.24823,
    "v": 3989
  },
  {
    "dt": "2022.05.17 15:00",
    "o": 1.24828,
    "h": 1.24947,
    "l": 1.24624,
    "c": 1.24873,
    "v": 4115
  },
  {
    "dt": "2022.05.17 16:00",
    "o": 1.24879,
    "h": 1.24885,
    "l": 1.24485,
    "c": 1.24748,
    "v": 4271
  },
  {
    "dt": "2022.05.17 17:00",
    "o": 1.24754,
    "h": 1.24808,
    "l": 1.24556,
    "c": 1.24688,
    "v": 4603
  },
  {
    "dt": "2022.05.17 18:00",
    "o": 1.24687,
    "h": 1.24839,
    "l": 1.2458,
    "c": 1.24683,
    "v": 3440
  },
  {
    "dt": "2022.05.17 19:00",
    "o": 1.24683,
    "h": 1.24839,
    "l": 1.24626,
    "c": 1.24797,
    "v": 3052
  },
  {
    "dt": "2022.05.17 20:00",
    "o": 1.24796,
    "h": 1.24847,
    "l": 1.24719,
    "c": 1.24758,
    "v": 2870
  },
  {
    "dt": "2022.05.17 21:00",
    "o": 1.24756,
    "h": 1.24927,
    "l": 1.24516,
    "c": 1.24798,
    "v": 5340
  },
  {
    "dt": "2022.05.17 22:00",
    "o": 1.24788,
    "h": 1.24864,
    "l": 1.24709,
    "c": 1.24829,
    "v": 3703
  },
  {
    "dt": "2022.05.17 23:00",
    "o": 1.24832,
    "h": 1.24931,
    "l": 1.24796,
    "c": 1.24919,
    "v": 1097
  },
  {
    "dt": "2022.05.18 00:00",
    "o": 1.24892,
    "h": 1.24935,
    "l": 1.24837,
    "c": 1.24879,
    "v": 454
  },
  {
    "dt": "2022.05.18 01:00",
    "o": 1.24881,
    "h": 1.24951,
    "l": 1.24881,
    "c": 1.24903,
    "v": 1248
  },
  {
    "dt": "2022.05.18 02:00",
    "o": 1.24907,
    "h": 1.24907,
    "l": 1.24839,
    "c": 1.24862,
    "v": 1227
  },
  {
    "dt": "2022.05.18 03:00",
    "o": 1.24863,
    "h": 1.25,
    "l": 1.24859,
    "c": 1.24876,
    "v": 2294
  },
  {
    "dt": "2022.05.18 04:00",
    "o": 1.24876,
    "h": 1.24921,
    "l": 1.24748,
    "c": 1.24861,
    "v": 2688
  },
  {
    "dt": "2022.05.18 05:00",
    "o": 1.24859,
    "h": 1.24867,
    "l": 1.24717,
    "c": 1.24741,
    "v": 1686
  },
  {
    "dt": "2022.05.18 06:00",
    "o": 1.2474,
    "h": 1.24779,
    "l": 1.24619,
    "c": 1.24679,
    "v": 2007
  },
  {
    "dt": "2022.05.18 07:00",
    "o": 1.24678,
    "h": 1.24742,
    "l": 1.24645,
    "c": 1.24713,
    "v": 1693
  },
  {
    "dt": "2022.05.18 08:00",
    "o": 1.24713,
    "h": 1.24945,
    "l": 1.24713,
    "c": 1.24912,
    "v": 2332
  },
  {
    "dt": "2022.05.18 09:00",
    "o": 1.24948,
    "h": 1.24948,
    "l": 1.24353,
    "c": 1.24407,
    "v": 3044
  },
  {
    "dt": "2022.05.18 10:00",
    "o": 1.24407,
    "h": 1.24435,
    "l": 1.23927,
    "c": 1.23949,
    "v": 3891
  },
  {
    "dt": "2022.05.18 11:00",
    "o": 1.23956,
    "h": 1.24103,
    "l": 1.23709,
    "c": 1.23733,
    "v": 3366
  },
  {
    "dt": "2022.05.18 12:00",
    "o": 1.23737,
    "h": 1.24102,
    "l": 1.23732,
    "c": 1.24093,
    "v": 2839
  },
  {
    "dt": "2022.05.18 13:00",
    "o": 1.24095,
    "h": 1.24236,
    "l": 1.23969,
    "c": 1.23972,
    "v": 2644
  },
  {
    "dt": "2022.05.18 14:00",
    "o": 1.23986,
    "h": 1.24195,
    "l": 1.23958,
    "c": 1.24183,
    "v": 3098
  },
  {
    "dt": "2022.05.18 15:00",
    "o": 1.24185,
    "h": 1.2435,
    "l": 1.24135,
    "c": 1.24185,
    "v": 3654
  },
  {
    "dt": "2022.05.18 16:00",
    "o": 1.24187,
    "h": 1.24252,
    "l": 1.23915,
    "c": 1.23939,
    "v": 4242
  },
  {
    "dt": "2022.05.18 17:00",
    "o": 1.23936,
    "h": 1.24233,
    "l": 1.23855,
    "c": 1.24109,
    "v": 4363
  },
  {
    "dt": "2022.05.18 18:00",
    "o": 1.24107,
    "h": 1.24149,
    "l": 1.23914,
    "c": 1.23921,
    "v": 4003
  },
  {
    "dt": "2022.05.18 19:00",
    "o": 1.23923,
    "h": 1.23954,
    "l": 1.23724,
    "c": 1.23819,
    "v": 3531
  },
  {
    "dt": "2022.05.18 20:00",
    "o": 1.23819,
    "h": 1.23829,
    "l": 1.23569,
    "c": 1.23583,
    "v": 3328
  },
  {
    "dt": "2022.05.18 21:00",
    "o": 1.23582,
    "h": 1.23656,
    "l": 1.23436,
    "c": 1.23448,
    "v": 3370
  },
  {
    "dt": "2022.05.18 22:00",
    "o": 1.23445,
    "h": 1.23521,
    "l": 1.23377,
    "c": 1.23401,
    "v": 3224
  },
  {
    "dt": "2022.05.18 23:00",
    "o": 1.234,
    "h": 1.23446,
    "l": 1.23289,
    "c": 1.23373,
    "v": 1516
  },
  {
    "dt": "2022.05.19 00:00",
    "o": 1.23343,
    "h": 1.23447,
    "l": 1.23331,
    "c": 1.23379,
    "v": 966
  },
  {
    "dt": "2022.05.19 01:00",
    "o": 1.23383,
    "h": 1.23558,
    "l": 1.23364,
    "c": 1.23536,
    "v": 1337
  },
  {
    "dt": "2022.05.19 02:00",
    "o": 1.23528,
    "h": 1.23545,
    "l": 1.23399,
    "c": 1.23428,
    "v": 1946
  },
  {
    "dt": "2022.05.19 03:00",
    "o": 1.23428,
    "h": 1.23635,
    "l": 1.23383,
    "c": 1.23516,
    "v": 3111
  },
  {
    "dt": "2022.05.19 04:00",
    "o": 1.23515,
    "h": 1.23539,
    "l": 1.23382,
    "c": 1.23439,
    "v": 2981
  },
  {
    "dt": "2022.05.19 05:00",
    "o": 1.23441,
    "h": 1.23698,
    "l": 1.23425,
    "c": 1.23678,
    "v": 2518
  },
  {
    "dt": "2022.05.19 06:00",
    "o": 1.23677,
    "h": 1.23829,
    "l": 1.23666,
    "c": 1.23828,
    "v": 2694
  },
  {
    "dt": "2022.05.19 07:00",
    "o": 1.23825,
    "h": 1.23942,
    "l": 1.23777,
    "c": 1.2385,
    "v": 2128
  },
  {
    "dt": "2022.05.19 08:00",
    "o": 1.2385,
    "h": 1.23914,
    "l": 1.23612,
    "c": 1.23637,
    "v": 2645
  },
  {
    "dt": "2022.05.19 09:00",
    "o": 1.23635,
    "h": 1.23734,
    "l": 1.23415,
    "c": 1.23451,
    "v": 3405
  },
  {
    "dt": "2022.05.19 10:00",
    "o": 1.23455,
    "h": 1.23853,
    "l": 1.23367,
    "c": 1.23826,
    "v": 4465
  },
  {
    "dt": "2022.05.19 11:00",
    "o": 1.23832,
    "h": 1.24063,
    "l": 1.237,
    "c": 1.23906,
    "v": 4239
  },
  {
    "dt": "2022.05.19 12:00",
    "o": 1.23905,
    "h": 1.23975,
    "l": 1.23687,
    "c": 1.23975,
    "v": 3900
  },
  {
    "dt": "2022.05.19 13:00",
    "o": 1.23974,
    "h": 1.24368,
    "l": 1.23966,
    "c": 1.24234,
    "v": 3750
  },
  {
    "dt": "2022.05.19 14:00",
    "o": 1.24231,
    "h": 1.24366,
    "l": 1.24057,
    "c": 1.24309,
    "v": 4120
  },
  {
    "dt": "2022.05.19 15:00",
    "o": 1.24311,
    "h": 1.24332,
    "l": 1.24097,
    "c": 1.24277,
    "v": 4377
  },
  {
    "dt": "2022.05.19 16:00",
    "o": 1.2428,
    "h": 1.24916,
    "l": 1.24253,
    "c": 1.24869,
    "v": 5211
  },
  {
    "dt": "2022.05.19 17:00",
    "o": 1.24867,
    "h": 1.25123,
    "l": 1.24715,
    "c": 1.24915,
    "v": 5785
  },
  {
    "dt": "2022.05.19 18:00",
    "o": 1.24914,
    "h": 1.25238,
    "l": 1.24764,
    "c": 1.2502,
    "v": 4955
  },
  {
    "dt": "2022.05.19 19:00",
    "o": 1.25025,
    "h": 1.25171,
    "l": 1.24891,
    "c": 1.24977,
    "v": 4326
  },
  {
    "dt": "2022.05.19 20:00",
    "o": 1.24977,
    "h": 1.25092,
    "l": 1.24859,
    "c": 1.25066,
    "v": 4497
  },
  {
    "dt": "2022.05.19 21:00",
    "o": 1.25071,
    "h": 1.25112,
    "l": 1.24948,
    "c": 1.24968,
    "v": 4344
  },
  {
    "dt": "2022.05.19 22:00",
    "o": 1.24958,
    "h": 1.25033,
    "l": 1.24856,
    "c": 1.24947,
    "v": 3834
  },
  {
    "dt": "2022.05.19 23:00",
    "o": 1.24943,
    "h": 1.24949,
    "l": 1.24676,
    "c": 1.24701,
    "v": 1493
  },
  {
    "dt": "2022.05.20 00:00",
    "o": 1.24628,
    "h": 1.24726,
    "l": 1.24588,
    "c": 1.24698,
    "v": 278
  },
  {
    "dt": "2022.05.20 01:00",
    "o": 1.24726,
    "h": 1.24745,
    "l": 1.24577,
    "c": 1.24665,
    "v": 1518
  },
  {
    "dt": "2022.05.20 02:00",
    "o": 1.24661,
    "h": 1.24702,
    "l": 1.24597,
    "c": 1.24623,
    "v": 1736
  },
  {
    "dt": "2022.05.20 03:00",
    "o": 1.24628,
    "h": 1.24691,
    "l": 1.24502,
    "c": 1.24625,
    "v": 2193
  },
  {
    "dt": "2022.05.20 04:00",
    "o": 1.24624,
    "h": 1.24686,
    "l": 1.24532,
    "c": 1.24557,
    "v": 3017
  },
  {
    "dt": "2022.05.20 05:00",
    "o": 1.24556,
    "h": 1.24568,
    "l": 1.24369,
    "c": 1.24441,
    "v": 2395
  },
  {
    "dt": "2022.05.20 06:00",
    "o": 1.24442,
    "h": 1.2448,
    "l": 1.24407,
    "c": 1.2447,
    "v": 2113
  },
  {
    "dt": "2022.05.20 07:00",
    "o": 1.24468,
    "h": 1.2457,
    "l": 1.2442,
    "c": 1.24535,
    "v": 2077
  },
  {
    "dt": "2022.05.20 08:00",
    "o": 1.24533,
    "h": 1.24763,
    "l": 1.24472,
    "c": 1.24729,
    "v": 2754
  },
  {
    "dt": "2022.05.20 09:00",
    "o": 1.24743,
    "h": 1.24957,
    "l": 1.24715,
    "c": 1.24755,
    "v": 3739
  },
  {
    "dt": "2022.05.20 10:00",
    "o": 1.24757,
    "h": 1.24918,
    "l": 1.24617,
    "c": 1.24731,
    "v": 4112
  },
  {
    "dt": "2022.05.20 11:00",
    "o": 1.24735,
    "h": 1.24893,
    "l": 1.24583,
    "c": 1.24859,
    "v": 3514
  },
  {
    "dt": "2022.05.20 12:00",
    "o": 1.24858,
    "h": 1.24899,
    "l": 1.24675,
    "c": 1.24773,
    "v": 3097
  },
  {
    "dt": "2022.05.20 13:00",
    "o": 1.24773,
    "h": 1.24875,
    "l": 1.24712,
    "c": 1.2485,
    "v": 2933
  },
  {
    "dt": "2022.05.20 14:00",
    "o": 1.24849,
    "h": 1.24854,
    "l": 1.24661,
    "c": 1.24672,
    "v": 3077
  },
  {
    "dt": "2022.05.20 15:00",
    "o": 1.24669,
    "h": 1.24823,
    "l": 1.24605,
    "c": 1.24774,
    "v": 3750
  },
  {
    "dt": "2022.05.20 16:00",
    "o": 1.24775,
    "h": 1.24985,
    "l": 1.247,
    "c": 1.24882,
    "v": 4171
  },
  {
    "dt": "2022.05.20 17:00",
    "o": 1.24884,
    "h": 1.249,
    "l": 1.24605,
    "c": 1.24654,
    "v": 4683
  },
  {
    "dt": "2022.05.20 18:00",
    "o": 1.2465,
    "h": 1.24943,
    "l": 1.2452,
    "c": 1.249,
    "v": 4506
  },
  {
    "dt": "2022.05.20 19:00",
    "o": 1.24899,
    "h": 1.24927,
    "l": 1.24701,
    "c": 1.24711,
    "v": 4292
  },
  {
    "dt": "2022.05.20 20:00",
    "o": 1.2471,
    "h": 1.24748,
    "l": 1.24613,
    "c": 1.24719,
    "v": 3920
  },
  {
    "dt": "2022.05.20 21:00",
    "o": 1.24724,
    "h": 1.2473,
    "l": 1.24524,
    "c": 1.24701,
    "v": 4047
  },
  {
    "dt": "2022.05.20 22:00",
    "o": 1.24704,
    "h": 1.24906,
    "l": 1.24688,
    "c": 1.24876,
    "v": 3433
  },
  {
    "dt": "2022.05.20 23:00",
    "o": 1.24875,
    "h": 1.2496,
    "l": 1.24837,
    "c": 1.24911,
    "v": 1211
  },
  {
    "dt": "2022.05.23 00:00",
    "o": 1.24747,
    "h": 1.24857,
    "l": 1.24745,
    "c": 1.24854,
    "v": 82
  },
  {
    "dt": "2022.05.23 01:00",
    "o": 1.24851,
    "h": 1.25086,
    "l": 1.24812,
    "c": 1.25061,
    "v": 1264
  },
  {
    "dt": "2022.05.23 02:00",
    "o": 1.2506,
    "h": 1.25086,
    "l": 1.24983,
    "c": 1.25018,
    "v": 1963
  },
  {
    "dt": "2022.05.23 03:00",
    "o": 1.25019,
    "h": 1.25288,
    "l": 1.24987,
    "c": 1.25249,
    "v": 2616
  },
  {
    "dt": "2022.05.23 04:00",
    "o": 1.25248,
    "h": 1.25383,
    "l": 1.2521,
    "c": 1.25326,
    "v": 2684
  },
  {
    "dt": "2022.05.23 05:00",
    "o": 1.25321,
    "h": 1.25445,
    "l": 1.25274,
    "c": 1.25421,
    "v": 2487
  },
  {
    "dt": "2022.05.23 06:00",
    "o": 1.25424,
    "h": 1.25482,
    "l": 1.25333,
    "c": 1.25417,
    "v": 1709
  },
  {
    "dt": "2022.05.23 07:00",
    "o": 1.25417,
    "h": 1.25521,
    "l": 1.25393,
    "c": 1.2545,
    "v": 1330
  },
  {
    "dt": "2022.05.23 08:00",
    "o": 1.25452,
    "h": 1.25708,
    "l": 1.25401,
    "c": 1.25552,
    "v": 2360
  },
  {
    "dt": "2022.05.23 09:00",
    "o": 1.25554,
    "h": 1.25721,
    "l": 1.2548,
    "c": 1.25678,
    "v": 3325
  },
  {
    "dt": "2022.05.23 10:00",
    "o": 1.25667,
    "h": 1.25724,
    "l": 1.25463,
    "c": 1.25494,
    "v": 3930
  },
  {
    "dt": "2022.05.23 11:00",
    "o": 1.25507,
    "h": 1.25741,
    "l": 1.25481,
    "c": 1.25705,
    "v": 4355
  },
  {
    "dt": "2022.05.23 12:00",
    "o": 1.25703,
    "h": 1.25921,
    "l": 1.25648,
    "c": 1.2575,
    "v": 3988
  },
  {
    "dt": "2022.05.23 13:00",
    "o": 1.2575,
    "h": 1.25839,
    "l": 1.25665,
    "c": 1.25804,
    "v": 3119
  },
  {
    "dt": "2022.05.23 14:00",
    "o": 1.25805,
    "h": 1.26,
    "l": 1.25724,
    "c": 1.25748,
    "v": 3039
  },
  {
    "dt": "2022.05.23 15:00",
    "o": 1.25754,
    "h": 1.25798,
    "l": 1.25625,
    "c": 1.25671,
    "v": 3279
  },
  {
    "dt": "2022.05.23 16:00",
    "o": 1.25672,
    "h": 1.25925,
    "l": 1.25551,
    "c": 1.25831,
    "v": 3878
  },
  {
    "dt": "2022.05.23 17:00",
    "o": 1.25831,
    "h": 1.25851,
    "l": 1.25624,
    "c": 1.25693,
    "v": 4791
  },
  {
    "dt": "2022.05.23 18:00",
    "o": 1.25693,
    "h": 1.25835,
    "l": 1.25582,
    "c": 1.2569,
    "v": 4134
  },
  {
    "dt": "2022.05.23 19:00",
    "o": 1.25685,
    "h": 1.25781,
    "l": 1.25627,
    "c": 1.25674,
    "v": 2956
  },
  {
    "dt": "2022.05.23 20:00",
    "o": 1.25671,
    "h": 1.25736,
    "l": 1.25574,
    "c": 1.25689,
    "v": 2629
  },
  {
    "dt": "2022.05.23 21:00",
    "o": 1.25688,
    "h": 1.25806,
    "l": 1.25663,
    "c": 1.25786,
    "v": 2615
  },
  {
    "dt": "2022.05.23 22:00",
    "o": 1.25784,
    "h": 1.2581,
    "l": 1.2567,
    "c": 1.25776,
    "v": 2612
  },
  {
    "dt": "2022.05.23 23:00",
    "o": 1.2578,
    "h": 1.25875,
    "l": 1.2576,
    "c": 1.2586,
    "v": 1211
  },
  {
    "dt": "2022.05.24 00:00",
    "o": 1.25783,
    "h": 1.2586,
    "l": 1.25782,
    "c": 1.25857,
    "v": 157
  },
  {
    "dt": "2022.05.24 01:00",
    "o": 1.25857,
    "h": 1.25859,
    "l": 1.25753,
    "c": 1.25766,
    "v": 897
  },
  {
    "dt": "2022.05.24 02:00",
    "o": 1.25766,
    "h": 1.25782,
    "l": 1.25653,
    "c": 1.25662,
    "v": 1447
  },
  {
    "dt": "2022.05.24 03:00",
    "o": 1.25651,
    "h": 1.25683,
    "l": 1.2556,
    "c": 1.25574,
    "v": 1865
  },
  {
    "dt": "2022.05.24 04:00",
    "o": 1.25577,
    "h": 1.25685,
    "l": 1.25546,
    "c": 1.25564,
    "v": 2339
  },
  {
    "dt": "2022.05.24 05:00",
    "o": 1.25563,
    "h": 1.25607,
    "l": 1.25464,
    "c": 1.25591,
    "v": 1898
  },
  {
    "dt": "2022.05.24 06:00",
    "o": 1.2559,
    "h": 1.25656,
    "l": 1.25569,
    "c": 1.25643,
    "v": 1418
  },
  {
    "dt": "2022.05.24 07:00",
    "o": 1.25643,
    "h": 1.25655,
    "l": 1.25553,
    "c": 1.25594,
    "v": 1472
  },
  {
    "dt": "2022.05.24 08:00",
    "o": 1.25593,
    "h": 1.2573,
    "l": 1.25593,
    "c": 1.25719,
    "v": 2075
  },
  {
    "dt": "2022.05.24 09:00",
    "o": 1.25734,
    "h": 1.25876,
    "l": 1.25673,
    "c": 1.25782,
    "v": 2977
  },
  {
    "dt": "2022.05.24 10:00",
    "o": 1.25801,
    "h": 1.25976,
    "l": 1.25757,
    "c": 1.25815,
    "v": 4348
  },
  {
    "dt": "2022.05.24 11:00",
    "o": 1.2581,
    "h": 1.2591,
    "l": 1.24739,
    "c": 1.24855,
    "v": 4478
  },
  {
    "dt": "2022.05.24 12:00",
    "o": 1.24855,
    "h": 1.25051,
    "l": 1.24771,
    "c": 1.24896,
    "v": 3359
  },
  {
    "dt": "2022.05.24 13:00",
    "o": 1.24894,
    "h": 1.25213,
    "l": 1.24868,
    "c": 1.25098,
    "v": 3205
  },
  {
    "dt": "2022.05.24 14:00",
    "o": 1.251,
    "h": 1.25163,
    "l": 1.24941,
    "c": 1.24976,
    "v": 3464
  },
  {
    "dt": "2022.05.24 15:00",
    "o": 1.24975,
    "h": 1.25065,
    "l": 1.24704,
    "c": 1.2491,
    "v": 3504
  },
  {
    "dt": "2022.05.24 16:00",
    "o": 1.24905,
    "h": 1.25288,
    "l": 1.24829,
    "c": 1.25101,
    "v": 4334
  },
  {
    "dt": "2022.05.24 17:00",
    "o": 1.25102,
    "h": 1.25255,
    "l": 1.24944,
    "c": 1.25227,
    "v": 5266
  },
  {
    "dt": "2022.05.24 18:00",
    "o": 1.25222,
    "h": 1.25423,
    "l": 1.25096,
    "c": 1.25412,
    "v": 4568
  },
  {
    "dt": "2022.05.24 19:00",
    "o": 1.25412,
    "h": 1.25533,
    "l": 1.25317,
    "c": 1.25338,
    "v": 3870
  },
  {
    "dt": "2022.05.24 20:00",
    "o": 1.25335,
    "h": 1.25425,
    "l": 1.25279,
    "c": 1.25369,
    "v": 3759
  },
  {
    "dt": "2022.05.24 21:00",
    "o": 1.25369,
    "h": 1.25379,
    "l": 1.25093,
    "c": 1.251,
    "v": 3456
  },
  {
    "dt": "2022.05.24 22:00",
    "o": 1.25095,
    "h": 1.25358,
    "l": 1.25094,
    "c": 1.25322,
    "v": 3270
  },
  {
    "dt": "2022.05.24 23:00",
    "o": 1.25327,
    "h": 1.25364,
    "l": 1.25314,
    "c": 1.25335,
    "v": 1114
  },
  {
    "dt": "2022.05.25 00:00",
    "o": 1.2527,
    "h": 1.2533,
    "l": 1.2527,
    "c": 1.25304,
    "v": 271
  },
  {
    "dt": "2022.05.25 01:00",
    "o": 1.25304,
    "h": 1.2548,
    "l": 1.25293,
    "c": 1.25421,
    "v": 1080
  },
  {
    "dt": "2022.05.25 02:00",
    "o": 1.25429,
    "h": 1.2546,
    "l": 1.25374,
    "c": 1.25402,
    "v": 1150
  },
  {
    "dt": "2022.05.25 03:00",
    "o": 1.25405,
    "h": 1.25429,
    "l": 1.25209,
    "c": 1.25269,
    "v": 2561
  },
  {
    "dt": "2022.05.25 04:00",
    "o": 1.2527,
    "h": 1.25297,
    "l": 1.25159,
    "c": 1.25171,
    "v": 2925
  },
  {
    "dt": "2022.05.25 05:00",
    "o": 1.25172,
    "h": 1.25346,
    "l": 1.25129,
    "c": 1.25232,
    "v": 2862
  },
  {
    "dt": "2022.05.25 06:00",
    "o": 1.25232,
    "h": 1.25375,
    "l": 1.25189,
    "c": 1.25344,
    "v": 1873
  },
  {
    "dt": "2022.05.25 07:00",
    "o": 1.25343,
    "h": 1.25416,
    "l": 1.25296,
    "c": 1.25368,
    "v": 1547
  },
  {
    "dt": "2022.05.25 08:00",
    "o": 1.25368,
    "h": 1.25408,
    "l": 1.2529,
    "c": 1.2536,
    "v": 1928
  },
  {
    "dt": "2022.05.25 09:00",
    "o": 1.25358,
    "h": 1.25536,
    "l": 1.25258,
    "c": 1.25512,
    "v": 3036
  },
  {
    "dt": "2022.05.25 10:00",
    "o": 1.25513,
    "h": 1.25589,
    "l": 1.25242,
    "c": 1.25387,
    "v": 4402
  },
  {
    "dt": "2022.05.25 11:00",
    "o": 1.25388,
    "h": 1.25486,
    "l": 1.2519,
    "c": 1.25223,
    "v": 3974
  },
  {
    "dt": "2022.05.25 12:00",
    "o": 1.25222,
    "h": 1.25226,
    "l": 1.24988,
    "c": 1.24992,
    "v": 3105
  },
  {
    "dt": "2022.05.25 13:00",
    "o": 1.2499,
    "h": 1.25067,
    "l": 1.24837,
    "c": 1.24864,
    "v": 3129
  },
  {
    "dt": "2022.05.25 14:00",
    "o": 1.24864,
    "h": 1.25029,
    "l": 1.24799,
    "c": 1.24903,
    "v": 3846
  },
  {
    "dt": "2022.05.25 15:00",
    "o": 1.24905,
    "h": 1.25047,
    "l": 1.24829,
    "c": 1.24997,
    "v": 3735
  },
  {
    "dt": "2022.05.25 16:00",
    "o": 1.24996,
    "h": 1.25287,
    "l": 1.24922,
    "c": 1.25267,
    "v": 4174
  },
  {
    "dt": "2022.05.25 17:00",
    "o": 1.25267,
    "h": 1.25479,
    "l": 1.2515,
    "c": 1.25423,
    "v": 4623
  },
  {
    "dt": "2022.05.25 18:00",
    "o": 1.25423,
    "h": 1.25575,
    "l": 1.25308,
    "c": 1.25384,
    "v": 4003
  },
  {
    "dt": "2022.05.25 19:00",
    "o": 1.25386,
    "h": 1.25483,
    "l": 1.25295,
    "c": 1.25313,
    "v": 3112
  },
  {
    "dt": "2022.05.25 20:00",
    "o": 1.25314,
    "h": 1.25544,
    "l": 1.25238,
    "c": 1.25528,
    "v": 2619
  },
  {
    "dt": "2022.05.25 21:00",
    "o": 1.25521,
    "h": 1.25881,
    "l": 1.25375,
    "c": 1.25857,
    "v": 5144
  },
  {
    "dt": "2022.05.25 22:00",
    "o": 1.25859,
    "h": 1.25899,
    "l": 1.25733,
    "c": 1.25755,
    "v": 3465
  },
  {
    "dt": "2022.05.25 23:00",
    "o": 1.25754,
    "h": 1.2582,
    "l": 1.2573,
    "c": 1.25736,
    "v": 1358
  },
  {
    "dt": "2022.05.26 00:00",
    "o": 1.25647,
    "h": 1.25774,
    "l": 1.25636,
    "c": 1.25768,
    "v": 124
  },
  {
    "dt": "2022.05.26 01:00",
    "o": 1.25756,
    "h": 1.25898,
    "l": 1.25756,
    "c": 1.25882,
    "v": 808
  },
  {
    "dt": "2022.05.26 02:00",
    "o": 1.25892,
    "h": 1.25936,
    "l": 1.25827,
    "c": 1.25849,
    "v": 1046
  },
  {
    "dt": "2022.05.26 03:00",
    "o": 1.25843,
    "h": 1.26112,
    "l": 1.25842,
    "c": 1.26037,
    "v": 2510
  },
  {
    "dt": "2022.05.26 04:00",
    "o": 1.26036,
    "h": 1.26078,
    "l": 1.25801,
    "c": 1.25819,
    "v": 2713
  },
  {
    "dt": "2022.05.26 05:00",
    "o": 1.25819,
    "h": 1.2596,
    "l": 1.25794,
    "c": 1.25862,
    "v": 2442
  },
  {
    "dt": "2022.05.26 06:00",
    "o": 1.25865,
    "h": 1.25875,
    "l": 1.25734,
    "c": 1.25861,
    "v": 2364
  },
  {
    "dt": "2022.05.26 07:00",
    "o": 1.25861,
    "h": 1.2588,
    "l": 1.25636,
    "c": 1.25675,
    "v": 2238
  },
  {
    "dt": "2022.05.26 08:00",
    "o": 1.25675,
    "h": 1.25694,
    "l": 1.25511,
    "c": 1.25526,
    "v": 2372
  },
  {
    "dt": "2022.05.26 09:00",
    "o": 1.25532,
    "h": 1.25679,
    "l": 1.25508,
    "c": 1.25621,
    "v": 2875
  },
  {
    "dt": "2022.05.26 10:00",
    "o": 1.25626,
    "h": 1.25968,
    "l": 1.25622,
    "c": 1.25856,
    "v": 4026
  },
  {
    "dt": "2022.05.26 11:00",
    "o": 1.25859,
    "h": 1.25894,
    "l": 1.2554,
    "c": 1.2563,
    "v": 3332
  },
  {
    "dt": "2022.05.26 12:00",
    "o": 1.2563,
    "h": 1.26105,
    "l": 1.25569,
    "c": 1.26092,
    "v": 3248
  },
  {
    "dt": "2022.05.26 13:00",
    "o": 1.2609,
    "h": 1.26194,
    "l": 1.25924,
    "c": 1.26158,
    "v": 3255
  },
  {
    "dt": "2022.05.26 14:00",
    "o": 1.26158,
    "h": 1.26186,
    "l": 1.25864,
    "c": 1.25944,
    "v": 3738
  },
  {
    "dt": "2022.05.26 15:00",
    "o": 1.25948,
    "h": 1.25961,
    "l": 1.25591,
    "c": 1.25626,
    "v": 3941
  },
  {
    "dt": "2022.05.26 16:00",
    "o": 1.25626,
    "h": 1.25858,
    "l": 1.25562,
    "c": 1.25721,
    "v": 4284
  },
  {
    "dt": "2022.05.26 17:00",
    "o": 1.25721,
    "h": 1.2578,
    "l": 1.2552,
    "c": 1.25723,
    "v": 4374
  },
  {
    "dt": "2022.05.26 18:00",
    "o": 1.25719,
    "h": 1.25864,
    "l": 1.25709,
    "c": 1.25797,
    "v": 3444
  },
  {
    "dt": "2022.05.26 19:00",
    "o": 1.25797,
    "h": 1.25848,
    "l": 1.25694,
    "c": 1.2574,
    "v": 2769
  },
  {
    "dt": "2022.05.26 20:00",
    "o": 1.25743,
    "h": 1.25819,
    "l": 1.25673,
    "c": 1.258,
    "v": 2451
  },
  {
    "dt": "2022.05.26 21:00",
    "o": 1.25804,
    "h": 1.25976,
    "l": 1.25795,
    "c": 1.25937,
    "v": 2239
  },
  {
    "dt": "2022.05.26 22:00",
    "o": 1.25926,
    "h": 1.25992,
    "l": 1.25886,
    "c": 1.25981,
    "v": 2382
  },
  {
    "dt": "2022.05.26 23:00",
    "o": 1.25982,
    "h": 1.26081,
    "l": 1.25972,
    "c": 1.26071,
    "v": 1031
  },
  {
    "dt": "2022.05.27 00:00",
    "o": 1.25917,
    "h": 1.26039,
    "l": 1.25847,
    "c": 1.25992,
    "v": 482
  },
  {
    "dt": "2022.05.27 01:00",
    "o": 1.26005,
    "h": 1.26057,
    "l": 1.25983,
    "c": 1.26039,
    "v": 780
  },
  {
    "dt": "2022.05.27 02:00",
    "o": 1.26042,
    "h": 1.26181,
    "l": 1.2604,
    "c": 1.26158,
    "v": 958
  },
  {
    "dt": "2022.05.27 03:00",
    "o": 1.26164,
    "h": 1.2625,
    "l": 1.26118,
    "c": 1.26207,
    "v": 2202
  },
  {
    "dt": "2022.05.27 04:00",
    "o": 1.26209,
    "h": 1.26656,
    "l": 1.26145,
    "c": 1.26567,
    "v": 3152
  },
  {
    "dt": "2022.05.27 05:00",
    "o": 1.26571,
    "h": 1.26572,
    "l": 1.26439,
    "c": 1.26535,
    "v": 2633
  },
  {
    "dt": "2022.05.27 06:00",
    "o": 1.26534,
    "h": 1.26583,
    "l": 1.26464,
    "c": 1.26477,
    "v": 2164
  },
  {
    "dt": "2022.05.27 07:00",
    "o": 1.26475,
    "h": 1.2656,
    "l": 1.26451,
    "c": 1.26515,
    "v": 1573
  },
  {
    "dt": "2022.05.27 08:00",
    "o": 1.26506,
    "h": 1.26508,
    "l": 1.2634,
    "c": 1.26374,
    "v": 2010
  },
  {
    "dt": "2022.05.27 09:00",
    "o": 1.2637,
    "h": 1.26408,
    "l": 1.2612,
    "c": 1.26185,
    "v": 2769
  },
  {
    "dt": "2022.05.27 10:00",
    "o": 1.26181,
    "h": 1.26353,
    "l": 1.26138,
    "c": 1.26198,
    "v": 3754
  },
  {
    "dt": "2022.05.27 11:00",
    "o": 1.26197,
    "h": 1.26264,
    "l": 1.26071,
    "c": 1.26174,
    "v": 3811
  },
  {
    "dt": "2022.05.27 12:00",
    "o": 1.26176,
    "h": 1.26193,
    "l": 1.2593,
    "c": 1.26038,
    "v": 3092
  },
  {
    "dt": "2022.05.27 13:00",
    "o": 1.26039,
    "h": 1.26163,
    "l": 1.25849,
    "c": 1.25915,
    "v": 3140
  },
  {
    "dt": "2022.05.27 14:00",
    "o": 1.25914,
    "h": 1.26264,
    "l": 1.25891,
    "c": 1.26156,
    "v": 3580
  },
  {
    "dt": "2022.05.27 15:00",
    "o": 1.26157,
    "h": 1.26431,
    "l": 1.26129,
    "c": 1.26237,
    "v": 4362
  },
  {
    "dt": "2022.05.27 16:00",
    "o": 1.26242,
    "h": 1.26532,
    "l": 1.26175,
    "c": 1.26466,
    "v": 4138
  },
  {
    "dt": "2022.05.27 17:00",
    "o": 1.26472,
    "h": 1.26522,
    "l": 1.26136,
    "c": 1.26137,
    "v": 4339
  },
  {
    "dt": "2022.05.27 18:00",
    "o": 1.26145,
    "h": 1.2616,
    "l": 1.25959,
    "c": 1.26108,
    "v": 3894
  },
  {
    "dt": "2022.05.27 19:00",
    "o": 1.26108,
    "h": 1.26141,
    "l": 1.25975,
    "c": 1.2606,
    "v": 2553
  },
  {
    "dt": "2022.05.27 20:00",
    "o": 1.2606,
    "h": 1.26154,
    "l": 1.26017,
    "c": 1.26147,
    "v": 2288
  },
  {
    "dt": "2022.05.27 21:00",
    "o": 1.26146,
    "h": 1.26252,
    "l": 1.26128,
    "c": 1.26245,
    "v": 2204
  },
  {
    "dt": "2022.05.27 22:00",
    "o": 1.26253,
    "h": 1.26302,
    "l": 1.26216,
    "c": 1.26285,
    "v": 2248
  },
  {
    "dt": "2022.05.27 23:00",
    "o": 1.26288,
    "h": 1.26315,
    "l": 1.26266,
    "c": 1.26303,
    "v": 1249
  },
  {
    "dt": "2022.05.30 00:00",
    "o": 1.2619,
    "h": 1.26275,
    "l": 1.26154,
    "c": 1.26226,
    "v": 107
  },
  {
    "dt": "2022.05.30 01:00",
    "o": 1.26236,
    "h": 1.26344,
    "l": 1.26236,
    "c": 1.26282,
    "v": 682
  },
  {
    "dt": "2022.05.30 02:00",
    "o": 1.26297,
    "h": 1.26301,
    "l": 1.26233,
    "c": 1.26235,
    "v": 1485
  },
  {
    "dt": "2022.05.30 03:00",
    "o": 1.26237,
    "h": 1.26292,
    "l": 1.2622,
    "c": 1.26268,
    "v": 2423
  },
  {
    "dt": "2022.05.30 04:00",
    "o": 1.26268,
    "h": 1.26528,
    "l": 1.26203,
    "c": 1.26468,
    "v": 2760
  },
  {
    "dt": "2022.05.30 05:00",
    "o": 1.26471,
    "h": 1.26567,
    "l": 1.26416,
    "c": 1.26445,
    "v": 2713
  },
  {
    "dt": "2022.05.30 06:00",
    "o": 1.26445,
    "h": 1.26481,
    "l": 1.26354,
    "c": 1.26451,
    "v": 2499
  },
  {
    "dt": "2022.05.30 07:00",
    "o": 1.26449,
    "h": 1.26506,
    "l": 1.26364,
    "c": 1.26456,
    "v": 2393
  },
  {
    "dt": "2022.05.30 08:00",
    "o": 1.26457,
    "h": 1.26499,
    "l": 1.2638,
    "c": 1.26396,
    "v": 2633
  },
  {
    "dt": "2022.05.30 09:00",
    "o": 1.26404,
    "h": 1.26501,
    "l": 1.26334,
    "c": 1.26386,
    "v": 3256
  },
  {
    "dt": "2022.05.30 10:00",
    "o": 1.2639,
    "h": 1.26468,
    "l": 1.26192,
    "c": 1.26205,
    "v": 3688
  },
  {
    "dt": "2022.05.30 11:00",
    "o": 1.26209,
    "h": 1.26332,
    "l": 1.26157,
    "c": 1.26288,
    "v": 3462
  },
  {
    "dt": "2022.05.30 12:00",
    "o": 1.26288,
    "h": 1.26519,
    "l": 1.26288,
    "c": 1.26463,
    "v": 3186
  },
  {
    "dt": "2022.05.30 13:00",
    "o": 1.26464,
    "h": 1.26543,
    "l": 1.26353,
    "c": 1.26422,
    "v": 2687
  },
  {
    "dt": "2022.05.30 14:00",
    "o": 1.26419,
    "h": 1.26517,
    "l": 1.26378,
    "c": 1.26383,
    "v": 2705
  },
  {
    "dt": "2022.05.30 15:00",
    "o": 1.26383,
    "h": 1.26417,
    "l": 1.26241,
    "c": 1.2631,
    "v": 3120
  },
  {
    "dt": "2022.05.30 16:00",
    "o": 1.2631,
    "h": 1.26456,
    "l": 1.26303,
    "c": 1.26384,
    "v": 2897
  },
  {
    "dt": "2022.05.30 17:00",
    "o": 1.26385,
    "h": 1.26489,
    "l": 1.26327,
    "c": 1.26474,
    "v": 3121
  },
  {
    "dt": "2022.05.30 18:00",
    "o": 1.26474,
    "h": 1.26589,
    "l": 1.26364,
    "c": 1.26574,
    "v": 2549
  },
  {
    "dt": "2022.05.30 19:00",
    "o": 1.26572,
    "h": 1.26588,
    "l": 1.26454,
    "c": 1.26535,
    "v": 2255
  },
  {
    "dt": "2022.05.30 20:00",
    "o": 1.26531,
    "h": 1.26565,
    "l": 1.2652,
    "c": 1.26554,
    "v": 1484
  },
  {
    "dt": "2022.05.30 21:00",
    "o": 1.26554,
    "h": 1.26579,
    "l": 1.2655,
    "c": 1.26567,
    "v": 1472
  },
  {
    "dt": "2022.05.30 22:00",
    "o": 1.26569,
    "h": 1.26571,
    "l": 1.26524,
    "c": 1.26533,
    "v": 1172
  },
  {
    "dt": "2022.05.30 23:00",
    "o": 1.26533,
    "h": 1.26563,
    "l": 1.26472,
    "c": 1.26472,
    "v": 567
  },
  {
    "dt": "2022.05.31 00:00",
    "o": 1.26498,
    "h": 1.2654,
    "l": 1.26456,
    "c": 1.26503,
    "v": 1225
  },
  {
    "dt": "2022.05.31 01:00",
    "o": 1.26504,
    "h": 1.26522,
    "l": 1.2647,
    "c": 1.26478,
    "v": 1393
  },
  {
    "dt": "2022.05.31 02:00",
    "o": 1.26479,
    "h": 1.26484,
    "l": 1.26411,
    "c": 1.26449,
    "v": 1961
  },
  {
    "dt": "2022.05.31 03:00",
    "o": 1.2645,
    "h": 1.26478,
    "l": 1.26093,
    "c": 1.26111,
    "v": 3540
  },
  {
    "dt": "2022.05.31 04:00",
    "o": 1.2611,
    "h": 1.26256,
    "l": 1.2598,
    "c": 1.26219,
    "v": 3859
  },
  {
    "dt": "2022.05.31 05:00",
    "o": 1.26219,
    "h": 1.26283,
    "l": 1.26098,
    "c": 1.26172,
    "v": 3098
  },
  {
    "dt": "2022.05.31 06:00",
    "o": 1.26171,
    "h": 1.26204,
    "l": 1.26086,
    "c": 1.26154,
    "v": 2600
  },
  {
    "dt": "2022.05.31 07:00",
    "o": 1.26154,
    "h": 1.26166,
    "l": 1.26025,
    "c": 1.26116,
    "v": 2277
  },
  {
    "dt": "2022.05.31 08:00",
    "o": 1.26115,
    "h": 1.26207,
    "l": 1.26089,
    "c": 1.26089,
    "v": 2592
  },
  {
    "dt": "2022.05.31 09:00",
    "o": 1.26091,
    "h": 1.26192,
    "l": 1.25902,
    "c": 1.25955,
    "v": 3795
  },
  {
    "dt": "2022.05.31 10:00",
    "o": 1.25962,
    "h": 1.26226,
    "l": 1.25961,
    "c": 1.26057,
    "v": 3982
  },
  {
    "dt": "2022.05.31 11:00",
    "o": 1.26059,
    "h": 1.26303,
    "l": 1.26039,
    "c": 1.26115,
    "v": 3627
  },
  {
    "dt": "2022.05.31 12:00",
    "o": 1.26118,
    "h": 1.26179,
    "l": 1.25991,
    "c": 1.25997,
    "v": 3568
  },
  {
    "dt": "2022.05.31 13:00",
    "o": 1.25995,
    "h": 1.2603,
    "l": 1.2581,
    "c": 1.25914,
    "v": 3496
  },
  {
    "dt": "2022.05.31 14:00",
    "o": 1.25923,
    "h": 1.25959,
    "l": 1.25768,
    "c": 1.25884,
    "v": 3563
  },
  {
    "dt": "2022.05.31 15:00",
    "o": 1.25885,
    "h": 1.25912,
    "l": 1.25593,
    "c": 1.25611,
    "v": 4145
  },
  {
    "dt": "2022.05.31 16:00",
    "o": 1.25614,
    "h": 1.25927,
    "l": 1.25614,
    "c": 1.25911,
    "v": 4629
  },
  {
    "dt": "2022.05.31 17:00",
    "o": 1.25914,
    "h": 1.26117,
    "l": 1.25689,
    "c": 1.25994,
    "v": 5204
  },
  {
    "dt": "2022.05.31 18:00",
    "o": 1.25992,
    "h": 1.26293,
    "l": 1.25946,
    "c": 1.26244,
    "v": 4508
  },
  {
    "dt": "2022.05.31 19:00",
    "o": 1.26244,
    "h": 1.26275,
    "l": 1.26026,
    "c": 1.26185,
    "v": 3370
  },
  {
    "dt": "2022.05.31 20:00",
    "o": 1.26187,
    "h": 1.26229,
    "l": 1.261,
    "c": 1.26166,
    "v": 3251
  },
  {
    "dt": "2022.05.31 21:00",
    "o": 1.26167,
    "h": 1.26217,
    "l": 1.26024,
    "c": 1.26049,
    "v": 3270
  },
  {
    "dt": "2022.05.31 22:00",
    "o": 1.26046,
    "h": 1.26108,
    "l": 1.25976,
    "c": 1.26001,
    "v": 3503
  },
  {
    "dt": "2022.05.31 23:00",
    "o": 1.26002,
    "h": 1.26061,
    "l": 1.25995,
    "c": 1.26011,
    "v": 1350
  }
]