[
  {
    "dt": "2020.10.01 00:00",
    "o": 114.495,
    "h": 114.524,
    "l": 114.405,
    "c": 114.487,
    "v": 350
  },
  {
    "dt": "2020.10.01 01:00",
    "o": 114.484,
    "h": 114.518,
    "l": 114.463,
    "c": 114.489,
    "v": 765
  },
  {
    "dt": "2020.10.01 02:00",
    "o": 114.486,
    "h": 114.509,
    "l": 114.461,
    "c": 114.493,
    "v": 925
  },
  {
    "dt": "2020.10.01 03:00",
    "o": 114.493,
    "h": 114.578,
    "l": 114.456,
    "c": 114.493,
    "v": 1548
  },
  {
    "dt": "2020.10.01 04:00",
    "o": 114.492,
    "h": 114.716,
    "l": 114.489,
    "c": 114.674,
    "v": 1529
  },
  {
    "dt": "2020.10.01 05:00",
    "o": 114.674,
    "h": 114.713,
    "l": 114.646,
    "c": 114.668,
    "v": 964
  },
  {
    "dt": "2020.10.01 06:00",
    "o": 114.671,
    "h": 114.72,
    "l": 114.645,
    "c": 114.677,
    "v": 887
  },
  {
    "dt": "2020.10.01 07:00",
    "o": 114.676,
    "h": 114.693,
    "l": 114.628,
    "c": 114.676,
    "v": 1031
  },
  {
    "dt": "2020.10.01 08:00",
    "o": 114.677,
    "h": 114.751,
    "l": 114.648,
    "c": 114.724,
    "v": 1177
  },
  {
    "dt": "2020.10.01 09:00",
    "o": 114.729,
    "h": 114.818,
    "l": 114.711,
    "c": 114.769,
    "v": 2085
  },
  {
    "dt": "2020.10.01 10:00",
    "o": 114.766,
    "h": 114.779,
    "l": 114.585,
    "c": 114.715,
    "v": 3386
  },
  {
    "dt": "2020.10.01 11:00",
    "o": 114.714,
    "h": 114.853,
    "l": 114.648,
    "c": 114.821,
    "v": 3194
  },
  {
    "dt": "2020.10.01 12:00",
    "o": 114.822,
    "h": 115.11,
    "l": 114.806,
    "c": 115.089,
    "v": 2937
  },
  {
    "dt": "2020.10.01 13:00",
    "o": 115.086,
    "h": 115.163,
    "l": 114.931,
    "c": 114.999,
    "v": 2591
  },
  {
    "dt": "2020.10.01 14:00",
    "o": 115.005,
    "h": 115.097,
    "l": 114.913,
    "c": 115.002,
    "v": 4065
  },
  {
    "dt": "2020.10.01 15:00",
    "o": 115.003,
    "h": 115.133,
    "l": 114.898,
    "c": 115.041,
    "v": 3548
  },
  {
    "dt": "2020.10.01 16:00",
    "o": 115.042,
    "h": 115.143,
    "l": 114.972,
    "c": 115.142,
    "v": 4368
  },
  {
    "dt": "2020.10.01 17:00",
    "o": 115.142,
    "h": 115.142,
    "l": 114.839,
    "c": 114.898,
    "v": 4305
  },
  {
    "dt": "2020.10.01 18:00",
    "o": 114.902,
    "h": 115.013,
    "l": 114.849,
    "c": 114.951,
    "v": 3911
  },
  {
    "dt": "2020.10.01 19:00",
    "o": 114.95,
    "h": 114.966,
    "l": 114.856,
    "c": 114.877,
    "v": 3053
  },
  {
    "dt": "2020.10.01 20:00",
    "o": 114.876,
    "h": 114.917,
    "l": 114.86,
    "c": 114.891,
    "v": 2082
  },
  {
    "dt": "2020.10.01 21:00",
    "o": 114.892,
    "h": 114.949,
    "l": 114.846,
    "c": 114.894,
    "v": 2853
  },
  {
    "dt": "2020.10.01 22:00",
    "o": 114.895,
    "h": 114.921,
    "l": 114.818,
    "c": 114.915,
    "v": 2610
  },
  {
    "dt": "2020.10.01 23:00",
    "o": 114.915,
    "h": 114.935,
    "l": 114.875,
    "c": 114.877,
    "v": 1081
  },
  {
    "dt": "2020.10.02 00:00",
    "o": 114.76,
    "h": 114.882,
    "l": 114.747,
    "c": 114.839,
    "v": 638
  },
  {
    "dt": "2020.10.02 01:00",
    "o": 114.817,
    "h": 114.903,
    "l": 114.817,
    "c": 114.858,
    "v": 826
  },
  {
    "dt": "2020.10.02 02:00",
    "o": 114.858,
    "h": 114.869,
    "l": 114.82,
    "c": 114.846,
    "v": 922
  },
  {
    "dt": "2020.10.02 03:00",
    "o": 114.846,
    "h": 114.871,
    "l": 114.724,
    "c": 114.777,
    "v": 1604
  },
  {
    "dt": "2020.10.02 04:00",
    "o": 114.776,
    "h": 114.806,
    "l": 114.728,
    "c": 114.783,
    "v": 1251
  },
  {
    "dt": "2020.10.02 05:00",
    "o": 114.782,
    "h": 114.805,
    "l": 114.711,
    "c": 114.754,
    "v": 1136
  },
  {
    "dt": "2020.10.02 06:00",
    "o": 114.754,
    "h": 114.769,
    "l": 114.69,
    "c": 114.713,
    "v": 1109
  },
  {
    "dt": "2020.10.02 07:00",
    "o": 114.713,
    "h": 114.736,
    "l": 114.552,
    "c": 114.579,
    "v": 1252
  },
  {
    "dt": "2020.10.02 08:00",
    "o": 114.58,
    "h": 114.585,
    "l": 114.202,
    "c": 114.364,
    "v": 4298
  },
  {
    "dt": "2020.10.02 09:00",
    "o": 114.364,
    "h": 114.582,
    "l": 114.222,
    "c": 114.356,
    "v": 3595
  },
  {
    "dt": "2020.10.02 10:00",
    "o": 114.353,
    "h": 114.485,
    "l": 114.271,
    "c": 114.304,
    "v": 3643
  },
  {
    "dt": "2020.10.02 11:00",
    "o": 114.301,
    "h": 114.334,
    "l": 114.161,
    "c": 114.188,
    "v": 3021
  },
  {
    "dt": "2020.10.02 12:00",
    "o": 114.187,
    "h": 114.212,
    "l": 114.038,
    "c": 114.192,
    "v": 2612
  },
  {
    "dt": "2020.10.02 13:00",
    "o": 114.192,
    "h": 114.281,
    "l": 114.131,
    "c": 114.171,
    "v": 2288
  },
  {
    "dt": "2020.10.02 14:00",
    "o": 114.172,
    "h": 114.263,
    "l": 114.132,
    "c": 114.262,
    "v": 2671
  },
  {
    "dt": "2020.10.02 15:00",
    "o": 114.257,
    "h": 114.363,
    "l": 114.138,
    "c": 114.201,
    "v": 3474
  },
  {
    "dt": "2020.10.02 16:00",
    "o": 114.201,
    "h": 114.418,
    "l": 114.131,
    "c": 114.32,
    "v": 3818
  },
  {
    "dt": "2020.10.02 17:00",
    "o": 114.318,
    "h": 114.536,
    "l": 114.305,
    "c": 114.525,
    "v": 3767
  },
  {
    "dt": "2020.10.02 18:00",
    "o": 114.521,
    "h": 114.561,
    "l": 114.447,
    "c": 114.454,
    "v": 2903
  },
  {
    "dt": "2020.10.02 19:00",
    "o": 114.45,
    "h": 114.542,
    "l": 114.406,
    "c": 114.494,
    "v": 2627
  },
  {
    "dt": "2020.10.02 20:00",
    "o": 114.493,
    "h": 114.522,
    "l": 114.393,
    "c": 114.438,
    "v": 2099
  },
  {
    "dt": "2020.10.02 21:00",
    "o": 114.439,
    "h": 114.522,
    "l": 114.416,
    "c": 114.477,
    "v": 1681
  },
  {
    "dt": "2020.10.02 22:00",
    "o": 114.477,
    "h": 114.483,
    "l": 114.416,
    "c": 114.45,
    "v": 1323
  },
  {
    "dt": "2020.10.02 23:00",
    "o": 114.453,
    "h": 114.477,
    "l": 114.329,
    "c": 114.333,
    "v": 1055
  },
  {
    "dt": "2020.10.05 00:00",
    "o": 114.449,
    "h": 114.755,
    "l": 114.368,
    "c": 114.699,
    "v": 197
  },
  {
    "dt": "2020.10.05 01:00",
    "o": 114.638,
    "h": 114.994,
    "l": 114.616,
    "c": 114.943,
    "v": 2024
  },
  {
    "dt": "2020.10.05 02:00",
    "o": 114.931,
    "h": 115.224,
    "l": 114.888,
    "c": 114.92,
    "v": 2488
  },
  {
    "dt": "2020.10.05 03:00",
    "o": 114.925,
    "h": 115.087,
    "l": 114.843,
    "c": 114.977,
    "v": 2225
  },
  {
    "dt": "2020.10.05 04:00",
    "o": 114.978,
    "h": 115.085,
    "l": 114.943,
    "c": 115.038,
    "v": 1404
  },
  {
    "dt": "2020.10.05 05:00",
    "o": 115.039,
    "h": 115.14,
    "l": 115.021,
    "c": 115.104,
    "v": 1254
  },
  {
    "dt": "2020.10.05 06:00",
    "o": 115.105,
    "h": 115.109,
    "l": 115.048,
    "c": 115.072,
    "v": 931
  },
  {
    "dt": "2020.10.05 07:00",
    "o": 115.074,
    "h": 115.105,
    "l": 115.032,
    "c": 115.058,
    "v": 925
  },
  {
    "dt": "2020.10.05 08:00",
    "o": 115.065,
    "h": 115.111,
    "l": 115.04,
    "c": 115.078,
    "v": 886
  },
  {
    "dt": "2020.10.05 09:00",
    "o": 115.078,
    "h": 115.083,
    "l": 114.974,
    "c": 115.029,
    "v": 1697
  },
  {
    "dt": "2020.10.05 10:00",
    "o": 115.03,
    "h": 115.129,
    "l": 114.997,
    "c": 115.064,
    "v": 2614
  },
  {
    "dt": "2020.10.05 11:00",
    "o": 115.059,
    "h": 115.266,
    "l": 115.038,
    "c": 115.252,
    "v": 2566
  },
  {
    "dt": "2020.10.05 12:00",
    "o": 115.251,
    "h": 115.364,
    "l": 115.224,
    "c": 115.275,
    "v": 2225
  },
  {
    "dt": "2020.10.05 13:00",
    "o": 115.277,
    "h": 115.283,
    "l": 115.158,
    "c": 115.259,
    "v": 1834
  },
  {
    "dt": "2020.10.05 14:00",
    "o": 115.257,
    "h": 115.298,
    "l": 115.194,
    "c": 115.24,
    "v": 2386
  },
  {
    "dt": "2020.10.05 15:00",
    "o": 115.24,
    "h": 115.294,
    "l": 115.168,
    "c": 115.217,
    "v": 2420
  },
  {
    "dt": "2020.10.05 16:00",
    "o": 115.222,
    "h": 115.381,
    "l": 115.181,
    "c": 115.314,
    "v": 2985
  },
  {
    "dt": "2020.10.05 17:00",
    "o": 115.315,
    "h": 115.489,
    "l": 115.304,
    "c": 115.425,
    "v": 3544
  },
  {
    "dt": "2020.10.05 18:00",
    "o": 115.425,
    "h": 115.509,
    "l": 115.383,
    "c": 115.463,
    "v": 2831
  },
  {
    "dt": "2020.10.05 19:00",
    "o": 115.461,
    "h": 115.539,
    "l": 115.452,
    "c": 115.493,
    "v": 1929
  },
  {
    "dt": "2020.10.05 20:00",
    "o": 115.492,
    "h": 115.499,
    "l": 115.409,
    "c": 115.413,
    "v": 1770
  },
  {
    "dt": "2020.10.05 21:00",
    "o": 115.412,
    "h": 115.44,
    "l": 115.369,
    "c": 115.404,
    "v": 1846
  },
  {
    "dt": "2020.10.05 22:00",
    "o": 115.402,
    "h": 115.537,
    "l": 115.395,
    "c": 115.533,
    "v": 1644
  },
  {
    "dt": "2020.10.05 23:00",
    "o": 115.534,
    "h": 115.59,
    "l": 115.495,
    "c": 115.528,
    "v": 1566
  },
  {
    "dt": "2020.10.06 00:00",
    "o": 115.487,
    "h": 115.5,
    "l": 115.421,
    "c": 115.448,
    "v": 243
  },
  {
    "dt": "2020.10.06 01:00",
    "o": 115.447,
    "h": 115.567,
    "l": 115.446,
    "c": 115.565,
    "v": 669
  },
  {
    "dt": "2020.10.06 02:00",
    "o": 115.567,
    "h": 115.567,
    "l": 115.495,
    "c": 115.499,
    "v": 758
  },
  {
    "dt": "2020.10.06 03:00",
    "o": 115.498,
    "h": 115.532,
    "l": 115.403,
    "c": 115.522,
    "v": 1468
  },
  {
    "dt": "2020.10.06 04:00",
    "o": 115.514,
    "h": 115.54,
    "l": 115.45,
    "c": 115.453,
    "v": 1266
  },
  {
    "dt": "2020.10.06 05:00",
    "o": 115.45,
    "h": 115.5,
    "l": 115.438,
    "c": 115.478,
    "v": 753
  },
  {
    "dt": "2020.10.06 06:00",
    "o": 115.477,
    "h": 115.535,
    "l": 115.447,
    "c": 115.497,
    "v": 1198
  },
  {
    "dt": "2020.10.06 07:00",
    "o": 115.497,
    "h": 115.499,
    "l": 115.422,
    "c": 115.43,
    "v": 825
  },
  {
    "dt": "2020.10.06 08:00",
    "o": 115.429,
    "h": 115.508,
    "l": 115.428,
    "c": 115.497,
    "v": 1148
  },
  {
    "dt": "2020.10.06 09:00",
    "o": 115.498,
    "h": 115.531,
    "l": 115.438,
    "c": 115.517,
    "v": 1923
  },
  {
    "dt": "2020.10.06 10:00",
    "o": 115.517,
    "h": 115.627,
    "l": 115.404,
    "c": 115.461,
    "v": 2984
  },
  {
    "dt": "2020.10.06 11:00",
    "o": 115.46,
    "h": 115.46,
    "l": 115.308,
    "c": 115.355,
    "v": 2964
  },
  {
    "dt": "2020.10.06 12:00",
    "o": 115.353,
    "h": 115.44,
    "l": 115.333,
    "c": 115.4,
    "v": 2165
  },
  {
    "dt": "2020.10.06 13:00",
    "o": 115.4,
    "h": 115.509,
    "l": 115.342,
    "c": 115.461,
    "v": 2271
  },
  {
    "dt": "2020.10.06 14:00",
    "o": 115.463,
    "h": 115.623,
    "l": 115.422,
    "c": 115.587,
    "v": 3087
  },
  {
    "dt": "2020.10.06 15:00",
    "o": 115.59,
    "h": 115.639,
    "l": 115.511,
    "c": 115.532,
    "v": 3184
  },
  {
    "dt": "2020.10.06 16:00",
    "o": 115.532,
    "h": 115.692,
    "l": 115.435,
    "c": 115.459,
    "v": 3680
  },
  {
    "dt": "2020.10.06 17:00",
    "o": 115.455,
    "h": 115.554,
    "l": 115.429,
    "c": 115.513,
    "v": 3651
  },
  {
    "dt": "2020.10.06 18:00",
    "o": 115.513,
    "h": 115.566,
    "l": 115.391,
    "c": 115.408,
    "v": 3197
  },
  {
    "dt": "2020.10.06 19:00",
    "o": 115.406,
    "h": 115.452,
    "l": 115.364,
    "c": 115.413,
    "v": 2476
  },
  {
    "dt": "2020.10.06 20:00",
    "o": 115.41,
    "h": 115.415,
    "l": 115.301,
    "c": 115.378,
    "v": 1952
  },
  {
    "dt": "2020.10.06 21:00",
    "o": 115.379,
    "h": 115.481,
    "l": 114.979,
    "c": 115.16,
    "v": 2797
  },
  {
    "dt": "2020.10.06 22:00",
    "o": 115.163,
    "h": 115.164,
    "l": 115.003,
    "c": 115.136,
    "v": 4276
  },
  {
    "dt": "2020.10.06 23:00",
    "o": 115.135,
    "h": 115.198,
    "l": 115.048,
    "c": 115.06,
    "v": 1997
  },
  {
    "dt": "2020.10.07 00:00",
    "o": 114.999,
    "h": 115.046,
    "l": 114.979,
    "c": 115.002,
    "v": 499
  },
  {
    "dt": "2020.10.07 01:00",
    "o": 115.007,
    "h": 115.135,
    "l": 115.001,
    "c": 115.043,
    "v": 1289
  },
  {
    "dt": "2020.10.07 02:00",
    "o": 115.039,
    "h": 115.127,
    "l": 115.029,
    "c": 115.123,
    "v": 1064
  },
  {
    "dt": "2020.10.07 03:00",
    "o": 115.119,
    "h": 115.147,
    "l": 115.067,
    "c": 115.087,
    "v": 1348
  },
  {
    "dt": "2020.10.07 04:00",
    "o": 115.086,
    "h": 115.115,
    "l": 115.009,
    "c": 115.046,
    "v": 1301
  },
  {
    "dt": "2020.10.07 05:00",
    "o": 115.044,
    "h": 115.1,
    "l": 115.034,
    "c": 115.075,
    "v": 1106
  },
  {
    "dt": "2020.10.07 06:00",
    "o": 115.075,
    "h": 115.12,
    "l": 115.051,
    "c": 115.084,
    "v": 688
  },
  {
    "dt": "2020.10.07 07:00",
    "o": 115.083,
    "h": 115.172,
    "l": 115.078,
    "c": 115.147,
    "v": 944
  },
  {
    "dt": "2020.10.07 08:00",
    "o": 115.147,
    "h": 115.221,
    "l": 115.106,
    "c": 115.203,
    "v": 1335
  },
  {
    "dt": "2020.10.07 09:00",
    "o": 115.208,
    "h": 115.301,
    "l": 115.199,
    "c": 115.299,
    "v": 2364
  },
  {
    "dt": "2020.10.07 10:00",
    "o": 115.301,
    "h": 115.597,
    "l": 115.301,
    "c": 115.549,
    "v": 3376
  },
  {
    "dt": "2020.10.07 11:00",
    "o": 115.549,
    "h": 115.553,
    "l": 115.393,
    "c": 115.506,
    "v": 2697
  },
  {
    "dt": "2020.10.07 12:00",
    "o": 115.505,
    "h": 115.621,
    "l": 115.478,
    "c": 115.561,
    "v": 2609
  },
  {
    "dt": "2020.10.07 13:00",
    "o": 115.56,
    "h": 115.619,
    "l": 115.508,
    "c": 115.609,
    "v": 2383
  },
  {
    "dt": "2020.10.07 14:00",
    "o": 115.611,
    "h": 115.736,
    "l": 115.61,
    "c": 115.712,
    "v": 2900
  },
  {
    "dt": "2020.10.07 15:00",
    "o": 115.709,
    "h": 115.716,
    "l": 115.562,
    "c": 115.584,
    "v": 3146
  },
  {
    "dt": "2020.10.07 16:00",
    "o": 115.585,
    "h": 115.637,
    "l": 115.496,
    "c": 115.548,
    "v": 3777
  },
  {
    "dt": "2020.10.07 17:00",
    "o": 115.55,
    "h": 115.642,
    "l": 115.498,
    "c": 115.611,
    "v": 3567
  },
  {
    "dt": "2020.10.07 18:00",
    "o": 115.611,
    "h": 115.65,
    "l": 115.559,
    "c": 115.573,
    "v": 2826
  },
  {
    "dt": "2020.10.07 19:00",
    "o": 115.573,
    "h": 115.628,
    "l": 115.559,
    "c": 115.611,
    "v": 2367
  },
  {
    "dt": "2020.10.07 20:00",
    "o": 115.611,
    "h": 115.64,
    "l": 115.562,
    "c": 115.579,
    "v": 1894
  },
  {
    "dt": "2020.10.07 21:00",
    "o": 115.583,
    "h": 115.638,
    "l": 115.544,
    "c": 115.603,
    "v": 2324
  },
  {
    "dt": "2020.10.07 22:00",
    "o": 115.6,
    "h": 115.644,
    "l": 115.538,
    "c": 115.538,
    "v": 2135
  },
  {
    "dt": "2020.10.07 23:00",
    "o": 115.538,
    "h": 115.575,
    "l": 115.494,
    "c": 115.499,
    "v": 1699
  },
  {
    "dt": "2020.10.08 00:00",
    "o": 115.471,
    "h": 115.553,
    "l": 115.461,
    "c": 115.545,
    "v": 1124
  },
  {
    "dt": "2020.10.08 01:00",
    "o": 115.546,
    "h": 115.576,
    "l": 115.516,
    "c": 115.569,
    "v": 1340
  },
  {
    "dt": "2020.10.08 02:00",
    "o": 115.568,
    "h": 115.579,
    "l": 115.533,
    "c": 115.542,
    "v": 423
  },
  {
    "dt": "2020.10.08 03:00",
    "o": 115.54,
    "h": 115.688,
    "l": 115.521,
    "c": 115.625,
    "v": 1896
  },
  {
    "dt": "2020.10.08 04:00",
    "o": 115.624,
    "h": 115.673,
    "l": 115.568,
    "c": 115.624,
    "v": 1410
  },
  {
    "dt": "2020.10.08 05:00",
    "o": 115.627,
    "h": 115.63,
    "l": 115.577,
    "c": 115.609,
    "v": 962
  },
  {
    "dt": "2020.10.08 06:00",
    "o": 115.608,
    "h": 115.612,
    "l": 115.576,
    "c": 115.591,
    "v": 777
  },
  {
    "dt": "2020.10.08 07:00",
    "o": 115.589,
    "h": 115.619,
    "l": 115.539,
    "c": 115.569,
    "v": 953
  },
  {
    "dt": "2020.10.08 08:00",
    "o": 115.574,
    "h": 115.628,
    "l": 115.548,
    "c": 115.625,
    "v": 1050
  },
  {
    "dt": "2020.10.08 09:00",
    "o": 115.624,
    "h": 115.73,
    "l": 115.62,
    "c": 115.689,
    "v": 2216
  },
  {
    "dt": "2020.10.08 10:00",
    "o": 115.697,
    "h": 115.709,
    "l": 115.587,
    "c": 115.6,
    "v": 2563
  },
  {
    "dt": "2020.10.08 11:00",
    "o": 115.6,
    "h": 115.6,
    "l": 115.391,
    "c": 115.474,
    "v": 2490
  },
  {
    "dt": "2020.10.08 12:00",
    "o": 115.476,
    "h": 115.572,
    "l": 115.443,
    "c": 115.464,
    "v": 1830
  },
  {
    "dt": "2020.10.08 13:00",
    "o": 115.463,
    "h": 115.526,
    "l": 115.423,
    "c": 115.483,
    "v": 1983
  },
  {
    "dt": "2020.10.08 14:00",
    "o": 115.483,
    "h": 115.515,
    "l": 115.409,
    "c": 115.439,
    "v": 2314
  },
  {
    "dt": "2020.10.08 15:00",
    "o": 115.446,
    "h": 115.482,
    "l": 115.38,
    "c": 115.44,
    "v": 2864
  },
  {
    "dt": "2020.10.08 16:00",
    "o": 115.438,
    "h": 115.439,
    "l": 115.215,
    "c": 115.317,
    "v": 3407
  },
  {
    "dt": "2020.10.08 17:00",
    "o": 115.325,
    "h": 115.513,
    "l": 115.286,
    "c": 115.493,
    "v": 3392
  },
  {
    "dt": "2020.10.08 18:00",
    "o": 115.498,
    "h": 115.561,
    "l": 115.467,
    "c": 115.475,
    "v": 2799
  },
  {
    "dt": "2020.10.08 19:00",
    "o": 115.474,
    "h": 115.526,
    "l": 115.465,
    "c": 115.506,
    "v": 2061
  },
  {
    "dt": "2020.10.08 20:00",
    "o": 115.505,
    "h": 115.566,
    "l": 115.493,
    "c": 115.542,
    "v": 1977
  },
  {
    "dt": "2020.10.08 21:00",
    "o": 115.543,
    "h": 115.611,
    "l": 115.539,
    "c": 115.583,
    "v": 1680
  },
  {
    "dt": "2020.10.08 22:00",
    "o": 115.585,
    "h": 115.6,
    "l": 115.551,
    "c": 115.552,
    "v": 1530
  },
  {
    "dt": "2020.10.08 23:00",
    "o": 115.552,
    "h": 115.608,
    "l": 115.552,
    "c": 115.589,
    "v": 1239
  },
  {
    "dt": "2020.10.09 00:00",
    "o": 115.605,
    "h": 115.625,
    "l": 115.467,
    "c": 115.511,
    "v": 555
  },
  {
    "dt": "2020.10.09 01:00",
    "o": 115.522,
    "h": 115.608,
    "l": 115.522,
    "c": 115.592,
    "v": 671
  },
  {
    "dt": "2020.10.09 02:00",
    "o": 115.601,
    "h": 115.622,
    "l": 115.579,
    "c": 115.619,
    "v": 765
  },
  {
    "dt": "2020.10.09 03:00",
    "o": 115.617,
    "h": 115.621,
    "l": 115.464,
    "c": 115.546,
    "v": 1852
  },
  {
    "dt": "2020.10.09 04:00",
    "o": 115.546,
    "h": 115.584,
    "l": 115.48,
    "c": 115.549,
    "v": 1878
  },
  {
    "dt": "2020.10.09 05:00",
    "o": 115.548,
    "h": 115.621,
    "l": 115.534,
    "c": 115.62,
    "v": 852
  },
  {
    "dt": "2020.10.09 06:00",
    "o": 115.617,
    "h": 115.638,
    "l": 115.587,
    "c": 115.602,
    "v": 827
  },
  {
    "dt": "2020.10.09 07:00",
    "o": 115.602,
    "h": 115.624,
    "l": 115.587,
    "c": 115.608,
    "v": 638
  },
  {
    "dt": "2020.10.09 08:00",
    "o": 115.607,
    "h": 115.649,
    "l": 115.603,
    "c": 115.621,
    "v": 982
  },
  {
    "dt": "2020.10.09 09:00",
    "o": 115.625,
    "h": 115.692,
    "l": 115.624,
    "c": 115.69,
    "v": 1988
  },
  {
    "dt": "2020.10.09 10:00",
    "o": 115.691,
    "h": 115.78,
    "l": 115.613,
    "c": 115.755,
    "v": 2461
  },
  {
    "dt": "2020.10.09 11:00",
    "o": 115.756,
    "h": 116.018,
    "l": 115.756,
    "c": 115.969,
    "v": 3035
  },
  {
    "dt": "2020.10.09 12:00",
    "o": 115.97,
    "h": 115.982,
    "l": 115.885,
    "c": 115.923,
    "v": 2175
  },
  {
    "dt": "2020.10.09 13:00",
    "o": 115.923,
    "h": 116.014,
    "l": 115.875,
    "c": 116.002,
    "v": 2041
  },
  {
    "dt": "2020.10.09 14:00",
    "o": 116.001,
    "h": 116.022,
    "l": 115.944,
    "c": 116.02,
    "v": 2514
  },
  {
    "dt": "2020.10.09 15:00",
    "o": 116.019,
    "h": 116.083,
    "l": 115.93,
    "c": 116.05,
    "v": 3046
  },
  {
    "dt": "2020.10.09 16:00",
    "o": 116.051,
    "h": 116.114,
    "l": 115.86,
    "c": 115.865,
    "v": 3451
  },
  {
    "dt": "2020.10.09 17:00",
    "o": 115.866,
    "h": 115.957,
    "l": 115.791,
    "c": 115.888,
    "v": 3514
  },
  {
    "dt": "2020.10.09 18:00",
    "o": 115.892,
    "h": 116.142,
    "l": 115.869,
    "c": 116.128,
    "v": 3177
  },
  {
    "dt": "2020.10.09 19:00",
    "o": 116.135,
    "h": 116.164,
    "l": 116.058,
    "c": 116.149,
    "v": 2415
  },
  {
    "dt": "2020.10.09 20:00",
    "o": 116.149,
    "h": 116.161,
    "l": 116.072,
    "c": 116.076,
    "v": 1570
  },
  {
    "dt": "2020.10.09 21:00",
    "o": 116.078,
    "h": 116.098,
    "l": 116.044,
    "c": 116.069,
    "v": 1358
  },
  {
    "dt": "2020.10.09 22:00",
    "o": 116.071,
    "h": 116.09,
    "l": 116.011,
    "c": 116.012,
    "v": 1375
  },
  {
    "dt": "2020.10.09 23:00",
    "o": 116.01,
    "h": 116.123,
    "l": 115.995,
    "c": 116.05,
    "v": 1138
  },
  {
    "dt": "2020.10.12 00:00",
    "o": 116.016,
    "h": 116.168,
    "l": 116.016,
    "c": 116.041,
    "v": 58
  },
  {
    "dt": "2020.10.12 01:00",
    "o": 116.041,
    "h": 116.109,
    "l": 116.01,
    "c": 116.023,
    "v": 1201
  },
  {
    "dt": "2020.10.12 02:00",
    "o": 116.022,
    "h": 116.061,
    "l": 115.992,
    "c": 115.992,
    "v": 665
  },
  {
    "dt": "2020.10.12 03:00",
    "o": 115.992,
    "h": 116.007,
    "l": 115.917,
    "c": 115.966,
    "v": 1625
  },
  {
    "dt": "2020.10.12 04:00",
    "o": 115.964,
    "h": 116.058,
    "l": 115.921,
    "c": 116.024,
    "v": 1955
  },
  {
    "dt": "2020.10.12 05:00",
    "o": 116.023,
    "h": 116.023,
    "l": 115.882,
    "c": 115.896,
    "v": 919
  },
  {
    "dt": "2020.10.12 06:00",
    "o": 115.9,
    "h": 115.919,
    "l": 115.805,
    "c": 115.821,
    "v": 978
  },
  {
    "dt": "2020.10.12 07:00",
    "o": 115.82,
    "h": 115.843,
    "l": 115.784,
    "c": 115.843,
    "v": 907
  },
  {
    "dt": "2020.10.12 08:00",
    "o": 115.842,
    "h": 115.865,
    "l": 115.819,
    "c": 115.86,
    "v": 1110
  },
  {
    "dt": "2020.10.12 09:00",
    "o": 115.861,
    "h": 115.913,
    "l": 115.804,
    "c": 115.817,
    "v": 1714
  },
  {
    "dt": "2020.10.12 10:00",
    "o": 115.818,
    "h": 115.899,
    "l": 115.807,
    "c": 115.863,
    "v": 2613
  },
  {
    "dt": "2020.10.12 11:00",
    "o": 115.863,
    "h": 115.929,
    "l": 115.734,
    "c": 115.929,
    "v": 2278
  },
  {
    "dt": "2020.10.12 12:00",
    "o": 115.93,
    "h": 115.93,
    "l": 115.7,
    "c": 115.74,
    "v": 2290
  },
  {
    "dt": "2020.10.12 13:00",
    "o": 115.739,
    "h": 115.854,
    "l": 115.73,
    "c": 115.76,
    "v": 2013
  },
  {
    "dt": "2020.10.12 14:00",
    "o": 115.761,
    "h": 115.819,
    "l": 115.741,
    "c": 115.758,
    "v": 2654
  },
  {
    "dt": "2020.10.12 15:00",
    "o": 115.759,
    "h": 115.86,
    "l": 115.759,
    "c": 115.815,
    "v": 2659
  },
  {
    "dt": "2020.10.12 16:00",
    "o": 115.816,
    "h": 115.863,
    "l": 115.772,
    "c": 115.848,
    "v": 2812
  },
  {
    "dt": "2020.10.12 17:00",
    "o": 115.848,
    "h": 115.881,
    "l": 115.791,
    "c": 115.829,
    "v": 3045
  },
  {
    "dt": "2020.10.12 18:00",
    "o": 115.828,
    "h": 115.834,
    "l": 115.726,
    "c": 115.754,
    "v": 2421
  },
  {
    "dt": "2020.10.12 19:00",
    "o": 115.756,
    "h": 115.842,
    "l": 115.726,
    "c": 115.821,
    "v": 2103
  },
  {
    "dt": "2020.10.12 20:00",
    "o": 115.822,
    "h": 115.844,
    "l": 115.786,
    "c": 115.812,
    "v": 1655
  },
  {
    "dt": "2020.10.12 21:00",
    "o": 115.811,
    "h": 115.851,
    "l": 115.779,
    "c": 115.843,
    "v": 1569
  },
  {
    "dt": "2020.10.12 22:00",
    "o": 115.843,
    "h": 115.87,
    "l": 115.821,
    "c": 115.848,
    "v": 1508
  },
  {
    "dt": "2020.10.12 23:00",
    "o": 115.851,
    "h": 115.872,
    "l": 115.797,
    "c": 115.799,
    "v": 1340
  },
  {
    "dt": "2020.10.13 00:00",
    "o": 115.829,
    "h": 115.843,
    "l": 115.68,
    "c": 115.757,
    "v": 1412
  },
  {
    "dt": "2020.10.13 01:00",
    "o": 115.749,
    "h": 115.875,
    "l": 115.749,
    "c": 115.863,
    "v": 495
  },
  {
    "dt": "2020.10.13 02:00",
    "o": 115.859,
    "h": 115.876,
    "l": 115.842,
    "c": 115.855,
    "v": 400
  },
  {
    "dt": "2020.10.13 03:00",
    "o": 115.857,
    "h": 115.88,
    "l": 115.716,
    "c": 115.772,
    "v": 1898
  },
  {
    "dt": "2020.10.13 04:00",
    "o": 115.772,
    "h": 115.824,
    "l": 115.724,
    "c": 115.766,
    "v": 1516
  },
  {
    "dt": "2020.10.13 05:00",
    "o": 115.764,
    "h": 115.834,
    "l": 115.712,
    "c": 115.832,
    "v": 1223
  },
  {
    "dt": "2020.10.13 06:00",
    "o": 115.832,
    "h": 115.862,
    "l": 115.796,
    "c": 115.838,
    "v": 1001
  },
  {
    "dt": "2020.10.13 07:00",
    "o": 115.836,
    "h": 115.931,
    "l": 115.817,
    "c": 115.91,
    "v": 701
  },
  {
    "dt": "2020.10.13 08:00",
    "o": 115.911,
    "h": 115.933,
    "l": 115.836,
    "c": 115.844,
    "v": 1317
  },
  {
    "dt": "2020.10.13 09:00",
    "o": 115.849,
    "h": 115.877,
    "l": 115.753,
    "c": 115.758,
    "v": 2380
  },
  {
    "dt": "2020.10.13 10:00",
    "o": 115.757,
    "h": 115.795,
    "l": 115.696,
    "c": 115.765,
    "v": 2975
  },
  {
    "dt": "2020.10.13 11:00",
    "o": 115.762,
    "h": 115.966,
    "l": 115.751,
    "c": 115.806,
    "v": 2464
  },
  {
    "dt": "2020.10.13 12:00",
    "o": 115.801,
    "h": 115.827,
    "l": 115.729,
    "c": 115.774,
    "v": 2186
  },
  {
    "dt": "2020.10.13 13:00",
    "o": 115.772,
    "h": 115.802,
    "l": 115.702,
    "c": 115.765,
    "v": 1708
  },
  {
    "dt": "2020.10.13 14:00",
    "o": 115.764,
    "h": 115.861,
    "l": 115.741,
    "c": 115.861,
    "v": 2784
  },
  {
    "dt": "2020.10.13 15:00",
    "o": 115.862,
    "h": 115.947,
    "l": 115.833,
    "c": 115.906,
    "v": 3309
  },
  {
    "dt": "2020.10.13 16:00",
    "o": 115.906,
    "h": 115.907,
    "l": 115.624,
    "c": 115.673,
    "v": 4070
  },
  {
    "dt": "2020.10.13 17:00",
    "o": 115.669,
    "h": 115.694,
    "l": 115.443,
    "c": 115.453,
    "v": 3613
  },
  {
    "dt": "2020.10.13 18:00",
    "o": 115.454,
    "h": 115.518,
    "l": 115.34,
    "c": 115.388,
    "v": 2956
  },
  {
    "dt": "2020.10.13 19:00",
    "o": 115.387,
    "h": 115.402,
    "l": 115.315,
    "c": 115.324,
    "v": 2249
  },
  {
    "dt": "2020.10.13 20:00",
    "o": 115.325,
    "h": 115.333,
    "l": 115.288,
    "c": 115.29,
    "v": 2056
  },
  {
    "dt": "2020.10.13 21:00",
    "o": 115.291,
    "h": 115.356,
    "l": 115.261,
    "c": 115.331,
    "v": 1936
  },
  {
    "dt": "2020.10.13 22:00",
    "o": 115.333,
    "h": 115.344,
    "l": 115.297,
    "c": 115.312,
    "v": 1664
  },
  {
    "dt": "2020.10.13 23:00",
    "o": 115.31,
    "h": 115.319,
    "l": 115.257,
    "c": 115.261,
    "v": 1139
  },
  {
    "dt": "2020.10.14 00:00",
    "o": 115.201,
    "h": 115.34,
    "l": 115.201,
    "c": 115.264,
    "v": 444
  },
  {
    "dt": "2020.10.14 01:00",
    "o": 115.272,
    "h": 115.288,
    "l": 115.23,
    "c": 115.231,
    "v": 660
  },
  {
    "dt": "2020.10.14 02:00",
    "o": 115.232,
    "h": 115.259,
    "l": 115.203,
    "c": 115.235,
    "v": 632
  },
  {
    "dt": "2020.10.14 03:00",
    "o": 115.238,
    "h": 115.269,
    "l": 115.199,
    "c": 115.209,
    "v": 1299
  },
  {
    "dt": "2020.10.14 04:00",
    "o": 115.209,
    "h": 115.216,
    "l": 115.061,
    "c": 115.072,
    "v": 1922
  },
  {
    "dt": "2020.10.14 05:00",
    "o": 115.07,
    "h": 115.227,
    "l": 115.032,
    "c": 115.225,
    "v": 1127
  },
  {
    "dt": "2020.10.14 06:00",
    "o": 115.225,
    "h": 115.227,
    "l": 115.188,
    "c": 115.21,
    "v": 844
  },
  {
    "dt": "2020.10.14 07:00",
    "o": 115.207,
    "h": 115.252,
    "l": 115.18,
    "c": 115.233,
    "v": 785
  },
  {
    "dt": "2020.10.14 08:00",
    "o": 115.234,
    "h": 115.238,
    "l": 115.184,
    "c": 115.217,
    "v": 1103
  },
  {
    "dt": "2020.10.14 09:00",
    "o": 115.215,
    "h": 115.393,
    "l": 115.2,
    "c": 115.375,
    "v": 2172
  },
  {
    "dt": "2020.10.14 10:00",
    "o": 115.374,
    "h": 115.393,
    "l": 115.196,
    "c": 115.339,
    "v": 2510
  },
  {
    "dt": "2020.10.14 11:00",
    "o": 115.346,
    "h": 115.392,
    "l": 115.207,
    "c": 115.229,
    "v": 2205
  },
  {
    "dt": "2020.10.14 12:00",
    "o": 115.231,
    "h": 115.246,
    "l": 115.061,
    "c": 115.204,
    "v": 2438
  },
  {
    "dt": "2020.10.14 13:00",
    "o": 115.207,
    "h": 115.27,
    "l": 115.14,
    "c": 115.234,
    "v": 2219
  },
  {
    "dt": "2020.10.14 14:00",
    "o": 115.234,
    "h": 115.29,
    "l": 115.165,
    "c": 115.239,
    "v": 2377
  },
  {
    "dt": "2020.10.14 15:00",
    "o": 115.234,
    "h": 115.264,
    "l": 115.175,
    "c": 115.25,
    "v": 3532
  },
  {
    "dt": "2020.10.14 16:00",
    "o": 115.253,
    "h": 115.265,
    "l": 115.077,
    "c": 115.143,
    "v": 3008
  },
  {
    "dt": "2020.10.14 17:00",
    "o": 115.144,
    "h": 115.323,
    "l": 115.144,
    "c": 115.213,
    "v": 3424
  },
  {
    "dt": "2020.10.14 18:00",
    "o": 115.212,
    "h": 115.233,
    "l": 115.098,
    "c": 115.114,
    "v": 2771
  },
  {
    "dt": "2020.10.14 19:00",
    "o": 115.116,
    "h": 115.196,
    "l": 115.088,
    "c": 115.171,
    "v": 2303
  },
  {
    "dt": "2020.10.14 20:00",
    "o": 115.174,
    "h": 115.204,
    "l": 115.136,
    "c": 115.161,
    "v": 1647
  },
  {
    "dt": "2020.10.14 21:00",
    "o": 115.159,
    "h": 115.169,
    "l": 115.089,
    "c": 115.096,
    "v": 1731
  },
  {
    "dt": "2020.10.14 22:00",
    "o": 115.095,
    "h": 115.149,
    "l": 115.074,
    "c": 115.135,
    "v": 1607
  },
  {
    "dt": "2020.10.14 23:00",
    "o": 115.136,
    "h": 115.154,
    "l": 115.101,
    "c": 115.103,
    "v": 1085
  },
  {
    "dt": "2020.10.15 00:00",
    "o": 115.023,
    "h": 115.078,
    "l": 114.991,
    "c": 115.048,
    "v": 314
  },
  {
    "dt": "2020.10.15 01:00",
    "o": 115.059,
    "h": 115.139,
    "l": 115.059,
    "c": 115.125,
    "v": 800
  },
  {
    "dt": "2020.10.15 02:00",
    "o": 115.124,
    "h": 115.146,
    "l": 115.088,
    "c": 115.095,
    "v": 896
  },
  {
    "dt": "2020.10.15 03:00",
    "o": 115.096,
    "h": 115.233,
    "l": 115.086,
    "c": 115.206,
    "v": 1682
  },
  {
    "dt": "2020.10.15 04:00",
    "o": 115.207,
    "h": 115.324,
    "l": 115.184,
    "c": 115.253,
    "v": 1772
  },
  {
    "dt": "2020.10.15 05:00",
    "o": 115.253,
    "h": 115.255,
    "l": 115.167,
    "c": 115.197,
    "v": 1276
  },
  {
    "dt": "2020.10.15 06:00",
    "o": 115.196,
    "h": 115.272,
    "l": 115.18,
    "c": 115.267,
    "v": 1011
  },
  {
    "dt": "2020.10.15 07:00",
    "o": 115.267,
    "h": 115.304,
    "l": 115.243,
    "c": 115.285,
    "v": 739
  },
  {
    "dt": "2020.10.15 08:00",
    "o": 115.284,
    "h": 115.302,
    "l": 115.254,
    "c": 115.284,
    "v": 968
  },
  {
    "dt": "2020.10.15 09:00",
    "o": 115.286,
    "h": 115.317,
    "l": 115.163,
    "c": 115.174,
    "v": 2181
  },
  {
    "dt": "2020.10.15 10:00",
    "o": 115.171,
    "h": 115.293,
    "l": 115.1,
    "c": 115.164,
    "v": 2817
  },
  {
    "dt": "2020.10.15 11:00",
    "o": 115.163,
    "h": 115.165,
    "l": 114.989,
    "c": 115.021,
    "v": 2858
  },
  {
    "dt": "2020.10.15 12:00",
    "o": 115.022,
    "h": 115.181,
    "l": 114.991,
    "c": 115.136,
    "v": 2596
  },
  {
    "dt": "2020.10.15 13:00",
    "o": 115.141,
    "h": 115.231,
    "l": 115.062,
    "c": 115.158,
    "v": 2420
  },
  {
    "dt": "2020.10.15 14:00",
    "o": 115.158,
    "h": 115.25,
    "l": 115.133,
    "c": 115.193,
    "v": 2534
  },
  {
    "dt": "2020.10.15 15:00",
    "o": 115.192,
    "h": 115.2,
    "l": 115.051,
    "c": 115.095,
    "v": 3369
  },
  {
    "dt": "2020.10.15 16:00",
    "o": 115.088,
    "h": 115.162,
    "l": 115.004,
    "c": 115.136,
    "v": 3781
  },
  {
    "dt": "2020.10.15 17:00",
    "o": 115.134,
    "h": 115.247,
    "l": 115.113,
    "c": 115.191,
    "v": 4074
  },
  {
    "dt": "2020.10.15 18:00",
    "o": 115.187,
    "h": 115.283,
    "l": 115.143,
    "c": 115.233,
    "v": 3242
  },
  {
    "dt": "2020.10.15 19:00",
    "o": 115.234,
    "h": 115.293,
    "l": 115.19,
    "c": 115.213,
    "v": 2435
  },
  {
    "dt": "2020.10.15 20:00",
    "o": 115.214,
    "h": 115.302,
    "l": 115.177,
    "c": 115.183,
    "v": 1889
  },
  {
    "dt": "2020.10.15 21:00",
    "o": 115.183,
    "h": 115.267,
    "l": 115.17,
    "c": 115.218,
    "v": 1703
  },
  {
    "dt": "2020.10.15 22:00",
    "o": 115.215,
    "h": 115.314,
    "l": 115.215,
    "c": 115.261,
    "v": 1649
  },
  {
    "dt": "2020.10.15 23:00",
    "o": 115.259,
    "h": 115.298,
    "l": 115.215,
    "c": 115.285,
    "v": 1126
  },
  {
    "dt": "2020.10.16 00:00",
    "o": 115.247,
    "h": 115.293,
    "l": 115.184,
    "c": 115.233,
    "v": 1137
  },
  {
    "dt": "2020.10.16 01:00",
    "o": 115.232,
    "h": 115.285,
    "l": 115.199,
    "c": 115.207,
    "v": 465
  },
  {
    "dt": "2020.10.16 02:00",
    "o": 115.207,
    "h": 115.229,
    "l": 115.172,
    "c": 115.174,
    "v": 707
  },
  {
    "dt": "2020.10.16 03:00",
    "o": 115.175,
    "h": 115.249,
    "l": 115.119,
    "c": 115.181,
    "v": 1482
  },
  {
    "dt": "2020.10.16 04:00",
    "o": 115.179,
    "h": 115.228,
    "l": 115.086,
    "c": 115.097,
    "v": 1507
  },
  {
    "dt": "2020.10.16 05:00",
    "o": 115.097,
    "h": 115.097,
    "l": 114.993,
    "c": 115.054,
    "v": 1150
  },
  {
    "dt": "2020.10.16 06:00",
    "o": 115.053,
    "h": 115.071,
    "l": 114.973,
    "c": 114.991,
    "v": 1091
  },
  {
    "dt": "2020.10.16 07:00",
    "o": 114.992,
    "h": 115.03,
    "l": 114.965,
    "c": 114.984,
    "v": 803
  },
  {
    "dt": "2020.10.16 08:00",
    "o": 114.987,
    "h": 115.06,
    "l": 114.984,
    "c": 115.042,
    "v": 1035
  },
  {
    "dt": "2020.10.16 09:00",
    "o": 115.041,
    "h": 115.062,
    "l": 114.98,
    "c": 115.054,
    "v": 2088
  },
  {
    "dt": "2020.10.16 10:00",
    "o": 115.054,
    "h": 115.094,
    "l": 114.988,
    "c": 115.069,
    "v": 2753
  },
  {
    "dt": "2020.10.16 11:00",
    "o": 115.065,
    "h": 115.115,
    "l": 114.918,
    "c": 114.919,
    "v": 2350
  },
  {
    "dt": "2020.10.16 12:00",
    "o": 114.927,
    "h": 115.001,
    "l": 114.856,
    "c": 114.995,
    "v": 2254
  },
  {
    "dt": "2020.10.16 13:00",
    "o": 114.994,
    "h": 115.171,
    "l": 114.982,
    "c": 115.168,
    "v": 2491
  },
  {
    "dt": "2020.10.16 14:00",
    "o": 115.166,
    "h": 115.294,
    "l": 115.106,
    "c": 115.193,
    "v": 3534
  },
  {
    "dt": "2020.10.16 15:00",
    "o": 115.194,
    "h": 115.448,
    "l": 115.194,
    "c": 115.368,
    "v": 3417
  },
  {
    "dt": "2020.10.16 16:00",
    "o": 115.361,
    "h": 115.368,
    "l": 115.268,
    "c": 115.34,
    "v": 3460
  },
  {
    "dt": "2020.10.16 17:00",
    "o": 115.34,
    "h": 115.351,
    "l": 115.145,
    "c": 115.239,
    "v": 3560
  },
  {
    "dt": "2020.10.16 18:00",
    "o": 115.24,
    "h": 115.269,
    "l": 115.147,
    "c": 115.152,
    "v": 2570
  },
  {
    "dt": "2020.10.16 19:00",
    "o": 115.151,
    "h": 115.225,
    "l": 115.091,
    "c": 115.133,
    "v": 1722
  },
  {
    "dt": "2020.10.16 20:00",
    "o": 115.134,
    "h": 115.158,
    "l": 115.121,
    "c": 115.126,
    "v": 1153
  },
  {
    "dt": "2020.10.16 21:00",
    "o": 115.127,
    "h": 115.183,
    "l": 115.125,
    "c": 115.163,
    "v": 1178
  },
  {
    "dt": "2020.10.16 22:00",
    "o": 115.162,
    "h": 115.179,
    "l": 115.1,
    "c": 115.175,
    "v": 1406
  },
  {
    "dt": "2020.10.16 23:00",
    "o": 115.173,
    "h": 115.204,
    "l": 115.128,
    "c": 115.137,
    "v": 1283
  },
  {
    "dt": "2020.10.19 00:00",
    "o": 115.111,
    "h": 115.122,
    "l": 115.096,
    "c": 115.122,
    "v": 7
  },
  {
    "dt": "2020.10.19 01:00",
    "o": 115.118,
    "h": 115.194,
    "l": 115.095,
    "c": 115.148,
    "v": 908
  },
  {
    "dt": "2020.10.19 02:00",
    "o": 115.149,
    "h": 115.227,
    "l": 115.143,
    "c": 115.194,
    "v": 723
  },
  {
    "dt": "2020.10.19 03:00",
    "o": 115.191,
    "h": 115.269,
    "l": 115.152,
    "c": 115.166,
    "v": 1562
  },
  {
    "dt": "2020.10.19 04:00",
    "o": 115.17,
    "h": 115.194,
    "l": 115.12,
    "c": 115.145,
    "v": 1273
  },
  {
    "dt": "2020.10.19 05:00",
    "o": 115.142,
    "h": 115.159,
    "l": 115.084,
    "c": 115.119,
    "v": 959
  },
  {
    "dt": "2020.10.19 06:00",
    "o": 115.119,
    "h": 115.141,
    "l": 115.094,
    "c": 115.136,
    "v": 835
  },
  {
    "dt": "2020.10.19 07:00",
    "o": 115.136,
    "h": 115.141,
    "l": 115.093,
    "c": 115.095,
    "v": 628
  },
  {
    "dt": "2020.10.19 08:00",
    "o": 115.094,
    "h": 115.157,
    "l": 115.082,
    "c": 115.145,
    "v": 746
  },
  {
    "dt": "2020.10.19 09:00",
    "o": 115.145,
    "h": 115.147,
    "l": 115.027,
    "c": 115.043,
    "v": 1880
  },
  {
    "dt": "2020.10.19 10:00",
    "o": 115.042,
    "h": 115.259,
    "l": 115.042,
    "c": 115.227,
    "v": 2797
  },
  {
    "dt": "2020.10.19 11:00",
    "o": 115.228,
    "h": 115.385,
    "l": 115.224,
    "c": 115.346,
    "v": 2177
  },
  {
    "dt": "2020.10.19 12:00",
    "o": 115.347,
    "h": 115.554,
    "l": 115.342,
    "c": 115.503,
    "v": 2499
  },
  {
    "dt": "2020.10.19 13:00",
    "o": 115.504,
    "h": 115.64,
    "l": 115.459,
    "c": 115.633,
    "v": 2267
  },
  {
    "dt": "2020.10.19 14:00",
    "o": 115.634,
    "h": 115.753,
    "l": 115.606,
    "c": 115.744,
    "v": 2655
  },
  {
    "dt": "2020.10.19 15:00",
    "o": 115.743,
    "h": 115.774,
    "l": 115.708,
    "c": 115.75,
    "v": 2694
  },
  {
    "dt": "2020.10.19 16:00",
    "o": 115.748,
    "h": 115.876,
    "l": 115.74,
    "c": 115.831,
    "v": 2989
  },
  {
    "dt": "2020.10.19 17:00",
    "o": 115.831,
    "h": 115.978,
    "l": 115.719,
    "c": 115.961,
    "v": 3663
  },
  {
    "dt": "2020.10.19 18:00",
    "o": 115.96,
    "h": 115.978,
    "l": 115.894,
    "c": 115.925,
    "v": 2712
  },
  {
    "dt": "2020.10.19 19:00",
    "o": 115.928,
    "h": 115.946,
    "l": 115.882,
    "c": 115.893,
    "v": 2005
  },
  {
    "dt": "2020.10.19 20:00",
    "o": 115.892,
    "h": 115.932,
    "l": 115.879,
    "c": 115.929,
    "v": 1599
  },
  {
    "dt": "2020.10.19 21:00",
    "o": 115.93,
    "h": 115.945,
    "l": 115.825,
    "c": 115.83,
    "v": 2023
  },
  {
    "dt": "2020.10.19 22:00",
    "o": 115.826,
    "h": 115.842,
    "l": 115.765,
    "c": 115.794,
    "v": 1997
  },
  {
    "dt": "2020.10.19 23:00",
    "o": 115.794,
    "h": 115.839,
    "l": 115.764,
    "c": 115.819,
    "v": 1195
  },
  {
    "dt": "2020.10.20 00:00",
    "o": 115.723,
    "h": 115.807,
    "l": 115.707,
    "c": 115.754,
    "v": 729
  },
  {
    "dt": "2020.10.20 01:00",
    "o": 115.733,
    "h": 115.855,
    "l": 115.733,
    "c": 115.812,
    "v": 640
  },
  {
    "dt": "2020.10.20 02:00",
    "o": 115.809,
    "h": 115.829,
    "l": 115.777,
    "c": 115.801,
    "v": 651
  },
  {
    "dt": "2020.10.20 03:00",
    "o": 115.8,
    "h": 116.03,
    "l": 115.789,
    "c": 115.997,
    "v": 1880
  },
  {
    "dt": "2020.10.20 04:00",
    "o": 115.996,
    "h": 116.007,
    "l": 115.926,
    "c": 115.939,
    "v": 1465
  },
  {
    "dt": "2020.10.20 05:00",
    "o": 115.939,
    "h": 115.939,
    "l": 115.89,
    "c": 115.911,
    "v": 1059
  },
  {
    "dt": "2020.10.20 06:00",
    "o": 115.913,
    "h": 115.999,
    "l": 115.909,
    "c": 115.979,
    "v": 483
  },
  {
    "dt": "2020.10.20 07:00",
    "o": 115.981,
    "h": 116.011,
    "l": 115.961,
    "c": 115.983,
    "v": 555
  },
  {
    "dt": "2020.10.20 08:00",
    "o": 115.977,
    "h": 116.005,
    "l": 115.94,
    "c": 115.97,
    "v": 872
  },
  {
    "dt": "2020.10.20 09:00",
    "o": 115.964,
    "h": 115.998,
    "l": 115.896,
    "c": 115.9,
    "v": 1757
  },
  {
    "dt": "2020.10.20 10:00",
    "o": 115.9,
    "h": 116.105,
    "l": 115.826,
    "c": 116.043,
    "v": 2755
  },
  {
    "dt": "2020.10.20 11:00",
    "o": 116.042,
    "h": 116.141,
    "l": 115.958,
    "c": 116.05,
    "v": 2410
  },
  {
    "dt": "2020.10.20 12:00",
    "o": 116.056,
    "h": 116.268,
    "l": 116.044,
    "c": 116.239,
    "v": 2479
  },
  {
    "dt": "2020.10.20 13:00",
    "o": 116.24,
    "h": 116.373,
    "l": 116.224,
    "c": 116.35,
    "v": 2370
  },
  {
    "dt": "2020.10.20 14:00",
    "o": 116.351,
    "h": 116.385,
    "l": 116.297,
    "c": 116.372,
    "v": 2516
  },
  {
    "dt": "2020.10.20 15:00",
    "o": 116.373,
    "h": 116.482,
    "l": 116.328,
    "c": 116.419,
    "v": 2831
  },
  {
    "dt": "2020.10.20 16:00",
    "o": 116.415,
    "h": 116.471,
    "l": 116.339,
    "c": 116.391,
    "v": 3157
  },
  {
    "dt": "2020.10.20 17:00",
    "o": 116.389,
    "h": 116.58,
    "l": 116.376,
    "c": 116.424,
    "v": 3451
  },
  {
    "dt": "2020.10.20 18:00",
    "o": 116.424,
    "h": 116.433,
    "l": 116.314,
    "c": 116.354,
    "v": 2710
  },
  {
    "dt": "2020.10.20 19:00",
    "o": 116.355,
    "h": 116.436,
    "l": 116.327,
    "c": 116.364,
    "v": 2148
  },
  {
    "dt": "2020.10.20 20:00",
    "o": 116.365,
    "h": 116.401,
    "l": 116.309,
    "c": 116.309,
    "v": 1907
  },
  {
    "dt": "2020.10.20 21:00",
    "o": 116.309,
    "h": 116.325,
    "l": 116.265,
    "c": 116.293,
    "v": 2009
  },
  {
    "dt": "2020.10.20 22:00",
    "o": 116.292,
    "h": 116.305,
    "l": 116.241,
    "c": 116.29,
    "v": 2103
  },
  {
    "dt": "2020.10.20 23:00",
    "o": 116.289,
    "h": 116.314,
    "l": 116.262,
    "c": 116.276,
    "v": 1584
  },
  {
    "dt": "2020.10.21 00:00",
    "o": 116.219,
    "h": 116.284,
    "l": 116.203,
    "c": 116.233,
    "v": 828
  },
  {
    "dt": "2020.10.21 01:00",
    "o": 116.233,
    "h": 116.321,
    "l": 116.23,
    "c": 116.315,
    "v": 590
  },
  {
    "dt": "2020.10.21 02:00",
    "o": 116.317,
    "h": 116.36,
    "l": 116.281,
    "c": 116.305,
    "v": 1107
  },
  {
    "dt": "2020.10.21 03:00",
    "o": 116.299,
    "h": 116.348,
    "l": 116.238,
    "c": 116.246,
    "v": 1465
  },
  {
    "dt": "2020.10.21 04:00",
    "o": 116.246,
    "h": 116.348,
    "l": 116.212,
    "c": 116.261,
    "v": 1427
  },
  {
    "dt": "2020.10.21 05:00",
    "o": 116.262,
    "h": 116.336,
    "l": 116.255,
    "c": 116.304,
    "v": 1091
  },
  {
    "dt": "2020.10.21 06:00",
    "o": 116.305,
    "h": 116.324,
    "l": 116.186,
    "c": 116.215,
    "v": 1300
  },
  {
    "dt": "2020.10.21 07:00",
    "o": 116.216,
    "h": 116.226,
    "l": 116.176,
    "c": 116.222,
    "v": 1064
  },
  {
    "dt": "2020.10.21 08:00",
    "o": 116.222,
    "h": 116.231,
    "l": 116.186,
    "c": 116.21,
    "v": 1085
  },
  {
    "dt": "2020.10.21 09:00",
    "o": 116.21,
    "h": 116.371,
    "l": 116.199,
    "c": 116.302,
    "v": 2606
  },
  {
    "dt": "2020.10.21 10:00",
    "o": 116.298,
    "h": 116.327,
    "l": 116.099,
    "c": 116.207,
    "v": 3484
  },
  {
    "dt": "2020.10.21 11:00",
    "o": 116.207,
    "h": 116.254,
    "l": 115.978,
    "c": 116.042,
    "v": 3401
  },
  {
    "dt": "2020.10.21 12:00",
    "o": 116.038,
    "h": 116.045,
    "l": 115.935,
    "c": 115.953,
    "v": 2918
  },
  {
    "dt": "2020.10.21 13:00",
    "o": 115.956,
    "h": 116.083,
    "l": 115.876,
    "c": 116.022,
    "v": 2560
  },
  {
    "dt": "2020.10.21 14:00",
    "o": 116.022,
    "h": 116.058,
    "l": 115.97,
    "c": 115.981,
    "v": 2475
  },
  {
    "dt": "2020.10.21 15:00",
    "o": 115.982,
    "h": 116.02,
    "l": 115.719,
    "c": 115.728,
    "v": 3337
  },
  {
    "dt": "2020.10.21 16:00",
    "o": 115.73,
    "h": 115.758,
    "l": 115.549,
    "c": 115.571,
    "v": 3523
  },
  {
    "dt": "2020.10.21 17:00",
    "o": 115.573,
    "h": 115.658,
    "l": 115.485,
    "c": 115.56,
    "v": 3873
  },
  {
    "dt": "2020.10.21 18:00",
    "o": 115.553,
    "h": 115.696,
    "l": 115.548,
    "c": 115.645,
    "v": 3150
  },
  {
    "dt": "2020.10.21 19:00",
    "o": 115.646,
    "h": 115.658,
    "l": 115.511,
    "c": 115.559,
    "v": 2953
  },
  {
    "dt": "2020.10.21 20:00",
    "o": 115.559,
    "h": 115.562,
    "l": 115.489,
    "c": 115.513,
    "v": 2177
  },
  {
    "dt": "2020.10.21 21:00",
    "o": 115.514,
    "h": 115.559,
    "l": 115.509,
    "c": 115.535,
    "v": 1831
  },
  {
    "dt": "2020.10.21 22:00",
    "o": 115.535,
    "h": 115.546,
    "l": 115.478,
    "c": 115.485,
    "v": 1926
  },
  {
    "dt": "2020.10.21 23:00",
    "o": 115.487,
    "h": 115.519,
    "l": 115.45,
    "c": 115.499,
    "v": 1357
  },
  {
    "dt": "2020.10.22 00:00",
    "o": 115.434,
    "h": 115.578,
    "l": 115.418,
    "c": 115.494,
    "v": 674
  },
  {
    "dt": "2020.10.22 01:00",
    "o": 115.492,
    "h": 115.529,
    "l": 115.463,
    "c": 115.474,
    "v": 618
  },
  {
    "dt": "2020.10.22 02:00",
    "o": 115.477,
    "h": 115.551,
    "l": 115.441,
    "c": 115.534,
    "v": 1063
  },
  {
    "dt": "2020.10.22 03:00",
    "o": 115.532,
    "h": 115.543,
    "l": 115.378,
    "c": 115.411,
    "v": 1864
  },
  {
    "dt": "2020.10.22 04:00",
    "o": 115.409,
    "h": 115.491,
    "l": 115.406,
    "c": 115.451,
    "v": 1222
  },
  {
    "dt": "2020.10.22 05:00",
    "o": 115.451,
    "h": 115.487,
    "l": 115.406,
    "c": 115.482,
    "v": 1031
  },
  {
    "dt": "2020.10.22 06:00",
    "o": 115.481,
    "h": 115.487,
    "l": 115.444,
    "c": 115.463,
    "v": 740
  },
  {
    "dt": "2020.10.22 07:00",
    "o": 115.462,
    "h": 115.518,
    "l": 115.431,
    "c": 115.5,
    "v": 662
  },
  {
    "dt": "2020.10.22 08:00",
    "o": 115.499,
    "h": 115.504,
    "l": 115.449,
    "c": 115.487,
    "v": 1082
  },
  {
    "dt": "2020.10.22 09:00",
    "o": 115.489,
    "h": 115.516,
    "l": 115.376,
    "c": 115.416,
    "v": 1953
  },
  {
    "dt": "2020.10.22 10:00",
    "o": 115.412,
    "h": 115.424,
    "l": 115.288,
    "c": 115.364,
    "v": 3264
  },
  {
    "dt": "2020.10.22 11:00",
    "o": 115.363,
    "h": 115.427,
    "l": 115.277,
    "c": 115.419,
    "v": 2701
  },
  {
    "dt": "2020.10.22 12:00",
    "o": 115.422,
    "h": 115.517,
    "l": 115.412,
    "c": 115.467,
    "v": 2660
  },
  {
    "dt": "2020.10.22 13:00",
    "o": 115.465,
    "h": 115.48,
    "l": 115.327,
    "c": 115.355,
    "v": 2449
  },
  {
    "dt": "2020.10.22 14:00",
    "o": 115.355,
    "h": 115.361,
    "l": 115.273,
    "c": 115.358,
    "v": 2698
  },
  {
    "dt": "2020.10.22 15:00",
    "o": 115.36,
    "h": 115.402,
    "l": 115.32,
    "c": 115.381,
    "v": 2822
  },
  {
    "dt": "2020.10.22 16:00",
    "o": 115.379,
    "h": 115.452,
    "l": 115.333,
    "c": 115.415,
    "v": 3268
  },
  {
    "dt": "2020.10.22 17:00",
    "o": 115.414,
    "h": 115.559,
    "l": 115.413,
    "c": 115.538,
    "v": 3812
  },
  {
    "dt": "2020.10.22 18:00",
    "o": 115.537,
    "h": 115.635,
    "l": 115.53,
    "c": 115.564,
    "v": 2986
  },
  {
    "dt": "2020.10.22 19:00",
    "o": 115.566,
    "h": 115.566,
    "l": 115.488,
    "c": 115.514,
    "v": 2040
  },
  {
    "dt": "2020.10.22 20:00",
    "o": 115.513,
    "h": 115.573,
    "l": 115.5,
    "c": 115.569,
    "v": 1940
  },
  {
    "dt": "2020.10.22 21:00",
    "o": 115.569,
    "h": 115.605,
    "l": 115.522,
    "c": 115.571,
    "v": 1565
  },
  {
    "dt": "2020.10.22 22:00",
    "o": 115.573,
    "h": 115.64,
    "l": 115.567,
    "c": 115.603,
    "v": 1422
  },
  {
    "dt": "2020.10.22 23:00",
    "o": 115.603,
    "h": 115.63,
    "l": 115.583,
    "c": 115.595,
    "v": 951
  },
  {
    "dt": "2020.10.23 00:00",
    "o": 115.583,
    "h": 115.6,
    "l": 115.499,
    "c": 115.513,
    "v": 1151
  },
  {
    "dt": "2020.10.23 01:00",
    "o": 115.513,
    "h": 115.604,
    "l": 115.513,
    "c": 115.604,
    "v": 563
  },
  {
    "dt": "2020.10.23 02:00",
    "o": 115.605,
    "h": 115.629,
    "l": 115.561,
    "c": 115.563,
    "v": 656
  },
  {
    "dt": "2020.10.23 03:00",
    "o": 115.565,
    "h": 115.571,
    "l": 115.222,
    "c": 115.337,
    "v": 2457
  },
  {
    "dt": "2020.10.23 04:00",
    "o": 115.338,
    "h": 115.455,
    "l": 115.323,
    "c": 115.421,
    "v": 1246
  },
  {
    "dt": "2020.10.23 05:00",
    "o": 115.42,
    "h": 115.428,
    "l": 115.344,
    "c": 115.396,
    "v": 1082
  },
  {
    "dt": "2020.10.23 06:00",
    "o": 115.39,
    "h": 115.404,
    "l": 115.358,
    "c": 115.376,
    "v": 722
  },
  {
    "dt": "2020.10.23 07:00",
    "o": 115.379,
    "h": 115.382,
    "l": 115.323,
    "c": 115.351,
    "v": 732
  },
  {
    "dt": "2020.10.23 08:00",
    "o": 115.355,
    "h": 115.399,
    "l": 115.334,
    "c": 115.373,
    "v": 774
  },
  {
    "dt": "2020.10.23 09:00",
    "o": 115.378,
    "h": 115.431,
    "l": 115.292,
    "c": 115.414,
    "v": 1553
  },
  {
    "dt": "2020.10.23 10:00",
    "o": 115.415,
    "h": 115.572,
    "l": 115.39,
    "c": 115.507,
    "v": 2851
  },
  {
    "dt": "2020.10.23 11:00",
    "o": 115.505,
    "h": 115.641,
    "l": 115.461,
    "c": 115.62,
    "v": 2534
  },
  {
    "dt": "2020.10.23 12:00",
    "o": 115.621,
    "h": 115.692,
    "l": 115.587,
    "c": 115.657,
    "v": 1911
  },
  {
    "dt": "2020.10.23 13:00",
    "o": 115.657,
    "h": 115.751,
    "l": 115.657,
    "c": 115.748,
    "v": 1710
  },
  {
    "dt": "2020.10.23 14:00",
    "o": 115.751,
    "h": 115.842,
    "l": 115.733,
    "c": 115.791,
    "v": 2390
  },
  {
    "dt": "2020.10.23 15:00",
    "o": 115.803,
    "h": 115.905,
    "l": 115.782,
    "c": 115.831,
    "v": 3082
  },
  {
    "dt": "2020.10.23 16:00",
    "o": 115.828,
    "h": 115.87,
    "l": 115.756,
    "c": 115.775,
    "v": 3061
  },
  {
    "dt": "2020.10.23 17:00",
    "o": 115.778,
    "h": 115.778,
    "l": 115.594,
    "c": 115.656,
    "v": 3497
  },
  {
    "dt": "2020.10.23 18:00",
    "o": 115.657,
    "h": 115.705,
    "l": 115.607,
    "c": 115.69,
    "v": 2757
  },
  {
    "dt": "2020.10.23 19:00",
    "o": 115.689,
    "h": 115.73,
    "l": 115.634,
    "c": 115.688,
    "v": 1763
  },
  {
    "dt": "2020.10.23 20:00",
    "o": 115.687,
    "h": 115.793,
    "l": 115.687,
    "c": 115.742,
    "v": 1230
  },
  {
    "dt": "2020.10.23 21:00",
    "o": 115.743,
    "h": 115.797,
    "l": 115.739,
    "c": 115.749,
    "v": 1148
  },
  {
    "dt": "2020.10.23 22:00",
    "o": 115.748,
    "h": 115.806,
    "l": 115.727,
    "c": 115.791,
    "v": 942
  },
  {
    "dt": "2020.10.23 23:00",
    "o": 115.791,
    "h": 115.835,
    "l": 115.681,
    "c": 115.681,
    "v": 960
  },
  {
    "dt": "2020.10.26 00:00",
    "o": 115.614,
    "h": 115.628,
    "l": 115.555,
    "c": 115.628,
    "v": 61
  },
  {
    "dt": "2020.10.26 01:00",
    "o": 115.615,
    "h": 115.742,
    "l": 115.611,
    "c": 115.674,
    "v": 1421
  },
  {
    "dt": "2020.10.26 02:00",
    "o": 115.677,
    "h": 115.75,
    "l": 115.677,
    "c": 115.716,
    "v": 829
  },
  {
    "dt": "2020.10.26 03:00",
    "o": 115.72,
    "h": 115.781,
    "l": 115.681,
    "c": 115.691,
    "v": 1199
  },
  {
    "dt": "2020.10.26 04:00",
    "o": 115.691,
    "h": 115.906,
    "l": 115.679,
    "c": 115.877,
    "v": 1860
  },
  {
    "dt": "2020.10.26 05:00",
    "o": 115.877,
    "h": 115.911,
    "l": 115.85,
    "c": 115.861,
    "v": 1275
  },
  {
    "dt": "2020.10.26 06:00",
    "o": 115.861,
    "h": 115.899,
    "l": 115.834,
    "c": 115.866,
    "v": 973
  },
  {
    "dt": "2020.10.26 07:00",
    "o": 115.864,
    "h": 115.944,
    "l": 115.858,
    "c": 115.89,
    "v": 783
  },
  {
    "dt": "2020.10.26 08:00",
    "o": 115.887,
    "h": 115.925,
    "l": 115.872,
    "c": 115.873,
    "v": 810
  },
  {
    "dt": "2020.10.26 09:00",
    "o": 115.869,
    "h": 115.91,
    "l": 115.841,
    "c": 115.9,
    "v": 990
  },
  {
    "dt": "2020.10.26 10:00",
    "o": 115.895,
    "h": 115.94,
    "l": 115.832,
    "c": 115.845,
    "v": 2326
  },
  {
    "dt": "2020.10.26 11:00",
    "o": 115.844,
    "h": 115.852,
    "l": 115.664,
    "c": 115.695,
    "v": 3193
  },
  {
    "dt": "2020.10.26 12:00",
    "o": 115.708,
    "h": 115.711,
    "l": 115.51,
    "c": 115.617,
    "v": 2750
  },
  {
    "dt": "2020.10.26 13:00",
    "o": 115.618,
    "h": 115.683,
    "l": 115.55,
    "c": 115.679,
    "v": 2343
  },
  {
    "dt": "2020.10.26 14:00",
    "o": 115.674,
    "h": 115.71,
    "l": 115.628,
    "c": 115.68,
    "v": 2462
  },
  {
    "dt": "2020.10.26 15:00",
    "o": 115.679,
    "h": 115.754,
    "l": 115.641,
    "c": 115.729,
    "v": 2864
  },
  {
    "dt": "2020.10.26 16:00",
    "o": 115.731,
    "h": 115.818,
    "l": 115.69,
    "c": 115.694,
    "v": 3233
  },
  {
    "dt": "2020.10.26 17:00",
    "o": 115.697,
    "h": 115.728,
    "l": 115.642,
    "c": 115.692,
    "v": 3058
  },
  {
    "dt": "2020.10.26 18:00",
    "o": 115.693,
    "h": 115.701,
    "l": 115.517,
    "c": 115.56,
    "v": 3009
  },
  {
    "dt": "2020.10.26 19:00",
    "o": 115.562,
    "h": 115.641,
    "l": 115.541,
    "c": 115.587,
    "v": 2339
  },
  {
    "dt": "2020.10.26 20:00",
    "o": 115.588,
    "h": 115.618,
    "l": 115.543,
    "c": 115.586,
    "v": 2134
  },
  {
    "dt": "2020.10.26 21:00",
    "o": 115.585,
    "h": 115.587,
    "l": 115.519,
    "c": 115.549,
    "v": 1842
  },
  {
    "dt": "2020.10.26 22:00",
    "o": 115.546,
    "h": 115.564,
    "l": 115.449,
    "c": 115.465,
    "v": 1647
  },
  {
    "dt": "2020.10.26 23:00",
    "o": 115.463,
    "h": 115.499,
    "l": 115.453,
    "c": 115.454,
    "v": 965
  },
  {
    "dt": "2020.10.27 00:00",
    "o": 115.499,
    "h": 115.504,
    "l": 115.436,
    "c": 115.448,
    "v": 287
  },
  {
    "dt": "2020.10.27 01:00",
    "o": 115.452,
    "h": 115.494,
    "l": 115.431,
    "c": 115.467,
    "v": 617
  },
  {
    "dt": "2020.10.27 02:00",
    "o": 115.469,
    "h": 115.485,
    "l": 115.422,
    "c": 115.435,
    "v": 450
  },
  {
    "dt": "2020.10.27 03:00",
    "o": 115.435,
    "h": 115.527,
    "l": 115.352,
    "c": 115.526,
    "v": 1415
  },
  {
    "dt": "2020.10.27 04:00",
    "o": 115.527,
    "h": 115.534,
    "l": 115.451,
    "c": 115.478,
    "v": 1116
  },
  {
    "dt": "2020.10.27 05:00",
    "o": 115.477,
    "h": 115.527,
    "l": 115.459,
    "c": 115.461,
    "v": 1130
  },
  {
    "dt": "2020.10.27 06:00",
    "o": 115.46,
    "h": 115.469,
    "l": 115.409,
    "c": 115.462,
    "v": 628
  },
  {
    "dt": "2020.10.27 07:00",
    "o": 115.464,
    "h": 115.532,
    "l": 115.461,
    "c": 115.51,
    "v": 511
  },
  {
    "dt": "2020.10.27 08:00",
    "o": 115.51,
    "h": 115.556,
    "l": 115.505,
    "c": 115.553,
    "v": 695
  },
  {
    "dt": "2020.10.27 09:00",
    "o": 115.554,
    "h": 115.568,
    "l": 115.477,
    "c": 115.552,
    "v": 1102
  },
  {
    "dt": "2020.10.27 10:00",
    "o": 115.548,
    "h": 115.548,
    "l": 115.442,
    "c": 115.48,
    "v": 1923
  },
  {
    "dt": "2020.10.27 11:00",
    "o": 115.482,
    "h": 115.519,
    "l": 115.271,
    "c": 115.301,
    "v": 2894
  },
  {
    "dt": "2020.10.27 12:00",
    "o": 115.303,
    "h": 115.317,
    "l": 115.027,
    "c": 115.047,
    "v": 2315
  },
  {
    "dt": "2020.10.27 13:00",
    "o": 115.043,
    "h": 115.124,
    "l": 114.998,
    "c": 115.108,
    "v": 2229
  },
  {
    "dt": "2020.10.27 14:00",
    "o": 115.099,
    "h": 115.247,
    "l": 115.052,
    "c": 115.215,
    "v": 2504
  },
  {
    "dt": "2020.10.27 15:00",
    "o": 115.214,
    "h": 115.347,
    "l": 115.21,
    "c": 115.337,
    "v": 2259
  },
  {
    "dt": "2020.10.27 16:00",
    "o": 115.332,
    "h": 115.414,
    "l": 115.263,
    "c": 115.368,
    "v": 2865
  },
  {
    "dt": "2020.10.27 17:00",
    "o": 115.365,
    "h": 115.394,
    "l": 115.129,
    "c": 115.224,
    "v": 3106
  },
  {
    "dt": "2020.10.27 18:00",
    "o": 115.227,
    "h": 115.227,
    "l": 115.112,
    "c": 115.194,
    "v": 2953
  },
  {
    "dt": "2020.10.27 19:00",
    "o": 115.193,
    "h": 115.222,
    "l": 115.138,
    "c": 115.161,
    "v": 2259
  },
  {
    "dt": "2020.10.27 20:00",
    "o": 115.162,
    "h": 115.194,
    "l": 115.123,
    "c": 115.154,
    "v": 1676
  },
  {
    "dt": "2020.10.27 21:00",
    "o": 115.154,
    "h": 115.184,
    "l": 115.111,
    "c": 115.113,
    "v": 1207
  },
  {
    "dt": "2020.10.27 22:00",
    "o": 115.113,
    "h": 115.146,
    "l": 115.06,
    "c": 115.061,
    "v": 1269
  },
  {
    "dt": "2020.10.27 23:00",
    "o": 115.06,
    "h": 115.089,
    "l": 114.882,
    "c": 114.885,
    "v": 1489
  },
  {
    "dt": "2020.10.28 00:00",
    "o": 114.894,
    "h": 114.914,
    "l": 114.824,
    "c": 114.887,
    "v": 757
  },
  {
    "dt": "2020.10.28 01:00",
    "o": 114.89,
    "h": 114.924,
    "l": 114.829,
    "c": 114.914,
    "v": 1203
  },
  {
    "dt": "2020.10.28 02:00",
    "o": 114.919,
    "h": 115.017,
    "l": 114.886,
    "c": 115.004,
    "v": 748
  },
  {
    "dt": "2020.10.28 03:00",
    "o": 115.01,
    "h": 115.01,
    "l": 114.818,
    "c": 114.883,
    "v": 1765
  },
  {
    "dt": "2020.10.28 04:00",
    "o": 114.888,
    "h": 114.962,
    "l": 114.837,
    "c": 114.847,
    "v": 1310
  },
  {
    "dt": "2020.10.28 05:00",
    "o": 114.847,
    "h": 114.888,
    "l": 114.719,
    "c": 114.747,
    "v": 1389
  },
  {
    "dt": "2020.10.28 06:00",
    "o": 114.741,
    "h": 114.809,
    "l": 114.71,
    "c": 114.751,
    "v": 820
  },
  {
    "dt": "2020.10.28 07:00",
    "o": 114.748,
    "h": 114.748,
    "l": 114.61,
    "c": 114.663,
    "v": 1004
  },
  {
    "dt": "2020.10.28 08:00",
    "o": 114.661,
    "h": 114.728,
    "l": 114.622,
    "c": 114.681,
    "v": 860
  },
  {
    "dt": "2020.10.28 09:00",
    "o": 114.687,
    "h": 114.687,
    "l": 114.525,
    "c": 114.54,
    "v": 1527
  },
  {
    "dt": "2020.10.28 10:00",
    "o": 114.542,
    "h": 114.55,
    "l": 114.42,
    "c": 114.458,
    "v": 2578
  },
  {
    "dt": "2020.10.28 11:00",
    "o": 114.457,
    "h": 114.547,
    "l": 114.302,
    "c": 114.545,
    "v": 3458
  },
  {
    "dt": "2020.10.28 12:00",
    "o": 114.545,
    "h": 114.545,
    "l": 114.277,
    "c": 114.277,
    "v": 2871
  },
  {
    "dt": "2020.10.28 13:00",
    "o": 114.277,
    "h": 114.353,
    "l": 114.194,
    "c": 114.226,
    "v": 2687
  },
  {
    "dt": "2020.10.28 14:00",
    "o": 114.226,
    "h": 114.454,
    "l": 114.183,
    "c": 114.41,
    "v": 3459
  },
  {
    "dt": "2020.10.28 15:00",
    "o": 114.41,
    "h": 114.507,
    "l": 114.347,
    "c": 114.452,
    "v": 3506
  },
  {
    "dt": "2020.10.28 16:00",
    "o": 114.452,
    "h": 114.577,
    "l": 114.385,
    "c": 114.493,
    "v": 3866
  },
  {
    "dt": "2020.10.28 17:00",
    "o": 114.492,
    "h": 114.56,
    "l": 114.413,
    "c": 114.523,
    "v": 3967
  },
  {
    "dt": "2020.10.28 18:00",
    "o": 114.523,
    "h": 114.695,
    "l": 114.416,
    "c": 114.676,
    "v": 3492
  },
  {
    "dt": "2020.10.28 19:00",
    "o": 114.674,
    "h": 114.732,
    "l": 114.612,
    "c": 114.657,
    "v": 2716
  },
  {
    "dt": "2020.10.28 20:00",
    "o": 114.656,
    "h": 114.67,
    "l": 114.596,
    "c": 114.649,
    "v": 2299
  },
  {
    "dt": "2020.10.28 21:00",
    "o": 114.652,
    "h": 114.671,
    "l": 114.604,
    "c": 114.649,
    "v": 1973
  },
  {
    "dt": "2020.10.28 22:00",
    "o": 114.649,
    "h": 114.666,
    "l": 114.595,
    "c": 114.628,
    "v": 2076
  },
  {
    "dt": "2020.10.28 23:00",
    "o": 114.629,
    "h": 114.635,
    "l": 114.546,
    "c": 114.55,
    "v": 1054
  },
  {
    "dt": "2020.10.29 00:00",
    "o": 114.499,
    "h": 114.576,
    "l": 114.461,
    "c": 114.547,
    "v": 767
  },
  {
    "dt": "2020.10.29 01:00",
    "o": 114.547,
    "h": 114.599,
    "l": 114.541,
    "c": 114.552,
    "v": 670
  },
  {
    "dt": "2020.10.29 02:00",
    "o": 114.551,
    "h": 114.578,
    "l": 114.494,
    "c": 114.528,
    "v": 722
  },
  {
    "dt": "2020.10.29 03:00",
    "o": 114.527,
    "h": 114.672,
    "l": 114.521,
    "c": 114.664,
    "v": 1657
  },
  {
    "dt": "2020.10.29 04:00",
    "o": 114.668,
    "h": 114.795,
    "l": 114.558,
    "c": 114.769,
    "v": 1938
  },
  {
    "dt": "2020.10.29 05:00",
    "o": 114.765,
    "h": 114.778,
    "l": 114.692,
    "c": 114.733,
    "v": 1075
  },
  {
    "dt": "2020.10.29 06:00",
    "o": 114.734,
    "h": 114.849,
    "l": 114.711,
    "c": 114.823,
    "v": 1000
  },
  {
    "dt": "2020.10.29 07:00",
    "o": 114.823,
    "h": 114.892,
    "l": 114.8,
    "c": 114.834,
    "v": 825
  },
  {
    "dt": "2020.10.29 08:00",
    "o": 114.837,
    "h": 114.839,
    "l": 114.754,
    "c": 114.804,
    "v": 946
  },
  {
    "dt": "2020.10.29 09:00",
    "o": 114.803,
    "h": 114.818,
    "l": 114.732,
    "c": 114.739,
    "v": 1229
  },
  {
    "dt": "2020.10.29 10:00",
    "o": 114.738,
    "h": 114.748,
    "l": 114.444,
    "c": 114.445,
    "v": 2745
  },
  {
    "dt": "2020.10.29 11:00",
    "o": 114.445,
    "h": 114.483,
    "l": 114.349,
    "c": 114.393,
    "v": 3395
  },
  {
    "dt": "2020.10.29 12:00",
    "o": 114.394,
    "h": 114.45,
    "l": 114.15,
    "c": 114.175,
    "v": 3072
  },
  {
    "dt": "2020.10.29 13:00",
    "o": 114.174,
    "h": 114.249,
    "l": 114.096,
    "c": 114.167,
    "v": 3180
  },
  {
    "dt": "2020.10.29 14:00",
    "o": 114.168,
    "h": 114.235,
    "l": 114.121,
    "c": 114.215,
    "v": 3229
  },
  {
    "dt": "2020.10.29 15:00",
    "o": 114.217,
    "h": 114.338,
    "l": 114.15,
    "c": 114.312,
    "v": 3866
  },
  {
    "dt": "2020.10.29 16:00",
    "o": 114.314,
    "h": 114.369,
    "l": 114.108,
    "c": 114.18,
    "v": 4683
  },
  {
    "dt": "2020.10.29 17:00",
    "o": 114.18,
    "h": 114.311,
    "l": 114.103,
    "c": 114.169,
    "v": 4219
  },
  {
    "dt": "2020.10.29 18:00",
    "o": 114.169,
    "h": 114.239,
    "l": 114.071,
    "c": 114.144,
    "v": 3501
  },
  {
    "dt": "2020.10.29 19:00",
    "o": 114.147,
    "h": 114.219,
    "l": 114.127,
    "c": 114.162,
    "v": 2422
  },
  {
    "dt": "2020.10.29 20:00",
    "o": 114.161,
    "h": 114.199,
    "l": 114.119,
    "c": 114.199,
    "v": 2262
  },
  {
    "dt": "2020.10.29 21:00",
    "o": 114.198,
    "h": 114.299,
    "l": 114.178,
    "c": 114.24,
    "v": 2252
  },
  {
    "dt": "2020.10.29 22:00",
    "o": 114.242,
    "h": 114.317,
    "l": 114.241,
    "c": 114.26,
    "v": 1648
  },
  {
    "dt": "2020.10.29 23:00",
    "o": 114.267,
    "h": 114.285,
    "l": 114.192,
    "c": 114.2,
    "v": 1056
  },
  {
    "dt": "2020.10.30 00:00",
    "o": 114.239,
    "h": 114.289,
    "l": 114.192,
    "c": 114.209,
    "v": 220
  },
  {
    "dt": "2020.10.30 01:00",
    "o": 114.197,
    "h": 114.229,
    "l": 114.181,
    "c": 114.209,
    "v": 779
  },
  {
    "dt": "2020.10.30 02:00",
    "o": 114.209,
    "h": 114.24,
    "l": 114.173,
    "c": 114.221,
    "v": 1110
  },
  {
    "dt": "2020.10.30 03:00",
    "o": 114.219,
    "h": 114.264,
    "l": 114.101,
    "c": 114.223,
    "v": 2067
  },
  {
    "dt": "2020.10.30 04:00",
    "o": 114.225,
    "h": 114.23,
    "l": 114.144,
    "c": 114.216,
    "v": 1951
  },
  {
    "dt": "2020.10.30 05:00",
    "o": 114.212,
    "h": 114.239,
    "l": 114.178,
    "c": 114.21,
    "v": 1182
  },
  {
    "dt": "2020.10.30 06:00",
    "o": 114.21,
    "h": 114.282,
    "l": 114.194,
    "c": 114.214,
    "v": 990
  },
  {
    "dt": "2020.10.30 07:00",
    "o": 114.214,
    "h": 114.228,
    "l": 114.085,
    "c": 114.098,
    "v": 1111
  },
  {
    "dt": "2020.10.30 08:00",
    "o": 114.098,
    "h": 114.102,
    "l": 113.881,
    "c": 113.995,
    "v": 2727
  },
  {
    "dt": "2020.10.30 09:00",
    "o": 113.991,
    "h": 114.087,
    "l": 113.905,
    "c": 114.057,
    "v": 1935
  },
  {
    "dt": "2020.10.30 10:00",
    "o": 114.061,
    "h": 114.146,
    "l": 114.032,
    "c": 114.036,
    "v": 2734
  },
  {
    "dt": "2020.10.30 11:00",
    "o": 114.041,
    "h": 114.119,
    "l": 113.776,
    "c": 113.924,
    "v": 3503
  },
  {
    "dt": "2020.10.30 12:00",
    "o": 113.927,
    "h": 114.039,
    "l": 113.841,
    "c": 113.992,
    "v": 3548
  },
  {
    "dt": "2020.10.30 13:00",
    "o": 113.993,
    "h": 114.041,
    "l": 113.902,
    "c": 114.008,
    "v": 3012
  },
  {
    "dt": "2020.10.30 14:00",
    "o": 114.005,
    "h": 114.05,
    "l": 113.901,
    "c": 113.953,
    "v": 2955
  },
  {
    "dt": "2020.10.30 15:00",
    "o": 113.954,
    "h": 114.235,
    "l": 113.917,
    "c": 114.229,
    "v": 3124
  },
  {
    "dt": "2020.10.30 16:00",
    "o": 114.231,
    "h": 114.461,
    "l": 114.163,
    "c": 114.198,
    "v": 3910
  },
  {
    "dt": "2020.10.30 17:00",
    "o": 114.199,
    "h": 114.334,
    "l": 114.083,
    "c": 114.269,
    "v": 3452
  },
  {
    "dt": "2020.10.30 18:00",
    "o": 114.268,
    "h": 114.355,
    "l": 113.989,
    "c": 114.053,
    "v": 3671
  },
  {
    "dt": "2020.10.30 19:00",
    "o": 114.055,
    "h": 114.178,
    "l": 114.0,
    "c": 114.12,
    "v": 3254
  },
  {
    "dt": "2020.10.30 20:00",
    "o": 114.12,
    "h": 114.126,
    "l": 114.058,
    "c": 114.116,
    "v": 1905
  },
  {
    "dt": "2020.10.30 21:00",
    "o": 114.116,
    "h": 114.146,
    "l": 114.063,
    "c": 114.141,
    "v": 1454
  },
  {
    "dt": "2020.10.30 22:00",
    "o": 114.135,
    "h": 114.182,
    "l": 114.12,
    "c": 114.161,
    "v": 1782
  },
  {
    "dt": "2020.10.30 23:00",
    "o": 114.161,
    "h": 114.183,
    "l": 114.093,
    "c": 114.093,
    "v": 1171
  }
]