[
  {
    "dt": "2023.11.01 00:00",
    "o": 1.38613,
    "h": 1.38726,
    "l": 1.38613,
    "c": 1.38703,
    "v": 471
  },
  {
    "dt": "2023.11.01 01:00",
    "o": 1.38694,
    "h": 1.3873,
    "l": 1.38676,
    "c": 1.38684,
    "v": 448
  },
  {
    "dt": "2023.11.01 02:00",
    "o": 1.38685,
    "h": 1.38771,
    "l": 1.38683,
    "c": 1.3877,
    "v": 587
  },
  {
    "dt": "2023.11.01 03:00",
    "o": 1.38768,
    "h": 1.38855,
    "l": 1.38722,
    "c": 1.38811,
    "v": 1092
  },
  {
    "dt": "2023.11.01 04:00",
    "o": 1.38809,
    "h": 1.38879,
    "l": 1.38748,
    "c": 1.38854,
    "v": 1606
  },
  {
    "dt": "2023.11.01 05:00",
    "o": 1.38856,
    "h": 1.38879,
    "l": 1.38782,
    "c": 1.38785,
    "v": 1401
  },
  {
    "dt": "2023.11.01 06:00",
    "o": 1.38784,
    "h": 1.38795,
    "l": 1.38739,
    "c": 1.38776,
    "v": 1140
  },
  {
    "dt": "2023.11.01 07:00",
    "o": 1.38781,
    "h": 1.38812,
    "l": 1.38771,
    "c": 1.38789,
    "v": 856
  },
  {
    "dt": "2023.11.01 08:00",
    "o": 1.38794,
    "h": 1.38825,
    "l": 1.38772,
    "c": 1.38816,
    "v": 1295
  },
  {
    "dt": "2023.11.01 09:00",
    "o": 1.3882,
    "h": 1.38824,
    "l": 1.38687,
    "c": 1.38687,
    "v": 931
  },
  {
    "dt": "2023.11.01 10:00",
    "o": 1.38686,
    "h": 1.38793,
    "l": 1.3862,
    "c": 1.3876,
    "v": 1234
  },
  {
    "dt": "2023.11.01 11:00",
    "o": 1.3875,
    "h": 1.38875,
    "l": 1.38729,
    "c": 1.3884,
    "v": 1537
  },
  {
    "dt": "2023.11.01 12:00",
    "o": 1.38838,
    "h": 1.38881,
    "l": 1.38739,
    "c": 1.38869,
    "v": 1546
  },
  {
    "dt": "2023.11.01 13:00",
    "o": 1.38872,
    "h": 1.38906,
    "l": 1.38774,
    "c": 1.38781,
    "v": 1252
  },
  {
    "dt": "2023.11.01 14:00",
    "o": 1.38783,
    "h": 1.38839,
    "l": 1.38745,
    "c": 1.3878,
    "v": 1198
  },
  {
    "dt": "2023.11.01 15:00",
    "o": 1.38779,
    "h": 1.38833,
    "l": 1.38624,
    "c": 1.387,
    "v": 3100
  },
  {
    "dt": "2023.11.01 16:00",
    "o": 1.38701,
    "h": 1.38906,
    "l": 1.38627,
    "c": 1.38712,
    "v": 3168
  },
  {
    "dt": "2023.11.01 17:00",
    "o": 1.38704,
    "h": 1.38756,
    "l": 1.38399,
    "c": 1.38549,
    "v": 4213
  },
  {
    "dt": "2023.11.01 18:00",
    "o": 1.38552,
    "h": 1.38816,
    "l": 1.38531,
    "c": 1.3881,
    "v": 2755
  },
  {
    "dt": "2023.11.01 19:00",
    "o": 1.38809,
    "h": 1.38904,
    "l": 1.38728,
    "c": 1.38861,
    "v": 1710
  },
  {
    "dt": "2023.11.01 20:00",
    "o": 1.3886,
    "h": 1.38963,
    "l": 1.3885,
    "c": 1.38875,
    "v": 1622
  },
  {
    "dt": "2023.11.01 21:00",
    "o": 1.38865,
    "h": 1.38973,
    "l": 1.38705,
    "c": 1.38817,
    "v": 6216
  },
  {
    "dt": "2023.11.01 22:00",
    "o": 1.3882,
    "h": 1.38822,
    "l": 1.38584,
    "c": 1.38614,
    "v": 3632
  },
  {
    "dt": "2023.11.01 23:00",
    "o": 1.38615,
    "h": 1.387,
    "l": 1.38526,
    "c": 1.38533,
    "v": 901
  },
  {
    "dt": "2023.11.02 00:00",
    "o": 1.38523,
    "h": 1.38537,
    "l": 1.38474,
    "c": 1.38486,
    "v": 374
  },
  {
    "dt": "2023.11.02 01:00",
    "o": 1.38493,
    "h": 1.38526,
    "l": 1.38452,
    "c": 1.38452,
    "v": 382
  },
  {
    "dt": "2023.11.02 02:00",
    "o": 1.38459,
    "h": 1.38463,
    "l": 1.38337,
    "c": 1.38337,
    "v": 616
  },
  {
    "dt": "2023.11.02 03:00",
    "o": 1.38336,
    "h": 1.38348,
    "l": 1.38278,
    "c": 1.38282,
    "v": 1104
  },
  {
    "dt": "2023.11.02 04:00",
    "o": 1.38284,
    "h": 1.38345,
    "l": 1.38257,
    "c": 1.38315,
    "v": 940
  },
  {
    "dt": "2023.11.02 05:00",
    "o": 1.38318,
    "h": 1.38345,
    "l": 1.38249,
    "c": 1.3825,
    "v": 697
  },
  {
    "dt": "2023.11.02 06:00",
    "o": 1.38251,
    "h": 1.38315,
    "l": 1.38233,
    "c": 1.38291,
    "v": 665
  },
  {
    "dt": "2023.11.02 07:00",
    "o": 1.38289,
    "h": 1.38344,
    "l": 1.38289,
    "c": 1.38338,
    "v": 584
  },
  {
    "dt": "2023.11.02 08:00",
    "o": 1.38337,
    "h": 1.38378,
    "l": 1.38302,
    "c": 1.38327,
    "v": 903
  },
  {
    "dt": "2023.11.02 09:00",
    "o": 1.3833,
    "h": 1.38415,
    "l": 1.38316,
    "c": 1.38328,
    "v": 752
  },
  {
    "dt": "2023.11.02 10:00",
    "o": 1.38331,
    "h": 1.38441,
    "l": 1.38331,
    "c": 1.38384,
    "v": 954
  },
  {
    "dt": "2023.11.02 11:00",
    "o": 1.38385,
    "h": 1.38503,
    "l": 1.38306,
    "c": 1.38319,
    "v": 1487
  },
  {
    "dt": "2023.11.02 12:00",
    "o": 1.38313,
    "h": 1.38322,
    "l": 1.38053,
    "c": 1.38064,
    "v": 1369
  },
  {
    "dt": "2023.11.02 13:00",
    "o": 1.38066,
    "h": 1.38232,
    "l": 1.38054,
    "c": 1.38064,
    "v": 1236
  },
  {
    "dt": "2023.11.02 14:00",
    "o": 1.38065,
    "h": 1.38096,
    "l": 1.38005,
    "c": 1.38046,
    "v": 1073
  },
  {
    "dt": "2023.11.02 15:00",
    "o": 1.38045,
    "h": 1.38161,
    "l": 1.37889,
    "c": 1.37889,
    "v": 2389
  },
  {
    "dt": "2023.11.02 16:00",
    "o": 1.37885,
    "h": 1.37967,
    "l": 1.3768,
    "c": 1.37697,
    "v": 3034
  },
  {
    "dt": "2023.11.02 17:00",
    "o": 1.37695,
    "h": 1.37978,
    "l": 1.3769,
    "c": 1.37901,
    "v": 3063
  },
  {
    "dt": "2023.11.02 18:00",
    "o": 1.37903,
    "h": 1.3804,
    "l": 1.37817,
    "c": 1.37878,
    "v": 2794
  },
  {
    "dt": "2023.11.02 19:00",
    "o": 1.37877,
    "h": 1.37943,
    "l": 1.3775,
    "c": 1.378,
    "v": 2508
  },
  {
    "dt": "2023.11.02 20:00",
    "o": 1.37801,
    "h": 1.37811,
    "l": 1.37498,
    "c": 1.37513,
    "v": 1685
  },
  {
    "dt": "2023.11.02 21:00",
    "o": 1.37512,
    "h": 1.3756,
    "l": 1.37459,
    "c": 1.37515,
    "v": 1599
  },
  {
    "dt": "2023.11.02 22:00",
    "o": 1.37516,
    "h": 1.37526,
    "l": 1.37342,
    "c": 1.37374,
    "v": 1256
  },
  {
    "dt": "2023.11.02 23:00",
    "o": 1.37374,
    "h": 1.3746,
    "l": 1.37346,
    "c": 1.37351,
    "v": 850
  },
  {
    "dt": "2023.11.03 00:00",
    "o": 1.37361,
    "h": 1.37394,
    "l": 1.37345,
    "c": 1.37394,
    "v": 379
  },
  {
    "dt": "2023.11.03 01:00",
    "o": 1.37395,
    "h": 1.37411,
    "l": 1.37379,
    "c": 1.37398,
    "v": 483
  },
  {
    "dt": "2023.11.03 02:00",
    "o": 1.37416,
    "h": 1.37477,
    "l": 1.37412,
    "c": 1.37461,
    "v": 427
  },
  {
    "dt": "2023.11.03 03:00",
    "o": 1.37461,
    "h": 1.37589,
    "l": 1.37427,
    "c": 1.37558,
    "v": 704
  },
  {
    "dt": "2023.11.03 04:00",
    "o": 1.37558,
    "h": 1.37584,
    "l": 1.37495,
    "c": 1.37515,
    "v": 1309
  },
  {
    "dt": "2023.11.03 05:00",
    "o": 1.37518,
    "h": 1.37533,
    "l": 1.37376,
    "c": 1.37399,
    "v": 1106
  },
  {
    "dt": "2023.11.03 06:00",
    "o": 1.374,
    "h": 1.3742,
    "l": 1.37361,
    "c": 1.37407,
    "v": 813
  },
  {
    "dt": "2023.11.03 07:00",
    "o": 1.37409,
    "h": 1.37411,
    "l": 1.37367,
    "c": 1.37382,
    "v": 765
  },
  {
    "dt": "2023.11.03 08:00",
    "o": 1.37383,
    "h": 1.37401,
    "l": 1.37337,
    "c": 1.37337,
    "v": 796
  },
  {
    "dt": "2023.11.03 09:00",
    "o": 1.37335,
    "h": 1.37365,
    "l": 1.37323,
    "c": 1.37355,
    "v": 852
  },
  {
    "dt": "2023.11.03 10:00",
    "o": 1.37363,
    "h": 1.374,
    "l": 1.37266,
    "c": 1.37296,
    "v": 1500
  },
  {
    "dt": "2023.11.03 11:00",
    "o": 1.37297,
    "h": 1.37437,
    "l": 1.37266,
    "c": 1.3743,
    "v": 2090
  },
  {
    "dt": "2023.11.03 12:00",
    "o": 1.37426,
    "h": 1.37539,
    "l": 1.37382,
    "c": 1.37417,
    "v": 1863
  },
  {
    "dt": "2023.11.03 13:00",
    "o": 1.37417,
    "h": 1.37448,
    "l": 1.37396,
    "c": 1.37398,
    "v": 1248
  },
  {
    "dt": "2023.11.03 14:00",
    "o": 1.37399,
    "h": 1.3744,
    "l": 1.37338,
    "c": 1.37388,
    "v": 1636
  },
  {
    "dt": "2023.11.03 15:00",
    "o": 1.37389,
    "h": 1.37427,
    "l": 1.36908,
    "c": 1.36928,
    "v": 3900
  },
  {
    "dt": "2023.11.03 16:00",
    "o": 1.36933,
    "h": 1.36991,
    "l": 1.36639,
    "c": 1.3677,
    "v": 5113
  },
  {
    "dt": "2023.11.03 17:00",
    "o": 1.36769,
    "h": 1.37061,
    "l": 1.36646,
    "c": 1.36988,
    "v": 5082
  },
  {
    "dt": "2023.11.03 18:00",
    "o": 1.36988,
    "h": 1.37023,
    "l": 1.36678,
    "c": 1.36712,
    "v": 4017
  },
  {
    "dt": "2023.11.03 19:00",
    "o": 1.3671,
    "h": 1.36848,
    "l": 1.36546,
    "c": 1.36547,
    "v": 3042
  },
  {
    "dt": "2023.11.03 20:00",
    "o": 1.36546,
    "h": 1.36819,
    "l": 1.36532,
    "c": 1.3676,
    "v": 2244
  },
  {
    "dt": "2023.11.03 21:00",
    "o": 1.36759,
    "h": 1.36775,
    "l": 1.36579,
    "c": 1.36581,
    "v": 1803
  },
  {
    "dt": "2023.11.03 22:00",
    "o": 1.36583,
    "h": 1.36691,
    "l": 1.36566,
    "c": 1.36676,
    "v": 1572
  },
  {
    "dt": "2023.11.03 23:00",
    "o": 1.36678,
    "h": 1.367,
    "l": 1.36516,
    "c": 1.36519,
    "v": 998
  },
  {
    "dt": "2023.11.06 00:00",
    "o": 1.36525,
    "h": 1.36618,
    "l": 1.36525,
    "c": 1.36594,
    "v": 300
  },
  {
    "dt": "2023.11.06 01:00",
    "o": 1.36587,
    "h": 1.36613,
    "l": 1.36557,
    "c": 1.36596,
    "v": 551
  },
  {
    "dt": "2023.11.06 02:00",
    "o": 1.36595,
    "h": 1.36645,
    "l": 1.36566,
    "c": 1.36605,
    "v": 923
  },
  {
    "dt": "2023.11.06 03:00",
    "o": 1.36606,
    "h": 1.36653,
    "l": 1.36532,
    "c": 1.36552,
    "v": 1342
  },
  {
    "dt": "2023.11.06 04:00",
    "o": 1.36551,
    "h": 1.36552,
    "l": 1.36465,
    "c": 1.36487,
    "v": 1129
  },
  {
    "dt": "2023.11.06 05:00",
    "o": 1.3649,
    "h": 1.36552,
    "l": 1.36483,
    "c": 1.36506,
    "v": 978
  },
  {
    "dt": "2023.11.06 06:00",
    "o": 1.36507,
    "h": 1.36522,
    "l": 1.36449,
    "c": 1.36505,
    "v": 686
  },
  {
    "dt": "2023.11.06 07:00",
    "o": 1.36506,
    "h": 1.36537,
    "l": 1.36482,
    "c": 1.36484,
    "v": 1135
  },
  {
    "dt": "2023.11.06 08:00",
    "o": 1.36488,
    "h": 1.36495,
    "l": 1.36425,
    "c": 1.36466,
    "v": 1244
  },
  {
    "dt": "2023.11.06 09:00",
    "o": 1.36466,
    "h": 1.36547,
    "l": 1.36421,
    "c": 1.36524,
    "v": 1752
  },
  {
    "dt": "2023.11.06 10:00",
    "o": 1.36526,
    "h": 1.36541,
    "l": 1.36321,
    "c": 1.36355,
    "v": 2210
  },
  {
    "dt": "2023.11.06 11:00",
    "o": 1.36351,
    "h": 1.36412,
    "l": 1.36278,
    "c": 1.36411,
    "v": 1734
  },
  {
    "dt": "2023.11.06 12:00",
    "o": 1.36409,
    "h": 1.36454,
    "l": 1.36337,
    "c": 1.36415,
    "v": 1405
  },
  {
    "dt": "2023.11.06 13:00",
    "o": 1.36419,
    "h": 1.36451,
    "l": 1.36341,
    "c": 1.36424,
    "v": 1181
  },
  {
    "dt": "2023.11.06 14:00",
    "o": 1.36426,
    "h": 1.36546,
    "l": 1.36394,
    "c": 1.36517,
    "v": 1572
  },
  {
    "dt": "2023.11.06 15:00",
    "o": 1.36519,
    "h": 1.36633,
    "l": 1.36479,
    "c": 1.36611,
    "v": 2550
  },
  {
    "dt": "2023.11.06 16:00",
    "o": 1.36609,
    "h": 1.36778,
    "l": 1.36546,
    "c": 1.36697,
    "v": 2895
  },
  {
    "dt": "2023.11.06 17:00",
    "o": 1.36696,
    "h": 1.3683,
    "l": 1.3665,
    "c": 1.3674,
    "v": 3087
  },
  {
    "dt": "2023.11.06 18:00",
    "o": 1.36742,
    "h": 1.36787,
    "l": 1.3661,
    "c": 1.36617,
    "v": 2207
  },
  {
    "dt": "2023.11.06 19:00",
    "o": 1.36613,
    "h": 1.36747,
    "l": 1.36598,
    "c": 1.36715,
    "v": 1629
  },
  {
    "dt": "2023.11.06 20:00",
    "o": 1.36717,
    "h": 1.36831,
    "l": 1.36685,
    "c": 1.36803,
    "v": 1714
  },
  {
    "dt": "2023.11.06 21:00",
    "o": 1.36802,
    "h": 1.3692,
    "l": 1.36791,
    "c": 1.36876,
    "v": 1957
  },
  {
    "dt": "2023.11.06 22:00",
    "o": 1.36876,
    "h": 1.36968,
    "l": 1.36876,
    "c": 1.36953,
    "v": 1585
  },
  {
    "dt": "2023.11.06 23:00",
    "o": 1.36951,
    "h": 1.37015,
    "l": 1.36951,
    "c": 1.36983,
    "v": 639
  },
  {
    "dt": "2023.11.07 00:00",
    "o": 1.36895,
    "h": 1.3695,
    "l": 1.36868,
    "c": 1.36915,
    "v": 814
  },
  {
    "dt": "2023.11.07 01:00",
    "o": 1.36959,
    "h": 1.36967,
    "l": 1.36938,
    "c": 1.36965,
    "v": 443
  },
  {
    "dt": "2023.11.07 02:00",
    "o": 1.36964,
    "h": 1.36984,
    "l": 1.36927,
    "c": 1.36969,
    "v": 664
  },
  {
    "dt": "2023.11.07 03:00",
    "o": 1.36977,
    "h": 1.37058,
    "l": 1.36976,
    "c": 1.37034,
    "v": 1498
  },
  {
    "dt": "2023.11.07 04:00",
    "o": 1.37034,
    "h": 1.37077,
    "l": 1.37005,
    "c": 1.37013,
    "v": 1284
  },
  {
    "dt": "2023.11.07 05:00",
    "o": 1.37011,
    "h": 1.37108,
    "l": 1.36988,
    "c": 1.3708,
    "v": 1725
  },
  {
    "dt": "2023.11.07 06:00",
    "o": 1.37081,
    "h": 1.37223,
    "l": 1.37081,
    "c": 1.372,
    "v": 1086
  },
  {
    "dt": "2023.11.07 07:00",
    "o": 1.37202,
    "h": 1.37241,
    "l": 1.3717,
    "c": 1.37189,
    "v": 1121
  },
  {
    "dt": "2023.11.07 08:00",
    "o": 1.37189,
    "h": 1.37316,
    "l": 1.37173,
    "c": 1.37297,
    "v": 1364
  },
  {
    "dt": "2023.11.07 09:00",
    "o": 1.37297,
    "h": 1.37394,
    "l": 1.37291,
    "c": 1.37364,
    "v": 1596
  },
  {
    "dt": "2023.11.07 10:00",
    "o": 1.37362,
    "h": 1.37362,
    "l": 1.37237,
    "c": 1.3729,
    "v": 2323
  },
  {
    "dt": "2023.11.07 11:00",
    "o": 1.37293,
    "h": 1.37484,
    "l": 1.3729,
    "c": 1.37477,
    "v": 1737
  },
  {
    "dt": "2023.11.07 12:00",
    "o": 1.37483,
    "h": 1.37539,
    "l": 1.37412,
    "c": 1.37473,
    "v": 1626
  },
  {
    "dt": "2023.11.07 13:00",
    "o": 1.37483,
    "h": 1.37586,
    "l": 1.37459,
    "c": 1.37514,
    "v": 1362
  },
  {
    "dt": "2023.11.07 14:00",
    "o": 1.37506,
    "h": 1.37535,
    "l": 1.37415,
    "c": 1.37433,
    "v": 1755
  },
  {
    "dt": "2023.11.07 15:00",
    "o": 1.37432,
    "h": 1.37567,
    "l": 1.37344,
    "c": 1.37516,
    "v": 2553
  },
  {
    "dt": "2023.11.07 16:00",
    "o": 1.37517,
    "h": 1.37671,
    "l": 1.37485,
    "c": 1.37548,
    "v": 3601
  },
  {
    "dt": "2023.11.07 17:00",
    "o": 1.37549,
    "h": 1.37602,
    "l": 1.37466,
    "c": 1.37484,
    "v": 3406
  },
  {
    "dt": "2023.11.07 18:00",
    "o": 1.37484,
    "h": 1.37722,
    "l": 1.37446,
    "c": 1.37698,
    "v": 2521
  },
  {
    "dt": "2023.11.07 19:00",
    "o": 1.37696,
    "h": 1.37811,
    "l": 1.37686,
    "c": 1.3776,
    "v": 2169
  },
  {
    "dt": "2023.11.07 20:00",
    "o": 1.37758,
    "h": 1.37771,
    "l": 1.37497,
    "c": 1.37511,
    "v": 1765
  },
  {
    "dt": "2023.11.07 21:00",
    "o": 1.37508,
    "h": 1.37608,
    "l": 1.37461,
    "c": 1.37593,
    "v": 1641
  },
  {
    "dt": "2023.11.07 22:00",
    "o": 1.37594,
    "h": 1.37641,
    "l": 1.37521,
    "c": 1.3764,
    "v": 1579
  },
  {
    "dt": "2023.11.07 23:00",
    "o": 1.37637,
    "h": 1.37662,
    "l": 1.37598,
    "c": 1.37648,
    "v": 755
  },
  {
    "dt": "2023.11.08 00:00",
    "o": 1.37611,
    "h": 1.37659,
    "l": 1.37586,
    "c": 1.3761,
    "v": 436
  },
  {
    "dt": "2023.11.08 01:00",
    "o": 1.37626,
    "h": 1.37678,
    "l": 1.37626,
    "c": 1.37673,
    "v": 364
  },
  {
    "dt": "2023.11.08 02:00",
    "o": 1.37675,
    "h": 1.37717,
    "l": 1.37666,
    "c": 1.37711,
    "v": 745
  },
  {
    "dt": "2023.11.08 03:00",
    "o": 1.37711,
    "h": 1.37731,
    "l": 1.3765,
    "c": 1.37674,
    "v": 1250
  },
  {
    "dt": "2023.11.08 04:00",
    "o": 1.37675,
    "h": 1.37697,
    "l": 1.37537,
    "c": 1.37605,
    "v": 1249
  },
  {
    "dt": "2023.11.08 05:00",
    "o": 1.37607,
    "h": 1.37709,
    "l": 1.37582,
    "c": 1.37694,
    "v": 1036
  },
  {
    "dt": "2023.11.08 06:00",
    "o": 1.37694,
    "h": 1.37723,
    "l": 1.37661,
    "c": 1.37673,
    "v": 786
  },
  {
    "dt": "2023.11.08 07:00",
    "o": 1.37672,
    "h": 1.37781,
    "l": 1.37661,
    "c": 1.37767,
    "v": 1006
  },
  {
    "dt": "2023.11.08 08:00",
    "o": 1.37769,
    "h": 1.37816,
    "l": 1.37708,
    "c": 1.37762,
    "v": 1276
  },
  {
    "dt": "2023.11.08 09:00",
    "o": 1.37765,
    "h": 1.37799,
    "l": 1.3766,
    "c": 1.37694,
    "v": 1578
  },
  {
    "dt": "2023.11.08 10:00",
    "o": 1.37694,
    "h": 1.37761,
    "l": 1.37666,
    "c": 1.37718,
    "v": 2163
  },
  {
    "dt": "2023.11.08 11:00",
    "o": 1.37718,
    "h": 1.37871,
    "l": 1.37718,
    "c": 1.37862,
    "v": 1703
  },
  {
    "dt": "2023.11.08 12:00",
    "o": 1.37862,
    "h": 1.37911,
    "l": 1.37786,
    "c": 1.37794,
    "v": 1498
  },
  {
    "dt": "2023.11.08 13:00",
    "o": 1.37793,
    "h": 1.37795,
    "l": 1.37669,
    "c": 1.37716,
    "v": 1101
  },
  {
    "dt": "2023.11.08 14:00",
    "o": 1.37717,
    "h": 1.37864,
    "l": 1.37717,
    "c": 1.37854,
    "v": 1631
  },
  {
    "dt": "2023.11.08 15:00",
    "o": 1.37857,
    "h": 1.37979,
    "l": 1.37831,
    "c": 1.37921,
    "v": 2612
  },
  {
    "dt": "2023.11.08 16:00",
    "o": 1.37919,
    "h": 1.37934,
    "l": 1.3775,
    "c": 1.37823,
    "v": 3499
  },
  {
    "dt": "2023.11.08 17:00",
    "o": 1.37827,
    "h": 1.38034,
    "l": 1.3782,
    "c": 1.37979,
    "v": 3935
  },
  {
    "dt": "2023.11.08 18:00",
    "o": 1.37977,
    "h": 1.38038,
    "l": 1.37913,
    "c": 1.3798,
    "v": 3265
  },
  {
    "dt": "2023.11.08 19:00",
    "o": 1.37978,
    "h": 1.38131,
    "l": 1.37978,
    "c": 1.38042,
    "v": 2501
  },
  {
    "dt": "2023.11.08 20:00",
    "o": 1.38038,
    "h": 1.38112,
    "l": 1.37931,
    "c": 1.3796,
    "v": 2517
  },
  {
    "dt": "2023.11.08 21:00",
    "o": 1.37961,
    "h": 1.38017,
    "l": 1.37927,
    "c": 1.38009,
    "v": 1721
  },
  {
    "dt": "2023.11.08 22:00",
    "o": 1.38011,
    "h": 1.38032,
    "l": 1.37912,
    "c": 1.37945,
    "v": 1644
  },
  {
    "dt": "2023.11.08 23:00",
    "o": 1.37948,
    "h": 1.3795,
    "l": 1.37893,
    "c": 1.379,
    "v": 751
  },
  {
    "dt": "2023.11.09 00:00",
    "o": 1.37902,
    "h": 1.37916,
    "l": 1.37859,
    "c": 1.37906,
    "v": 167
  },
  {
    "dt": "2023.11.09 01:00",
    "o": 1.37919,
    "h": 1.37939,
    "l": 1.37891,
    "c": 1.37891,
    "v": 314
  },
  {
    "dt": "2023.11.09 02:00",
    "o": 1.37891,
    "h": 1.37957,
    "l": 1.37881,
    "c": 1.37945,
    "v": 809
  },
  {
    "dt": "2023.11.09 03:00",
    "o": 1.37952,
    "h": 1.37958,
    "l": 1.37816,
    "c": 1.37868,
    "v": 1399
  },
  {
    "dt": "2023.11.09 04:00",
    "o": 1.37869,
    "h": 1.37897,
    "l": 1.37823,
    "c": 1.37892,
    "v": 1119
  },
  {
    "dt": "2023.11.09 05:00",
    "o": 1.37896,
    "h": 1.37923,
    "l": 1.37866,
    "c": 1.37908,
    "v": 936
  },
  {
    "dt": "2023.11.09 06:00",
    "o": 1.37908,
    "h": 1.3791,
    "l": 1.37865,
    "c": 1.37894,
    "v": 877
  },
  {
    "dt": "2023.11.09 07:00",
    "o": 1.37895,
    "h": 1.37946,
    "l": 1.37874,
    "c": 1.37935,
    "v": 932
  },
  {
    "dt": "2023.11.09 08:00",
    "o": 1.37932,
    "h": 1.37947,
    "l": 1.37807,
    "c": 1.37826,
    "v": 1012
  },
  {
    "dt": "2023.11.09 09:00",
    "o": 1.37825,
    "h": 1.37907,
    "l": 1.37825,
    "c": 1.37893,
    "v": 1354
  },
  {
    "dt": "2023.11.09 10:00",
    "o": 1.37893,
    "h": 1.38056,
    "l": 1.3787,
    "c": 1.37915,
    "v": 2444
  },
  {
    "dt": "2023.11.09 11:00",
    "o": 1.37909,
    "h": 1.37951,
    "l": 1.37864,
    "c": 1.37883,
    "v": 1776
  },
  {
    "dt": "2023.11.09 12:00",
    "o": 1.37882,
    "h": 1.37886,
    "l": 1.37809,
    "c": 1.37868,
    "v": 1526
  },
  {
    "dt": "2023.11.09 13:00",
    "o": 1.37867,
    "h": 1.37973,
    "l": 1.37855,
    "c": 1.37861,
    "v": 1349
  },
  {
    "dt": "2023.11.09 14:00",
    "o": 1.37862,
    "h": 1.37888,
    "l": 1.37826,
    "c": 1.37861,
    "v": 1477
  },
  {
    "dt": "2023.11.09 15:00",
    "o": 1.37858,
    "h": 1.37903,
    "l": 1.37702,
    "c": 1.37803,
    "v": 3191
  },
  {
    "dt": "2023.11.09 16:00",
    "o": 1.37803,
    "h": 1.37855,
    "l": 1.37592,
    "c": 1.37613,
    "v": 3520
  },
  {
    "dt": "2023.11.09 17:00",
    "o": 1.37612,
    "h": 1.37744,
    "l": 1.37452,
    "c": 1.37484,
    "v": 3724
  },
  {
    "dt": "2023.11.09 18:00",
    "o": 1.37485,
    "h": 1.37719,
    "l": 1.3748,
    "c": 1.37667,
    "v": 2398
  },
  {
    "dt": "2023.11.09 19:00",
    "o": 1.37664,
    "h": 1.37712,
    "l": 1.37649,
    "c": 1.37685,
    "v": 1739
  },
  {
    "dt": "2023.11.09 20:00",
    "o": 1.37685,
    "h": 1.3801,
    "l": 1.37658,
    "c": 1.3781,
    "v": 4037
  },
  {
    "dt": "2023.11.09 21:00",
    "o": 1.37817,
    "h": 1.38147,
    "l": 1.37816,
    "c": 1.38104,
    "v": 4073
  },
  {
    "dt": "2023.11.09 22:00",
    "o": 1.38103,
    "h": 1.38137,
    "l": 1.38029,
    "c": 1.38068,
    "v": 2374
  },
  {
    "dt": "2023.11.09 23:00",
    "o": 1.38066,
    "h": 1.38116,
    "l": 1.38037,
    "c": 1.38046,
    "v": 951
  },
  {
    "dt": "2023.11.10 00:00",
    "o": 1.38049,
    "h": 1.38049,
    "l": 1.37986,
    "c": 1.38033,
    "v": 194
  },
  {
    "dt": "2023.11.10 01:00",
    "o": 1.38051,
    "h": 1.38131,
    "l": 1.3805,
    "c": 1.38075,
    "v": 532
  },
  {
    "dt": "2023.11.10 02:00",
    "o": 1.3808,
    "h": 1.38133,
    "l": 1.3805,
    "c": 1.38068,
    "v": 1103
  },
  {
    "dt": "2023.11.10 03:00",
    "o": 1.38076,
    "h": 1.38087,
    "l": 1.38016,
    "c": 1.3802,
    "v": 1884
  },
  {
    "dt": "2023.11.10 04:00",
    "o": 1.38024,
    "h": 1.38066,
    "l": 1.37972,
    "c": 1.37989,
    "v": 1391
  },
  {
    "dt": "2023.11.10 05:00",
    "o": 1.3799,
    "h": 1.38025,
    "l": 1.37964,
    "c": 1.3801,
    "v": 961
  },
  {
    "dt": "2023.11.10 06:00",
    "o": 1.38012,
    "h": 1.38024,
    "l": 1.37942,
    "c": 1.37952,
    "v": 1062
  },
  {
    "dt": "2023.11.10 07:00",
    "o": 1.37954,
    "h": 1.3802,
    "l": 1.37951,
    "c": 1.37978,
    "v": 956
  },
  {
    "dt": "2023.11.10 08:00",
    "o": 1.37977,
    "h": 1.38002,
    "l": 1.379,
    "c": 1.37982,
    "v": 883
  },
  {
    "dt": "2023.11.10 09:00",
    "o": 1.37987,
    "h": 1.38022,
    "l": 1.37909,
    "c": 1.37971,
    "v": 1607
  },
  {
    "dt": "2023.11.10 10:00",
    "o": 1.37974,
    "h": 1.38036,
    "l": 1.37938,
    "c": 1.38034,
    "v": 2068
  },
  {
    "dt": "2023.11.10 11:00",
    "o": 1.3803,
    "h": 1.38132,
    "l": 1.38029,
    "c": 1.38054,
    "v": 1563
  },
  {
    "dt": "2023.11.10 12:00",
    "o": 1.38053,
    "h": 1.38154,
    "l": 1.38053,
    "c": 1.38075,
    "v": 1556
  },
  {
    "dt": "2023.11.10 13:00",
    "o": 1.3808,
    "h": 1.38168,
    "l": 1.3807,
    "c": 1.38142,
    "v": 1546
  },
  {
    "dt": "2023.11.10 14:00",
    "o": 1.38144,
    "h": 1.38185,
    "l": 1.38061,
    "c": 1.38102,
    "v": 1642
  },
  {
    "dt": "2023.11.10 15:00",
    "o": 1.38102,
    "h": 1.3822,
    "l": 1.38062,
    "c": 1.38206,
    "v": 2386
  },
  {
    "dt": "2023.11.10 16:00",
    "o": 1.38201,
    "h": 1.38362,
    "l": 1.38162,
    "c": 1.38327,
    "v": 2884
  },
  {
    "dt": "2023.11.10 17:00",
    "o": 1.38327,
    "h": 1.38532,
    "l": 1.38302,
    "c": 1.38357,
    "v": 4133
  },
  {
    "dt": "2023.11.10 18:00",
    "o": 1.38357,
    "h": 1.38384,
    "l": 1.38229,
    "c": 1.38256,
    "v": 2625
  },
  {
    "dt": "2023.11.10 19:00",
    "o": 1.38253,
    "h": 1.38302,
    "l": 1.38068,
    "c": 1.38086,
    "v": 1949
  },
  {
    "dt": "2023.11.10 20:00",
    "o": 1.38085,
    "h": 1.38156,
    "l": 1.37999,
    "c": 1.38028,
    "v": 1564
  },
  {
    "dt": "2023.11.10 21:00",
    "o": 1.38029,
    "h": 1.38086,
    "l": 1.37953,
    "c": 1.38084,
    "v": 1331
  },
  {
    "dt": "2023.11.10 22:00",
    "o": 1.38085,
    "h": 1.38097,
    "l": 1.37959,
    "c": 1.37961,
    "v": 1139
  },
  {
    "dt": "2023.11.10 23:00",
    "o": 1.37959,
    "h": 1.38002,
    "l": 1.37931,
    "c": 1.37931,
    "v": 789
  },
  {
    "dt": "2023.11.13 00:00",
    "o": 1.37938,
    "h": 1.37955,
    "l": 1.37839,
    "c": 1.3793,
    "v": 621
  },
  {
    "dt": "2023.11.13 01:00",
    "o": 1.37933,
    "h": 1.38003,
    "l": 1.37911,
    "c": 1.37961,
    "v": 508
  },
  {
    "dt": "2023.11.13 02:00",
    "o": 1.37961,
    "h": 1.38069,
    "l": 1.37959,
    "c": 1.38067,
    "v": 885
  },
  {
    "dt": "2023.11.13 03:00",
    "o": 1.38065,
    "h": 1.38132,
    "l": 1.38048,
    "c": 1.38071,
    "v": 1342
  },
  {
    "dt": "2023.11.13 04:00",
    "o": 1.38072,
    "h": 1.38148,
    "l": 1.38045,
    "c": 1.38134,
    "v": 1221
  },
  {
    "dt": "2023.11.13 05:00",
    "o": 1.38134,
    "h": 1.38181,
    "l": 1.38126,
    "c": 1.38136,
    "v": 879
  },
  {
    "dt": "2023.11.13 06:00",
    "o": 1.38136,
    "h": 1.38184,
    "l": 1.38112,
    "c": 1.38173,
    "v": 668
  },
  {
    "dt": "2023.11.13 07:00",
    "o": 1.38175,
    "h": 1.38175,
    "l": 1.38104,
    "c": 1.38116,
    "v": 835
  },
  {
    "dt": "2023.11.13 08:00",
    "o": 1.38117,
    "h": 1.38136,
    "l": 1.38056,
    "c": 1.38065,
    "v": 897
  },
  {
    "dt": "2023.11.13 09:00",
    "o": 1.38068,
    "h": 1.38078,
    "l": 1.37973,
    "c": 1.37993,
    "v": 1308
  },
  {
    "dt": "2023.11.13 10:00",
    "o": 1.37992,
    "h": 1.38118,
    "l": 1.37992,
    "c": 1.38036,
    "v": 2180
  },
  {
    "dt": "2023.11.13 11:00",
    "o": 1.38035,
    "h": 1.38066,
    "l": 1.37938,
    "c": 1.38066,
    "v": 1673
  },
  {
    "dt": "2023.11.13 12:00",
    "o": 1.38066,
    "h": 1.38102,
    "l": 1.37997,
    "c": 1.38009,
    "v": 1023
  },
  {
    "dt": "2023.11.13 13:00",
    "o": 1.38008,
    "h": 1.38084,
    "l": 1.37992,
    "c": 1.38067,
    "v": 1149
  },
  {
    "dt": "2023.11.13 14:00",
    "o": 1.38065,
    "h": 1.38249,
    "l": 1.38057,
    "c": 1.38212,
    "v": 1560
  },
  {
    "dt": "2023.11.13 15:00",
    "o": 1.38209,
    "h": 1.38304,
    "l": 1.38189,
    "c": 1.38222,
    "v": 2478
  },
  {
    "dt": "2023.11.13 16:00",
    "o": 1.3822,
    "h": 1.38275,
    "l": 1.38135,
    "c": 1.38174,
    "v": 3003
  },
  {
    "dt": "2023.11.13 17:00",
    "o": 1.38176,
    "h": 1.3821,
    "l": 1.37974,
    "c": 1.37981,
    "v": 3448
  },
  {
    "dt": "2023.11.13 18:00",
    "o": 1.3798,
    "h": 1.37988,
    "l": 1.37759,
    "c": 1.37812,
    "v": 2153
  },
  {
    "dt": "2023.11.13 19:00",
    "o": 1.37814,
    "h": 1.37926,
    "l": 1.37809,
    "c": 1.37898,
    "v": 1456
  },
  {
    "dt": "2023.11.13 20:00",
    "o": 1.37895,
    "h": 1.37988,
    "l": 1.37876,
    "c": 1.37902,
    "v": 1335
  },
  {
    "dt": "2023.11.13 21:00",
    "o": 1.37901,
    "h": 1.37994,
    "l": 1.37885,
    "c": 1.37964,
    "v": 1249
  },
  {
    "dt": "2023.11.13 22:00",
    "o": 1.37965,
    "h": 1.38006,
    "l": 1.37947,
    "c": 1.38004,
    "v": 1210
  },
  {
    "dt": "2023.11.13 23:00",
    "o": 1.38008,
    "h": 1.38069,
    "l": 1.38001,
    "c": 1.38044,
    "v": 498
  },
  {
    "dt": "2023.11.14 00:00",
    "o": 1.37955,
    "h": 1.38038,
    "l": 1.37902,
    "c": 1.37905,
    "v": 215
  },
  {
    "dt": "2023.11.14 01:00",
    "o": 1.38031,
    "h": 1.38043,
    "l": 1.37999,
    "c": 1.37999,
    "v": 351
  },
  {
    "dt": "2023.11.14 02:00",
    "o": 1.37999,
    "h": 1.38028,
    "l": 1.37979,
    "c": 1.38009,
    "v": 567
  },
  {
    "dt": "2023.11.14 03:00",
    "o": 1.38008,
    "h": 1.38042,
    "l": 1.3798,
    "c": 1.3802,
    "v": 1325
  },
  {
    "dt": "2023.11.14 04:00",
    "o": 1.38021,
    "h": 1.38063,
    "l": 1.38004,
    "c": 1.38058,
    "v": 1220
  },
  {
    "dt": "2023.11.14 05:00",
    "o": 1.3806,
    "h": 1.38132,
    "l": 1.38057,
    "c": 1.38101,
    "v": 1001
  },
  {
    "dt": "2023.11.14 06:00",
    "o": 1.38104,
    "h": 1.38135,
    "l": 1.3808,
    "c": 1.38122,
    "v": 556
  },
  {
    "dt": "2023.11.14 07:00",
    "o": 1.38123,
    "h": 1.38202,
    "l": 1.38119,
    "c": 1.38175,
    "v": 668
  },
  {
    "dt": "2023.11.14 08:00",
    "o": 1.38172,
    "h": 1.38194,
    "l": 1.38122,
    "c": 1.3814,
    "v": 590
  },
  {
    "dt": "2023.11.14 09:00",
    "o": 1.38142,
    "h": 1.38161,
    "l": 1.3808,
    "c": 1.38127,
    "v": 1200
  },
  {
    "dt": "2023.11.14 10:00",
    "o": 1.38127,
    "h": 1.38262,
    "l": 1.38066,
    "c": 1.38246,
    "v": 1809
  },
  {
    "dt": "2023.11.14 11:00",
    "o": 1.38247,
    "h": 1.38264,
    "l": 1.38136,
    "c": 1.38183,
    "v": 2076
  },
  {
    "dt": "2023.11.14 12:00",
    "o": 1.38184,
    "h": 1.38267,
    "l": 1.38173,
    "c": 1.38227,
    "v": 1756
  },
  {
    "dt": "2023.11.14 13:00",
    "o": 1.38225,
    "h": 1.3842,
    "l": 1.38221,
    "c": 1.38344,
    "v": 1542
  },
  {
    "dt": "2023.11.14 14:00",
    "o": 1.38342,
    "h": 1.38352,
    "l": 1.38285,
    "c": 1.38301,
    "v": 1190
  },
  {
    "dt": "2023.11.14 15:00",
    "o": 1.38301,
    "h": 1.38323,
    "l": 1.37548,
    "c": 1.37609,
    "v": 4571
  },
  {
    "dt": "2023.11.14 16:00",
    "o": 1.3761,
    "h": 1.37619,
    "l": 1.37328,
    "c": 1.37369,
    "v": 4839
  },
  {
    "dt": "2023.11.14 17:00",
    "o": 1.37369,
    "h": 1.37436,
    "l": 1.37205,
    "c": 1.37246,
    "v": 3881
  },
  {
    "dt": "2023.11.14 18:00",
    "o": 1.37244,
    "h": 1.37274,
    "l": 1.37072,
    "c": 1.3711,
    "v": 2969
  },
  {
    "dt": "2023.11.14 19:00",
    "o": 1.3711,
    "h": 1.37164,
    "l": 1.37054,
    "c": 1.37122,
    "v": 1975
  },
  {
    "dt": "2023.11.14 20:00",
    "o": 1.37123,
    "h": 1.37154,
    "l": 1.37015,
    "c": 1.37032,
    "v": 1561
  },
  {
    "dt": "2023.11.14 21:00",
    "o": 1.3703,
    "h": 1.3713,
    "l": 1.36948,
    "c": 1.36951,
    "v": 1611
  },
  {
    "dt": "2023.11.14 22:00",
    "o": 1.36951,
    "h": 1.36965,
    "l": 1.36831,
    "c": 1.36907,
    "v": 1390
  },
  {
    "dt": "2023.11.14 23:00",
    "o": 1.36906,
    "h": 1.36925,
    "l": 1.3689,
    "c": 1.36918,
    "v": 571
  },
  {
    "dt": "2023.11.15 00:00",
    "o": 1.36822,
    "h": 1.36919,
    "l": 1.36796,
    "c": 1.36905,
    "v": 329
  },
  {
    "dt": "2023.11.15 01:00",
    "o": 1.36923,
    "h": 1.36984,
    "l": 1.36898,
    "c": 1.36984,
    "v": 386
  },
  {
    "dt": "2023.11.15 02:00",
    "o": 1.3699,
    "h": 1.37069,
    "l": 1.36962,
    "c": 1.37034,
    "v": 917
  },
  {
    "dt": "2023.11.15 03:00",
    "o": 1.37032,
    "h": 1.37084,
    "l": 1.36991,
    "c": 1.37015,
    "v": 1372
  },
  {
    "dt": "2023.11.15 04:00",
    "o": 1.37014,
    "h": 1.37014,
    "l": 1.3685,
    "c": 1.36861,
    "v": 1190
  },
  {
    "dt": "2023.11.15 05:00",
    "o": 1.36862,
    "h": 1.36896,
    "l": 1.36829,
    "c": 1.36832,
    "v": 1007
  },
  {
    "dt": "2023.11.15 06:00",
    "o": 1.36832,
    "h": 1.36851,
    "l": 1.36795,
    "c": 1.36849,
    "v": 593
  },
  {
    "dt": "2023.11.15 07:00",
    "o": 1.3685,
    "h": 1.36881,
    "l": 1.36821,
    "c": 1.36869,
    "v": 855
  },
  {
    "dt": "2023.11.15 08:00",
    "o": 1.36869,
    "h": 1.3688,
    "l": 1.36792,
    "c": 1.36829,
    "v": 1009
  },
  {
    "dt": "2023.11.15 09:00",
    "o": 1.3682,
    "h": 1.36938,
    "l": 1.36765,
    "c": 1.36834,
    "v": 1786
  },
  {
    "dt": "2023.11.15 10:00",
    "o": 1.36836,
    "h": 1.369,
    "l": 1.36755,
    "c": 1.36847,
    "v": 2538
  },
  {
    "dt": "2023.11.15 11:00",
    "o": 1.36848,
    "h": 1.37027,
    "l": 1.36848,
    "c": 1.36959,
    "v": 2018
  },
  {
    "dt": "2023.11.15 12:00",
    "o": 1.36961,
    "h": 1.36995,
    "l": 1.36877,
    "c": 1.36891,
    "v": 1456
  },
  {
    "dt": "2023.11.15 13:00",
    "o": 1.36889,
    "h": 1.36966,
    "l": 1.36774,
    "c": 1.36774,
    "v": 1460
  },
  {
    "dt": "2023.11.15 14:00",
    "o": 1.36768,
    "h": 1.36892,
    "l": 1.36697,
    "c": 1.36723,
    "v": 1637
  },
  {
    "dt": "2023.11.15 15:00",
    "o": 1.36721,
    "h": 1.36918,
    "l": 1.36582,
    "c": 1.36805,
    "v": 3757
  },
  {
    "dt": "2023.11.15 16:00",
    "o": 1.36803,
    "h": 1.36939,
    "l": 1.36682,
    "c": 1.36873,
    "v": 4158
  },
  {
    "dt": "2023.11.15 17:00",
    "o": 1.36871,
    "h": 1.3689,
    "l": 1.36532,
    "c": 1.36587,
    "v": 3398
  },
  {
    "dt": "2023.11.15 18:00",
    "o": 1.36588,
    "h": 1.3675,
    "l": 1.36539,
    "c": 1.36651,
    "v": 2462
  },
  {
    "dt": "2023.11.15 19:00",
    "o": 1.36652,
    "h": 1.36681,
    "l": 1.36568,
    "c": 1.36648,
    "v": 1860
  },
  {
    "dt": "2023.11.15 20:00",
    "o": 1.3665,
    "h": 1.36838,
    "l": 1.3664,
    "c": 1.36791,
    "v": 1680
  },
  {
    "dt": "2023.11.15 21:00",
    "o": 1.3679,
    "h": 1.36844,
    "l": 1.36756,
    "c": 1.36811,
    "v": 1521
  },
  {
    "dt": "2023.11.15 22:00",
    "o": 1.36812,
    "h": 1.36861,
    "l": 1.36786,
    "c": 1.3681,
    "v": 1492
  },
  {
    "dt": "2023.11.15 23:00",
    "o": 1.36808,
    "h": 1.36838,
    "l": 1.36797,
    "c": 1.36812,
    "v": 576
  },
  {
    "dt": "2023.11.16 00:00",
    "o": 1.36762,
    "h": 1.36817,
    "l": 1.36735,
    "c": 1.36793,
    "v": 954
  },
  {
    "dt": "2023.11.16 01:00",
    "o": 1.36802,
    "h": 1.36821,
    "l": 1.36787,
    "c": 1.3682,
    "v": 463
  },
  {
    "dt": "2023.11.16 02:00",
    "o": 1.3682,
    "h": 1.36866,
    "l": 1.36761,
    "c": 1.36838,
    "v": 1247
  },
  {
    "dt": "2023.11.16 03:00",
    "o": 1.36839,
    "h": 1.37001,
    "l": 1.36832,
    "c": 1.36971,
    "v": 1842
  },
  {
    "dt": "2023.11.16 04:00",
    "o": 1.3697,
    "h": 1.37114,
    "l": 1.36969,
    "c": 1.37062,
    "v": 1701
  },
  {
    "dt": "2023.11.16 05:00",
    "o": 1.37064,
    "h": 1.37074,
    "l": 1.37015,
    "c": 1.37065,
    "v": 887
  },
  {
    "dt": "2023.11.16 06:00",
    "o": 1.37066,
    "h": 1.37081,
    "l": 1.37006,
    "c": 1.37017,
    "v": 541
  },
  {
    "dt": "2023.11.16 07:00",
    "o": 1.37017,
    "h": 1.37038,
    "l": 1.36971,
    "c": 1.36976,
    "v": 1089
  },
  {
    "dt": "2023.11.16 08:00",
    "o": 1.36978,
    "h": 1.36978,
    "l": 1.36897,
    "c": 1.36902,
    "v": 860
  },
  {
    "dt": "2023.11.16 09:00",
    "o": 1.36898,
    "h": 1.37044,
    "l": 1.36884,
    "c": 1.37016,
    "v": 1777
  },
  {
    "dt": "2023.11.16 10:00",
    "o": 1.37018,
    "h": 1.37039,
    "l": 1.36867,
    "c": 1.36872,
    "v": 2398
  },
  {
    "dt": "2023.11.16 11:00",
    "o": 1.36869,
    "h": 1.36984,
    "l": 1.36851,
    "c": 1.36959,
    "v": 2143
  },
  {
    "dt": "2023.11.16 12:00",
    "o": 1.36959,
    "h": 1.37046,
    "l": 1.36948,
    "c": 1.3701,
    "v": 1643
  },
  {
    "dt": "2023.11.16 13:00",
    "o": 1.37009,
    "h": 1.37091,
    "l": 1.36978,
    "c": 1.37042,
    "v": 1566
  },
  {
    "dt": "2023.11.16 14:00",
    "o": 1.37042,
    "h": 1.37342,
    "l": 1.37041,
    "c": 1.37273,
    "v": 2320
  },
  {
    "dt": "2023.11.16 15:00",
    "o": 1.37274,
    "h": 1.37292,
    "l": 1.3705,
    "c": 1.37108,
    "v": 3583
  },
  {
    "dt": "2023.11.16 16:00",
    "o": 1.37107,
    "h": 1.37456,
    "l": 1.37091,
    "c": 1.37403,
    "v": 4076
  },
  {
    "dt": "2023.11.16 17:00",
    "o": 1.37402,
    "h": 1.3756,
    "l": 1.37329,
    "c": 1.37407,
    "v": 4665
  },
  {
    "dt": "2023.11.16 18:00",
    "o": 1.37404,
    "h": 1.3775,
    "l": 1.3737,
    "c": 1.37744,
    "v": 3385
  },
  {
    "dt": "2023.11.16 19:00",
    "o": 1.37743,
    "h": 1.37755,
    "l": 1.37542,
    "c": 1.37583,
    "v": 2109
  },
  {
    "dt": "2023.11.16 20:00",
    "o": 1.37584,
    "h": 1.37672,
    "l": 1.37518,
    "c": 1.37571,
    "v": 1927
  },
  {
    "dt": "2023.11.16 21:00",
    "o": 1.37572,
    "h": 1.37627,
    "l": 1.37512,
    "c": 1.37597,
    "v": 1435
  },
  {
    "dt": "2023.11.16 22:00",
    "o": 1.37598,
    "h": 1.3768,
    "l": 1.37597,
    "c": 1.3762,
    "v": 1638
  },
  {
    "dt": "2023.11.16 23:00",
    "o": 1.37619,
    "h": 1.37626,
    "l": 1.37523,
    "c": 1.3753,
    "v": 795
  },
  {
    "dt": "2023.11.17 00:00",
    "o": 1.37522,
    "h": 1.37539,
    "l": 1.37462,
    "c": 1.37524,
    "v": 392
  },
  {
    "dt": "2023.11.17 01:00",
    "o": 1.37527,
    "h": 1.37547,
    "l": 1.37505,
    "c": 1.37512,
    "v": 257
  },
  {
    "dt": "2023.11.17 02:00",
    "o": 1.37511,
    "h": 1.37565,
    "l": 1.37486,
    "c": 1.37488,
    "v": 832
  },
  {
    "dt": "2023.11.17 03:00",
    "o": 1.37486,
    "h": 1.3753,
    "l": 1.37459,
    "c": 1.37494,
    "v": 1640
  },
  {
    "dt": "2023.11.17 04:00",
    "o": 1.37495,
    "h": 1.37538,
    "l": 1.37459,
    "c": 1.37467,
    "v": 1092
  },
  {
    "dt": "2023.11.17 05:00",
    "o": 1.37468,
    "h": 1.37501,
    "l": 1.37461,
    "c": 1.37481,
    "v": 887
  },
  {
    "dt": "2023.11.17 06:00",
    "o": 1.37481,
    "h": 1.37516,
    "l": 1.37468,
    "c": 1.37496,
    "v": 522
  },
  {
    "dt": "2023.11.17 07:00",
    "o": 1.37498,
    "h": 1.37558,
    "l": 1.37496,
    "c": 1.37496,
    "v": 706
  },
  {
    "dt": "2023.11.17 08:00",
    "o": 1.37494,
    "h": 1.37521,
    "l": 1.37477,
    "c": 1.37511,
    "v": 907
  },
  {
    "dt": "2023.11.17 09:00",
    "o": 1.3751,
    "h": 1.37664,
    "l": 1.3751,
    "c": 1.37615,
    "v": 1970
  },
  {
    "dt": "2023.11.17 10:00",
    "o": 1.37615,
    "h": 1.37693,
    "l": 1.37423,
    "c": 1.37433,
    "v": 2652
  },
  {
    "dt": "2023.11.17 11:00",
    "o": 1.3743,
    "h": 1.37467,
    "l": 1.37318,
    "c": 1.37416,
    "v": 2599
  },
  {
    "dt": "2023.11.17 12:00",
    "o": 1.37416,
    "h": 1.37427,
    "l": 1.37181,
    "c": 1.3722,
    "v": 2474
  },
  {
    "dt": "2023.11.17 13:00",
    "o": 1.37224,
    "h": 1.37332,
    "l": 1.37224,
    "c": 1.37256,
    "v": 2334
  },
  {
    "dt": "2023.11.17 14:00",
    "o": 1.37257,
    "h": 1.37331,
    "l": 1.37137,
    "c": 1.37171,
    "v": 2055
  },
  {
    "dt": "2023.11.17 15:00",
    "o": 1.37171,
    "h": 1.37274,
    "l": 1.37102,
    "c": 1.37209,
    "v": 3630
  },
  {
    "dt": "2023.11.17 16:00",
    "o": 1.37205,
    "h": 1.37316,
    "l": 1.37075,
    "c": 1.37256,
    "v": 4305
  },
  {
    "dt": "2023.11.17 17:00",
    "o": 1.37244,
    "h": 1.37294,
    "l": 1.37067,
    "c": 1.37267,
    "v": 4208
  },
  {
    "dt": "2023.11.17 18:00",
    "o": 1.37267,
    "h": 1.37452,
    "l": 1.37192,
    "c": 1.37405,
    "v": 3282
  },
  {
    "dt": "2023.11.17 19:00",
    "o": 1.37406,
    "h": 1.37407,
    "l": 1.37226,
    "c": 1.37239,
    "v": 1835
  },
  {
    "dt": "2023.11.17 20:00",
    "o": 1.37238,
    "h": 1.37266,
    "l": 1.37091,
    "c": 1.37124,
    "v": 1316
  },
  {
    "dt": "2023.11.17 21:00",
    "o": 1.37123,
    "h": 1.37193,
    "l": 1.37122,
    "c": 1.37172,
    "v": 1254
  },
  {
    "dt": "2023.11.17 22:00",
    "o": 1.37172,
    "h": 1.37172,
    "l": 1.37082,
    "c": 1.37133,
    "v": 1318
  },
  {
    "dt": "2023.11.17 23:00",
    "o": 1.37135,
    "h": 1.37177,
    "l": 1.37104,
    "c": 1.37128,
    "v": 862
  },
  {
    "dt": "2023.11.20 00:00",
    "o": 1.37106,
    "h": 1.37135,
    "l": 1.37073,
    "c": 1.37124,
    "v": 305
  },
  {
    "dt": "2023.11.20 01:00",
    "o": 1.37128,
    "h": 1.37196,
    "l": 1.37128,
    "c": 1.37196,
    "v": 648
  },
  {
    "dt": "2023.11.20 02:00",
    "o": 1.37196,
    "h": 1.37259,
    "l": 1.37195,
    "c": 1.3722,
    "v": 1193
  },
  {
    "dt": "2023.11.20 03:00",
    "o": 1.3722,
    "h": 1.37235,
    "l": 1.37102,
    "c": 1.37164,
    "v": 2073
  },
  {
    "dt": "2023.11.20 04:00",
    "o": 1.37165,
    "h": 1.37181,
    "l": 1.36987,
    "c": 1.3699,
    "v": 1704
  },
  {
    "dt": "2023.11.20 05:00",
    "o": 1.3699,
    "h": 1.37022,
    "l": 1.36962,
    "c": 1.36975,
    "v": 1294
  },
  {
    "dt": "2023.11.20 06:00",
    "o": 1.36974,
    "h": 1.36976,
    "l": 1.36885,
    "c": 1.36969,
    "v": 925
  },
  {
    "dt": "2023.11.20 07:00",
    "o": 1.3697,
    "h": 1.37057,
    "l": 1.36933,
    "c": 1.37043,
    "v": 1095
  },
  {
    "dt": "2023.11.20 08:00",
    "o": 1.37042,
    "h": 1.37053,
    "l": 1.36991,
    "c": 1.37052,
    "v": 1162
  },
  {
    "dt": "2023.11.20 09:00",
    "o": 1.37053,
    "h": 1.37073,
    "l": 1.36952,
    "c": 1.37051,
    "v": 2183
  },
  {
    "dt": "2023.11.20 10:00",
    "o": 1.37047,
    "h": 1.37161,
    "l": 1.36979,
    "c": 1.37159,
    "v": 2870
  },
  {
    "dt": "2023.11.20 11:00",
    "o": 1.37159,
    "h": 1.37165,
    "l": 1.36981,
    "c": 1.36988,
    "v": 2447
  },
  {
    "dt": "2023.11.20 12:00",
    "o": 1.36987,
    "h": 1.37106,
    "l": 1.36984,
    "c": 1.37079,
    "v": 1627
  },
  {
    "dt": "2023.11.20 13:00",
    "o": 1.37081,
    "h": 1.372,
    "l": 1.37055,
    "c": 1.3717,
    "v": 1668
  },
  {
    "dt": "2023.11.20 14:00",
    "o": 1.37166,
    "h": 1.37251,
    "l": 1.37148,
    "c": 1.37208,
    "v": 1756
  },
  {
    "dt": "2023.11.20 15:00",
    "o": 1.37199,
    "h": 1.37247,
    "l": 1.37102,
    "c": 1.37124,
    "v": 2593
  },
  {
    "dt": "2023.11.20 16:00",
    "o": 1.37122,
    "h": 1.37452,
    "l": 1.37072,
    "c": 1.37383,
    "v": 3282
  },
  {
    "dt": "2023.11.20 17:00",
    "o": 1.37386,
    "h": 1.37479,
    "l": 1.37272,
    "c": 1.37285,
    "v": 3173
  },
  {
    "dt": "2023.11.20 18:00",
    "o": 1.37286,
    "h": 1.37357,
    "l": 1.37183,
    "c": 1.37183,
    "v": 2257
  },
  {
    "dt": "2023.11.20 19:00",
    "o": 1.37189,
    "h": 1.37315,
    "l": 1.37156,
    "c": 1.3725,
    "v": 1545
  },
  {
    "dt": "2023.11.20 20:00",
    "o": 1.37252,
    "h": 1.37267,
    "l": 1.37107,
    "c": 1.37216,
    "v": 1994
  },
  {
    "dt": "2023.11.20 21:00",
    "o": 1.37216,
    "h": 1.37302,
    "l": 1.37199,
    "c": 1.37213,
    "v": 1350
  },
  {
    "dt": "2023.11.20 22:00",
    "o": 1.37215,
    "h": 1.37258,
    "l": 1.37186,
    "c": 1.37234,
    "v": 1141
  },
  {
    "dt": "2023.11.20 23:00",
    "o": 1.37237,
    "h": 1.37274,
    "l": 1.37218,
    "c": 1.37229,
    "v": 506
  },
  {
    "dt": "2023.11.21 00:00",
    "o": 1.37157,
    "h": 1.37236,
    "l": 1.37125,
    "c": 1.37205,
    "v": 1267
  },
  {
    "dt": "2023.11.21 01:00",
    "o": 1.37208,
    "h": 1.37252,
    "l": 1.37196,
    "c": 1.37252,
    "v": 313
  },
  {
    "dt": "2023.11.21 02:00",
    "o": 1.37257,
    "h": 1.37284,
    "l": 1.37138,
    "c": 1.37182,
    "v": 834
  },
  {
    "dt": "2023.11.21 03:00",
    "o": 1.37179,
    "h": 1.37213,
    "l": 1.371,
    "c": 1.37141,
    "v": 2317
  },
  {
    "dt": "2023.11.21 04:00",
    "o": 1.37143,
    "h": 1.37181,
    "l": 1.37065,
    "c": 1.37081,
    "v": 1891
  },
  {
    "dt": "2023.11.21 05:00",
    "o": 1.37078,
    "h": 1.37104,
    "l": 1.37038,
    "c": 1.37076,
    "v": 1337
  },
  {
    "dt": "2023.11.21 06:00",
    "o": 1.37076,
    "h": 1.37128,
    "l": 1.37036,
    "c": 1.37121,
    "v": 1159
  },
  {
    "dt": "2023.11.21 07:00",
    "o": 1.37121,
    "h": 1.37232,
    "l": 1.37079,
    "c": 1.37224,
    "v": 1373
  },
  {
    "dt": "2023.11.21 08:00",
    "o": 1.37223,
    "h": 1.37259,
    "l": 1.372,
    "c": 1.37241,
    "v": 1263
  },
  {
    "dt": "2023.11.21 09:00",
    "o": 1.37241,
    "h": 1.37256,
    "l": 1.37155,
    "c": 1.37226,
    "v": 2128
  },
  {
    "dt": "2023.11.21 10:00",
    "o": 1.37225,
    "h": 1.37298,
    "l": 1.37165,
    "c": 1.37221,
    "v": 2794
  },
  {
    "dt": "2023.11.21 11:00",
    "o": 1.37222,
    "h": 1.37293,
    "l": 1.37107,
    "c": 1.37272,
    "v": 2211
  },
  {
    "dt": "2023.11.21 12:00",
    "o": 1.37273,
    "h": 1.37291,
    "l": 1.36982,
    "c": 1.37038,
    "v": 1787
  },
  {
    "dt": "2023.11.21 13:00",
    "o": 1.37041,
    "h": 1.37144,
    "l": 1.37012,
    "c": 1.37115,
    "v": 1607
  },
  {
    "dt": "2023.11.21 14:00",
    "o": 1.37113,
    "h": 1.37232,
    "l": 1.37016,
    "c": 1.3722,
    "v": 1715
  },
  {
    "dt": "2023.11.21 15:00",
    "o": 1.37219,
    "h": 1.3723,
    "l": 1.36936,
    "c": 1.37064,
    "v": 3620
  },
  {
    "dt": "2023.11.21 16:00",
    "o": 1.37062,
    "h": 1.37104,
    "l": 1.36896,
    "c": 1.36942,
    "v": 3688
  },
  {
    "dt": "2023.11.21 17:00",
    "o": 1.36942,
    "h": 1.37026,
    "l": 1.36811,
    "c": 1.36883,
    "v": 4139
  },
  {
    "dt": "2023.11.21 18:00",
    "o": 1.36885,
    "h": 1.36933,
    "l": 1.36797,
    "c": 1.36902,
    "v": 2942
  },
  {
    "dt": "2023.11.21 19:00",
    "o": 1.36898,
    "h": 1.36962,
    "l": 1.36873,
    "c": 1.36919,
    "v": 1799
  },
  {
    "dt": "2023.11.21 20:00",
    "o": 1.3692,
    "h": 1.37021,
    "l": 1.36914,
    "c": 1.36954,
    "v": 1538
  },
  {
    "dt": "2023.11.21 21:00",
    "o": 1.36935,
    "h": 1.3704,
    "l": 1.36913,
    "c": 1.36985,
    "v": 2214
  },
  {
    "dt": "2023.11.21 22:00",
    "o": 1.36981,
    "h": 1.37027,
    "l": 1.36957,
    "c": 1.36968,
    "v": 1692
  },
  {
    "dt": "2023.11.21 23:00",
    "o": 1.36968,
    "h": 1.37029,
    "l": 1.36948,
    "c": 1.37009,
    "v": 1301
  },
  {
    "dt": "2023.11.22 00:00",
    "o": 1.3697,
    "h": 1.37001,
    "l": 1.36937,
    "c": 1.36971,
    "v": 212
  },
  {
    "dt": "2023.11.22 01:00",
    "o": 1.36976,
    "h": 1.37006,
    "l": 1.36964,
    "c": 1.36996,
    "v": 340
  },
  {
    "dt": "2023.11.22 02:00",
    "o": 1.36995,
    "h": 1.37005,
    "l": 1.36968,
    "c": 1.36985,
    "v": 754
  },
  {
    "dt": "2023.11.22 03:00",
    "o": 1.36985,
    "h": 1.37015,
    "l": 1.36891,
    "c": 1.37015,
    "v": 1732
  },
  {
    "dt": "2023.11.22 04:00",
    "o": 1.37018,
    "h": 1.37044,
    "l": 1.36968,
    "c": 1.37004,
    "v": 1292
  },
  {
    "dt": "2023.11.22 05:00",
    "o": 1.37004,
    "h": 1.37044,
    "l": 1.36964,
    "c": 1.37031,
    "v": 1062
  },
  {
    "dt": "2023.11.22 06:00",
    "o": 1.37032,
    "h": 1.37037,
    "l": 1.36992,
    "c": 1.37006,
    "v": 824
  },
  {
    "dt": "2023.11.22 07:00",
    "o": 1.37006,
    "h": 1.37099,
    "l": 1.36992,
    "c": 1.37092,
    "v": 1319
  },
  {
    "dt": "2023.11.22 08:00",
    "o": 1.3709,
    "h": 1.37241,
    "l": 1.37088,
    "c": 1.37217,
    "v": 1405
  },
  {
    "dt": "2023.11.22 09:00",
    "o": 1.37216,
    "h": 1.37221,
    "l": 1.3709,
    "c": 1.37131,
    "v": 1719
  },
  {
    "dt": "2023.11.22 10:00",
    "o": 1.37134,
    "h": 1.37268,
    "l": 1.37044,
    "c": 1.37221,
    "v": 2603
  },
  {
    "dt": "2023.11.22 11:00",
    "o": 1.37219,
    "h": 1.3722,
    "l": 1.37058,
    "c": 1.37104,
    "v": 2145
  },
  {
    "dt": "2023.11.22 12:00",
    "o": 1.37105,
    "h": 1.37126,
    "l": 1.37034,
    "c": 1.37039,
    "v": 2002
  },
  {
    "dt": "2023.11.22 13:00",
    "o": 1.37039,
    "h": 1.37092,
    "l": 1.36975,
    "c": 1.37064,
    "v": 1910
  },
  {
    "dt": "2023.11.22 14:00",
    "o": 1.37065,
    "h": 1.3723,
    "l": 1.37013,
    "c": 1.37108,
    "v": 2453
  },
  {
    "dt": "2023.11.22 15:00",
    "o": 1.3711,
    "h": 1.3743,
    "l": 1.37067,
    "c": 1.37303,
    "v": 4556
  },
  {
    "dt": "2023.11.22 16:00",
    "o": 1.37299,
    "h": 1.37522,
    "l": 1.37282,
    "c": 1.37455,
    "v": 4049
  },
  {
    "dt": "2023.11.22 17:00",
    "o": 1.37455,
    "h": 1.3764,
    "l": 1.37387,
    "c": 1.3743,
    "v": 4546
  },
  {
    "dt": "2023.11.22 18:00",
    "o": 1.37431,
    "h": 1.37448,
    "l": 1.37321,
    "c": 1.3733,
    "v": 2796
  },
  {
    "dt": "2023.11.22 19:00",
    "o": 1.3733,
    "h": 1.37336,
    "l": 1.3707,
    "c": 1.37071,
    "v": 2124
  },
  {
    "dt": "2023.11.22 20:00",
    "o": 1.37073,
    "h": 1.37074,
    "l": 1.36921,
    "c": 1.37024,
    "v": 1604
  },
  {
    "dt": "2023.11.22 21:00",
    "o": 1.37012,
    "h": 1.3711,
    "l": 1.36952,
    "c": 1.3701,
    "v": 1957
  },
  {
    "dt": "2023.11.22 22:00",
    "o": 1.37011,
    "h": 1.37027,
    "l": 1.36916,
    "c": 1.36926,
    "v": 1333
  },
  {
    "dt": "2023.11.22 23:00",
    "o": 1.36921,
    "h": 1.36926,
    "l": 1.36846,
    "c": 1.36856,
    "v": 608
  },
  {
    "dt": "2023.11.23 00:00",
    "o": 1.3686,
    "h": 1.36872,
    "l": 1.3684,
    "c": 1.36855,
    "v": 338
  },
  {
    "dt": "2023.11.23 01:00",
    "o": 1.36862,
    "h": 1.36915,
    "l": 1.36855,
    "c": 1.3691,
    "v": 275
  },
  {
    "dt": "2023.11.23 02:00",
    "o": 1.36912,
    "h": 1.36912,
    "l": 1.36846,
    "c": 1.36846,
    "v": 566
  },
  {
    "dt": "2023.11.23 03:00",
    "o": 1.36847,
    "h": 1.36917,
    "l": 1.36844,
    "c": 1.36855,
    "v": 1510
  },
  {
    "dt": "2023.11.23 04:00",
    "o": 1.36854,
    "h": 1.36856,
    "l": 1.36797,
    "c": 1.36811,
    "v": 1001
  },
  {
    "dt": "2023.11.23 05:00",
    "o": 1.36809,
    "h": 1.36863,
    "l": 1.36803,
    "c": 1.36805,
    "v": 777
  },
  {
    "dt": "2023.11.23 06:00",
    "o": 1.36804,
    "h": 1.36827,
    "l": 1.36789,
    "c": 1.36803,
    "v": 455
  },
  {
    "dt": "2023.11.23 07:00",
    "o": 1.36805,
    "h": 1.36816,
    "l": 1.36633,
    "c": 1.36643,
    "v": 745
  },
  {
    "dt": "2023.11.23 08:00",
    "o": 1.36636,
    "h": 1.36643,
    "l": 1.36568,
    "c": 1.3661,
    "v": 1339
  },
  {
    "dt": "2023.11.23 09:00",
    "o": 1.36614,
    "h": 1.36656,
    "l": 1.36495,
    "c": 1.3657,
    "v": 1776
  },
  {
    "dt": "2023.11.23 10:00",
    "o": 1.36573,
    "h": 1.36718,
    "l": 1.36535,
    "c": 1.36639,
    "v": 2604
  },
  {
    "dt": "2023.11.23 11:00",
    "o": 1.36638,
    "h": 1.36877,
    "l": 1.36608,
    "c": 1.36829,
    "v": 2394
  },
  {
    "dt": "2023.11.23 12:00",
    "o": 1.36829,
    "h": 1.36881,
    "l": 1.36802,
    "c": 1.36826,
    "v": 1506
  },
  {
    "dt": "2023.11.23 13:00",
    "o": 1.36825,
    "h": 1.36857,
    "l": 1.36748,
    "c": 1.36821,
    "v": 1337
  },
  {
    "dt": "2023.11.23 14:00",
    "o": 1.36823,
    "h": 1.37002,
    "l": 1.36817,
    "c": 1.36996,
    "v": 1417
  },
  {
    "dt": "2023.11.23 15:00",
    "o": 1.36996,
    "h": 1.37096,
    "l": 1.36986,
    "c": 1.37031,
    "v": 1996
  },
  {
    "dt": "2023.11.23 16:00",
    "o": 1.3703,
    "h": 1.37085,
    "l": 1.3699,
    "c": 1.37037,
    "v": 2287
  },
  {
    "dt": "2023.11.23 17:00",
    "o": 1.37041,
    "h": 1.37057,
    "l": 1.36897,
    "c": 1.36978,
    "v": 1853
  },
  {
    "dt": "2023.11.23 18:00",
    "o": 1.36978,
    "h": 1.37011,
    "l": 1.36927,
    "c": 1.36933,
    "v": 1026
  },
  {
    "dt": "2023.11.23 19:00",
    "o": 1.36934,
    "h": 1.37002,
    "l": 1.36908,
    "c": 1.36963,
    "v": 459
  },
  {
    "dt": "2023.11.23 20:00",
    "o": 1.36963,
    "h": 1.37004,
    "l": 1.36963,
    "c": 1.36963,
    "v": 207
  },
  {
    "dt": "2023.11.23 21:00",
    "o": 1.36963,
    "h": 1.36972,
    "l": 1.36888,
    "c": 1.36943,
    "v": 314
  },
  {
    "dt": "2023.11.23 22:00",
    "o": 1.36938,
    "h": 1.36951,
    "l": 1.36931,
    "c": 1.36944,
    "v": 403
  },
  {
    "dt": "2023.11.23 23:00",
    "o": 1.36944,
    "h": 1.36985,
    "l": 1.36936,
    "c": 1.3695,
    "v": 385
  },
  {
    "dt": "2023.11.24 00:00",
    "o": 1.36882,
    "h": 1.36955,
    "l": 1.36876,
    "c": 1.36907,
    "v": 366
  },
  {
    "dt": "2023.11.24 01:00",
    "o": 1.36917,
    "h": 1.36956,
    "l": 1.36917,
    "c": 1.36948,
    "v": 482
  },
  {
    "dt": "2023.11.24 02:00",
    "o": 1.36948,
    "h": 1.36952,
    "l": 1.36909,
    "c": 1.36917,
    "v": 684
  },
  {
    "dt": "2023.11.24 03:00",
    "o": 1.36918,
    "h": 1.36991,
    "l": 1.36912,
    "c": 1.36954,
    "v": 1373
  },
  {
    "dt": "2023.11.24 04:00",
    "o": 1.36954,
    "h": 1.37072,
    "l": 1.3695,
    "c": 1.37061,
    "v": 1236
  },
  {
    "dt": "2023.11.24 05:00",
    "o": 1.37063,
    "h": 1.37102,
    "l": 1.37045,
    "c": 1.37048,
    "v": 754
  },
  {
    "dt": "2023.11.24 06:00",
    "o": 1.37051,
    "h": 1.37068,
    "l": 1.37014,
    "c": 1.37014,
    "v": 550
  },
  {
    "dt": "2023.11.24 07:00",
    "o": 1.37014,
    "h": 1.37017,
    "l": 1.36954,
    "c": 1.36961,
    "v": 731
  },
  {
    "dt": "2023.11.24 08:00",
    "o": 1.36962,
    "h": 1.37031,
    "l": 1.36962,
    "c": 1.36996,
    "v": 1028
  },
  {
    "dt": "2023.11.24 09:00",
    "o": 1.36996,
    "h": 1.37055,
    "l": 1.3692,
    "c": 1.36937,
    "v": 1451
  },
  {
    "dt": "2023.11.24 10:00",
    "o": 1.36939,
    "h": 1.36976,
    "l": 1.36849,
    "c": 1.36856,
    "v": 1951
  },
  {
    "dt": "2023.11.24 11:00",
    "o": 1.36857,
    "h": 1.36915,
    "l": 1.36798,
    "c": 1.36911,
    "v": 1764
  },
  {
    "dt": "2023.11.24 12:00",
    "o": 1.36912,
    "h": 1.36929,
    "l": 1.3684,
    "c": 1.36868,
    "v": 1338
  },
  {
    "dt": "2023.11.24 13:00",
    "o": 1.36862,
    "h": 1.36898,
    "l": 1.36814,
    "c": 1.36833,
    "v": 1279
  },
  {
    "dt": "2023.11.24 14:00",
    "o": 1.36824,
    "h": 1.36839,
    "l": 1.36742,
    "c": 1.36792,
    "v": 1682
  },
  {
    "dt": "2023.11.24 15:00",
    "o": 1.36788,
    "h": 1.3687,
    "l": 1.36528,
    "c": 1.36578,
    "v": 2818
  },
  {
    "dt": "2023.11.24 16:00",
    "o": 1.36581,
    "h": 1.36599,
    "l": 1.36057,
    "c": 1.36072,
    "v": 3559
  },
  {
    "dt": "2023.11.24 17:00",
    "o": 1.36072,
    "h": 1.36125,
    "l": 1.35927,
    "c": 1.36,
    "v": 3171
  },
  {
    "dt": "2023.11.24 18:00",
    "o": 1.36001,
    "h": 1.3611,
    "l": 1.35965,
    "c": 1.3609,
    "v": 2069
  },
  {
    "dt": "2023.11.24 19:00",
    "o": 1.36095,
    "h": 1.36173,
    "l": 1.36081,
    "c": 1.36084,
    "v": 1497
  },
  {
    "dt": "2023.11.24 20:00",
    "o": 1.36085,
    "h": 1.36453,
    "l": 1.36052,
    "c": 1.36169,
    "v": 835
  },
  {
    "dt": "2023.11.24 21:00",
    "o": 1.36174,
    "h": 1.36212,
    "l": 1.3611,
    "c": 1.36203,
    "v": 864
  },
  {
    "dt": "2023.11.24 22:00",
    "o": 1.36199,
    "h": 1.36327,
    "l": 1.36132,
    "c": 1.36303,
    "v": 1576
  },
  {
    "dt": "2023.11.24 23:00",
    "o": 1.36309,
    "h": 1.36338,
    "l": 1.36196,
    "c": 1.36252,
    "v": 779
  },
  {
    "dt": "2023.11.27 00:00",
    "o": 1.36304,
    "h": 1.36339,
    "l": 1.36304,
    "c": 1.36338,
    "v": 376
  },
  {
    "dt": "2023.11.27 01:00",
    "o": 1.36283,
    "h": 1.36301,
    "l": 1.36223,
    "c": 1.36298,
    "v": 532
  },
  {
    "dt": "2023.11.27 02:00",
    "o": 1.36302,
    "h": 1.36377,
    "l": 1.36284,
    "c": 1.36369,
    "v": 1011
  },
  {
    "dt": "2023.11.27 03:00",
    "o": 1.36369,
    "h": 1.36392,
    "l": 1.36232,
    "c": 1.36297,
    "v": 1740
  },
  {
    "dt": "2023.11.27 04:00",
    "o": 1.36298,
    "h": 1.36502,
    "l": 1.36297,
    "c": 1.36476,
    "v": 1284
  },
  {
    "dt": "2023.11.27 05:00",
    "o": 1.36471,
    "h": 1.36589,
    "l": 1.36457,
    "c": 1.36541,
    "v": 1130
  },
  {
    "dt": "2023.11.27 06:00",
    "o": 1.36542,
    "h": 1.36596,
    "l": 1.36509,
    "c": 1.36528,
    "v": 611
  },
  {
    "dt": "2023.11.27 07:00",
    "o": 1.36529,
    "h": 1.36538,
    "l": 1.36471,
    "c": 1.36508,
    "v": 757
  },
  {
    "dt": "2023.11.27 08:00",
    "o": 1.36509,
    "h": 1.36532,
    "l": 1.36416,
    "c": 1.36444,
    "v": 1007
  },
  {
    "dt": "2023.11.27 09:00",
    "o": 1.36435,
    "h": 1.36437,
    "l": 1.36289,
    "c": 1.36322,
    "v": 1320
  },
  {
    "dt": "2023.11.27 10:00",
    "o": 1.36323,
    "h": 1.36434,
    "l": 1.3621,
    "c": 1.36385,
    "v": 1945
  },
  {
    "dt": "2023.11.27 11:00",
    "o": 1.36385,
    "h": 1.365,
    "l": 1.36372,
    "c": 1.36498,
    "v": 2054
  },
  {
    "dt": "2023.11.27 12:00",
    "o": 1.36497,
    "h": 1.36577,
    "l": 1.36368,
    "c": 1.36374,
    "v": 1733
  },
  {
    "dt": "2023.11.27 13:00",
    "o": 1.36372,
    "h": 1.36445,
    "l": 1.36294,
    "c": 1.36299,
    "v": 1291
  },
  {
    "dt": "2023.11.27 14:00",
    "o": 1.36301,
    "h": 1.36363,
    "l": 1.36209,
    "c": 1.36318,
    "v": 1793
  },
  {
    "dt": "2023.11.27 15:00",
    "o": 1.36317,
    "h": 1.36443,
    "l": 1.36254,
    "c": 1.3641,
    "v": 3243
  },
  {
    "dt": "2023.11.27 16:00",
    "o": 1.3641,
    "h": 1.3649,
    "l": 1.3635,
    "c": 1.36457,
    "v": 3502
  },
  {
    "dt": "2023.11.27 17:00",
    "o": 1.36457,
    "h": 1.36521,
    "l": 1.36342,
    "c": 1.36358,
    "v": 4064
  },
  {
    "dt": "2023.11.27 18:00",
    "o": 1.36354,
    "h": 1.36418,
    "l": 1.36287,
    "c": 1.36336,
    "v": 2860
  },
  {
    "dt": "2023.11.27 19:00",
    "o": 1.36336,
    "h": 1.36443,
    "l": 1.36323,
    "c": 1.36396,
    "v": 1599
  },
  {
    "dt": "2023.11.27 20:00",
    "o": 1.36396,
    "h": 1.36426,
    "l": 1.36236,
    "c": 1.36264,
    "v": 1557
  },
  {
    "dt": "2023.11.27 21:00",
    "o": 1.36264,
    "h": 1.36269,
    "l": 1.36183,
    "c": 1.36221,
    "v": 1207
  },
  {
    "dt": "2023.11.27 22:00",
    "o": 1.3622,
    "h": 1.36265,
    "l": 1.3614,
    "c": 1.36144,
    "v": 1356
  },
  {
    "dt": "2023.11.27 23:00",
    "o": 1.36143,
    "h": 1.36167,
    "l": 1.36122,
    "c": 1.36135,
    "v": 569
  },
  {
    "dt": "2023.11.28 00:00",
    "o": 1.36125,
    "h": 1.36189,
    "l": 1.36116,
    "c": 1.36133,
    "v": 529
  },
  {
    "dt": "2023.11.28 01:00",
    "o": 1.36134,
    "h": 1.36146,
    "l": 1.3604,
    "c": 1.36049,
    "v": 511
  },
  {
    "dt": "2023.11.28 02:00",
    "o": 1.36045,
    "h": 1.36078,
    "l": 1.3602,
    "c": 1.36067,
    "v": 1061
  },
  {
    "dt": "2023.11.28 03:00",
    "o": 1.36062,
    "h": 1.361,
    "l": 1.36004,
    "c": 1.36062,
    "v": 1578
  },
  {
    "dt": "2023.11.28 04:00",
    "o": 1.36062,
    "h": 1.36076,
    "l": 1.35976,
    "c": 1.36026,
    "v": 1219
  },
  {
    "dt": "2023.11.28 05:00",
    "o": 1.36028,
    "h": 1.36056,
    "l": 1.36018,
    "c": 1.36035,
    "v": 801
  },
  {
    "dt": "2023.11.28 06:00",
    "o": 1.36033,
    "h": 1.3605,
    "l": 1.36009,
    "c": 1.36034,
    "v": 590
  },
  {
    "dt": "2023.11.28 07:00",
    "o": 1.36034,
    "h": 1.36069,
    "l": 1.36021,
    "c": 1.36051,
    "v": 788
  },
  {
    "dt": "2023.11.28 08:00",
    "o": 1.36052,
    "h": 1.36063,
    "l": 1.35921,
    "c": 1.35939,
    "v": 882
  },
  {
    "dt": "2023.11.28 09:00",
    "o": 1.3594,
    "h": 1.36018,
    "l": 1.35939,
    "c": 1.35972,
    "v": 1506
  },
  {
    "dt": "2023.11.28 10:00",
    "o": 1.35977,
    "h": 1.36059,
    "l": 1.35899,
    "c": 1.36021,
    "v": 1994
  },
  {
    "dt": "2023.11.28 11:00",
    "o": 1.36021,
    "h": 1.36064,
    "l": 1.35848,
    "c": 1.35848,
    "v": 1589
  },
  {
    "dt": "2023.11.28 12:00",
    "o": 1.35846,
    "h": 1.35872,
    "l": 1.35738,
    "c": 1.3583,
    "v": 1427
  },
  {
    "dt": "2023.11.28 13:00",
    "o": 1.35827,
    "h": 1.35927,
    "l": 1.35766,
    "c": 1.35838,
    "v": 1390
  },
  {
    "dt": "2023.11.28 14:00",
    "o": 1.35838,
    "h": 1.35956,
    "l": 1.35728,
    "c": 1.35934,
    "v": 1673
  },
  {
    "dt": "2023.11.28 15:00",
    "o": 1.35934,
    "h": 1.36123,
    "l": 1.359,
    "c": 1.35946,
    "v": 3380
  },
  {
    "dt": "2023.11.28 16:00",
    "o": 1.35945,
    "h": 1.35999,
    "l": 1.35757,
    "c": 1.35884,
    "v": 4333
  },
  {
    "dt": "2023.11.28 17:00",
    "o": 1.35885,
    "h": 1.36053,
    "l": 1.35745,
    "c": 1.35814,
    "v": 4269
  },
  {
    "dt": "2023.11.28 18:00",
    "o": 1.35813,
    "h": 1.35898,
    "l": 1.35608,
    "c": 1.35628,
    "v": 3581
  },
  {
    "dt": "2023.11.28 19:00",
    "o": 1.35628,
    "h": 1.3578,
    "l": 1.3559,
    "c": 1.35753,
    "v": 2158
  },
  {
    "dt": "2023.11.28 20:00",
    "o": 1.35752,
    "h": 1.35863,
    "l": 1.35728,
    "c": 1.35759,
    "v": 2323
  },
  {
    "dt": "2023.11.28 21:00",
    "o": 1.35761,
    "h": 1.35764,
    "l": 1.35603,
    "c": 1.3565,
    "v": 1488
  },
  {
    "dt": "2023.11.28 22:00",
    "o": 1.35651,
    "h": 1.35798,
    "l": 1.35651,
    "c": 1.35724,
    "v": 1550
  },
  {
    "dt": "2023.11.28 23:00",
    "o": 1.35735,
    "h": 1.35766,
    "l": 1.35687,
    "c": 1.35712,
    "v": 784
  },
  {
    "dt": "2023.11.29 00:00",
    "o": 1.35648,
    "h": 1.3574,
    "l": 1.35648,
    "c": 1.3571,
    "v": 213
  },
  {
    "dt": "2023.11.29 01:00",
    "o": 1.35705,
    "h": 1.35709,
    "l": 1.35625,
    "c": 1.35649,
    "v": 597
  },
  {
    "dt": "2023.11.29 02:00",
    "o": 1.35647,
    "h": 1.35667,
    "l": 1.35524,
    "c": 1.3554,
    "v": 1087
  },
  {
    "dt": "2023.11.29 03:00",
    "o": 1.35537,
    "h": 1.35537,
    "l": 1.35408,
    "c": 1.35446,
    "v": 2257
  },
  {
    "dt": "2023.11.29 04:00",
    "o": 1.35442,
    "h": 1.35489,
    "l": 1.35398,
    "c": 1.3542,
    "v": 1355
  },
  {
    "dt": "2023.11.29 05:00",
    "o": 1.35419,
    "h": 1.35474,
    "l": 1.35414,
    "c": 1.35466,
    "v": 1029
  },
  {
    "dt": "2023.11.29 06:00",
    "o": 1.35466,
    "h": 1.35486,
    "l": 1.35462,
    "c": 1.35468,
    "v": 628
  },
  {
    "dt": "2023.11.29 07:00",
    "o": 1.35468,
    "h": 1.35507,
    "l": 1.35433,
    "c": 1.3547,
    "v": 952
  },
  {
    "dt": "2023.11.29 08:00",
    "o": 1.35469,
    "h": 1.35543,
    "l": 1.35421,
    "c": 1.35451,
    "v": 1332
  },
  {
    "dt": "2023.11.29 09:00",
    "o": 1.35451,
    "h": 1.35655,
    "l": 1.35451,
    "c": 1.35643,
    "v": 1921
  },
  {
    "dt": "2023.11.29 10:00",
    "o": 1.35648,
    "h": 1.35731,
    "l": 1.35573,
    "c": 1.35665,
    "v": 2714
  },
  {
    "dt": "2023.11.29 11:00",
    "o": 1.35665,
    "h": 1.35817,
    "l": 1.35633,
    "c": 1.35761,
    "v": 1837
  },
  {
    "dt": "2023.11.29 12:00",
    "o": 1.35761,
    "h": 1.3593,
    "l": 1.35733,
    "c": 1.35858,
    "v": 1938
  },
  {
    "dt": "2023.11.29 13:00",
    "o": 1.3586,
    "h": 1.35886,
    "l": 1.35663,
    "c": 1.35672,
    "v": 1501
  },
  {
    "dt": "2023.11.29 14:00",
    "o": 1.35672,
    "h": 1.35786,
    "l": 1.35646,
    "c": 1.35752,
    "v": 2034
  },
  {
    "dt": "2023.11.29 15:00",
    "o": 1.35749,
    "h": 1.35927,
    "l": 1.35746,
    "c": 1.35924,
    "v": 3695
  },
  {
    "dt": "2023.11.29 16:00",
    "o": 1.35926,
    "h": 1.36022,
    "l": 1.35727,
    "c": 1.35854,
    "v": 3959
  },
  {
    "dt": "2023.11.29 17:00",
    "o": 1.35853,
    "h": 1.36115,
    "l": 1.35655,
    "c": 1.35883,
    "v": 4555
  },
  {
    "dt": "2023.11.29 18:00",
    "o": 1.35881,
    "h": 1.36137,
    "l": 1.35837,
    "c": 1.35952,
    "v": 3006
  },
  {
    "dt": "2023.11.29 19:00",
    "o": 1.35952,
    "h": 1.35992,
    "l": 1.3582,
    "c": 1.3583,
    "v": 2148
  },
  {
    "dt": "2023.11.29 20:00",
    "o": 1.35829,
    "h": 1.35881,
    "l": 1.35755,
    "c": 1.35781,
    "v": 1743
  },
  {
    "dt": "2023.11.29 21:00",
    "o": 1.3578,
    "h": 1.35891,
    "l": 1.357,
    "c": 1.3583,
    "v": 1848
  },
  {
    "dt": "2023.11.29 22:00",
    "o": 1.3583,
    "h": 1.35982,
    "l": 1.35822,
    "c": 1.3593,
    "v": 1751
  },
  {
    "dt": "2023.11.29 23:00",
    "o": 1.35931,
    "h": 1.35935,
    "l": 1.35839,
    "c": 1.35875,
    "v": 719
  },
  {
    "dt": "2023.11.30 00:00",
    "o": 1.35811,
    "h": 1.35886,
    "l": 1.35797,
    "c": 1.35848,
    "v": 435
  },
  {
    "dt": "2023.11.30 01:00",
    "o": 1.35858,
    "h": 1.35913,
    "l": 1.3585,
    "c": 1.35909,
    "v": 429
  },
  {
    "dt": "2023.11.30 02:00",
    "o": 1.35909,
    "h": 1.35916,
    "l": 1.35826,
    "c": 1.3583,
    "v": 809
  },
  {
    "dt": "2023.11.30 03:00",
    "o": 1.3583,
    "h": 1.35927,
    "l": 1.35818,
    "c": 1.35913,
    "v": 1406
  },
  {
    "dt": "2023.11.30 04:00",
    "o": 1.35914,
    "h": 1.35923,
    "l": 1.35764,
    "c": 1.35773,
    "v": 1300
  },
  {
    "dt": "2023.11.30 05:00",
    "o": 1.35771,
    "h": 1.35815,
    "l": 1.3576,
    "c": 1.35775,
    "v": 919
  },
  {
    "dt": "2023.11.30 06:00",
    "o": 1.35775,
    "h": 1.35781,
    "l": 1.35734,
    "c": 1.35744,
    "v": 815
  },
  {
    "dt": "2023.11.30 07:00",
    "o": 1.35741,
    "h": 1.35808,
    "l": 1.35729,
    "c": 1.35779,
    "v": 986
  },
  {
    "dt": "2023.11.30 08:00",
    "o": 1.35778,
    "h": 1.35778,
    "l": 1.3566,
    "c": 1.35735,
    "v": 1184
  },
  {
    "dt": "2023.11.30 09:00",
    "o": 1.35737,
    "h": 1.35987,
    "l": 1.35722,
    "c": 1.35844,
    "v": 1830
  },
  {
    "dt": "2023.11.30 10:00",
    "o": 1.3584,
    "h": 1.36057,
    "l": 1.35751,
    "c": 1.36045,
    "v": 2795
  },
  {
    "dt": "2023.11.30 11:00",
    "o": 1.36048,
    "h": 1.36063,
    "l": 1.35968,
    "c": 1.36047,
    "v": 2377
  },
  {
    "dt": "2023.11.30 12:00",
    "o": 1.36045,
    "h": 1.36148,
    "l": 1.35992,
    "c": 1.36054,
    "v": 2048
  },
  {
    "dt": "2023.11.30 13:00",
    "o": 1.36053,
    "h": 1.36186,
    "l": 1.36011,
    "c": 1.36089,
    "v": 1874
  },
  {
    "dt": "2023.11.30 14:00",
    "o": 1.36087,
    "h": 1.36133,
    "l": 1.36014,
    "c": 1.36079,
    "v": 1910
  },
  {
    "dt": "2023.11.30 15:00",
    "o": 1.36081,
    "h": 1.36241,
    "l": 1.35871,
    "c": 1.36191,
    "v": 3730
  },
  {
    "dt": "2023.11.30 16:00",
    "o": 1.36189,
    "h": 1.36254,
    "l": 1.35873,
    "c": 1.35873,
    "v": 4977
  },
  {
    "dt": "2023.11.30 17:00",
    "o": 1.3587,
    "h": 1.35873,
    "l": 1.35512,
    "c": 1.35625,
    "v": 5546
  },
  {
    "dt": "2023.11.30 18:00",
    "o": 1.35626,
    "h": 1.35882,
    "l": 1.35528,
    "c": 1.35856,
    "v": 3991
  },
  {
    "dt": "2023.11.30 19:00",
    "o": 1.35857,
    "h": 1.35864,
    "l": 1.35764,
    "c": 1.35832,
    "v": 2334
  },
  {
    "dt": "2023.11.30 20:00",
    "o": 1.35834,
    "h": 1.35836,
    "l": 1.35686,
    "c": 1.35737,
    "v": 1995
  },
  {
    "dt": "2023.11.30 21:00",
    "o": 1.35736,
    "h": 1.3574,
    "l": 1.35629,
    "c": 1.35659,
    "v": 1676
  },
  {
    "dt": "2023.11.30 22:00",
    "o": 1.3566,
    "h": 1.35749,
    "l": 1.35634,
    "c": 1.35672,
    "v": 1863
  },
  {
    "dt": "2023.11.30 23:00",
    "o": 1.35675,
    "h": 1.3569,
    "l": 1.35573,
    "c": 1.35581,
    "v": 744
  }
]