[
  {
    "dt": "2019.11.27 13:00",
    "o": 1.05551,
    "h": 1.05587,
    "l": 1.05536,
    "c": 1.05537,
    "v": 1655
  },
  {
    "dt": "2019.11.27 14:00",
    "o": 1.05538,
    "h": 1.05556,
    "l": 1.05487,
    "c": 1.05518,
    "v": 1554
  },
  {
    "dt": "2019.11.27 15:00",
    "o": 1.05519,
    "h": 1.0559,
    "l": 1.05485,
    "c": 1.05573,
    "v": 2317
  },
  {
    "dt": "2019.11.27 16:00",
    "o": 1.05576,
    "h": 1.05682,
    "l": 1.05522,
    "c": 1.05648,
    "v": 2414
  },
  {
    "dt": "2019.11.27 17:00",
    "o": 1.05628,
    "h": 1.05632,
    "l": 1.05527,
    "c": 1.05556,
    "v": 2229
  },
  {
    "dt": "2019.11.27 18:00",
    "o": 1.05556,
    "h": 1.05567,
    "l": 1.05453,
    "c": 1.0546,
    "v": 2088
  },
  {
    "dt": "2019.11.27 19:00",
    "o": 1.05459,
    "h": 1.05532,
    "l": 1.0544,
    "c": 1.0551,
    "v": 1334
  },
  {
    "dt": "2019.11.27 20:00",
    "o": 1.0552,
    "h": 1.05546,
    "l": 1.05501,
    "c": 1.05534,
    "v": 929
  },
  {
    "dt": "2019.11.27 21:00",
    "o": 1.05534,
    "h": 1.05554,
    "l": 1.05485,
    "c": 1.0549,
    "v": 978
  },
  {
    "dt": "2019.11.27 22:00",
    "o": 1.05491,
    "h": 1.0555,
    "l": 1.05491,
    "c": 1.05533,
    "v": 1073
  },
  {
    "dt": "2019.11.27 23:00",
    "o": 1.05537,
    "h": 1.05541,
    "l": 1.05485,
    "c": 1.05503,
    "v": 699
  },
  {
    "dt": "2019.11.28 00:00",
    "o": 1.05509,
    "h": 1.05555,
    "l": 1.05474,
    "c": 1.05482,
    "v": 792
  },
  {
    "dt": "2019.11.28 01:00",
    "o": 1.05487,
    "h": 1.05588,
    "l": 1.05394,
    "c": 1.05439,
    "v": 1474
  },
  {
    "dt": "2019.11.28 02:00",
    "o": 1.05452,
    "h": 1.05457,
    "l": 1.05254,
    "c": 1.05305,
    "v": 2452
  },
  {
    "dt": "2019.11.28 03:00",
    "o": 1.05305,
    "h": 1.05343,
    "l": 1.05289,
    "c": 1.05336,
    "v": 1807
  },
  {
    "dt": "2019.11.28 04:00",
    "o": 1.05335,
    "h": 1.05355,
    "l": 1.05309,
    "c": 1.05316,
    "v": 1235
  },
  {
    "dt": "2019.11.28 05:00",
    "o": 1.05316,
    "h": 1.05324,
    "l": 1.05264,
    "c": 1.05271,
    "v": 1047
  },
  {
    "dt": "2019.11.28 06:00",
    "o": 1.05274,
    "h": 1.05285,
    "l": 1.05244,
    "c": 1.05271,
    "v": 758
  },
  {
    "dt": "2019.11.28 07:00",
    "o": 1.05271,
    "h": 1.0532,
    "l": 1.05266,
    "c": 1.05316,
    "v": 865
  },
  {
    "dt": "2019.11.28 08:00",
    "o": 1.05313,
    "h": 1.05339,
    "l": 1.05311,
    "c": 1.05317,
    "v": 1098
  },
  {
    "dt": "2019.11.28 09:00",
    "o": 1.05319,
    "h": 1.0536,
    "l": 1.05284,
    "c": 1.0529,
    "v": 1449
  },
  {
    "dt": "2019.11.28 10:00",
    "o": 1.0529,
    "h": 1.05303,
    "l": 1.05246,
    "c": 1.05297,
    "v": 1494
  },
  {
    "dt": "2019.11.28 11:00",
    "o": 1.05297,
    "h": 1.053,
    "l": 1.05227,
    "c": 1.05238,
    "v": 1313
  },
  {
    "dt": "2019.11.28 12:00",
    "o": 1.05239,
    "h": 1.0533,
    "l": 1.05222,
    "c": 1.05324,
    "v": 972
  },
  {
    "dt": "2019.11.28 13:00",
    "o": 1.05326,
    "h": 1.05385,
    "l": 1.05295,
    "c": 1.05382,
    "v": 1617
  },
  {
    "dt": "2019.11.28 14:00",
    "o": 1.05384,
    "h": 1.05418,
    "l": 1.05383,
    "c": 1.05411,
    "v": 1201
  },
  {
    "dt": "2019.11.28 15:00",
    "o": 1.0541,
    "h": 1.05429,
    "l": 1.05365,
    "c": 1.05381,
    "v": 1239
  },
  {
    "dt": "2019.11.28 16:00",
    "o": 1.05381,
    "h": 1.05479,
    "l": 1.05369,
    "c": 1.0546,
    "v": 1043
  },
  {
    "dt": "2019.11.28 17:00",
    "o": 1.05461,
    "h": 1.05537,
    "l": 1.05457,
    "c": 1.05491,
    "v": 1279
  },
  {
    "dt": "2019.11.28 18:00",
    "o": 1.05494,
    "h": 1.05516,
    "l": 1.05445,
    "c": 1.05471,
    "v": 961
  },
  {
    "dt": "2019.11.28 19:00",
    "o": 1.05475,
    "h": 1.05478,
    "l": 1.05414,
    "c": 1.05462,
    "v": 903
  },
  {
    "dt": "2019.11.28 20:00",
    "o": 1.05462,
    "h": 1.05462,
    "l": 1.0543,
    "c": 1.05449,
    "v": 459
  },
  {
    "dt": "2019.11.28 21:00",
    "o": 1.05451,
    "h": 1.05468,
    "l": 1.0541,
    "c": 1.05431,
    "v": 835
  },
  {
    "dt": "2019.11.28 22:00",
    "o": 1.05431,
    "h": 1.05464,
    "l": 1.05422,
    "c": 1.05429,
    "v": 1089
  },
  {
    "dt": "2019.11.28 23:00",
    "o": 1.05423,
    "h": 1.0549,
    "l": 1.05413,
    "c": 1.05426,
    "v": 1211
  },
  {
    "dt": "2019.11.29 00:00",
    "o": 1.05419,
    "h": 1.05477,
    "l": 1.05412,
    "c": 1.05439,
    "v": 681
  },
  {
    "dt": "2019.11.29 01:00",
    "o": 1.05438,
    "h": 1.05451,
    "l": 1.05408,
    "c": 1.05411,
    "v": 1321
  },
  {
    "dt": "2019.11.29 02:00",
    "o": 1.05413,
    "h": 1.05461,
    "l": 1.05397,
    "c": 1.0543,
    "v": 1377
  },
  {
    "dt": "2019.11.29 03:00",
    "o": 1.05429,
    "h": 1.05446,
    "l": 1.05343,
    "c": 1.05381,
    "v": 1497
  },
  {
    "dt": "2019.11.29 04:00",
    "o": 1.05381,
    "h": 1.05426,
    "l": 1.05372,
    "c": 1.05414,
    "v": 1272
  },
  {
    "dt": "2019.11.29 05:00",
    "o": 1.05415,
    "h": 1.05425,
    "l": 1.05377,
    "c": 1.05404,
    "v": 1125
  },
  {
    "dt": "2019.11.29 06:00",
    "o": 1.05404,
    "h": 1.05489,
    "l": 1.05392,
    "c": 1.05484,
    "v": 1185
  },
  {
    "dt": "2019.11.29 07:00",
    "o": 1.05478,
    "h": 1.05497,
    "l": 1.0547,
    "c": 1.05488,
    "v": 1186
  },
  {
    "dt": "2019.11.29 08:00",
    "o": 1.05488,
    "h": 1.05493,
    "l": 1.05412,
    "c": 1.05422,
    "v": 1213
  },
  {
    "dt": "2019.11.29 09:00",
    "o": 1.05421,
    "h": 1.0546,
    "l": 1.05402,
    "c": 1.05416,
    "v": 1027
  },
  {
    "dt": "2019.11.29 10:00",
    "o": 1.05419,
    "h": 1.05422,
    "l": 1.05329,
    "c": 1.05336,
    "v": 1171
  },
  {
    "dt": "2019.11.29 11:00",
    "o": 1.05336,
    "h": 1.05351,
    "l": 1.05283,
    "c": 1.05304,
    "v": 1275
  },
  {
    "dt": "2019.11.29 12:00",
    "o": 1.05306,
    "h": 1.05337,
    "l": 1.05281,
    "c": 1.05329,
    "v": 1107
  },
  {
    "dt": "2019.11.29 13:00",
    "o": 1.05328,
    "h": 1.05392,
    "l": 1.05324,
    "c": 1.05332,
    "v": 988
  },
  {
    "dt": "2019.11.29 14:00",
    "o": 1.05332,
    "h": 1.05348,
    "l": 1.05253,
    "c": 1.05279,
    "v": 1079
  },
  {
    "dt": "2019.11.29 15:00",
    "o": 1.05279,
    "h": 1.05359,
    "l": 1.0522,
    "c": 1.05352,
    "v": 1934
  },
  {
    "dt": "2019.11.29 16:00",
    "o": 1.05352,
    "h": 1.05401,
    "l": 1.05339,
    "c": 1.05372,
    "v": 1819
  },
  {
    "dt": "2019.11.29 17:00",
    "o": 1.05371,
    "h": 1.05429,
    "l": 1.05328,
    "c": 1.05365,
    "v": 2504
  },
  {
    "dt": "2019.11.29 18:00",
    "o": 1.05364,
    "h": 1.054,
    "l": 1.05276,
    "c": 1.05327,
    "v": 2401
  },
  {
    "dt": "2019.11.29 19:00",
    "o": 1.05327,
    "h": 1.05388,
    "l": 1.05312,
    "c": 1.05312,
    "v": 1541
  },
  {
    "dt": "2019.11.29 20:00",
    "o": 1.05315,
    "h": 1.0539,
    "l": 1.05311,
    "c": 1.05357,
    "v": 666
  },
  {
    "dt": "2019.11.29 21:00",
    "o": 1.05357,
    "h": 1.05408,
    "l": 1.05339,
    "c": 1.05389,
    "v": 585
  },
  {
    "dt": "2019.11.29 22:00",
    "o": 1.05391,
    "h": 1.054,
    "l": 1.0533,
    "c": 1.05355,
    "v": 866
  },
  {
    "dt": "2019.11.29 23:00",
    "o": 1.05352,
    "h": 1.05379,
    "l": 1.05228,
    "c": 1.05272,
    "v": 883
  }
]